[Result_Camera1]
tag_number,timing_edge_derivative(pixel),timing_edge_fitting(pixel),xfel_bl_3_st_2_motor_1/position [pulse],xfel_bl_3_st_1_motor_73/position [pulse],xfel_bl_3_st_2_motor_2/position [pulse],xfel_bl_3_lh1_shutter_1_open_valid/status,xfel_bl_3_lh1_shutter_1_close_valid/status
1490588170,892.500000,900.151970,-140,-26700,-13000,1,0
1490588172,917.500000,913.082902,-140,-26700,-13000,1,0
1490588174,911.500000,903.719893,-140,-26700,-13000,1,0
1490588176,914.500000,906.679614,-140,-26700,-13000,1,0
1490588178,932.500000,935.661050,-140,-26700,-13000,1,0
1490588180,893.500000,899.450713,-140,-26700,-13000,1,0
1490588182,925.500000,928.164789,-140,-26700,-13000,1,0
1490588184,921.500000,921.462913,-140,-26700,-13000,1,0
1490588186,909.500000,903.701442,-140,-26700,-13000,1,0
1490588188,895.500000,900.140685,-140,-26700,-13000,1,0
1490588190,885.500000,888.404618,-140,-26700,-13000,1,0
1490588192,880.500000,881.330012,-140,-26700,-13000,1,0
1490588194,885.500000,889.041729,-140,-26700,-13000,1,0
1490588196,882.500000,884.907258,-140,-26700,-13000,1,0
1490588198,872.500000,869.586898,-140,-26700,-13000,1,0
1490588200,874.500000,871.843874,-140,-26700,-13000,1,0
1490588202,881.500000,882.911302,-140,-26700,-13000,1,0
1490588204,875.500000,873.885643,-140,-26700,-13000,1,0
1490588206,886.500000,890.133551,-140,-26700,-13000,1,0
1490588208,854.500000,856.256636,-140,-26700,-13000,1,0
1490588210,911.500000,904.631511,-140,-26700,-13000,1,0
1490588212,879.500000,879.516558,-140,-26700,-13000,1,0
1490588214,882.500000,884.054416,-140,-26700,-13000,1,0
1490588216,877.500000,876.902035,-140,-26700,-13000,1,0
1490588218,863.500000,863.512113,-140,-26700,-13000,1,0
1490588220,881.500000,882.657978,-140,-26700,-13000,1,0
1490588222,857.500000,858.985262,-140,-26700,-13000,1,0
1490588224,853.500000,855.751174,-140,-26700,-13000,1,0
1490588226,871.500000,868.444766,-140,-26700,-13000,1,0
1490588228,867.500000,865.472396,-140,-26700,-13000,1,0
1490588230,862.500000,862.452222,-140,-26700,-13000,1,0
1490588232,864.500000,864.882324,-140,-26700,-13000,1,0
1490588234,858.500000,860.662262,-140,-26700,-13000,1,0
1490588236,845.500000,847.595811,-140,-26700,-13000,1,0
1490588238,852.500000,854.924876,-140,-26700,-13000,1,0
1490588240,834.500000,837.831722,-140,-26700,-13000,1,0
1490588242,873.500000,870.892698,-140,-26700,-13000,1,0
1490588244,886.500000,892.425147,-140,-26700,-13000,1,0
1490588246,861.500000,862.413348,-140,-26700,-13000,1,0
1490588248,850.500000,852.224340,-140,-26700,-13000,1,0
1490588250,872.500000,869.648243,-140,-26700,-13000,1,0
1490588252,853.500000,855.333025,-140,-26700,-13000,1,0
1490588254,878.500000,878.643694,-140,-26700,-13000,1,0
1490588256,856.500000,857.970254,-140,-26700,-13000,1,0
1490588258,879.500000,879.905804,-140,-26700,-13000,1,0
1490588260,870.500000,867.853542,-140,-26700,-13000,1,0
1490588262,852.500000,854.991085,-140,-26700,-13000,1,0
1490588264,875.500000,873.498893,-140,-26700,-13000,1,0
1490588266,873.500000,871.508173,-140,-26700,-13000,1,0
1490588268,874.500000,873.689682,-140,-26700,-13000,1,0
1490588270,872.500000,870.158977,-140,-26700,-13000,1,0
1490588272,868.500000,867.292864,-140,-26700,-13000,1,0
1490588274,852.500000,854.414957,-140,-26700,-13000,1,0
1490588276,865.500000,865.077825,-140,-26700,-13000,1,0
1490588278,864.500000,865.044492,-140,-26700,-13000,1,0
1490588280,869.500000,867.942965,-140,-26700,-13000,1,0
1490588282,876.500000,876.699362,-140,-26700,-13000,1,0
1490588284,874.500000,872.914992,-140,-26700,-13000,1,0
1490588286,875.500000,875.198299,-140,-26700,-13000,1,0
1490588288,883.500000,886.910341,-140,-26700,-13000,1,0
1490588290,873.500000,870.717228,-140,-26700,-13000,1,0
1490588292,883.500000,885.663458,-140,-26700,-13000,1,0
1490588294,881.500000,882.756972,-140,-26700,-13000,1,0
1490588296,877.500000,876.668794,-140,-26700,-13000,1,0
1490588298,889.500000,897.995331,-140,-26700,-13000,1,0
1490588300,870.500000,868.440599,-140,-26700,-13000,1,0
1490588302,883.500000,886.490438,-140,-26700,-13000,1,0
1490588304,877.500000,878.024188,-140,-26700,-13000,1,0
1490588306,873.500000,871.490532,-140,-26700,-13000,1,0
1490588308,883.500000,887.952465,-140,-26700,-13000,1,0
1490588310,877.500000,878.414027,-140,-26700,-13000,1,0
1490588312,857.500000,860.146858,-140,-26700,-13000,1,0
1490588314,882.500000,886.178928,-140,-26700,-13000,1,0
1490588316,894.500000,900.938000,-140,-26700,-13000,1,0
1490588318,853.500000,856.292016,-140,-26700,-13000,1,0
1490588320,868.500000,867.415468,-140,-26700,-13000,1,0
1490588322,881.500000,884.105875,-140,-26700,-13000,1,0
1490588324,845.500000,847.313144,-140,-26700,-13000,1,0
1490588326,879.500000,880.918060,-140,-26700,-13000,1,0
1490588328,862.500000,863.036484,-140,-26700,-13000,1,0
1490588330,851.500000,854.785887,-140,-26700,-13000,1,0
1490588332,859.500000,861.494049,-140,-26700,-13000,1,0
1490588334,874.500000,873.379652,-140,-26700,-13000,1,0
1490588336,849.500000,852.718121,-140,-26700,-13000,1,0
1490588338,871.500000,870.067896,-140,-26700,-13000,1,0
1490588340,853.500000,856.003225,-140,-26700,-13000,1,0
1490588342,879.500000,880.589317,-140,-26700,-13000,1,0
1490588344,868.500000,867.283478,-140,-26700,-13000,1,0
1490588346,876.500000,875.936875,-140,-26700,-13000,1,0
1490588348,894.500000,901.192134,-140,-26700,-13000,1,0
1490588350,877.500000,877.241968,-140,-26700,-13000,1,0
1490588352,883.500000,887.779593,-140,-26700,-13000,1,0
1490588354,883.500000,888.439287,-140,-26700,-13000,1,0
1490588356,882.500000,860.042583,-140,-26700,-13000,1,0
1490588358,889.500000,897.341737,-140,-26700,-13000,1,0
1490588360,915.500000,904.719010,-140,-26700,-13000,1,0
1490588362,888.500000,896.753970,-140,-26700,-13000,1,0
1490588364,915.500000,911.782149,-140,-26700,-13000,1,0
1490588366,922.500000,925.330449,-140,-26700,-13000,1,0
1490588368,924.500000,928.204327,-140,-26700,-13000,1,0
1490588370,929.500000,935.157452,-140,-26700,-13000,1,0
1490588372,915.500000,907.421879,-140,-26700,-13000,1,0
1490588374,928.500000,932.756608,-140,-26700,-13000,1,0
1490588376,948.500000,948.746140,-140,-26700,-13000,1,0
1490588378,923.500000,926.160549,-140,-26700,-13000,1,0
1490588380,924.500000,928.070997,-140,-26700,-13000,1,0
1490588382,925.500000,929.220828,-140,-26700,-13000,1,0
1490588384,916.500000,911.798582,-140,-26700,-13000,1,0
1490588386,941.500000,942.496751,-140,-26700,-13000,1,0
1490588388,921.500000,924.303505,-140,-26700,-13000,1,0
1490588390,923.500000,926.694105,-140,-26700,-13000,1,0
1490588392,938.500000,941.375057,-140,-26700,-13000,1,0
1490588394,923.500000,927.271948,-140,-26700,-13000,1,0
1490588396,928.500000,933.004785,-140,-26700,-13000,1,0
1490588398,926.500000,932.101505,-140,-26700,-13000,1,0
1490588400,916.500000,912.754947,-140,-26700,-13000,1,0
1490588402,917.500000,915.173041,-140,-26700,-13000,1,0
1490588404,911.500000,904.340946,-140,-26700,-13000,1,0
1490588406,916.500000,911.164954,-140,-26700,-13000,1,0
1490588408,921.500000,924.319219,-140,-26700,-13000,1,0
1490588410,883.500000,889.630861,-140,-26700,-13000,1,0
1490588412,914.500000,908.703287,-140,-26700,-13000,1,0
1490588414,913.500000,904.965712,-140,-26700,-13000,1,0
1490588416,883.500000,889.004575,-140,-26700,-13000,1,0
1490588418,885.500000,891.886115,-140,-26700,-13000,1,0
1490588420,917.500000,911.308173,-140,-26700,-13000,1,0
1490588422,916.500000,905.505980,-140,-26700,-13000,1,0
1490588424,890.500000,896.806915,-140,-26700,-13000,1,0
1490588426,913.500000,906.402589,-140,-26700,-13000,1,0
1490588428,887.500000,896.692466,-140,-26700,-13000,1,0
1490588430,913.500000,909.203745,-140,-26700,-13000,1,0
1490588432,879.500000,880.253448,-140,-26700,-13000,1,0
1490588434,893.500000,900.390174,-140,-26700,-13000,1,0
1490588436,882.500000,886.754567,-140,-26700,-13000,1,0
1490588438,889.500000,895.863579,-140,-26700,-13000,1,0
1490588440,874.500000,872.799243,-140,-26700,-13000,1,0
1490588442,883.500000,887.614982,-140,-26700,-13000,1,0
1490588444,915.500000,912.306040,-140,-26700,-13000,1,0
1490588446,893.500000,900.734025,-140,-26700,-13000,1,0
1490588448,895.500000,901.702767,-140,-26700,-13000,1,0
1490588450,919.500000,920.934385,-140,-26700,-13000,1,0
1490588452,886.500000,896.484435,-140,-26700,-13000,1,0
1490588454,924.500000,927.747797,-140,-26700,-13000,1,0
1490588456,919.500000,919.308513,-140,-26700,-13000,1,0
1490588458,916.500000,912.870287,-140,-26700,-13000,1,0
1490588460,921.500000,924.510977,-140,-26700,-13000,1,0
1490588462,927.500000,931.379445,-140,-26700,-13000,1,0
1490588464,935.500000,939.033107,-140,-26700,-13000,1,0
1490588466,922.500000,926.547697,-140,-26700,-13000,1,0
1490588468,947.500000,946.510336,-140,-26700,-13000,1,0
1490588470,935.500000,938.371135,-140,-26700,-13000,1,0
1490588472,934.500000,938.290270,-140,-26700,-13000,1,0
1490588474,926.500000,929.273110,-140,-26700,-13000,1,0
1490588476,920.500000,920.787552,-140,-26700,-13000,1,0
1490588478,914.500000,908.506521,-140,-26700,-13000,1,0
1490588480,932.500000,936.999085,-140,-26700,-13000,1,0
1490588482,927.500000,930.905919,-140,-26700,-13000,1,0
1490588484,929.500000,933.572485,-140,-26700,-13000,1,0
1490588486,930.500000,934.158969,-140,-26700,-13000,1,0
1490588488,931.500000,934.884989,-140,-26700,-13000,1,0
1490588490,942.500000,943.058806,-140,-26700,-13000,1,0
1490588492,930.500000,934.079769,-140,-26700,-13000,1,0
1490588494,918.500000,916.356183,-140,-26700,-13000,1,0
1490588496,929.500000,933.678077,-140,-26700,-13000,1,0
1490588498,927.500000,931.572628,-140,-26700,-13000,1,0
1490588500,931.500000,935.915334,-140,-26700,-13000,1,0
1490588502,931.500000,935.228100,-140,-26700,-13000,1,0
1490588504,928.500000,933.034484,-140,-26700,-13000,1,0
1490588506,927.500000,931.470427,-140,-26700,-13000,1,0
1490588508,927.500000,930.747439,-140,-26700,-13000,1,0
1490588510,920.500000,923.315554,-140,-26700,-13000,1,0
1490588512,941.500000,942.219801,-140,-26700,-13000,1,0
1490588514,941.500000,942.124729,-140,-26700,-13000,1,0
1490588516,917.500000,914.876999,-140,-26700,-13000,1,0
1490588518,925.500000,929.393482,-140,-26700,-13000,1,0
1490588520,931.500000,935.983669,-140,-26700,-13000,1,0
1490588522,916.500000,913.751013,-140,-26700,-13000,1,0
1490588524,926.500000,929.989961,-140,-26700,-13000,1,0
1490588526,928.500000,932.541191,-140,-26700,-13000,1,0
1490588528,922.500000,926.368245,-140,-26700,-13000,1,0
1490588530,951.500000,951.659724,-140,-26700,-13000,1,0
1490588532,923.500000,926.090913,-140,-26700,-13000,1,0
1490588534,921.500000,924.189685,-140,-26700,-13000,1,0
1490588536,925.500000,928.442817,-140,-26700,-13000,1,0
1490588538,897.500000,902.744139,-140,-26700,-13000,1,0
1490588540,940.500000,941.551840,-140,-26700,-13000,1,0
1490588542,935.500000,938.055252,-140,-26700,-13000,1,0
1490588544,900.500000,903.297510,-140,-26700,-13000,1,0
1490588546,919.500000,920.509956,-140,-26700,-13000,1,0
1490588548,916.500000,911.758893,-140,-26700,-13000,1,0
1490588550,916.500000,912.282317,-140,-26700,-13000,1,0
1490588552,924.500000,927.706608,-140,-26700,-13000,1,0
1490588554,933.500000,936.599640,-140,-26700,-13000,1,0
1490588556,925.500000,928.311226,-140,-26700,-13000,1,0
1490588558,934.500000,938.005231,-140,-26700,-13000,1,0
1490588560,924.500000,927.717758,-140,-26700,-13000,1,0
1490588562,938.500000,940.862779,-140,-26700,-13000,1,0
1490588564,943.500000,943.662947,-140,-26700,-13000,1,0
1490588566,927.500000,930.388072,-140,-26700,-13000,1,0
1490588568,920.500000,922.402874,-140,-26700,-13000,1,0
1490588570,924.500000,928.348960,-140,-26700,-13000,1,0
1490588572,922.500000,925.663187,-140,-26700,-13000,1,0
1490588574,939.500000,941.065249,-140,-26700,-13000,1,0
1490588576,936.500000,939.587999,-140,-26700,-13000,1,0
1490588578,890.500000,896.852558,-140,-26700,-13000,1,0
1490588580,932.500000,935.458419,-140,-26700,-13000,1,0
1490588582,928.500000,932.965517,-140,-26700,-13000,1,0
1490588584,927.500000,931.179269,-140,-26700,-13000,1,0
1490588586,923.500000,926.864387,-140,-26700,-13000,1,0
1490588588,918.500000,917.588529,-140,-26700,-13000,1,0
1490588590,917.500000,916.078866,-140,-26700,-13000,1,0
1490588592,931.500000,935.252229,-140,-26700,-13000,1,0
1490588594,921.500000,924.781671,-140,-26700,-13000,1,0
1490588596,919.500000,920.652216,-140,-26700,-13000,1,0
1490588598,923.500000,925.849117,-140,-26700,-13000,1,0
1490588600,920.500000,923.099642,-140,-26700,-13000,1,0
1490588602,925.500000,928.887529,-140,-26700,-13000,1,0
1490588604,925.500000,928.441927,-140,-26700,-13000,1,0
1490588606,921.500000,922.702126,-140,-26700,-13000,1,0
1490588608,922.500000,925.745345,-140,-26700,-13000,1,0
1490588610,925.500000,927.491857,-140,-26700,-13000,1,0
1490588612,926.500000,930.000721,-140,-26700,-13000,1,0
1490588614,925.500000,930.567513,-140,-26700,-13000,1,0
1490588616,924.500000,929.286684,-140,-26700,-13000,1,0
1490588618,892.500000,901.133906,-140,-26700,-13000,1,0
1490588620,925.500000,929.598776,-140,-26700,-13000,1,0
1490588622,923.500000,926.061348,-140,-26700,-13000,1,0
1490588624,918.500000,918.304281,-140,-26700,-13000,1,0
1490588626,926.500000,931.015382,-140,-26700,-13000,1,0
1490588628,919.500000,920.781558,-140,-26700,-13000,1,0
1490588630,927.500000,930.719547,-140,-26700,-13000,1,0
1490588632,922.500000,926.510319,-140,-26700,-13000,1,0
1490588634,917.500000,916.365930,-140,-26700,-13000,1,0
1490588636,918.500000,918.629930,-140,-26700,-13000,1,0
1490588638,923.500000,924.887763,-140,-26700,-13000,1,0
1490588640,925.500000,928.600711,-140,-26700,-13000,1,0
1490588642,933.500000,937.066299,-140,-26700,-13000,1,0
1490588644,915.500000,912.740304,-140,-26700,-13000,1,0
1490588646,916.500000,912.655177,-140,-26700,-13000,1,0
1490588648,911.500000,906.729472,-140,-26700,-13000,1,0
1490588650,932.500000,934.907171,-140,-26700,-13000,1,0
1490588652,914.500000,910.429513,-140,-26700,-13000,1,0
1490588654,931.500000,936.243897,-140,-26700,-13000,1,0
1490588656,923.500000,927.922579,-140,-26700,-13000,1,0
1490588658,920.500000,922.235128,-140,-26700,-13000,1,0
1490588660,919.500000,919.907702,-140,-26700,-13000,1,0
1490588662,914.500000,907.214112,-140,-26700,-13000,1,0
1490588664,915.500000,905.092628,-140,-26700,-13000,1,0
1490588666,924.500000,927.803773,-140,-26700,-13000,1,0
1490588668,913.500000,903.979894,-140,-26700,-13000,1,0
1490588670,919.500000,918.809193,-140,-26700,-13000,1,0
1490588672,876.500000,876.045540,-140,-26700,-13000,1,0
1490588674,888.500000,896.339163,-140,-26700,-13000,1,0
1490588676,918.500000,915.864955,-140,-26700,-13000,1,0
1490588678,886.500000,892.910378,-140,-26700,-13000,1,0
1490588680,890.500000,898.000448,-140,-26700,-13000,1,0
1490588682,884.500000,890.158537,-140,-26700,-13000,1,0
1490588684,888.500000,901.384004,-140,-26700,-13000,1,0
1490588686,891.500000,900.346144,-140,-26700,-13000,1,0
1490588688,880.500000,882.836937,-140,-26700,-13000,1,0
1490588690,884.500000,890.224383,-140,-26700,-13000,1,0
1490588692,882.500000,886.919915,-140,-26700,-13000,1,0
1490588694,915.500000,905.287251,-140,-26700,-13000,1,0
1490588696,885.500000,890.563453,-140,-26700,-13000,1,0
1490588698,874.500000,874.086369,-140,-26700,-13000,1,0
1490588700,850.500000,852.586457,-140,-26700,-13000,1,0
1490588702,875.500000,875.091806,-140,-26700,-13000,1,0
1490588704,916.500000,912.916798,-140,-26700,-13000,1,0
1490588706,880.500000,882.923355,-140,-26700,-13000,1,0
1490588708,892.500000,899.358289,-140,-26700,-13000,1,0
1490588710,879.500000,881.806982,-140,-26700,-13000,1,0
1490588712,870.500000,868.852580,-140,-26700,-13000,1,0
1490588714,885.500000,890.201544,-140,-26700,-13000,1,0
1490588716,862.500000,863.301109,-140,-26700,-13000,1,0
1490588718,898.500000,903.076255,-140,-26700,-13000,1,0
1490588720,883.500000,888.652564,-140,-26700,-13000,1,0
1490588722,890.500000,897.632935,-140,-26700,-13000,1,0
1490588724,887.500000,894.319036,-140,-26700,-13000,1,0
1490588726,883.500000,887.385623,-140,-26700,-13000,1,0
1490588728,885.500000,890.928918,-140,-26700,-13000,1,0
1490588730,880.500000,883.296946,-140,-26700,-13000,1,0
1490588732,878.500000,879.371042,-140,-26700,-13000,1,0
1490588734,884.500000,889.812049,-140,-26700,-13000,1,0
1490588736,910.500000,903.455651,-140,-26700,-13000,1,0
1490588738,881.500000,884.888676,-140,-26700,-13000,1,0
1490588740,887.500000,892.755448,-140,-26700,-13000,1,0
1490588742,874.500000,872.331790,-140,-26700,-13000,1,0
1490588744,892.500000,899.551862,-140,-26700,-13000,1,0
1490588746,891.500000,897.199131,-140,-26700,-13000,1,0
1490588748,888.500000,893.232925,-140,-26700,-13000,1,0
1490588750,885.500000,889.187497,-140,-26700,-13000,1,0
1490588752,873.500000,870.981112,-140,-26700,-13000,1,0
1490588754,898.500000,902.345617,-140,-26700,-13000,1,0
1490588756,890.500000,899.548036,-140,-26700,-13000,1,0
1490588758,881.500000,884.880632,-140,-26700,-13000,1,0
1490588760,892.500000,898.546477,-140,-26700,-13000,1,0
1490588762,914.500000,905.647996,-140,-26700,-13000,1,0
1490588764,878.500000,880.445334,-140,-26700,-13000,1,0
1490588766,923.500000,925.192629,-140,-26700,-13000,1,0
1490588768,916.500000,913.189624,-140,-26700,-13000,1,0
