[Result_Camera1]
tag_number,timing_edge_derivative(pixel),timing_edge_fitting(pixel),xfel_bl_3_st_2_motor_1/position [pulse],xfel_bl_3_st_1_motor_73/position [pulse],xfel_bl_3_st_2_motor_2/position [pulse],xfel_bl_3_lh1_shutter_1_open_valid/status,xfel_bl_3_lh1_shutter_1_close_valid/status
1486809990,801.500000,802.319469,200,-26700,-28000,1,0
1486809992,828.500000,829.759939,200,-26700,-28000,1,0
1486809994,811.500000,812.916789,200,-26700,-28000,1,0
1486809996,800.500000,801.591337,200,-26700,-28000,1,0
1486809998,818.500000,819.445650,200,-26700,-28000,1,0
1486810000,821.500000,822.455435,200,-26700,-28000,1,0
1486810002,827.500000,828.070161,200,-26700,-28000,1,0
1486810004,865.500000,865.052962,200,-26700,-28000,1,0
1486810006,869.500000,869.570955,200,-26700,-28000,1,0
1486810008,870.500000,870.017051,200,-26700,-28000,1,0
1486810010,876.500000,877.035715,200,-26700,-28000,1,0
1486810012,884.500000,885.851998,200,-26700,-28000,1,0
1486810014,873.500000,873.756740,200,-26700,-28000,1,0
1486810016,884.500000,885.582869,200,-26700,-28000,1,0
1486810018,879.500000,880.032455,200,-26700,-28000,1,0
1486810020,874.500000,874.329542,200,-26700,-28000,1,0
1486810022,898.500000,899.068289,200,-26700,-28000,1,0
1486810024,886.500000,887.702911,200,-26700,-28000,1,0
1486810026,877.500000,877.733784,200,-26700,-28000,1,0
1486810028,878.500000,879.103211,200,-26700,-28000,1,0
1486810030,880.500000,881.110797,200,-26700,-28000,1,0
1486810032,881.500000,883.166150,200,-26700,-28000,1,0
1486810034,877.500000,877.866550,200,-26700,-28000,1,0
1486810036,870.500000,870.051667,200,-26700,-28000,1,0
1486810038,869.500000,868.636103,200,-26700,-28000,1,0
1486810040,884.500000,885.466393,200,-26700,-28000,1,0
1486810042,840.500000,840.864572,200,-26700,-28000,1,0
1486810044,870.500000,869.247308,200,-26700,-28000,1,0
1486810046,849.500000,850.430220,200,-26700,-28000,1,0
1486810048,846.500000,847.502667,200,-26700,-28000,1,0
1486810050,852.500000,852.875397,200,-26700,-28000,1,0
1486810052,852.500000,853.063868,200,-26700,-28000,1,0
1486810054,828.500000,830.573148,200,-26700,-28000,1,0
1486810056,840.500000,841.469967,200,-26700,-28000,1,0
1486810058,818.500000,819.357895,200,-26700,-28000,1,0
1486810060,833.500000,835.183886,200,-26700,-28000,1,0
1486810062,822.500000,823.461060,200,-26700,-28000,1,0
1486810064,816.500000,816.809346,200,-26700,-28000,1,0
1486810066,815.500000,817.330388,200,-26700,-28000,1,0
1486810068,799.500000,801.305463,200,-26700,-28000,1,0
1486810070,812.500000,814.211142,200,-26700,-28000,1,0
1486810072,821.500000,822.600154,200,-26700,-28000,1,0
1486810074,829.500000,830.566277,200,-26700,-28000,1,0
1486810076,824.500000,825.642799,200,-26700,-28000,1,0
1486810078,845.500000,846.189618,200,-26700,-28000,1,0
1486810080,839.500000,841.993272,200,-26700,-28000,1,0
1486810082,865.500000,864.882699,200,-26700,-28000,1,0
1486810084,871.500000,871.112333,200,-26700,-28000,1,0
1486810086,843.500000,844.986767,200,-26700,-28000,1,0
1486810088,858.500000,858.262882,200,-26700,-28000,1,0
1486810090,879.500000,880.198080,200,-26700,-28000,1,0
1486810092,867.500000,867.405161,200,-26700,-28000,1,0
1486810094,877.500000,878.440709,200,-26700,-28000,1,0
1486810096,875.500000,875.047872,200,-26700,-28000,1,0
1486810098,900.500000,901.858052,200,-26700,-28000,1,0
1486810100,881.500000,882.926232,200,-26700,-28000,1,0
1486810102,867.500000,867.158643,200,-26700,-28000,1,0
1486810104,884.500000,886.066639,200,-26700,-28000,1,0
1486810106,879.500000,880.089201,200,-26700,-28000,1,0
1486810108,891.500000,892.940144,200,-26700,-28000,1,0
1486810110,884.500000,885.525996,200,-26700,-28000,1,0
1486810112,880.500000,881.984154,200,-26700,-28000,1,0
1486810114,875.500000,876.347728,200,-26700,-28000,1,0
1486810116,878.500000,879.227395,200,-26700,-28000,1,0
1486810118,865.500000,865.393890,200,-26700,-28000,1,0
1486810120,887.500000,888.677588,200,-26700,-28000,1,0
1486810122,881.500000,883.102172,200,-26700,-28000,1,0
1486810124,877.500000,878.397494,200,-26700,-28000,1,0
1486810126,862.500000,862.425359,200,-26700,-28000,1,0
1486810128,850.500000,851.266124,200,-26700,-28000,1,0
1486810130,846.500000,847.647680,200,-26700,-28000,1,0
1486810132,872.500000,872.535885,200,-26700,-28000,1,0
1486810134,873.500000,873.440386,200,-26700,-28000,1,0
1486810136,870.500000,870.196379,200,-26700,-28000,1,0
1486810138,863.500000,863.568029,200,-26700,-28000,1,0
1486810140,864.500000,864.326696,200,-26700,-28000,1,0
1486810142,839.500000,840.509489,200,-26700,-28000,1,0
1486810144,853.500000,853.553475,200,-26700,-28000,1,0
1486810146,873.500000,873.029963,200,-26700,-28000,1,0
1486810148,865.500000,865.288750,200,-26700,-28000,1,0
1486810150,871.500000,871.243392,200,-26700,-28000,1,0
1486810152,853.500000,854.518037,200,-26700,-28000,1,0
1486810154,860.500000,859.406222,200,-26700,-28000,1,0
1486810156,856.500000,856.108464,200,-26700,-28000,1,0
1486810158,844.500000,845.102341,200,-26700,-28000,1,0
1486810160,850.500000,850.778622,200,-26700,-28000,1,0
1486810162,850.500000,850.365479,200,-26700,-28000,1,0
1486810164,854.500000,855.273561,200,-26700,-28000,1,0
1486810166,863.500000,863.346656,200,-26700,-28000,1,0
1486810168,840.500000,841.696662,200,-26700,-28000,1,0
1486810170,852.500000,852.930531,200,-26700,-28000,1,0
1486810172,891.500000,892.034604,200,-26700,-28000,1,0
1486810174,880.500000,881.163092,200,-26700,-28000,1,0
1486810176,864.500000,863.931575,200,-26700,-28000,1,0
1486810178,862.500000,862.071144,200,-26700,-28000,1,0
1486810180,859.500000,859.096859,200,-26700,-28000,1,0
1486810182,868.500000,868.021816,200,-26700,-28000,1,0
1486810184,862.500000,861.823670,200,-26700,-28000,1,0
1486810186,855.500000,856.396835,200,-26700,-28000,1,0
1486810188,875.500000,875.748781,200,-26700,-28000,1,0
1486810190,871.500000,870.254267,200,-26700,-28000,1,0
1486810192,837.500000,839.237285,200,-26700,-28000,1,0
1486810194,871.500000,870.855256,200,-26700,-28000,1,0
1486810196,866.500000,866.467552,200,-26700,-28000,1,0
1486810198,867.500000,867.163897,200,-26700,-28000,1,0
1486810200,877.500000,877.741899,200,-26700,-28000,1,0
1486810202,879.500000,881.077154,200,-26700,-28000,1,0
1486810204,870.500000,870.454257,200,-26700,-28000,1,0
1486810206,904.500000,905.656935,200,-26700,-28000,1,0
1486810208,882.500000,883.386832,200,-26700,-28000,1,0
1486810210,868.500000,867.590679,200,-26700,-28000,1,0
1486810212,883.500000,884.401576,200,-26700,-28000,1,0
1486810214,875.500000,876.559463,200,-26700,-28000,1,0
1486810216,868.500000,867.707921,200,-26700,-28000,1,0
1486810218,874.500000,874.265787,200,-26700,-28000,1,0
1486810220,871.500000,871.300570,200,-26700,-28000,1,0
1486810222,894.500000,895.317496,200,-26700,-28000,1,0
1486810224,886.500000,887.593891,200,-26700,-28000,1,0
1486810226,887.500000,887.924536,200,-26700,-28000,1,0
1486810228,884.500000,885.975427,200,-26700,-28000,1,0
1486810230,891.500000,891.771419,200,-26700,-28000,1,0
1486810232,922.500000,922.179509,200,-26700,-28000,1,0
1486810234,903.500000,905.052551,200,-26700,-28000,1,0
1486810236,895.500000,896.071112,200,-26700,-28000,1,0
1486810238,885.500000,886.327923,200,-26700,-28000,1,0
1486810240,908.500000,909.044986,200,-26700,-28000,1,0
1486810242,879.500000,880.691146,200,-26700,-28000,1,0
1486810244,897.500000,898.771783,200,-26700,-28000,1,0
1486810246,899.500000,899.960764,200,-26700,-28000,1,0
1486810248,891.500000,892.505053,200,-26700,-28000,1,0
1486810250,909.500000,909.711871,200,-26700,-28000,1,0
1486810252,908.500000,908.918980,200,-26700,-28000,1,0
1486810254,886.500000,887.194279,200,-26700,-28000,1,0
1486810256,899.500000,899.791159,200,-26700,-28000,1,0
1486810258,920.500000,919.145525,200,-26700,-28000,1,0
1486810260,904.500000,905.119420,200,-26700,-28000,1,0
1486810262,911.500000,912.043570,200,-26700,-28000,1,0
1486810264,906.500000,908.107536,200,-26700,-28000,1,0
1486810266,910.500000,911.872722,200,-26700,-28000,1,0
1486810268,886.500000,888.425222,200,-26700,-28000,1,0
1486810270,916.500000,915.398752,200,-26700,-28000,1,0
1486810272,912.500000,912.182300,200,-26700,-28000,1,0
1486810274,896.500000,897.612266,200,-26700,-28000,1,0
1486810276,901.500000,902.969748,200,-26700,-28000,1,0
1486810278,917.500000,917.237561,200,-26700,-28000,1,0
1486810280,929.500000,930.370909,200,-26700,-28000,1,0
1486810282,915.500000,914.710410,200,-26700,-28000,1,0
1486810284,922.500000,921.338020,200,-26700,-28000,1,0
1486810286,900.500000,901.062165,200,-26700,-28000,1,0
1486810288,930.500000,930.779524,200,-26700,-28000,1,0
1486810290,904.500000,905.224702,200,-26700,-28000,1,0
1486810292,915.500000,914.698094,200,-26700,-28000,1,0
1486810294,917.500000,916.863028,200,-26700,-28000,1,0
1486810296,891.500000,892.340421,200,-26700,-28000,1,0
1486810298,903.500000,903.584684,200,-26700,-28000,1,0
1486810300,906.500000,907.298907,200,-26700,-28000,1,0
1486810302,917.500000,916.659840,200,-26700,-28000,1,0
1486810304,928.500000,928.634810,200,-26700,-28000,1,0
1486810306,896.500000,896.757438,200,-26700,-28000,1,0
1486810308,914.500000,914.185591,200,-26700,-28000,1,0
1486810310,915.500000,914.686646,200,-26700,-28000,1,0
1486810312,928.500000,928.045871,200,-26700,-28000,1,0
1486810314,916.500000,915.558410,200,-26700,-28000,1,0
1486810316,923.500000,921.971044,200,-26700,-28000,1,0
1486810318,911.500000,911.462797,200,-26700,-28000,1,0
1486810320,924.500000,924.101835,200,-26700,-28000,1,0
1486810322,925.500000,925.474534,200,-26700,-28000,1,0
1486810324,896.500000,897.196320,200,-26700,-28000,1,0
1486810326,928.500000,927.999132,200,-26700,-28000,1,0
1486810328,908.500000,908.368913,200,-26700,-28000,1,0
1486810330,892.500000,893.404130,200,-26700,-28000,1,0
1486810332,926.500000,925.381068,200,-26700,-28000,1,0
1486810334,895.500000,895.860305,200,-26700,-28000,1,0
1486810336,936.500000,938.430975,200,-26700,-28000,1,0
1486810338,939.500000,940.941667,200,-26700,-28000,1,0
1486810340,903.500000,903.627094,200,-26700,-28000,1,0
1486810342,953.500000,954.254946,200,-26700,-28000,1,0
1486810344,933.500000,935.960161,200,-26700,-28000,1,0
1486810346,933.500000,935.603998,200,-26700,-28000,1,0
1486810348,917.500000,916.697069,200,-26700,-28000,1,0
1486810350,925.500000,925.642026,200,-26700,-28000,1,0
1486810352,896.500000,896.977650,200,-26700,-28000,1,0
1486810354,908.500000,909.048480,200,-26700,-28000,1,0
1486810356,950.500000,951.285450,200,-26700,-28000,1,0
1486810358,933.500000,935.749236,200,-26700,-28000,1,0
1486810360,914.500000,914.752134,200,-26700,-28000,1,0
1486810362,926.500000,925.843999,200,-26700,-28000,1,0
1486810364,913.500000,913.228582,200,-26700,-28000,1,0
1486810366,924.500000,924.876061,200,-26700,-28000,1,0
1486810368,906.500000,907.109622,200,-26700,-28000,1,0
1486810370,929.500000,929.469648,200,-26700,-28000,1,0
1486810372,935.500000,936.959870,200,-26700,-28000,1,0
1486810374,925.500000,924.549258,200,-26700,-28000,1,0
1486810376,924.500000,923.880597,200,-26700,-28000,1,0
1486810378,926.500000,927.172854,200,-26700,-28000,1,0
1486810380,928.500000,928.652630,200,-26700,-28000,1,0
1486810382,900.500000,901.693308,200,-26700,-28000,1,0
1486810384,888.500000,889.757169,200,-26700,-28000,1,0
1486810386,877.500000,878.297743,200,-26700,-28000,1,0
1486810388,881.500000,882.448563,200,-26700,-28000,1,0
1486810390,870.500000,870.413166,200,-26700,-28000,1,0
1486810392,819.500000,821.604708,200,-26700,-28000,1,0
1486810394,829.500000,830.480580,200,-26700,-28000,1,0
1486810396,820.500000,821.584911,200,-26700,-28000,1,0
1486810398,820.500000,821.106076,200,-26700,-28000,1,0
1486810400,827.500000,828.983972,200,-26700,-28000,1,0
1486810402,821.500000,822.274169,200,-26700,-28000,1,0
1486810404,821.500000,821.843344,200,-26700,-28000,1,0
1486810406,821.500000,823.117189,200,-26700,-28000,1,0
1486810408,804.500000,806.670676,200,-26700,-28000,1,0
1486810410,785.500000,783.436917,200,-26700,-28000,1,0
1486810412,821.500000,822.021761,200,-26700,-28000,1,0
1486810414,789.500000,787.526877,200,-26700,-28000,1,0
1486810416,798.500000,799.937754,200,-26700,-28000,1,0
1486810418,804.500000,806.157667,200,-26700,-28000,1,0
1486810420,802.500000,804.612556,200,-26700,-28000,1,0
1486810422,829.500000,832.652553,200,-26700,-28000,1,0
1486810424,825.500000,827.230372,200,-26700,-28000,1,0
1486810426,824.500000,825.595005,200,-26700,-28000,1,0
1486810428,830.500000,832.450046,200,-26700,-28000,1,0
1486810430,822.500000,822.948657,200,-26700,-28000,1,0
1486810432,856.500000,857.217436,200,-26700,-28000,1,0
1486810434,853.500000,854.237203,200,-26700,-28000,1,0
1486810436,862.500000,862.426001,200,-26700,-28000,1,0
1486810438,846.500000,846.901615,200,-26700,-28000,1,0
1486810440,877.500000,878.439201,200,-26700,-28000,1,0
1486810442,899.500000,900.653801,200,-26700,-28000,1,0
1486810444,893.500000,894.617233,200,-26700,-28000,1,0
1486810446,897.500000,898.656299,200,-26700,-28000,1,0
1486810448,896.500000,897.618289,200,-26700,-28000,1,0
1486810450,911.500000,911.153749,200,-26700,-28000,1,0
1486810452,936.500000,938.582437,200,-26700,-28000,1,0
1486810454,928.500000,928.326676,200,-26700,-28000,1,0
1486810456,927.500000,927.508436,200,-26700,-28000,1,0
1486810458,922.500000,921.687885,200,-26700,-28000,1,0
1486810460,901.500000,902.372264,200,-26700,-28000,1,0
1486810462,914.500000,913.940383,200,-26700,-28000,1,0
1486810464,926.500000,926.095327,200,-26700,-28000,1,0
1486810466,913.500000,913.038813,200,-26700,-28000,1,0
1486810468,903.500000,904.724549,200,-26700,-28000,1,0
1486810470,928.500000,929.081960,200,-26700,-28000,1,0
1486810472,886.500000,887.762948,200,-26700,-28000,1,0
1486810474,898.500000,898.815657,200,-26700,-28000,1,0
1486810476,874.500000,874.285437,200,-26700,-28000,1,0
1486810478,876.500000,876.900887,200,-26700,-28000,1,0
1486810480,896.500000,896.666235,200,-26700,-28000,1,0
1486810482,879.500000,880.853270,200,-26700,-28000,1,0
1486810484,907.500000,908.836664,200,-26700,-28000,1,0
1486810486,914.500000,914.709497,200,-26700,-28000,1,0
1486810488,885.500000,887.113931,200,-26700,-28000,1,0
1486810490,929.500000,930.476846,200,-26700,-28000,1,0
1486810492,874.500000,874.691972,200,-26700,-28000,1,0
1486810494,900.500000,901.305398,200,-26700,-28000,1,0
1486810496,900.500000,901.678700,200,-26700,-28000,1,0
1486810498,876.500000,876.861610,200,-26700,-28000,1,0
1486810500,879.500000,880.570581,200,-26700,-28000,1,0
1486810502,884.500000,885.936287,200,-26700,-28000,1,0
1486810504,861.500000,861.473211,200,-26700,-28000,1,0
1486810506,861.500000,861.732652,200,-26700,-28000,1,0
1486810508,849.500000,850.127659,200,-26700,-28000,1,0
1486810510,840.500000,841.106851,200,-26700,-28000,1,0
1486810512,845.500000,846.099672,200,-26700,-28000,1,0
1486810514,851.500000,853.450039,200,-26700,-28000,1,0
1486810516,854.500000,855.435248,200,-26700,-28000,1,0
1486810518,874.500000,874.077127,200,-26700,-28000,1,0
1486810520,853.500000,854.161861,200,-26700,-28000,1,0
1486810522,871.500000,870.626204,200,-26700,-28000,1,0
1486810524,845.500000,844.775223,200,-26700,-28000,1,0
1486810526,851.500000,851.877298,200,-26700,-28000,1,0
1486810528,829.500000,830.344085,200,-26700,-28000,1,0
1486810530,826.500000,827.389719,200,-26700,-28000,1,0
1486810532,824.500000,825.388901,200,-26700,-28000,1,0
1486810534,860.500000,861.162194,200,-26700,-28000,1,0
1486810536,831.500000,832.999894,200,-26700,-28000,1,0
1486810538,832.500000,833.351074,200,-26700,-28000,1,0
1486810540,836.500000,837.632676,200,-26700,-28000,1,0
1486810542,853.500000,853.783539,200,-26700,-28000,1,0
1486810544,879.500000,880.001205,200,-26700,-28000,1,0
1486810546,887.500000,888.548679,200,-26700,-28000,1,0
1486810548,870.500000,869.717924,200,-26700,-28000,1,0
1486810550,881.500000,882.854927,200,-26700,-28000,1,0
1486810552,854.500000,855.087076,200,-26700,-28000,1,0
1486810554,880.500000,881.743481,200,-26700,-28000,1,0
1486810556,906.500000,907.460148,200,-26700,-28000,1,0
1486810558,888.500000,888.739023,200,-26700,-28000,1,0
1486810560,867.500000,867.135739,200,-26700,-28000,1,0
1486810562,896.500000,896.922687,200,-26700,-28000,1,0
1486810564,866.500000,866.842627,200,-26700,-28000,1,0
1486810566,878.500000,878.973511,200,-26700,-28000,1,0
1486810568,868.500000,868.574161,200,-26700,-28000,1,0
1486810570,865.500000,864.690287,200,-26700,-28000,1,0
1486810572,854.500000,855.229665,200,-26700,-28000,1,0
1486810574,871.500000,871.205744,200,-26700,-28000,1,0
1486810576,870.500000,870.196182,200,-26700,-28000,1,0
1486810578,881.500000,883.001479,200,-26700,-28000,1,0
1486810580,828.500000,829.984181,200,-26700,-28000,1,0
1486810582,852.500000,853.631657,200,-26700,-28000,1,0
1486810584,872.500000,872.660149,200,-26700,-28000,1,0
1486810586,856.500000,856.888333,200,-26700,-28000,1,0
1486810588,NaN,NaN,200,-26700,-28000,1,0
