[Result_Camera1]
tag_number,timing_edge_derivative(pixel),timing_edge_fitting(pixel),xfel_bl_3_st_2_motor_1/position [pulse],xfel_bl_3_st_1_motor_73/position [pulse],xfel_bl_3_st_2_motor_2/position [pulse],xfel_bl_3_lh1_shutter_1_open_valid/status,xfel_bl_3_lh1_shutter_1_close_valid/status
1486807140,880.500000,881.095660,120,-26700,-28000,1,0
1486807142,859.500000,859.348166,120,-26700,-28000,1,0
1486807144,872.500000,871.826916,120,-26700,-28000,1,0
1486807146,864.500000,864.669060,120,-26700,-28000,1,0
1486807148,845.500000,846.974075,120,-26700,-28000,1,0
1486807150,878.500000,879.439132,120,-26700,-28000,1,0
1486807152,875.500000,875.545547,120,-26700,-28000,1,0
1486807154,879.500000,880.270757,120,-26700,-28000,1,0
1486807156,855.500000,856.332039,120,-26700,-28000,1,0
1486807158,832.500000,834.205510,120,-26700,-28000,1,0
1486807160,852.500000,853.006281,120,-26700,-28000,1,0
1486807162,839.500000,840.599226,120,-26700,-28000,1,0
1486807164,848.500000,849.375053,120,-26700,-28000,1,0
1486807166,847.500000,847.853459,120,-26700,-28000,1,0
1486807168,838.500000,840.110860,120,-26700,-28000,1,0
1486807170,824.500000,825.583121,120,-26700,-28000,1,0
1486807172,837.500000,837.806108,120,-26700,-28000,1,0
1486807174,822.500000,822.780751,120,-26700,-28000,1,0
1486807176,842.500000,842.807017,120,-26700,-28000,1,0
1486807178,819.500000,819.982832,120,-26700,-28000,1,0
1486807180,827.500000,828.722736,120,-26700,-28000,1,0
1486807182,845.500000,845.277811,120,-26700,-28000,1,0
1486807184,819.500000,819.601982,120,-26700,-28000,1,0
1486807186,835.500000,836.791750,120,-26700,-28000,1,0
1486807188,854.500000,855.598103,120,-26700,-28000,1,0
1486807190,818.500000,819.942830,120,-26700,-28000,1,0
1486807192,839.500000,840.318963,120,-26700,-28000,1,0
1486807194,839.500000,841.450997,120,-26700,-28000,1,0
1486807196,832.500000,833.397395,120,-26700,-28000,1,0
1486807198,851.500000,852.940791,120,-26700,-28000,1,0
1486807200,841.500000,843.115154,120,-26700,-28000,1,0
1486807202,840.500000,841.856815,120,-26700,-28000,1,0
1486807204,869.500000,869.085768,120,-26700,-28000,1,0
1486807206,861.500000,861.652320,120,-26700,-28000,1,0
1486807208,841.500000,842.747342,120,-26700,-28000,1,0
1486807210,853.500000,854.600833,120,-26700,-28000,1,0
1486807212,849.500000,849.976934,120,-26700,-28000,1,0
1486807214,867.500000,866.972217,120,-26700,-28000,1,0
1486807216,861.500000,861.513660,120,-26700,-28000,1,0
1486807218,854.500000,856.079751,120,-26700,-28000,1,0
1486807220,859.500000,860.191941,120,-26700,-28000,1,0
1486807222,851.500000,852.763054,120,-26700,-28000,1,0
1486807224,848.500000,848.958467,120,-26700,-28000,1,0
1486807226,872.500000,872.210725,120,-26700,-28000,1,0
1486807228,838.500000,839.958956,120,-26700,-28000,1,0
1486807230,861.500000,861.063960,120,-26700,-28000,1,0
1486807232,857.500000,857.804683,120,-26700,-28000,1,0
1486807234,841.500000,843.362785,120,-26700,-28000,1,0
1486807236,831.500000,833.098461,120,-26700,-28000,1,0
1486807238,864.500000,864.372747,120,-26700,-28000,1,0
1486807240,828.500000,830.230835,120,-26700,-28000,1,0
1486807242,833.500000,835.032611,120,-26700,-28000,1,0
1486807244,846.500000,847.619139,120,-26700,-28000,1,0
1486807246,857.500000,858.399615,120,-26700,-28000,1,0
1486807248,850.500000,852.135339,120,-26700,-28000,1,0
1486807250,848.500000,849.536037,120,-26700,-28000,1,0
1486807252,827.500000,828.066645,120,-26700,-28000,1,0
1486807254,850.500000,851.112587,120,-26700,-28000,1,0
1486807256,857.500000,858.303156,120,-26700,-28000,1,0
1486807258,841.500000,841.665315,120,-26700,-28000,1,0
1486807260,852.500000,852.784849,120,-26700,-28000,1,0
1486807262,842.500000,842.715022,120,-26700,-28000,1,0
1486807264,842.500000,843.304194,120,-26700,-28000,1,0
1486807266,846.500000,847.780006,120,-26700,-28000,1,0
1486807268,825.500000,826.187796,120,-26700,-28000,1,0
1486807270,849.500000,850.042637,120,-26700,-28000,1,0
1486807272,831.500000,834.160685,120,-26700,-28000,1,0
1486807274,827.500000,831.614553,120,-26700,-28000,1,0
1486807276,857.500000,857.655028,120,-26700,-28000,1,0
1486807278,834.500000,835.939354,120,-26700,-28000,1,0
1486807280,817.500000,819.004916,120,-26700,-28000,1,0
1486807282,831.500000,833.439551,120,-26700,-28000,1,0
1486807284,820.500000,821.744179,120,-26700,-28000,1,0
1486807286,833.500000,834.866155,120,-26700,-28000,1,0
1486807288,830.500000,832.056687,120,-26700,-28000,1,0
1486807290,836.500000,837.226181,120,-26700,-28000,1,0
1486807292,833.500000,835.061635,120,-26700,-28000,1,0
1486807294,836.500000,838.089258,120,-26700,-28000,1,0
1486807296,817.500000,819.318052,120,-26700,-28000,1,0
1486807298,834.500000,836.951671,120,-26700,-28000,1,0
1486807300,861.500000,861.000341,120,-26700,-28000,1,0
1486807302,860.500000,860.514266,120,-26700,-28000,1,0
1486807304,873.500000,873.600603,120,-26700,-28000,1,0
1486807306,877.500000,877.963387,120,-26700,-28000,1,0
1486807308,850.500000,851.614653,120,-26700,-28000,1,0
1486807310,861.500000,861.972905,120,-26700,-28000,1,0
1486807312,869.500000,869.498817,120,-26700,-28000,1,0
1486807314,875.500000,875.300391,120,-26700,-28000,1,0
1486807316,875.500000,876.414679,120,-26700,-28000,1,0
1486807318,883.500000,884.505821,120,-26700,-28000,1,0
1486807320,896.500000,897.301545,120,-26700,-28000,1,0
1486807322,884.500000,885.742019,120,-26700,-28000,1,0
1486807324,861.500000,861.778824,120,-26700,-28000,1,0
1486807326,868.500000,868.455780,120,-26700,-28000,1,0
1486807328,899.500000,900.463730,120,-26700,-28000,1,0
1486807330,889.500000,890.536617,120,-26700,-28000,1,0
1486807332,888.500000,889.030371,120,-26700,-28000,1,0
1486807334,885.500000,886.129421,120,-26700,-28000,1,0
1486807336,889.500000,890.195790,120,-26700,-28000,1,0
1486807338,888.500000,889.164708,120,-26700,-28000,1,0
1486807340,877.500000,878.591620,120,-26700,-28000,1,0
1486807342,897.500000,897.929096,120,-26700,-28000,1,0
1486807344,905.500000,906.676166,120,-26700,-28000,1,0
1486807346,896.500000,897.608615,120,-26700,-28000,1,0
1486807348,899.500000,899.998419,120,-26700,-28000,1,0
1486807350,880.500000,881.829670,120,-26700,-28000,1,0
1486807352,872.500000,872.646637,120,-26700,-28000,1,0
1486807354,885.500000,886.957449,120,-26700,-28000,1,0
1486807356,902.500000,903.550363,120,-26700,-28000,1,0
1486807358,879.500000,880.834524,120,-26700,-28000,1,0
1486807360,902.500000,903.116137,120,-26700,-28000,1,0
1486807362,891.500000,891.720553,120,-26700,-28000,1,0
1486807364,919.500000,918.574280,120,-26700,-28000,1,0
1486807366,892.500000,893.256068,120,-26700,-28000,1,0
1486807368,880.500000,881.928102,120,-26700,-28000,1,0
1486807370,894.500000,894.505829,120,-26700,-28000,1,0
1486807372,899.500000,900.324842,120,-26700,-28000,1,0
1486807374,890.500000,891.832061,120,-26700,-28000,1,0
1486807376,908.500000,909.675400,120,-26700,-28000,1,0
1486807378,901.500000,901.817757,120,-26700,-28000,1,0
1486807380,890.500000,890.863767,120,-26700,-28000,1,0
1486807382,887.500000,888.486108,120,-26700,-28000,1,0
1486807384,901.500000,902.648326,120,-26700,-28000,1,0
1486807386,876.500000,876.707927,120,-26700,-28000,1,0
1486807388,902.500000,903.796441,120,-26700,-28000,1,0
1486807390,902.500000,904.011601,120,-26700,-28000,1,0
1486807392,880.500000,881.643867,120,-26700,-28000,1,0
1486807394,897.500000,897.875773,120,-26700,-28000,1,0
1486807396,896.500000,897.045467,120,-26700,-28000,1,0
1486807398,901.500000,902.710135,120,-26700,-28000,1,0
1486807400,882.500000,883.640566,120,-26700,-28000,1,0
1486807402,895.500000,896.442111,120,-26700,-28000,1,0
1486807404,913.500000,912.985879,120,-26700,-28000,1,0
1486807406,887.500000,888.340671,120,-26700,-28000,1,0
1486807408,897.500000,898.070361,120,-26700,-28000,1,0
1486807410,887.500000,888.946708,120,-26700,-28000,1,0
1486807412,899.500000,900.778496,120,-26700,-28000,1,0
1486807414,890.500000,891.643427,120,-26700,-28000,1,0
1486807416,884.500000,886.023625,120,-26700,-28000,1,0
1486807418,910.500000,910.533030,120,-26700,-28000,1,0
1486807420,892.500000,893.122704,120,-26700,-28000,1,0
1486807422,878.500000,879.422404,120,-26700,-28000,1,0
1486807424,879.500000,880.819040,120,-26700,-28000,1,0
1486807426,894.500000,894.546761,120,-26700,-28000,1,0
1486807428,895.500000,895.985003,120,-26700,-28000,1,0
1486807430,884.500000,885.554528,120,-26700,-28000,1,0
1486807432,878.500000,879.419062,120,-26700,-28000,1,0
1486807434,901.500000,902.517546,120,-26700,-28000,1,0
1486807436,902.500000,902.918103,120,-26700,-28000,1,0
1486807438,878.500000,879.424780,120,-26700,-28000,1,0
1486807440,895.500000,896.059285,120,-26700,-28000,1,0
1486807442,882.500000,883.989253,120,-26700,-28000,1,0
1486807444,895.500000,896.083740,120,-26700,-28000,1,0
1486807446,904.500000,905.132448,120,-26700,-28000,1,0
1486807448,898.500000,898.946871,120,-26700,-28000,1,0
1486807450,898.500000,898.684444,120,-26700,-28000,1,0
1486807452,871.500000,870.553437,120,-26700,-28000,1,0
1486807454,883.500000,884.756487,120,-26700,-28000,1,0
1486807456,877.500000,877.902330,120,-26700,-28000,1,0
1486807458,894.500000,894.942734,120,-26700,-28000,1,0
1486807460,868.500000,868.109140,120,-26700,-28000,1,0
1486807462,893.500000,893.866845,120,-26700,-28000,1,0
1486807464,876.500000,876.946937,120,-26700,-28000,1,0
1486807466,895.500000,895.857350,120,-26700,-28000,1,0
1486807468,894.500000,894.978340,120,-26700,-28000,1,0
1486807470,841.500000,842.147176,120,-26700,-28000,1,0
1486807472,877.500000,878.463181,120,-26700,-28000,1,0
1486807474,872.500000,872.265971,120,-26700,-28000,1,0
1486807476,884.500000,885.750953,120,-26700,-28000,1,0
1486807478,871.500000,870.677763,120,-26700,-28000,1,0
1486807480,870.500000,869.715264,120,-26700,-28000,1,0
1486807482,877.500000,877.795080,120,-26700,-28000,1,0
1486807484,871.500000,871.521882,120,-26700,-28000,1,0
1486807486,860.500000,861.117433,120,-26700,-28000,1,0
1486807488,878.500000,879.789783,120,-26700,-28000,1,0
1486807490,873.500000,873.994683,120,-26700,-28000,1,0
1486807492,878.500000,879.034473,120,-26700,-28000,1,0
1486807494,867.500000,867.610899,120,-26700,-28000,1,0
1486807496,874.500000,874.144948,120,-26700,-28000,1,0
1486807498,856.500000,857.278867,120,-26700,-28000,1,0
1486807500,872.500000,872.155981,120,-26700,-28000,1,0
1486807502,869.500000,869.535316,120,-26700,-28000,1,0
1486807504,857.500000,858.508261,120,-26700,-28000,1,0
1486807506,867.500000,867.088230,120,-26700,-28000,1,0
1486807508,877.500000,877.956604,120,-26700,-28000,1,0
1486807510,845.500000,845.761024,120,-26700,-28000,1,0
1486807512,872.500000,871.720977,120,-26700,-28000,1,0
1486807514,856.500000,856.852523,120,-26700,-28000,1,0
1486807516,878.500000,879.587433,120,-26700,-28000,1,0
1486807518,862.500000,862.632504,120,-26700,-28000,1,0
1486807520,854.500000,855.330014,120,-26700,-28000,1,0
1486807522,856.500000,856.783594,120,-26700,-28000,1,0
1486807524,874.500000,873.811442,120,-26700,-28000,1,0
1486807526,869.500000,869.336181,120,-26700,-28000,1,0
1486807528,873.500000,873.910927,120,-26700,-28000,1,0
1486807530,872.500000,871.846776,120,-26700,-28000,1,0
1486807532,852.500000,853.824151,120,-26700,-28000,1,0
1486807534,894.500000,894.886331,120,-26700,-28000,1,0
1486807536,878.500000,879.877236,120,-26700,-28000,1,0
1486807538,866.500000,865.971153,120,-26700,-28000,1,0
1486807540,878.500000,878.916834,120,-26700,-28000,1,0
1486807542,886.500000,888.148911,120,-26700,-28000,1,0
1486807544,869.500000,869.378023,120,-26700,-28000,1,0
1486807546,908.500000,909.760966,120,-26700,-28000,1,0
1486807548,890.500000,891.133970,120,-26700,-28000,1,0
1486807550,885.500000,886.450900,120,-26700,-28000,1,0
1486807552,870.500000,869.950377,120,-26700,-28000,1,0
1486807554,881.500000,882.977761,120,-26700,-28000,1,0
1486807556,881.500000,882.183273,120,-26700,-28000,1,0
1486807558,895.500000,896.452856,120,-26700,-28000,1,0
1486807560,876.500000,876.855804,120,-26700,-28000,1,0
1486807562,897.500000,897.960052,120,-26700,-28000,1,0
1486807564,899.500000,900.593059,120,-26700,-28000,1,0
1486807566,881.500000,883.399267,120,-26700,-28000,1,0
1486807568,906.500000,906.590131,120,-26700,-28000,1,0
1486807570,901.500000,902.665901,120,-26700,-28000,1,0
1486807572,905.500000,906.716976,120,-26700,-28000,1,0
1486807574,892.500000,893.274019,120,-26700,-28000,1,0
1486807576,874.500000,874.574882,120,-26700,-28000,1,0
1486807578,906.500000,907.570072,120,-26700,-28000,1,0
1486807580,910.500000,910.432661,120,-26700,-28000,1,0
1486807582,893.500000,894.550594,120,-26700,-28000,1,0
1486807584,884.500000,885.528145,120,-26700,-28000,1,0
1486807586,882.500000,884.022792,120,-26700,-28000,1,0
1486807588,876.500000,877.277221,120,-26700,-28000,1,0
1486807590,898.500000,899.136865,120,-26700,-28000,1,0
1486807592,885.500000,887.190033,120,-26700,-28000,1,0
1486807594,882.500000,883.858605,120,-26700,-28000,1,0
1486807596,879.500000,880.571786,120,-26700,-28000,1,0
1486807598,890.500000,891.422861,120,-26700,-28000,1,0
1486807600,880.500000,882.128921,120,-26700,-28000,1,0
1486807602,877.500000,878.379944,120,-26700,-28000,1,0
1486807604,898.500000,898.751838,120,-26700,-28000,1,0
1486807606,886.500000,887.267278,120,-26700,-28000,1,0
1486807608,910.500000,910.778971,120,-26700,-28000,1,0
1486807610,895.500000,896.366266,120,-26700,-28000,1,0
1486807612,890.500000,890.566836,120,-26700,-28000,1,0
1486807614,911.500000,911.891975,120,-26700,-28000,1,0
1486807616,876.500000,877.922979,120,-26700,-28000,1,0
1486807618,878.500000,880.001819,120,-26700,-28000,1,0
1486807620,910.500000,910.135683,120,-26700,-28000,1,0
1486807622,891.500000,892.098285,120,-26700,-28000,1,0
1486807624,886.500000,887.274543,120,-26700,-28000,1,0
1486807626,910.500000,910.424644,120,-26700,-28000,1,0
1486807628,914.500000,914.260927,120,-26700,-28000,1,0
1486807630,907.500000,908.220458,120,-26700,-28000,1,0
1486807632,916.500000,915.586597,120,-26700,-28000,1,0
1486807634,892.500000,892.700798,120,-26700,-28000,1,0
1486807636,914.500000,913.867231,120,-26700,-28000,1,0
1486807638,927.500000,928.769947,120,-26700,-28000,1,0
1486807640,909.500000,910.195861,120,-26700,-28000,1,0
1486807642,920.500000,919.535059,120,-26700,-28000,1,0
1486807644,910.500000,910.468870,120,-26700,-28000,1,0
1486807646,934.500000,935.844670,120,-26700,-28000,1,0
1486807648,934.500000,936.285808,120,-26700,-28000,1,0
1486807650,916.500000,915.312318,120,-26700,-28000,1,0
1486807652,900.500000,901.521780,120,-26700,-28000,1,0
1486807654,938.500000,940.458541,120,-26700,-28000,1,0
1486807656,920.500000,919.834251,120,-26700,-28000,1,0
1486807658,912.500000,912.863748,120,-26700,-28000,1,0
1486807660,923.500000,923.125477,120,-26700,-28000,1,0
1486807662,901.500000,902.523528,120,-26700,-28000,1,0
1486807664,900.500000,900.975466,120,-26700,-28000,1,0
1486807666,932.500000,933.956766,120,-26700,-28000,1,0
1486807668,929.500000,930.485033,120,-26700,-28000,1,0
1486807670,925.500000,925.238860,120,-26700,-28000,1,0
1486807672,916.500000,915.941932,120,-26700,-28000,1,0
1486807674,923.500000,922.738480,120,-26700,-28000,1,0
1486807676,917.500000,916.657825,120,-26700,-28000,1,0
1486807678,919.500000,918.174085,120,-26700,-28000,1,0
1486807680,916.500000,916.353041,120,-26700,-28000,1,0
1486807682,924.500000,923.506416,120,-26700,-28000,1,0
1486807684,916.500000,915.704536,120,-26700,-28000,1,0
1486807686,917.500000,916.470399,120,-26700,-28000,1,0
1486807688,914.500000,914.947213,120,-26700,-28000,1,0
1486807690,918.500000,917.303358,120,-26700,-28000,1,0
1486807692,920.500000,919.664276,120,-26700,-28000,1,0
1486807694,909.500000,909.611492,120,-26700,-28000,1,0
1486807696,887.500000,888.331327,120,-26700,-28000,1,0
1486807698,919.500000,919.408332,120,-26700,-28000,1,0
1486807700,918.500000,917.800310,120,-26700,-28000,1,0
1486807702,911.500000,911.158588,120,-26700,-28000,1,0
1486807704,890.500000,891.885855,120,-26700,-28000,1,0
1486807706,915.500000,914.997317,120,-26700,-28000,1,0
1486807708,900.500000,901.353559,120,-26700,-28000,1,0
1486807710,912.500000,911.972588,120,-26700,-28000,1,0
1486807712,910.500000,910.963135,120,-26700,-28000,1,0
1486807714,918.500000,917.289916,120,-26700,-28000,1,0
1486807716,913.500000,913.813243,120,-26700,-28000,1,0
1486807718,900.500000,901.423987,120,-26700,-28000,1,0
1486807720,898.500000,900.223661,120,-26700,-28000,1,0
1486807722,916.500000,915.953261,120,-26700,-28000,1,0
1486807724,903.500000,904.397296,120,-26700,-28000,1,0
1486807726,896.500000,897.386640,120,-26700,-28000,1,0
1486807728,908.500000,909.519630,120,-26700,-28000,1,0
1486807730,918.500000,918.076595,120,-26700,-28000,1,0
1486807732,903.500000,905.388700,120,-26700,-28000,1,0
1486807734,916.500000,915.650854,120,-26700,-28000,1,0
1486807736,887.500000,888.550174,120,-26700,-28000,1,0
1486807738,933.500000,936.329204,120,-26700,-28000,1,0
