[Result_Camera1]
tag_number,timing_edge_derivative(pixel),timing_edge_fitting(pixel),xfel_bl_3_st_2_motor_1/position [pulse],xfel_bl_3_st_1_motor_73/position [pulse],xfel_bl_3_st_2_motor_2/position [pulse],xfel_bl_3_lh1_shutter_1_open_valid/status,xfel_bl_3_lh1_shutter_1_close_valid/status
1487838146,903.500000,904.975681,240,-26700,-8000,1,0
1487838148,890.500000,891.770630,240,-26700,-8000,1,0
1487838150,887.500000,887.759266,240,-26700,-8000,1,0
1487838152,916.500000,916.010369,240,-26700,-8000,1,0
1487838154,895.500000,895.977706,240,-26700,-8000,1,0
1487838156,898.500000,900.040856,240,-26700,-8000,1,0
1487838158,895.500000,895.938384,240,-26700,-8000,1,0
1487838160,899.500000,900.638765,240,-26700,-8000,1,0
1487838162,902.500000,903.771107,240,-26700,-8000,1,0
1487838164,901.500000,902.574243,240,-26700,-8000,1,0
1487838166,887.500000,888.587303,240,-26700,-8000,1,0
1487838168,923.500000,922.722519,240,-26700,-8000,1,0
1487838170,924.500000,924.548824,240,-26700,-8000,1,0
1487838172,891.500000,892.158392,240,-26700,-8000,1,0
1487838174,889.500000,890.164244,240,-26700,-8000,1,0
1487838176,921.500000,921.464283,240,-26700,-8000,1,0
1487838178,895.500000,896.875466,240,-26700,-8000,1,0
1487838180,902.500000,903.745762,240,-26700,-8000,1,0
1487838182,909.500000,909.893100,240,-26700,-8000,1,0
1487838184,915.500000,914.807615,240,-26700,-8000,1,0
1487838186,899.500000,900.606415,240,-26700,-8000,1,0
1487838188,904.500000,905.748775,240,-26700,-8000,1,0
1487838190,899.500000,900.410247,240,-26700,-8000,1,0
1487838192,892.500000,893.434768,240,-26700,-8000,1,0
1487838194,901.500000,902.825000,240,-26700,-8000,1,0
1487838196,922.500000,922.076096,240,-26700,-8000,1,0
1487838198,914.500000,913.842894,240,-26700,-8000,1,0
1487838200,889.500000,890.679465,240,-26700,-8000,1,0
1487838202,928.500000,929.610933,240,-26700,-8000,1,0
1487838204,916.500000,915.338106,240,-26700,-8000,1,0
1487838206,924.500000,924.875492,240,-26700,-8000,1,0
1487838208,920.500000,919.965172,240,-26700,-8000,1,0
1487838210,912.500000,913.263597,240,-26700,-8000,1,0
1487838212,895.500000,897.022776,240,-26700,-8000,1,0
1487838214,906.500000,907.017141,240,-26700,-8000,1,0
1487838216,905.500000,906.644300,240,-26700,-8000,1,0
1487838218,909.500000,910.568206,240,-26700,-8000,1,0
1487838220,911.500000,912.090189,240,-26700,-8000,1,0
1487838222,921.500000,921.505331,240,-26700,-8000,1,0
1487838224,881.500000,881.976167,240,-26700,-8000,1,0
1487838226,917.500000,917.032697,240,-26700,-8000,1,0
1487838228,918.500000,917.427106,240,-26700,-8000,1,0
1487838230,905.500000,906.621537,240,-26700,-8000,1,0
1487838232,903.500000,904.553435,240,-26700,-8000,1,0
1487838234,928.500000,930.536807,240,-26700,-8000,1,0
1487838236,920.500000,920.242011,240,-26700,-8000,1,0
1487838238,912.500000,912.369370,240,-26700,-8000,1,0
1487838240,925.500000,925.742611,240,-26700,-8000,1,0
1487838242,908.500000,909.481627,240,-26700,-8000,1,0
1487838244,898.500000,899.462659,240,-26700,-8000,1,0
1487838246,913.500000,913.539662,240,-26700,-8000,1,0
1487838248,902.500000,903.182293,240,-26700,-8000,1,0
1487838250,884.500000,885.179294,240,-26700,-8000,1,0
1487838252,877.500000,877.485016,240,-26700,-8000,1,0
1487838254,884.500000,884.443627,240,-26700,-8000,1,0
1487838256,858.500000,858.822742,240,-26700,-8000,1,0
1487838258,890.500000,890.199320,240,-26700,-8000,1,0
1487838260,878.500000,878.284379,240,-26700,-8000,1,0
1487838262,849.500000,850.452232,240,-26700,-8000,1,0
1487838264,888.500000,888.901961,240,-26700,-8000,1,0
1487838266,872.500000,871.013941,240,-26700,-8000,1,0
1487838268,869.500000,868.266067,240,-26700,-8000,1,0
1487838270,875.500000,874.487194,240,-26700,-8000,1,0
1487838272,874.500000,873.884149,240,-26700,-8000,1,0
1487838274,850.500000,852.068168,240,-26700,-8000,1,0
1487838276,872.500000,871.565701,240,-26700,-8000,1,0
1487838278,865.500000,865.015412,240,-26700,-8000,1,0
1487838280,867.500000,866.256627,240,-26700,-8000,1,0
1487838282,873.500000,872.723034,240,-26700,-8000,1,0
1487838284,864.500000,863.436306,240,-26700,-8000,1,0
1487838286,855.500000,856.131847,240,-26700,-8000,1,0
1487838288,855.500000,856.540458,240,-26700,-8000,1,0
1487838290,877.500000,876.393823,240,-26700,-8000,1,0
1487838292,859.500000,859.477718,240,-26700,-8000,1,0
1487838294,856.500000,857.440261,240,-26700,-8000,1,0
1487838296,872.500000,871.401615,240,-26700,-8000,1,0
1487838298,874.500000,873.976148,240,-26700,-8000,1,0
1487838300,861.500000,860.925354,240,-26700,-8000,1,0
1487838302,878.500000,878.526693,240,-26700,-8000,1,0
1487838304,880.500000,880.272838,240,-26700,-8000,1,0
1487838306,869.500000,868.517494,240,-26700,-8000,1,0
1487838308,886.500000,887.680343,240,-26700,-8000,1,0
1487838310,876.500000,875.274074,240,-26700,-8000,1,0
1487838312,873.500000,872.169667,240,-26700,-8000,1,0
1487838314,919.500000,918.176751,240,-26700,-8000,1,0
1487838316,869.500000,868.435499,240,-26700,-8000,1,0
1487838318,889.500000,890.674158,240,-26700,-8000,1,0
1487838320,867.500000,865.894898,240,-26700,-8000,1,0
1487838322,888.500000,889.547478,240,-26700,-8000,1,0
1487838324,865.500000,864.074342,240,-26700,-8000,1,0
1487838326,882.500000,882.614276,240,-26700,-8000,1,0
1487838328,910.500000,911.060720,240,-26700,-8000,1,0
1487838330,890.500000,891.124244,240,-26700,-8000,1,0
1487838332,905.500000,906.648654,240,-26700,-8000,1,0
1487838334,907.500000,907.921173,240,-26700,-8000,1,0
1487838336,897.500000,899.092336,240,-26700,-8000,1,0
1487838338,897.500000,898.772239,240,-26700,-8000,1,0
1487838340,907.500000,908.238510,240,-26700,-8000,1,0
1487838342,897.500000,898.184938,240,-26700,-8000,1,0
1487838344,909.500000,909.955439,240,-26700,-8000,1,0
1487838346,915.500000,914.763908,240,-26700,-8000,1,0
1487838348,872.500000,871.149816,240,-26700,-8000,1,0
1487838350,897.500000,898.078006,240,-26700,-8000,1,0
1487838352,899.500000,900.227886,240,-26700,-8000,1,0
1487838354,904.500000,905.362638,240,-26700,-8000,1,0
1487838356,868.500000,866.969202,240,-26700,-8000,1,0
1487838358,909.500000,910.044074,240,-26700,-8000,1,0
1487838360,901.500000,902.898284,240,-26700,-8000,1,0
1487838362,888.500000,889.263719,240,-26700,-8000,1,0
1487838364,912.500000,912.165044,240,-26700,-8000,1,0
1487838366,882.500000,882.973401,240,-26700,-8000,1,0
1487838368,887.500000,888.325186,240,-26700,-8000,1,0
1487838370,896.500000,897.590004,240,-26700,-8000,1,0
1487838372,875.500000,874.265125,240,-26700,-8000,1,0
1487838374,897.500000,898.971007,240,-26700,-8000,1,0
1487838376,892.500000,893.345435,240,-26700,-8000,1,0
1487838378,898.500000,899.667660,240,-26700,-8000,1,0
1487838380,872.500000,871.677600,240,-26700,-8000,1,0
1487838382,892.500000,893.883530,240,-26700,-8000,1,0
1487838384,890.500000,892.185364,240,-26700,-8000,1,0
1487838386,885.500000,886.778574,240,-26700,-8000,1,0
1487838388,883.500000,883.428717,240,-26700,-8000,1,0
1487838390,859.500000,859.666339,240,-26700,-8000,1,0
1487838392,889.500000,890.700892,240,-26700,-8000,1,0
1487838394,889.500000,890.807441,240,-26700,-8000,1,0
1487838396,884.500000,885.466651,240,-26700,-8000,1,0
1487838398,903.500000,904.948056,240,-26700,-8000,1,0
1487838400,894.500000,895.517720,240,-26700,-8000,1,0
1487838402,905.500000,906.535172,240,-26700,-8000,1,0
1487838404,891.500000,891.569611,240,-26700,-8000,1,0
1487838406,887.500000,888.312422,240,-26700,-8000,1,0
1487838408,884.500000,885.262383,240,-26700,-8000,1,0
1487838410,912.500000,913.047820,240,-26700,-8000,1,0
1487838412,898.500000,899.797681,240,-26700,-8000,1,0
1487838414,886.500000,887.709875,240,-26700,-8000,1,0
1487838416,878.500000,878.471361,240,-26700,-8000,1,0
1487838418,889.500000,889.564156,240,-26700,-8000,1,0
1487838420,915.500000,914.923124,240,-26700,-8000,1,0
1487838422,901.500000,902.618191,240,-26700,-8000,1,0
1487838424,876.500000,875.851864,240,-26700,-8000,1,0
1487838426,896.500000,897.721421,240,-26700,-8000,1,0
1487838428,892.500000,893.845552,240,-26700,-8000,1,0
1487838430,883.500000,883.722114,240,-26700,-8000,1,0
1487838432,901.500000,902.507420,240,-26700,-8000,1,0
1487838434,877.500000,876.182848,240,-26700,-8000,1,0
1487838436,886.500000,886.535944,240,-26700,-8000,1,0
1487838438,877.500000,877.096443,240,-26700,-8000,1,0
1487838440,883.500000,883.580361,240,-26700,-8000,1,0
1487838442,878.500000,878.110700,240,-26700,-8000,1,0
1487838444,867.500000,866.419517,240,-26700,-8000,1,0
1487838446,878.500000,877.783128,240,-26700,-8000,1,0
1487838448,880.500000,881.528396,240,-26700,-8000,1,0
1487838450,881.500000,881.512363,240,-26700,-8000,1,0
1487838452,884.500000,884.449772,240,-26700,-8000,1,0
1487838454,849.500000,850.127592,240,-26700,-8000,1,0
1487838456,849.500000,850.907201,240,-26700,-8000,1,0
1487838458,871.500000,869.712979,240,-26700,-8000,1,0
1487838460,859.500000,859.451723,240,-26700,-8000,1,0
1487838462,848.500000,849.721820,240,-26700,-8000,1,0
1487838464,838.500000,838.229133,240,-26700,-8000,1,0
1487838466,839.500000,838.999264,240,-26700,-8000,1,0
1487838468,843.500000,843.762798,240,-26700,-8000,1,0
1487838470,870.500000,868.445556,240,-26700,-8000,1,0
1487838472,869.500000,868.186834,240,-26700,-8000,1,0
1487838474,855.500000,856.172572,240,-26700,-8000,1,0
1487838476,840.500000,840.377807,240,-26700,-8000,1,0
1487838478,858.500000,858.776922,240,-26700,-8000,1,0
1487838480,849.500000,850.200800,240,-26700,-8000,1,0
1487838482,852.500000,852.920820,240,-26700,-8000,1,0
1487838484,866.500000,865.382657,240,-26700,-8000,1,0
1487838486,828.500000,829.248167,240,-26700,-8000,1,0
1487838488,864.500000,863.232035,240,-26700,-8000,1,0
1487838490,875.500000,874.903195,240,-26700,-8000,1,0
1487838492,847.500000,849.896687,240,-26700,-8000,1,0
1487838494,835.500000,836.775591,240,-26700,-8000,1,0
1487838496,854.500000,855.666738,240,-26700,-8000,1,0
1487838498,852.500000,853.951496,240,-26700,-8000,1,0
1487838500,833.500000,834.855098,240,-26700,-8000,1,0
1487838502,870.500000,868.997508,240,-26700,-8000,1,0
1487838504,862.500000,861.590334,240,-26700,-8000,1,0
1487838506,832.500000,833.800902,240,-26700,-8000,1,0
1487838508,857.500000,858.054468,240,-26700,-8000,1,0
1487838510,858.500000,858.931988,240,-26700,-8000,1,0
1487838512,856.500000,856.976168,240,-26700,-8000,1,0
1487838514,843.500000,844.625848,240,-26700,-8000,1,0
1487838516,868.500000,866.696416,240,-26700,-8000,1,0
1487838518,833.500000,834.028530,240,-26700,-8000,1,0
1487838520,859.500000,859.323066,240,-26700,-8000,1,0
1487838522,865.500000,864.673097,240,-26700,-8000,1,0
1487838524,848.500000,849.363089,240,-26700,-8000,1,0
1487838526,850.500000,851.855111,240,-26700,-8000,1,0
1487838528,852.500000,853.991847,240,-26700,-8000,1,0
1487838530,867.500000,866.011967,240,-26700,-8000,1,0
1487838532,872.500000,870.714034,240,-26700,-8000,1,0
1487838534,872.500000,871.207714,240,-26700,-8000,1,0
1487838536,856.500000,857.879302,240,-26700,-8000,1,0
1487838538,867.500000,866.469741,240,-26700,-8000,1,0
1487838540,871.500000,870.501364,240,-26700,-8000,1,0
1487838542,870.500000,869.065368,240,-26700,-8000,1,0
1487838544,851.500000,852.805188,240,-26700,-8000,1,0
1487838546,857.500000,857.238769,240,-26700,-8000,1,0
1487838548,874.500000,873.200923,240,-26700,-8000,1,0
1487838550,854.500000,855.844098,240,-26700,-8000,1,0
1487838552,849.500000,851.016189,240,-26700,-8000,1,0
1487838554,865.500000,864.214739,240,-26700,-8000,1,0
1487838556,852.500000,853.713631,240,-26700,-8000,1,0
1487838558,854.500000,855.611435,240,-26700,-8000,1,0
1487838560,860.500000,860.745335,240,-26700,-8000,1,0
1487838562,844.500000,845.305444,240,-26700,-8000,1,0
1487838564,859.500000,859.657840,240,-26700,-8000,1,0
1487838566,860.500000,859.871197,240,-26700,-8000,1,0
1487838568,873.500000,871.930230,240,-26700,-8000,1,0
1487838570,882.500000,883.366035,240,-26700,-8000,1,0
1487838572,847.500000,849.036790,240,-26700,-8000,1,0
1487838574,870.500000,869.488385,240,-26700,-8000,1,0
1487838576,878.500000,877.630322,240,-26700,-8000,1,0
1487838578,882.500000,883.009904,240,-26700,-8000,1,0
1487838580,859.500000,859.745789,240,-26700,-8000,1,0
1487838582,882.500000,883.429482,240,-26700,-8000,1,0
1487838584,866.500000,865.589609,240,-26700,-8000,1,0
1487838586,853.500000,854.475884,240,-26700,-8000,1,0
1487838588,844.500000,845.096331,240,-26700,-8000,1,0
1487838590,881.500000,881.697774,240,-26700,-8000,1,0
1487838592,870.500000,869.465600,240,-26700,-8000,1,0
1487838594,842.500000,842.955849,240,-26700,-8000,1,0
1487838596,874.500000,874.202540,240,-26700,-8000,1,0
1487838598,874.500000,873.591723,240,-26700,-8000,1,0
1487838600,843.500000,844.424810,240,-26700,-8000,1,0
1487838602,857.500000,857.954498,240,-26700,-8000,1,0
1487838604,877.500000,876.824035,240,-26700,-8000,1,0
1487838606,849.500000,850.489644,240,-26700,-8000,1,0
1487838608,868.500000,867.343659,240,-26700,-8000,1,0
1487838610,880.500000,881.355756,240,-26700,-8000,1,0
1487838612,845.500000,846.373133,240,-26700,-8000,1,0
1487838614,844.500000,845.394313,240,-26700,-8000,1,0
1487838616,859.500000,859.507806,240,-26700,-8000,1,0
1487838618,853.500000,854.607342,240,-26700,-8000,1,0
1487838620,858.500000,858.915824,240,-26700,-8000,1,0
1487838622,868.500000,867.125824,240,-26700,-8000,1,0
1487838624,843.500000,844.019906,240,-26700,-8000,1,0
1487838626,836.500000,836.688109,240,-26700,-8000,1,0
1487838628,859.500000,859.967216,240,-26700,-8000,1,0
1487838630,826.500000,827.424090,240,-26700,-8000,1,0
1487838632,838.500000,839.291310,240,-26700,-8000,1,0
1487838634,839.500000,840.524033,240,-26700,-8000,1,0
1487838636,817.500000,818.727485,240,-26700,-8000,1,0
1487838638,843.500000,845.405501,240,-26700,-8000,1,0
1487838640,831.500000,832.180221,240,-26700,-8000,1,0
1487838642,810.500000,812.840310,240,-26700,-8000,1,0
1487838644,826.500000,826.630190,240,-26700,-8000,1,0
1487838646,826.500000,828.109466,240,-26700,-8000,1,0
1487838648,829.500000,830.290764,240,-26700,-8000,1,0
1487838650,842.500000,842.419838,240,-26700,-8000,1,0
1487838652,834.500000,834.518338,240,-26700,-8000,1,0
1487838654,813.500000,814.934151,240,-26700,-8000,1,0
1487838656,832.500000,832.786048,240,-26700,-8000,1,0
1487838658,826.500000,826.460356,240,-26700,-8000,1,0
1487838660,810.500000,812.560075,240,-26700,-8000,1,0
1487838662,812.500000,814.913827,240,-26700,-8000,1,0
1487838664,834.500000,834.795662,240,-26700,-8000,1,0
1487838666,812.500000,813.922611,240,-26700,-8000,1,0
1487838668,829.500000,830.650952,240,-26700,-8000,1,0
1487838670,830.500000,830.720684,240,-26700,-8000,1,0
1487838672,831.500000,831.576273,240,-26700,-8000,1,0
1487838674,840.500000,840.939175,240,-26700,-8000,1,0
1487838676,851.500000,853.484814,240,-26700,-8000,1,0
1487838678,838.500000,840.544086,240,-26700,-8000,1,0
1487838680,850.500000,853.652759,240,-26700,-8000,1,0
1487838682,841.500000,842.584260,240,-26700,-8000,1,0
1487838684,840.500000,841.922475,240,-26700,-8000,1,0
1487838686,853.500000,854.529808,240,-26700,-8000,1,0
1487838688,863.500000,862.681680,240,-26700,-8000,1,0
1487838690,838.500000,839.706323,240,-26700,-8000,1,0
1487838692,843.500000,845.834684,240,-26700,-8000,1,0
1487838694,871.500000,870.419611,240,-26700,-8000,1,0
1487838696,820.500000,821.144699,240,-26700,-8000,1,0
1487838698,848.500000,849.468788,240,-26700,-8000,1,0
1487838700,847.500000,848.048113,240,-26700,-8000,1,0
1487838702,846.500000,847.102128,240,-26700,-8000,1,0
1487838704,852.500000,853.959653,240,-26700,-8000,1,0
1487838706,867.500000,865.847899,240,-26700,-8000,1,0
1487838708,847.500000,847.880023,240,-26700,-8000,1,0
1487838710,840.500000,841.907687,240,-26700,-8000,1,0
1487838712,858.500000,858.797623,240,-26700,-8000,1,0
1487838714,832.500000,833.533622,240,-26700,-8000,1,0
1487838716,829.500000,830.478805,240,-26700,-8000,1,0
1487838718,845.500000,847.604311,240,-26700,-8000,1,0
1487838720,842.500000,844.106574,240,-26700,-8000,1,0
1487838722,846.500000,848.049533,240,-26700,-8000,1,0
1487838724,867.500000,866.147616,240,-26700,-8000,1,0
1487838726,838.500000,838.427754,240,-26700,-8000,1,0
1487838728,848.500000,849.356474,240,-26700,-8000,1,0
1487838730,843.500000,843.733537,240,-26700,-8000,1,0
1487838732,847.500000,848.456745,240,-26700,-8000,1,0
1487838734,871.500000,869.716929,240,-26700,-8000,1,0
1487838736,850.500000,851.353718,240,-26700,-8000,1,0
1487838738,859.500000,859.049365,240,-26700,-8000,1,0
1487838740,855.500000,856.076936,240,-26700,-8000,1,0
1487838742,875.500000,874.235706,240,-26700,-8000,1,0
1487838744,870.500000,868.889183,240,-26700,-8000,1,0
1487838746,858.500000,858.719105,240,-26700,-8000,1,0
1487838748,874.500000,873.916231,240,-26700,-8000,1,0
1487838750,836.500000,838.690714,240,-26700,-8000,1,0
1487838752,861.500000,861.624569,240,-26700,-8000,1,0
1487838754,877.500000,877.118887,240,-26700,-8000,1,0
1487838756,860.500000,860.807712,240,-26700,-8000,1,0
1487838758,869.500000,867.956123,240,-26700,-8000,1,0
1487838760,884.500000,885.220103,240,-26700,-8000,1,0
1487838762,872.500000,871.829677,240,-26700,-8000,1,0
1487838764,872.500000,870.873577,240,-26700,-8000,1,0
1487838766,887.500000,888.212307,240,-26700,-8000,1,0
1487838768,890.500000,890.689034,240,-26700,-8000,1,0
1487838770,865.500000,864.883604,240,-26700,-8000,1,0
1487838772,865.500000,864.269913,240,-26700,-8000,1,0
1487838774,891.500000,892.783907,240,-26700,-8000,1,0
1487838776,869.500000,867.650924,240,-26700,-8000,1,0
1487838778,887.500000,889.112789,240,-26700,-8000,1,0
1487838780,876.500000,875.936495,240,-26700,-8000,1,0
1487838782,899.500000,900.827475,240,-26700,-8000,1,0
1487838784,901.500000,904.588972,240,-26700,-8000,1,0
1487838786,839.500000,818.450244,240,-26700,-8000,1,0
1487838788,881.500000,882.426081,240,-26700,-8000,1,0
1487838790,894.500000,896.045563,240,-26700,-8000,1,0
1487838792,889.500000,891.278140,240,-26700,-8000,1,0
1487838794,869.500000,868.878534,240,-26700,-8000,1,0
1487838796,894.500000,896.188867,240,-26700,-8000,1,0
1487838798,891.500000,892.792835,240,-26700,-8000,1,0
1487838800,882.500000,883.526132,240,-26700,-8000,1,0
1487838802,885.500000,886.572269,240,-26700,-8000,1,0
1487838804,875.500000,874.558473,240,-26700,-8000,1,0
1487838806,876.500000,875.105962,240,-26700,-8000,1,0
1487838808,905.500000,906.656382,240,-26700,-8000,1,0
1487838810,902.500000,903.845939,240,-26700,-8000,1,0
1487838812,877.500000,877.137409,240,-26700,-8000,1,0
1487838814,841.500000,820.999858,240,-26700,-8000,1,0
1487838816,884.500000,885.078122,240,-26700,-8000,1,0
1487838818,890.500000,892.076366,240,-26700,-8000,1,0
1487838820,874.500000,873.221245,240,-26700,-8000,1,0
1487838822,884.500000,885.928759,240,-26700,-8000,1,0
1487838824,893.500000,894.213016,240,-26700,-8000,1,0
1487838826,884.500000,885.875941,240,-26700,-8000,1,0
1487838828,887.500000,889.095837,240,-26700,-8000,1,0
1487838830,868.500000,866.859700,240,-26700,-8000,1,0
1487838832,919.500000,918.497381,240,-26700,-8000,1,0
1487838834,885.500000,886.355486,240,-26700,-8000,1,0
1487838836,878.500000,878.905442,240,-26700,-8000,1,0
1487838838,885.500000,886.908558,240,-26700,-8000,1,0
1487838840,913.500000,913.350103,240,-26700,-8000,1,0
1487838842,889.500000,889.845499,240,-26700,-8000,1,0
1487838844,922.500000,922.252012,240,-26700,-8000,1,0
1487838846,916.500000,915.832711,240,-26700,-8000,1,0
1487838848,894.500000,895.058097,240,-26700,-8000,1,0
1487838850,907.500000,907.954631,240,-26700,-8000,1,0
1487838852,880.500000,880.093409,240,-26700,-8000,1,0
1487838854,911.500000,911.835644,240,-26700,-8000,1,0
1487838856,924.500000,924.401605,240,-26700,-8000,1,0
1487838858,925.500000,927.060278,240,-26700,-8000,1,0
1487838860,883.500000,884.768230,240,-26700,-8000,1,0
1487838862,918.500000,917.649542,240,-26700,-8000,1,0
1487838864,877.500000,878.024624,240,-26700,-8000,1,0
1487838866,892.500000,893.222504,240,-26700,-8000,1,0
1487838868,889.500000,890.593197,240,-26700,-8000,1,0
1487838870,925.500000,926.088501,240,-26700,-8000,1,0
1487838872,914.500000,913.995334,240,-26700,-8000,1,0
1487838874,927.500000,928.740117,240,-26700,-8000,1,0
1487838876,911.500000,911.369403,240,-26700,-8000,1,0
1487838878,909.500000,910.171310,240,-26700,-8000,1,0
1487838880,888.500000,890.284723,240,-26700,-8000,1,0
1487838882,882.500000,883.545685,240,-26700,-8000,1,0
1487838884,889.500000,890.379214,240,-26700,-8000,1,0
1487838886,930.500000,932.561245,240,-26700,-8000,1,0
1487838888,904.500000,905.355127,240,-26700,-8000,1,0
1487838890,911.500000,911.758176,240,-26700,-8000,1,0
1487838892,908.500000,909.164853,240,-26700,-8000,1,0
1487838894,889.500000,889.566818,240,-26700,-8000,1,0
1487838896,869.500000,868.344642,240,-26700,-8000,1,0
1487838898,901.500000,902.848217,240,-26700,-8000,1,0
1487838900,905.500000,906.193623,240,-26700,-8000,1,0
1487838902,900.500000,902.053858,240,-26700,-8000,1,0
1487838904,892.500000,893.164504,240,-26700,-8000,1,0
1487838906,904.500000,905.339126,240,-26700,-8000,1,0
1487838908,918.500000,917.787767,240,-26700,-8000,1,0
1487838910,899.500000,901.064213,240,-26700,-8000,1,0
1487838912,900.500000,901.461305,240,-26700,-8000,1,0
1487838914,898.500000,899.075707,240,-26700,-8000,1,0
1487838916,893.500000,893.910807,240,-26700,-8000,1,0
1487838918,893.500000,894.186018,240,-26700,-8000,1,0
1487838920,917.500000,917.345751,240,-26700,-8000,1,0
1487838922,903.500000,904.241947,240,-26700,-8000,1,0
1487838924,924.500000,925.453840,240,-26700,-8000,1,0
1487838926,908.500000,909.587601,240,-26700,-8000,1,0
1487838928,895.500000,896.948390,240,-26700,-8000,1,0
1487838930,918.500000,918.113773,240,-26700,-8000,1,0
1487838932,927.500000,928.648201,240,-26700,-8000,1,0
1487838934,916.500000,916.371222,240,-26700,-8000,1,0
1487838936,931.500000,934.373178,240,-26700,-8000,1,0
1487838938,915.500000,914.765860,240,-26700,-8000,1,0
1487838940,903.500000,904.406396,240,-26700,-8000,1,0
1487838942,898.500000,900.220344,240,-26700,-8000,1,0
1487838944,903.500000,905.115693,240,-26700,-8000,1,0
1487838946,892.500000,893.581058,240,-26700,-8000,1,0
1487838948,913.500000,913.071087,240,-26700,-8000,1,0
1487838950,920.500000,919.980571,240,-26700,-8000,1,0
1487838952,903.500000,904.557293,240,-26700,-8000,1,0
1487838954,898.500000,899.341453,240,-26700,-8000,1,0
1487838956,913.500000,913.287730,240,-26700,-8000,1,0
1487838958,883.500000,883.539980,240,-26700,-8000,1,0
1487838960,905.500000,906.611540,240,-26700,-8000,1,0
1487838962,925.500000,925.615656,240,-26700,-8000,1,0
1487838964,891.500000,892.959428,240,-26700,-8000,1,0
1487838966,923.500000,922.680439,240,-26700,-8000,1,0
1487838968,924.500000,925.263627,240,-26700,-8000,1,0
1487838970,907.500000,908.718184,240,-26700,-8000,1,0
1487838972,918.500000,917.416877,240,-26700,-8000,1,0
1487838974,922.500000,922.444419,240,-26700,-8000,1,0
1487838976,920.500000,919.336254,240,-26700,-8000,1,0
1487838978,895.500000,896.971837,240,-26700,-8000,1,0
1487838980,913.500000,912.832483,240,-26700,-8000,1,0
1487838982,914.500000,913.834316,240,-26700,-8000,1,0
1487838984,929.500000,931.458902,240,-26700,-8000,1,0
1487838986,921.500000,921.187603,240,-26700,-8000,1,0
1487838988,898.500000,899.955310,240,-26700,-8000,1,0
1487838990,925.500000,925.353088,240,-26700,-8000,1,0
1487838992,922.500000,922.677451,240,-26700,-8000,1,0
1487838994,920.500000,919.707388,240,-26700,-8000,1,0
1487838996,908.500000,908.826659,240,-26700,-8000,1,0
1487838998,915.500000,915.507837,240,-26700,-8000,1,0
1487839000,884.500000,885.991148,240,-26700,-8000,1,0
1487839002,928.500000,929.372002,240,-26700,-8000,1,0
1487839004,913.500000,913.078656,240,-26700,-8000,1,0
1487839006,881.500000,881.238600,240,-26700,-8000,1,0
1487839008,910.500000,910.786689,240,-26700,-8000,1,0
1487839010,902.500000,904.181706,240,-26700,-8000,1,0
1487839012,913.500000,912.981613,240,-26700,-8000,1,0
1487839014,924.500000,923.978436,240,-26700,-8000,1,0
1487839016,923.500000,922.480486,240,-26700,-8000,1,0
1487839018,887.500000,889.129183,240,-26700,-8000,1,0
1487839020,912.500000,912.560910,240,-26700,-8000,1,0
1487839022,913.500000,913.419338,240,-26700,-8000,1,0
1487839024,915.500000,914.673773,240,-26700,-8000,1,0
1487839026,900.500000,902.247012,240,-26700,-8000,1,0
1487839028,916.500000,915.893690,240,-26700,-8000,1,0
1487839030,882.500000,883.678857,240,-26700,-8000,1,0
1487839032,921.500000,920.952768,240,-26700,-8000,1,0
1487839034,900.500000,902.227571,240,-26700,-8000,1,0
1487839036,891.500000,892.543910,240,-26700,-8000,1,0
1487839038,922.500000,921.904478,240,-26700,-8000,1,0
1487839040,924.500000,924.193455,240,-26700,-8000,1,0
1487839042,887.500000,888.304888,240,-26700,-8000,1,0
1487839044,923.500000,923.282964,240,-26700,-8000,1,0
1487839046,920.500000,920.192008,240,-26700,-8000,1,0
1487839048,894.500000,895.928791,240,-26700,-8000,1,0
1487839050,906.500000,907.567573,240,-26700,-8000,1,0
1487839052,914.500000,913.717084,240,-26700,-8000,1,0
1487839054,920.500000,920.059541,240,-26700,-8000,1,0
1487839056,927.500000,928.311335,240,-26700,-8000,1,0
1487839058,908.500000,908.978003,240,-26700,-8000,1,0
1487839060,891.500000,892.821137,240,-26700,-8000,1,0
1487839062,905.500000,906.725165,240,-26700,-8000,1,0
1487839064,919.500000,918.767933,240,-26700,-8000,1,0
1487839066,888.500000,890.287454,240,-26700,-8000,1,0
1487839068,925.500000,925.898579,240,-26700,-8000,1,0
1487839070,919.500000,919.012989,240,-26700,-8000,1,0
1487839072,901.500000,903.186323,240,-26700,-8000,1,0
1487839074,916.500000,915.413085,240,-26700,-8000,1,0
1487839076,895.500000,896.571164,240,-26700,-8000,1,0
1487839078,901.500000,902.671404,240,-26700,-8000,1,0
1487839080,892.500000,894.042877,240,-26700,-8000,1,0
1487839082,885.500000,886.181876,240,-26700,-8000,1,0
1487839084,909.500000,910.217928,240,-26700,-8000,1,0
1487839086,923.500000,923.484472,240,-26700,-8000,1,0
1487839088,904.500000,905.936567,240,-26700,-8000,1,0
1487839090,900.500000,902.490991,240,-26700,-8000,1,0
1487839092,914.500000,914.040410,240,-26700,-8000,1,0
1487839094,935.500000,937.997853,240,-26700,-8000,1,0
1487839096,917.500000,916.484115,240,-26700,-8000,1,0
1487839098,917.500000,916.139550,240,-26700,-8000,1,0
1487839100,938.500000,941.499258,240,-26700,-8000,1,0
1487839102,913.500000,913.224664,240,-26700,-8000,1,0
1487839104,932.500000,935.581198,240,-26700,-8000,1,0
1487839106,936.500000,939.611979,240,-26700,-8000,1,0
1487839108,912.500000,912.318909,240,-26700,-8000,1,0
1487839110,923.500000,923.025655,240,-26700,-8000,1,0
1487839112,921.500000,920.917500,240,-26700,-8000,1,0
1487839114,919.500000,919.209847,240,-26700,-8000,1,0
1487839116,923.500000,923.687218,240,-26700,-8000,1,0
1487839118,917.500000,917.181634,240,-26700,-8000,1,0
1487839120,928.500000,930.397191,240,-26700,-8000,1,0
1487839122,936.500000,939.375442,240,-26700,-8000,1,0
1487839124,934.500000,937.693532,240,-26700,-8000,1,0
1487839126,915.500000,914.709015,240,-26700,-8000,1,0
1487839128,889.500000,891.538481,240,-26700,-8000,1,0
1487839130,919.500000,918.314332,240,-26700,-8000,1,0
1487839132,907.500000,908.633399,240,-26700,-8000,1,0
1487839134,887.500000,888.213441,240,-26700,-8000,1,0
1487839136,930.500000,932.813546,240,-26700,-8000,1,0
1487839138,910.500000,910.998949,240,-26700,-8000,1,0
1487839140,890.500000,892.138625,240,-26700,-8000,1,0
1487839142,904.500000,905.617738,240,-26700,-8000,1,0
1487839144,902.500000,904.720454,240,-26700,-8000,1,0
1487839146,905.500000,906.814154,240,-26700,-8000,1,0
1487839148,924.500000,925.107885,240,-26700,-8000,1,0
1487839150,925.500000,926.215723,240,-26700,-8000,1,0
1487839152,911.500000,911.907223,240,-26700,-8000,1,0
1487839154,918.500000,917.277116,240,-26700,-8000,1,0
1487839156,918.500000,917.657899,240,-26700,-8000,1,0
1487839158,903.500000,904.770986,240,-26700,-8000,1,0
1487839160,919.500000,918.651166,240,-26700,-8000,1,0
1487839162,900.500000,901.594744,240,-26700,-8000,1,0
1487839164,896.500000,898.817684,240,-26700,-8000,1,0
1487839166,910.500000,911.598258,240,-26700,-8000,1,0
1487839168,923.500000,923.545163,240,-26700,-8000,1,0
1487839170,909.500000,910.021538,240,-26700,-8000,1,0
1487839172,909.500000,910.015860,240,-26700,-8000,1,0
1487839174,894.500000,895.522753,240,-26700,-8000,1,0
1487839176,896.500000,898.123211,240,-26700,-8000,1,0
1487839178,902.500000,905.021956,240,-26700,-8000,1,0
1487839180,910.500000,910.621502,240,-26700,-8000,1,0
1487839182,889.500000,890.310219,240,-26700,-8000,1,0
1487839184,907.500000,909.132009,240,-26700,-8000,1,0
1487839186,896.500000,898.132783,240,-26700,-8000,1,0
1487839188,922.500000,922.183359,240,-26700,-8000,1,0
1487839190,922.500000,922.126794,240,-26700,-8000,1,0
1487839192,904.500000,907.315272,240,-26700,-8000,1,0
1487839194,914.500000,913.553231,240,-26700,-8000,1,0
1487839196,895.500000,897.356716,240,-26700,-8000,1,0
1487839198,921.500000,920.309480,240,-26700,-8000,1,0
1487839200,897.500000,899.274458,240,-26700,-8000,1,0
1487839202,906.500000,907.012478,240,-26700,-8000,1,0
1487839204,898.500000,900.078289,240,-26700,-8000,1,0
1487839206,877.500000,878.028330,240,-26700,-8000,1,0
1487839208,877.500000,877.595087,240,-26700,-8000,1,0
1487839210,926.500000,927.033933,240,-26700,-8000,1,0
1487839212,897.500000,899.334173,240,-26700,-8000,1,0
1487839214,902.500000,904.121671,240,-26700,-8000,1,0
1487839216,907.500000,908.144098,240,-26700,-8000,1,0
1487839218,876.500000,876.241636,240,-26700,-8000,1,0
1487839220,916.500000,915.517026,240,-26700,-8000,1,0
1487839222,910.500000,910.503589,240,-26700,-8000,1,0
1487839224,902.500000,903.624126,240,-26700,-8000,1,0
1487839226,902.500000,903.636394,240,-26700,-8000,1,0
1487839228,899.500000,900.841220,240,-26700,-8000,1,0
1487839230,915.500000,914.236402,240,-26700,-8000,1,0
1487839232,910.500000,911.016975,240,-26700,-8000,1,0
1487839234,902.500000,903.701091,240,-26700,-8000,1,0
1487839236,926.500000,926.631908,240,-26700,-8000,1,0
1487839238,901.500000,902.557116,240,-26700,-8000,1,0
1487839240,916.500000,915.964014,240,-26700,-8000,1,0
1487839242,902.500000,903.721236,240,-26700,-8000,1,0
1487839244,906.500000,907.387314,240,-26700,-8000,1,0
1487839246,884.500000,885.212714,240,-26700,-8000,1,0
1487839248,906.500000,907.205883,240,-26700,-8000,1,0
1487839250,902.500000,903.692023,240,-26700,-8000,1,0
1487839252,915.500000,914.687808,240,-26700,-8000,1,0
1487839254,916.500000,915.528723,240,-26700,-8000,1,0
1487839256,914.500000,914.439987,240,-26700,-8000,1,0
1487839258,924.500000,923.977238,240,-26700,-8000,1,0
1487839260,900.500000,901.657009,240,-26700,-8000,1,0
1487839262,904.500000,905.931218,240,-26700,-8000,1,0
1487839264,898.500000,899.604403,240,-26700,-8000,1,0
1487839266,895.500000,895.965050,240,-26700,-8000,1,0
1487839268,921.500000,921.132999,240,-26700,-8000,1,0
1487839270,899.500000,899.997905,240,-26700,-8000,1,0
1487839272,915.500000,915.170919,240,-26700,-8000,1,0
1487839274,926.500000,927.065061,240,-26700,-8000,1,0
1487839276,897.500000,898.786096,240,-26700,-8000,1,0
1487839278,921.500000,920.766220,240,-26700,-8000,1,0
1487839280,912.500000,912.385728,240,-26700,-8000,1,0
1487839282,884.500000,885.233931,240,-26700,-8000,1,0
1487839284,894.500000,895.331631,240,-26700,-8000,1,0
1487839286,904.500000,905.406215,240,-26700,-8000,1,0
1487839288,885.500000,885.638291,240,-26700,-8000,1,0
1487839290,892.500000,892.885967,240,-26700,-8000,1,0
1487839292,894.500000,894.752048,240,-26700,-8000,1,0
1487839294,900.500000,901.926860,240,-26700,-8000,1,0
1487839296,909.500000,910.177202,240,-26700,-8000,1,0
1487839298,901.500000,902.746406,240,-26700,-8000,1,0
1487839300,914.500000,914.171107,240,-26700,-8000,1,0
1487839302,893.500000,894.118486,240,-26700,-8000,1,0
1487839304,896.500000,897.448594,240,-26700,-8000,1,0
1487839306,899.500000,900.636186,240,-26700,-8000,1,0
1487839308,917.500000,917.891846,240,-26700,-8000,1,0
1487839310,899.500000,900.505513,240,-26700,-8000,1,0
1487839312,908.500000,909.327835,240,-26700,-8000,1,0
1487839314,928.500000,930.127409,240,-26700,-8000,1,0
1487839316,922.500000,922.549786,240,-26700,-8000,1,0
1487839318,896.500000,897.430012,240,-26700,-8000,1,0
1487839320,924.500000,924.783988,240,-26700,-8000,1,0
1487839322,928.500000,929.253714,240,-26700,-8000,1,0
1487839324,906.500000,906.875131,240,-26700,-8000,1,0
1487839326,915.500000,914.610915,240,-26700,-8000,1,0
1487839328,922.500000,921.332350,240,-26700,-8000,1,0
1487839330,892.500000,893.047172,240,-26700,-8000,1,0
1487839332,901.500000,902.437295,240,-26700,-8000,1,0
1487839334,911.500000,911.151588,240,-26700,-8000,1,0
1487839336,918.500000,917.423805,240,-26700,-8000,1,0
1487839338,922.500000,922.297838,240,-26700,-8000,1,0
1487839340,925.500000,925.975013,240,-26700,-8000,1,0
1487839342,920.500000,919.519518,240,-26700,-8000,1,0
1487839344,892.500000,893.407856,240,-26700,-8000,1,0
1487839346,921.500000,920.836280,240,-26700,-8000,1,0
1487839348,920.500000,919.362803,240,-26700,-8000,1,0
1487839350,922.500000,921.467377,240,-26700,-8000,1,0
1487839352,913.500000,913.885320,240,-26700,-8000,1,0
1487839354,918.500000,917.782943,240,-26700,-8000,1,0
1487839356,895.500000,896.737338,240,-26700,-8000,1,0
1487839358,910.500000,910.767034,240,-26700,-8000,1,0
1487839360,920.500000,919.105686,240,-26700,-8000,1,0
1487839362,888.500000,889.941037,240,-26700,-8000,1,0
1487839364,892.500000,893.677294,240,-26700,-8000,1,0
1487839366,904.500000,906.077150,240,-26700,-8000,1,0
1487839368,877.500000,877.025092,240,-26700,-8000,1,0
1487839370,885.500000,886.089053,240,-26700,-8000,1,0
1487839372,925.500000,926.268277,240,-26700,-8000,1,0
1487839374,909.500000,909.829639,240,-26700,-8000,1,0
1487839376,906.500000,907.098164,240,-26700,-8000,1,0
1487839378,930.500000,932.491160,240,-26700,-8000,1,0
1487839380,893.500000,895.386414,240,-26700,-8000,1,0
1487839382,906.500000,908.120385,240,-26700,-8000,1,0
1487839384,893.500000,895.685139,240,-26700,-8000,1,0
1487839386,907.500000,908.538285,240,-26700,-8000,1,0
1487839388,923.500000,923.838960,240,-26700,-8000,1,0
1487839390,903.500000,905.125365,240,-26700,-8000,1,0
1487839392,923.500000,923.003609,240,-26700,-8000,1,0
1487839394,909.500000,909.485922,240,-26700,-8000,1,0
1487839396,927.500000,928.475945,240,-26700,-8000,1,0
1487839398,910.500000,910.822408,240,-26700,-8000,1,0
1487839400,926.500000,927.109197,240,-26700,-8000,1,0
1487839402,927.500000,928.232851,240,-26700,-8000,1,0
1487839404,906.500000,907.663905,240,-26700,-8000,1,0
1487839406,931.500000,933.358036,240,-26700,-8000,1,0
1487839408,970.500000,959.619150,240,-26700,-8000,1,0
1487839410,927.500000,927.903614,240,-26700,-8000,1,0
1487839412,908.500000,909.099343,240,-26700,-8000,1,0
1487839414,932.500000,935.062640,240,-26700,-8000,1,0
1487839416,927.500000,928.690417,240,-26700,-8000,1,0
1487839418,934.500000,937.629342,240,-26700,-8000,1,0
1487839420,924.500000,924.388943,240,-26700,-8000,1,0
1487839422,910.500000,910.899556,240,-26700,-8000,1,0
1487839424,932.500000,935.641312,240,-26700,-8000,1,0
1487839426,927.500000,927.750615,240,-26700,-8000,1,0
1487839428,923.500000,922.916825,240,-26700,-8000,1,0
1487839430,913.500000,913.173112,240,-26700,-8000,1,0
1487839432,926.500000,927.242523,240,-26700,-8000,1,0
1487839434,896.500000,897.230667,240,-26700,-8000,1,0
1487839436,912.500000,912.213683,240,-26700,-8000,1,0
1487839438,915.500000,915.029498,240,-26700,-8000,1,0
1487839440,928.500000,929.556736,240,-26700,-8000,1,0
1487839442,899.500000,900.847460,240,-26700,-8000,1,0
1487839444,934.500000,937.518283,240,-26700,-8000,1,0
1487839446,901.500000,902.675244,240,-26700,-8000,1,0
1487839448,890.500000,892.116135,240,-26700,-8000,1,0
1487839450,886.500000,887.383091,240,-26700,-8000,1,0
1487839452,892.500000,892.990502,240,-26700,-8000,1,0
1487839454,899.500000,901.242822,240,-26700,-8000,1,0
1487839456,921.500000,920.384134,240,-26700,-8000,1,0
1487839458,908.500000,908.775275,240,-26700,-8000,1,0
1487839460,898.500000,899.494431,240,-26700,-8000,1,0
1487839462,919.500000,918.637228,240,-26700,-8000,1,0
1487839464,900.500000,901.028825,240,-26700,-8000,1,0
1487839466,910.500000,910.658399,240,-26700,-8000,1,0
1487839468,923.500000,923.383222,240,-26700,-8000,1,0
1487839470,914.500000,914.028985,240,-26700,-8000,1,0
1487839472,914.500000,914.495563,240,-26700,-8000,1,0
1487839474,922.500000,922.520815,240,-26700,-8000,1,0
1487839476,929.500000,931.128176,240,-26700,-8000,1,0
1487839478,904.500000,905.635358,240,-26700,-8000,1,0
1487839480,899.500000,899.706381,240,-26700,-8000,1,0
1487839482,908.500000,909.091909,240,-26700,-8000,1,0
1487839484,908.500000,908.797686,240,-26700,-8000,1,0
1487839486,921.500000,920.477901,240,-26700,-8000,1,0
1487839488,921.500000,920.573257,240,-26700,-8000,1,0
1487839490,909.500000,910.063164,240,-26700,-8000,1,0
1487839492,894.500000,894.868524,240,-26700,-8000,1,0
1487839494,902.500000,903.838145,240,-26700,-8000,1,0
1487839496,895.500000,897.072262,240,-26700,-8000,1,0
1487839498,897.500000,898.756067,240,-26700,-8000,1,0
1487839500,922.500000,921.585209,240,-26700,-8000,1,0
1487839502,914.500000,913.766338,240,-26700,-8000,1,0
1487839504,898.500000,900.011234,240,-26700,-8000,1,0
1487839506,914.500000,914.205629,240,-26700,-8000,1,0
1487839508,900.500000,901.808413,240,-26700,-8000,1,0
1487839510,877.500000,877.726439,240,-26700,-8000,1,0
1487839512,914.500000,914.198653,240,-26700,-8000,1,0
1487839514,871.500000,869.741583,240,-26700,-8000,1,0
1487839516,901.500000,903.088736,240,-26700,-8000,1,0
1487839518,901.500000,902.962998,240,-26700,-8000,1,0
1487839520,909.500000,909.925408,240,-26700,-8000,1,0
1487839522,901.500000,902.939465,240,-26700,-8000,1,0
1487839524,890.500000,891.255734,240,-26700,-8000,1,0
1487839526,919.500000,918.804999,240,-26700,-8000,1,0
1487839528,895.500000,896.158026,240,-26700,-8000,1,0
1487839530,888.500000,889.256125,240,-26700,-8000,1,0
1487839532,924.500000,924.724877,240,-26700,-8000,1,0
1487839534,894.500000,894.858219,240,-26700,-8000,1,0
1487839536,896.500000,897.375399,240,-26700,-8000,1,0
1487839538,899.500000,900.292275,240,-26700,-8000,1,0
1487839540,909.500000,910.048975,240,-26700,-8000,1,0
1487839542,900.500000,901.351139,240,-26700,-8000,1,0
1487839544,906.500000,907.097065,240,-26700,-8000,1,0
1487839546,901.500000,902.540648,240,-26700,-8000,1,0
1487839548,896.500000,897.354666,240,-26700,-8000,1,0
1487839550,903.500000,904.282100,240,-26700,-8000,1,0
1487839552,919.500000,919.026862,240,-26700,-8000,1,0
1487839554,900.500000,901.886763,240,-26700,-8000,1,0
1487839556,899.500000,899.992593,240,-26700,-8000,1,0
1487839558,886.500000,887.039017,240,-26700,-8000,1,0
1487839560,904.500000,905.128539,240,-26700,-8000,1,0
1487839562,889.500000,890.197656,240,-26700,-8000,1,0
1487839564,880.500000,880.828644,240,-26700,-8000,1,0
1487839566,905.500000,906.116597,240,-26700,-8000,1,0
1487839568,919.500000,918.797710,240,-26700,-8000,1,0
1487839570,883.500000,883.838140,240,-26700,-8000,1,0
1487839572,901.500000,902.909204,240,-26700,-8000,1,0
1487839574,898.500000,900.089764,240,-26700,-8000,1,0
1487839576,931.500000,933.338350,240,-26700,-8000,1,0
1487839578,921.500000,921.295396,240,-26700,-8000,1,0
1487839580,920.500000,919.543999,240,-26700,-8000,1,0
1487839582,925.500000,925.648300,240,-26700,-8000,1,0
1487839584,904.500000,905.648817,240,-26700,-8000,1,0
1487839586,931.500000,933.207052,240,-26700,-8000,1,0
1487839588,937.500000,939.997708,240,-26700,-8000,1,0
1487839590,940.500000,942.851063,240,-26700,-8000,1,0
1487839592,937.500000,941.088840,240,-26700,-8000,1,0
1487839594,952.500000,953.681073,240,-26700,-8000,1,0
1487839596,940.500000,943.579072,240,-26700,-8000,1,0
1487839598,914.500000,913.831485,240,-26700,-8000,1,0
1487839600,960.500000,960.336780,240,-26700,-8000,1,0
1487839602,948.500000,950.460308,240,-26700,-8000,1,0
1487839604,949.500000,951.234579,240,-26700,-8000,1,0
1487839606,962.500000,961.824880,240,-26700,-8000,1,0
1487839608,969.500000,970.220279,240,-26700,-8000,1,0
1487839610,937.500000,940.043912,240,-26700,-8000,1,0
1487839612,949.500000,951.634533,240,-26700,-8000,1,0
1487839614,931.500000,934.043995,240,-26700,-8000,1,0
1487839616,946.500000,948.588982,240,-26700,-8000,1,0
1487839618,929.500000,930.320535,240,-26700,-8000,1,0
1487839620,920.500000,919.796134,240,-26700,-8000,1,0
1487839622,920.500000,919.418286,240,-26700,-8000,1,0
1487839624,937.500000,941.499077,240,-26700,-8000,1,0
1487839626,919.500000,919.243769,240,-26700,-8000,1,0
1487839628,925.500000,925.366843,240,-26700,-8000,1,0
1487839630,923.500000,923.718140,240,-26700,-8000,1,0
1487839632,929.500000,931.429927,240,-26700,-8000,1,0
1487839634,933.500000,936.284354,240,-26700,-8000,1,0
1487839636,897.500000,898.639620,240,-26700,-8000,1,0
1487839638,943.500000,945.692330,240,-26700,-8000,1,0
1487839640,920.500000,919.496940,240,-26700,-8000,1,0
1487839642,902.500000,903.479897,240,-26700,-8000,1,0
1487839644,923.500000,922.775511,240,-26700,-8000,1,0
1487839646,913.500000,913.657349,240,-26700,-8000,1,0
1487839648,897.500000,898.773548,240,-26700,-8000,1,0
1487839650,924.500000,924.132342,240,-26700,-8000,1,0
1487839652,912.500000,911.989113,240,-26700,-8000,1,0
1487839654,902.500000,903.917968,240,-26700,-8000,1,0
1487839656,920.500000,919.792376,240,-26700,-8000,1,0
1487839658,917.500000,917.059214,240,-26700,-8000,1,0
1487839660,905.500000,906.047786,240,-26700,-8000,1,0
1487839662,884.500000,885.217913,240,-26700,-8000,1,0
1487839664,910.500000,910.871176,240,-26700,-8000,1,0
1487839666,935.500000,938.340552,240,-26700,-8000,1,0
1487839668,927.500000,928.680221,240,-26700,-8000,1,0
1487839670,909.500000,909.863760,240,-26700,-8000,1,0
1487839672,899.500000,900.192587,240,-26700,-8000,1,0
1487839674,908.500000,908.868056,240,-26700,-8000,1,0
1487839676,909.500000,910.296783,240,-26700,-8000,1,0
1487839678,933.500000,935.632025,240,-26700,-8000,1,0
1487839680,902.500000,903.963762,240,-26700,-8000,1,0
1487839682,924.500000,924.938553,240,-26700,-8000,1,0
1487839684,929.500000,931.294992,240,-26700,-8000,1,0
1487839686,888.500000,889.778512,240,-26700,-8000,1,0
1487839688,937.500000,941.098774,240,-26700,-8000,1,0
1487839690,916.500000,916.119762,240,-26700,-8000,1,0
1487839692,926.500000,926.914890,240,-26700,-8000,1,0
1487839694,932.500000,934.991793,240,-26700,-8000,1,0
1487839696,917.500000,917.061517,240,-26700,-8000,1,0
1487839698,920.500000,919.706251,240,-26700,-8000,1,0
1487839700,911.500000,911.326069,240,-26700,-8000,1,0
1487839702,901.500000,902.391879,240,-26700,-8000,1,0
1487839704,911.500000,911.832555,240,-26700,-8000,1,0
1487839706,913.500000,913.006765,240,-26700,-8000,1,0
1487839708,925.500000,925.127689,240,-26700,-8000,1,0
1487839710,918.500000,917.793499,240,-26700,-8000,1,0
1487839712,883.500000,883.586167,240,-26700,-8000,1,0
1487839714,926.500000,927.820763,240,-26700,-8000,1,0
1487839716,902.500000,903.409250,240,-26700,-8000,1,0
1487839718,914.500000,913.668287,240,-26700,-8000,1,0
1487839720,898.500000,899.637623,240,-26700,-8000,1,0
1487839722,934.500000,937.311749,240,-26700,-8000,1,0
1487839724,905.500000,906.045589,240,-26700,-8000,1,0
1487839726,906.500000,906.906555,240,-26700,-8000,1,0
1487839728,930.500000,932.049423,240,-26700,-8000,1,0
1487839730,926.500000,927.568804,240,-26700,-8000,1,0
1487839732,924.500000,923.979676,240,-26700,-8000,1,0
1487839734,928.500000,930.237674,240,-26700,-8000,1,0
1487839736,930.500000,931.946210,240,-26700,-8000,1,0
1487839738,919.500000,918.932289,240,-26700,-8000,1,0
1487839740,910.500000,911.361881,240,-26700,-8000,1,0
1487839742,905.500000,906.450038,240,-26700,-8000,1,0
1487839744,925.500000,925.841934,240,-26700,-8000,1,0
1487839746,924.500000,924.293093,240,-26700,-8000,1,0
1487839748,943.500000,946.650131,240,-26700,-8000,1,0
1487839750,933.500000,936.276426,240,-26700,-8000,1,0
1487839752,920.500000,919.396219,240,-26700,-8000,1,0
1487839754,929.500000,931.834224,240,-26700,-8000,1,0
1487839756,928.500000,930.465955,240,-26700,-8000,1,0
1487839758,940.500000,943.403333,240,-26700,-8000,1,0
1487839760,945.500000,947.947261,240,-26700,-8000,1,0
1487839762,916.500000,915.128396,240,-26700,-8000,1,0
1487839764,926.500000,927.465621,240,-26700,-8000,1,0
1487839766,928.500000,929.564851,240,-26700,-8000,1,0
1487839768,931.500000,933.890299,240,-26700,-8000,1,0
1487839770,919.500000,918.076647,240,-26700,-8000,1,0
1487839772,910.500000,910.741927,240,-26700,-8000,1,0
1487839774,931.500000,933.138065,240,-26700,-8000,1,0
1487839776,920.500000,919.495653,240,-26700,-8000,1,0
1487839778,913.500000,912.705346,240,-26700,-8000,1,0
1487839780,919.500000,918.523256,240,-26700,-8000,1,0
1487839782,934.500000,936.955468,240,-26700,-8000,1,0
1487839784,927.500000,928.675186,240,-26700,-8000,1,0
1487839786,926.500000,927.569524,240,-26700,-8000,1,0
1487839788,940.500000,943.251906,240,-26700,-8000,1,0
1487839790,943.500000,946.215028,240,-26700,-8000,1,0
1487839792,907.500000,908.635054,240,-26700,-8000,1,0
1487839794,940.500000,943.812999,240,-26700,-8000,1,0
1487839796,928.500000,930.387951,240,-26700,-8000,1,0
1487839798,925.500000,925.738586,240,-26700,-8000,1,0
1487839800,913.500000,912.678203,240,-26700,-8000,1,0
1487839802,924.500000,924.370814,240,-26700,-8000,1,0
1487839804,903.500000,904.428437,240,-26700,-8000,1,0
1487839806,926.500000,927.178404,240,-26700,-8000,1,0
1487839808,899.500000,900.383938,240,-26700,-8000,1,0
1487839810,925.500000,926.218231,240,-26700,-8000,1,0
1487839812,935.500000,938.222992,240,-26700,-8000,1,0
1487839814,922.500000,922.840798,240,-26700,-8000,1,0
1487839816,940.500000,943.387471,240,-26700,-8000,1,0
1487839818,927.500000,928.783863,240,-26700,-8000,1,0
1487839820,897.500000,898.718038,240,-26700,-8000,1,0
1487839822,916.500000,916.619905,240,-26700,-8000,1,0
1487839824,927.500000,928.643648,240,-26700,-8000,1,0
1487839826,908.500000,909.766510,240,-26700,-8000,1,0
1487839828,921.500000,920.763123,240,-26700,-8000,1,0
1487839830,925.500000,926.048719,240,-26700,-8000,1,0
1487839832,931.500000,933.988384,240,-26700,-8000,1,0
1487839834,918.500000,918.041784,240,-26700,-8000,1,0
1487839836,927.500000,928.431885,240,-26700,-8000,1,0
1487839838,924.500000,924.370912,240,-26700,-8000,1,0
1487839840,897.500000,898.377153,240,-26700,-8000,1,0
1487839842,938.500000,941.824703,240,-26700,-8000,1,0
1487839844,905.500000,906.754877,240,-26700,-8000,1,0
1487839846,921.500000,920.731050,240,-26700,-8000,1,0
1487839848,916.500000,917.364424,240,-26700,-8000,1,0
1487839850,922.500000,922.314111,240,-26700,-8000,1,0
1487839852,921.500000,921.522756,240,-26700,-8000,1,0
1487839854,921.500000,921.067077,240,-26700,-8000,1,0
1487839856,919.500000,919.041116,240,-26700,-8000,1,0
1487839858,886.500000,887.560087,240,-26700,-8000,1,0
1487839860,895.500000,896.387372,240,-26700,-8000,1,0
1487839862,910.500000,911.554774,240,-26700,-8000,1,0
1487839864,922.500000,922.333296,240,-26700,-8000,1,0
1487839866,906.500000,907.585263,240,-26700,-8000,1,0
1487839868,912.500000,912.415943,240,-26700,-8000,1,0
1487839870,906.500000,907.846191,240,-26700,-8000,1,0
1487839872,905.500000,906.169972,240,-26700,-8000,1,0
1487839874,924.500000,924.031775,240,-26700,-8000,1,0
1487839876,918.500000,917.928594,240,-26700,-8000,1,0
1487839878,888.500000,889.378061,240,-26700,-8000,1,0
1487839880,922.500000,922.192900,240,-26700,-8000,1,0
1487839882,923.500000,923.285270,240,-26700,-8000,1,0
1487839884,881.500000,880.995613,240,-26700,-8000,1,0
1487839886,905.500000,906.131564,240,-26700,-8000,1,0
1487839888,902.500000,903.826699,240,-26700,-8000,1,0
1487839890,891.500000,892.471295,240,-26700,-8000,1,0
1487839892,903.500000,904.137499,240,-26700,-8000,1,0
1487839894,919.500000,918.276408,240,-26700,-8000,1,0
1487839896,918.500000,917.364576,240,-26700,-8000,1,0
1487839898,915.500000,915.549693,240,-26700,-8000,1,0
1487839900,902.500000,903.411197,240,-26700,-8000,1,0
1487839902,879.500000,879.604507,240,-26700,-8000,1,0
1487839904,881.500000,881.721829,240,-26700,-8000,1,0
1487839906,889.500000,890.030602,240,-26700,-8000,1,0
1487839908,868.500000,867.590033,240,-26700,-8000,1,0
1487839910,890.500000,891.645682,240,-26700,-8000,1,0
1487839912,871.500000,870.476404,240,-26700,-8000,1,0
1487839914,880.500000,880.805660,240,-26700,-8000,1,0
1487839916,865.500000,864.405213,240,-26700,-8000,1,0
1487839918,881.500000,881.773694,240,-26700,-8000,1,0
1487839920,873.500000,872.020189,240,-26700,-8000,1,0
1487839922,882.500000,882.048999,240,-26700,-8000,1,0
1487839924,894.500000,895.109074,240,-26700,-8000,1,0
1487839926,870.500000,869.171374,240,-26700,-8000,1,0
1487839928,864.500000,863.920112,240,-26700,-8000,1,0
1487839930,891.500000,892.442914,240,-26700,-8000,1,0
1487839932,874.500000,874.170763,240,-26700,-8000,1,0
1487839934,871.500000,870.601783,240,-26700,-8000,1,0
1487839936,870.500000,868.850837,240,-26700,-8000,1,0
1487839938,899.500000,900.489229,240,-26700,-8000,1,0
1487839940,888.500000,889.342671,240,-26700,-8000,1,0
1487839942,900.500000,901.683322,240,-26700,-8000,1,0
1487839944,893.500000,894.468318,240,-26700,-8000,1,0
1487839946,879.500000,879.404837,240,-26700,-8000,1,0
1487839948,927.500000,928.347581,240,-26700,-8000,1,0
1487839950,882.500000,882.635973,240,-26700,-8000,1,0
1487839952,895.500000,895.949212,240,-26700,-8000,1,0
1487839954,908.500000,909.126374,240,-26700,-8000,1,0
1487839956,913.500000,913.269819,240,-26700,-8000,1,0
1487839958,916.500000,916.323248,240,-26700,-8000,1,0
1487839960,926.500000,927.401887,240,-26700,-8000,1,0
1487839962,923.500000,924.369928,240,-26700,-8000,1,0
1487839964,918.500000,919.156171,240,-26700,-8000,1,0
1487839966,928.500000,930.929977,240,-26700,-8000,1,0
1487839968,947.500000,950.502300,240,-26700,-8000,1,0
1487839970,906.500000,908.131451,240,-26700,-8000,1,0
1487839972,920.500000,921.062638,240,-26700,-8000,1,0
1487839974,920.500000,921.301899,240,-26700,-8000,1,0
1487839976,894.500000,895.010311,240,-26700,-8000,1,0
1487839978,932.500000,934.761832,240,-26700,-8000,1,0
1487839980,925.500000,925.961401,240,-26700,-8000,1,0
1487839982,896.500000,896.896675,240,-26700,-8000,1,0
1487839984,934.500000,937.399048,240,-26700,-8000,1,0
1487839986,929.500000,930.819670,240,-26700,-8000,1,0
1487839988,935.500000,937.946876,240,-26700,-8000,1,0
1487839990,932.500000,934.743635,240,-26700,-8000,1,0
1487839992,949.500000,951.569276,240,-26700,-8000,1,0
1487839994,931.500000,934.402788,240,-26700,-8000,1,0
1487839996,930.500000,934.260018,240,-26700,-8000,1,0
1487839998,950.500000,952.166595,240,-26700,-8000,1,0
1487840000,964.500000,964.099328,240,-26700,-8000,1,0
1487840002,942.500000,945.394685,240,-26700,-8000,1,0
1487840004,946.500000,949.182258,240,-26700,-8000,1,0
1487840006,966.500000,965.977240,240,-26700,-8000,1,0
1487840008,956.500000,956.833917,240,-26700,-8000,1,0
1487840010,962.500000,962.360243,240,-26700,-8000,1,0
1487840012,942.500000,945.403910,240,-26700,-8000,1,0
1487840014,942.500000,945.446393,240,-26700,-8000,1,0
1487840016,930.500000,932.647052,240,-26700,-8000,1,0
1487840018,958.500000,958.603290,240,-26700,-8000,1,0
1487840020,936.500000,939.282179,240,-26700,-8000,1,0
1487840022,956.500000,956.782900,240,-26700,-8000,1,0
1487840024,966.500000,966.932571,240,-26700,-8000,1,0
1487840026,940.500000,943.951405,240,-26700,-8000,1,0
1487840028,932.500000,934.993919,240,-26700,-8000,1,0
1487840030,946.500000,948.746453,240,-26700,-8000,1,0
1487840032,947.500000,949.739401,240,-26700,-8000,1,0
1487840034,939.500000,942.052104,240,-26700,-8000,1,0
1487840036,937.500000,941.738224,240,-26700,-8000,1,0
1487840038,935.500000,938.727831,240,-26700,-8000,1,0
1487840040,934.500000,937.608911,240,-26700,-8000,1,0
1487840042,932.500000,935.775331,240,-26700,-8000,1,0
1487840044,927.500000,928.667851,240,-26700,-8000,1,0
1487840046,910.500000,911.080495,240,-26700,-8000,1,0
1487840048,928.500000,929.781322,240,-26700,-8000,1,0
1487840050,929.500000,933.000511,240,-26700,-8000,1,0
1487840052,927.500000,928.795052,240,-26700,-8000,1,0
1487840054,919.500000,919.557969,240,-26700,-8000,1,0
1487840056,927.500000,928.339524,240,-26700,-8000,1,0
1487840058,921.500000,920.355587,240,-26700,-8000,1,0
1487840060,937.500000,939.508199,240,-26700,-8000,1,0
1487840062,920.500000,919.555925,240,-26700,-8000,1,0
1487840064,923.500000,923.346843,240,-26700,-8000,1,0
1487840066,933.500000,935.971836,240,-26700,-8000,1,0
1487840068,939.500000,941.700069,240,-26700,-8000,1,0
1487840070,913.500000,914.160406,240,-26700,-8000,1,0
1487840072,922.500000,922.423804,240,-26700,-8000,1,0
1487840074,900.500000,901.951189,240,-26700,-8000,1,0
1487840076,931.500000,933.783349,240,-26700,-8000,1,0
1487840078,910.500000,910.917334,240,-26700,-8000,1,0
1487840080,941.500000,943.538170,240,-26700,-8000,1,0
1487840082,918.500000,918.003927,240,-26700,-8000,1,0
1487840084,925.500000,926.350020,240,-26700,-8000,1,0
1487840086,925.500000,926.154042,240,-26700,-8000,1,0
1487840088,938.500000,941.477258,240,-26700,-8000,1,0
1487840090,933.500000,935.534653,240,-26700,-8000,1,0
1487840092,938.500000,941.923342,240,-26700,-8000,1,0
1487840094,928.500000,929.719253,240,-26700,-8000,1,0
1487840096,916.500000,915.962108,240,-26700,-8000,1,0
1487840098,941.500000,944.924548,240,-26700,-8000,1,0
1487840100,916.500000,916.185271,240,-26700,-8000,1,0
1487840102,937.500000,940.448949,240,-26700,-8000,1,0
1487840104,947.500000,948.976652,240,-26700,-8000,1,0
1487840106,931.500000,933.419455,240,-26700,-8000,1,0
1487840108,937.500000,939.713895,240,-26700,-8000,1,0
1487840110,917.500000,917.317408,240,-26700,-8000,1,0
1487840112,925.500000,926.072515,240,-26700,-8000,1,0
1487840114,928.500000,929.175016,240,-26700,-8000,1,0
1487840116,948.500000,950.538986,240,-26700,-8000,1,0
1487840118,919.500000,918.428794,240,-26700,-8000,1,0
1487840120,920.500000,919.533627,240,-26700,-8000,1,0
1487840122,928.500000,930.232495,240,-26700,-8000,1,0
1487840124,916.500000,915.663296,240,-26700,-8000,1,0
1487840126,944.500000,946.948666,240,-26700,-8000,1,0
1487840128,915.500000,914.868561,240,-26700,-8000,1,0
1487840130,928.500000,929.226828,240,-26700,-8000,1,0
1487840132,932.500000,934.327625,240,-26700,-8000,1,0
1487840134,921.500000,921.585197,240,-26700,-8000,1,0
1487840136,928.500000,929.669186,240,-26700,-8000,1,0
1487840138,927.500000,928.876363,240,-26700,-8000,1,0
1487840140,918.500000,917.983004,240,-26700,-8000,1,0
1487840142,915.500000,914.827426,240,-26700,-8000,1,0
1487840144,908.500000,909.068207,240,-26700,-8000,1,0
1487840146,907.500000,908.353413,240,-26700,-8000,1,0
1487840148,923.500000,923.434184,240,-26700,-8000,1,0
1487840150,916.500000,915.892009,240,-26700,-8000,1,0
1487840152,918.500000,918.113173,240,-26700,-8000,1,0
1487840154,909.500000,910.150094,240,-26700,-8000,1,0
1487840156,920.500000,919.363769,240,-26700,-8000,1,0
1487840158,904.500000,905.398667,240,-26700,-8000,1,0
1487840160,897.500000,898.035842,240,-26700,-8000,1,0
1487840162,921.500000,920.827531,240,-26700,-8000,1,0
1487840164,913.500000,912.805644,240,-26700,-8000,1,0
1487840166,892.500000,893.345470,240,-26700,-8000,1,0
1487840168,902.500000,903.598976,240,-26700,-8000,1,0
1487840170,917.500000,916.491998,240,-26700,-8000,1,0
1487840172,902.500000,904.202017,240,-26700,-8000,1,0
1487840174,903.500000,904.853183,240,-26700,-8000,1,0
1487840176,900.500000,902.100368,240,-26700,-8000,1,0
1487840178,876.500000,875.917163,240,-26700,-8000,1,0
1487840180,908.500000,909.061632,240,-26700,-8000,1,0
1487840182,912.500000,912.979928,240,-26700,-8000,1,0
1487840184,890.500000,890.985077,240,-26700,-8000,1,0
1487840186,880.500000,880.893710,240,-26700,-8000,1,0
1487840188,882.500000,882.517328,240,-26700,-8000,1,0
1487840190,877.500000,876.751622,240,-26700,-8000,1,0
1487840192,890.500000,890.634060,240,-26700,-8000,1,0
1487840194,878.500000,877.885443,240,-26700,-8000,1,0
1487840196,866.500000,865.131319,240,-26700,-8000,1,0
1487840198,852.500000,853.183596,240,-26700,-8000,1,0
1487840200,845.500000,845.732298,240,-26700,-8000,1,0
1487840202,846.500000,846.613699,240,-26700,-8000,1,0
1487840204,815.500000,816.968507,240,-26700,-8000,1,0
1487840206,854.500000,855.271654,240,-26700,-8000,1,0
1487840208,833.500000,834.301151,240,-26700,-8000,1,0
1487840210,833.500000,833.918108,240,-26700,-8000,1,0
1487840212,847.500000,848.339098,240,-26700,-8000,1,0
1487840214,839.500000,839.993861,240,-26700,-8000,1,0
1487840216,844.500000,844.219078,240,-26700,-8000,1,0
1487840218,850.500000,851.327005,240,-26700,-8000,1,0
1487840220,860.500000,859.626721,240,-26700,-8000,1,0
1487840222,876.500000,876.055306,240,-26700,-8000,1,0
1487840224,890.500000,891.302173,240,-26700,-8000,1,0
1487840226,868.500000,867.342072,240,-26700,-8000,1,0
1487840228,883.500000,884.220135,240,-26700,-8000,1,0
1487840230,881.500000,881.316047,240,-26700,-8000,1,0
1487840232,870.500000,869.149832,240,-26700,-8000,1,0
1487840234,872.500000,871.385538,240,-26700,-8000,1,0
1487840236,875.500000,875.129120,240,-26700,-8000,1,0
1487840238,891.500000,892.243133,240,-26700,-8000,1,0
1487840240,884.500000,885.711359,240,-26700,-8000,1,0
1487840242,908.500000,908.968953,240,-26700,-8000,1,0
1487840244,884.500000,886.219821,240,-26700,-8000,1,0
1487840246,884.500000,885.565995,240,-26700,-8000,1,0
1487840248,882.500000,882.552188,240,-26700,-8000,1,0
1487840250,883.500000,884.225203,240,-26700,-8000,1,0
1487840252,901.500000,903.230843,240,-26700,-8000,1,0
1487840254,911.500000,911.339632,240,-26700,-8000,1,0
1487840256,892.500000,893.679164,240,-26700,-8000,1,0
1487840258,906.500000,907.263876,240,-26700,-8000,1,0
1487840260,903.500000,903.902043,240,-26700,-8000,1,0
1487840262,904.500000,905.696206,240,-26700,-8000,1,0
1487840264,899.500000,900.149107,240,-26700,-8000,1,0
1487840266,880.500000,880.697406,240,-26700,-8000,1,0
1487840268,897.500000,898.673023,240,-26700,-8000,1,0
1487840270,905.500000,906.111861,240,-26700,-8000,1,0
1487840272,879.500000,879.407366,240,-26700,-8000,1,0
1487840274,890.500000,890.695805,240,-26700,-8000,1,0
1487840276,877.500000,876.557227,240,-26700,-8000,1,0
1487840278,891.500000,892.517770,240,-26700,-8000,1,0
1487840280,889.500000,889.892092,240,-26700,-8000,1,0
1487840282,875.500000,874.215515,240,-26700,-8000,1,0
1487840284,879.500000,879.813812,240,-26700,-8000,1,0
1487840286,883.500000,883.883422,240,-26700,-8000,1,0
1487840288,896.500000,897.654484,240,-26700,-8000,1,0
1487840290,867.500000,865.688440,240,-26700,-8000,1,0
1487840292,889.500000,889.898320,240,-26700,-8000,1,0
1487840294,874.500000,873.647643,240,-26700,-8000,1,0
1487840296,865.500000,864.331110,240,-26700,-8000,1,0
1487840298,868.500000,866.914122,240,-26700,-8000,1,0
1487840300,877.500000,876.835901,240,-26700,-8000,1,0
1487840302,863.500000,862.685246,240,-26700,-8000,1,0
1487840304,885.500000,885.780325,240,-26700,-8000,1,0
1487840306,874.500000,873.397448,240,-26700,-8000,1,0
1487840308,878.500000,878.242675,240,-26700,-8000,1,0
1487840310,885.500000,887.464970,240,-26700,-8000,1,0
1487840312,886.500000,888.569893,240,-26700,-8000,1,0
1487840314,867.500000,865.974630,240,-26700,-8000,1,0
1487840316,892.500000,894.003538,240,-26700,-8000,1,0
1487840318,876.500000,875.342716,240,-26700,-8000,1,0
1487840320,869.500000,868.372836,240,-26700,-8000,1,0
1487840322,873.500000,872.678193,240,-26700,-8000,1,0
1487840324,867.500000,865.758953,240,-26700,-8000,1,0
1487840326,882.500000,882.389915,240,-26700,-8000,1,0
1487840328,880.500000,880.198081,240,-26700,-8000,1,0
1487840330,875.500000,874.843837,240,-26700,-8000,1,0
1487840332,860.500000,859.938913,240,-26700,-8000,1,0
1487840334,879.500000,879.132884,240,-26700,-8000,1,0
1487840336,872.500000,871.398435,240,-26700,-8000,1,0
1487840338,892.500000,892.917408,240,-26700,-8000,1,0
1487840340,872.500000,870.562255,240,-26700,-8000,1,0
1487840342,873.500000,872.258606,240,-26700,-8000,1,0
1487840344,888.500000,889.994369,240,-26700,-8000,1,0
1487840346,878.500000,878.529132,240,-26700,-8000,1,0
1487840348,894.500000,895.832883,240,-26700,-8000,1,0
1487840350,860.500000,860.443143,240,-26700,-8000,1,0
1487840352,874.500000,873.529400,240,-26700,-8000,1,0
1487840354,871.500000,870.269125,240,-26700,-8000,1,0
1487840356,880.500000,880.587614,240,-26700,-8000,1,0
1487840358,876.500000,875.469923,240,-26700,-8000,1,0
1487840360,887.500000,889.085998,240,-26700,-8000,1,0
1487840362,867.500000,866.184058,240,-26700,-8000,1,0
1487840364,867.500000,865.617969,240,-26700,-8000,1,0
1487840366,875.500000,874.869540,240,-26700,-8000,1,0
1487840368,843.500000,843.369611,240,-26700,-8000,1,0
1487840370,863.500000,862.672262,240,-26700,-8000,1,0
1487840372,872.500000,871.243961,240,-26700,-8000,1,0
1487840374,879.500000,878.966000,240,-26700,-8000,1,0
1487840376,852.500000,854.074525,240,-26700,-8000,1,0
1487840378,865.500000,864.359486,240,-26700,-8000,1,0
1487840380,881.500000,882.453102,240,-26700,-8000,1,0
1487840382,850.500000,851.559003,240,-26700,-8000,1,0
1487840384,873.500000,871.574137,240,-26700,-8000,1,0
1487840386,860.500000,860.238343,240,-26700,-8000,1,0
1487840388,860.500000,859.897595,240,-26700,-8000,1,0
1487840390,881.500000,881.530064,240,-26700,-8000,1,0
1487840392,870.500000,868.613236,240,-26700,-8000,1,0
1487840394,854.500000,855.777677,240,-26700,-8000,1,0
1487840396,847.500000,848.356586,240,-26700,-8000,1,0
1487840398,864.500000,863.205542,240,-26700,-8000,1,0
1487840400,878.500000,877.803360,240,-26700,-8000,1,0
1487840402,859.500000,859.694395,240,-26700,-8000,1,0
1487840404,853.500000,854.891680,240,-26700,-8000,1,0
1487840406,870.500000,868.738405,240,-26700,-8000,1,0
1487840408,860.500000,860.118734,240,-26700,-8000,1,0
1487840410,861.500000,861.284200,240,-26700,-8000,1,0
1487840412,852.500000,854.078529,240,-26700,-8000,1,0
1487840414,876.500000,875.669145,240,-26700,-8000,1,0
1487840416,860.500000,860.393950,240,-26700,-8000,1,0
1487840418,860.500000,859.956913,240,-26700,-8000,1,0
1487840420,867.500000,866.492105,240,-26700,-8000,1,0
1487840422,872.500000,871.152843,240,-26700,-8000,1,0
1487840424,860.500000,860.267698,240,-26700,-8000,1,0
1487840426,868.500000,866.897964,240,-26700,-8000,1,0
1487840428,869.500000,867.507051,240,-26700,-8000,1,0
1487840430,868.500000,867.004021,240,-26700,-8000,1,0
