tag_number,delay,power_est
1497813368,347.3333333348,115.203
1497813370,342.5333333348,122.715
1497813372,349.7333333348,120.661
1497813376,332.9333333348,113.662
1497813378,349.7333333348,108.966
1497813380,366.5333333348,111.255
1497813382,323.3333333348,113.253
1497813384,263.3333333348,105.452
1497813386,330.5333333348,110.396
1497813388,318.5333333348,114.653
1497813390,347.3333333348,114.439
1497813392,347.3333333348,113.55
1497813394,323.3333333348,107.493
1497813396,352.1333333348,109.292
1497813400,289.7333333348,107.082
1497813402,332.9333333348,120.529
1497813404,402.5333333348,115.408
1497813408,320.9333333348,119.831
1497813414,332.9333333348,114.239
1497813418,335.3333333348,121.413
1497813422,337.7333333348,112.75
1497813424,332.9333333348,112.92
1497813428,325.7333333348,120.041
1497813430,289.7333333348,117.569
1497813432,335.3333333348,124.621
1497813434,328.1333333348,123.435
1497813436,332.9333333348,119.15
1497813438,234.5333333348,117.159
1497813440,304.1333333348,114.705
1497813442,234.5333333348,114.681
1497813444,265.7333333348,114.764
1497813446,265.7333333348,114.408
1497813450,328.1333333348,119.749
1497813452,349.7333333348,116.707
1497813458,335.3333333348,119.865
1497813460,208.1333333348,116.093
1497813462,332.9333333348,118.454
1497813464,304.1333333348,124.113
1497813466,335.3333333348,118.862
1497813468,275.3333333348,116.928
1497813470,308.9333333348,121.528
1497813472,325.7333333348,118.497
1497813476,212.9333333348,116.323
1497813478,292.1333333348,120.755
1497813480,313.7333333348,119.75
1497813482,354.5333333348,112.111
1497813484,318.5333333348,112.126
1497813486,332.9333333348,113.443
1497813488,280.1333333348,117.391
1497813490,323.3333333348,112.041
1497813492,330.5333333348,111.687
1497813500,301.7333333348,117.851
1497813502,320.9333333348,116.41
1497813504,323.3333333348,113.113
1497813506,292.1333333348,117.995
1497813510,280.1333333348,114.756
1497813512,320.9333333348,114.22
1497813514,205.7333333348,107.837
1497813516,275.3333333348,109.933
1497813518,332.9333333348,101.501
1497813520,208.1333333348,110.126
1497813522,236.9333333348,113.213
1497813524,275.3333333348,107.553
1497813526,212.9333333348,115.262
1497813528,208.1333333348,108.13
1497813530,335.3333333348,113.402
1497813532,352.1333333348,110.316
1497813538,335.3333333348,106.07
1497813544,332.9333333348,107.441
1497813546,313.7333333348,112.481
1497813548,217.7333333348,113.123
1497813550,306.5333333348,112.726
1497813552,301.7333333348,109.344
1497813554,311.3333333348,112.239
1497813556,311.3333333348,110.469
1497813558,325.7333333348,114.753
1497813560,368.9333333348,106.149
1497813562,292.1333333348,113.374
1497813564,330.5333333348,113.061
1497813566,248.9333333348,108.361
1497813570,335.3333333348,118.317
1497813572,330.5333333348,116.454
1497813574,337.7333333348,113.986
1497813576,337.7333333348,114.973
1497813578,272.9333333348,106.703
1497813580,320.9333333348,111.403
1497813582,263.3333333348,120.279
1497813584,311.3333333348,114.505
1497813586,308.9333333348,113.141
1497813588,275.3333333348,107.674
1497813590,292.1333333348,112.572
1497813592,280.1333333348,112.444
1497813596,268.1333333348,116.219
1497813598,292.1333333348,119
1497813600,282.5333333348,110.815
1497813602,332.9333333348,111.653
1497813604,260.9333333348,117.64
1497813606,330.5333333348,113.072
1497813608,299.3333333348,116.952
1497813610,313.7333333348,107.365
1497813612,234.5333333348,117.734
1497813614,325.7333333348,107.941
1497813616,256.1333333348,106.641
1497813618,265.7333333348,111.31
1497813620,251.3333333348,107.65
1497813622,325.7333333348,103.199
1497813624,332.9333333348,109.143
1497813626,248.9333333348,111.204
1497813628,287.3333333348,109.223
1497813630,332.9333333348,107.62
1497813632,323.3333333348,121.193
1497813634,256.1333333348,113.652
1497813636,270.5333333348,107.645
1497813638,203.3333333348,113.091
1497813640,203.3333333348,107.032
1497813642,308.9333333348,114.718
1497813644,277.7333333348,107.874
1497813646,241.7333333348,114.887
1497813648,210.5333333348,117.299
1497813650,239.3333333348,113.116
1497813652,210.5333333348,116.43
1497813654,301.7333333348,115.811
1497813656,241.7333333348,114.593
1497813658,208.1333333348,113.286
1497813660,244.1333333348,104.134
1497813662,318.5333333348,108.846
1497813664,296.9333333348,112.214
1497813666,217.7333333348,113.4
1497813668,248.9333333348,116.958
1497813670,251.3333333348,122.413
1497813672,260.9333333348,115.83
1497813674,251.3333333348,116.695
1497813676,270.5333333348,115.659
1497813678,246.5333333348,119.063
1497813680,210.5333333348,112.586
1497813682,330.5333333348,121.614
1497813684,323.3333333348,118.574
1497813686,304.1333333348,117.345
1497813690,284.9333333348,114.414
1497813692,318.5333333348,123.203
1497813694,232.1333333348,117.171
1497813696,260.9333333348,107.225
1497813698,229.7333333348,104.518
1497813700,263.3333333348,107.184
1497813702,330.5333333348,114.944
1497813704,241.7333333348,106.368
1497813706,263.3333333348,114.992
1497813708,236.9333333348,109.548
1497813710,265.7333333348,114.172
1497813712,296.9333333348,106.018
1497813714,316.1333333348,118.506
1497813716,248.9333333348,116.383
1497813718,246.5333333348,117.925
1497813720,234.5333333348,114.497
1497813722,253.7333333348,117.079
1497813724,289.7333333348,115.3
1497813726,280.1333333348,113.427
1497813728,304.1333333348,117.012
1497813730,328.1333333348,113.055
1497813732,296.9333333348,114.447
1497813734,277.7333333348,125.753
1497813736,332.9333333348,117.378
1497813738,342.5333333348,116.169
1497813740,289.7333333348,102.758
1497813742,280.1333333348,109.6
1497813744,239.3333333348,107.281
1497813746,236.9333333348,108.621
1497813748,229.7333333348,110.585
1497813750,270.5333333348,111.588
1497813752,200.9333333348,113.268
1497813754,239.3333333348,107.55
1497813756,263.3333333348,110.711
1497813758,311.3333333348,111.278
1497813760,248.9333333348,116.388
1497813762,234.5333333348,115.215
1497813764,277.7333333348,110.269
1497813766,270.5333333348,112.781
1497813768,253.7333333348,115.478
1497813770,239.3333333348,109.955
1497813772,241.7333333348,116.494
1497813774,215.3333333348,109.947
1497813776,277.7333333348,116.432
1497813778,335.3333333348,115.343
1497813780,234.5333333348,106.76
1497813782,186.5333333348,106.017
1497813784,248.9333333348,116.952
1497813786,289.7333333348,117.024
1497813788,205.7333333348,110.264
1497813790,205.7333333348,117.883
1497813792,241.7333333348,109.085
1497813794,208.1333333348,116.417
1497813796,318.5333333348,101.487
1497813798,232.1333333348,115.26
1497813800,236.9333333348,111.136
1497813802,265.7333333348,113.923
1497813804,316.1333333348,115.717
1497813806,323.3333333348,114.043
1497813808,296.9333333348,109.472
1497813810,282.5333333348,108.109
1497813812,323.3333333348,111.342
1497813814,313.7333333348,110.992
1497813816,320.9333333348,104.673
1497813818,246.5333333348,108.395
1497813820,272.9333333348,103.673
1497813822,244.1333333348,109.946
1497813824,325.7333333348,115.771
1497813826,320.9333333348,110.229
1497813828,253.7333333348,111.485
1497813830,301.7333333348,114.865
1497813832,316.1333333348,110.404
1497813834,323.3333333348,109.992
1497813836,299.3333333348,114.676
1497813838,325.7333333348,119.312
1497813840,323.3333333348,113.363
1497813842,292.1333333348,115.392
1497813844,325.7333333348,117.697
1497813846,349.7333333348,113.592
1497813848,256.1333333348,118.048
1497813850,311.3333333348,109.272
1497813852,325.7333333348,111.746
1497813854,320.9333333348,114.698
1497813856,294.5333333348,108.363
1497813858,340.1333333348,103.688
1497813860,359.3333333348,111.822
1497813862,282.5333333348,108.223
1497813864,313.7333333348,109.069
1497813866,325.7333333348,111.309
1497813868,306.5333333348,113.006
1497813870,251.3333333348,111.881
1497813872,246.5333333348,111.49
1497813874,301.7333333348,111.809
1497813876,289.7333333348,107.296
1497813878,287.3333333348,105.872
1497813880,296.9333333348,90.4407
1497813882,270.5333333348,105.531
1497813884,270.5333333348,103.389
1497813886,256.1333333348,103.93
1497813888,241.7333333348,106.8
1497813890,275.3333333348,109.389
1497813892,215.3333333348,102.322
1497813894,320.9333333348,103.153
1497813896,332.9333333348,107.079
1497813898,236.9333333348,109.402
1497813900,251.3333333348,110.981
1497813902,256.1333333348,109.974
1497813904,318.5333333348,118.048
1497813906,306.5333333348,113.462
1497813908,268.1333333348,113.038
1497813910,325.7333333348,109.403
1497813912,301.7333333348,118.115
1497813914,304.1333333348,109.722
1497813916,328.1333333348,113.044
1497813918,313.7333333348,117.095
1497813920,320.9333333348,110.256
1497813922,323.3333333348,113.157
1497813924,392.9333333348,111.213
1497813926,347.3333333348,108.528
1497813928,352.1333333348,111.197
1497813930,347.3333333348,108.941
1497813932,342.5333333348,109.806
1497813934,344.9333333348,110.879
1497813936,344.9333333348,104.188
1497813938,349.7333333348,103.777
1497813940,356.9333333348,110.082
1497813942,335.3333333348,104.91
1497813944,354.5333333348,106.486
1497813946,294.5333333348,109.751
1497813948,342.5333333348,101.602
1497813950,347.3333333348,111.992
1497813952,359.3333333348,104.356
1497813954,347.3333333348,106.455
1497813956,316.1333333348,110.945
1497813958,364.1333333348,106.319
1497813960,352.1333333348,103.287
1497813962,320.9333333348,105.956
1497813964,332.9333333348,105.146
1497813966,359.3333333348,108.72
1497813968,385.7333333348,110.644
1497813970,356.9333333348,103.748
1497813972,318.5333333348,104.609
1497813974,332.9333333348,105.415
1497813976,301.7333333348,102.492
1497813978,328.1333333348,105.602
1497813980,337.7333333348,107.585
1497813982,217.7333333348,110.447
1497813984,340.1333333348,110.032
1497813986,287.3333333348,108.049
1497813988,299.3333333348,108.178
1497813990,198.5333333348,110.834
1497813992,251.3333333348,107.106
1497813994,332.9333333348,102.996
1497813996,260.9333333348,109.472
1497813998,193.7333333348,112.764
1497814000,215.3333333348,114.064
1497814002,236.9333333348,99.5451
1497814004,188.9333333348,111.528
1497814006,193.7333333348,109.27
1497814008,205.7333333348,109.843
1497814010,220.1333333348,111.52
1497814012,208.1333333348,110.949
1497814014,200.9333333348,106.802
1497814016,191.3333333348,113.229
1497814020,205.7333333348,105.166
1497814022,234.5333333348,108.885
1497814024,210.5333333348,104.554
1497814026,200.9333333348,103.489
1497814028,229.7333333348,108.218
1497814030,232.1333333348,104.822
1497814032,260.9333333348,104.403
1497814034,198.5333333348,114.349
1497814036,205.7333333348,113.718
1497814038,258.5333333348,110.187
1497814040,232.1333333348,110.06
1497814042,220.1333333348,102.58
1497814044,241.7333333348,110.697
1497814046,188.9333333348,114.894
1497814048,198.5333333348,112.966
1497814050,196.1333333348,114.743
1497814052,227.3333333348,120.232
1497814054,208.1333333348,111.59
1497814056,253.7333333348,113.841
1497814058,222.5333333348,113.111
1497814060,337.7333333348,128.977
1497814064,265.7333333348,125.428
1497814066,217.7333333348,122.241
1497814068,222.5333333348,115.921
1497814072,244.1333333348,121.372
1497814074,220.1333333348,117.783
1497814076,217.7333333348,113.171
1497814078,224.9333333348,101.706
1497814080,296.9333333348,108.746
1497814082,280.1333333348,108.869
1497814084,181.7333333348,112.931
1497814086,256.1333333348,111.888
1497814088,200.9333333348,108.053
1497814090,181.7333333348,113.707
1497814092,212.9333333348,100.095
1497814094,248.9333333348,112.591
1497814096,203.3333333348,111.159
1497814098,188.9333333348,118.443
1497814100,244.1333333348,119.26
1497814102,270.5333333348,110.23
1497814104,239.3333333348,113.659
1497814106,220.1333333348,109.872
1497814108,270.5333333348,108.547
1497814110,256.1333333348,115.748
1497814112,222.5333333348,110.431
1497814114,258.5333333348,106.167
1497814116,222.5333333348,118.684
1497814118,222.5333333348,110.599
1497814120,229.7333333348,113.94
1497814122,234.5333333348,111.494
1497814124,203.3333333348,109.21
1497814126,241.7333333348,108.441
1497814128,241.7333333348,107.229
1497814130,251.3333333348,111.148
1497814132,215.3333333348,112.182
1497814134,229.7333333348,114.697
1497814136,268.1333333348,113.014
1497814138,203.3333333348,114.004
1497814140,193.7333333348,118.642
1497814142,308.9333333348,106.513
1497814144,227.3333333348,111.946
1497814146,169.7333333348,119.343
1497814148,186.5333333348,107.785
1497814150,184.1333333348,107.701
1497814152,248.9333333348,105.902
1497814154,215.3333333348,112.508
1497814156,236.9333333348,111.935
1497814158,196.1333333348,108.636
1497814160,234.5333333348,111.74
1497814162,203.3333333348,109.992
1497814164,301.7333333348,108.349
1497814166,270.5333333348,110.488
1497814168,251.3333333348,100.831
1497814170,244.1333333348,112.866
1497814172,330.5333333348,112.825
1497814174,294.5333333348,110.552
1497814176,332.9333333348,114.078
1497814178,244.1333333348,116.827
1497814180,323.3333333348,116.748
1497814182,325.7333333348,114.039
1497814184,320.9333333348,116.71
1497814186,275.3333333348,119.45
1497814188,258.5333333348,124.229
1497814190,241.7333333348,116.626
1497814192,299.3333333348,115.405
1497814194,311.3333333348,116.052
1497814196,320.9333333348,118.851
1497814198,244.1333333348,114.473
1497814200,277.7333333348,113.689
1497814202,246.5333333348,119.214
1497814204,241.7333333348,115.197
1497814206,306.5333333348,116.912
1497814208,299.3333333348,111.133
1497814210,272.9333333348,110.823
1497814212,251.3333333348,114.638
1497814214,294.5333333348,110.034
1497814216,217.7333333348,110.92
1497814218,284.9333333348,112.688
1497814220,265.7333333348,119.33
1497814222,325.7333333348,109.499
1497814224,239.3333333348,108.363
1497814226,246.5333333348,115.075
1497814228,294.5333333348,107.686
1497814230,280.1333333348,108.786
1497814232,256.1333333348,115.314
1497814234,328.1333333348,112.701
1497814236,335.3333333348,104.826
1497814238,332.9333333348,108.993
1497814240,323.3333333348,112.329
1497814242,308.9333333348,105.24
1497814244,306.5333333348,109.02
1497814246,340.1333333348,110.908
1497814248,282.5333333348,107.939
1497814250,292.1333333348,104.947
1497814252,313.7333333348,111.912
1497814254,299.3333333348,102.83
1497814256,215.3333333348,113.581
1497814258,246.5333333348,109.698
1497814260,256.1333333348,104.016
1497814262,320.9333333348,108.755
1497814264,301.7333333348,104.821
1497814266,318.5333333348,100.623
1497814268,251.3333333348,107.905
1497814270,263.3333333348,103.316
1497814272,239.3333333348,96.4835
1497814274,296.9333333348,107.238
1497814276,229.7333333348,108.165
1497814278,210.5333333348,107.302
1497814280,246.5333333348,109.04
1497814282,229.7333333348,110.38
1497814284,232.1333333348,109.672
1497814286,260.9333333348,102.635
1497814288,292.1333333348,113.383
1497814290,203.3333333348,112.858
1497814292,236.9333333348,115.89
1497814294,282.5333333348,109.536
1497814296,205.7333333348,105.899
1497814298,191.3333333348,109.175
1497814300,234.5333333348,106.008
1497814302,232.1333333348,117.049
1497814304,246.5333333348,110.781
1497814306,208.1333333348,109.076
1497814308,270.5333333348,107.817
1497814310,316.1333333348,113.218
1497814312,203.3333333348,111.212
1497814314,239.3333333348,112.09
1497814316,335.3333333348,109.819
1497814318,196.1333333348,115.696
1497814320,260.9333333348,113.386
1497814322,220.1333333348,110.06
1497814324,304.1333333348,106.975
1497814326,275.3333333348,111.004
1497814328,239.3333333348,114.185
1497814330,311.3333333348,116.217
1497814332,316.1333333348,111.822
1497814334,308.9333333348,112.158
1497814336,332.9333333348,113.743
1497814338,306.5333333348,112.882
1497814340,313.7333333348,112.089
1497814342,239.3333333348,101.781
1497814344,335.3333333348,110.483
1497814346,342.5333333348,107.894
1497814348,284.9333333348,114.657
1497814350,304.1333333348,107.959
1497814352,292.1333333348,109.607
1497814354,330.5333333348,111.139
1497814356,294.5333333348,107.635
1497814358,234.5333333348,110.408
1497814360,287.3333333348,111.83
1497814362,299.3333333348,112.417
1497814364,277.7333333348,106.838
1497814366,306.5333333348,105.856
1497814368,244.1333333348,119.871
1497814370,239.3333333348,112.879
1497814372,328.1333333348,119.163
1497814374,299.3333333348,114.325
1497814376,284.9333333348,118.569
1497814378,251.3333333348,114.115
1497814380,306.5333333348,114.176
1497814382,287.3333333348,110.594
1497814384,287.3333333348,120.099
1497814386,328.1333333348,114.789
1497814388,296.9333333348,117.989
1497814390,224.9333333348,108.233
1497814392,220.1333333348,104.046
1497814394,258.5333333348,117.265
1497814396,215.3333333348,115.604
1497814398,287.3333333348,109.392
1497814400,248.9333333348,107.378
1497814402,306.5333333348,112.625
1497814404,272.9333333348,113.605
1497814406,234.5333333348,113.895
1497814408,289.7333333348,109.264
1497814410,280.1333333348,113.359
1497814412,301.7333333348,109.517
1497814414,268.1333333348,103.254
1497814416,282.5333333348,105.982
1497814418,220.1333333348,118.34
1497814420,217.7333333348,110.143
1497814422,196.1333333348,113.576
1497814424,251.3333333348,113.06
1497814426,222.5333333348,116.82
1497814428,263.3333333348,112.352
1497814430,263.3333333348,116.438
1497814432,236.9333333348,118.971
1497814434,258.5333333348,117.405
1497814436,232.1333333348,111.243
1497814438,205.7333333348,115.543
1497814440,241.7333333348,111.605
1497814442,277.7333333348,111.716
1497814444,311.3333333348,106.843
1497814446,239.3333333348,114.799
1497814448,241.7333333348,111.758
1497814450,215.3333333348,109.615
1497814452,260.9333333348,115.774
1497814454,320.9333333348,115.777
1497814456,296.9333333348,112.089
1497814458,268.1333333348,104.464
1497814460,215.3333333348,114.473
1497814462,299.3333333348,107.603
1497814464,236.9333333348,110.752
1497814466,277.7333333348,116.265
1497814468,253.7333333348,115.895
1497814470,287.3333333348,114.867
1497814472,234.5333333348,116.528
1497814474,239.3333333348,110.922
1497814476,248.9333333348,112.441
1497814478,234.5333333348,100.245
1497814480,217.7333333348,111.972
1497814482,251.3333333348,105.747
1497814484,222.5333333348,109.933
1497814486,210.5333333348,109.851
1497814488,294.5333333348,107.243
1497814490,239.3333333348,113.441
1497814492,244.1333333348,109.029
1497814494,227.3333333348,118.533
1497814496,258.5333333348,108.154
1497814498,227.3333333348,109.743
1497814500,239.3333333348,116.021
1497814502,241.7333333348,111.117
1497814504,248.9333333348,108.686
1497814506,234.5333333348,110.904
1497814508,234.5333333348,119.01
1497814510,294.5333333348,116.633
1497814512,239.3333333348,116.377
1497814514,212.9333333348,115.283
1497814516,248.9333333348,111.854
1497814518,253.7333333348,106.744
1497814520,203.3333333348,111.007
1497814522,203.3333333348,108.698
1497814524,284.9333333348,110.457
1497814526,246.5333333348,114.918
1497814528,215.3333333348,107.508
1497814530,217.7333333348,108.675
1497814532,256.1333333348,114.997
1497814534,203.3333333348,113.225
1497814536,236.9333333348,114.552
1497814538,181.7333333348,113.111
1497814540,325.7333333348,113.585
1497814542,208.1333333348,112.955
1497814544,265.7333333348,113.899
1497814546,287.3333333348,106.325
1497814548,284.9333333348,107.36
1497814550,234.5333333348,105.42
1497814552,301.7333333348,99.58
1497814554,301.7333333348,102.989
1497814556,260.9333333348,107.479
1497814558,265.7333333348,104.031
1497814560,332.9333333348,97.034
1497814562,320.9333333348,100.564
1497814564,260.9333333348,106.892
1497814566,330.5333333348,101.281
1497814568,332.9333333348,97.9278
1497814570,337.7333333348,111.538
1497814572,253.7333333348,105.951
1497814574,323.3333333348,110.709
1497814576,260.9333333348,107.139
1497814578,200.9333333348,109.962
1497814580,260.9333333348,106.545
1497814582,280.1333333348,111.422
1497814584,253.7333333348,109.798
1497814586,224.9333333348,110.106
1497814590,210.5333333348,113.537
1497814592,196.1333333348,119.953
1497814594,205.7333333348,118.472
1497814596,200.9333333348,111.63
1497814598,212.9333333348,115.061
1497814600,208.1333333348,115.068
1497814602,198.5333333348,114.184
1497814604,246.5333333348,112.352
1497814606,188.9333333348,115.542
1497814608,181.7333333348,107.6
1497814610,210.5333333348,103.501
1497814612,191.3333333348,115.835
1497814614,208.1333333348,119.373
1497814616,196.1333333348,111.11
1497814618,198.5333333348,107.6
1497814620,186.5333333348,108.293
1497814622,179.3333333348,107.103
1497814624,169.7333333348,111.872
1497814626,184.1333333348,108.601
1497814628,174.5333333348,105.868
1497814630,196.1333333348,117.345
1497814632,200.9333333348,112.002
1497814634,179.3333333348,99.4726
1497814636,174.5333333348,110.204
1497814638,210.5333333348,107.301
1497814640,181.7333333348,106.783
1497814642,205.7333333348,107.17
1497814644,160.1333333348,105.062
1497814646,217.7333333348,111.497
1497814648,224.9333333348,107.569
1497814650,198.5333333348,110.056
1497814652,193.7333333348,106.696
1497814654,205.7333333348,105.907
1497814656,220.1333333348,111.562
1497814658,212.9333333348,113.553
1497814660,210.5333333348,117.939
1497814662,215.3333333348,115.921
1497814664,193.7333333348,119.418
1497814666,179.3333333348,117.892
1497814668,188.9333333348,103.962
1497814670,184.1333333348,99.8258
1497814672,205.7333333348,110.08
1497814674,244.1333333348,108.686
1497814676,188.9333333348,104.911
1497814678,203.3333333348,102.086
1497814680,200.9333333348,105.798
1497814682,236.9333333348,102.327
1497814684,184.1333333348,103.64
1497814686,198.5333333348,105.653
1497814688,208.1333333348,113.805
1497814690,227.3333333348,113.122
1497814692,181.7333333348,116.042
1497814694,193.7333333348,113.236
1497814696,248.9333333348,106.168
1497814698,200.9333333348,105.544
1497814700,208.1333333348,102.397
1497814702,251.3333333348,116.811
1497814704,217.7333333348,118.552
1497814706,212.9333333348,112.935
1497814708,280.1333333348,106.791
1497814710,222.5333333348,109.06
1497814712,179.3333333348,116.639
1497814714,212.9333333348,100.209
1497814716,234.5333333348,114.637
1497814718,227.3333333348,99.0741
1497814720,287.3333333348,103.464
1497814722,289.7333333348,108.333
1497814724,294.5333333348,107.463
1497814726,304.1333333348,103.787
1497814728,275.3333333348,105.244
1497814730,227.3333333348,105.759
1497814732,325.7333333348,109.929
1497814734,289.7333333348,109.622
1497814736,224.9333333348,106.067
1497814738,236.9333333348,113.848
1497814740,292.1333333348,114.765
1497814742,232.1333333348,110.063
1497814744,277.7333333348,116.731
1497814746,287.3333333348,105.699
1497814748,248.9333333348,111.792
1497814750,320.9333333348,113.356
1497814752,316.1333333348,118.765
1497814754,311.3333333348,112.325
1497814756,239.3333333348,113.376
1497814758,277.7333333348,113.662
1497814760,284.9333333348,114.502
1497814762,301.7333333348,112.359
1497814764,294.5333333348,118.587
1497814766,306.5333333348,115.44
1497814768,335.3333333348,113.862
1497814770,323.3333333348,110.445
1497814772,256.1333333348,118.776
1497814774,284.9333333348,116.36
1497814776,325.7333333348,118.194
1497814778,263.3333333348,110.364
1497814780,325.7333333348,109.726
1497814782,318.5333333348,116.192
1497814784,332.9333333348,119.615
1497814786,265.7333333348,121.423
1497814788,248.9333333348,117.888
1497814790,323.3333333348,116.533
1497814792,304.1333333348,117.03
1497814794,263.3333333348,112.374
1497814796,311.3333333348,114.484
1497814798,265.7333333348,113.195
1497814800,246.5333333348,111.942
1497814802,296.9333333348,109.707
1497814804,220.1333333348,107.31
1497814806,246.5333333348,110.073
1497814808,280.1333333348,109.159
1497814810,272.9333333348,110.701
1497814812,277.7333333348,113.971
1497814814,241.7333333348,114.226
1497814816,256.1333333348,119.096
1497814818,287.3333333348,113.292
1497814820,224.9333333348,111.948
1497814822,308.9333333348,114.27
1497814824,270.5333333348,108.259
1497814826,251.3333333348,118.821
1497814828,210.5333333348,113.371
1497814830,275.3333333348,117.45
1497814832,304.1333333348,108.807
1497814834,292.1333333348,118.03
1497814836,292.1333333348,108.732
1497814838,294.5333333348,112.592
1497814840,323.3333333348,105.771
1497814842,258.5333333348,117.476
1497814844,328.1333333348,117.604
1497814846,328.1333333348,105.178
1497814848,270.5333333348,112.254
1497814850,344.9333333348,112.929
1497814852,318.5333333348,111.421
1497814854,332.9333333348,110.391
1497814856,320.9333333348,116.372
1497814858,335.3333333348,115.719
1497814860,347.3333333348,111.084
1497814862,332.9333333348,119.509
1497814864,354.5333333348,109.817
1497814866,359.3333333348,106.135
1497814868,412.1333333348,113.21
1497814870,325.7333333348,110.323
1497814872,368.9333333348,100.566
1497814874,361.7333333348,105.986
1497814876,332.9333333348,106.062
1497814878,359.3333333348,107.502
1497814880,364.1333333348,107.67
1497814882,380.9333333348,109.035
1497814884,340.1333333348,111.217
1497814886,354.5333333348,112.443
1497814888,354.5333333348,111.672
1497814890,320.9333333348,108.658
1497814892,373.7333333348,106.528
1497814894,359.3333333348,113.117
1497814896,352.1333333348,112.798
1497814898,354.5333333348,111.501
1497814900,340.1333333348,115.249
1497814902,335.3333333348,112.964
1497814904,328.1333333348,109.78
1497814906,316.1333333348,112.287
1497814908,335.3333333348,106.013
1497814910,359.3333333348,113.729
1497814912,368.9333333348,117.35
1497814914,383.3333333348,113.977
1497814916,368.9333333348,111.681
1497814918,342.5333333348,118.433
1497814920,361.7333333348,116.087
1497814922,356.9333333348,113.184
1497814924,344.9333333348,111.642
1497814926,359.3333333348,114.572
1497814928,431.3333333348,120.444
1497814930,388.1333333348,103.335
1497814932,424.1333333348,111.315
1497814934,342.5333333348,115.446
1497814936,392.9333333348,112.777
1497814938,414.5333333348,115.644
1497814940,404.9333333348,110.35
1497814942,402.5333333348,116.726
1497814944,364.1333333348,119.418
1497814946,330.5333333348,113.057
1497814948,388.1333333348,108.275
1497814950,421.7333333348,118.493
1497814952,359.3333333348,112.038
1497814954,376.1333333348,104.64
1497814956,416.9333333348,110.711
1497814958,361.7333333348,109.953
1497814960,361.7333333348,111.435
1497814962,354.5333333348,115.18
1497814964,414.5333333348,111.013
1497814966,395.3333333348,101.554
1497814968,407.3333333348,98.7792
1497814970,424.1333333348,102.578
1497814972,404.9333333348,102.372
1497814974,414.5333333348,104.173
1497814976,392.9333333348,106.763
1497814978,395.3333333348,111.938
1497814980,436.1333333348,108.298
1497814982,412.1333333348,103.918
1497814984,412.1333333348,111.315
1497814986,349.7333333348,110.385
1497814988,421.7333333348,107.674
1497814990,402.5333333348,106.47
1497814992,385.7333333348,102.629
1497814994,366.5333333348,111.107
1497814996,416.9333333348,116.484
1497814998,424.1333333348,108.707
1497815000,457.7333333348,113.926
1497815002,412.1333333348,111.254
1497815004,452.9333333348,108.461
1497815006,404.9333333348,109.558
1497815008,407.3333333348,109.86
1497815010,414.5333333348,110.368
1497815012,404.9333333348,102.982
1497815014,361.7333333348,114.335
1497815016,368.9333333348,116.722
1497815018,361.7333333348,112.747
1497815020,373.7333333348,117.555
1497815022,354.5333333348,112.252
1497815024,373.7333333348,110.991
1497815026,400.1333333348,108.713
1497815028,397.7333333348,119.478
1497815030,344.9333333348,116.593
1497815032,361.7333333348,112.829
1497815034,335.3333333348,110.375
1497815036,402.5333333348,111.793
1497815038,402.5333333348,121.6
1497815040,354.5333333348,117.354
1497815042,378.5333333348,111.412
1497815044,378.5333333348,115.504
1497815046,342.5333333348,109.623
1497815048,352.1333333348,112.164
1497815050,349.7333333348,121.722
1497815052,304.1333333348,116.395
1497815054,306.5333333348,115.077
1497815056,342.5333333348,108.955
1497815058,344.9333333348,102.24
1497815060,330.5333333348,98.741
1497815062,337.7333333348,105.037
1497815064,308.9333333348,109.115
1497815066,328.1333333348,105.593
1497815068,356.9333333348,108.464
1497815070,280.1333333348,99.3272
1497815072,316.1333333348,106.686
1497815074,320.9333333348,105.752
1497815076,347.3333333348,98.8872
1497815078,284.9333333348,107.341
1497815080,344.9333333348,102.001
1497815082,280.1333333348,108.51
1497815084,280.1333333348,103.494
1497815086,268.1333333348,108.542
1497815088,263.3333333348,108.496
1497815090,296.9333333348,111.71
1497815092,289.7333333348,112.085
1497815094,282.5333333348,108.996
1497815096,328.1333333348,104.887
1497815098,304.1333333348,108.624
1497815100,313.7333333348,107.981
1497815102,284.9333333348,117.685
1497815104,323.3333333348,115.037
1497815106,282.5333333348,113.412
1497815108,311.3333333348,107.962
1497815110,294.5333333348,105.299
1497815112,256.1333333348,116.095
1497815114,284.9333333348,116.352
1497815116,299.3333333348,114.666
1497815118,296.9333333348,108.582
1497815120,330.5333333348,116.103
1497815122,344.9333333348,119.998
1497815124,356.9333333348,111.698
1497815126,292.1333333348,110.618
1497815128,320.9333333348,111.077
1497815130,349.7333333348,116.136
1497815132,342.5333333348,110.044
1497815134,342.5333333348,106.068
1497815136,412.1333333348,99.8131
1497815138,373.7333333348,111.863
1497815140,416.9333333348,106.569
1497815142,428.9333333348,108.656
1497815144,431.3333333348,108.467
1497815146,476.9333333348,103.497
1497815148,445.7333333348,109.947
1497815150,428.9333333348,106.295
1497815152,479.3333333348,108.546
1497815154,498.5333333348,108.576
1497815156,443.3333333348,113.293
1497815158,419.3333333348,110.13
1497815160,481.7333333348,109.975
1497815162,416.9333333348,108.216
1497815164,371.3333333348,117.067
1497815166,395.3333333348,117.96
1497815168,380.9333333348,113.828
1497815170,354.5333333348,112.727
1497815172,325.7333333348,115.959
1497815174,414.5333333348,116.318
1497815176,354.5333333348,116.782
1497815178,342.5333333348,112.131
1497815180,352.1333333348,112.676
1497815182,301.7333333348,116.036
1497815184,325.7333333348,107.591
1497815186,390.5333333348,113.031
1497815188,356.9333333348,121.667
1497815190,335.3333333348,117.854
1497815192,361.7333333348,111.722
1497815194,330.5333333348,112.28
1497815196,395.3333333348,116.086
1497815198,320.9333333348,110.423
1497815200,320.9333333348,116.555
1497815202,352.1333333348,113.722
1497815204,354.5333333348,109.709
1497815206,335.3333333348,110.729
1497815208,392.9333333348,114.104
1497815210,349.7333333348,120.91
1497815212,407.3333333348,110.151
1497815214,376.1333333348,116.652
1497815216,419.3333333348,111.104
1497815218,385.7333333348,116.125
1497815220,342.5333333348,110.661
1497815222,414.5333333348,113.61
1497815224,354.5333333348,120.874
1497815226,390.5333333348,115.998
1497815228,354.5333333348,115.056
1497815230,364.1333333348,112.692
1497815232,356.9333333348,125.501
1497815234,380.9333333348,111.041
1497815236,344.9333333348,115.68
1497815238,356.9333333348,115.944
1497815240,330.5333333348,117.644
1497815242,371.3333333348,121.583
1497815244,356.9333333348,114.178
1497815246,349.7333333348,114.076
1497815248,342.5333333348,106.047
1497815250,356.9333333348,108.739
1497815252,436.1333333348,113.569
1497815254,352.1333333348,114.192
1497815256,388.1333333348,112.523
1497815258,371.3333333348,113.168
1497815260,400.1333333348,115.897
1497815262,390.5333333348,109.629
1497815264,385.7333333348,101.933
1497815266,407.3333333348,118.019
1497815268,349.7333333348,117.721
1497815270,344.9333333348,115.646
1497815272,337.7333333348,117.833
1497815274,361.7333333348,108.397
1497815276,330.5333333348,108.438
1497815278,352.1333333348,110.4
1497815280,337.7333333348,106.87
1497815282,311.3333333348,113.839
1497815284,316.1333333348,105.89
1497815286,301.7333333348,116.896
1497815288,359.3333333348,109.507
1497815292,344.9333333348,116.002
1497815294,366.5333333348,118.507
1497815296,325.7333333348,113.426
1497815298,344.9333333348,117.681
1497815300,280.1333333348,113.533
1497815302,344.9333333348,111.015
1497815304,306.5333333348,114.044
1497815306,340.1333333348,109.564
1497815308,320.9333333348,108.003
1497815310,323.3333333348,107.275
1497815312,236.9333333348,110.688
1497815314,330.5333333348,116.34
1497815316,313.7333333348,111.023
1497815318,308.9333333348,112.549
1497815320,328.1333333348,114.774
1497815322,337.7333333348,120.442
1497815324,385.7333333348,112.689
1497815326,342.5333333348,110.972
1497815328,373.7333333348,109.889
1497815330,347.3333333348,110.544
1497815332,409.7333333348,113.225
1497815334,426.5333333348,98.1487
1497815336,402.5333333348,104.101
1497815338,407.3333333348,103.896
1497815340,359.3333333348,102.621
1497815342,335.3333333348,104.534
1497815344,409.7333333348,97.9881
1497815346,364.1333333348,103.31
1497815348,359.3333333348,100.527
1497815350,311.3333333348,107.621
1497815352,354.5333333348,116.997
1497815354,342.5333333348,112.925
1497815356,337.7333333348,119.612
1497815358,328.1333333348,122.581
1497815360,371.3333333348,114.208
1497815362,347.3333333348,114.74
1497815364,342.5333333348,112.228
1497815366,361.7333333348,104.487
1497815368,359.3333333348,106.797
1497815370,325.7333333348,111.705
1497815372,332.9333333348,113.604
1497815374,316.1333333348,119.59
1497815376,340.1333333348,116.52
1497815378,320.9333333348,116.84
1497815380,248.9333333348,114.935
1497815382,306.5333333348,118.027
1497815384,313.7333333348,118.883
1497815386,340.1333333348,113.443
1497815388,306.5333333348,111.869
1497815390,328.1333333348,120.955
1497815392,260.9333333348,108.436
1497815394,292.1333333348,109.683
1497815396,308.9333333348,117.556
1497815398,328.1333333348,114.3
1497815400,270.5333333348,116.182
1497815402,330.5333333348,117.627
1497815404,332.9333333348,111.919
1497815406,320.9333333348,112.48
1497815408,306.5333333348,117.446
1497815410,323.3333333348,114.538
1497815412,328.1333333348,113.743
1497815414,258.5333333348,115.737
1497815418,335.3333333348,103.12
1497815420,335.3333333348,104.302
1497815422,344.9333333348,107.257
1497815424,325.7333333348,108.612
1497815426,344.9333333348,104.296
1497815428,352.1333333348,101.958
1497815430,344.9333333348,103.409
1497815432,316.1333333348,111.871
1497815434,282.5333333348,101.751
1497815436,311.3333333348,105.508
1497815438,335.3333333348,115.012
1497815440,320.9333333348,107.438
1497815442,320.9333333348,107.491
1497815444,316.1333333348,107.54
1497815446,352.1333333348,106.604
1497815448,335.3333333348,104.938
1497815450,342.5333333348,109.237
1497815452,328.1333333348,120.644
1497815454,332.9333333348,118.759
1497815456,356.9333333348,121
1497815458,364.1333333348,118.402
1497815460,361.7333333348,124.402
1497815462,349.7333333348,114.917
1497815464,402.5333333348,111.801
1497815466,368.9333333348,116.483
1497815468,364.1333333348,114.259
1497815470,344.9333333348,108.295
1497815472,359.3333333348,109.064
1497815474,388.1333333348,115.108
1497815476,407.3333333348,110.226
1497815478,395.3333333348,117.017
1497815480,340.1333333348,113.211
1497815482,385.7333333348,121.985
1497815484,392.9333333348,112.617
1497815486,371.3333333348,121.3
1497815488,359.3333333348,110.692
1497815490,359.3333333348,113.114
1497815492,318.5333333348,111.538
1497815494,328.1333333348,123.565
1497815496,323.3333333348,120.965
1497815498,318.5333333348,114.11
1497815500,328.1333333348,109.171
1497815502,306.5333333348,111.332
1497815504,323.3333333348,112.179
1497815506,354.5333333348,105.711
1497815508,335.3333333348,115.594
1497815510,340.1333333348,111.711
1497815512,349.7333333348,109.677
1497815514,335.3333333348,115.841
1497815516,284.9333333348,105.022
1497815518,301.7333333348,112.543
1497815520,275.3333333348,108.615
1497815522,215.3333333348,118.427
1497815524,272.9333333348,112.831
1497815526,296.9333333348,119.966
1497815528,340.1333333348,123.869
1497815530,280.1333333348,120.163
1497815532,332.9333333348,115.133
1497815534,323.3333333348,117.371
1497815536,287.3333333348,117.362
1497815538,229.7333333348,121.731
1497815540,337.7333333348,115.393
1497815542,296.9333333348,115.369
1497815544,301.7333333348,120.126
1497815546,304.1333333348,109.261
1497815548,289.7333333348,108.029
1497815550,284.9333333348,110.543
1497815552,299.3333333348,111.686
1497815554,328.1333333348,113.207
1497815556,352.1333333348,113.804
1497815558,344.9333333348,114.086
1497815560,330.5333333348,117.699
1497815562,335.3333333348,113.38
1497815564,323.3333333348,117.291
1497815566,325.7333333348,110.065
1497815568,332.9333333348,113.313
1497815570,366.5333333348,107.202
1497815572,392.9333333348,114.126
1497815574,354.5333333348,108.283
1497815576,366.5333333348,115.429
1497815578,364.1333333348,106.372
1497815580,390.5333333348,105.817
1497815582,390.5333333348,111.615
1497815584,352.1333333348,112.15
1497815586,342.5333333348,106.441
1497815588,342.5333333348,113.852
1497815590,364.1333333348,117.811
1497815592,407.3333333348,104.407
1497815594,371.3333333348,105.31
1497815596,332.9333333348,119.027
1497815598,433.7333333348,111.229
1497815600,371.3333333348,106.675
1497815602,347.3333333348,106.467
1497815604,404.9333333348,108.902
1497815606,400.1333333348,104.237
1497815608,361.7333333348,111.951
1497815610,364.1333333348,113.473
1497815612,356.9333333348,114.659
1497815614,361.7333333348,108.106
1497815616,352.1333333348,115.178
1497815618,332.9333333348,118.399
1497815620,404.9333333348,116.208
1497815622,400.1333333348,111.007
1497815624,392.9333333348,108.59
1497815626,424.1333333348,114.345
1497815628,419.3333333348,108.843
1497815630,392.9333333348,106.969
1497815632,404.9333333348,108.629
1497815634,436.1333333348,108.866
1497815636,426.5333333348,114.482
1497815638,419.3333333348,105.438
1497815640,443.3333333348,106.257
1497815642,419.3333333348,115.95
1497815644,397.7333333348,111.946
1497815646,400.1333333348,117.419
1497815648,433.7333333348,110.106
1497815650,404.9333333348,110.541
1497815652,347.3333333348,113.374
1497815654,390.5333333348,106.375
1497815656,419.3333333348,112.098
1497815658,392.9333333348,114.811
1497815660,392.9333333348,108.416
1497815662,359.3333333348,105.765
1497815664,349.7333333348,102.999
1497815666,335.3333333348,110.803
1497815668,325.7333333348,115.644
1497815670,352.1333333348,113.057
1497815672,337.7333333348,103.576
1497815674,313.7333333348,112.832
1497815676,352.1333333348,115.452
1497815678,347.3333333348,112.827
1497815680,383.3333333348,118.163
1497815682,371.3333333348,116.161
1497815684,392.9333333348,116.817
1497815686,344.9333333348,119.933
1497815688,352.1333333348,117.572
1497815690,352.1333333348,120.726
1497815692,330.5333333348,122.617
1497815694,311.3333333348,113.167
1497815696,344.9333333348,116.393
1497815698,342.5333333348,107.986
1497815700,359.3333333348,106.826
1497815702,232.1333333348,109.451
1497815704,299.3333333348,110.425
1497815706,296.9333333348,109.674
1497815708,289.7333333348,109.229
1497815710,328.1333333348,111.445
1497815712,325.7333333348,115.536
1497815714,294.5333333348,111.503
1497815716,323.3333333348,115.745
1497815718,294.5333333348,113.5
1497815720,311.3333333348,116.931
1497815722,246.5333333348,120.086
1497815724,284.9333333348,116.25
1497815726,282.5333333348,118.341
1497815728,193.7333333348,119.754
1497815730,227.3333333348,111.158
1497815732,186.5333333348,115.473
1497815734,253.7333333348,118.738
1497815736,203.3333333348,126.842
1497815738,258.5333333348,121.474
1497815740,282.5333333348,123.543
1497815742,256.1333333348,115.554
1497815744,234.5333333348,115.034
1497815746,246.5333333348,96.4431
1497815748,244.1333333348,118.28
1497815750,210.5333333348,115.873
1497815752,320.9333333348,112.623
1497815754,330.5333333348,113.925
1497815756,251.3333333348,113.36
1497815758,284.9333333348,116.319
1497815760,323.3333333348,108.591
1497815762,323.3333333348,106.314
1497815764,361.7333333348,112.989
1497815766,344.9333333348,106.615
1497815768,299.3333333348,110.654
1497815770,356.9333333348,112.192
1497815772,354.5333333348,108.937
1497815774,409.7333333348,106.245
1497815776,402.5333333348,117.573
1497815778,400.1333333348,108.887
1497815780,400.1333333348,115.355
1497815782,414.5333333348,114.208
1497815784,361.7333333348,102.421
1497815786,390.5333333348,104.75
1497815788,364.1333333348,112.023
1497815790,337.7333333348,104.051
1497815792,361.7333333348,106.357
1497815794,354.5333333348,114.384
1497815796,330.5333333348,107.388
1497815798,272.9333333348,112.662
1497815800,325.7333333348,111.082
1497815802,340.1333333348,108.8
1497815804,328.1333333348,116.38
1497815806,292.1333333348,118.562
1497815808,260.9333333348,117.611
1497815810,320.9333333348,112.559
1497815812,258.5333333348,113.345
1497815814,308.9333333348,116.664
1497815816,268.1333333348,106.666
1497815818,246.5333333348,117.405
1497815820,265.7333333348,111.989
1497815822,332.9333333348,114.686
1497815824,330.5333333348,106.764
1497815826,332.9333333348,114.348
1497815828,332.9333333348,121.027
1497815830,316.1333333348,112.408
1497815832,277.7333333348,114.712
1497815834,332.9333333348,114.56
1497815836,256.1333333348,115.598
1497815838,253.7333333348,116.172
1497815840,311.3333333348,118.696
1497815842,200.9333333348,121.519
1497815844,299.3333333348,108.586
1497815846,313.7333333348,111.014
1497815848,251.3333333348,111.339
1497815850,227.3333333348,113.482
1497815852,292.1333333348,111.999
1497815854,232.1333333348,119.365
1497815856,337.7333333348,115.137
1497815858,232.1333333348,118.404
1497815860,200.9333333348,113.844
1497815862,248.9333333348,116.438
1497815864,217.7333333348,111.332
1497815866,241.7333333348,108.642
1497815868,299.3333333348,108.272
1497815870,212.9333333348,112.323
1497815872,244.1333333348,111.445
1497815874,304.1333333348,101.964
1497815876,265.7333333348,102.032
1497815878,212.9333333348,103.477
1497815880,200.9333333348,115.692
1497815882,282.5333333348,115.547
1497815884,318.5333333348,120.743
1497815886,299.3333333348,117.341
1497815888,268.1333333348,111.509
1497815890,246.5333333348,117.554
1497815892,289.7333333348,113.746
1497815896,328.1333333348,118.17
1497815898,332.9333333348,120.069
1497815900,287.3333333348,119.993
1497815902,330.5333333348,118.494
1497815904,244.1333333348,123.163
1497815906,323.3333333348,114.541
1497815908,316.1333333348,104.584
1497815910,316.1333333348,105.639
1497815912,253.7333333348,109.927
1497815914,282.5333333348,112.18
1497815916,354.5333333348,115.765
1497815918,313.7333333348,124.101
1497815920,256.1333333348,120.962
1497815922,263.3333333348,116.274
1497815924,284.9333333348,115.007
1497815926,265.7333333348,107.664
1497815928,325.7333333348,113.308
1497815930,316.1333333348,115.882
1497815932,239.3333333348,111.946
1497815934,284.9333333348,112.627
1497815936,299.3333333348,112.172
1497815938,272.9333333348,107.374
1497815940,256.1333333348,109.077
1497815942,248.9333333348,110.419
1497815944,304.1333333348,106.748
1497815946,224.9333333348,111.884
1497815948,277.7333333348,109.007
1497815950,323.3333333348,110.088
1497815952,224.9333333348,112.99
1497815954,220.1333333348,107.635
1497815956,282.5333333348,98.1113
1497815958,330.5333333348,107.707
1497815960,320.9333333348,113.047
1497815962,222.5333333348,119.029
1497815964,244.1333333348,112.498
1497815966,256.1333333348,121.345
1497815968,205.7333333348,110.84
1497815970,200.9333333348,114.249
1497815972,323.3333333348,107.993
1497815974,236.9333333348,103.349
1497815976,212.9333333348,109.868
1497815978,220.1333333348,116.44
1497815980,217.7333333348,115.686
1497815982,215.3333333348,119.188
1497815984,292.1333333348,109.004
1497815986,203.3333333348,110.858
1497815988,241.7333333348,109.389
1497815990,282.5333333348,113.187
1497815992,306.5333333348,107.977
1497815994,258.5333333348,110.849
1497815996,268.1333333348,111.882
1497815998,337.7333333348,106.159
1497816000,258.5333333348,109.157
1497816002,304.1333333348,107.077
1497816004,220.1333333348,110.879
1497816006,244.1333333348,111.759
1497816008,280.1333333348,114.439
1497816010,284.9333333348,117.222
1497816012,325.7333333348,116.42
1497816014,335.3333333348,112.435
1497816016,308.9333333348,112.664
1497816018,244.1333333348,112.735
1497816020,212.9333333348,107.557
1497816022,275.3333333348,115.351
1497816024,244.1333333348,115.526
1497816026,241.7333333348,107.923
1497816028,268.1333333348,115.625
1497816030,246.5333333348,114.47
1497816032,244.1333333348,113.518
1497816034,246.5333333348,112.497
1497816036,299.3333333348,111.235
1497816038,229.7333333348,113.207
1497816040,304.1333333348,113.957
1497816042,253.7333333348,121.082
1497816044,256.1333333348,116.258
1497816046,277.7333333348,114.091
1497816048,236.9333333348,113.618
1497816050,272.9333333348,118.487
1497816052,203.3333333348,111.082
1497816056,332.9333333348,114.272
1497816058,260.9333333348,120.244
1497816060,272.9333333348,116.986
1497816062,239.3333333348,119.2
1497816064,330.5333333348,111.191
1497816066,265.7333333348,111.499
1497816068,332.9333333348,116.244
1497816070,263.3333333348,114.519
1497816072,256.1333333348,110.187
1497816074,306.5333333348,114.79
1497816076,318.5333333348,112.583
1497816078,234.5333333348,121.12
1497816080,289.7333333348,122.386
1497816082,301.7333333348,112.169
1497816084,272.9333333348,112.94
1497816086,232.1333333348,112.374
1497816088,306.5333333348,104.145
1497816090,270.5333333348,106.93
1497816092,304.1333333348,106.089
1497816094,265.7333333348,110.874
1497816096,301.7333333348,117.674
1497816098,287.3333333348,110.946
1497816100,306.5333333348,111.469
1497816102,308.9333333348,120.692
1497816104,301.7333333348,110.774
1497816106,311.3333333348,113.274
1497816108,316.1333333348,118.064
1497816110,292.1333333348,111.36
1497816112,316.1333333348,108.595
1497816114,294.5333333348,107.472
1497816116,258.5333333348,115.55
1497816118,198.5333333348,115.152
1497816120,296.9333333348,109.77
1497816122,253.7333333348,112.257
1497816124,246.5333333348,108.033
1497816126,241.7333333348,111.901
1497816128,234.5333333348,108.638
1497816130,251.3333333348,113.518
1497816132,296.9333333348,121.544
1497816134,323.3333333348,115.606
1497816136,306.5333333348,114.049
1497816138,306.5333333348,113.266
1497816140,280.1333333348,108.754
1497816142,287.3333333348,108.513
1497816144,258.5333333348,117.425
1497816146,296.9333333348,111.748
1497816148,313.7333333348,118.204
1497816150,284.9333333348,118.154
1497816152,301.7333333348,121.792
1497816154,306.5333333348,117.906
1497816156,248.9333333348,127.756
1497816158,272.9333333348,119.162
1497816160,306.5333333348,109.028
1497816162,289.7333333348,111.603
1497816164,224.9333333348,114.491
1497816166,320.9333333348,115.443
1497816168,289.7333333348,110.242
1497816170,268.1333333348,112.874
1497816172,287.3333333348,112.047
1497816174,316.1333333348,109.245
1497816176,217.7333333348,116.919
1497816178,282.5333333348,115.262
1497816180,287.3333333348,113.559
1497816182,306.5333333348,113.089
1497816184,280.1333333348,120.278
1497816186,330.5333333348,113.226
1497816188,294.5333333348,115.875
1497816190,284.9333333348,112.011
1497816192,299.3333333348,108.183
1497816194,212.9333333348,112.898
1497816196,313.7333333348,111.265
1497816198,299.3333333348,104.554
1497816200,280.1333333348,106.971
1497816202,248.9333333348,113.234
1497816204,318.5333333348,109.037
1497816206,294.5333333348,109.169
1497816208,212.9333333348,104.023
1497816210,198.5333333348,107.327
1497816212,282.5333333348,113.07
1497816214,265.7333333348,108.64
1497816216,306.5333333348,111.879
1497816218,222.5333333348,106.189
1497816220,248.9333333348,109.133
1497816222,248.9333333348,110.966
1497816224,239.3333333348,111.637
1497816226,263.3333333348,104.876
1497816228,304.1333333348,110.885
1497816230,332.9333333348,106.55
1497816232,325.7333333348,105.569
1497816234,318.5333333348,111.417
1497816236,342.5333333348,103.902
1497816238,344.9333333348,111.027
1497816240,359.3333333348,102.368
1497816242,414.5333333348,103.991
1497816244,388.1333333348,103.195
1497816246,325.7333333348,104.815
1497816248,349.7333333348,104.043
1497816250,332.9333333348,107.711
1497816252,385.7333333348,108.312
1497816254,332.9333333348,103.544
1497816256,376.1333333348,102.743
1497816258,332.9333333348,109.052
1497816260,318.5333333348,106.633
1497816262,347.3333333348,107.816
1497816264,342.5333333348,103.177
1497816266,272.9333333348,100.62
1497816268,323.3333333348,108.02
1497816270,354.5333333348,102.178
1497816272,318.5333333348,106.938
1497816274,325.7333333348,103.468
1497816276,318.5333333348,110.049
1497816278,304.1333333348,101.576
1497816280,328.1333333348,102.43
1497816282,361.7333333348,97.5328
1497816284,313.7333333348,103.691
1497816286,280.1333333348,103.896
1497816288,337.7333333348,102.557
1497816290,356.9333333348,108.04
1497816292,340.1333333348,111.379
1497816294,349.7333333348,113.083
1497816296,311.3333333348,110.973
1497816298,304.1333333348,97.2649
1497816300,352.1333333348,108.049
1497816302,335.3333333348,110.421
1497816304,352.1333333348,108.362
1497816306,347.3333333348,104.322
1497816308,361.7333333348,113.741
1497816310,342.5333333348,109.719
1497816312,349.7333333348,110.024
1497816314,352.1333333348,111.567
1497816316,328.1333333348,111.059
1497816318,325.7333333348,118.009
1497816320,323.3333333348,111.728
1497816322,296.9333333348,113.847
1497816324,359.3333333348,109.769
1497816326,337.7333333348,107.1
1497816330,296.9333333348,113.473
1497816332,392.9333333348,115.64
1497816334,349.7333333348,114.892
1497816336,330.5333333348,115.347
1497816338,323.3333333348,114.673
1497816340,361.7333333348,120.332
1497816342,347.3333333348,117.732
1497816344,328.1333333348,118.432
1497816346,390.5333333348,109.48
1497816348,340.1333333348,106.454
1497816350,347.3333333348,108.606
1497816352,344.9333333348,105.746
1497816354,328.1333333348,111.217
1497816358,347.3333333348,109.177
1497816360,258.5333333348,110.74
1497816362,328.1333333348,104.95
1497816364,325.7333333348,102.124
1497816366,296.9333333348,112.386
1497816368,296.9333333348,119.047
1497816370,378.5333333348,111.304
1497816372,316.1333333348,110.686
1497816374,320.9333333348,106.56
1497816376,359.3333333348,104.017
1497816378,328.1333333348,113.356
1497816380,265.7333333348,103.227
1497816382,318.5333333348,108.242
1497816384,335.3333333348,104.924
1497816386,284.9333333348,103.419
1497816388,320.9333333348,100.484
1497816390,318.5333333348,107.725
1497816392,282.5333333348,107.285
1497816394,323.3333333348,100.476
1497816396,287.3333333348,102.764
1497816398,282.5333333348,104.319
1497816400,306.5333333348,103.573
1497816402,244.1333333348,110.307
1497816404,294.5333333348,104.836
1497816406,270.5333333348,107.696
1497816408,244.1333333348,110.51
1497816410,248.9333333348,114.45
1497816412,277.7333333348,110.192
1497816414,318.5333333348,107.348
1497816416,304.1333333348,103.598
1497816418,265.7333333348,110.086
1497816420,337.7333333348,99.5015
1497816422,335.3333333348,101.628
1497816424,248.9333333348,104.178
1497816426,313.7333333348,101.854
1497816428,292.1333333348,107.826
1497816430,292.1333333348,109.543
1497816432,294.5333333348,108.932
1497816434,332.9333333348,107.217
1497816436,330.5333333348,100.623
1497816438,258.5333333348,113.495
1497816440,337.7333333348,111.656
1497816442,332.9333333348,114.369
1497816444,272.9333333348,118.8
1497816446,361.7333333348,119.152
1497816448,342.5333333348,110.733
1497816450,354.5333333348,124.842
1497816452,335.3333333348,108.904
1497816454,371.3333333348,117.399
1497816456,344.9333333348,116.976
1497816458,330.5333333348,123.753
1497816460,356.9333333348,111.82
1497816462,335.3333333348,116.592
1497816464,325.7333333348,112.43
1497816466,313.7333333348,120.773
1497816468,344.9333333348,115.823
1497816470,318.5333333348,116.01
1497816472,335.3333333348,119.759
1497816474,364.1333333348,113.809
1497816476,354.5333333348,117.519
1497816478,335.3333333348,122.465
1497816480,373.7333333348,112.024
1497816482,347.3333333348,115.703
1497816484,433.7333333348,118.462
1497816486,349.7333333348,115.619
1497816488,412.1333333348,111.394
1497816490,421.7333333348,109.16
1497816492,416.9333333348,117.313
1497816494,397.7333333348,112.874
1497816496,404.9333333348,109.107
1497816498,352.1333333348,118.024
1497816500,368.9333333348,115.869
1497816502,412.1333333348,120.511
1497816504,328.1333333348,119.076
1497816506,325.7333333348,115.655
1497816508,388.1333333348,119.545
1497816510,337.7333333348,121.859
1497816512,352.1333333348,110.16
1497816514,335.3333333348,123.365
1497816516,325.7333333348,117.369
1497816518,342.5333333348,115.79
1497816520,325.7333333348,116.792
1497816522,347.3333333348,118.245
1497816524,330.5333333348,113.914
1497816526,349.7333333348,119.076
1497816528,325.7333333348,119.411
1497816530,332.9333333348,119.604
1497816532,304.1333333348,114.271
1497816534,328.1333333348,120.552
1497816536,325.7333333348,113.557
1497816538,320.9333333348,114.911
1497816540,352.1333333348,116.997
1497816542,395.3333333348,111.191
1497816544,414.5333333348,111.182
1497816546,438.5333333348,102.822
1497816548,445.7333333348,108.982
1497816550,416.9333333348,109.733
1497816552,388.1333333348,109.522
1497816554,392.9333333348,113.109
1497816556,407.3333333348,111.361
1497816558,342.5333333348,111.173
1497816560,361.7333333348,116.889
1497816562,344.9333333348,111.004
1497816564,347.3333333348,102.985
1497816566,337.7333333348,118.603
1497816568,385.7333333348,110.971
1497816570,364.1333333348,105.886
1497816572,330.5333333348,113.093
1497816574,328.1333333348,114.702
1497816576,347.3333333348,107.194
1497816578,301.7333333348,110.361
1497816580,330.5333333348,112.79
1497816582,347.3333333348,103.117
1497816584,325.7333333348,111.023
1497816586,308.9333333348,110.574
1497816588,337.7333333348,104.103
1497816590,320.9333333348,111.533
1497816592,275.3333333348,113.709
1497816594,337.7333333348,105.439
1497816596,352.1333333348,105.968
1497816598,318.5333333348,111.547
1497816600,272.9333333348,117.706
1497816602,347.3333333348,117.314
1497816604,289.7333333348,112.406
1497816606,330.5333333348,119.234
1497816608,313.7333333348,109.199
1497816610,352.1333333348,112.927
1497816612,292.1333333348,116.679
1497816614,282.5333333348,105.446
1497816616,304.1333333348,111.988
1497816618,270.5333333348,115.025
1497816620,296.9333333348,112.776
1497816622,296.9333333348,113.642
1497816624,270.5333333348,112.051
1497816626,301.7333333348,115.436
1497816628,270.5333333348,107.892
1497816630,311.3333333348,112.629
1497816632,320.9333333348,113.675
1497816634,292.1333333348,117.724
1497816636,258.5333333348,127.293
1497816638,253.7333333348,118.091
1497816640,296.9333333348,111.615
1497816642,296.9333333348,115.073
1497816644,229.7333333348,114.673
1497816646,275.3333333348,114.742
1497816648,284.9333333348,120.881
1497816650,280.1333333348,117.579
1497816652,284.9333333348,116.157
1497816654,191.3333333348,108.89
1497816656,275.3333333348,111.535
1497816658,284.9333333348,114.184
1497816660,253.7333333348,113.334
1497816662,328.1333333348,120.968
1497816664,232.1333333348,115.342
1497816666,200.9333333348,112.632
1497816668,222.5333333348,111.526
1497816670,299.3333333348,120.216
1497816672,203.3333333348,117.895
1497816674,258.5333333348,117.622
1497816676,241.7333333348,119.156
1497816678,229.7333333348,110.415
1497816680,270.5333333348,111.112
1497816682,272.9333333348,117.969
1497816684,229.7333333348,112.96
1497816686,241.7333333348,107.45
1497816688,265.7333333348,118.503
1497816690,244.1333333348,119.319
1497816692,172.1333333348,115.957
1497816694,224.9333333348,111.934
1497816696,272.9333333348,112.053
1497816698,232.1333333348,114.475
1497816700,265.7333333348,116.128
1497816702,253.7333333348,112.085
1497816704,272.9333333348,116.558
1497816706,244.1333333348,113.694
1497816708,272.9333333348,119.882
1497816710,260.9333333348,116.983
1497816712,232.1333333348,116.894
1497816714,205.7333333348,117.918
1497816716,256.1333333348,116.018
1497816718,229.7333333348,122.358
1497816720,292.1333333348,113.891
1497816722,270.5333333348,113.632
1497816724,227.3333333348,108.059
1497816726,239.3333333348,104.946
1497816728,263.3333333348,113.353
1497816730,253.7333333348,120.697
1497816732,287.3333333348,117.544
1497816734,287.3333333348,107.126
1497816736,289.7333333348,103.628
1497816738,220.1333333348,110.096
1497816740,316.1333333348,107.869
1497816742,284.9333333348,104.904
1497816744,349.7333333348,111.403
1497816746,335.3333333348,108.032
1497816748,323.3333333348,110.821
1497816750,340.1333333348,100.963
1497816752,352.1333333348,111.898
1497816754,414.5333333348,109.769
1497816756,349.7333333348,103.198
1497816758,366.5333333348,110
1497816760,368.9333333348,104.326
1497816762,402.5333333348,108.862
1497816764,390.5333333348,103.884
1497816766,409.7333333348,108.17
1497816768,392.9333333348,111.84
1497816770,428.9333333348,115.965
1497816772,402.5333333348,118.692
1497816774,361.7333333348,111.272
1497816776,364.1333333348,118.322
1497816778,383.3333333348,113.478
1497816780,409.7333333348,115.456
1497816782,380.9333333348,115.353
1497816784,433.7333333348,113.578
1497816786,414.5333333348,108.64
1497816788,395.3333333348,105.079
1497816790,426.5333333348,112.721
1497816792,431.3333333348,111.268
1497816794,440.9333333348,101.778
1497816796,409.7333333348,102.891
1497816798,419.3333333348,108.338
1497816800,409.7333333348,108.862
1497816802,388.1333333348,116.652
1497816804,409.7333333348,119.422
1497816806,421.7333333348,116.744
1497816808,378.5333333348,110.099
1497816810,380.9333333348,118.888
1497816812,383.3333333348,120.574
1497816814,380.9333333348,100.024
1497816816,378.5333333348,107.182
1497816818,392.9333333348,110.968
1497816820,438.5333333348,114.8
1497816822,419.3333333348,121.634
1497816824,404.9333333348,108.697
1497816826,392.9333333348,105.562
1497816828,436.1333333348,110.191
1497816830,378.5333333348,102.431
1497816832,426.5333333348,113.812
1497816834,364.1333333348,112.013
1497816836,392.9333333348,109.977
1497816838,426.5333333348,114.055
1497816840,352.1333333348,119.599
1497816842,383.3333333348,116.517
1497816844,421.7333333348,124.857
1497816846,421.7333333348,120.111
1497816848,368.9333333348,108.924
1497816850,402.5333333348,107.835
1497816852,347.3333333348,102.477
1497816854,380.9333333348,109.98
1497816856,388.1333333348,111.126
1497816858,356.9333333348,114.624
1497816860,402.5333333348,113.798
1497816862,366.5333333348,117.292
1497816864,404.9333333348,111.411
1497816866,392.9333333348,106.812
1497816868,364.1333333348,119.143
1497816870,402.5333333348,112.133
1497816872,371.3333333348,107.713
1497816874,407.3333333348,106.721
1497816876,366.5333333348,107.663
1497816878,344.9333333348,111.986
1497816880,359.3333333348,107.923
1497816882,347.3333333348,115.019
1497816884,361.7333333348,111.76
1497816886,361.7333333348,108.955
1497816888,340.1333333348,118.718
1497816890,335.3333333348,122.296
1497816892,361.7333333348,109.423
1497816894,366.5333333348,107.766
1497816896,354.5333333348,115.545
1497816898,388.1333333348,118.557
1497816900,337.7333333348,117.601
1497816902,352.1333333348,121.087
1497816904,342.5333333348,117.889
1497816906,390.5333333348,109.352
1497816908,356.9333333348,113.563
1497816910,337.7333333348,108.981
1497816912,354.5333333348,107.87
1497816914,352.1333333348,106.032
1497816916,349.7333333348,105.503
1497816918,383.3333333348,104.443
1497816920,340.1333333348,115.434
1497816922,400.1333333348,108.845
1497816924,340.1333333348,112.635
1497816926,390.5333333348,109.35
1497816928,320.9333333348,112.721
1497816930,354.5333333348,108.356
1497816932,342.5333333348,118.548
1497816934,316.1333333348,117.241
1497816936,347.3333333348,114.312
1497816938,342.5333333348,117.652
1497816940,325.7333333348,120.676
1497816942,318.5333333348,119.694
1497816944,344.9333333348,117.124
1497816946,349.7333333348,113.943
1497816948,335.3333333348,107.274
1497816950,344.9333333348,112.943
1497816952,349.7333333348,112.801
1497816954,251.3333333348,111.167
1497816956,347.3333333348,117.962
1497816958,412.1333333348,116.651
1497816960,323.3333333348,114.287
1497816962,340.1333333348,112.917
1497816964,328.1333333348,111.979
1497816966,325.7333333348,111.385
1497816968,318.5333333348,107.099
1497816970,323.3333333348,113.936
1497816972,376.1333333348,111.21
1497816974,344.9333333348,108.479
1497816976,373.7333333348,115.173
1497816978,340.1333333348,105.267
1497816980,347.3333333348,109.351
1497816982,318.5333333348,104.774
1497816984,354.5333333348,117.444
1497816986,308.9333333348,118.338
1497816988,323.3333333348,111.947
1497816990,256.1333333348,110.002
1497816992,306.5333333348,106.836
1497816994,265.7333333348,110.114
1497816996,260.9333333348,106.718
1497816998,246.5333333348,119.233
1497817000,220.1333333348,119.46
1497817002,275.3333333348,113.305
1497817004,311.3333333348,113.219
1497817006,282.5333333348,115.194
1497817008,251.3333333348,116.033
1497817010,282.5333333348,113.617
1497817012,253.7333333348,119.115
1497817014,306.5333333348,115.776
1497817016,265.7333333348,127.813
1497817018,328.1333333348,120.971
1497817020,284.9333333348,118.878
1497817022,227.3333333348,113.207
1497817024,241.7333333348,114.223
1497817026,212.9333333348,115.53
1497817028,203.3333333348,110.49
1497817030,227.3333333348,116.335
1497817032,232.1333333348,107.405
1497817034,265.7333333348,113.142
1497817036,248.9333333348,108.72
1497817038,227.3333333348,114.231
1497817040,244.1333333348,114.796
1497817042,229.7333333348,116.513
1497817044,296.9333333348,115.408
1497817046,234.5333333348,120.805
1497817048,287.3333333348,116.391
1497817050,256.1333333348,118.948
1497817052,248.9333333348,112.13
1497817054,241.7333333348,113.367
1497817056,277.7333333348,114.236
1497817058,217.7333333348,107.325
1497817060,212.9333333348,109.883
1497817062,196.1333333348,117.935
1497817064,280.1333333348,116.05
1497817066,203.3333333348,117.395
1497817068,304.1333333348,119.076
1497817070,248.9333333348,118.525
1497817072,210.5333333348,122.051
1497817074,232.1333333348,124.122
1497817076,284.9333333348,129.688
1497817078,284.9333333348,121.35
1497817080,263.3333333348,118.512
1497817082,318.5333333348,120.675
1497817084,320.9333333348,114.891
1497817086,337.7333333348,108.573
1497817088,335.3333333348,118.852
1497817090,354.5333333348,112.978
1497817092,275.3333333348,114.881
1497817094,380.9333333348,113.144
1497817096,342.5333333348,119.715
1497817098,414.5333333348,108.051
1497817100,354.5333333348,118.608
1497817102,364.1333333348,119.153
1497817104,371.3333333348,117.536
1497817106,364.1333333348,110.255
1497817108,376.1333333348,110.556
1497817110,395.3333333348,112.432
1497817112,407.3333333348,112.901
1497817114,426.5333333348,116.309
1497817116,376.1333333348,112.558
1497817118,376.1333333348,105.73
1497817120,364.1333333348,117.649
1497817122,349.7333333348,111.895
1497817124,361.7333333348,107.218
1497817126,342.5333333348,109.92
1497817128,347.3333333348,113.305
1497817130,352.1333333348,107.884
1497817132,404.9333333348,105.927
1497817134,395.3333333348,108.059
1497817136,383.3333333348,114.036
1497817138,335.3333333348,107.917
1497817140,344.9333333348,116.943
1497817142,349.7333333348,110.834
1497817144,368.9333333348,114.833
1497817146,361.7333333348,112.589
1497817148,349.7333333348,114.399
1497817150,352.1333333348,118.11
1497817152,371.3333333348,114.269
1497817154,337.7333333348,121.368
1497817156,344.9333333348,113.809
1497817158,316.1333333348,121.193
1497817160,402.5333333348,117.899
1497817162,340.1333333348,121.645
1497817164,332.9333333348,119.626
1497817166,337.7333333348,118.899
1497817168,325.7333333348,121.336
1497817170,318.5333333348,115.92
1497817172,344.9333333348,115.663
1497817174,299.3333333348,117.428
1497817176,349.7333333348,111.462
1497817178,313.7333333348,115.091
1497817180,308.9333333348,125.617
1497817182,304.1333333348,116.761
1497817184,340.1333333348,121.159
1497817188,282.5333333348,121.776
1497817190,282.5333333348,115.733
1497817192,340.1333333348,121.931
1497817194,246.5333333348,129.012
1497817196,301.7333333348,125.437
1497817198,294.5333333348,128.018
1497817200,318.5333333348,120.285
1497817202,280.1333333348,119.004
1497817204,318.5333333348,102.235
1497817206,330.5333333348,121.559
1497817208,335.3333333348,114.857
1497817210,328.1333333348,121.378
1497817212,388.1333333348,114.483
1497817214,244.1333333348,120.041
1497817216,337.7333333348,116.316
1497817218,299.3333333348,116.403
1497817220,311.3333333348,113.918
1497817222,304.1333333348,117.216
1497817224,313.7333333348,115.209
1497817226,306.5333333348,116.48
1497817228,323.3333333348,124.888
1497817230,292.1333333348,113.901
1497817232,308.9333333348,115.699
1497817234,292.1333333348,108.876
1497817236,301.7333333348,118.352
1497817238,270.5333333348,113.156
1497817240,282.5333333348,126.435
1497817242,268.1333333348,122.445
1497817244,323.3333333348,120.848
1497817246,311.3333333348,113.306
1497817248,299.3333333348,111.405
1497817250,332.9333333348,103.547
1497817252,335.3333333348,108.513
1497817254,289.7333333348,111.484
1497817256,354.5333333348,106.424
1497817258,352.1333333348,108.111
1497817260,344.9333333348,105.896
1497817262,359.3333333348,104.462
1497817264,392.9333333348,110.247
1497817266,337.7333333348,111.55
1497817268,395.3333333348,121.092
1497817270,361.7333333348,112.911
1497817272,392.9333333348,115.241
1497817274,330.5333333348,123.531
1497817276,352.1333333348,112.35
1497817278,366.5333333348,111.674
1497817280,332.9333333348,115.932
1497817282,366.5333333348,110.323
1497817284,424.1333333348,114.667
1497817286,325.7333333348,125.554
1497817288,359.3333333348,122.397
1497817290,352.1333333348,116.627
1497817292,352.1333333348,122.913
1497817294,356.9333333348,113.359
1497817296,349.7333333348,120.63
1497817298,347.3333333348,108.925
1497817300,311.3333333348,109.429
1497817302,364.1333333348,110.138
1497817304,332.9333333348,118.276
1497817306,344.9333333348,115.115
1497817308,344.9333333348,109.987
1497817310,330.5333333348,122.583
1497817312,340.1333333348,116.862
1497817314,330.5333333348,109.082
1497817316,325.7333333348,107.442
1497817318,347.3333333348,103.672
1497817320,328.1333333348,115.353
1497817322,349.7333333348,102.36
1497817324,320.9333333348,110.736
1497817326,308.9333333348,105.479
1497817328,347.3333333348,101.683
1497817330,335.3333333348,96.5347
1497817332,366.5333333348,102.302
1497817334,340.1333333348,108.916
1497817336,354.5333333348,109.451
1497817338,340.1333333348,105.609
1497817340,356.9333333348,107.814
1497817342,376.1333333348,113.217
1497817344,352.1333333348,111.213
1497817346,344.9333333348,115.077
1497817348,335.3333333348,109.872
1497817350,318.5333333348,119.509
1497817352,311.3333333348,115.594
1497817354,311.3333333348,125.425
1497817356,330.5333333348,121.856
1497817358,340.1333333348,117.312
1497817360,342.5333333348,117.64
1497817362,337.7333333348,117.04
1497817364,335.3333333348,116.596
1497817366,342.5333333348,123.595
