tag_number,delay,power_est
1497518458,1018.5333333383,16.8638
1497518462,1052.1333333383,16.7841
1497518466,1047.3333333383,17.1354
1497518470,1059.3333333383,16.94
1497518474,1030.5333333383,16.1702
1497518478,1016.1333333383,15.7685
1497518482,1054.5333333383,16.5859
1497518486,1054.5333333383,16.8137
1497518490,1100.1333333383,16.2486
1497518494,1052.1333333383,15.6904
1497518498,1035.3333333383,12.99
1497518502,996.9333333383,17.1797
1497518506,1042.5333333383,16.3083
1497518510,1030.5333333383,17.8469
1497518514,980.1333333383,17.3973
1497518518,958.5333333383,18.0638
1497518522,912.9333333383,16.6071
1497518526,958.5333333383,17.879
1497518530,874.5333333383,16.8678
1497518534,898.5333333383,16.2329
1497518538,922.5333333383,16.7792
1497518542,891.3333333383,16.6491
1497518546,896.1333333383,16.988
1497518550,862.5333333383,14.8806
1497518554,867.3333333383,16.7199
1497518558,886.5333333383,16.5438
1497518562,900.9333333383,16.9337
1497518566,917.7333333383,16.0685
1497518570,874.5333333383,16.5192
1497518574,908.1333333383,15.8038
1497518578,862.5333333383,17.474
1497518582,888.9333333383,16.6576
1497518586,862.5333333383,18.375
1497518590,862.5333333383,17.2435
1497518594,848.1333333383,17.8033
1497518598,852.9333333383,15.9985
1497518602,836.1333333383,16.8443
1497518606,860.1333333383,17.9085
1497518610,891.3333333383,17.829
1497518614,831.3333333383,16.9869
1497518618,826.5333333383,17.2214
1497518622,819.3333333383,17.614
1497518626,850.5333333383,16.8203
1497518630,932.1333333383,18.4318
1497518634,900.9333333383,17.8235
1497518638,984.9333333383,17.4076
1497518642,917.7333333383,17.9021
1497518646,953.7333333383,16.3576
1497518650,934.5333333383,17.128
1497518654,946.5333333383,16.9419
1497518658,980.1333333383,17.0795
1497518662,963.3333333383,17.1949
1497518666,1066.5333333383,16.9641
1497518670,1068.9333333383,16.4999
1497518674,1040.1333333383,16.2731
1497518678,1040.1333333383,17.2187
1497518682,1040.1333333383,17.2782
1497518686,1047.3333333383,18.2072
1497518690,1016.1333333383,16.7411
1497518694,1047.3333333383,18.5332
1497518698,1011.3333333383,17.1378
1497518702,1066.5333333383,16.4094
1497518706,1061.7333333383,16.7146
1497518710,1008.9333333383,16.2524
1497518714,994.5333333383,15.8208
1497518718,984.9333333383,16.3622
1497518722,982.5333333383,16.6217
1497518726,924.9333333383,16.2803
1497518730,982.5333333383,17.5536
1497518734,1004.1333333383,16.6836
1497518738,941.7333333383,16.2436
1497518742,941.7333333383,16.5668
1497518746,994.5333333383,15.6075
1497518750,936.9333333383,16.5663
1497518754,992.1333333383,17.0186
1497518758,977.7333333383,17.4555
1497518762,934.5333333383,17.2733
1497518766,1025.7333333383,17.2882
1497518770,958.5333333383,16.6119
1497518774,980.1333333383,17.0835
1497518778,922.5333333383,16.5659
1497518782,970.5333333383,14.6778
1497518786,960.9333333383,16.135
1497518790,934.5333333383,16.7738
1497518794,912.9333333383,16.7136
1497518798,903.3333333383,17.9802
1497518802,896.1333333383,17.0772
1497518806,891.3333333383,16.5602
1497518810,900.9333333383,16.8354
1497518814,929.7333333383,17.0368
1497518818,874.5333333383,16.504
1497518822,944.1333333383,17.4777
1497518826,845.7333333383,17.1706
1497518830,872.1333333383,17.8155
1497518834,888.9333333383,16.5939
1497518838,893.7333333383,16.5988
1497518842,908.1333333383,16.5582
1497518846,864.9333333383,16.5759
1497518850,896.1333333383,16.9707
1497518854,867.3333333383,16.1069
1497518858,848.1333333383,16.6184
1497518862,881.7333333383,16.2358
1497518866,862.5333333383,16.853
1497518870,876.9333333383,16.1773
1497518874,826.5333333383,16.5095
1497518878,888.9333333383,17.5429
1497518882,874.5333333383,16.2556
1497518886,864.9333333383,17.6773
1497518890,888.9333333383,16.6752
1497518894,893.7333333383,16.6836
1497518898,908.1333333383,18.7612
1497518902,934.5333333383,17.4228
1497518906,960.9333333383,18.559
1497518910,891.3333333383,16.2909
1497518914,905.7333333383,16.7261
1497518918,960.9333333383,16.3661
1497518922,886.5333333383,16.6091
1497518926,898.5333333383,17.8762
1497518930,917.7333333383,17.128
1497518934,929.7333333383,16.3308
1497518938,963.3333333383,17.5656
1497518942,948.9333333383,17.3366
1497518946,958.5333333383,15.8971
1497518950,884.1333333383,17.7104
1497518954,912.9333333383,17.3138
1497518958,905.7333333383,17.6502
1497518962,915.3333333383,18.5284
1497518966,934.5333333383,18.5138
1497518970,968.1333333383,18.2719
1497518974,900.9333333383,17.1566
1497518978,903.3333333383,17.4639
1497518982,929.7333333383,17.5413
1497518986,888.9333333383,17.4231
1497518990,869.7333333383,16.563
1497518994,905.7333333383,16.9609
1497518998,867.3333333383,16.7751
1497519002,934.5333333383,16.3859
1497519006,886.5333333383,17.3126
1497519010,888.9333333383,17.1909
1497519014,888.9333333383,16.9008
1497519018,989.7333333383,16.6615
1497519022,956.1333333383,17.3606
1497519026,1004.1333333383,17.3855
1497519030,987.3333333383,18.6374
1497519034,936.9333333383,19.0938
1497519038,850.5333333383,17.2875
1497519042,876.9333333383,17.8253
1497519046,872.1333333383,16.8203
1497519050,927.3333333383,15.943
1497519054,884.1333333383,16.2332
1497519058,881.7333333383,16.8591
1497519062,881.7333333383,17.5879
1497519066,910.5333333383,17.1651
1497519070,876.9333333383,17.9702
1497519074,900.9333333383,17.8016
1497519078,872.1333333383,17.4808
1497519082,864.9333333383,15.9793
1497519086,893.7333333383,16.4839
1497519090,898.5333333383,16.3321
1497519094,908.1333333383,16.6123
1497519098,881.7333333383,16.1256
1497519102,917.7333333383,16.578
1497519106,932.1333333383,16.7295
1497519110,915.3333333383,17.2811
1497519114,891.3333333383,17.1101
1497519118,908.1333333383,16.7532
1497519122,980.1333333383,17.7263
1497519126,908.1333333383,17.8586
1497519130,912.9333333383,17.2503
1497519134,903.3333333383,17.3139
1497519138,900.9333333383,17.7162
1497519142,852.9333333383,16.667
1497519146,795.3333333383,17.865
1497519150,888.9333333383,16.7426
1497519154,838.5333333383,15.9976
1497519158,874.5333333383,16.403
1497519162,809.7333333383,16.5856
1497519166,888.9333333383,16.9177
1497519170,872.1333333383,16.612
1497519174,816.9333333383,16.2935
1497519178,872.1333333383,15.6554
1497519182,862.5333333383,15.9313
1497519186,872.1333333383,15.8687
1497519190,826.5333333383,16.6218
1497519194,864.9333333383,16.2709
1497519198,848.1333333383,16.7466
1497519202,826.5333333383,17.3516
1497519206,864.9333333383,16.9969
1497519210,852.9333333383,16.7654
1497519214,862.5333333383,17.4909
1497519218,874.5333333383,17.056
1497519222,893.7333333383,18.2192
1497519226,855.3333333383,17.4345
1497519230,864.9333333383,17.4728
1497519234,908.1333333383,17.9418
1497519238,888.9333333383,17.8306
1497519242,879.3333333383,15.5485
1497519246,848.1333333383,17.9504
1497519250,905.7333333383,16.7643
1497519254,848.1333333383,17.7823
1497519258,929.7333333383,17.3317
1497519262,898.5333333383,17.8881
1497519266,884.1333333383,16.364
1497519270,867.3333333383,18.4872
1497519274,872.1333333383,17.5147
1497519278,905.7333333383,17.1696
1497519282,862.5333333383,17.8543
1497519286,912.9333333383,16.6045
1497519290,893.7333333383,16.435
1497519294,898.5333333383,16.7146
1497519298,872.1333333383,18.3496
1497519302,922.5333333383,16.6345
1497519306,929.7333333383,17.0889
1497519310,903.3333333383,18.2243
1497519314,908.1333333383,16.8046
1497519318,848.1333333383,17.5846
1497519322,869.7333333383,16.5126
1497519326,884.1333333383,16.2066
1497519330,874.5333333383,16.7971
1497519334,860.1333333383,17.3447
1497519338,872.1333333383,17.0088
1497519342,898.5333333383,16.8155
1497519346,852.9333333383,17.6051
1497519350,879.3333333383,17.6223
1497519354,860.1333333383,16.9475
1497519358,893.7333333383,17.2984
1497519362,869.7333333383,17.2846
1497519366,845.7333333383,16.8274
1497519370,881.7333333383,17.1485
1497519374,800.1333333383,17.158
1497519378,934.5333333383,16.7146
1497519382,819.3333333383,17.7372
1497519386,896.1333333383,15.7824
1497519390,824.1333333383,17.8841
1497519394,864.9333333383,16.7934
1497519398,860.1333333383,18.5059
1497519402,872.1333333383,17.7824
1497519406,860.1333333383,17.7293
1497519410,860.1333333383,16.885
1497519414,912.9333333383,16.4932
1497519418,869.7333333383,16.4204
1497519422,874.5333333383,17.8931
1497519426,821.7333333383,16.8736
1497519430,819.3333333383,18.1502
1497519434,898.5333333383,16.5784
1497519438,819.3333333383,16.9907
1497519442,884.1333333383,17.2251
1497519446,872.1333333383,17.7248
1497519450,876.9333333383,17.2574
1497519454,891.3333333383,16.7226
1497519458,893.7333333383,17.8097
1497519462,860.1333333383,17.9291
1497519466,912.9333333383,17.3397
1497519470,898.5333333383,17.6021
1497519474,881.7333333383,16.9294
1497519478,816.9333333383,17.4762
1497519482,864.9333333383,15.3864
1497519486,860.1333333383,16.686
1497519490,896.1333333383,17.1407
1497519494,790.5333333383,16.733
1497519498,881.7333333383,17.0963
1497519502,831.3333333383,16.3377
1497519506,785.7333333383,17.443
1497519510,850.5333333383,15.6739
1497519514,814.5333333383,16.847
1497519518,898.5333333383,17.22
1497519522,852.9333333383,16.853
1497519526,872.1333333383,18.1134
1497519530,891.3333333383,15.7039
1497519534,836.1333333383,17.7959
1497519538,910.5333333383,15.3477
1497519542,879.3333333383,15.6199
1497519546,886.5333333383,16.4238
1497519550,898.5333333383,16.4162
1497519554,864.9333333383,16.2663
1497519558,903.3333333383,17.3988
1497519562,920.1333333383,16.8161
1497519566,910.5333333383,18.0452
1497519570,903.3333333383,17.7065
1497519574,903.3333333383,16.075
1497519578,869.7333333383,16.9431
1497519582,874.5333333383,17.5228
1497519586,891.3333333383,18.0197
1497519590,893.7333333383,17.4573
1497519594,891.3333333383,17.2064
1497519598,857.7333333383,16.7421
1497519602,876.9333333383,16.1721
1497519606,860.1333333383,16.6808
1497519610,864.9333333383,16.5047
1497519614,860.1333333383,16.4347
1497519618,891.3333333383,16.5375
1497519622,953.7333333383,16.6723
1497519626,862.5333333383,16.7193
1497519630,867.3333333383,15.8148
1497519634,886.5333333383,17.6298
1497519638,884.1333333383,16.1997
1497519642,896.1333333383,16.9409
1497519646,876.9333333383,17.3342
1497519650,884.1333333383,16.4235
1497519654,903.3333333383,17.3211
1497519658,927.3333333383,15.7142
1497519662,893.7333333383,16.5346
1497519666,903.3333333383,18.3883
1497519670,958.5333333383,16.3895
1497519674,905.7333333383,16.4469
1497519678,946.5333333383,16.9069
1497519682,956.1333333383,18.9298
1497519686,989.7333333383,17.4701
1497519690,963.3333333383,17.6829
1497519694,989.7333333383,18.7093
1497519698,963.3333333383,18.152
1497519702,951.3333333383,18.663
1497519706,1004.1333333383,18.8528
1497519710,1018.5333333383,18.0314
1497519714,956.1333333383,18.7558
1497519718,936.9333333383,17.4865
1497519722,915.3333333383,16.6084
1497519726,968.1333333383,16.9718
1497519730,920.1333333383,17.8139
1497519734,908.1333333383,17.6825
1497519738,905.7333333383,17.2007
1497519742,874.5333333383,17.7303
1497519746,929.7333333383,17.3367
1497519750,932.1333333383,16.6358
1497519754,903.3333333383,17.1931
1497519758,891.3333333383,17.8663
1497519762,884.1333333383,18.1156
1497519766,932.1333333383,17.7588
1497519770,848.1333333383,17.3494
1497519774,896.1333333383,16.6431
1497519778,910.5333333383,16.3181
1497519782,867.3333333383,17.2824
1497519786,905.7333333383,16.8263
1497519790,881.7333333383,17.4187
1497519794,893.7333333383,18.7097
1497519798,845.7333333383,17.731
1497519802,819.3333333383,17.1741
1497519806,881.7333333383,16.9971
1497519810,864.9333333383,17.7765
1497519814,879.3333333383,18.587
1497519818,874.5333333383,16.5099
1497519822,845.7333333383,15.6287
1497519826,905.7333333383,17.7865
1497519830,814.5333333383,16.413
1497519834,927.3333333383,17.7224
1497519838,898.5333333383,17.0862
1497519842,845.7333333383,17.4311
1497519846,884.1333333383,17.6888
1497519850,840.9333333383,18.0143
1497519854,869.7333333383,16.7749
1497519858,881.7333333383,16.9315
1497519862,886.5333333383,16.7099
1497519866,910.5333333383,17.1101
1497519870,884.1333333383,16.8298
1497519874,881.7333333383,17.4187
1497519878,879.3333333383,18.1668
1497519882,872.1333333383,17.5064
1497519886,893.7333333383,18.0454
1497519890,881.7333333383,18.9149
1497519894,857.7333333383,18.1164
1497519898,888.9333333383,17.888
1497519902,862.5333333383,16.2417
1497519906,893.7333333383,18.8884
1497519910,869.7333333383,17.2031
1497519914,900.9333333383,17.7698
1497519918,850.5333333383,19.772
1497519922,924.9333333383,18.3528
1497519926,903.3333333383,17.7507
1497519930,864.9333333383,18.4493
1497519934,862.5333333383,18.1919
1497519938,910.5333333383,18.7317
1497519942,917.7333333383,19.0603
1497519946,860.1333333383,17.542
1497519950,886.5333333383,17.0701
1497519954,908.1333333383,17.6575
1497519958,900.9333333383,16.1868
1497519962,917.7333333383,17.3921
1497519966,905.7333333383,16.969
1497519970,903.3333333383,17.7964
1497519974,874.5333333383,15.2831
1497519978,874.5333333383,16.8108
1497519982,912.9333333383,16.9732
1497519986,898.5333333383,17.0494
1497519990,912.9333333383,16.7557
1497519994,936.9333333383,16.3448
1497519998,908.1333333383,17.6079
1497520002,896.1333333383,16.6516
1497520006,980.1333333383,16.7459
1497520010,905.7333333383,16.6065
1497520014,992.1333333383,18.2589
1497520018,908.1333333383,17.525
1497520022,1018.5333333383,17.4294
1497520026,1016.1333333383,16.4761
1497520030,989.7333333383,16.6125
1497520034,1032.9333333383,18.0675
1497520038,1013.7333333383,17.0572
1497520042,1028.1333333383,15.8951
1497520046,932.1333333383,18.3584
1497520050,939.3333333383,17.4514
1497520054,972.9333333383,17.5242
1497520058,1035.3333333383,16.9494
1497520062,1023.3333333383,15.9702
1497520066,1004.1333333383,16.7756
1497520070,1037.7333333383,16.0454
1497520074,1028.1333333383,15.7802
1497520078,1040.1333333383,15.1528
1497520082,956.1333333383,16.4413
1497520086,975.3333333383,16.7964
1497520090,1126.5333333383,15.81
1497520094,1059.3333333383,16.5481
1497520098,1056.9333333383,17.901
1497520102,1052.1333333383,17.1372
1497520106,1066.5333333383,16.9155
1497520110,1071.3333333383,17.0402
1497520114,1023.3333333383,18.0059
1497520118,1090.5333333383,16.7977
1497520122,1037.7333333383,17.1436
1497520126,984.9333333383,16.9345
1497520130,1044.9333333383,16.3612
1497520134,1032.9333333383,18.1028
1497520138,1001.7333333383,16.9882
1497520142,1018.5333333383,17.2514
1497520146,999.3333333383,17.1988
1497520150,953.7333333383,16.8869
1497520154,1020.9333333383,16.7123
1497520158,1020.9333333383,15.4251
1497520162,996.9333333383,15.8488
1497520166,982.5333333383,17.3167
1497520170,1004.1333333383,16.9529
1497520174,987.3333333383,16.7668
1497520178,1028.1333333383,16.6352
1497520182,1011.3333333383,16.3498
1497520186,999.3333333383,17.2314
1497520190,922.5333333383,16.4168
1497520194,999.3333333383,17.4639
1497520198,1006.5333333383,16.7214
1497520202,972.9333333383,17.2763
1497520206,1001.7333333383,15.9227
1497520210,968.1333333383,17.428
1497520214,987.3333333383,17.4883
1497520218,908.1333333383,17.573
1497520222,929.7333333383,18.7614
1497520226,934.5333333383,16.6278
1497520230,936.9333333383,17.4052
1497520234,927.3333333383,15.7722
1497520238,1040.1333333383,16.1815
1497520242,1044.9333333383,17.3671
1497520246,1054.5333333383,17.0283
1497520250,1102.5333333383,16.8103
1497520254,1133.7333333383,16.3677
1497520258,1124.1333333383,17.5279
1497520262,1172.1333333383,17.0012
1497520266,1126.5333333383,15.7087
1497520270,1244.1333333383,16.2932
1497520274,1208.1333333383,17.7854
1497520278,1215.3333333383,17.6677
1497520282,1186.5333333383,16.3083
1497520286,1227.3333333383,17.1162
1497520290,1210.5333333383,17.6781
1497520294,1193.7333333383,16.4968
1497520298,1215.3333333383,17.2999
1497520302,1162.5333333383,16.2798
1497520306,1224.9333333383,17.0059
1497520310,1229.7333333383,17.2761
1497520314,1157.7333333383,16.9088
1497520318,1160.1333333383,17.055
1497520322,1169.7333333383,18.0206
1497520326,1253.7333333383,17.1362
1497520330,1148.1333333383,17.6919
1497520334,1169.7333333383,17.8278
1497520338,1212.9333333383,18.2529
1497520342,1200.9333333383,17.3539
1497520346,1193.7333333383,17.2857
1497520350,1150.5333333383,17.6704
1497520354,1181.7333333383,17.4483
1497520358,1143.3333333383,16.6817
1497520362,1121.7333333383,16.5918
1497520366,1205.7333333383,16.6164
1497520370,1155.3333333383,17.1168
1497520374,1191.3333333383,16.8425
1497520378,1121.7333333383,16.8503
1497520382,1200.9333333383,17.1474
1497520386,1143.3333333383,17.7989
1497520390,1167.3333333383,17.713
1497520394,1145.7333333383,17.0216
1497520398,1167.3333333383,18.6468
1497520402,1179.3333333383,19.3695
1497520406,1128.9333333383,17.6845
1497520410,1114.5333333383,17.4145
1497520414,1104.9333333383,17.2621
1497520418,1150.5333333383,17.4826
1497520422,1152.9333333383,19.1202
1497520426,1095.3333333383,17.966
1497520430,1186.5333333383,17.4961
1497520434,1148.1333333383,15.8985
1497520438,1133.7333333383,17.6799
1497520442,1124.1333333383,17.7972
1497520446,1080.9333333383,17.0203
1497520450,1133.7333333383,15.2782
1497520454,1047.3333333383,14.8489
1497520458,1032.9333333383,17.2149
1497520462,1049.7333333383,17.2735
1497520466,1040.1333333383,16.7693
1497520470,1056.9333333383,17.3767
1497520474,1028.1333333383,17.556
1497520478,1018.5333333383,18.2135
1497520482,1052.1333333383,18.0994
1497520486,1049.7333333383,16.5291
1497520490,1035.3333333383,16.4685
1497520494,1006.5333333383,17.1839
1497520498,1047.3333333383,17.8391
1497520502,1028.1333333383,16.7876
1497520506,1035.3333333383,18.0527
1497520510,1040.1333333383,17.3622
1497520514,1047.3333333383,17.844
1497520518,1040.1333333383,16.0796
1497520522,1044.9333333383,17.0802
1497520526,1032.9333333383,16.9612
1497520530,1037.7333333383,16.2744
1497520534,1016.1333333383,16.5014
1497520538,994.5333333383,16.9138
1497520542,1016.1333333383,15.2264
1497520546,1032.9333333383,15.9423
1497520550,1023.3333333383,16.2312
1497520554,987.3333333383,16.6778
1497520558,980.1333333383,16.1009
1497520562,1040.1333333383,17.3755
1497520566,1044.9333333383,16.6979
1497520570,963.3333333383,16.618
1497520574,1049.7333333383,16.88
1497520578,1078.5333333383,16.3964
1497520582,1044.9333333383,16.1499
1497520586,1056.9333333383,18.0015
1497520590,1085.7333333383,15.6575
1497520594,1104.9333333383,16.3733
1497520598,1052.1333333383,17.1641
1497520602,1090.5333333383,17.6437
1497520606,1124.1333333383,17.8317
1497520610,1035.3333333383,18.2703
1497520614,1054.5333333383,17.7783
1497520618,1047.3333333383,14.8641
1497520622,1061.7333333383,16.8165
1497520626,1059.3333333383,17.6062
1497520630,1042.5333333383,17.4608
1497520634,1020.9333333383,18.8987
1497520638,996.9333333383,16.3049
1497520642,1030.5333333383,17.8383
1497520646,1023.3333333383,16.8659
1497520650,1020.9333333383,17.1099
1497520654,975.3333333383,16.5787
1497520658,1020.9333333383,16.7023
1497520662,1011.3333333383,16.6321
1497520666,927.3333333383,16.7629
1497520670,984.9333333383,14.6799
1497520674,1030.5333333383,16.668
1497520678,994.5333333383,17.2685
1497520682,1001.7333333383,18.539
1497520686,1032.9333333383,19.0426
1497520690,1047.3333333383,16.6759
1497520694,982.5333333383,17.8275
1497520698,987.3333333383,18.7223
1497520702,1020.9333333383,18.1007
1497520706,1001.7333333383,18.283
1497520710,958.5333333383,17.9819
1497520714,948.9333333383,17.3441
1497520718,932.1333333383,16.2208
1497520722,912.9333333383,16.4896
1497520726,922.5333333383,17.0548
1497520730,905.7333333383,17.428
1497520734,941.7333333383,17.6004
1497520738,922.5333333383,17.7592
1497520742,927.3333333383,17.0826
1497520746,951.3333333383,17.3456
1497520750,932.1333333383,17.9774
1497520754,958.5333333383,16.4542
1497520758,989.7333333383,16.7009
1497520762,944.1333333383,16.304
1497520766,968.1333333383,18.2828
1497520770,912.9333333383,16.0236
1497520774,977.7333333383,16.0842
1497520778,958.5333333383,15.994
1497520782,970.5333333383,17.2998
1497520786,905.7333333383,17.0704
1497520790,946.5333333383,17.8865
1497520794,1028.1333333383,16.6818
1497520798,1037.7333333383,16.834
1497520802,1004.1333333383,16.4938
1497520806,1018.5333333383,16.9509
1497520810,1073.7333333383,17.9804
1497520814,936.9333333383,15.8567
1497520818,1030.5333333383,16.2668
1497520822,1064.1333333383,15.6391
1497520826,1044.9333333383,15.804
1497520830,1040.1333333383,18.341
1497520834,1037.7333333383,17.0221
1497520838,1028.1333333383,17.1278
1497520842,1018.5333333383,17.1836
1497520846,1023.3333333383,16.785
1497520850,992.1333333383,17.878
1497520854,1018.5333333383,16.6061
1497520858,1008.9333333383,16.6266
1497520862,972.9333333383,16.9797
1497520866,1049.7333333383,16.9586
1497520870,1020.9333333383,17.5574
1497520874,1044.9333333383,16.1525
1497520878,1047.3333333383,17.3093
1497520882,1032.9333333383,17.0931
1497520886,1001.7333333383,18.3335
1497520890,1059.3333333383,17.1122
1497520894,1088.1333333383,18.7826
1497520898,1025.7333333383,18.2293
1497520902,1076.1333333383,18.0506
1497520906,1092.9333333383,17.1844
1497520910,1044.9333333383,17.1597
1497520914,1064.1333333383,16.698
1497520918,1061.7333333383,17.6061
1497520922,1092.9333333383,16.9874
1497520926,1035.3333333383,18.2433
1497520930,1056.9333333383,18.0468
1497520934,1066.5333333383,17.3819
1497520938,1059.3333333383,18.0118
1497520942,1097.7333333383,15.885
1497520946,1037.7333333383,17.3003
1497520950,1071.3333333383,17.1561
1497520954,1037.7333333383,18.0119
1497520958,1066.5333333383,18.0169
1497520962,1112.1333333383,16.9491
1497520966,1080.9333333383,17.161
1497520970,1088.1333333383,18.0875
1497520974,1061.7333333383,18.3194
1497520978,1116.9333333383,17.6647
1497520982,1102.5333333383,17.6854
1497520986,1061.7333333383,16.6371
1497520990,1054.5333333383,18.2326
1497520994,1056.9333333383,18.8165
1497520998,1052.1333333383,16.978
1497521002,996.9333333383,16.3732
1497521006,1054.5333333383,16.6961
1497521010,1042.5333333383,18.3079
1497521014,963.3333333383,18.2354
1497521018,1030.5333333383,15.705
1497521022,994.5333333383,17.3048
1497521026,1018.5333333383,17.5011
1497521030,1054.5333333383,16.5353
1497521034,1059.3333333383,15.7483
1497521038,1083.3333333383,16.5812
1497521042,1040.1333333383,16.6171
1497521046,1032.9333333383,17.0018
1497521050,1040.1333333383,17.2954
1497521054,1032.9333333383,17.0415
1497521058,1018.5333333383,16.663
1497521062,1037.7333333383,17.7965
1497521066,1090.5333333383,17.2818
1497521070,1076.1333333383,17.612
1497521074,1124.1333333383,16.4226
1497521078,1143.3333333383,18.1547
1497521082,1203.3333333383,16.6018
1497521086,1155.3333333383,18.1057
1497521090,1112.1333333383,17.5797
1497521094,1126.5333333383,18.0782
1497521098,1126.5333333383,16.718
1497521102,1162.5333333383,17.4105
1497521106,1068.9333333383,16.8392
1497521110,1052.1333333383,16.6751
1497521114,1047.3333333383,18.0782
1497521118,1040.1333333383,16.58
1497521122,989.7333333383,15.5675
1497521126,1035.3333333383,16.9338
1497521130,1061.7333333383,17.6788
1497521134,1035.3333333383,17.5402
1497521138,1013.7333333383,16.4178
1497521142,1016.1333333383,15.3794
1497521146,1037.7333333383,17.5842
1497521150,1064.1333333383,17.6431
1497521154,1095.3333333383,17.1689
1497521158,1126.5333333383,17.2091
1497521162,1119.3333333383,17.0743
1497521166,1186.5333333383,17.828
1497521170,1104.9333333383,17.9291
1497521174,1131.3333333383,16.7423
1497521178,1092.9333333383,17.128
1497521182,1116.9333333383,17.7213
1497521186,1124.1333333383,17.947
1497521190,1102.5333333383,17.4491
1497521194,1104.9333333383,16.7487
1497521198,1073.7333333383,16.9711
1497521202,1119.3333333383,15.6129
1497521206,1128.9333333383,16.6028
1497521210,1066.5333333383,16.5598
1497521214,1071.3333333383,18.0202
1497521218,1083.3333333383,17.9886
1497521222,1056.9333333383,17.1002
1497521226,1054.5333333383,15.8631
1497521230,1068.9333333383,17.3952
1497521234,1078.5333333383,17.2765
1497521238,1028.1333333383,16.6656
1497521242,1040.1333333383,17.4385
1497521246,1030.5333333383,17.2753
1497521250,1044.9333333383,18.4357
1497521254,1102.5333333383,15.9149
1497521258,1114.5333333383,16.663
1497521262,1071.3333333383,16.3999
1497521266,1104.9333333383,16.6186
1497521270,1133.7333333383,17.1057
1497521274,1083.3333333383,15.778
1497521278,1085.7333333383,17.1344
1497521282,1116.9333333383,16.3056
1497521286,1186.5333333383,16.5684
1497521290,1114.5333333383,15.8409
1497521294,1169.7333333383,15.9045
1497521298,1116.9333333383,16.757
1497521302,1124.1333333383,16.4609
1497521306,1095.3333333383,16.3467
1497521310,1047.3333333383,16.5865
1497521314,1104.9333333383,16.6798
1497521318,1083.3333333383,16.1739
1497521322,1056.9333333383,18.0174
1497521326,1040.1333333383,17.7902
1497521330,1114.5333333383,16.4929
1497521334,1054.5333333383,16.5457
1497521338,1078.5333333383,16.6771
1497521342,1121.7333333383,17.4627
1497521346,1090.5333333383,16.6687
1497521350,1109.7333333383,16.7639
1497521354,1090.5333333383,16.6569
1497521358,1102.5333333383,16.9467
1497521362,1097.7333333383,16.1335
1497521366,1114.5333333383,15.9186
1497521370,1176.9333333383,16.6894
1497521374,1150.5333333383,15.5197
1497521378,1188.9333333383,15.967
1497521382,1150.5333333383,16.7828
1497521386,1174.5333333383,16.1762
1497521390,1073.7333333383,17.2796
1497521394,1102.5333333383,17.2517
1497521398,1097.7333333383,17.2718
1497521402,1119.3333333383,16.1916
1497521406,1073.7333333383,17.8273
1497521410,972.9333333383,17.3315
1497521414,951.3333333383,17.1827
1497521418,1042.5333333383,18.0009
1497521422,1032.9333333383,16.1193
1497521426,1013.7333333383,17.9861
1497521430,1059.3333333383,17.1074
1497521434,1011.3333333383,17.2341
1497521438,915.3333333383,17.1917
1497521442,984.9333333383,16.3191
1497521446,948.9333333383,16.2601
1497521450,1016.1333333383,16.2047
1497521454,1008.9333333383,17.7533
1497521458,948.9333333383,16.3997
1497521462,1023.3333333383,15.6557
1497521466,982.5333333383,16.2723
1497521470,1032.9333333383,18.2221
1497521474,975.3333333383,17.1296
1497521478,968.1333333383,17.1767
1497521482,936.9333333383,18.5036
1497521486,932.1333333383,18.0411
1497521490,898.5333333383,17.2026
1497521494,910.5333333383,18.0593
1497521498,939.3333333383,17.0957
1497521502,915.3333333383,17.4348
1497521506,934.5333333383,17.9614
1497521510,886.5333333383,16.8916
1497521514,956.1333333383,16.8856
1497521518,905.7333333383,17.3271
1497521522,910.5333333383,17.1103
1497521526,908.1333333383,17.2594
1497521530,893.7333333383,16.9349
1497521534,816.9333333383,16.4876
1497521538,891.3333333383,17.1252
1497521542,879.3333333383,16.7143
1497521546,975.3333333383,16.2719
1497521550,948.9333333383,16.3798
1497521554,905.7333333383,15.7251
1497521558,956.1333333383,16.3233
1497521562,953.7333333383,19.1353
1497521566,910.5333333383,16.4804
1497521570,879.3333333383,16.871
1497521574,860.1333333383,17.0115
1497521578,881.7333333383,17.3243
1497521582,903.3333333383,16.4433
1497521586,891.3333333383,16.8193
1497521590,862.5333333383,17.145
1497521594,917.7333333383,16.5967
1497521598,857.7333333383,16.7915
1497521602,893.7333333383,17.8692
1497521606,898.5333333383,16.6378
1497521610,941.7333333383,16.587
1497521614,881.7333333383,16.6831
1497521618,884.1333333383,18.1102
1497521622,927.3333333383,18.1343
1497521626,884.1333333383,16.4881
1497521630,908.1333333383,17.1781
1497521634,876.9333333383,17.4313
1497521638,881.7333333383,16.4201
1497521642,874.5333333383,16.8717
1497521646,879.3333333383,16.3342
1497521650,884.1333333383,17.585
1497521654,946.5333333383,17.131
1497521658,886.5333333383,18.3856
1497521662,898.5333333383,16.6692
1497521666,881.7333333383,18.0373
1497521670,910.5333333383,17.8033
1497521674,936.9333333383,17.5837
1497521678,939.3333333383,17.1965
1497521682,1025.7333333383,16.7319
1497521686,939.3333333383,16.6135
1497521690,953.7333333383,16.453
1497521694,920.1333333383,17.403
1497521698,953.7333333383,17.2133
1497521702,915.3333333383,16.6108
1497521706,970.5333333383,16.826
1497521710,905.7333333383,17.3465
1497521714,874.5333333383,17.9632
1497521718,908.1333333383,15.3377
1497521722,905.7333333383,15.6737
1497521726,927.3333333383,16.074
1497521730,908.1333333383,16.858
1497521734,920.1333333383,16.2215
1497521738,975.3333333383,17.2704
1497521742,987.3333333383,15.9035
1497521746,968.1333333383,17.229
1497521750,1020.9333333383,15.1286
1497521754,944.1333333383,16.043
1497521758,920.1333333383,17.2871
1497521762,934.5333333383,15.124
1497521766,924.9333333383,15.7725
1497521770,908.1333333383,17.347
1497521774,898.5333333383,17.1385
1497521778,944.1333333383,17.8072
1497521782,908.1333333383,17.5224
1497521786,970.5333333383,17.4277
1497521790,905.7333333383,17.5096
1497521794,917.7333333383,17.1951
1497521798,896.1333333383,15.8938
1497521802,896.1333333383,17.2595
1497521806,917.7333333383,16.8559
1497521810,932.1333333383,17.8035
1497521814,910.5333333383,18.9738
1497521818,946.5333333383,18.5273
1497521822,992.1333333383,18.257
1497521826,932.1333333383,16.0716
1497521830,948.9333333383,17.3722
1497521834,982.5333333383,17.506
1497521838,1016.1333333383,15.9356
1497521842,992.1333333383,16.6278
1497521846,956.1333333383,18.22
1497521850,920.1333333383,17.004
1497521854,888.9333333383,17.3499
1497521858,857.7333333383,17.2687
1497521862,900.9333333383,18.589
1497521866,876.9333333383,18.5813
1497521870,852.9333333383,17.787
1497521874,874.5333333383,17.566
1497521878,869.7333333383,17.024
1497521882,879.3333333383,16.6838
1497521886,852.9333333383,17.3373
1497521890,888.9333333383,17.4043
1497521894,869.7333333383,17.0082
1497521898,867.3333333383,17.3857
1497521902,857.7333333383,16.6534
1497521906,879.3333333383,16.4625
1497521910,922.5333333383,16.1585
1497521914,819.3333333383,17.4132
1497521918,874.5333333383,17.2218
1497521922,879.3333333383,16.9875
1497521926,893.7333333383,16.9503
1497521930,860.1333333383,17.3518
1497521934,876.9333333383,16.7865
1497521938,872.1333333383,16.7716
1497521942,920.1333333383,16.7678
1497521946,876.9333333383,18.0367
1497521950,888.9333333383,16.8126
1497521954,893.7333333383,18.2157
1497521958,881.7333333383,17.2121
1497521962,876.9333333383,17.9092
1497521966,852.9333333383,17.743
1497521970,912.9333333383,16.9416
1497521974,891.3333333383,19.1629
1497521978,872.1333333383,18.143
1497521982,874.5333333383,17.5418
1497521986,896.1333333383,18.7898
1497521990,876.9333333383,16.5583
1497521994,874.5333333383,17.4924
1497521998,879.3333333383,16.0799
1497522002,874.5333333383,16.0948
1497522006,896.1333333383,18.2869
1497522010,836.1333333383,17.5374
1497522014,900.9333333383,16.3887
1497522018,872.1333333383,16.4371
1497522022,876.9333333383,15.7455
1497522026,963.3333333383,17.1313
1497522030,944.1333333383,17.6373
1497522034,934.5333333383,16.8723
1497522038,924.9333333383,17.37
1497522042,1006.5333333383,16.2778
1497522046,927.3333333383,16.3978
1497522050,912.9333333383,16.4612
1497522054,934.5333333383,17.1035
1497522058,893.7333333383,15.8381
1497522062,908.1333333383,17.1302
1497522066,920.1333333383,17.5606
1497522070,920.1333333383,16.3234
1497522074,886.5333333383,17.5228
1497522078,920.1333333383,18.1432
1497522082,888.9333333383,18.2867
1497522086,920.1333333383,16.3321
1497522090,958.5333333383,16.4697
1497522094,903.3333333383,16.8325
1497522098,898.5333333383,16.4234
1497522102,891.3333333383,16.4342
1497522106,936.9333333383,17.6593
1497522110,927.3333333383,17.3999
1497522114,951.3333333383,16.893
1497522118,924.9333333383,15.9337
1497522122,984.9333333383,17.1587
1497522126,888.9333333383,17.3888
1497522130,908.1333333383,17.4478
1497522134,980.1333333383,16.8603
1497522138,975.3333333383,16.9158
1497522142,980.1333333383,16.2563
1497522146,956.1333333383,16.1194
1497522150,960.9333333383,16.4886
1497522154,900.9333333383,15.9524
1497522158,958.5333333383,15.5189
1497522162,908.1333333383,15.1961
1497522166,917.7333333383,15.3719
1497522170,977.7333333383,14.7848
1497522174,972.9333333383,15.7087
1497522178,900.9333333383,15.3349
1497522182,944.1333333383,16.0804
1497522186,975.3333333383,15.2087
1497522190,932.1333333383,15.9537
1497522194,1032.9333333383,16.3821
1497522198,999.3333333383,16.3241
1497522202,1035.3333333383,16.5172
1497522206,1066.5333333383,17.3864
1497522210,1044.9333333383,17.9866
1497522214,1054.5333333383,16.2846
1497522218,1092.9333333383,18.0689
1497522222,1052.1333333383,18.1168
1497522226,1064.1333333383,17.2985
1497522230,1040.1333333383,17.7188
1497522234,1061.7333333383,16.8434
1497522238,996.9333333383,18.7323
1497522242,1044.9333333383,18.0564
1497522246,1042.5333333383,18.6554
1497522250,1073.7333333383,16.9439
1497522254,1030.5333333383,18.2655
1497522258,1052.1333333383,17.4113
1497522262,1028.1333333383,17.9183
1497522266,1013.7333333383,17.4318
1497522270,1011.3333333383,16.0566
1497522274,1030.5333333383,17.3495
1497522278,1008.9333333383,17.4171
1497522282,1011.3333333383,18.2889
1497522286,994.5333333383,19.2686
1497522290,1061.7333333383,17.4702
1497522294,1044.9333333383,17.3864
1497522298,1023.3333333383,17.8325
1497522302,1059.3333333383,17.9631
1497522306,1020.9333333383,16.4984
1497522310,1037.7333333383,17.5048
1497522314,1011.3333333383,17.6227
1497522318,1037.7333333383,16.7768
1497522322,1073.7333333383,16.2672
1497522326,1035.3333333383,17.1845
1497522330,1052.1333333383,17.7867
1497522334,1068.9333333383,17.8903
1497522338,1040.1333333383,17.9382
1497522342,1059.3333333383,16.6691
1497522346,1042.5333333383,16.9039
1497522350,1047.3333333383,17.5916
1497522354,1013.7333333383,17.5643
1497522358,1023.3333333383,17.5402
1497522362,1013.7333333383,18.7151
1497522366,1044.9333333383,17.5162
1497522370,1006.5333333383,16.3115
1497522374,1080.9333333383,15.9819
1497522378,1020.9333333383,15.707
1497522382,1047.3333333383,16.1561
1497522386,1020.9333333383,14.9882
1497522390,1044.9333333383,16.2195
1497522394,1049.7333333383,16.4286
1497522398,1088.1333333383,16.2523
1497522402,1020.9333333383,17.3022
1497522406,1042.5333333383,17.0282
1497522410,1044.9333333383,17.3326
1497522414,1073.7333333383,15.3811
1497522418,1052.1333333383,16.3361
1497522422,1047.3333333383,17.383
1497522426,1071.3333333383,15.8737
1497522430,1030.5333333383,15.8227
1497522434,1054.5333333383,15.8904
1497522438,1032.9333333383,17.5303
1497522442,1049.7333333383,17.4578
1497522446,946.5333333383,16.8134
1497522450,936.9333333383,17.3737
1497522454,953.7333333383,15.3928
1497522458,996.9333333383,17.5575
1497522462,934.5333333383,16.0031
1497522466,992.1333333383,17.2448
1497522470,891.3333333383,15.9272
1497522474,958.5333333383,17.2621
1497522478,915.3333333383,16.9756
1497522482,965.7333333383,16.6142
1497522486,953.7333333383,15.9322
1497522490,951.3333333383,16.1379
1497522494,936.9333333383,17.3592
1497522498,987.3333333383,17.6521
1497522502,996.9333333383,17.7168
1497522506,1001.7333333383,16.8321
1497522510,1037.7333333383,17.3854
1497522514,996.9333333383,17.4897
1497522518,1104.9333333383,15.5871
1497522522,1028.1333333383,16.4507
1497522526,1080.9333333383,16.2261
1497522530,1049.7333333383,16.4793
1497522534,1056.9333333383,14.7184
1497522538,1047.3333333383,16.2116
1497522542,1054.5333333383,15.8395
1497522546,1109.7333333383,16.79
1497522550,1059.3333333383,15.9293
1497522554,1102.5333333383,17.6436
1497522558,1090.5333333383,15.8218
1497522562,1100.1333333383,16.3307
1497522566,1056.9333333383,15.896
1497522570,1090.5333333383,15.8985
1497522574,1054.5333333383,16.8057
1497522578,1049.7333333383,17.604
1497522582,1047.3333333383,16.2067
1497522586,1078.5333333383,16.092
1497522590,1035.3333333383,16.0878
1497522594,1061.7333333383,17.2939
1497522598,1119.3333333383,15.7045
1497522602,1119.3333333383,16.092
1497522606,1078.5333333383,16.3229
1497522610,1042.5333333383,16.917
1497522614,1112.1333333383,16.8337
1497522618,1088.1333333383,16.896
1497522622,1071.3333333383,16.4131
1497522626,1056.9333333383,16.4245
1497522630,1040.1333333383,16.7774
1497522634,1066.5333333383,17.6535
1497522638,1061.7333333383,17.5307
1497522642,1071.3333333383,17.8859
1497522646,1090.5333333383,18.6364
1497522650,1090.5333333383,18.0241
1497522654,1052.1333333383,18.692
1497522658,1032.9333333383,18.7826
1497522662,984.9333333383,18.2559
1497522666,1018.5333333383,17.735
1497522670,1006.5333333383,17.5178
1497522674,1004.1333333383,18.9714
1497522678,968.1333333383,17.8352
1497522682,1013.7333333383,18.1468
1497522686,941.7333333383,15.7972
1497522690,924.9333333383,16.9425
1497522694,958.5333333383,18.6252
1497522698,975.3333333383,17.6587
1497522702,999.3333333383,18.524
1497522706,965.7333333383,17.7012
1497522710,996.9333333383,17.4617
1497522714,951.3333333383,17.3917
1497522718,1025.7333333383,18.5315
1497522722,965.7333333383,17.6658
1497522726,968.1333333383,18.1143
1497522730,989.7333333383,17.0484
1497522734,996.9333333383,16.4286
1497522738,1044.9333333383,16.1224
1497522742,1028.1333333383,15.0297
1497522746,980.1333333383,16.8747
1497522750,1054.5333333383,16.5792
1497522754,980.1333333383,16.4945
1497522758,1001.7333333383,16.7982
1497522762,1008.9333333383,18.1754
1497522766,972.9333333383,16.3165
1497522770,1006.5333333383,16.9001
1497522774,936.9333333383,16.4655
1497522778,879.3333333383,17.2472
1497522782,896.1333333383,17.1188
1497522786,970.5333333383,17.9014
1497522790,922.5333333383,17.3642
1497522794,924.9333333383,17.3547
1497522798,893.7333333383,17.019
1497522802,965.7333333383,18.5319
1497522806,922.5333333383,18.4932
1497522810,958.5333333383,18.6135
1497522814,879.3333333383,17.8106
1497522818,982.5333333383,16.6971
1497522822,956.1333333383,16.258
1497522826,951.3333333383,17.9561
1497522830,898.5333333383,17.9779
1497522834,910.5333333383,17.6145
1497522838,946.5333333383,18.3863
1497522842,987.3333333383,17.8379
1497522846,915.3333333383,17.6748
1497522850,917.7333333383,16.0926
1497522854,920.1333333383,17.134
1497522858,958.5333333383,17.3358
1497522862,910.5333333383,17.8157
1497522866,879.3333333383,17.6899
1497522870,876.9333333383,17.4271
1497522874,869.7333333383,18.6069
1497522878,864.9333333383,17.6448
1497522882,905.7333333383,17.8999
1497522886,893.7333333383,18.074
1497522890,898.5333333383,18.1113
1497522894,944.1333333383,17.9959
1497522898,903.3333333383,18.0398
1497522902,915.3333333383,16.8915
1497522906,891.3333333383,16.5018
1497522910,886.5333333383,17.7863
1497522914,927.3333333383,18.2727
1497522918,972.9333333383,16.6721
1497522922,953.7333333383,17.8945
1497522926,968.1333333383,17.5575
1497522930,984.9333333383,18.5835
1497522934,898.5333333383,17.2043
1497522938,987.3333333383,18.0368
1497522942,994.5333333383,16.877
1497522946,1035.3333333383,15.5367
1497522950,972.9333333383,16.4149
1497522954,922.5333333383,17.1941
1497522958,984.9333333383,16.0149
1497522962,929.7333333383,16.9081
1497522966,960.9333333383,17.2466
1497522970,946.5333333383,16.8233
1497522974,965.7333333383,19.6544
1497522978,960.9333333383,16.7679
1497522982,888.9333333383,18.0094
1497522986,903.3333333383,16.4872
1497522990,912.9333333383,18.1414
1497522994,982.5333333383,19.1434
1497522998,900.9333333383,17.4332
1497523002,900.9333333383,16.5635
1497523006,975.3333333383,17.117
1497523010,941.7333333383,17.7262
1497523014,924.9333333383,17.4753
1497523018,917.7333333383,17.0656
1497523022,903.3333333383,18.2269
1497523026,915.3333333383,16.5386
1497523030,977.7333333383,18.0106
1497523034,946.5333333383,16.8408
1497523038,951.3333333383,16.0422
1497523042,910.5333333383,17.2585
1497523046,946.5333333383,18.3384
1497523050,970.5333333383,17.5234
1497523054,912.9333333383,17.5841
1497523058,939.3333333383,17.5557
1497523062,920.1333333383,16.905
1497523066,956.1333333383,16.5562
1497523070,1044.9333333383,16.6946
1497523074,1004.1333333383,17.4351
1497523078,972.9333333383,17.5426
1497523082,968.1333333383,17.3629
1497523086,917.7333333383,17.1701
1497523090,939.3333333383,17.0146
1497523094,1025.7333333383,16.7467
1497523098,958.5333333383,16.3315
1497523102,953.7333333383,16.8214
1497523106,891.3333333383,17.7554
1497523110,929.7333333383,15.2171
1497523114,917.7333333383,16.3592
1497523118,922.5333333383,18.299
1497523122,920.1333333383,16.0251
1497523126,905.7333333383,16.2496
1497523130,939.3333333383,15.9645
1497523134,903.3333333383,14.6893
1497523138,915.3333333383,17.9133
1497523142,984.9333333383,17.0534
1497523146,953.7333333383,16.5453
1497523150,932.1333333383,15.4903
1497523154,932.1333333383,16.7374
1497523158,948.9333333383,16.6334
1497523162,968.1333333383,16.6169
1497523166,876.9333333383,16.9364
1497523170,888.9333333383,16.3744
1497523174,872.1333333383,18.0323
1497523178,891.3333333383,16.7357
1497523182,869.7333333383,17.7901
1497523186,836.1333333383,18.299
1497523190,864.9333333383,17.8562
1497523194,893.7333333383,17.2073
1497523198,876.9333333383,17.6514
1497523202,886.5333333383,17.5441
1497523206,888.9333333383,16.6604
1497523210,886.5333333383,17.1302
1497523214,905.7333333383,16.9424
1497523218,891.3333333383,16.0848
1497523222,893.7333333383,17.4126
1497523226,900.9333333383,17.6974
1497523230,908.1333333383,17.7236
1497523234,922.5333333383,17.8295
1497523238,956.1333333383,16.5703
1497523242,970.5333333383,16.6657
1497523246,953.7333333383,17.652
1497523250,963.3333333383,16.9756
1497523254,1032.9333333383,17.7232
1497523258,944.1333333383,17.6555
1497523262,900.9333333383,16.9125
1497523266,912.9333333383,17.3703
1497523270,900.9333333383,17.7275
1497523274,932.1333333383,17.7887
1497523278,879.3333333383,16.8559
1497523282,932.1333333383,17.6485
1497523286,843.3333333383,16.4989
1497523290,881.7333333383,16.1666
1497523294,879.3333333383,16.4557
1497523298,915.3333333383,16.3557
1497523302,888.9333333383,17.4918
1497523306,900.9333333383,17.8634
1497523310,874.5333333383,15.4902
1497523314,941.7333333383,16.6974
1497523318,898.5333333383,16.2772
1497523322,881.7333333383,15.6592
1497523326,968.1333333383,15.5294
1497523330,927.3333333383,15.9233
1497523334,1008.9333333383,16.4435
1497523338,1028.1333333383,17.2417
1497523342,1016.1333333383,16.4517
1497523346,1011.3333333383,15.8271
1497523350,1032.9333333383,16.1339
1497523354,1025.7333333383,17.186
1497523358,1040.1333333383,15.1997
1497523362,953.7333333383,15.6201
1497523366,1078.5333333383,16.102
1497523370,992.1333333383,14.3466
1497523374,989.7333333383,16.4719
1497523378,1006.5333333383,16.3367
1497523382,963.3333333383,15.4903
1497523386,927.3333333383,16.5048
1497523390,917.7333333383,17.2746
1497523394,953.7333333383,18.0571
1497523398,924.9333333383,18.5092
1497523402,898.5333333383,17.0686
1497523406,939.3333333383,16.5123
1497523410,920.1333333383,19.5098
1497523414,912.9333333383,17.0151
1497523418,905.7333333383,15.3265
1497523422,900.9333333383,16.7658
1497523426,905.7333333383,16.917
1497523430,910.5333333383,16.7795
1497523434,941.7333333383,17.5263
1497523438,956.1333333383,18.2541
1497523442,896.1333333383,18.0188
1497523446,920.1333333383,16.9868
1497523450,896.1333333383,17.749
1497523454,927.3333333383,17.7112
1497523458,922.5333333383,16.931
1497523462,893.7333333383,16.9255
1497523466,927.3333333383,17.5987
1497523470,881.7333333383,16.9242
1497523474,915.3333333383,17.3539
1497523478,888.9333333383,16.7593
1497523482,896.1333333383,16.2835
1497523486,900.9333333383,16.6952
1497523490,934.5333333383,16.6181
1497523494,864.9333333383,17.3476
1497523498,891.3333333383,16.7458
1497523502,886.5333333383,16.64
1497523506,944.1333333383,17.1042
1497523510,862.5333333383,17.0192
1497523514,939.3333333383,16.0895
1497523518,903.3333333383,17.5675
1497523522,927.3333333383,17.1403
1497523526,893.7333333383,16.5987
1497523530,869.7333333383,17.1287
1497523534,910.5333333383,16.9536
1497523538,896.1333333383,16.7789
1497523542,953.7333333383,16.6839
1497523546,934.5333333383,16.3333
1497523550,941.7333333383,16.1158
1497523554,898.5333333383,16.918
1497523558,989.7333333383,16.775
1497523562,980.1333333383,17.1853
1497523566,996.9333333383,17.5865
1497523570,908.1333333383,16.1355
1497523574,999.3333333383,15.8556
1497523578,1040.1333333383,16.5283
1497523582,1068.9333333383,16.956
1497523586,1085.7333333383,16.5495
1497523590,1119.3333333383,16.7618
1497523594,1090.5333333383,17.6514
1497523598,1092.9333333383,16.9004
1497523602,1071.3333333383,17.2104
1497523606,1107.3333333383,15.375
1497523610,1097.7333333383,16.3314
1497523614,1112.1333333383,17.4406
1497523618,1126.5333333383,16.0102
1497523622,1068.9333333383,17.1892
1497523626,1109.7333333383,17.2996
1497523630,1066.5333333383,16.724
1497523634,1126.5333333383,16.8493
1497523638,1054.5333333383,16.5877
1497523642,1083.3333333383,17.9428
1497523646,1040.1333333383,17.2953
1497523650,1052.1333333383,17.1994
1497523654,1018.5333333383,17.1937
1497523658,1049.7333333383,17.589
1497523662,1006.5333333383,17.6153
1497523666,953.7333333383,17.8462
1497523670,987.3333333383,16.95
1497523674,970.5333333383,16.3994
1497523678,924.9333333383,16.6761
1497523682,917.7333333383,16.3191
1497523686,898.5333333383,15.7522
1497523690,970.5333333383,17.0748
1497523694,905.7333333383,16.5344
1497523698,912.9333333383,16.7174
1497523702,915.3333333383,16.4501
1497523706,872.1333333383,16.6133
1497523710,896.1333333383,16.8977
1497523714,898.5333333383,17.6257
1497523718,910.5333333383,17.4837
1497523722,903.3333333383,17.8253
1497523726,927.3333333383,17.8171
1497523730,1008.9333333383,17.2617
1497523734,958.5333333383,17.8903
1497523738,1006.5333333383,16.1956
1497523742,958.5333333383,16.9062
1497523750,956.1333333383,16.9984
1497523754,934.5333333383,18.5809
1497523758,908.1333333383,17.6465
1497523762,939.3333333383,18.0208
1497523766,922.5333333383,17.3783
1497523770,987.3333333383,17.1109
1497523774,1001.7333333383,18.5633
1497523778,927.3333333383,16.2712
1497523782,953.7333333383,17.3403
1497523786,951.3333333383,16.9945
1497523790,927.3333333383,15.6127
1497523794,910.5333333383,16.9144
1497523798,941.7333333383,17.426
1497523802,920.1333333383,15.6728
1497523806,840.9333333383,16.92
1497523810,908.1333333383,16.5496
1497523814,876.9333333383,16.4045
1497523818,888.9333333383,16.6608
1497523822,867.3333333383,16.4436
1497523826,881.7333333383,17.1946
1497523830,903.3333333383,18.3095
1497523834,884.1333333383,17.0357
1497523838,920.1333333383,16.5389
1497523842,879.3333333383,17.756
1497523846,924.9333333383,17.2665
1497523850,869.7333333383,18.612
1497523854,941.7333333383,17.307
1497523858,910.5333333383,17.7602
1497523862,929.7333333383,17.4672
1497523866,987.3333333383,17.5477
1497523870,924.9333333383,17.5718
1497523874,867.3333333383,16.9776
1497523878,958.5333333383,17.0248
1497523882,912.9333333383,17.193
1497523886,862.5333333383,16.7232
1497523890,956.1333333383,16.7212
1497523894,939.3333333383,16.7906
1497523898,898.5333333383,16.6837
1497523902,929.7333333383,17.9155
1497523906,1011.3333333383,17.2101
1497523910,944.1333333383,18.7678
1497523914,903.3333333383,17.2418
1497523918,903.3333333383,18.0565
1497523922,927.3333333383,16.1744
1497523926,963.3333333383,16.5361
1497523930,888.9333333383,16.9733
1497523934,917.7333333383,16.962
1497523938,939.3333333383,17.8351
1497523942,920.1333333383,16.4395
1497523946,886.5333333383,17.0685
1497523950,860.1333333383,15.6736
1497523954,888.9333333383,17.6965
1497523958,876.9333333383,18.4271
1497523962,884.1333333383,19.8959
1497523966,850.5333333383,16.3113
1497523970,910.5333333383,17.2349
1497523974,1008.9333333383,17.3175
1497523978,1073.7333333383,17.6062
1497523982,1068.9333333383,15.9933
1497523986,1040.1333333383,16.5817
1497523990,1047.3333333383,16.5453
1497523994,1006.5333333383,16.7179
1497523998,1025.7333333383,17.7246
1497524002,1006.5333333383,16.1665
1497524006,982.5333333383,15.8867
1497524010,980.1333333383,16.0691
1497524014,989.7333333383,15.2667
1497524018,924.9333333383,15.6896
1497524022,965.7333333383,15.123
1497524026,912.9333333383,16.0891
1497524030,948.9333333383,17.5855
1497524034,924.9333333383,16.0131
1497524038,939.3333333383,16.9358
1497524042,994.5333333383,16.6961
1497524046,948.9333333383,16.1008
1497524050,1016.1333333383,17.5147
1497524054,987.3333333383,16.5435
1497524058,982.5333333383,16.9398
1497524062,975.3333333383,18.3844
1497524066,1037.7333333383,17.225
1497524070,1004.1333333383,17.3446
1497524074,965.7333333383,17.3888
1497524078,951.3333333383,16.6031
1497524082,941.7333333383,16.5533
1497524086,924.9333333383,17.1773
1497524090,936.9333333383,16.5748
1497524094,951.3333333383,16.286
1497524098,951.3333333383,16.6962
1497524102,984.9333333383,16.1654
1497524106,944.1333333383,16.5462
1497524110,996.9333333383,14.6916
1497524114,946.5333333383,16.3637
1497524118,1032.9333333383,17.6075
1497524122,939.3333333383,15.3257
1497524126,970.5333333383,15.1388
1497524130,960.9333333383,16.7501
1497524134,977.7333333383,17.5109
1497524138,972.9333333383,17.5453
1497524142,963.3333333383,16.8438
1497524146,960.9333333383,16.4424
1497524150,975.3333333383,17.4218
1497524154,1004.1333333383,16.768
1497524158,917.7333333383,16.198
1497524162,980.1333333383,16.5249
1497524166,884.1333333383,16.4582
1497524170,1001.7333333383,16.1311
1497524174,968.1333333383,17.484
1497524178,999.3333333383,16.8281
1497524182,1030.5333333383,17.8923
1497524186,1028.1333333383,17.0674
1497524190,1040.1333333383,15.963
1497524194,1013.7333333383,17.5423
1497524198,1109.7333333383,16.6513
1497524202,1083.3333333383,17.3611
1497524206,1071.3333333383,16.5574
1497524210,1042.5333333383,17.2087
1497524214,1059.3333333383,18.4249
1497524218,1121.7333333383,16.0057
1497524222,1076.1333333383,16.837
1497524226,1095.3333333383,17.6984
1497524230,1143.3333333383,16.2327
1497524234,1133.7333333383,16.1053
1497524238,1128.9333333383,17.2268
1497524242,1109.7333333383,17.2424
1497524246,1116.9333333383,17.6792
1497524250,1116.9333333383,16.6971
1497524254,1061.7333333383,16.3523
1497524258,1102.5333333383,17.2216
1497524262,1064.1333333383,16.2366
1497524266,1042.5333333383,17.2469
1497524270,1047.3333333383,16.3058
1497524274,1054.5333333383,17.1654
1497524278,1056.9333333383,17.3729
1497524282,1025.7333333383,16.0779
1497524286,1028.1333333383,16.6236
1497524290,1011.3333333383,18.3794
1497524294,1052.1333333383,16.6052
1497524298,984.9333333383,17.58
1497524302,1011.3333333383,18.8219
1497524306,1023.3333333383,16.8243
1497524310,1011.3333333383,16.6046
1497524314,968.1333333383,17.6636
1497524318,948.9333333383,17.4316
1497524322,963.3333333383,17.5935
1497524326,922.5333333383,16.1205
1497524330,917.7333333383,16.6113
1497524334,893.7333333383,16.0471
1497524338,860.1333333383,16.8728
1497524342,922.5333333383,16.7477
1497524346,932.1333333383,17.8794
1497524350,888.9333333383,17.1842
1497524354,958.5333333383,17.5402
1497524358,951.3333333383,17.3237
1497524362,922.5333333383,17.0727
1497524366,984.9333333383,16.5373
1497524370,975.3333333383,16.0996
1497524374,1013.7333333383,17.893
1497524378,948.9333333383,16.7745
1497524382,984.9333333383,17.0086
1497524386,963.3333333383,16.3417
1497524390,972.9333333383,17.4999
1497524394,922.5333333383,16.9956
1497524398,908.1333333383,17.7089
1497524402,948.9333333383,17.3706
1497524406,953.7333333383,17.3728
1497524410,992.1333333383,16.8384
1497524414,920.1333333383,17.4113
1497524418,956.1333333383,16.8164
1497524422,941.7333333383,17.4301
1497524426,968.1333333383,16.7789
1497524430,960.9333333383,17.2295
1497524434,908.1333333383,17.4242
1497524438,912.9333333383,17.782
1497524442,963.3333333383,17.7218
1497524446,917.7333333383,16.8076
1497524450,862.5333333383,18.2711
1497524454,884.1333333383,16.5251
1497524458,917.7333333383,17.5812
1497524462,893.7333333383,18.7621
1497524466,872.1333333383,18.1475
1497524470,876.9333333383,16.8585
1497524474,915.3333333383,16.9886
1497524478,929.7333333383,17.0197
1497524482,910.5333333383,18.0561
1497524486,888.9333333383,17.6915
1497524490,934.5333333383,18.0226
1497524494,867.3333333383,17.1428
1497524498,874.5333333383,17.7785
1497524502,879.3333333383,15.9171
1497524506,874.5333333383,16.3425
1497524510,850.5333333383,16.7053
1497524514,888.9333333383,17.1443
1497524518,934.5333333383,17.6662
1497524522,898.5333333383,16.8635
1497524526,903.3333333383,17.8968
1497524530,821.7333333383,17.3743
1497524534,896.1333333383,18.2802
1497524538,934.5333333383,18.1954
1497524542,898.5333333383,17.4825
1497524546,879.3333333383,17.3892
1497524550,876.9333333383,17.6373
1497524554,903.3333333383,16.1973
1497524558,912.9333333383,16.5242
1497524562,951.3333333383,16.958
1497524566,912.9333333383,16.8704
1497524570,888.9333333383,17.2329
1497524574,912.9333333383,17.1915
1497524578,910.5333333383,15.7331
1497524582,888.9333333383,16.7892
1497524586,915.3333333383,17.1457
1497524590,876.9333333383,17.3098
1497524594,881.7333333383,17.8955
1497524598,886.5333333383,18.3934
1497524602,824.1333333383,17.7902
1497524606,874.5333333383,17.6907
1497524610,908.1333333383,17.9874
1497524614,891.3333333383,17.7027
1497524618,929.7333333383,17.3629
1497524622,927.3333333383,18.052
1497524626,886.5333333383,17.6242
1497524630,888.9333333383,17.4332
1497524634,876.9333333383,16.4048
1497524638,881.7333333383,16.6005
1497524642,860.1333333383,16.8386
1497524646,857.7333333383,16.2139
1497524650,908.1333333383,16.1335
1497524654,884.1333333383,15.5262
1497524658,924.9333333383,18.0946
1497524662,828.9333333383,16.612
1497524666,884.1333333383,16.6913
1497524670,819.3333333383,16.9177
1497524674,975.3333333383,17.2538
1497524678,888.9333333383,17.0269
1497524682,934.5333333383,17.0452
1497524686,900.9333333383,17.5286
1497524690,898.5333333383,16.6821
1497524694,872.1333333383,17.3297
1497524698,886.5333333383,16.6077
1497524702,867.3333333383,16.6224
1497524706,879.3333333383,17.7639
1497524710,876.9333333383,17.4367
1497524714,884.1333333383,16.7475
1497524718,920.1333333383,17.2677
1497524722,920.1333333383,17.4545
1497524726,1004.1333333383,16.5182
1497524730,946.5333333383,16.9107
1497524734,1032.9333333383,16.6448
1497524738,1011.3333333383,17.74
1497524742,968.1333333383,17.2865
1497524746,1040.1333333383,17.8114
1497524750,1013.7333333383,17.5707
1497524754,1044.9333333383,17.2702
1497524758,1013.7333333383,17.9497
1497524762,1054.5333333383,17.1609
1497524766,1030.5333333383,16.2299
1497524770,953.7333333383,15.9033
1497524774,934.5333333383,16.8229
1497524778,972.9333333383,17.5667
1497524782,953.7333333383,16.0638
1497524786,956.1333333383,16.1911
1497524790,910.5333333383,16.6693
1497524794,960.9333333383,16.7742
1497524798,879.3333333383,15.9429
1497524802,881.7333333383,15.7135
1497524806,963.3333333383,17.2392
1497524810,908.1333333383,16.2657
1497524814,905.7333333383,16.9888
1497524818,879.3333333383,18.0403
1497524822,992.1333333383,18.4736
1497524826,924.9333333383,18.6467
1497524830,917.7333333383,17.3688
1497524834,917.7333333383,17.095
1497524838,932.1333333383,16.2899
1497524842,929.7333333383,16.5895
1497524846,941.7333333383,17.8394
1497524850,884.1333333383,16.8539
1497524854,879.3333333383,17.4446
1497524858,905.7333333383,16.6951
1497524862,896.1333333383,17.2365
1497524866,944.1333333383,16.8331
1497524870,915.3333333383,17.9462
1497524874,920.1333333383,16.3023
1497524878,948.9333333383,17.3223
1497524882,903.3333333383,17.4957
1497524886,922.5333333383,17.9157
1497524890,980.1333333383,17.9435
1497524894,936.9333333383,17.0242
1497524898,881.7333333383,16.9582
1497524902,941.7333333383,17.0003
1497524906,879.3333333383,18.2399
1497524910,860.1333333383,17.0495
1497524914,879.3333333383,17.1778
1497524918,876.9333333383,18.8937
1497524922,896.1333333383,18.9745
1497524926,814.5333333383,17.5136
1497524930,879.3333333383,16.3676
1497524934,876.9333333383,16.9168
1497524938,905.7333333383,16.399
1497524942,874.5333333383,16.1797
1497524946,951.3333333383,16.1674
1497524950,932.1333333383,16.4685
1497524954,908.1333333383,15.852
1497524958,924.9333333383,16.8225
1497524962,939.3333333383,16.1554
1497524966,944.1333333383,17.7452
1497524970,927.3333333383,17.1147
1497524974,888.9333333383,17.306
1497524978,924.9333333383,17.4011
1497524982,905.7333333383,17.1538
1497524986,910.5333333383,16.1713
1497524990,934.5333333383,17.1011
1497524994,903.3333333383,16.6219
1497524998,922.5333333383,16.5646
1497525002,934.5333333383,17.5657
1497525006,920.1333333383,17.3315
1497525010,1006.5333333383,15.1841
1497525014,970.5333333383,17.5976
1497525018,1040.1333333383,16.8783
1497525022,946.5333333383,16.9552
1497525026,1004.1333333383,16.0775
1497525030,939.3333333383,16.1596
1497525034,956.1333333383,17.0055
1497525038,999.3333333383,18.6806
1497525042,992.1333333383,18.003
1497525046,963.3333333383,17.5362
1497525050,917.7333333383,16.6482
1497525054,1025.7333333383,14.6913
1497525058,1001.7333333383,16.0227
1497525062,1030.5333333383,16.8101
1497525066,1006.5333333383,17.2448
1497525070,1059.3333333383,15.7196
1497525074,1008.9333333383,16.7056
1497525078,1064.1333333383,17.6454
1497525082,989.7333333383,16.6394
1497525086,1044.9333333383,16.7584
1497525090,1023.3333333383,17.4923
1497525094,1042.5333333383,15.6658
1497525098,1025.7333333383,16.0953
1497525102,1032.9333333383,15.271
1497525106,936.9333333383,16.9393
1497525110,941.7333333383,17.4001
1497525114,956.1333333383,16.9822
1497525118,996.9333333383,17.8855
1497525122,929.7333333383,18.09
1497525126,953.7333333383,17.1222
1497525130,968.1333333383,18.1331
1497525134,980.1333333383,17.9356
1497525138,1044.9333333383,18.2849
1497525142,936.9333333383,18.0437
1497525146,1004.1333333383,17.668
1497525150,946.5333333383,17.8723
1497525154,1001.7333333383,16.4424
1497525158,1030.5333333383,17.9146
1497525162,1090.5333333383,17.31
1497525166,1047.3333333383,18.2279
1497525170,1064.1333333383,18.1842
1497525174,1066.5333333383,16.7327
1497525178,1064.1333333383,16.3034
1497525182,1025.7333333383,16.075
1497525186,1030.5333333383,16.3927
1497525190,1068.9333333383,18.3703
1497525194,982.5333333383,16.6823
1497525198,1001.7333333383,16.9634
1497525202,1011.3333333383,17.8687
1497525206,1025.7333333383,15.6145
1497525210,1035.3333333383,15.5519
1497525214,1011.3333333383,16.7037
1497525218,1052.1333333383,16.1295
1497525222,1004.1333333383,17.353
1497525226,1047.3333333383,16.6211
1497525230,1049.7333333383,17.318
1497525234,1054.5333333383,17.4886
1497525238,972.9333333383,17.3612
1497525242,1047.3333333383,17.5026
1497525246,982.5333333383,16.8176
1497525250,1035.3333333383,17.8466
1497525254,922.5333333383,17.2183
1497525258,987.3333333383,16.8633
1497525262,977.7333333383,16.0854
1497525266,1001.7333333383,16.463
1497525270,948.9333333383,16.3231
1497525274,946.5333333383,15.4212
1497525278,939.3333333383,16.4058
1497525282,972.9333333383,16.5881
1497525286,900.9333333383,17.7815
1497525290,893.7333333383,17.6448
1497525294,922.5333333383,16.8579
1497525298,927.3333333383,16.6916
1497525302,987.3333333383,17.3817
1497525306,898.5333333383,18.5827
1497525310,939.3333333383,16.5762
1497525314,891.3333333383,17.5018
1497525318,888.9333333383,16.5481
1497525322,965.7333333383,17.4843
1497525326,881.7333333383,17.9334
1497525330,886.5333333383,17.1803
1497525334,903.3333333383,18.0259
1497525338,891.3333333383,18.1321
1497525342,850.5333333383,18.2621
1497525346,876.9333333383,17.8923
1497525350,896.1333333383,17.1467
1497525354,872.1333333383,17.9093
1497525362,905.7333333383,17.2785
1497525366,874.5333333383,17.7771
1497525370,872.1333333383,16.1411
1497525374,874.5333333383,16.9001
1497525378,807.3333333383,18.0569
1497525382,833.7333333383,16.7021
1497525386,872.1333333383,18.0865
1497525390,862.5333333383,16.7233
1497525394,886.5333333383,17.9887
1497525398,924.9333333383,17.7567
1497525402,1030.5333333383,17.7755
1497525406,1071.3333333383,17.7699
1497525410,1080.9333333383,16.8331
1497525414,1044.9333333383,17.5126
1497525418,1085.7333333383,17.8037
1497525422,1109.7333333383,17.592
1497525426,1037.7333333383,16.6205
1497525430,1056.9333333383,16.6775
1497525434,1025.7333333383,15.5367
1497525438,1035.3333333383,16.5434
1497525442,1013.7333333383,16.638
1497525446,999.3333333383,16.1831
1497525450,944.1333333383,17.197
1497525454,1008.9333333383,17.9217
1497525458,944.1333333383,17.5832
1497525462,920.1333333383,15.8328
1497525466,922.5333333383,17.4098
1497525470,1020.9333333383,17.5129
1497525474,924.9333333383,17.7772
1497525478,920.1333333383,17.8931
1497525482,893.7333333383,17.6136
1497525486,915.3333333383,17.8684
1497525490,905.7333333383,17.6029
1497525494,908.1333333383,17.0586
1497525498,888.9333333383,17.627
1497525502,888.9333333383,16.7052
1497525506,939.3333333383,17.7553
1497525510,970.5333333383,16.4781
1497525514,1023.3333333383,15.9494
1497525518,958.5333333383,16.9883
1497525522,936.9333333383,17.5768
1497525526,927.3333333383,16.1517
1497525530,905.7333333383,16.7324
1497525534,1004.1333333383,16.8038
1497525538,953.7333333383,16.9138
1497525542,958.5333333383,15.9238
1497525546,1013.7333333383,15.1473
1497525550,1044.9333333383,16.6878
1497525554,1037.7333333383,17.0669
1497525558,1056.9333333383,16.0333
1497525562,1035.3333333383,15.8943
1497525566,1020.9333333383,16.4094
1497525570,1037.7333333383,17.2448
1497525574,1068.9333333383,17.5935
1497525578,1018.5333333383,16.179
1497525582,1023.3333333383,17.7048
1497525586,1011.3333333383,16.2691
1497525590,970.5333333383,16.3509
1497525594,984.9333333383,17.7304
1497525598,1013.7333333383,16.8544
1497525602,1016.1333333383,17.2606
1497525606,1028.1333333383,16.882
1497525610,1008.9333333383,17.2556
1497525614,1035.3333333383,17.7284
1497525618,1068.9333333383,18.6351
1497525622,1128.9333333383,18.4774
1497525626,1116.9333333383,18.8606
1497525630,1136.1333333383,16.777
1497525634,1047.3333333383,17.3364
1497525638,1054.5333333383,17.2464
1497525642,1088.1333333383,17.8524
1497525646,1073.7333333383,16.9583
1497525650,1018.5333333383,17.4739
1497525654,1047.3333333383,17.6467
1497525658,994.5333333383,18.2636
1497525662,1032.9333333383,15.9097
1497525666,968.1333333383,17.9787
1497525670,1013.7333333383,16.3993
1497525674,941.7333333383,16.9951
1497525678,948.9333333383,16.4947
1497525682,956.1333333383,16.8864
1497525686,924.9333333383,16.2439
1497525690,944.1333333383,16.3061
1497525694,948.9333333383,16.841
1497525698,934.5333333383,15.8104
1497525702,903.3333333383,17.6927
1497525706,1001.7333333383,16.4361
1497525710,905.7333333383,16.072
1497525714,900.9333333383,17.175
1497525718,939.3333333383,16.9596
1497525722,970.5333333383,17.5718
1497525726,946.5333333383,15.7814
1497525730,1001.7333333383,18.3907
1497525734,1040.1333333383,16.3719
1497525738,1052.1333333383,17.7588
1497525742,1052.1333333383,16.7341
1497525746,1092.9333333383,16.4653
1497525750,1047.3333333383,16.7156
1497525754,1044.9333333383,17.3251
1497525758,982.5333333383,16.8181
1497525762,1102.5333333383,15.8769
1497525766,1109.7333333383,15.7554
1497525770,1119.3333333383,16.6
1497525774,1124.1333333383,17.2522
1497525778,1114.5333333383,17.3447
1497525782,1126.5333333383,16.2977
1497525786,1126.5333333383,15.9269
1497525790,1128.9333333383,16.24
1497525794,1078.5333333383,18.1887
1497525798,1054.5333333383,18.6641
1497525802,956.1333333383,17.6978
1497525806,1047.3333333383,16.5418
1497525810,996.9333333383,16.9924
1497525814,1047.3333333383,16.3865
1497525818,1028.1333333383,17.5239
1497525822,1037.7333333383,16.6333
1497525826,1028.1333333383,17.5985
1497525830,944.1333333383,17.2631
1497525834,987.3333333383,17.3239
1497525838,910.5333333383,17.0084
1497525842,1037.7333333383,17.3598
1497525846,1116.9333333383,16.8069
1497525850,1116.9333333383,16.7916
1497525854,1116.9333333383,16.7979
1497525858,1090.5333333383,16.3215
1497525862,1133.7333333383,16.3287
1497525866,1042.5333333383,16.1852
1497525870,1102.5333333383,16.321
1497525874,1032.9333333383,16.8877
1497525878,999.3333333383,15.8314
1497525882,1049.7333333383,16.4463
1497525886,1068.9333333383,15.2384
1497525890,1061.7333333383,15.4458
1497525894,1078.5333333383,15.8075
1497525898,1020.9333333383,16.3735
1497525902,1071.3333333383,14.4148
1497525906,1059.3333333383,15.2032
1497525910,1006.5333333383,16.0564
1497525914,1068.9333333383,14.7692
1497525918,1049.7333333383,16.6216
1497525922,1056.9333333383,15.932
1497525926,977.7333333383,15.7938
1497525930,994.5333333383,15.6196
1497525934,1104.9333333383,17.4615
1497525938,975.3333333383,17.5595
1497525942,975.3333333383,15.8962
1497525946,982.5333333383,16.2457
1497525950,963.3333333383,16.6398
1497525954,992.1333333383,15.9953
1497525958,951.3333333383,16.3104
1497525962,982.5333333383,16.2554
1497525966,982.5333333383,16.7371
1497525970,1035.3333333383,17.0096
1497525974,1044.9333333383,16.2503
1497525978,1119.3333333383,16.2345
1497525982,1030.5333333383,16.4136
1497525986,1040.1333333383,16.5507
1497525990,1016.1333333383,16.0379
1497525994,1037.7333333383,15.882
1497525998,1030.5333333383,15.3597
1497526002,1035.3333333383,16.328
1497526006,1049.7333333383,17.3395
1497526010,968.1333333383,16.5607
1497526014,1044.9333333383,17.605
1497526018,977.7333333383,17.1091
1497526022,1042.5333333383,17.1181
1497526026,989.7333333383,16.2578
1497526030,999.3333333383,16.3818
1497526034,1023.3333333383,16.2305
1497526038,1095.3333333383,16.4243
1497526042,1136.1333333383,16.5281
1497526046,1236.9333333383,16.3861
1497526050,1188.9333333383,18.0344
1497526054,1229.7333333383,15.3682
1497526058,1210.5333333383,16.2076
1497526062,1145.7333333383,15.642
1497526066,1121.7333333383,16.7656
1497526070,1116.9333333383,16.7183
1497526074,1064.1333333383,17.1392
1497526078,1092.9333333383,16.7551
1497526082,1047.3333333383,16.7911
1497526086,1013.7333333383,16.5518
1497526090,1016.1333333383,15.8857
1497526094,1032.9333333383,16.0648
1497526098,1040.1333333383,16.3861
1497526102,1011.3333333383,15.6281
1497526106,1054.5333333383,16.7412
1497526110,1001.7333333383,17.1697
1497526114,1049.7333333383,17.2139
1497526118,1016.1333333383,18.6144
1497526122,1059.3333333383,17.867
1497526126,1052.1333333383,17.6013
1497526130,1035.3333333383,17.0942
1497526134,1013.7333333383,17.4763
1497526138,1004.1333333383,18.3047
1497526142,1025.7333333383,18.0813
1497526146,948.9333333383,18.1304
1497526150,1020.9333333383,16.9223
1497526154,1013.7333333383,15.8845
1497526158,1018.5333333383,15.4056
1497526162,1030.5333333383,16.3761
1497526166,1011.3333333383,16.2364
1497526170,994.5333333383,16.8833
1497526174,941.7333333383,15.8512
1497526178,1011.3333333383,17.2031
1497526182,987.3333333383,16.9394
1497526186,1013.7333333383,15.7941
1497526190,965.7333333383,16.7095
1497526194,987.3333333383,17.2818
1497526198,951.3333333383,18.9
1497526202,927.3333333383,17.8619
1497526206,980.1333333383,17.1122
1497526210,893.7333333383,16.8063
1497526214,929.7333333383,16.6776
1497526218,999.3333333383,17.4828
1497526222,972.9333333383,17.8288
1497526226,960.9333333383,18.0057
1497526230,975.3333333383,16.7137
1497526234,1001.7333333383,16.9837
1497526238,968.1333333383,17.1032
1497526242,982.5333333383,17.7556
1497526246,977.7333333383,17.3893
1497526250,982.5333333383,16.982
1497526254,965.7333333383,18.2347
1497526258,1025.7333333383,15.9286
1497526262,1042.5333333383,16.0417
1497526266,982.5333333383,15.6665
1497526270,982.5333333383,15.9732
1497526274,1001.7333333383,16.7201
1497526278,939.3333333383,17.1498
1497526282,900.9333333383,16.8087
1497526286,874.5333333383,17.9217
1497526290,920.1333333383,16.5508
1497526294,860.1333333383,18.1477
1497526298,936.9333333383,17.9495
1497526302,934.5333333383,17.5786
1497526306,924.9333333383,16.4926
1497526310,891.3333333383,18.4252
1497526314,924.9333333383,17.2183
1497526318,936.9333333383,17.9103
1497526322,879.3333333383,18.1059
1497526326,862.5333333383,17.1363
1497526330,876.9333333383,16.5971
1497526334,944.1333333383,16.4554
1497526338,917.7333333383,17.9111
1497526342,917.7333333383,17.2655
1497526346,888.9333333383,17.6268
1497526350,960.9333333383,17.1859
1497526354,903.3333333383,17.3651
1497526358,934.5333333383,17.7903
1497526362,1030.5333333383,16.8132
1497526366,1020.9333333383,16.9537
1497526370,1052.1333333383,18.4816
1497526374,1121.7333333383,16.345
1497526378,1107.3333333383,16.8831
1497526382,1047.3333333383,17.7639
1497526386,1114.5333333383,18.0148
1497526390,1044.9333333383,16.1184
1497526394,1049.7333333383,17.8917
1497526398,1085.7333333383,16.9081
1497526402,1097.7333333383,18.1471
1497526406,1104.9333333383,16.9736
1497526410,1102.5333333383,15.8986
1497526414,1095.3333333383,16.4723
1497526418,1054.5333333383,16.4656
1497526422,1054.5333333383,17.1906
1497526426,1107.3333333383,16.4649
1497526430,1044.9333333383,15.1972
1497526434,1066.5333333383,16.6847
1497526438,1028.1333333383,17.6032
1497526442,1037.7333333383,17.8843
1497526446,1023.3333333383,17.9891
1497526450,1047.3333333383,17.3347
1497526454,1066.5333333383,16.3096
