tag_number,delay,power_est
1498178278,-40.9333333331,110.868
1498178280,-57.7333333330999,107.741
1498178282,-43.3333333331,108.1
1498178284,-40.9333333331,105.434
1498178286,-48.1333333330999,116.443
1498178288,2.26666666690005,110.539
1498178290,-21.7333333330999,108.774
1498178292,-60.1333333330999,108.21
1498178294,-43.3333333331,115.502
1498178296,-9.73333333309995,105.916
1498178298,-48.1333333330999,101.858
1498178300,-50.5333333331,107.194
1498178302,-69.7333333330999,106.511
1498178304,-7.33333333309997,112.906
1498178306,-31.3333333331,108.091
1498178308,-57.7333333330999,108.189
1498178310,-16.9333333331,110.983
1498178312,14.2666666669001,113.512
1498178314,-38.5333333331,111.446
1498178316,-2.53333333310002,105.587
1498178318,-0.133333333099927,109.237
1498178320,-24.1333333330999,97.6606
1498178322,-81.7333333330999,101.972
1498178324,2.26666666690005,103.88
1498178326,-2.53333333310002,107.44
1498178328,-0.133333333099927,109.923
1498178330,-79.3333333331,116.458
1498178332,-28.9333333331,103.546
1498178334,-16.9333333331,111.61
1498178336,-52.9333333331,104.126
1498178338,-12.1333333330999,111.656
1498178340,-33.7333333330999,105.932
1498178342,-76.9333333331,104.474
1498178344,-36.1333333330999,107.964
1498178346,-26.5333333331,109.089
1498178348,-43.3333333331,105.328
1498178350,-67.3333333331,106.6
1498178352,-50.5333333331,102.332
1498178354,-24.1333333330999,108.131
1498178356,-48.1333333330999,104.834
1498178358,-62.5333333331,102.752
1498178360,2.26666666690005,110.193
1498178362,-26.5333333331,104.394
1498178364,14.2666666669001,110.69
1498178366,-98.5333333331,106.098
1498178368,-74.5333333331,108.574
1498178370,-43.3333333331,106.46
1498178372,-60.1333333330999,106.331
1498178374,-62.5333333331,100.587
1498178376,-16.9333333331,108.402
1498178378,31.0666666669,107.653
1498178380,-33.7333333330999,110.587
1498178382,-9.73333333309995,106.756
1498178384,-24.1333333330999,100.594
1498178386,-26.5333333331,112.412
1498178388,-14.5333333331,103.054
1498178390,-21.7333333330999,104.566
1498178392,-9.73333333309995,106.11
1498178394,-33.7333333330999,107.793
1498178396,-67.3333333331,108.249
1498178398,-45.7333333330999,109.893
1498178400,-28.9333333331,109.905
1498178402,-62.5333333331,110.658
1498178404,-4.93333333309999,107.62
1498178406,-28.9333333331,110.649
1498178408,-45.7333333330999,112.491
1498178410,-7.33333333309997,105.633
1498178412,-19.3333333331,110.051
1498178414,-12.1333333330999,103.649
1498178416,-2.53333333310002,103.162
1498178418,16.6666666669,103.547
1498178420,-14.5333333331,104.47
1498178422,26.2666666669001,101.272
1498178424,-48.1333333330999,101.175
1498178426,-52.9333333331,97.8796
1498178428,50.2666666669001,99.1266
1498178430,-48.1333333330999,98.9509
1498178432,45.4666666669,107.534
1498178434,4.66666666690003,98.3654
1498178436,-36.1333333330999,106.666
1498178438,-45.7333333330999,106.959
1498178440,-33.7333333330999,104.141
1498178442,11.8666666669001,103.374
1498178444,-38.5333333331,101.149
1498178446,31.0666666669,99.4433
1498178448,-16.9333333331,101.636
1498178450,-24.1333333330999,101.002
1498178452,-33.7333333330999,108.794
1498178454,-24.1333333330999,104.974
1498178456,33.4666666669,107.757
1498178458,16.6666666669,108.714
1498178460,-0.133333333099927,107.246
1498178462,-19.3333333331,101.385
1498178464,-4.93333333309999,100.808
1498178466,-62.5333333331,103.212
1498178468,-19.3333333331,111.265
1498178470,14.2666666669001,104.519
1498178472,-52.9333333331,107.521
1498178474,-55.3333333331,120.08
1498178476,-43.3333333331,106.974
1498178478,21.4666666669,113.781
1498178480,-38.5333333331,115.215
1498178482,-33.7333333330999,108.451
1498178484,-21.7333333330999,112.438
1498178486,-40.9333333331,109.916
1498178488,-40.9333333331,110.611
1498178490,-38.5333333331,110.36
1498178492,-12.1333333330999,111.042
1498178494,-48.1333333330999,113.315
1498178496,-67.3333333331,108.873
1498178498,-21.7333333330999,116.649
1498178500,-57.7333333330999,105.525
1498178502,-52.9333333331,111.522
1498178504,-38.5333333331,109.6
1498178506,28.6666666669,108.791
1498178508,-64.9333333331,106.945
1498178510,-57.7333333330999,100.183
1498178512,-26.5333333331,103.289
1498178514,45.4666666669,107.366
1498178516,31.0666666669,111.311
1498178518,4.66666666690003,108.984
1498178520,62.2666666669001,107.117
1498178522,64.6666666669,105.697
1498178524,21.4666666669,113.076
1498178526,55.0666666669,107.61
1498178528,57.4666666669,105.695
1498178530,43.0666666669,106.713
1498178532,-0.133333333099927,106.136
1498178534,-26.5333333331,107.776
1498178536,16.6666666669,105.735
1498178538,-28.9333333331,103.394
1498178540,45.4666666669,107.577
1498178542,57.4666666669,111.49
1498178544,-12.1333333330999,109.396
1498178546,50.2666666669001,103.456
1498178548,-43.3333333331,108.109
1498178550,21.4666666669,108.401
1498178552,9.46666666689998,106.59
1498178554,-9.73333333309995,115.104
1498178556,26.2666666669001,114.964
1498178558,23.8666666669001,111.512
1498178560,52.6666666669,111
1498178562,45.4666666669,109.232
1498178564,-12.1333333330999,100.057
1498178566,-7.33333333309997,104.084
1498178568,71.8666666669001,112.592
1498178570,38.2666666669001,111.415
1498178572,59.8666666669001,111.176
1498178574,81.4666666669,109.187
1498178576,62.2666666669001,103.914
1498178578,38.2666666669001,116.708
1498178580,47.8666666669001,115.339
1498178582,74.2666666669001,117.959
1498178584,115.0666666669,121.388
1498178586,40.6666666669,122.13
1498178588,98.2666666669001,121.017
1498178590,134.2666666669,115.242
1498178592,86.2666666669001,115.57
1498178594,105.4666666669,113
1498178596,95.8666666669001,111.147
1498178598,40.6666666669,110.413
1498178600,83.8666666669001,107.898
1498178602,43.0666666669,117.191
1498178604,59.8666666669001,119.692
1498178606,55.0666666669,115.31
1498178608,62.2666666669001,113.337
1498178610,115.0666666669,119.051
1498178612,83.8666666669001,118.146
1498178614,67.0666666669,114.475
1498178616,55.0666666669,111.81
1498178618,98.2666666669001,117.439
1498178620,62.2666666669001,120.74
1498178622,83.8666666669001,110.995
1498178624,59.8666666669001,116.058
1498178626,26.2666666669001,104.792
1498178628,4.66666666690003,113.421
1498178630,57.4666666669,108.592
1498178632,50.2666666669001,106.62
1498178634,59.8666666669001,107.655
1498178636,62.2666666669001,104.198
1498178638,11.8666666669001,109.398
1498178640,14.2666666669001,105.526
1498178642,9.46666666689998,116.294
1498178644,43.0666666669,107.242
1498178646,-14.5333333331,114.121
1498178648,57.4666666669,110.421
1498178650,62.2666666669001,103.119
1498178652,2.26666666690005,115.718
1498178654,-21.7333333330999,116.87
1498178656,19.0666666669,112.092
1498178658,9.46666666689998,117.386
1498178660,11.8666666669001,108.278
1498178662,11.8666666669001,108.215
1498178664,59.8666666669001,104.473
1498178666,-21.7333333330999,110.476
1498178668,-43.3333333331,104.929
1498178670,23.8666666669001,105.368
1498178672,-38.5333333331,100.426
1498178674,-33.7333333330999,112.464
1498178676,-24.1333333330999,116.041
1498178678,-26.5333333331,109.154
1498178680,26.2666666669001,102.747
1498178682,-14.5333333331,108.806
1498178684,14.2666666669001,106.839
1498178686,2.26666666690005,108.468
1498178688,21.4666666669,109.932
1498178690,38.2666666669001,101.309
1498178692,-48.1333333330999,102.002
1498178694,-48.1333333330999,106.484
1498178696,9.46666666689998,102.471
1498178698,-19.3333333331,102.246
1498178700,-57.7333333330999,104.591
1498178702,19.0666666669,99.7373
1498178704,76.6666666669,100.192
1498178706,38.2666666669001,96.9487
1498178708,-7.33333333309997,100.124
1498178710,-4.93333333309999,116.151
1498178712,16.6666666669,111.944
1498178714,-60.1333333330999,113.788
1498178716,2.26666666690005,107.38
1498178718,52.6666666669,106.443
1498178720,-24.1333333330999,113.146
1498178722,-24.1333333330999,115.714
1498178724,38.2666666669001,111.762
1498178726,-24.1333333330999,113.98
1498178728,-28.9333333331,112.449
1498178730,-0.133333333099927,108.737
1498178732,45.4666666669,113.694
1498178734,-16.9333333331,112.123
1498178736,-4.93333333309999,112.189
1498178738,-55.3333333331,121.69
1498178740,-19.3333333331,106.256
1498178742,-43.3333333331,114.517
1498178744,-50.5333333331,107.077
1498178746,-45.7333333330999,106.494
1498178748,-48.1333333330999,117.231
1498178750,-67.3333333331,115.272
1498178752,-21.7333333330999,114.795
1498178754,-62.5333333331,112.513
1498178756,-55.3333333331,110.071
1498178758,-55.3333333331,109.086
1498178760,-33.7333333330999,110.321
1498178762,-48.1333333330999,112.854
1498178764,21.4666666669,115.312
1498178766,19.0666666669,112.508
1498178768,-28.9333333331,105.044
1498178770,-45.7333333330999,108.571
1498178772,-12.1333333330999,107.89
1498178774,14.2666666669001,106.713
1498178776,-24.1333333330999,106.376
1498178778,-14.5333333331,111.302
1498178780,-0.133333333099927,108.806
1498178782,-33.7333333330999,105.727
1498178784,-40.9333333331,100.221
1498178786,-19.3333333331,107.08
1498178788,-9.73333333309995,115.695
1498178790,2.26666666690005,115.446
1498178792,-9.73333333309995,119.957
1498178794,-24.1333333330999,118.481
1498178796,-45.7333333330999,122.047
1498178798,-74.5333333331,119.174
1498178800,-60.1333333330999,109.087
1498178802,26.2666666669001,111.143
1498178804,-74.5333333331,111.626
1498178806,-55.3333333331,104.014
1498178808,-72.1333333331,112.355
1498178810,-64.9333333331,119.289
1498178812,-50.5333333331,112.211
1498178814,-2.53333333310002,108.497
1498178816,-48.1333333330999,111.318
1498178818,-60.1333333330999,112.619
1498178820,-24.1333333330999,117.691
1498178822,-38.5333333331,117.449
1498178824,-50.5333333331,113.203
1498178826,-14.5333333331,109.163
1498178828,-43.3333333331,110.404
1498178830,2.26666666690005,105.42
1498178832,-45.7333333330999,105.19
1498178834,-60.1333333330999,116.204
1498178836,-40.9333333331,112.606
1498178838,-91.3333333331,108.876
1498178840,-40.9333333331,109.379
1498178842,-16.9333333331,105.904
1498178844,-36.1333333330999,106.471
1498178846,-36.1333333330999,107.324
1498178848,-40.9333333331,114.777
1498178850,-45.7333333330999,107.377
1498178852,-72.1333333331,109.912
1498178854,-24.1333333330999,110.11
1498178856,-57.7333333330999,110.384
1498178858,-86.5333333331,110.116
1498178860,-36.1333333330999,110.528
1498178862,-67.3333333331,116.548
1498178864,-57.7333333330999,118.467
1498178866,-55.3333333331,107.812
1498178868,-52.9333333331,106.538
1498178870,-31.3333333331,113.801
1498178872,-57.7333333330999,114.988
1498178874,-79.3333333331,113.368
1498178876,-69.7333333330999,116.969
1498178878,-81.7333333330999,122.296
1498178880,-36.1333333330999,122.729
1498178882,-88.9333333331,119.418
1498178884,-45.7333333330999,110.618
1498178886,-64.9333333331,114.776
1498178888,-28.9333333331,108.399
1498178890,-4.93333333309999,104.133
1498178892,-52.9333333331,105.925
1498178894,-26.5333333331,104.628
1498178896,47.8666666669001,102.336
1498178898,21.4666666669,112.822
1498178900,21.4666666669,107.923
1498178902,91.0666666669,108.293
1498178904,81.4666666669,113.785
1498178906,95.8666666669001,115.743
1498178908,115.0666666669,116.766
1498178910,127.0666666669,101.368
1498178912,93.4666666669,108.328
1498178914,95.8666666669001,110.583
1498178916,93.4666666669,102.83
1498178918,57.4666666669,110.581
1498178920,43.0666666669,108.525
1498178922,33.4666666669,105.508
1498178924,67.0666666669,113.738
1498178926,67.0666666669,117.071
1498178928,50.2666666669001,112.982
1498178930,14.2666666669001,118.691
1498178932,23.8666666669001,115.989
1498178934,31.0666666669,108.879
1498178936,2.26666666690005,118.669
1498178938,28.6666666669,110.938
1498178940,23.8666666669001,111.279
1498178942,74.2666666669001,103.157
1498178944,69.4666666669,119.567
1498178946,40.6666666669,122.857
1498178948,9.46666666689998,115.169
1498178950,86.2666666669001,107.819
1498178952,81.4666666669,118.756
1498178954,74.2666666669001,117.709
1498178956,95.8666666669001,119.778
1498178958,112.6666666669,112.984
1498178960,83.8666666669001,117.522
1498178962,81.4666666669,117.646
1498178964,112.6666666669,107.399
1498178966,98.2666666669001,107.793
1498178968,98.2666666669001,112.428
1498178970,143.8666666669,111.138
1498178972,107.8666666669,108.699
1498178974,115.0666666669,101.884
1498178976,88.6666666669,110.385
1498178978,129.4666666669,98.7968
1498178980,74.2666666669001,109.896
1498178982,88.6666666669,97.6433
1498178984,71.8666666669001,109.306
1498178986,95.8666666669001,123.441
1498178988,79.0666666669,115.023
1498178990,47.8666666669001,116.054
1498178992,81.4666666669,112.323
1498178994,43.0666666669,108.118
1498178996,79.0666666669,110.331
1498178998,74.2666666669001,114.278
1498179000,16.6666666669,108.649
1498179002,79.0666666669,121.991
1498179004,62.2666666669001,109.017
1498179006,81.4666666669,106.94
1498179008,9.46666666689998,110.896
1498179010,74.2666666669001,105.361
1498179012,83.8666666669001,102.114
1498179014,115.0666666669,117.476
1498179016,50.2666666669001,104.546
1498179018,98.2666666669001,109.245
1498179020,177.4666666669,109.795
1498179022,93.4666666669,116.044
1498179024,91.0666666669,108.797
1498179026,119.8666666669,110.885
1498179028,155.8666666669,107.391
1498179030,148.6666666669,107.322
1498179032,136.6666666669,104.796
1498179034,110.2666666669,115.627
1498179036,122.2666666669,112.499
1498179038,146.2666666669,110.044
1498179040,105.4666666669,111.601
1498179042,136.6666666669,105.618
1498179044,100.6666666669,104.372
1498179046,151.0666666669,107.79
1498179048,165.4666666669,102.608
1498179050,151.0666666669,113.499
1498179052,107.8666666669,109.745
1498179054,155.8666666669,111.4
1498179056,107.8666666669,119.77
1498179058,86.2666666669001,116.837
1498179060,100.6666666669,111.241
1498179062,151.0666666669,112.489
1498179064,79.0666666669,118.61
1498179066,105.4666666669,115.683
1498179068,93.4666666669,112.473
1498179070,103.0666666669,116.773
1498179072,100.6666666669,109.099
1498179074,160.6666666669,111.632
1498179076,100.6666666669,110.495
1498179078,100.6666666669,115.569
1498179080,55.0666666669,97.3381
1498179082,79.0666666669,102.939
1498179084,55.0666666669,105.646
1498179086,93.4666666669,105.007
1498179088,83.8666666669001,111.655
1498179090,74.2666666669001,109.643
1498179092,105.4666666669,106.095
1498179094,139.0666666669,109.573
1498179096,74.2666666669001,109.92
1498179098,86.2666666669001,107.93
1498179100,117.4666666669,113.352
1498179102,105.4666666669,103.858
1498179104,103.0666666669,107.374
1498179106,98.2666666669001,110.091
1498179108,119.8666666669,112.236
1498179110,98.2666666669001,111.996
1498179112,88.6666666669,113.821
1498179114,91.0666666669,107.476
1498179116,71.8666666669001,107.182
1498179118,76.6666666669,104.381
1498179120,91.0666666669,111.384
1498179122,79.0666666669,112.975
1498179124,76.6666666669,104.409
1498179126,91.0666666669,111.068
1498179128,76.6666666669,121.115
1498179130,50.2666666669001,113.183
1498179132,81.4666666669,115.272
1498179134,74.2666666669001,113.726
1498179136,-0.133333333099927,112.542
1498179138,28.6666666669,115.084
1498179140,74.2666666669001,107.078
1498179142,33.4666666669,108.796
1498179144,-9.73333333309995,117.65
1498179146,7.06666666690001,120.375
1498179148,47.8666666669001,113.359
1498179150,67.0666666669,110.791
1498179152,-40.9333333331,114.151
1498179154,-4.93333333309999,108.632
1498179156,-19.3333333331,110.108
1498179158,-43.3333333331,111.38
1498179160,-45.7333333330999,115.289
1498179162,-48.1333333330999,112.538
1498179164,-52.9333333331,115.608
1498179166,-12.1333333330999,115.175
1498179168,-52.9333333331,113.967
1498179170,-28.9333333331,113.719
1498179172,-52.9333333331,115.499
1498179174,-9.73333333309995,113.715
1498179176,-43.3333333331,112.728
1498179178,-4.93333333309999,110.967
1498179180,-48.1333333330999,114.926
1498179182,-38.5333333331,113.679
1498179184,-21.7333333330999,121.081
1498179186,-21.7333333330999,114.983
1498179188,-19.3333333331,107.052
1498179190,-43.3333333331,112.788
1498179192,-19.3333333331,117.558
1498179194,-57.7333333330999,113.63
1498179196,-50.5333333331,117.971
1498179198,-38.5333333331,115.085
1498179200,-62.5333333331,113.313
1498179202,-76.9333333331,112.086
1498179204,-21.7333333330999,109.538
1498179206,-19.3333333331,111.684
1498179208,-7.33333333309997,118.39
1498179210,-48.1333333330999,104.741
1498179212,-16.9333333331,108.741
1498179214,7.06666666690001,103.73
1498179216,23.8666666669001,111.327
1498179218,-21.7333333330999,107.165
1498179220,-38.5333333331,113.104
1498179222,-52.9333333331,114.521
1498179224,-55.3333333331,117.123
1498179226,-31.3333333331,116.472
1498179228,-0.133333333099927,119.553
1498179230,9.46666666689998,111.77
1498179232,-62.5333333331,114.063
1498179234,-64.9333333331,116.922
1498179236,-33.7333333330999,113.572
1498179238,-69.7333333330999,120.962
1498179240,-40.9333333331,119.724
1498179242,-57.7333333330999,115.549
1498179244,-50.5333333331,116.854
1498179246,-60.1333333330999,116.192
1498179248,-33.7333333330999,117.178
1498179250,-62.5333333331,123.357
1498179252,-72.1333333331,113.509
1498179254,-36.1333333330999,110.672
1498179256,-33.7333333330999,113.783
1498179258,-62.5333333331,116.09
1498179260,-72.1333333331,113.207
1498179262,-55.3333333331,113.088
1498179264,-64.9333333331,109.978
1498179266,-84.1333333330999,116.894
1498179270,-81.7333333330999,118.315
1498179272,-31.3333333331,119.34
1498179274,-33.7333333330999,114.976
1498179276,-36.1333333330999,111.167
1498179278,-40.9333333331,117.686
1498179280,-14.5333333331,107.037
1498179282,-28.9333333331,113.949
1498179284,-36.1333333330999,106.219
1498179286,-57.7333333330999,105.24
1498179288,-52.9333333331,107.763
1498179290,-33.7333333330999,119.242
1498179292,-21.7333333330999,116.642
1498179294,-57.7333333330999,119.235
1498179296,-36.1333333330999,125.22
1498179298,-31.3333333331,116.493
1498179300,-9.73333333309995,115.83
1498179302,-19.3333333331,113.412
1498179304,-28.9333333331,115.379
1498179306,-16.9333333331,114.502
1498179308,-40.9333333331,108.033
1498179310,-24.1333333330999,117.223
1498179312,-38.5333333331,107.8
1498179314,-4.93333333309999,105.677
1498179316,-28.9333333331,109.959
1498179318,-36.1333333330999,114.926
1498179320,-50.5333333331,117.972
1498179322,-52.9333333331,114.07
1498179324,31.0666666669,117.115
1498179326,-12.1333333330999,116.538
1498179328,-16.9333333331,113.116
1498179330,23.8666666669001,103.23
1498179332,-24.1333333330999,115.985
1498179334,23.8666666669001,108.866
1498179336,52.6666666669,110.864
1498179338,19.0666666669,106.328
1498179340,98.2666666669001,114.014
1498179342,100.6666666669,110.456
1498179344,100.6666666669,123.922
1498179346,64.6666666669,118.864
1498179348,105.4666666669,119.313
1498179350,103.0666666669,117.871
1498179352,117.4666666669,116.725
1498179354,146.2666666669,118.247
1498179356,86.2666666669001,128.502
1498179358,81.4666666669,118.877
1498179360,93.4666666669,116.315
1498179362,112.6666666669,118.832
1498179364,95.8666666669001,112.268
1498179366,98.2666666669001,112.072
1498179368,83.8666666669001,119.228
1498179370,103.0666666669,114.655
1498179372,107.8666666669,115.038
1498179374,122.2666666669,111.489
1498179376,148.6666666669,120.266
1498179378,86.2666666669001,107.147
1498179380,110.2666666669,109.719
1498179382,129.4666666669,108.784
1498179384,86.2666666669001,110.858
1498179386,100.6666666669,115.287
1498179388,91.0666666669,109.124
1498179390,95.8666666669001,117.634
1498179392,64.6666666669,118.948
1498179394,91.0666666669,126.561
1498179396,110.2666666669,116.092
1498179398,45.4666666669,125.374
1498179400,93.4666666669,108.161
1498179402,43.0666666669,114.867
1498179404,26.2666666669001,113.167
1498179406,81.4666666669,109.732
1498179408,79.0666666669,108.376
1498179410,-12.1333333330999,112.971
1498179412,79.0666666669,103.378
1498179414,79.0666666669,108.312
1498179416,64.6666666669,104.59
1498179418,11.8666666669001,111.422
1498179420,55.0666666669,108.417
1498179422,11.8666666669001,105.257
1498179424,40.6666666669,112.668
1498179426,4.66666666690003,111.519
1498179428,-0.133333333099927,114.258
1498179430,-4.93333333309999,116.611
1498179432,88.6666666669,106.085
1498179434,2.26666666690005,108.105
1498179436,38.2666666669001,118.654
1498179438,21.4666666669,114.772
1498179440,-16.9333333331,116.48
1498179442,-26.5333333331,110.9
1498179444,-9.73333333309995,108.728
1498179446,-12.1333333330999,117.413
1498179448,-12.1333333330999,108.206
1498179450,19.0666666669,112.846
1498179452,2.26666666690005,110.439
1498179454,-16.9333333331,114.888
1498179456,11.8666666669001,112.913
1498179458,-9.73333333309995,112.15
1498179460,-9.73333333309995,108.623
1498179462,-16.9333333331,111.467
1498179464,-31.3333333331,112.509
1498179466,-9.73333333309995,111.91
1498179468,-19.3333333331,116.501
1498179470,4.66666666690003,109.142
1498179472,-0.133333333099927,113.056
1498179474,-52.9333333331,109.091
1498179476,-64.9333333331,116.064
1498179478,-48.1333333330999,115.194
1498179480,4.66666666690003,121.651
1498179482,-16.9333333331,117.453
1498179484,-55.3333333331,112.638
1498179486,4.66666666690003,110.706
1498179488,-9.73333333309995,109.478
1498179490,2.26666666690005,116.627
1498179492,-48.1333333330999,120.807
1498179494,-43.3333333331,117.604
1498179496,-64.9333333331,107.635
1498179498,-67.3333333331,113.594
1498179500,-69.7333333330999,111.725
1498179502,-103.3333333331,118.807
1498179504,-64.9333333331,104.244
1498179506,-88.9333333331,105.972
1498179508,-110.5333333331,106.3
1498179510,-86.5333333331,111.018
1498179512,-74.5333333331,112.018
1498179514,-98.5333333331,109.821
1498179516,-74.5333333331,105.712
1498179518,-40.9333333331,107.642
1498179520,-98.5333333331,105.961
1498179522,-84.1333333330999,110.353
1498179524,-69.7333333330999,112.386
1498179526,-64.9333333331,111.998
1498179528,-81.7333333330999,114.171
1498179530,-84.1333333330999,108.153
1498179532,-45.7333333330999,109.598
1498179534,-55.3333333331,115.825
1498179536,-52.9333333331,112.364
1498179538,-26.5333333331,114.263
1498179540,-88.9333333331,109.048
1498179542,-76.9333333331,105.411
1498179544,-57.7333333330999,111.742
1498179546,-86.5333333331,115.029
1498179548,-84.1333333330999,106.475
1498179550,-45.7333333330999,110.065
1498179552,-19.3333333331,116.228
1498179554,-45.7333333330999,106.525
1498179556,-60.1333333330999,105.167
1498179558,-57.7333333330999,108.382
1498179560,-38.5333333331,108.49
1498179562,-40.9333333331,115.469
1498179564,-24.1333333330999,103.518
1498179566,-0.133333333099927,105.047
1498179568,-127.3333333331,111.808
1498179570,-69.7333333330999,109.442
1498179572,-26.5333333331,110.058
1498179574,-60.1333333330999,115.492
1498179576,-60.1333333330999,116.859
1498179578,-52.9333333331,115.728
1498179580,-45.7333333330999,114.552
1498179582,-52.9333333331,111.382
1498179584,-60.1333333330999,111.682
1498179586,-55.3333333331,109.374
1498179588,-55.3333333331,115.54
1498179590,-64.9333333331,110.977
1498179592,-93.7333333330999,107.711
1498179594,-45.7333333330999,104.917
1498179596,-64.9333333331,114.562
1498179598,-45.7333333330999,112.819
1498179600,-38.5333333331,119.249
1498179602,-24.1333333330999,112.859
1498179604,-28.9333333331,115.069
1498179606,-69.7333333330999,111.221
1498179608,-45.7333333330999,108.334
1498179610,-45.7333333330999,108.995
1498179612,-36.1333333330999,106.13
1498179614,-48.1333333330999,104.948
1498179616,-31.3333333331,112.81
1498179618,-33.7333333330999,105.071
1498179620,-60.1333333330999,110.293
1498179622,-45.7333333330999,101.892
1498179624,45.4666666669,109.951
1498179626,-64.9333333331,109.29
1498179628,-67.3333333331,105.8
1498179630,-72.1333333331,105.293
1498179632,-36.1333333330999,108.705
1498179634,-84.1333333330999,111.551
1498179636,-40.9333333331,113.54
1498179638,-50.5333333331,107.998
1498179640,-69.7333333330999,109.009
1498179642,-43.3333333331,109.305
1498179644,-38.5333333331,111.549
1498179646,-69.7333333330999,112.732
1498179648,-24.1333333330999,119.051
1498179650,-26.5333333331,108.533
1498179652,-52.9333333331,113.623
1498179654,-112.9333333331,119.407
1498179656,-48.1333333330999,112.457
1498179658,-36.1333333330999,116.111
1498179660,-21.7333333330999,117.229
1498179662,-72.1333333331,115.942
1498179664,-28.9333333331,117.853
1498179666,-2.53333333310002,119.47
1498179668,-40.9333333331,115.971
1498179670,-52.9333333331,105.228
1498179672,-72.1333333331,109.705
1498179674,-81.7333333330999,115.19
1498179676,-64.9333333331,105.684
1498179678,-84.1333333330999,107.491
1498179680,-110.5333333331,110.469
1498179682,-52.9333333331,113.414
1498179684,2.26666666690005,109.586
1498179686,-31.3333333331,110.951
1498179688,-33.7333333330999,111.358
1498179690,52.6666666669,104.714
1498179692,21.4666666669,106.172
1498179694,-33.7333333330999,118.279
1498179696,-12.1333333330999,112.942
1498179698,-64.9333333331,113.282
1498179700,-28.9333333331,115.455
1498179702,7.06666666690001,110.068
1498179704,33.4666666669,113.873
1498179706,9.46666666689998,116.603
1498179708,21.4666666669,112.392
1498179710,31.0666666669,106.755
1498179712,52.6666666669,117.049
1498179714,-12.1333333330999,114.116
1498179716,9.46666666689998,112.777
1498179718,-31.3333333331,120.044
1498179720,-16.9333333331,123.856
1498179722,4.66666666690003,120.709
1498179724,28.6666666669,113.249
1498179726,-40.9333333331,116.665
1498179728,-48.1333333330999,114.662
1498179730,-31.3333333331,111.389
1498179732,-16.9333333331,116.297
1498179734,-33.7333333330999,117.589
1498179736,14.2666666669001,119.803
1498179738,33.4666666669,106.813
1498179740,2.26666666690005,115.26
1498179742,-2.53333333310002,109.78
1498179744,11.8666666669001,108.645
1498179746,31.0666666669,114.45
1498179748,9.46666666689998,110.393
1498179750,-9.73333333309995,112.294
1498179752,-9.73333333309995,102.365
1498179754,-26.5333333331,109.527
1498179756,-9.73333333309995,111.054
1498179758,16.6666666669,110.519
1498179760,67.0666666669,107.733
1498179762,-7.33333333309997,110.204
1498179764,31.0666666669,108.979
1498179766,-4.93333333309999,122.123
1498179768,7.06666666690001,112.302
1498179770,74.2666666669001,121.349
1498179772,2.26666666690005,118.566
1498179774,67.0666666669,119.971
1498179776,67.0666666669,110.945
1498179778,-7.33333333309997,112.294
1498179780,74.2666666669001,108.348
1498179782,50.2666666669001,110.75
1498179784,19.0666666669,116.04
1498179786,-45.7333333330999,103.64
1498179788,-24.1333333330999,110.017
1498179790,-24.1333333330999,109.182
1498179792,-9.73333333309995,119.703
1498179794,-36.1333333330999,106.176
1498179796,-40.9333333331,106.542
1498179798,-60.1333333330999,113.826
1498179800,-38.5333333331,124.205
1498179802,-0.133333333099927,117
1498179804,-31.3333333331,125.413
1498179806,-45.7333333330999,120.696
1498179808,-24.1333333330999,123.805
1498179810,-31.3333333331,111.652
1498179812,-24.1333333330999,108.26
1498179814,-28.9333333331,113.89
1498179816,-79.3333333331,110.534
1498179818,-69.7333333330999,110.042
1498179820,19.0666666669,114.994
1498179822,2.26666666690005,116.134
1498179824,-48.1333333330999,109.606
1498179826,-43.3333333331,117.208
1498179828,57.4666666669,112.239
1498179830,-50.5333333331,122.813
1498179832,-36.1333333330999,115.528
1498179834,-26.5333333331,116.253
1498179836,-9.73333333309995,109.542
1498179838,-12.1333333330999,122.262
1498179840,-60.1333333330999,112.167
1498179842,-31.3333333331,105.87
1498179844,-28.9333333331,109.777
1498179846,-45.7333333330999,104.149
1498179848,-69.7333333330999,111.088
1498179850,-57.7333333330999,110.996
1498179852,-45.7333333330999,107.419
1498179854,26.2666666669001,105.685
1498179856,-26.5333333331,112.016
1498179858,-36.1333333330999,113.799
1498179860,19.0666666669,112.933
1498179862,9.46666666689998,108.226
1498179864,16.6666666669,108.857
1498179866,91.0666666669,118.984
1498179868,57.4666666669,99.6592
1498179870,38.2666666669001,117.406
1498179872,14.2666666669001,110.219
1498179874,-4.93333333309999,116.555
1498179876,-19.3333333331,110.103
1498179878,31.0666666669,111.127
1498179880,38.2666666669001,106.206
1498179882,19.0666666669,110.127
1498179884,81.4666666669,119.083
1498179886,11.8666666669001,111.87
1498179888,31.0666666669,118.504
1498179890,-19.3333333331,116.583
1498179894,79.0666666669,119.476
1498179896,47.8666666669001,119.221
1498179898,98.2666666669001,118.28
1498179900,81.4666666669,115.991
1498179902,11.8666666669001,115.266
1498179904,16.6666666669,120.253
1498179906,9.46666666689998,115.675
1498179908,69.4666666669,106.57
1498179910,-4.93333333309999,112.135
1498179912,35.8666666669001,113.679
1498179914,-31.3333333331,113.203
1498179916,26.2666666669001,101.439
1498179918,4.66666666690003,112.066
1498179920,67.0666666669,109.634
1498179922,33.4666666669,110.279
1498179924,71.8666666669001,111.046
1498179926,21.4666666669,115.94
1498179928,47.8666666669001,119.605
1498179930,31.0666666669,109.117
1498179932,-36.1333333330999,117.926
1498179934,2.26666666690005,118.996
1498179936,43.0666666669,115.327
1498179938,4.66666666690003,115.915
1498179940,2.26666666690005,122.221
1498179942,69.4666666669,117.289
1498179944,79.0666666669,110.767
1498179946,-0.133333333099927,108.095
1498179948,11.8666666669001,112.599
1498179950,26.2666666669001,110.603
1498179952,33.4666666669,115.978
1498179954,-0.133333333099927,111.271
1498179956,59.8666666669001,115.275
1498179958,-26.5333333331,116.073
1498179960,52.6666666669,110.408
1498179962,69.4666666669,111.25
1498179964,52.6666666669,117.235
1498179966,23.8666666669001,111.331
1498179968,35.8666666669001,108.532
1498179970,79.0666666669,117.959
1498179972,35.8666666669001,114.048
1498179974,23.8666666669001,112.657
1498179976,64.6666666669,118.794
1498179978,-24.1333333330999,104.921
1498179980,-14.5333333331,115.422
1498179982,-40.9333333331,116.889
1498179984,-2.53333333310002,116.241
1498179986,-2.53333333310002,116.185
1498179988,4.66666666690003,116.571
1498179990,-7.33333333309997,116.911
1498179992,-69.7333333330999,120.305
1498179994,-12.1333333330999,123.603
1498179996,9.46666666689998,121.869
1498179998,-4.93333333309999,124.533
1498180000,-48.1333333330999,115.404
1498180002,-45.7333333330999,113.319
1498180004,-19.3333333331,111.02
1498180006,-0.133333333099927,120.295
1498180008,-28.9333333331,120.067
1498180010,-21.7333333330999,118.487
1498180012,-21.7333333330999,112.087
1498180014,19.0666666669,109.418
1498180016,-19.3333333331,115.327
1498180018,-33.7333333330999,115.978
1498180020,-0.133333333099927,128.459
1498180022,-24.1333333330999,113.43
1498180024,-7.33333333309997,122.321
1498180026,-52.9333333331,118.723
1498180028,-64.9333333331,121.635
1498180030,2.26666666690005,117.809
1498180032,-45.7333333330999,122.68
1498180034,-14.5333333331,121.035
1498180036,-52.9333333331,125.057
1498180038,-50.5333333331,123.903
1498180040,-79.3333333331,115.375
1498180042,-38.5333333331,118.789
1498180044,-9.73333333309995,118.674
1498180046,-9.73333333309995,119.358
1498180048,-19.3333333331,106.198
1498180050,-7.33333333309997,121.427
1498180052,-57.7333333330999,116.669
1498180054,-57.7333333330999,119.432
1498180056,-45.7333333330999,111.827
1498180058,2.26666666690005,111.826
1498180060,-0.133333333099927,109.598
1498180062,11.8666666669001,116.187
1498180064,-14.5333333331,115.631
1498180066,-0.133333333099927,119.809
1498180068,-31.3333333331,111.793
1498180070,7.06666666690001,121.828
1498180072,11.8666666669001,126.443
1498180074,-21.7333333330999,109.941
1498180076,4.66666666690003,121.059
1498180078,-19.3333333331,123.777
1498180080,-40.9333333331,116.883
1498180082,43.0666666669,121.932
1498180084,7.06666666690001,117.828
1498180086,-43.3333333331,120.127
1498180088,-43.3333333331,118.613
1498180090,-38.5333333331,120.445
1498180092,-60.1333333330999,123.103
1498180094,4.66666666690003,121.283
1498180096,35.8666666669001,116.037
1498180098,-57.7333333330999,113.933
1498180100,-40.9333333331,121.562
1498180102,-14.5333333331,112.537
1498180104,-33.7333333330999,113.024
1498180106,-21.7333333330999,115.154
1498180108,-31.3333333331,110.856
1498180110,-9.73333333309995,112.837
1498180112,-40.9333333331,115.273
1498180114,-4.93333333309999,114.959
1498180116,-52.9333333331,112.587
1498180118,-43.3333333331,110.341
1498180120,-91.3333333331,111.354
1498180122,-36.1333333330999,117.349
1498180124,-72.1333333331,111.072
1498180126,-60.1333333330999,116.6
1498180128,-62.5333333331,111.992
1498180130,-38.5333333331,106.241
1498180132,-67.3333333331,112.987
1498180134,7.06666666690001,109.258
1498180136,-40.9333333331,114.839
1498180138,-57.7333333330999,112.411
1498180140,-36.1333333330999,113.591
1498180142,-45.7333333330999,110.222
1498180144,-55.3333333331,112.953
1498180146,-40.9333333331,110.624
1498180148,-31.3333333331,109.506
1498180150,-45.7333333330999,114.502
1498180152,-12.1333333330999,108.992
1498180154,-4.93333333309999,107.136
1498180156,43.0666666669,104.679
1498180158,45.4666666669,127.962
1498180160,33.4666666669,116.103
1498180162,33.4666666669,125.318
1498180164,4.66666666690003,121.305
1498180166,14.2666666669001,118.407
1498180168,45.4666666669,114.215
1498180170,-40.9333333331,104.015
1498180172,23.8666666669001,116.241
1498180174,4.66666666690003,119.295
1498180176,-60.1333333330999,120.151
1498180178,-38.5333333331,121.216
1498180180,-55.3333333331,118.275
1498180182,-57.7333333330999,106.796
1498180184,-50.5333333331,103.966
1498180186,-21.7333333330999,112.02
1498180188,-48.1333333330999,107.234
1498180190,-31.3333333331,114.325
1498180192,-36.1333333330999,116.563
1498180194,-52.9333333331,111.387
1498180196,-62.5333333331,119.686
1498180198,-38.5333333331,113.638
1498180200,-57.7333333330999,101.649
1498180202,-40.9333333331,115.42
1498180204,-31.3333333331,117.524
1498180206,-24.1333333330999,111.924
1498180208,-40.9333333331,110.96
1498180210,-60.1333333330999,109.836
1498180212,-38.5333333331,113.095
1498180214,-21.7333333330999,122.595
1498180216,-43.3333333331,120.963
1498180218,-2.53333333310002,116.092
1498180220,-60.1333333330999,116.545
1498180222,-48.1333333330999,114.856
1498180224,-43.3333333331,126.554
1498180226,-55.3333333331,115.485
1498180228,-16.9333333331,126.94
1498180230,-12.1333333330999,106.658
1498180232,-64.9333333331,111.249
1498180234,-36.1333333330999,111.772
1498180236,-45.7333333330999,103.621
1498180238,-16.9333333331,103.525
1498180240,-64.9333333331,105.712
1498180242,-28.9333333331,113.134
1498180244,-26.5333333331,102.36
1498180246,-38.5333333331,108.011
1498180248,-50.5333333331,111.396
1498180250,-12.1333333330999,113.913
1498180252,-50.5333333331,113.836
1498180254,-55.3333333331,115.875
1498180256,-69.7333333330999,114.43
1498180258,-12.1333333330999,117.135
1498180260,-60.1333333330999,116.467
1498180262,2.26666666690005,111.919
1498180264,-50.5333333331,109.941
1498180266,-115.3333333331,112.922
1498180268,-50.5333333331,115.791
1498180270,-9.73333333309995,115.353
1498180272,-45.7333333330999,108.396
1498180274,-60.1333333330999,107.218
1498180276,-48.1333333330999,106.535
1498180278,-57.7333333330999,106.755
1498180280,-84.1333333330999,105.064
1498180282,-43.3333333331,107.85
1498180284,-64.9333333331,103.002
1498180286,-52.9333333331,110.704
1498180288,-43.3333333331,109.932
1498180290,-55.3333333331,108.66
1498180292,-74.5333333331,108.502
1498180294,-57.7333333330999,114.601
1498180296,-28.9333333331,108.783
1498180298,-55.3333333331,113.947
1498180300,-28.9333333331,109.428
1498180302,-33.7333333330999,115.094
1498180304,-67.3333333331,107.777
1498180306,-74.5333333331,104.046
1498180308,-43.3333333331,109.777
1498180310,-48.1333333330999,102.873
1498180312,-36.1333333330999,102.497
1498180314,-31.3333333331,112.833
1498180316,2.26666666690005,114.681
1498180318,-14.5333333331,110.647
1498180320,-60.1333333330999,109.797
1498180322,-91.3333333331,102.247
1498180324,-40.9333333331,104.495
1498180326,-48.1333333330999,105.226
1498180328,-52.9333333331,109.01
1498180330,-24.1333333330999,105.461
1498180332,-60.1333333330999,106.96
1498180334,-52.9333333331,106.843
1498180336,-9.73333333309995,106.716
1498180338,-12.1333333330999,105.939
1498180340,-4.93333333309999,110.363
1498180342,-4.93333333309999,107.716
1498180344,-43.3333333331,116.291
1498180346,-36.1333333330999,115.607
1498180348,-19.3333333331,112.346
1498180350,-7.33333333309997,109.879
1498180352,-7.33333333309997,106.529
1498180354,-38.5333333331,102.245
1498180356,-33.7333333330999,110.379
1498180358,-57.7333333330999,95.9253
1498180360,11.8666666669001,102.104
1498180362,-16.9333333331,107.183
1498180364,-62.5333333331,108.296
1498180366,-43.3333333331,107.255
1498180368,-28.9333333331,103.677
1498180370,-60.1333333330999,100.014
1498180372,-60.1333333330999,101.903
1498180374,-40.9333333331,103.483
1498180376,-0.133333333099927,104.379
1498180378,4.66666666690003,103.627
1498180380,19.0666666669,103.711
1498180382,4.66666666690003,111.274
1498180384,-21.7333333330999,106.738
1498180386,2.26666666690005,110.574
1498180388,-26.5333333331,115.31
1498180390,-36.1333333330999,110.471
1498180392,16.6666666669,113.503
1498180394,-9.73333333309995,112.624
1498180396,14.2666666669001,111.582
1498180398,26.2666666669001,116.862
1498180400,64.6666666669,110.654
1498180402,40.6666666669,107.746
1498180404,71.8666666669001,113.489
1498180406,67.0666666669,100.712
1498180408,100.6666666669,104.785
1498180410,19.0666666669,110.519
1498180412,38.2666666669001,111.853
1498180414,69.4666666669,115.549
1498180416,103.0666666669,100.462
1498180418,71.8666666669001,107.653
1498180420,16.6666666669,102.475
1498180422,76.6666666669,100.02
1498180424,62.2666666669001,102.424
1498180426,19.0666666669,106.036
1498180428,98.2666666669001,109.151
1498180430,95.8666666669001,116.776
1498180432,11.8666666669001,106.79
1498180434,57.4666666669,104.424
1498180436,62.2666666669001,104.686
1498180438,91.0666666669,106.334
1498180440,79.0666666669,103.424
1498180442,88.6666666669,112.494
1498180444,16.6666666669,109.26
1498180446,-4.93333333309999,108.223
1498180448,59.8666666669001,112.148
1498180450,64.6666666669,116.02
1498180452,4.66666666690003,106.721
1498180454,52.6666666669,114.028
1498180456,28.6666666669,110.54
1498180458,55.0666666669,110.801
1498180460,7.06666666690001,109.71
1498180462,67.0666666669,110.936
1498180464,28.6666666669,108.769
1498180466,-38.5333333331,102.553
1498180468,11.8666666669001,105.838
1498180470,-24.1333333330999,113.032
1498180472,14.2666666669001,115.427
1498180474,-19.3333333331,115.762
1498180476,83.8666666669001,112.727
1498180478,52.6666666669,110.245
1498180480,33.4666666669,111.56
1498180482,43.0666666669,112.226
1498180484,64.6666666669,115.337
1498180486,69.4666666669,114.394
1498180488,105.4666666669,114.068
1498180490,86.2666666669001,110.792
1498180492,100.6666666669,107.094
1498180494,98.2666666669001,108.925
1498180496,167.8666666669,105.985
1498180498,115.0666666669,117.549
1498180500,100.6666666669,113.954
1498180502,148.6666666669,115.796
1498180504,91.0666666669,108.855
1498180506,112.6666666669,105.497
1498180508,153.4666666669,109.855
1498180510,136.6666666669,114.472
1498180512,115.0666666669,103.695
1498180514,83.8666666669001,106.204
1498180516,119.8666666669,103.044
1498180518,95.8666666669001,111.669
1498180520,112.6666666669,112.578
1498180522,124.6666666669,112.667
1498180524,71.8666666669001,109.084
1498180526,93.4666666669,106.977
1498180528,91.0666666669,108.642
1498180530,100.6666666669,113.639
1498180532,105.4666666669,113.74
1498180534,112.6666666669,106.778
1498180536,88.6666666669,107.066
1498180538,103.0666666669,102.476
1498180540,93.4666666669,101.056
1498180542,110.2666666669,101.12
1498180544,88.6666666669,107.665
1498180546,129.4666666669,103.888
1498180548,98.2666666669001,108.074
1498180550,91.0666666669,89.8031
1498180552,86.2666666669001,98.496
1498180554,95.8666666669001,102.664
1498180556,67.0666666669,110.133
1498180558,83.8666666669001,111.721
1498180560,100.6666666669,107.503
1498180562,28.6666666669,109.631
1498180564,91.0666666669,105.691
1498180566,112.6666666669,116.208
1498180568,76.6666666669,112.885
1498180570,55.0666666669,109.635
1498180572,14.2666666669001,112.904
1498180574,74.2666666669001,115.006
1498180576,67.0666666669,113.251
1498180578,40.6666666669,103.066
1498180580,93.4666666669,114.171
1498180582,76.6666666669,107.748
1498180584,23.8666666669001,107.801
1498180586,76.6666666669,106.43
1498180588,59.8666666669001,111.17
1498180590,69.4666666669,108.804
1498180592,-2.53333333310002,108.034
1498180594,83.8666666669001,111.816
1498180596,-0.133333333099927,110.705
1498180598,86.2666666669001,110.609
1498180600,64.6666666669,111.679
1498180602,74.2666666669001,107.594
1498180604,14.2666666669001,112.163
1498180606,86.2666666669001,114.39
1498180608,71.8666666669001,102.991
1498180610,16.6666666669,96.6557
1498180612,50.2666666669001,102.553
1498180614,-4.93333333309999,97.057
1498180616,4.66666666690003,112.775
1498180618,79.0666666669,113.968
1498180620,93.4666666669,111.142
1498180622,100.6666666669,111.282
1498180624,67.0666666669,117.321
1498180626,74.2666666669001,111.347
1498180628,33.4666666669,109.024
1498180630,59.8666666669001,102.03
1498180632,59.8666666669001,105.966
1498180634,45.4666666669,103.686
1498180636,45.4666666669,102.222
1498180638,23.8666666669001,113.417
1498180640,38.2666666669001,103.456
1498180642,28.6666666669,108.922
1498180644,9.46666666689998,107.658
1498180646,26.2666666669001,111.55
1498180648,9.46666666689998,110.716
1498180650,76.6666666669,114.371
1498180652,4.66666666690003,105.639
1498180654,26.2666666669001,103.563
1498180656,71.8666666669001,108.326
1498180658,4.66666666690003,106.446
1498180660,19.0666666669,114.31
1498180662,88.6666666669,108.887
1498180664,31.0666666669,111.679
1498180666,57.4666666669,110.26
1498180668,35.8666666669001,106.427
1498180670,19.0666666669,111.239
1498180672,69.4666666669,105.589
1498180674,45.4666666669,107.488
1498180676,-28.9333333331,107.267
1498180678,50.2666666669001,108.566
1498180680,-19.3333333331,109.241
1498180682,-14.5333333331,109.668
1498180684,-14.5333333331,109.265
1498180686,19.0666666669,104.417
1498180688,38.2666666669001,104.952
1498180690,14.2666666669001,110.848
1498180692,33.4666666669,103.801
1498180694,-43.3333333331,108.143
1498180696,-7.33333333309997,106.22
1498180698,-9.73333333309995,111.473
1498180700,52.6666666669,110.798
1498180702,23.8666666669001,106.618
1498180704,16.6666666669,111.548
1498180706,35.8666666669001,108.397
1498180708,7.06666666690001,111.489
1498180710,-2.53333333310002,118.956
1498180712,21.4666666669,116.547
1498180714,-14.5333333331,117.173
1498180716,-21.7333333330999,116.747
1498180718,45.4666666669,109.374
1498180720,55.0666666669,113.907
1498180722,62.2666666669001,108.19
1498180724,-0.133333333099927,115.461
1498180726,62.2666666669001,109.566
1498180728,14.2666666669001,102.28
1498180730,23.8666666669001,108.998
1498180732,50.2666666669001,104.613
1498180734,9.46666666689998,104.591
1498180736,21.4666666669,116.348
1498180738,79.0666666669,119.44
1498180740,64.6666666669,114.631
1498180742,-7.33333333309997,111.416
1498180744,19.0666666669,111.524
1498180746,86.2666666669001,121.97
1498180748,9.46666666689998,119.284
1498180750,-2.53333333310002,125.442
1498180752,-14.5333333331,112.949
1498180754,-36.1333333330999,116.613
1498180756,-0.133333333099927,116.021
1498180758,19.0666666669,117.84
1498180760,-19.3333333331,115.273
1498180762,-14.5333333331,106.534
1498180764,-12.1333333330999,105.945
1498180766,19.0666666669,108.11
1498180768,47.8666666669001,111.777
1498180770,7.06666666690001,105.192
1498180772,4.66666666690003,100.308
1498180774,19.0666666669,106.331
1498180776,67.0666666669,105.388
1498180778,31.0666666669,107.846
1498180780,47.8666666669001,105.676
1498180782,55.0666666669,113.211
1498180784,4.66666666690003,108.797
1498180786,110.2666666669,116.173
1498180788,98.2666666669001,111.31
1498180790,95.8666666669001,98.3658
1498180792,105.4666666669,100.506
1498180794,146.2666666669,100.084
1498180796,67.0666666669,101.173
1498180798,107.8666666669,103.673
1498180800,93.4666666669,99.3689
1498180802,95.8666666669001,104.081
1498180804,112.6666666669,105.06
1498180806,112.6666666669,114.309
1498180808,79.0666666669,111.556
1498180810,100.6666666669,106.388
1498180812,98.2666666669001,102.687
1498180814,103.0666666669,102.316
1498180816,64.6666666669,101.246
1498180818,69.4666666669,106.159
1498180820,103.0666666669,115.78
1498180822,40.6666666669,103.587
1498180824,86.2666666669001,111.386
1498180826,103.0666666669,115.138
1498180828,64.6666666669,112.483
1498180830,71.8666666669001,114.218
1498180832,81.4666666669,108.014
1498180834,62.2666666669001,109.227
1498180836,59.8666666669001,106.046
1498180838,45.4666666669,109.973
1498180840,86.2666666669001,107.846
1498180842,79.0666666669,112.296
1498180844,57.4666666669,108.979
1498180846,83.8666666669001,112.478
1498180848,47.8666666669001,111.833
1498180850,103.0666666669,117.242
1498180852,95.8666666669001,113.178
1498180854,59.8666666669001,117.707
1498180856,59.8666666669001,117.6
1498180858,-7.33333333309997,112.39
1498180860,98.2666666669001,106.497
1498180862,71.8666666669001,111.252
1498180864,19.0666666669,109.047
1498180866,52.6666666669,107.709
1498180868,26.2666666669001,113.019
1498180870,31.0666666669,111.211
1498180872,33.4666666669,102.767
1498180874,-28.9333333331,106.465
1498180876,-14.5333333331,110.629
1498180878,-4.93333333309999,114.743
1498180880,16.6666666669,106.422
1498180882,7.06666666690001,104.735
1498180884,-14.5333333331,101.93
1498180886,-0.133333333099927,109.462
1498180888,71.8666666669001,104.055
1498180890,2.26666666690005,104.428
1498180892,14.2666666669001,114.566
1498180894,31.0666666669,110.486
1498180896,4.66666666690003,110.59
1498180898,28.6666666669,124.249
1498180900,52.6666666669,124.428
1498180902,-36.1333333330999,116.872
1498180904,-9.73333333309995,119.861
1498180906,-43.3333333331,121.268
1498180908,-50.5333333331,118.363
1498180910,-0.133333333099927,120.061
1498180912,-7.33333333309997,116.779
1498180914,28.6666666669,117.808
1498180916,9.46666666689998,120.768
1498180918,31.0666666669,114.604
1498180920,40.6666666669,115.769
1498180922,47.8666666669001,118.289
1498180924,16.6666666669,109.715
1498180926,19.0666666669,119.171
1498180928,69.4666666669,111.364
1498180930,4.66666666690003,110.678
1498180932,47.8666666669001,118.035
1498180934,38.2666666669001,116.24
1498180936,31.0666666669,124.153
1498180938,-12.1333333330999,116.857
1498180940,-21.7333333330999,117.626
1498180942,-14.5333333331,117.653
1498180944,-12.1333333330999,121.479
1498180946,-12.1333333330999,120.962
1498180948,-33.7333333330999,124.021
1498180950,-4.93333333309999,118.61
1498180952,55.0666666669,121.698
1498180954,40.6666666669,122.8
1498180956,69.4666666669,118.04
1498180958,57.4666666669,112.816
1498180960,93.4666666669,108.086
1498180962,69.4666666669,118.581
1498180964,67.0666666669,108.693
1498180966,57.4666666669,117.485
1498180968,122.2666666669,110.057
1498180970,81.4666666669,118.175
1498180972,105.4666666669,110.888
1498180974,79.0666666669,118.758
1498180976,23.8666666669001,116.946
1498180978,57.4666666669,116.535
1498180980,107.8666666669,113.15
1498180982,103.0666666669,110.766
1498180984,57.4666666669,115.856
1498180986,86.2666666669001,118.172
1498180988,52.6666666669,118.57
1498180990,-12.1333333330999,119.769
1498180992,-9.73333333309995,110.813
1498180994,35.8666666669001,113.57
1498180996,50.2666666669001,118.089
1498180998,38.2666666669001,109.141
1498181000,21.4666666669,110.238
1498181002,-26.5333333331,106.157
1498181004,9.46666666689998,111.303
1498181006,4.66666666690003,105.843
1498181010,23.8666666669001,104.922
1498181012,-40.9333333331,106.682
1498181014,4.66666666690003,113.264
1498181016,31.0666666669,107.549
1498181018,7.06666666690001,116.866
1498181020,-14.5333333331,112.681
1498181022,11.8666666669001,116.868
1498181024,88.6666666669,108.561
1498181026,43.0666666669,117.449
1498181028,-4.93333333309999,115.716
1498181030,43.0666666669,122.597
1498181032,40.6666666669,120.533
1498181034,43.0666666669,107.859
1498181036,9.46666666689998,102.91
1498181038,-7.33333333309997,113.748
1498181040,9.46666666689998,106.217
1498181042,9.46666666689998,111.97
1498181044,-4.93333333309999,111.07
1498181046,19.0666666669,114.355
1498181048,23.8666666669001,100.513
1498181050,40.6666666669,111.297
1498181052,21.4666666669,117.38
1498181054,-21.7333333330999,105.146
1498181056,-0.133333333099927,106.683
1498181058,21.4666666669,108.746
1498181060,47.8666666669001,105.226
1498181062,-7.33333333309997,111.123
1498181064,26.2666666669001,105.653
1498181066,59.8666666669001,114.585
1498181068,14.2666666669001,104.469
1498181070,23.8666666669001,109.691
1498181072,7.06666666690001,112.823
1498181074,38.2666666669001,114.625
1498181076,-45.7333333330999,116.525
1498181078,-33.7333333330999,112.687
1498181080,7.06666666690001,112.028
1498181082,11.8666666669001,120.367
1498181084,33.4666666669,117.522
1498181086,7.06666666690001,117.54
1498181088,21.4666666669,111.716
1498181090,-9.73333333309995,110.289
1498181092,7.06666666690001,109.307
1498181094,-52.9333333331,115.827
1498181096,-40.9333333331,108.782
1498181098,-79.3333333331,105.452
1498181100,-31.3333333331,109.85
1498181102,-50.5333333331,117.288
1498181104,-62.5333333331,116.31
1498181106,-36.1333333330999,110.74
1498181108,11.8666666669001,105.106
1498181110,-38.5333333331,112.295
1498181112,-38.5333333331,111.187
1498181114,11.8666666669001,117.106
1498181116,-31.3333333331,110.442
1498181118,-28.9333333331,113.805
1498181120,2.26666666690005,111.312
1498181122,23.8666666669001,116.823
1498181124,-81.7333333330999,113.014
1498181126,23.8666666669001,110.437
1498181128,-45.7333333330999,114.516
1498181130,4.66666666690003,110.061
1498181132,-26.5333333331,106.526
1498181134,-7.33333333309997,117.15
1498181136,21.4666666669,111.184
1498181138,-21.7333333330999,105.298
1498181140,-28.9333333331,109.78
1498181142,-12.1333333330999,104.816
1498181144,-4.93333333309999,109.765
1498181146,-12.1333333330999,114.936
1498181148,57.4666666669,113.464
1498181150,-4.93333333309999,115.016
1498181152,-43.3333333331,111.771
1498181154,-28.9333333331,112.87
1498181156,2.26666666690005,118.395
1498181158,-0.133333333099927,116.515
1498181160,-31.3333333331,107.806
1498181162,67.0666666669,115.307
1498181164,26.2666666669001,116.684
1498181166,19.0666666669,115.485
1498181168,45.4666666669,121.663
1498181170,136.6666666669,120.74
1498181172,35.8666666669001,118.342
1498181174,33.4666666669,112.736
1498181176,93.4666666669,105.943
1498181178,43.0666666669,113.668
1498181180,57.4666666669,112.549
1498181182,40.6666666669,120.392
1498181184,45.4666666669,117.494
1498181186,19.0666666669,119.107
1498181188,57.4666666669,111.627
1498181190,50.2666666669001,111.338
1498181192,67.0666666669,109.167
1498181194,62.2666666669001,117.69
1498181196,38.2666666669001,111.746
1498181198,31.0666666669,112.534
1498181200,9.46666666689998,113.457
1498181202,71.8666666669001,110.558
1498181204,33.4666666669,103.371
1498181206,14.2666666669001,112.315
1498181208,62.2666666669001,114.652
1498181210,16.6666666669,111.71
1498181212,38.2666666669001,115.55
1498181214,4.66666666690003,118.369
1498181216,23.8666666669001,113.335
1498181218,11.8666666669001,112.389
1498181220,-7.33333333309997,114.971
1498181222,-19.3333333331,111.414
1498181224,14.2666666669001,110.045
1498181226,-67.3333333331,114.21
1498181228,-33.7333333330999,104.62
1498181230,-24.1333333330999,106.145
1498181232,-36.1333333330999,105.926
1498181234,-36.1333333330999,108.737
1498181236,-31.3333333331,111.348
1498181238,28.6666666669,110.73
1498181240,-12.1333333330999,116.38
1498181242,2.26666666690005,117.147
1498181244,-7.33333333309997,113.934
1498181246,-16.9333333331,113.171
1498181248,33.4666666669,107.513
1498181250,74.2666666669001,113.199
1498181252,69.4666666669,110.677
1498181254,88.6666666669,110.092
1498181256,57.4666666669,114.739
1498181258,110.2666666669,112.35
1498181260,103.0666666669,111.499
1498181262,79.0666666669,115.833
1498181264,88.6666666669,115.706
1498181266,103.0666666669,111.023
1498181268,67.0666666669,114.888
1498181270,110.2666666669,107.277
1498181272,117.4666666669,107.474
1498181274,127.0666666669,112.563
1498181276,98.2666666669001,109.502
1498181278,100.6666666669,110.633
1498181280,131.8666666669,106.353
1498181282,115.0666666669,106.206
1498181284,81.4666666669,119.609
1498181286,167.8666666669,108.105
1498181288,91.0666666669,109.956
1498181290,79.0666666669,111.584
1498181292,107.8666666669,113.734
1498181294,110.2666666669,113.894
1498181296,88.6666666669,123.02
1498181298,98.2666666669001,113.183
1498181300,93.4666666669,117.124
1498181302,115.0666666669,110.935
1498181304,110.2666666669,115.128
1498181306,148.6666666669,127.463
1498181308,165.4666666669,124.775
1498181310,122.2666666669,116.962
1498181312,119.8666666669,116.614
1498181314,131.8666666669,113.746
1498181316,93.4666666669,112.162
1498181318,79.0666666669,118.703
1498181320,88.6666666669,125.159
1498181322,98.2666666669001,115.416
1498181324,26.2666666669001,115.885
1498181326,74.2666666669001,128.073
1498181328,95.8666666669001,121.749
1498181330,69.4666666669,121.077
1498181332,52.6666666669,110.456
1498181334,47.8666666669001,114.068
1498181336,64.6666666669,111.416
1498181338,59.8666666669001,115.813
1498181340,74.2666666669001,115.238
1498181342,83.8666666669001,109.906
1498181344,69.4666666669,112.464
1498181346,67.0666666669,114.629
1498181348,105.4666666669,117.672
1498181350,107.8666666669,112.55
1498181352,136.6666666669,107.922
1498181354,165.4666666669,109.213
1498181356,175.0666666669,110.02
1498181358,155.8666666669,98.0738
1498181360,165.4666666669,88.7349
1498181362,155.8666666669,91.7324
1498181364,148.6666666669,105.26
1498181366,124.6666666669,102.66
1498181368,153.4666666669,102.186
1498181370,136.6666666669,115.904
1498181372,160.6666666669,115.963
1498181374,127.0666666669,106.554
1498181376,107.8666666669,115.516
1498181378,177.4666666669,114.008
1498181380,175.0666666669,110.913
1498181382,146.2666666669,119.87
1498181384,175.0666666669,114.161
1498181386,208.6666666669,122.427
1498181388,172.6666666669,114.582
1498181390,191.8666666669,105.619
1498181392,172.6666666669,110.613
1498181394,163.0666666669,116.609
1498181396,177.4666666669,116.671
1498181398,146.2666666669,113.627
1498181400,179.8666666669,114.658
1498181402,127.0666666669,118.775
1498181404,167.8666666669,120.046
1498181406,184.6666666669,129.353
1498181408,158.2666666669,124.204
1498181410,179.8666666669,130.54
1498181412,110.2666666669,120.601
1498181414,163.0666666669,121.979
1498181416,155.8666666669,121.2
1498181418,98.2666666669001,119.414
1498181420,129.4666666669,120.456
1498181422,100.6666666669,114.498
1498181424,71.8666666669001,116.816
1498181426,59.8666666669001,114.466
1498181428,86.2666666669001,116.256
1498181430,9.46666666689998,112.81
1498181432,-16.9333333331,113.627
1498181434,26.2666666669001,116.356
1498181436,62.2666666669001,112.533
1498181438,2.26666666690005,116.688
1498181440,9.46666666689998,115.658
1498181442,74.2666666669001,109.06
1498181444,38.2666666669001,116.294
1498181446,16.6666666669,114.842
1498181448,91.0666666669,113.171
1498181450,62.2666666669001,120.404
1498181452,81.4666666669,121.411
1498181454,86.2666666669001,114.086
1498181456,119.8666666669,112.614
1498181458,115.0666666669,125.421
1498181460,103.0666666669,116.353
1498181462,107.8666666669,129.954
1498181464,122.2666666669,113.215
1498181466,141.4666666669,118.851
1498181468,115.0666666669,123.344
1498181470,93.4666666669,115.853
1498181472,86.2666666669001,121.87
1498181474,83.8666666669001,113.252
1498181476,175.0666666669,111.029
1498181478,237.4666666669,117.881
1498181480,196.6666666669,123.053
1498181482,273.4666666669,115.434
1498181484,259.0666666669,119.098
1498181486,235.0666666669,115.844
1498181488,249.4666666669,108.891
1498181490,177.4666666669,109.812
1498181492,194.2666666669,111.055
1498181494,237.4666666669,111.548
1498181496,163.0666666669,114.442
1498181498,179.8666666669,108.193
1498181500,151.0666666669,113.027
1498181502,148.6666666669,104.302
1498181504,175.0666666669,115.484
1498181506,155.8666666669,109.169
1498181508,153.4666666669,116.652
1498181510,155.8666666669,109.008
1498181512,158.2666666669,111.326
1498181514,153.4666666669,114.779
1498181516,93.4666666669,109.714
1498181518,105.4666666669,108.238
1498181520,160.6666666669,116.689
1498181522,107.8666666669,109.745
1498181524,100.6666666669,103.277
1498181526,167.8666666669,108.084
1498181528,151.0666666669,105.122
1498181530,146.2666666669,109.023
1498181532,148.6666666669,110.957
1498181534,167.8666666669,109.227
1498181536,187.0666666669,110.689
1498181538,175.0666666669,102.042
1498181540,273.4666666669,121.472
1498181542,232.6666666669,121.083
1498181544,239.8666666669,115.679
1498181546,232.6666666669,113.635
1498181548,184.6666666669,114.121
1498181550,179.8666666669,110.047
1498181552,196.6666666669,111.999
1498181554,175.0666666669,107.024
1498181556,167.8666666669,103.67
1498181558,110.2666666669,110.082
1498181560,103.0666666669,106.648
1498181562,95.8666666669001,110.912
1498181564,165.4666666669,114.452
1498181566,124.6666666669,109.111
1498181568,172.6666666669,107.749
1498181570,179.8666666669,108.793
1498181572,117.4666666669,114.9
1498181574,119.8666666669,113.208
1498181576,148.6666666669,109.818
1498181578,122.2666666669,112.145
1498181580,110.2666666669,109.377
1498181582,81.4666666669,112.75
1498181584,95.8666666669001,113.522
1498181586,93.4666666669,119.644
1498181588,69.4666666669,112.395
1498181590,105.4666666669,119.66
1498181592,93.4666666669,113.899
1498181594,69.4666666669,114.642
1498181596,74.2666666669001,116.436
1498181598,74.2666666669001,119.575
1498181600,45.4666666669,114.58
1498181602,79.0666666669,110.399
1498181604,95.8666666669001,111.998
1498181606,55.0666666669,114.738
1498181608,69.4666666669,111.179
1498181610,69.4666666669,118.712
1498181612,57.4666666669,113.608
1498181614,69.4666666669,121.156
1498181616,100.6666666669,117.699
1498181618,115.0666666669,105.787
1498181620,74.2666666669001,116.704
1498181622,71.8666666669001,108.464
1498181624,112.6666666669,117.582
1498181626,91.0666666669,108.515
1498181628,83.8666666669001,108.061
1498181630,71.8666666669001,112.662
1498181632,103.0666666669,112.03
1498181634,86.2666666669001,117.728
1498181636,93.4666666669,115.399
1498181638,110.2666666669,117.568
1498181640,79.0666666669,116.617
1498181642,91.0666666669,116.391
1498181644,131.8666666669,113.869
1498181646,103.0666666669,96.8522
1498181648,76.6666666669,110.693
1498181650,91.0666666669,104.535
1498181652,103.0666666669,112.267
1498181654,110.2666666669,103.629
1498181656,67.0666666669,111.263
1498181658,151.0666666669,111.423
1498181660,124.6666666669,107.492
1498181662,146.2666666669,106.68
1498181664,151.0666666669,112.906
1498181666,151.0666666669,110.846
1498181668,160.6666666669,113.693
1498181670,107.8666666669,112.042
1498181672,153.4666666669,114.239
1498181674,107.8666666669,114.81
1498181676,76.6666666669,103.893
1498181678,67.0666666669,108.745
1498181680,112.6666666669,115.079
1498181682,55.0666666669,115.031
1498181684,105.4666666669,115.118
1498181686,64.6666666669,119.51
1498181688,107.8666666669,119.022
1498181690,76.6666666669,110.071
1498181692,95.8666666669001,114.874
1498181694,105.4666666669,111.372
1498181696,59.8666666669001,114.307
1498181698,88.6666666669,113.491
1498181700,57.4666666669,110.913
1498181702,55.0666666669,110.543
1498181704,95.8666666669001,109.282
1498181706,95.8666666669001,111.762
1498181708,76.6666666669,105.054
1498181710,67.0666666669,114.797
1498181712,47.8666666669001,111.127
1498181714,81.4666666669,109.266
1498181716,69.4666666669,109.852
1498181718,59.8666666669001,109.124
1498181720,88.6666666669,113.461
1498181722,55.0666666669,108.488
1498181724,23.8666666669001,114
1498181726,57.4666666669,117.954
1498181728,43.0666666669,111.015
1498181730,76.6666666669,106.795
1498181732,40.6666666669,108.44
1498181734,83.8666666669001,113.36
1498181736,47.8666666669001,112.686
1498181738,35.8666666669001,113.854
1498181740,-19.3333333331,104.34
1498181742,59.8666666669001,114.632
1498181744,62.2666666669001,110.881
1498181746,74.2666666669001,108.084
1498181748,95.8666666669001,108.113
1498181750,112.6666666669,108.595
1498181752,155.8666666669,105.015
1498181754,235.0666666669,119.045
1498181756,235.0666666669,114.912
1498181758,206.2666666669,106.306
1498181760,172.6666666669,111.715
1498181762,177.4666666669,104.362
1498181764,165.4666666669,113.212
1498181766,163.0666666669,103.062
1498181768,141.4666666669,108.276
1498181770,158.2666666669,108.714
1498181772,172.6666666669,118.16
1498181774,155.8666666669,120.046
1498181776,199.0666666669,113.15
1498181778,199.0666666669,118.822
1498181780,167.8666666669,110.584
1498181782,148.6666666669,116.468
1498181784,187.0666666669,115.515
1498181786,143.8666666669,112.397
1498181788,213.4666666669,110.763
1498181790,206.2666666669,114.318
1498181792,182.2666666669,119.365
1498181794,122.2666666669,119.766
1498181796,201.4666666669,115.298
1498181798,194.2666666669,110.759
1498181800,146.2666666669,108.368
1498181802,155.8666666669,107.465
1498181804,175.0666666669,113.605
1498181806,189.4666666669,115.242
1498181808,148.6666666669,115.973
1498181810,160.6666666669,117.135
1498181812,172.6666666669,106.983
1498181814,206.2666666669,108.724
1498181816,112.6666666669,112.575
1498181818,155.8666666669,103.788
1498181820,79.0666666669,110.377
1498181822,124.6666666669,109.371
1498181824,124.6666666669,109.021
1498181826,95.8666666669001,103.707
1498181828,40.6666666669,105.861
1498181830,81.4666666669,112.359
1498181832,74.2666666669001,114.115
1498181834,81.4666666669,112.044
1498181836,52.6666666669,114.845
1498181838,95.8666666669001,109.012
1498181840,98.2666666669001,112.881
1498181842,76.6666666669,114.325
1498181844,127.0666666669,119.95
1498181846,136.6666666669,123.646
1498181848,112.6666666669,118.724
1498181850,139.0666666669,119.146
1498181852,177.4666666669,104.43
1498181854,201.4666666669,112.965
1498181856,203.8666666669,111.64
1498181858,177.4666666669,110.724
1498181860,211.0666666669,114.786
1498181862,189.4666666669,119.483
1498181864,163.0666666669,110.664
1498181866,184.6666666669,114.52
1498181868,196.6666666669,101.783
1498181870,117.4666666669,114.924
1498181872,131.8666666669,116.81
1498181874,119.8666666669,121.94
1498181876,83.8666666669001,114.108
1498181878,103.0666666669,119.083
1498181880,100.6666666669,119.218
1498181882,107.8666666669,107.343
1498181884,86.2666666669001,113.906
1498181886,33.4666666669,107.447
1498181888,81.4666666669,119.041
1498181890,59.8666666669001,110.664
1498181892,31.0666666669,116.238
1498181894,71.8666666669001,113.08
1498181896,139.0666666669,115.685
1498181898,57.4666666669,115.367
1498181900,38.2666666669001,116.302
1498181902,59.8666666669001,117.631
1498181904,55.0666666669,110.465
1498181906,35.8666666669001,108.667
1498181908,-4.93333333309999,111.091
1498181910,16.6666666669,110.096
1498181912,-19.3333333331,115.776
1498181914,38.2666666669001,109.33
1498181916,-4.93333333309999,114.991
1498181918,-21.7333333330999,113.704
1498181920,-38.5333333331,108.323
1498181922,-36.1333333330999,110.787
1498181924,-31.3333333331,112.527
1498181926,-21.7333333330999,113.482
1498181928,-55.3333333331,103.397
1498181930,-74.5333333331,115.733
1498181932,-88.9333333331,108.008
1498181934,-64.9333333331,110.902
1498181936,-122.5333333331,101.259
1498181938,-69.7333333330999,107.802
1498181940,-62.5333333331,113.916
1498181942,-76.9333333331,112.371
1498181944,-57.7333333330999,106.14
1498181946,-72.1333333331,103.39
1498181948,-62.5333333331,113.345
1498181950,-74.5333333331,108.96
1498181952,-19.3333333331,114.625
1498181954,7.06666666690001,106.392
1498181956,-28.9333333331,103.348
1498181958,-9.73333333309995,107.693
1498181960,-38.5333333331,102.409
1498181962,-19.3333333331,107.21
1498181964,-55.3333333331,106.153
1498181966,-45.7333333330999,117.445
1498181968,-9.73333333309995,116.91
1498181970,-57.7333333330999,109.365
1498181972,-38.5333333331,113.157
1498181974,-55.3333333331,107.902
1498181976,-55.3333333331,111.981
1498181978,-62.5333333331,115.507
1498181980,-76.9333333331,116.288
1498181982,-43.3333333331,117.137
1498181984,-60.1333333330999,114.179
1498181986,-64.9333333331,112.251
1498181988,-57.7333333330999,108.555
1498181990,-28.9333333331,103.18
1498181992,-79.3333333331,112.609
1498181994,-60.1333333330999,108.53
1498181996,26.2666666669001,104.413
1498181998,-50.5333333331,112.207
1498182000,-57.7333333330999,107.003
1498182002,-14.5333333331,103.285
1498182004,11.8666666669001,111.628
1498182006,-45.7333333330999,111.888
1498182008,7.06666666690001,115.216
1498182010,-21.7333333330999,117.989
1498182012,-4.93333333309999,111.678
1498182014,-38.5333333331,110.879
1498182016,-28.9333333331,99.3632
1498182018,-33.7333333330999,106.708
1498182020,-7.33333333309997,111.734
1498182022,-31.3333333331,104.554
1498182024,7.06666666690001,110.982
1498182026,-24.1333333330999,104.817
1498182028,-0.133333333099927,117.461
1498182030,-38.5333333331,106.668
1498182032,31.0666666669,110.758
1498182034,-52.9333333331,116.365
1498182036,-40.9333333331,101.222
1498182038,-64.9333333331,103.609
1498182040,-55.3333333331,114.376
1498182042,-69.7333333330999,111.643
1498182044,-38.5333333331,104.822
1498182046,-72.1333333331,110.227
1498182048,-88.9333333331,112.921
1498182050,-60.1333333330999,108.742
1498182052,-74.5333333331,104.745
1498182054,-52.9333333331,106.943
1498182056,-50.5333333331,107.068
1498182058,-26.5333333331,105.177
1498182060,-45.7333333330999,100.084
1498182062,-60.1333333330999,98.582
1498182064,-40.9333333331,99.8618
1498182066,-24.1333333330999,106.496
1498182068,-86.5333333331,112.561
1498182070,-124.9333333331,103.348
1498182072,-74.5333333331,111.112
1498182074,-57.7333333330999,104.823
1498182076,-76.9333333331,105.719
1498182078,-62.5333333331,105.537
1498182080,-2.53333333310002,113.297
1498182082,-50.5333333331,110.068
1498182084,-52.9333333331,109.216
1498182086,-55.3333333331,104.249
1498182088,-24.1333333330999,112.263
1498182090,-57.7333333330999,112.461
1498182092,-62.5333333331,108.821
1498182094,-60.1333333330999,104.331
1498182096,-50.5333333331,107.422
1498182098,-64.9333333331,110.765
1498182100,-4.93333333309999,105.461
1498182102,-52.9333333331,115.776
1498182104,-26.5333333331,106.491
1498182106,-12.1333333330999,105.368
1498182108,-48.1333333330999,106.256
1498182110,-38.5333333331,110.897
1498182112,-57.7333333330999,106.025
1498182114,-38.5333333331,111.592
1498182116,4.66666666690003,113.979
1498182118,-52.9333333331,109.075
1498182120,-38.5333333331,113.529
1498182122,-16.9333333331,111.167
1498182124,-45.7333333330999,117.421
1498182126,-57.7333333330999,115.229
1498182128,-28.9333333331,114.308
1498182130,-55.3333333331,114.154
1498182132,-48.1333333330999,106.089
1498182134,-36.1333333330999,109.6
1498182136,-40.9333333331,110.17
1498182138,-67.3333333331,112.741
1498182140,-194.5333333331,107.963
1498182142,-120.1333333331,111.181
1498182144,-122.5333333331,108.94
1498182146,-184.9333333331,109.331
1498182148,-175.3333333331,112.318
1498182150,-196.9333333331,111.498
1498182152,-158.5333333331,109.456
1498182154,-146.5333333331,119.363
1498182156,-84.1333333330999,121.454
1498182158,-146.5333333331,115.088
1498182160,-146.5333333331,120.108
1498182162,-105.7333333331,115
1498182164,-64.9333333331,110.446
1498182166,-144.1333333331,116.652
1498182168,-108.1333333331,117.86
1498182170,-86.5333333331,114.36
1498182172,-144.1333333331,107.511
1498182174,-160.9333333331,108.656
1498182176,-55.3333333331,115.351
1498182178,-96.1333333330999,108.416
1498182180,-144.1333333331,107.017
1498182182,-112.9333333331,103.502
1498182184,-148.9333333331,106.504
1498182186,-136.9333333331,103.421
1498182188,-120.1333333331,103.786
1498182190,-67.3333333331,109.556
1498182192,-124.9333333331,110.45
1498182194,-132.1333333331,102.275
1498182196,-117.7333333331,105.013
1498182198,-115.3333333331,114.591
1498182200,-124.9333333331,110.166
1498182202,-134.5333333331,107.422
1498182204,-160.9333333331,104.899
1498182206,-139.3333333331,103.479
1498182208,-156.1333333331,110.731
1498182210,-100.9333333331,108.629
1498182212,-122.5333333331,107.44
1498182214,-146.5333333331,108.499
1498182216,-134.5333333331,105.821
1498182218,-132.1333333331,109.074
1498182220,-120.1333333331,112.11
1498182222,-136.9333333331,105.999
1498182224,-117.7333333331,106.058
1498182226,-115.3333333331,114.648
1498182228,-100.9333333331,113.081
1498182230,-136.9333333331,107.563
1498182232,-144.1333333331,108.006
1498182234,-69.7333333330999,109.1
1498182236,-110.5333333331,117.255
1498182238,-117.7333333331,108.122
1498182240,-120.1333333331,112.159
1498182242,-81.7333333330999,115.943
1498182244,-93.7333333330999,111.734
1498182246,-64.9333333331,107.044
1498182248,-50.5333333331,114.773
1498182250,-84.1333333330999,113.116
1498182252,-160.9333333331,106.489
1498182254,-93.7333333330999,107.075
1498182256,-124.9333333331,105.408
1498182258,-100.9333333331,105.362
1498182260,-124.9333333331,114.467
1498182262,-96.1333333330999,107.591
1498182264,-163.3333333331,111.097
1498182266,-115.3333333331,115.739
1498182268,-93.7333333330999,105.473
1498182270,-127.3333333331,110.398
1498182272,-129.7333333331,120.92
1498182274,-91.3333333331,116.182
1498182276,-96.1333333330999,105.318
