tag_number,delay,power_est
1495520964,1032.400000005,20.2719
1495520968,1025.200000005,18.3243
1495520972,1039.600000005,19.0459
1495520976,1068.400000005,21.0079
1495520980,1022.800000005,21.9699
1495520984,1056.400000005,17.279
1495520988,1034.800000005,20.9313
1495520992,1020.400000005,15.0996
1495520996,972.400000005,18.1817
1495521000,1058.800000005,19.211
1495521004,1066.000000005,18.1062
1495521008,1051.600000005,19.5434
1495521012,1099.600000005,22.209
1495521016,1039.600000005,15.7164
1495521020,1073.200000005,20.3119
1495521024,1085.200000005,19.5976
1495521028,1104.400000005,22.9234
1495521032,1102.000000005,26.1257
1495521036,1073.200000005,20.5511
1495521040,1111.600000005,23.7589
1495521044,1049.200000005,19.1661
1495521048,1111.600000005,23.6082
1495521052,1070.800000005,22.1789
1495521056,1066.000000005,23.2707
1495521060,1147.600000005,23.2803
1495521064,1130.800000005,21.3295
1495521068,1073.200000005,22.3332
1495521072,1121.200000005,24.5095
1495521076,1099.600000005,20.7643
1495521080,1044.400000005,21.5189
1495521084,1054.000000005,23.4345
1495521088,1049.200000005,23.5972
1495521092,1044.400000005,21.5683
1495521096,1018.000000005,21.8084
1495521100,1018.000000005,20.2519
1495521104,1001.200000005,22.4613
1495521108,1001.200000005,21.112
1495521112,970.000000005,16.6806
1495521116,1032.400000005,18.785
1495521120,1056.400000005,18.7397
1495521124,1039.600000005,19.4594
1495521128,1104.400000005,23.2512
1495521132,1068.400000005,22.06
1495521136,1056.400000005,21.7332
1495521140,1068.400000005,19.8879
1495521144,1056.400000005,23.0705
1495521148,979.600000005,24.2893
1495521152,989.200000005,19.9596
1495521156,914.800000005,21.4105
1495521160,883.600000005,23.141
1495521164,835.600000005,18.1096
1495521168,895.600000005,20.4655
1495521172,953.200000005,20.7731
1495521176,922.000000005,18.2509
1495521180,893.200000005,17.8701
1495521184,883.600000005,20.8491
1495521188,905.200000005,20.2186
1495521192,893.200000005,16.5001
1495521196,888.400000005,21.1648
1495521200,905.200000005,20.5973
1495521204,910.000000005,20.6076
1495521208,898.000000005,19.0603
1495521212,922.000000005,23.7747
1495521216,914.800000005,19.1926
1495521220,917.200000005,18.4744
1495521224,977.200000005,21.6099
1495521228,1032.400000005,19.5408
1495521232,986.800000005,19.2787
1495521236,1018.000000005,22.7667
1495521240,1097.200000005,22.3978
1495521244,1056.400000005,20.3785
1495521248,1034.800000005,21.9076
1495521252,1090.000000005,22.2898
1495521256,1070.800000005,20.5193
1495521260,1018.000000005,20.3719
1495521264,1018.000000005,23.608
1495521268,1078.000000005,20.3201
1495521272,1073.200000005,23.4283
1495521276,1022.800000005,20.1084
1495521280,1054.000000005,20.1793
1495521284,1037.200000005,17.5325
1495521288,1037.200000005,16.1237
1495521292,1104.400000005,14.0484
1495521296,1073.200000005,15.3624
1495521300,1097.200000005,17.8154
1495521304,1068.400000005,16.6487
1495521308,1054.000000005,16.8505
1495521312,1058.800000005,15.7266
1495521316,1051.600000005,17.0013
1495521320,1032.400000005,18.7415
1495521324,1030.000000005,21.3899
1495521328,1003.600000005,21.4316
1495521332,1049.200000005,17.528
1495521336,1063.600000005,18.4876
1495521340,984.400000005,17.3622
1495521344,1006.000000005,18.2047
1495521348,1039.600000005,22.6131
1495521352,1020.400000005,20.0879
1495521356,1042.000000005,22.3272
1495521360,991.600000005,20.7176
1495521364,996.400000005,20.1576
1495521368,1030.000000005,18.4584
1495521372,1034.800000005,17.6853
1495521376,1032.400000005,22.1677
1495521380,991.600000005,23.1027
1495521384,1006.000000005,21.99
1495521388,1015.600000005,18.1813
1495521392,977.200000005,20.782
1495521396,960.400000005,21.2571
1495521400,984.400000005,19.7955
1495521404,953.200000005,24.5834
1495521408,958.000000005,23.1103
1495521412,996.400000005,23.7762
1495521416,977.200000005,20.2453
1495521420,989.200000005,22.2683
1495521424,958.000000005,21.8749
1495521428,1037.200000005,23.2193
1495521432,1015.600000005,21.0001
1495521436,1003.600000005,21.588
1495521440,1034.800000005,19.4943
1495521444,1042.000000005,20.59
1495521448,982.000000005,20.9709
1495521452,1056.400000005,22.3918
1495521456,1102.000000005,19.1664
1495521460,1070.800000005,19.9945
1495521464,1049.200000005,22.0254
1495521468,1034.800000005,24.1008
1495521472,996.400000005,23.9231
1495521476,962.800000005,22.7562
1495521480,1044.400000005,18.6661
1495521484,1037.200000005,18.78
1495521488,1037.200000005,18.6363
1495521492,972.400000005,21.4378
1495521496,1037.200000005,19.9327
1495521500,1030.000000005,17.6723
1495521504,1034.800000005,19.8762
1495521508,1030.000000005,19.7447
1495521512,1032.400000005,20.7958
1495521516,1020.400000005,16.1881
1495521520,1032.400000005,15.2668
1495521524,1025.200000005,20.8911
1495521528,994.000000005,19.5498
1495521532,931.600000005,17.8505
1495521536,1001.200000005,21.9683
1495521540,1006.000000005,25.5567
1495521544,1015.600000005,23.0981
1495521548,1044.400000005,29.0955
1495521552,1027.600000005,27.6335
1495521556,1037.200000005,25.5819
1495521560,994.000000005,19.4509
1495521564,953.200000005,22.8577
1495521572,1008.400000005,22.0759
1495521576,982.000000005,23.0872
1495521580,967.600000005,21.9634
1495521584,1003.600000005,22.5521
1495521588,953.200000005,24.2308
1495521592,991.600000005,27.4187
1495521596,1030.000000005,22.0377
1495521600,1018.000000005,18.4039
1495521604,984.400000005,20.2276
1495521608,965.200000005,26.1108
1495521612,931.600000005,20.7545
1495521616,974.800000005,18.7234
1495521620,958.000000005,20.8563
1495521624,955.600000005,18.2547
1495521628,926.800000005,19.7512
1495521632,991.600000005,23.3412
1495521636,888.400000005,23.2001
1495521640,926.800000005,16.5488
1495521644,919.600000005,18.8123
1495521648,967.600000005,19.5772
1495521652,931.600000005,18.4817
1495521656,958.000000005,18.4055
1495521660,974.800000005,19.2048
1495521664,972.400000005,22.8126
1495521668,1030.000000005,16.2639
1495521672,986.800000005,22.9176
1495521676,1039.600000005,20.9138
1495521680,1049.200000005,23.8746
1495521684,1063.600000005,20.222
1495521688,1080.400000005,19.1001
1495521692,1133.200000005,14.5996
1495521696,1109.200000005,15.5792
1495521700,1102.000000005,20.5328
1495521704,1085.200000005,16.7167
1495521708,1078.000000005,14.5071
1495521712,1039.600000005,19.2473
1495521716,1109.200000005,18.0767
1495521720,1130.800000005,16.2386
1495521724,1063.600000005,15.2484
1495521728,1042.000000005,19.5605
1495521732,1068.400000005,18.2588
1495521736,1051.600000005,22.8336
1495521740,1073.200000005,20.3044
1495521744,1078.000000005,19.7631
1495521748,1032.400000005,18.1726
1495521752,1034.800000005,18.9723
1495521756,1056.400000005,22.0441
1495521760,986.800000005,22.7667
1495521764,979.600000005,22.946
1495521768,953.200000005,22.8403
1495521772,982.000000005,26.1025
1495521776,962.800000005,21.3173
1495521780,950.800000005,24.1459
1495521784,965.200000005,20.7831
1495521788,1022.800000005,20.8364
1495521792,962.800000005,23.1352
1495521796,977.200000005,21.3668
1495521800,970.000000005,21.0887
1495521804,972.400000005,19.3735
1495521808,1022.800000005,20.8203
1495521812,1001.200000005,20.5276
1495521816,994.000000005,18.0044
1495521820,994.000000005,17.4212
1495521824,946.000000005,21.7129
1495521828,938.800000005,20.6739
1495521832,919.600000005,22.1358
1495521836,886.000000005,23.514
1495521840,926.800000005,19.9924
1495521844,938.800000005,21.5251
1495521848,946.000000005,19.2432
1495521852,936.400000005,16.818
1495521856,948.400000005,14.5385
1495521860,914.800000005,15.8786
1495521864,938.800000005,16.4029
1495521868,1006.000000005,15.644
1495521872,965.200000005,17.6937
1495521876,938.800000005,18.2663
1495521880,979.600000005,13.2705
1495521884,946.000000005,17.5943
1495521888,967.600000005,16.3509
1495521892,989.200000005,22.0283
1495521896,982.000000005,22.6602
1495521900,977.200000005,17.6992
1495521904,946.000000005,21.331
1495521908,996.400000005,23.1399
1495521912,953.200000005,21.3772
1495521916,1010.800000005,19.4897
1495521920,912.400000005,21.9794
1495521924,965.200000005,16.8162
1495521928,1001.200000005,17.0882
1495521932,979.600000005,18.7042
1495521936,972.400000005,17.1175
1495521940,962.800000005,21.4142
1495521944,919.600000005,23.4593
1495521948,926.800000005,23.7142
1495521952,955.600000005,23.7774
1495521956,926.800000005,20.2114
1495521960,890.800000005,22.054
1495521964,955.600000005,20.7269
1495521968,912.400000005,19.1411
1495521972,919.600000005,22.2538
1495521976,953.200000005,19.3393
1495521980,924.400000005,19.6072
1495521984,922.000000005,21.8172
1495521988,941.200000005,21.9195
1495521992,948.400000005,25.531
1495521996,910.000000005,22.5384
1495522000,970.000000005,23.0658
1495522004,955.600000005,23.1327
1495522008,905.200000005,18.3708
1495522012,886.000000005,18.5236
1495522016,986.800000005,18.8916
1495522020,912.400000005,15.1562
1495522024,898.000000005,22.0222
1495522028,895.600000005,25.2145
1495522032,806.800000005,24.6985
1495522036,902.800000005,22.495
1495522040,910.000000005,23.3483
1495522044,878.800000005,23.2126
1495522048,912.400000005,18.9201
1495522052,941.200000005,20.6561
1495522056,924.400000005,21.3848
1495522060,967.600000005,23.6945
1495522064,984.400000005,20.6159
1495522068,912.400000005,18.1097
1495522072,958.000000005,21.8402
1495522076,905.200000005,23.5574
1495522080,917.200000005,21.52
1495522084,960.400000005,20.7233
1495522088,946.000000005,24.9647
1495522092,953.200000005,23.0578
1495522096,919.600000005,24.8835
1495522100,876.400000005,22.4378
1495522104,943.600000005,24.5431
1495522108,895.600000005,21.543
1495522112,922.000000005,22.1889
1495522116,902.800000005,21.6176
1495522120,900.400000005,20.7688
1495522124,950.800000005,20.6786
1495522128,958.000000005,21.7752
1495522132,953.200000005,16.2543
1495522136,936.400000005,12.9995
1495522140,946.000000005,13.5693
1495522144,1018.000000005,14.0319
1495522148,1046.800000005,16.0789
1495522152,1046.800000005,16.823
1495522156,1080.400000005,19.0377
1495522160,1128.400000005,19.3865
1495522164,1138.000000005,15.8197
1495522168,1070.800000005,23.798
1495522172,1073.200000005,20.0485
1495522176,1118.800000005,20.6655
1495522180,1128.400000005,16.9711
1495522184,1123.600000005,20.5356
1495522188,1114.000000005,21.5766
1495522192,1133.200000005,24.2072
1495522196,1092.400000005,18.8008
1495522200,1183.600000005,23.0337
1495522204,1109.200000005,15.6612
1495522208,1126.000000005,24.1173
1495522212,1073.200000005,20.7884
1495522216,1169.200000005,20.0078
1495522220,1147.600000005,20.036
1495522224,1126.000000005,19.0524
1495522228,1118.800000005,26.9445
1495522232,1111.600000005,22.5602
1495522236,1145.200000005,22.3503
1495522240,1114.000000005,21.3264
1495522244,1104.400000005,21.8807
1495522248,1061.200000005,19.6631
1495522252,1114.000000005,21.9395
1495522256,1051.600000005,20.83
1495522260,1075.600000005,21.5953
1495522264,1116.400000005,22.1061
1495522268,1063.600000005,23.8681
1495522272,1121.200000005,25.0124
1495522276,1085.200000005,25.5332
1495522280,1061.200000005,23.0742
1495522284,1106.800000005,23.1658
1495522288,1106.800000005,23.3384
1495522292,1121.200000005,21.1424
1495522296,1097.200000005,16.6848
1495522300,1130.800000005,21.0503
1495522304,1114.000000005,22.8983
1495522308,1121.200000005,22.9116
1495522312,1106.800000005,21.8627
1495522316,1116.400000005,19.3876
1495522320,1049.200000005,20.1188
1495522324,1015.600000005,16.205
1495522328,1049.200000005,17.8988
1495522332,1068.400000005,18.9293
1495522336,989.200000005,19.7914
1495522340,1018.000000005,21.3342
1495522344,974.800000005,25.8384
1495522348,936.400000005,22.2003
1495522352,982.000000005,21.4039
1495522356,1042.000000005,21.2336
1495522360,986.800000005,24.6755
1495522364,1032.400000005,25.6972
1495522368,1027.600000005,21.35
1495522372,1032.400000005,21.4015
1495522376,1056.400000005,20.4178
1495522380,1022.800000005,22.5539
1495522384,1032.400000005,24.8959
1495522388,1039.600000005,20.1517
1495522392,1015.600000005,22.0656
1495522396,989.200000005,17.4814
1495522400,1034.800000005,22.3893
1495522404,996.400000005,22.2321
1495522408,1006.000000005,21.4517
1495522412,1015.600000005,18.3745
1495522416,998.800000005,18.9616
1495522420,919.600000005,21.1678
1495522424,982.000000005,22.5807
1495522428,890.800000005,18.7475
1495522432,931.600000005,20.715
1495522436,917.200000005,15.4808
1495522440,898.000000005,22.4001
1495522444,914.800000005,22.4622
1495522448,912.400000005,21.9936
1495522452,919.600000005,20.3762
1495522456,919.600000005,19.4529
1495522460,946.000000005,22.021
1495522464,905.200000005,16.2854
1495522468,941.200000005,16.4591
1495522472,926.800000005,21.3906
1495522476,929.200000005,21.5569
1495522480,955.600000005,22.2159
1495522484,936.400000005,23.3878
1495522488,922.000000005,19.7609
1495522492,922.000000005,22.828
1495522496,912.400000005,28.4354
1495522500,965.200000005,21.8148
1495522504,943.600000005,18.8444
1495522508,946.000000005,23.0869
1495522512,950.800000005,28.7411
1495522516,917.200000005,20.5207
1495522520,905.200000005,21.7518
1495522524,962.800000005,16.1732
1495522528,943.600000005,18.3172
1495522532,912.400000005,17.3346
1495522536,1003.600000005,18.4055
1495522540,900.400000005,18.2931
1495522544,922.000000005,23.3518
1495522548,996.400000005,21.4071
1495522552,890.800000005,20.8184
1495522556,890.800000005,16.7053
1495522560,934.000000005,21.739
1495522564,914.800000005,23.7947
1495522568,898.000000005,20.149
1495522572,965.200000005,20.3816
1495522576,922.000000005,22.5496
1495522580,898.000000005,23.0621
1495522584,996.400000005,21.737
1495522588,998.800000005,21.736
1495522592,1034.800000005,24.125
1495522596,1030.000000005,18.144
1495522600,1054.000000005,24.9719
1495522604,1039.600000005,18.1076
1495522608,1121.200000005,18.1071
1495522612,1051.600000005,20.2269
1495522616,1046.800000005,22.675
1495522620,1018.000000005,14.4792
1495522624,1025.200000005,15.8003
1495522628,1070.800000005,17.6337
1495522632,1008.400000005,20.1143
1495522636,996.400000005,13.2845
1495522640,1006.000000005,12.7538
1495522644,1015.600000005,19.1365
1495522648,1039.600000005,14.1923
1495522652,1025.200000005,11.4752
1495522656,1037.200000005,14.336
1495522660,1061.200000005,12.2431
1495522664,1020.400000005,17.6583
1495522668,1010.800000005,19.6662
1495522672,1013.200000005,17.1846
1495522676,941.200000005,18.1802
1495522680,998.800000005,21.1998
1495522684,1006.000000005,20.9081
1495522688,948.400000005,20.7482
1495522692,970.000000005,19.5826
1495522696,943.600000005,19.962
1495522700,958.000000005,25.1574
1495522704,953.200000005,19.3374
1495522708,941.200000005,21.4707
1495522712,977.200000005,16.2656
1495522716,1010.800000005,17.1785
1495522720,1056.400000005,22.0839
1495522724,1061.200000005,16.7097
1495522728,1087.600000005,23.3123
1495522732,1056.400000005,17.9456
1495522736,1056.400000005,20.7045
1495522740,1061.200000005,15.7687
1495522744,1034.800000005,21.8126
1495522748,1020.400000005,18.5294
1495522752,994.000000005,25.484
1495522756,1056.400000005,22.4235
1495522760,1054.000000005,24.3086
1495522764,974.800000005,19.4891
1495522768,1015.600000005,15.83
1495522772,1044.400000005,20.7307
1495522776,1061.200000005,17.5394
1495522780,1070.800000005,19.0083
1495522784,977.200000005,17.8101
1495522788,994.000000005,14.8461
1495522792,1056.400000005,15.1328
1495522796,1042.000000005,16.5544
1495522800,1025.200000005,13.4254
1495522804,1058.800000005,14.4514
1495522808,984.400000005,18.0438
1495522812,1020.400000005,15.8199
1495522816,1049.200000005,17.1016
1495522820,1044.400000005,17.0991
1495522824,1010.800000005,22.1554
1495522828,1054.000000005,16.8913
1495522832,979.600000005,19.0126
1495522836,1013.200000005,11.4887
1495522840,1039.600000005,16.7448
1495522844,1025.200000005,18.4267
1495522848,982.000000005,14.7833
1495522852,1008.400000005,19.1929
1495522856,950.800000005,16.7314
1495522860,960.400000005,16.6433
1495522864,943.600000005,11.8267
1495522868,926.800000005,14.3551
1495522872,982.000000005,16.0576
1495522876,1030.000000005,15.0844
1495522880,1142.800000005,15.8201
1495522884,1198.000000005,14.7057
1495522888,1123.600000005,17.577
1495522892,1128.400000005,15.6136
1495522896,1061.200000005,18.2514
1495522900,1078.000000005,16.8063
1495522904,1078.000000005,17.9242
1495522908,1130.800000005,19.3275
1495522912,1133.200000005,23.0748
1495522916,1181.200000005,14.7116
1495522920,1166.800000005,21.4962
1495522924,1116.400000005,18.282
1495522928,1166.800000005,20.5626
1495522932,1070.800000005,19.8913
1495522936,1135.600000005,16.1688
1495522940,1135.600000005,18.3687
1495522944,1118.800000005,18.2977
1495522948,1097.200000005,21.4136
1495522952,1140.400000005,20.6493
1495522956,1073.200000005,16.6825
1495522960,1140.400000005,16.6353
1495522964,1104.400000005,16.7291
1495522968,1049.200000005,19.1981
1495522972,1128.400000005,16.9629
1495522976,1073.200000005,21.1788
1495522980,1051.600000005,18.4088
1495522984,1061.200000005,19.7747
1495522988,1039.600000005,19.6896
1495522992,1073.200000005,18.5459
1495522996,1066.000000005,21.1109
1495523000,1058.800000005,25.1363
1495523004,1073.200000005,21.2776
1495523008,1063.600000005,20.1797
1495523012,1046.800000005,23.081
1495523016,1085.200000005,21.6468
1495523020,1102.000000005,18.9794
1495523024,1092.400000005,19.6788
1495523028,1092.400000005,18.4585
1495523032,1070.800000005,23.8099
1495523036,1099.600000005,17.979
1495523040,1102.000000005,18.2248
1495523044,1061.200000005,19.0615
1495523048,1054.000000005,22.4072
1495523052,1061.200000005,21.0608
1495523056,1044.400000005,21.9684
1495523060,1039.600000005,20.7069
1495523064,1058.800000005,17.7263
1495523068,1111.600000005,16.9319
1495523072,1070.800000005,20.356
1495523076,1049.200000005,21.0338
1495523080,1056.400000005,19.9406
1495523084,1056.400000005,22.7506
1495523088,1078.000000005,20.6173
1495523092,1058.800000005,20.4752
1495523096,1051.600000005,24.9846
1495523100,1075.600000005,21.459
1495523104,1013.200000005,26.1568
1495523108,1034.800000005,19.9543
1495523112,1039.600000005,22.8444
1495523116,1042.000000005,20.9952
1495523120,972.400000005,19.5099
1495523124,991.600000005,22.0341
1495523128,977.200000005,18.8054
1495523132,1058.800000005,19.9165
1495523136,1039.600000005,20.7019
1495523140,1049.200000005,20.3657
1495523144,1051.600000005,21.6545
1495523148,972.400000005,20.7826
1495523152,1044.400000005,23.8776
1495523156,1061.200000005,23.902
1495523160,1022.800000005,21.2046
1495523164,1061.200000005,17.6432
1495523168,1042.000000005,21.1545
1495523172,1049.200000005,21.9373
1495523176,1058.800000005,20.0466
1495523180,1034.800000005,19.1818
1495523184,989.200000005,19.3832
1495523188,1049.200000005,15.4294
1495523192,1008.400000005,21.3506
1495523196,965.200000005,17.8603
1495523200,1022.800000005,20.0864
1495523204,974.800000005,16.653
1495523208,1015.600000005,19.0907
1495523212,979.600000005,20.0003
1495523216,960.400000005,22.1624
1495523220,977.200000005,22.4434
1495523224,922.000000005,26.251
1495523228,929.200000005,17.3041
1495523232,926.800000005,25.4435
1495523236,902.800000005,22.177
1495523240,936.400000005,20.362
1495523244,994.000000005,23.0285
1495523248,934.000000005,15.3116
1495523252,931.600000005,23.1125
1495523256,941.200000005,21.9043
1495523260,948.400000005,19.9397
1495523264,1022.800000005,20.8567
1495523268,948.400000005,21.3085
1495523272,1051.600000005,19.0252
1495523276,998.800000005,22.698
1495523280,1013.200000005,21.6531
1495523284,1003.600000005,18.7915
1495523288,1003.600000005,23.9631
1495523292,1006.000000005,22.839
1495523296,1056.400000005,21.8471
1495523300,1030.000000005,17.9506
1495523304,1046.800000005,16.9712
1495523308,979.600000005,21.0042
1495523312,955.600000005,22.0364
1495523316,984.400000005,21.5582
1495523320,910.000000005,19.3323
1495523324,958.000000005,19.1901
1495523328,924.400000005,18.7032
1495523332,958.000000005,25.5062
1495523336,938.800000005,19.8674
1495523340,934.000000005,26.8658
1495523344,996.400000005,24.6942
1495523348,1022.800000005,25.21
1495523352,929.200000005,23.9798
1495523356,979.600000005,22.6612
1495523360,941.200000005,20.9073
1495523364,943.600000005,22.4334
1495523368,974.800000005,22.6352
1495523372,931.600000005,21.0335
1495523376,948.400000005,19.8339
1495523380,1030.000000005,21.6637
1495523384,941.200000005,17.7599
1495523388,991.600000005,22.8895
1495523392,1042.000000005,22.0027
1495523396,1039.600000005,18.619
1495523400,1025.200000005,21.1355
1495523404,1034.800000005,19.5488
1495523408,1044.400000005,24.2023
1495523412,1022.800000005,15.471
1495523416,986.800000005,23.926
1495523420,1039.600000005,20.1147
1495523424,1025.200000005,17.6755
1495523432,1042.000000005,20.4467
1495523436,1042.000000005,22.3208
1495523440,1046.800000005,22.097
1495523444,1075.600000005,18.905
1495523448,1049.200000005,20.9052
1495523452,1044.400000005,18.5959
1495523456,1042.000000005,24.2795
1495523460,1034.800000005,23.9456
1495523464,1046.800000005,22.4249
1495523468,1037.200000005,18.4747
1495523472,1008.400000005,21.8995
1495523476,1032.400000005,18.3614
1495523480,1006.000000005,21.733
1495523484,965.200000005,21.6917
1495523488,998.800000005,22.852
1495523492,919.600000005,17.0473
1495523496,946.000000005,16.0526
1495523500,929.200000005,16.7853
1495523504,936.400000005,22.4132
1495523508,955.600000005,19.0955
1495523512,931.600000005,17.257
1495523516,1044.400000005,22.3376
1495523520,1128.400000005,16.9926
1495523524,1190.800000005,20.7604
1495523528,1140.400000005,17.1795
1495523532,1150.000000005,19.0494
1495523536,1123.600000005,21.1718
1495523540,1104.400000005,16.8153
1495523544,1054.000000005,20.7076
1495523548,1037.200000005,15.2682
1495523552,946.000000005,18.7876
1495523556,1037.200000005,18.36
1495523560,1015.600000005,19.8945
1495523564,929.200000005,21.5834
1495523568,931.600000005,17.0478
1495523572,941.200000005,17.9402
1495523576,926.800000005,16.5539
1495523580,991.600000005,20.4101
1495523584,1015.600000005,22.4494
1495523588,1032.400000005,18.2489
1495523592,1001.200000005,21.9608
1495523596,955.600000005,18.5325
1495523600,986.800000005,21.7878
1495523604,914.800000005,13.6312
1495523608,953.200000005,18.3293
1495523612,998.800000005,17.5436
1495523616,929.200000005,17.3473
1495523620,979.600000005,17.1645
1495523624,1015.600000005,19.59
1495523628,1042.000000005,19.3426
1495523632,1020.400000005,15.2967
1495523636,996.400000005,14.3646
1495523640,1025.200000005,23.6215
1495523644,936.400000005,21.3917
1495523648,1037.200000005,20.2476
1495523652,905.200000005,16.0565
1495523656,888.400000005,19.6411
1495523660,946.000000005,21.2355
1495523664,986.800000005,21.9313
1495523668,931.600000005,18.9164
1495523672,953.200000005,23.2873
1495523676,936.400000005,23.6265
1495523680,965.200000005,21.2446
1495523684,943.600000005,21.4662
1495523688,950.800000005,18.0752
1495523692,931.600000005,19.1634
1495523696,926.800000005,16.462
1495523700,955.600000005,20.8258
1495523704,898.000000005,16.23
1495523708,924.400000005,18.0317
1495523712,953.200000005,23.4313
1495523716,917.200000005,19.0165
1495523720,998.800000005,20.9864
1495523724,1003.600000005,20.5757
1495523728,998.800000005,21.6977
1495523732,1032.400000005,20.7759
1495523736,936.400000005,17.049
1495523740,1010.800000005,20.4064
1495523744,1034.800000005,20.382
1495523748,970.000000005,20.4209
1495523752,1015.600000005,17.0107
1495523756,1008.400000005,18.4004
1495523760,1056.400000005,20.5437
1495523764,1032.400000005,17.9025
1495523768,1020.400000005,19.3595
1495523772,1049.200000005,18.5481
1495523776,1030.000000005,16.8304
1495523780,1063.600000005,19.3526
1495523784,1051.600000005,13.9423
1495523788,1058.800000005,15.9957
1495523792,1092.400000005,18.1274
1495523796,1042.000000005,21.2664
1495523800,1092.400000005,19.8544
1495523804,1090.000000005,16.4846
1495523808,1042.000000005,19.9664
1495523812,1102.000000005,20.4703
1495523816,1068.400000005,15.7392
1495523820,1070.800000005,18.7558
1495523824,1066.000000005,21.4974
1495523828,1049.200000005,15.1896
1495523832,1094.800000005,23.1755
1495523836,1080.400000005,16.1252
1495523840,1123.600000005,20.8188
1495523844,1162.000000005,15.4972
1495523848,1138.000000005,19.5759
1495523852,1142.800000005,16.9492
1495523856,1145.200000005,15.7759
1495523860,1123.600000005,20.7485
1495523864,1118.800000005,14.5057
1495523868,1094.800000005,16.7086
1495523872,1102.000000005,20.7246
1495523876,1073.200000005,20.2197
1495523880,1068.400000005,18.7719
1495523884,1061.200000005,20.0722
1495523888,1075.600000005,18.8678
1495523892,1075.600000005,19.407
1495523896,1008.400000005,17.627
1495523900,1109.200000005,22.6817
1495523904,1054.000000005,19.1518
1495523908,1049.200000005,15.4268
1495523912,1070.800000005,19.979
1495523916,1042.000000005,19.6559
1495523920,1070.800000005,16.9423
1495523924,1058.800000005,21.2236
1495523928,1087.600000005,19.1499
1495523932,1010.800000005,23.2229
1495523936,1068.400000005,21.6799
1495523940,1056.400000005,18.5947
1495523944,1049.200000005,23.2899
1495523948,1046.800000005,19.0038
1495523952,1032.400000005,19.4761
1495523956,1006.000000005,18.8991
1495523960,1010.800000005,16.8537
1495523964,984.400000005,16.2036
1495523968,1032.400000005,15.2549
1495523972,1008.400000005,14.7841
1495523976,986.800000005,15.3927
1495523980,1030.000000005,16.1203
1495523984,1027.600000005,19.6758
1495523988,1051.600000005,17.449
1495523992,1008.400000005,20.719
1495523996,998.800000005,18.255
1495524000,1001.200000005,19.3176
1495524004,924.400000005,19.7025
1495524008,1020.400000005,18.3484
1495524012,960.400000005,20.3333
1495524016,953.200000005,21.9831
1495524020,938.800000005,19.5833
1495524024,977.200000005,22.8668
1495524028,991.600000005,17.7199
1495524032,1010.800000005,23.3239
1495524036,979.600000005,17.6517
1495524040,1032.400000005,21.2503
1495524044,946.000000005,16.7184
1495524048,994.000000005,22.6175
1495524052,922.000000005,21.1387
1495524056,919.600000005,21.3937
1495524060,910.000000005,22.4977
1495524064,910.000000005,21.4945
1495524068,883.600000005,21.255
1495524072,902.800000005,18.7806
1495524076,931.600000005,21.5503
1495524080,929.200000005,16.9833
1495524084,965.200000005,21.1799
1495524088,948.400000005,26.6534
1495524092,1008.400000005,25.4301
1495524096,1013.200000005,22.9335
1495524100,953.200000005,23.0439
1495524104,1001.200000005,23.5597
1495524108,1022.800000005,21.8823
1495524112,1037.200000005,17.2919
1495524116,1022.800000005,18.1655
1495524120,1037.200000005,17.7537
1495524124,1058.800000005,19.6264
1495524128,1044.400000005,20.2317
1495524132,1039.600000005,22.1007
1495524136,979.600000005,24.0917
1495524140,1003.600000005,20.3904
1495524144,960.400000005,22.2945
1495524148,938.800000005,17.4506
1495524152,922.000000005,26.494
1495524156,886.000000005,19.9265
1495524160,984.400000005,24.3661
1495524164,931.600000005,23.4827
1495524168,960.400000005,18.6753
1495524172,965.200000005,17.3525
1495524176,958.000000005,22.6391
1495524180,984.400000005,18.7685
1495524184,931.600000005,22.3264
1495524188,998.800000005,17.0758
1495524192,922.000000005,18.4625
1495524196,926.800000005,20.3038
1495524200,1010.800000005,15.656
1495524204,924.400000005,17.6368
1495524208,970.000000005,17.9407
1495524212,974.800000005,21.4032
1495524216,958.000000005,19.7972
1495524220,986.800000005,20.2591
1495524224,974.800000005,17.2356
1495524228,955.600000005,20.1671
1495524232,984.400000005,18.9699
1495524236,1003.600000005,16.5103
1495524240,1010.800000005,19.1201
1495524244,1001.200000005,16.2292
1495524248,955.600000005,23.1695
1495524252,960.400000005,19.4197
1495524256,946.000000005,24.298
1495524260,1018.000000005,20.3733
1495524264,1006.000000005,19.2393
1495524268,1003.600000005,17.0561
1495524272,1001.200000005,18.105
1495524276,941.200000005,23.1016
1495524280,994.000000005,19.1351
1495524284,941.200000005,18.2023
1495524288,938.800000005,19.8758
1495524292,914.800000005,21.9316
1495524296,931.600000005,19.9375
1495524300,907.600000005,21.9209
1495524304,946.000000005,21.6136
1495524308,919.600000005,18.9384
1495524312,893.200000005,22.234
1495524316,972.400000005,20.0568
1495524320,955.600000005,20.6654
1495524324,984.400000005,17.7019
1495524328,946.000000005,19.814
1495524332,941.200000005,20.4253
1495524336,914.800000005,17.0942
1495524340,958.000000005,20.6323
1495524344,914.800000005,22.3508
1495524348,905.200000005,21.0436
1495524352,924.400000005,18.8419
1495524356,912.400000005,19.7239
1495524360,924.400000005,23.3074
1495524364,917.200000005,19.5864
1495524368,895.600000005,19.9848
1495524372,960.400000005,18.784
1495524376,922.000000005,19.2622
1495524380,895.600000005,19.0514
1495524384,970.000000005,21.0513
1495524388,914.800000005,21.22
1495524392,919.600000005,21.5045
1495524396,929.200000005,22.2547
1495524400,948.400000005,19.2845
1495524404,943.600000005,17.9634
1495524408,864.400000005,19.2216
1495524412,946.000000005,19.7883
1495524416,936.400000005,20.4425
1495524420,905.200000005,22.9551
1495524424,881.200000005,20.0689
1495524428,910.000000005,18.4852
1495524432,941.200000005,18.0053
1495524436,898.000000005,15.1263
1495524440,953.200000005,20.1393
1495524444,888.400000005,16.4304
1495524448,912.400000005,18.514
1495524452,910.000000005,16.8636
1495524456,881.200000005,18.7218
1495524460,953.200000005,18.9344
1495524464,962.800000005,17.1467
1495524468,905.200000005,18.8973
1495524472,941.200000005,17.5238
1495524476,917.200000005,20.3147
1495524480,977.200000005,20.9502
1495524484,900.400000005,15.9816
1495524488,895.600000005,16.2537
1495524492,910.000000005,19.8264
1495524496,898.000000005,17.5091
1495524500,955.600000005,17.3489
1495524504,938.800000005,18.2468
1495524508,876.400000005,16.8196
1495524512,886.000000005,20.9429
1495524516,919.600000005,19.8964
1495524520,905.200000005,19.3352
1495524524,878.800000005,20.1735
1495524528,905.200000005,20.9477
1495524532,924.400000005,24.2618
1495524536,898.000000005,20.0349
1495524540,905.200000005,20.4443
1495524544,895.600000005,18.0607
1495524548,862.000000005,21.1576
1495524552,893.200000005,21.9452
1495524556,886.000000005,19.6859
1495524560,931.600000005,19.3922
1495524564,886.000000005,22.6513
1495524568,893.200000005,22.4714
1495524572,859.600000005,20.8481
1495524576,898.000000005,24.216
1495524580,869.200000005,19.7362
1495524584,890.800000005,18.0684
1495524588,886.000000005,19.3413
1495524592,900.400000005,16.4443
1495524596,874.000000005,20.8058
1495524600,900.400000005,17.7338
1495524604,881.200000005,20.0184
1495524608,890.800000005,18.2028
1495524612,902.800000005,15.8952
1495524616,888.400000005,20.3727
1495524620,878.800000005,19.7828
1495524624,898.000000005,18.4564
1495524628,902.800000005,19.1333
1495524632,876.400000005,21.9911
1495524636,866.800000005,16.4022
1495524640,874.000000005,23.1807
1495524644,866.800000005,20.0941
1495524648,878.800000005,24.3003
1495524652,898.000000005,17.5592
1495524656,902.800000005,18.0639
1495524660,893.200000005,19.1184
1495524664,886.000000005,19.1857
1495524668,910.000000005,23.1505
1495524672,900.400000005,23.4675
1495524676,931.600000005,20.6409
1495524680,914.800000005,21.6206
1495524684,912.400000005,24.3278
1495524688,890.800000005,22.5217
1495524692,919.600000005,24.1884
1495524696,898.000000005,20.7787
1495524700,864.400000005,21.6749
1495524704,910.000000005,20.8159
1495524708,890.800000005,19.6941
1495524712,907.600000005,23.179
1495524716,919.600000005,16.4118
1495524720,886.000000005,20.8196
1495524724,955.600000005,21.9839
1495524728,924.400000005,22.1363
1495524732,912.400000005,25.3974
1495524736,895.600000005,19.4707
1495524740,888.400000005,16.1655
1495524744,977.200000005,22.3248
1495524748,991.600000005,17.0972
1495524752,926.800000005,19.3177
1495524756,910.000000005,15.6402
1495524760,914.800000005,23.4142
1495524764,902.800000005,18.8399
1495524768,919.600000005,19.7901
1495524772,970.000000005,17.9448
1495524776,912.400000005,19.7519
1495524780,958.000000005,23.4897
1495524784,1001.200000005,20.8742
1495524788,950.800000005,21.9687
1495524792,946.000000005,19.8912
1495524796,943.600000005,26.5499
1495524800,948.400000005,21.7726
1495524804,958.000000005,19.1705
1495524808,998.800000005,25.0175
1495524812,977.200000005,15.7089
1495524816,1020.400000005,19.3006
1495524820,950.800000005,12.1104
1495524824,912.400000005,14.9774
1495524828,893.200000005,21.1484
1495524832,926.800000005,16.121
1495524836,886.000000005,17.9082
1495524840,948.400000005,20.8086
1495524844,986.800000005,17.0193
1495524848,946.000000005,23.026
1495524852,898.000000005,17.3844
1495524856,929.200000005,19.8474
1495524860,912.400000005,15.6417
1495524864,919.600000005,22.3836
1495524868,917.200000005,20.7881
1495524872,962.800000005,18.4057
1495524876,1022.800000005,21.5345
1495524880,991.600000005,22.1685
1495524884,934.000000005,24.9668
1495524888,1025.200000005,22.2259
1495524892,1030.000000005,20.7517
1495524896,1049.200000005,21.0768
1495524900,1051.600000005,22.6358
1495524904,1054.000000005,20.0282
1495524908,1034.800000005,17.537
1495524912,994.000000005,22.7262
1495524916,998.800000005,22.5408
1495524920,1027.600000005,17.7422
1495524924,1022.800000005,18.9005
1495524928,974.800000005,18.7349
1495524932,1051.600000005,18.0548
1495524936,948.400000005,22.1735
1495524940,960.400000005,15.6827
1495524944,1025.200000005,16.6049
1495524948,998.800000005,20.261
1495524952,1044.400000005,16.6963
1495524956,965.200000005,20.0051
1495524960,924.400000005,16.5249
1495524964,941.200000005,23.6243
1495524968,922.000000005,19.3603
1495524972,934.000000005,16.5868
1495524976,962.800000005,14.1227
1495524980,912.400000005,19.7283
1495524984,994.000000005,18.8153
1495524988,955.600000005,20.2627
1495524992,965.200000005,15.0017
1495524996,1015.600000005,18.1347
1495525000,938.800000005,19.6285
1495525004,919.600000005,17.9064
1495525008,982.000000005,17.0832
1495525012,876.400000005,23.7378
1495525016,948.400000005,16.1188
1495525020,900.400000005,18.2229
1495525024,919.600000005,21.5147
1495525028,960.400000005,19.3848
1495525032,922.000000005,20.1129
1495525036,922.000000005,19.1973
1495525040,898.000000005,20.4624
1495525044,893.200000005,16.9316
1495525048,890.800000005,19.4768
1495525052,905.200000005,21.4407
1495525056,876.400000005,20.7182
1495525060,893.200000005,17.8324
1495525064,886.000000005,19.2438
1495525068,953.200000005,20.6658
1495525072,919.600000005,19.9575
1495525076,919.600000005,21.204
1495525080,914.800000005,19.6036
1495525084,924.400000005,18.102
1495525088,941.200000005,17.2284
1495525092,955.600000005,18.432
1495525096,881.200000005,18.7933
1495525100,934.000000005,22.3459
1495525104,910.000000005,20.7971
1495525108,914.800000005,25.7877
1495525112,907.600000005,23.6373
1495525116,917.200000005,22.4321
1495525120,972.400000005,21.7701
1495525124,950.800000005,17.7447
1495525128,926.800000005,21.2653
1495525132,924.400000005,23.2241
1495525136,984.400000005,21.3032
1495525140,941.200000005,22.5009
1495525144,905.200000005,21.3184
1495525148,967.600000005,24.8366
1495525152,1008.400000005,23.0591
1495525156,936.400000005,22.7982
1495525160,950.800000005,17.8954
1495525164,946.000000005,21.4336
1495525168,938.800000005,21.8453
1495525172,1037.200000005,23.0744
1495525176,1051.600000005,23.7192
1495525180,1020.400000005,23.0017
1495525184,1063.600000005,23.165
1495525188,1042.000000005,22.3426
1495525192,1049.200000005,23.2423
1495525196,1049.200000005,17.7612
1495525200,1018.000000005,20.7742
1495525204,1058.800000005,21.3
1495525208,1063.600000005,23.8583
1495525212,1114.000000005,22.1099
1495525216,1111.600000005,17.2229
1495525220,1078.000000005,19.6783
1495525224,1097.200000005,23.7465
1495525228,1066.000000005,14.5842
1495525232,1046.800000005,20.9564
1495525236,1109.200000005,17.404
1495525240,1058.800000005,16.2072
1495525244,1030.000000005,21.1697
1495525248,1025.200000005,19.9707
1495525252,1022.800000005,22.3195
1495525256,1044.400000005,22.1111
1495525260,1094.800000005,20.134
1495525264,1027.600000005,17.8783
1495525268,1090.000000005,20.1382
1495525272,1121.200000005,18.5581
1495525276,1073.200000005,15.9925
1495525280,1130.800000005,17.4629
1495525284,1109.200000005,18.7715
1495525292,1130.800000005,20.027
1495525296,1116.400000005,17.712
1495525300,1116.400000005,14.074
1495525304,1073.200000005,16.408
1495525308,1070.800000005,15.7491
1495525312,1140.400000005,19.7011
1495525316,1114.000000005,18.3148
1495525320,1111.600000005,21.6095
1495525324,1188.400000005,21.5164
1495525328,1159.600000005,21.1424
1495525332,1121.200000005,21.8165
1495525336,1142.800000005,21.3843
1495525340,1138.000000005,21.059
1495525344,1123.600000005,23.6823
1495525348,1188.400000005,24.6393
1495525352,1133.200000005,21.8525
1495525356,1128.400000005,23.3226
1495525360,1135.600000005,17.7222
1495525364,1092.400000005,18.6874
1495525368,1116.400000005,21.3684
1495525372,1133.200000005,18.5379
1495525376,1109.200000005,18.5708
1495525380,1128.400000005,16.7564
1495525384,1058.800000005,17.5298
1495525388,1049.200000005,17.8485
1495525392,1037.200000005,17.67
1495525396,1034.800000005,20.4543
1495525400,1061.200000005,20.4001
1495525404,1020.400000005,22.9972
1495525408,1087.600000005,25.2906
1495525412,1092.400000005,20.87
1495525416,1061.200000005,20.2567
1495525420,1075.600000005,19.0614
1495525424,1046.800000005,22.9681
1495525428,1058.800000005,18.5243
1495525432,1061.200000005,19.1365
1495525436,1046.800000005,18.563
1495525440,1051.600000005,18.3036
1495525444,1063.600000005,23.2465
1495525448,1030.000000005,20.2588
1495525452,1037.200000005,19.6826
1495525456,998.800000005,19.6755
1495525460,1006.000000005,19.1892
1495525464,994.000000005,23.0316
1495525468,1013.200000005,21.3673
1495525472,972.400000005,21.162
1495525476,1010.800000005,22.3471
1495525480,917.200000005,15.8985
1495525484,910.000000005,23.3326
1495525488,926.800000005,21.0999
1495525492,914.800000005,22.23
1495525496,922.000000005,20.7994
1495525500,893.200000005,18.255
1495525504,905.200000005,22.0302
1495525508,881.200000005,19.9142
1495525512,967.600000005,22.3368
1495525516,890.800000005,22.191
1495525520,912.400000005,19.1114
1495525524,948.400000005,22.0887
1495525528,852.400000005,19.7988
1495525532,871.600000005,17.4233
1495525536,888.400000005,18.6734
1495525540,946.000000005,22.8258
1495525544,910.000000005,22.9312
1495525548,900.400000005,24.6644
1495525552,890.800000005,26.2335
1495525556,914.800000005,22.3195
1495525560,936.400000005,24.414
1495525564,929.200000005,24.0396
1495525568,989.200000005,22.0628
1495525572,919.600000005,22.3998
1495525576,905.200000005,18.1023
1495525580,938.800000005,20.7309
1495525584,910.000000005,20.0128
1495525588,900.400000005,21.4065
1495525592,946.000000005,20.5698
1495525596,989.200000005,22.9329
1495525600,977.200000005,20.2165
1495525604,1049.200000005,20.3284
1495525608,984.400000005,22.6972
1495525612,919.600000005,20.2597
1495525616,960.400000005,17.4803
1495525620,888.400000005,18.9953
1495525624,938.800000005,21.1279
1495525628,970.000000005,19.4844
1495525632,912.400000005,17.9845
1495525636,948.400000005,19.1232
1495525640,1018.000000005,22.1852
1495525644,1039.600000005,24.2001
1495525648,910.000000005,20.3626
1495525652,931.600000005,22.7456
1495525656,917.200000005,21.4135
1495525660,895.600000005,14.9312
1495525664,898.000000005,17.2819
1495525668,1006.000000005,18.4688
1495525672,948.400000005,19.7448
1495525676,931.600000005,19.2495
1495525680,982.000000005,19.7263
1495525684,895.600000005,18.62
1495525688,943.600000005,21.7224
1495525692,929.200000005,18.8287
1495525696,907.600000005,18.8109
1495525700,917.200000005,21.4964
1495525704,912.400000005,20.569
1495525708,948.400000005,21.1613
1495525712,1020.400000005,19.5753
1495525716,955.600000005,23.9829
1495525720,946.000000005,21.7195
1495525724,912.400000005,22.0579
1495525728,989.200000005,22.2458
1495525732,979.600000005,16.1869
1495525736,1032.400000005,18.3629
1495525740,1061.200000005,18.8834
1495525744,1037.200000005,19.4769
1495525748,1044.400000005,14.11
1495525752,1034.800000005,18.3439
1495525756,1063.600000005,19.0803
1495525760,1046.800000005,19.149
1495525764,1008.400000005,18.5089
1495525768,1018.000000005,21.2587
1495525772,1027.600000005,19.1705
1495525776,1010.800000005,19.0717
1495525780,977.200000005,21.4434
1495525784,962.800000005,22.8563
1495525788,929.200000005,17.4241
1495525792,953.200000005,18.3905
1495525796,962.800000005,21.4869
1495525800,1013.200000005,17.7718
1495525804,922.000000005,17.4173
1495525808,1010.800000005,20.3273
1495525812,946.000000005,17.6658
1495525816,967.600000005,16.4677
1495525820,962.800000005,16.363
1495525824,962.800000005,20.0276
1495525828,943.600000005,21.6499
1495525832,912.400000005,21.2728
1495525836,912.400000005,18.1977
1495525840,1015.600000005,20.7128
1495525844,931.600000005,20.3292
1495525848,917.200000005,19.346
1495525852,902.800000005,16.1968
1495525856,914.800000005,23.7667
1495525860,938.800000005,11.5271
1495525864,919.600000005,14.5989
1495525868,883.600000005,17.2673
1495525872,922.000000005,20.1858
1495525876,912.400000005,20.8248
1495525880,905.200000005,21.9874
1495525884,931.600000005,18.05
1495525888,926.800000005,18.0579
1495525892,929.200000005,19.3034
1495525896,888.400000005,20.5787
1495525900,950.800000005,19.9348
1495525904,943.600000005,18.0004
1495525908,926.800000005,22.4946
1495525912,989.200000005,21.9632
1495525916,919.600000005,22.8238
1495525920,941.200000005,22.6849
1495525924,977.200000005,19.1404
1495525928,902.800000005,18.8341
1495525932,962.800000005,21.0259
1495525936,986.800000005,20.7859
1495525940,1030.000000005,20.4135
1495525944,1056.400000005,18.0924
1495525948,1025.200000005,21.4527
1495525952,1046.800000005,13.4912
1495525956,1039.600000005,19.2765
1495525960,998.800000005,21.9832
1495525964,1006.000000005,23.5352
1495525968,962.800000005,23.5114
1495525972,982.000000005,20.8685
1495525976,998.800000005,24.79
1495525980,960.400000005,21.95
1495525984,922.000000005,18.5547
1495525988,936.400000005,19.8141
1495525992,936.400000005,22.0252
1495525996,914.800000005,18.4443
1495526000,898.000000005,19.5949
1495526004,929.200000005,19.9506
1495526008,958.000000005,21.7672
1495526012,936.400000005,24.4293
1495526016,936.400000005,25.221
1495526020,926.800000005,20.4575
1495526024,924.400000005,18.1266
1495526028,936.400000005,16.2204
1495526032,900.400000005,19.5727
1495526036,888.400000005,19.571
1495526040,905.200000005,21.0268
1495526044,950.800000005,13.8075
1495526048,914.800000005,18.7219
1495526052,1010.800000005,19.7167
1495526056,982.000000005,18.2513
1495526060,941.200000005,18.3841
1495526064,948.400000005,14.6418
1495526068,953.200000005,16.3052
1495526072,943.600000005,21.9071
1495526076,1032.400000005,16.5389
1495526080,962.800000005,21.8297
1495526084,989.200000005,26.7278
1495526088,1020.400000005,20.364
1495526092,989.200000005,21.815
1495526096,1020.400000005,24.5617
1495526100,958.000000005,22.8001
1495526104,977.200000005,17.0825
1495526108,989.200000005,15.386
1495526112,914.800000005,21.2824
1495526116,943.600000005,19.0246
1495526120,970.000000005,20.8604
1495526124,926.800000005,20.3333
1495526128,929.200000005,22.8138
1495526132,910.000000005,21.312
1495526136,938.800000005,18.4915
1495526140,888.400000005,21.3374
1495526144,931.600000005,23.735
1495526148,900.400000005,25.1072
1495526152,883.600000005,19.043
1495526156,907.600000005,22.4994
1495526160,917.200000005,23.8021
1495526164,922.000000005,21.0039
1495526168,914.800000005,20.4998
1495526172,893.200000005,21.2224
1495526176,895.600000005,15.7272
1495526180,898.000000005,18.3494
1495526184,900.400000005,19.5686
1495526188,917.200000005,20.0927
1495526192,905.200000005,18.4699
1495526196,950.800000005,20.3156
1495526200,874.000000005,19.3183
1495526204,890.800000005,22.5557
1495526208,900.400000005,24.0155
1495526212,886.000000005,19.5573
1495526216,886.000000005,20.3986
1495526220,890.800000005,19.5748
1495526224,857.200000005,22.6332
1495526228,893.200000005,17.005
1495526232,876.400000005,22.3248
1495526236,898.000000005,14.8749
1495526240,886.000000005,23.7604
1495526244,895.600000005,22.4539
1495526248,919.600000005,18.5729
1495526252,866.800000005,21.257
1495526256,914.800000005,16.6826
1495526260,869.200000005,15.4767
1495526264,895.600000005,13.908
1495526268,955.600000005,19.4134
1495526272,900.400000005,22.3522
1495526276,934.000000005,21.5402
1495526280,910.000000005,27.4056
1495526284,910.000000005,22.1741
1495526288,962.800000005,20.7276
1495526292,958.000000005,20.844
1495526296,910.000000005,17.7988
1495526300,924.400000005,20.3775
1495526304,922.000000005,19.6467
1495526308,919.600000005,25.1203
1495526312,900.400000005,20.6043
1495526316,948.400000005,20.5804
1495526320,924.400000005,21.2459
1495526324,905.200000005,23.5936
1495526328,917.200000005,20.0858
1495526332,905.200000005,20.6065
1495526336,919.600000005,23.6371
1495526340,905.200000005,18.0434
1495526344,910.000000005,17.1393
1495526348,912.400000005,19.6986
1495526352,931.600000005,18.7703
1495526356,919.600000005,20.5852
1495526360,931.600000005,20.4571
1495526364,900.400000005,23.512
1495526368,886.000000005,22.0787
1495526372,914.800000005,17.0613
1495526376,842.800000005,19.4893
1495526380,938.800000005,19.6567
1495526384,890.800000005,23.4083
1495526388,881.200000005,17.9127
1495526392,907.600000005,15.3752
1495526396,854.800000005,19.0959
1495526400,895.600000005,18.6274
1495526404,902.800000005,20.9883
1495526408,912.400000005,17.8638
1495526412,898.000000005,21.686
1495526416,917.200000005,17.0397
1495526420,898.000000005,21.647
1495526424,890.800000005,22.8636
1495526428,902.800000005,23.1533
1495526432,910.000000005,21.7721
1495526436,910.000000005,17.7099
1495526440,922.000000005,24.5803
1495526444,890.800000005,21.553
1495526448,893.200000005,25.4358
1495526452,946.000000005,21.648
1495526456,905.200000005,25.4538
1495526460,895.600000005,24.1028
1495526464,931.600000005,21.7579
1495526468,900.400000005,20.6481
1495526472,938.800000005,24.4297
1495526476,926.800000005,20.8158
1495526480,886.000000005,21.9827
1495526484,934.000000005,19.0945
1495526488,898.000000005,18.9545
1495526492,888.400000005,21.6962
1495526496,917.200000005,17.6363
1495526500,898.000000005,16.4199
1495526504,958.000000005,16.4764
1495526508,881.200000005,17.2663
1495526512,878.800000005,16.578
1495526516,910.000000005,20.8811
1495526520,902.800000005,23.3552
1495526524,888.400000005,21.647
1495526528,878.800000005,20.199
1495526532,910.000000005,18.5769
1495526536,869.200000005,17.684
1495526540,907.600000005,18.5242
1495526544,972.400000005,21.7522
1495526548,869.200000005,19.1855
1495526552,900.400000005,19.9921
1495526556,938.800000005,19.7016
1495526560,948.400000005,21.6634
1495526564,898.000000005,21.22
1495526568,900.400000005,23.7852
1495526572,912.400000005,21.8622
1495526576,924.400000005,21.2736
1495526580,912.400000005,25.4053
1495526584,914.800000005,23.5014
1495526588,922.000000005,26.1208
1495526592,898.000000005,22.6237
1495526596,919.600000005,26.1881
1495526600,967.600000005,24.0083
1495526604,912.400000005,21.5216
1495526608,970.000000005,21.9089
1495526612,991.600000005,22.3232
1495526616,917.200000005,24.3766
1495526620,1018.000000005,21.0054
1495526624,960.400000005,24.2754
1495526628,1030.000000005,16.3085
1495526632,953.200000005,20.3511
1495526636,996.400000005,21.5477
1495526640,970.000000005,20.9714
1495526644,967.600000005,21.9821
1495526648,950.800000005,21.0188
1495526652,986.800000005,19.845
1495526656,1039.600000005,19.7624
1495526660,1027.600000005,20.5995
1495526664,914.800000005,20.7536
1495526668,986.800000005,20.663
1495526672,962.800000005,20.9195
1495526676,924.400000005,22.5027
1495526680,946.000000005,21.0049
1495526684,910.000000005,22.0932
1495526688,948.400000005,21.4326
1495526692,953.200000005,18.2768
1495526696,958.000000005,18.6619
1495526700,970.000000005,17.7062
1495526704,974.800000005,23.441
1495526708,917.200000005,19.9459
1495526712,912.400000005,22.7756
1495526716,910.000000005,16.7424
1495526720,936.400000005,21.4538
1495526724,895.600000005,22.8053
1495526728,936.400000005,16.9946
1495526732,936.400000005,17.0826
1495526736,919.600000005,19.1733
1495526740,931.600000005,20.814
1495526744,905.200000005,23.9586
1495526748,912.400000005,20.5487
1495526752,910.000000005,23.2127
1495526756,871.600000005,20.6461
1495526760,938.800000005,18.1227
1495526764,929.200000005,18.3497
1495526768,955.600000005,18.6096
1495526772,1006.000000005,17.5495
1495526776,898.000000005,21.8874
1495526780,943.600000005,18.4411
1495526784,938.800000005,17.8368
1495526788,917.200000005,22.1708
1495526792,948.400000005,26.0313
1495526796,972.400000005,18.6256
1495526800,917.200000005,21.9062
1495526804,955.600000005,19.8539
1495526808,910.000000005,20.2543
1495526812,895.600000005,21.6771
1495526816,946.000000005,24.647
1495526820,929.200000005,19.7583
1495526824,982.000000005,23.8679
1495526828,948.400000005,22.5581
1495526832,886.000000005,21.3468
1495526836,929.200000005,21.3636
1495526840,919.600000005,23.6785
1495526844,902.800000005,25.204
1495526848,955.600000005,21.2587
1495526852,960.400000005,22.5297
1495526856,1020.400000005,19.6825
1495526860,926.800000005,22.5387
1495526864,946.000000005,18.3073
1495526868,1020.400000005,19.69
1495526872,912.400000005,19.3563
1495526876,1020.400000005,18.7229
1495526880,1008.400000005,21.8152
1495526884,1001.200000005,20.5459
1495526888,998.800000005,22.4212
1495526892,912.400000005,16.0495
1495526896,936.400000005,18.0568
1495526900,934.000000005,17.384
1495526904,936.400000005,22.1283
1495526908,955.600000005,23.2332
1495526912,917.200000005,18.9783
1495526916,946.000000005,20.4134
1495526920,926.800000005,20.361
1495526924,938.800000005,25.9751
1495526928,938.800000005,18.9794
1495526932,936.400000005,20.5429
1495526936,905.200000005,17.9161
1495526940,924.400000005,20.8337
1495526944,910.000000005,21.0363
1495526948,967.600000005,23.3662
1495526952,974.800000005,19.2923
1495526956,886.000000005,19.6208
1495526960,955.600000005,21.5945
1495526964,890.800000005,17.7097
1495526968,946.000000005,17.402
1495526972,929.200000005,21.2988
1495526976,938.800000005,19.0505
1495526980,912.400000005,18.1206
1495526984,936.400000005,19.7162
1495526988,881.200000005,21.9576
1495526992,958.000000005,22.1899
1495526996,924.400000005,22.5796
1495527000,960.400000005,18.9487
1495527004,902.800000005,24.7621
1495527008,914.800000005,24.2882
1495527012,970.000000005,23.3659
1495527016,950.800000005,21.5909
1495527020,941.200000005,21.4653
1495527024,982.000000005,21.6666
1495527028,946.000000005,25.3308
1495527032,1020.400000005,19.9997
1495527036,1006.000000005,24.2494
1495527040,1001.200000005,26.0283
1495527044,998.800000005,23.6401
1495527048,1027.600000005,21.8139
1495527052,1003.600000005,26.262
1495527056,1054.000000005,22.7674
1495527060,1003.600000005,17.8658
1495527064,1044.400000005,18.2203
1495527068,1027.600000005,19.7635
1495527072,1006.000000005,21.7575
1495527076,994.000000005,17.5442
1495527080,1025.200000005,22.9174
1495527084,1039.600000005,23.5258
1495527088,1063.600000005,22.8081
1495527092,953.200000005,22.5104
1495527096,1044.400000005,22.1807
1495527100,1039.600000005,23.912
1495527104,1046.800000005,21.5741
1495527108,965.200000005,21.0234
1495527112,1032.400000005,15.4229
1495527116,1046.800000005,16.7288
1495527120,1046.800000005,15.8533
1495527124,1044.400000005,18.0005
1495527128,1054.000000005,19.3684
1495527132,1058.800000005,25.8752
1495527136,953.200000005,21.6192
1495527140,1027.600000005,20.635
1495527144,1078.000000005,20.5204
1495527148,1027.600000005,24.9535
1495527152,1087.600000005,19.5163
1495527156,1056.400000005,18.9516
1495527160,1037.200000005,19.395
1495527164,1025.200000005,18.5337
1495527168,979.600000005,21.062
1495527172,996.400000005,16.3186
1495527176,1037.200000005,15.6319
1495527180,977.200000005,21.3468
1495527184,1027.600000005,18.3731
1495527188,998.800000005,18.98
1495527192,950.800000005,20.8303
1495527196,910.000000005,24.3295
1495527200,895.600000005,23.8437
1495527204,970.000000005,21.362
1495527208,905.200000005,22.574
1495527212,972.400000005,22.1591
1495527216,924.400000005,20.1885
1495527220,931.600000005,17.7186
1495527224,1001.200000005,17.6749
1495527228,965.200000005,22.5601
1495527232,919.600000005,18.804
1495527236,922.000000005,14.3568
1495527240,953.200000005,22.6375
1495527244,977.200000005,20.8693
1495527248,965.200000005,19.0078
1495527252,922.000000005,17.5931
1495527256,900.400000005,19.8678
1495527260,955.600000005,21.2368
1495527264,917.200000005,23.5512
1495527272,977.200000005,20.2754
1495527276,941.200000005,22.6482
1495527280,898.000000005,22.0865
1495527284,929.200000005,20.8275
1495527288,931.600000005,20.03
1495527292,986.800000005,21.3091
1495527296,991.600000005,15.0565
1495527300,974.800000005,18.894
1495527304,962.800000005,17.6056
1495527308,953.200000005,18.2938
1495527312,950.800000005,22.3326
1495527316,950.800000005,19.5344
1495527320,929.200000005,20.4988
1495527324,926.800000005,21.2141
1495527328,922.000000005,17.7007
1495527332,929.200000005,16.4967
1495527336,929.200000005,20.9275
1495527340,938.800000005,18.0663
1495527344,936.400000005,20.4931
1495527348,938.800000005,23.7475
1495527352,919.600000005,21.9013
1495527356,974.800000005,17.4668
1495527360,943.600000005,18.1459
1495527364,922.000000005,21.2575
1495527368,984.400000005,24.0122
1495527372,917.200000005,23.1413
1495527376,960.400000005,24.2976
1495527380,943.600000005,19.7201
1495527384,967.600000005,23.1374
1495527388,1020.400000005,23.3371
1495527392,982.000000005,26.6468
1495527396,900.400000005,21.453
1495527400,931.600000005,23.6466
1495527404,922.000000005,24.6234
1495527408,931.600000005,20.8447
1495527412,943.600000005,24.8139
1495527416,881.200000005,21.9986
1495527420,926.800000005,21.7443
1495527424,934.000000005,19.0187
1495527428,912.400000005,19.4208
1495527432,902.800000005,17.1527
1495527436,907.600000005,23.2127
1495527440,938.800000005,20.7857
1495527444,910.000000005,13.8157
1495527448,914.800000005,16.2914
1495527452,912.400000005,20.8148
1495527456,914.800000005,19.1204
1495527460,955.600000005,21.8006
1495527464,905.200000005,19.5394
1495527468,914.800000005,19.228
1495527472,917.200000005,24.4941
1495527476,888.400000005,25.1471
1495527480,900.400000005,21.66
1495527484,929.200000005,18.4443
1495527488,965.200000005,18.1487
1495527492,905.200000005,20.5445
1495527496,970.000000005,17.6333
1495527500,946.000000005,25.4682
1495527504,919.600000005,22.8211
1495527508,994.000000005,21.8234
1495527512,917.200000005,16.6167
1495527516,914.800000005,17.7316
1495527520,941.200000005,16.8059
1495527524,910.000000005,20.8639
1495527528,1034.800000005,24.0434
1495527532,1080.400000005,21.2161
1495527536,1157.200000005,21.3389
1495527540,1116.400000005,20.1735
1495527544,1118.800000005,23.1947
1495527548,1099.600000005,23.5289
1495527552,1082.800000005,22.583
1495527556,1121.200000005,19.9524
1495527560,1135.600000005,20.8324
1495527564,1068.400000005,23.5803
1495527568,1092.400000005,20.5925
1495527572,1104.400000005,22.7135
1495527576,1056.400000005,18.941
1495527580,1118.800000005,19.858
1495527584,1106.800000005,19.7559
1495527588,1138.000000005,19.7472
1495527592,1138.000000005,20.4488
1495527596,1099.600000005,17.7065
1495527600,1097.200000005,23.6089
1495527604,1058.800000005,20.2646
1495527608,1034.800000005,19.7502
1495527612,1022.800000005,19.0834
1495527616,1039.600000005,18.7515
1495527620,1056.400000005,20.7768
1495527624,1032.400000005,19.0196
1495527628,1042.000000005,17.5073
1495527632,1068.400000005,19.7336
1495527636,1056.400000005,19.8584
1495527640,1061.200000005,19.0584
1495527644,1046.800000005,19.606
1495527648,1022.800000005,19.3786
1495527652,1099.600000005,17.3618
1495527656,1056.400000005,24.2338
1495527660,1118.800000005,17.4325
1495527664,1121.200000005,20.0418
1495527668,1087.600000005,22.0003
1495527672,1104.400000005,21.6
1495527676,1118.800000005,19.7178
1495527680,1133.200000005,20.3006
1495527684,1126.000000005,20.1159
1495527688,1123.600000005,17.0128
1495527692,1090.000000005,18.2536
1495527696,1116.400000005,15.3989
1495527700,1046.800000005,19.22
1495527704,1058.800000005,19.2915
1495527708,1068.400000005,16.9531
1495527712,1078.000000005,17.9054
1495527716,1073.200000005,15.2413
1495527720,1075.600000005,18.5489
1495527724,1145.200000005,14.3197
1495527728,1111.600000005,17.9386
1495527732,1138.000000005,19.8872
1495527736,1114.000000005,22.7815
1495527740,1104.400000005,20.9638
1495527744,1080.400000005,17.1702
1495527748,1116.400000005,21.5067
1495527752,1063.600000005,20.7068
1495527756,1094.800000005,16.2478
1495527760,1109.200000005,19.0059
1495527764,1109.200000005,23.4741
1495527768,1118.800000005,14.6639
1495527772,1116.400000005,18.9381
1495527776,1123.600000005,18.8668
1495527780,1102.000000005,20.0377
1495527784,1130.800000005,22.7468
1495527788,1080.400000005,19.9241
1495527792,1087.600000005,16.4718
1495527796,1073.200000005,21.7559
1495527800,1066.000000005,21.9389
1495527804,1046.800000005,18.0052
1495527808,1037.200000005,18.2039
1495527812,1049.200000005,24.2404
1495527816,1054.000000005,15.2965
1495527820,1037.200000005,20.5378
1495527824,994.000000005,19.1533
1495527828,1032.400000005,16.2934
1495527832,998.800000005,12.9807
1495527836,1008.400000005,16.5693
1495527840,1039.600000005,19.0408
1495527844,1013.200000005,20.8346
1495527848,989.200000005,22.8984
1495527852,1032.400000005,19.9876
1495527856,1049.200000005,25.5306
1495527860,1046.800000005,22.061
1495527864,1058.800000005,22.3098
1495527868,1027.600000005,19.7223
1495527872,1039.600000005,19.9251
1495527876,1049.200000005,22.8583
1495527880,1018.000000005,24.8438
1495527884,1042.000000005,20.5212
1495527888,967.600000005,21.277
1495527892,1030.000000005,17.8728
1495527896,972.400000005,21.7652
1495527900,948.400000005,19.5199
1495527904,1006.000000005,20.4082
1495527908,1046.800000005,16.4044
1495527912,1037.200000005,21.3478
1495527916,1037.200000005,20.998
1495527920,998.800000005,22.9522
1495527924,998.800000005,18.3702
1495527928,1022.800000005,18.2726
1495527932,1003.600000005,21.2164
1495527936,982.000000005,18.7777
1495527940,1030.000000005,17.853
1495527944,1003.600000005,17.6688
1495527948,1030.000000005,19.5898
1495527952,1022.800000005,21.8676
1495527956,1039.600000005,23.1405
1495527960,1039.600000005,23.4065
1495527964,1034.800000005,23.5484
1495527968,1020.400000005,20.6478
1495527972,1046.800000005,21.9034
1495527976,1034.800000005,20.1665
1495527980,1073.200000005,15.4497
1495527984,1034.800000005,22.9606
1495527988,1051.600000005,16.8046
1495527992,1030.000000005,21.8188
1495527996,1034.800000005,19.0547
1495528000,1046.800000005,18.4355
1495528004,1082.800000005,19.9366
1495528008,1044.400000005,19.3004
1495528012,982.000000005,21.7226
1495528016,1044.400000005,20.8362
1495528020,1025.200000005,23.1342
1495528024,1015.600000005,18.6043
1495528028,982.000000005,22.1492
1495528032,986.800000005,16.0422
1495528036,1015.600000005,17.7074
1495528040,1018.000000005,19.4742
1495528044,1042.000000005,22.8867
1495528048,1001.200000005,17.5712
1495528052,1001.200000005,21.8954
1495528056,1049.200000005,17.0373
1495528060,1030.000000005,19.9569
1495528064,1049.200000005,18.368
1495528068,1015.600000005,22.0738
1495528072,1037.200000005,23.1992
1495528076,1039.600000005,21.7283
1495528080,958.000000005,27.8842
1495528084,1003.600000005,26.0412
1495528088,1013.200000005,22.1392
1495528092,1025.200000005,17.4388
1495528096,1027.600000005,22.3919
1495528100,984.400000005,22.1189
1495528104,1006.000000005,18.7268
1495528108,1008.400000005,22.094
1495528112,1068.400000005,22.9941
1495528116,1070.800000005,19.3363
1495528120,1063.600000005,20.4295
1495528124,1068.400000005,23.5115
1495528128,1063.600000005,17.8437
1495528132,1046.800000005,14.8982
1495528136,1015.600000005,17.4034
1495528140,1054.000000005,22.1758
1495528144,1037.200000005,18.5856
1495528148,1025.200000005,22.6675
1495528152,1039.600000005,18.7345
1495528156,1015.600000005,20.7432
1495528160,1022.800000005,20.3747
1495528164,1027.600000005,19.6694
1495528168,929.200000005,16.383
1495528172,979.600000005,18.5917
1495528176,998.800000005,19.5517
1495528180,974.800000005,16.2009
1495528184,970.000000005,19.9342
1495528188,977.200000005,20.4494
1495528192,1030.000000005,17.228
1495528196,974.800000005,16.6544
1495528200,1051.600000005,18.0381
1495528204,1001.200000005,18.3755
1495528208,967.600000005,20.1657
1495528212,1010.800000005,20.7107
1495528216,1006.000000005,23.2352
1495528220,972.400000005,23.484
1495528224,1058.800000005,21.4197
1495528228,1010.800000005,24.0147
1495528232,1027.600000005,21.7785
1495528236,962.800000005,19.3408
1495528240,986.800000005,20.3488
1495528244,996.400000005,18.916
1495528248,984.400000005,19.2426
1495528252,936.400000005,18.414
1495528256,1010.800000005,17.6504
1495528260,970.000000005,12.5702
1495528264,1008.400000005,17.1539
1495528268,970.000000005,15.6317
1495528272,972.400000005,19.7285
1495528276,1030.000000005,16.7033
1495528280,946.000000005,22.5302
1495528284,977.200000005,16.6884
1495528288,1027.600000005,17.6805
1495528292,910.000000005,21.0358
1495528296,962.800000005,21.9538
1495528300,986.800000005,16.7817
1495528304,922.000000005,18.2357
1495528308,931.600000005,17.0505
1495528312,982.000000005,19.1149
1495528316,907.600000005,19.7609
1495528320,958.000000005,17.6197
1495528324,953.200000005,18.3446
1495528328,943.600000005,23.2216
1495528332,938.800000005,17.53
1495528336,917.200000005,19.3
1495528340,917.200000005,16.0157
1495528344,902.800000005,22.0991
1495528348,929.200000005,22.1981
1495528352,910.000000005,22.2866
1495528356,989.200000005,21.6588
1495528360,977.200000005,20.6088
1495528364,910.000000005,14.7559
1495528368,946.000000005,19.156
1495528372,967.600000005,19.4633
1495528376,953.200000005,21.4913
1495528380,900.400000005,21.8917
1495528384,970.000000005,18.6864
1495528388,941.200000005,22.1386
1495528392,905.200000005,21.9314
1495528396,917.200000005,26.1937
1495528400,958.000000005,19.5996
1495528404,900.400000005,22.1546
1495528408,895.600000005,22.3349
1495528412,883.600000005,20.9916
1495528416,893.200000005,17.9229
1495528420,907.600000005,22.434
1495528424,890.800000005,24.3666
1495528428,950.800000005,24.8595
1495528432,977.200000005,21.8219
1495528436,893.200000005,23.1647
1495528440,946.000000005,28.0773
1495528444,881.200000005,20.255
1495528448,946.000000005,22.5198
1495528452,931.600000005,21.5819
1495528456,958.000000005,25.0064
1495528460,905.200000005,20.8863
1495528464,950.800000005,24.1935
1495528468,926.800000005,20.7033
1495528472,900.400000005,22.6829
1495528476,938.800000005,20.603
1495528480,955.600000005,20.5523
1495528484,934.000000005,19.8776
1495528488,941.200000005,21.2641
1495528492,931.600000005,21.5738
1495528496,912.400000005,19.2145
1495528500,907.600000005,17.9768
1495528504,912.400000005,27.5041
1495528508,926.800000005,22.8172
1495528512,953.200000005,22.3689
1495528516,1001.200000005,22.4678
1495528520,946.000000005,21.9802
1495528524,953.200000005,19.7886
1495528528,962.800000005,21.4795
1495528532,907.600000005,20.037
1495528536,914.800000005,22.3751
1495528540,922.000000005,22.1044
1495528544,902.800000005,25.3665
1495528548,929.200000005,20.0578
1495528552,934.000000005,22.6387
1495528556,924.400000005,20.904
1495528560,929.200000005,22.346
1495528564,917.200000005,19.4079
1495528568,910.000000005,20.5648
1495528572,895.600000005,19.8236
1495528576,1013.200000005,20.0536
1495528580,902.800000005,20.59
1495528584,912.400000005,15.366
1495528588,938.800000005,21.6893
1495528592,917.200000005,19.6998
1495528596,931.600000005,23.0299
1495528600,977.200000005,22.2221
1495528604,1006.000000005,20.5221
1495528608,1003.600000005,17.4389
1495528612,953.200000005,21.2225
1495528616,1039.600000005,15.86
1495528620,1056.400000005,23.0966
1495528624,977.200000005,24.7545
1495528628,1051.600000005,23.563
1495528632,1020.400000005,14.2161
1495528636,1082.800000005,23.412
1495528640,1027.600000005,20.5927
1495528644,1037.200000005,18.4185
1495528648,1051.600000005,19.218
1495528652,1054.000000005,19.8272
1495528656,1051.600000005,18.8393
1495528660,1027.600000005,22.7495
1495528664,1046.800000005,22.9312
1495528668,1109.200000005,22.268
1495528672,1063.600000005,25.1922
1495528676,1094.800000005,22.3897
1495528680,1061.200000005,17.2495
1495528684,1128.400000005,21.7784
1495528688,1118.800000005,20.1055
1495528692,1082.800000005,23.2881
1495528696,1121.200000005,18.2723
1495528700,1118.800000005,20.4238
1495528704,1133.200000005,21.192
1495528708,1111.600000005,18.8787
1495528712,1121.200000005,17.9722
1495528716,1080.400000005,20.7993
1495528720,1111.600000005,20.8927
1495528724,1066.000000005,21.5326
1495528728,1099.600000005,24.8671
1495528732,1198.000000005,22.3921
1495528736,1140.400000005,22.9204
1495528740,1130.800000005,20.0633
1495528744,1133.200000005,17.8746
1495528748,1070.800000005,25.0539
1495528752,1078.000000005,24.0262
1495528756,1003.600000005,20.2924
1495528760,1022.800000005,21.0021
1495528764,977.200000005,21.9284
1495528768,974.800000005,19.4954
1495528772,1020.400000005,18.0851
1495528776,1032.400000005,18.384
1495528780,1039.600000005,22.2164
1495528784,1013.200000005,17.4958
1495528788,977.200000005,19.6645
1495528792,1003.600000005,19.5559
1495528796,994.000000005,20.4518
1495528800,979.600000005,21.3609
1495528804,1010.800000005,17.8796
1495528808,962.800000005,20.5819
1495528812,1022.800000005,20.779
1495528816,974.800000005,22.8324
1495528820,1066.000000005,25.1077
1495528824,986.800000005,19.3617
1495528828,970.000000005,18.4413
1495528832,1020.400000005,19.0984
1495528836,1027.600000005,18.9991
1495528840,1001.200000005,20.6259
1495528844,1022.800000005,19.2339
1495528848,1039.600000005,21.8943
1495528852,986.800000005,18.9543
1495528856,1032.400000005,24.9978
1495528860,1032.400000005,22.0044
1495528864,1044.400000005,19.8545
1495528868,1020.400000005,15.7491
1495528872,1006.000000005,21.7982
1495528876,1039.600000005,21.1543
1495528880,1030.000000005,17.6157
1495528884,1013.200000005,18.7106
1495528888,1099.600000005,18.1392
1495528892,1056.400000005,18.5694
1495528896,1058.800000005,17.4682
1495528900,1056.400000005,20.3095
1495528904,989.200000005,24.2296
1495528908,1006.000000005,23.5925
1495528912,965.200000005,19.6678
1495528916,970.000000005,14.7233
1495528920,914.800000005,20.7324
1495528924,914.800000005,21.753
1495528928,994.000000005,18.5987
1495528932,907.600000005,21.4534
1495528936,910.000000005,21.5187
1495528940,958.000000005,22.8256
1495528944,960.400000005,20.5951
1495528948,991.600000005,23.0361
1495528952,972.400000005,22.0418
1495528956,955.600000005,19.3251
1495528960,1008.400000005,19.9084
