tag_number,delay,power_est
1490590834,-1114.5333333389,9.29863
1490590836,-1167.3333333389,8.60772
1490590838,-1186.5333333389,8.56737
1490590840,-1160.1333333389,8.591
1490590842,-1104.9333333389,9.23415
1490590844,-1176.9333333389,9.34819
1490590846,-1114.5333333389,8.80454
1490590848,-1124.1333333389,8.88935
1490590850,-1176.9333333389,8.50426
1490590852,-1174.5333333389,8.63478
1490590854,-1073.7333333389,8.51272
1490590856,-1181.7333333389,8.92131
1490590858,-1107.3333333389,8.35689
1490590860,-1076.1333333389,8.8049
1490590862,-1030.5333333389,8.79942
1490590864,-1032.9333333389,9.49471
1490590866,-975.3333333389,8.16852
1490590868,-965.7333333389,8.5143
1490590870,-970.5333333389,9.06808
1490590872,-934.5333333389,9.35699
1490590874,-939.3333333389,8.96564
1490590876,-1016.1333333389,8.66253
1490590878,-1006.5333333389,9.4284
1490590880,-994.5333333389,8.69884
1490590882,-1023.3333333389,8.7056
1490590884,-1013.7333333389,8.96735
1490590886,-1006.5333333389,9.0904
1490590888,-1068.9333333389,8.954
1490590890,-1064.1333333389,8.73687
1490590892,-1032.9333333389,8.74913
1490590894,-1090.5333333389,8.92724
1490590896,-1126.5333333389,9.18961
1490590898,-1088.1333333389,8.98561
1490590900,-1114.5333333389,8.92971
1490590902,-1100.1333333389,9.06809
1490590904,-1114.5333333389,9.53008
1490590906,-1174.5333333389,8.46523
1490590908,-1181.7333333389,9.29548
1490590910,-1181.7333333389,8.86039
1490590912,-1186.5333333389,8.96925
1490590914,-1126.5333333389,9.1452
1490590916,-1078.5333333389,8.77319
1490590918,-1172.1333333389,8.50907
1490590920,-1119.3333333389,8.6163
1490590922,-1119.3333333389,8.46586
1490590924,-1176.9333333389,8.38829
1490590926,-1097.7333333389,8.81539
1490590928,-1179.3333333389,8.46265
1490590930,-1088.1333333389,8.63272
1490590932,-1092.9333333389,8.40972
1490590934,-1080.9333333389,8.24853
1490590936,-1102.5333333389,8.56065
1490590938,-1083.3333333389,8.69337
1490590940,-1080.9333333389,8.47353
1490590942,-1088.1333333389,8.53989
1490590944,-1083.3333333389,8.5147
1490590946,-1080.9333333389,8.5653
1490590948,-1812.9333333389,8.8132
1490590950,-1088.1333333389,8.30965
1490590952,-1083.3333333389,9.12828
1490590954,-1102.5333333389,8.81962
1490590956,-1064.1333333389,8.44871
1490590958,-1061.7333333389,8.70591
1490590960,-1035.3333333389,8.5498
1490590962,-1004.1333333389,9.16789
1490590964,-1037.7333333389,8.52385
1490590966,-1006.5333333389,8.56116
1490590968,-1028.1333333389,8.83296
1490590970,-1035.3333333389,9.13508
1490590972,-1030.5333333389,8.79625
1490590974,-1080.9333333389,8.85344
1490590976,-1028.1333333389,8.75573
1490590978,-1054.5333333389,8.90396
1490590980,-1052.1333333389,9.30292
1490590982,-1013.7333333389,8.91507
1490590984,-1013.7333333389,8.89884
1490590986,-1071.3333333389,9.06508
1490590988,-1001.7333333389,9.4604
1490590990,-984.9333333389,8.91393
1490590992,-975.3333333389,9.02307
1490590994,-999.3333333389,8.5815
1490590996,-1006.5333333389,8.75581
1490590998,-1018.5333333389,8.67524
1490591000,-1059.3333333389,9.11525
1490591002,-987.3333333389,9.16593
1490591004,-1011.3333333389,9.3055
1490591006,-1011.3333333389,8.717
1490591008,-1006.5333333389,8.4847
1490591010,-1047.3333333389,8.38033
1490591012,-1064.1333333389,8.49377
1490591014,-1076.1333333389,8.72397
1490591016,-1076.1333333389,8.88725
1490591018,-1020.9333333389,8.44072
1490591020,-924.9333333389,9.00649
1490591022,-982.5333333389,8.44871
1490591024,-1018.5333333389,8.91243
1490591026,-970.5333333389,8.78872
1490591028,-1011.3333333389,8.94582
1490591030,-1016.1333333389,9.07391
1490591032,-984.9333333389,8.33234
1490591034,-1066.5333333389,8.82575
1490591036,-1083.3333333389,8.75442
1490591038,-1052.1333333389,8.73091
1490591040,-1068.9333333389,9.12731
1490591042,-1100.1333333389,9.16361
1490591044,-1064.1333333389,9.00108
1490591046,-1020.9333333389,9.2038
1490591048,-1083.3333333389,8.9834
1490591050,-1076.1333333389,8.62128
1490591052,-1073.7333333389,9.91914
1490591054,-1083.3333333389,8.69707
1490591056,-1030.5333333389,8.54039
1490591058,-1085.7333333389,9.12535
1490591060,-1090.5333333389,8.60136
1490591062,-1083.3333333389,9.2155
1490591064,-1090.5333333389,8.56537
1490591066,-1083.3333333389,8.30871
1490591068,-1023.3333333389,8.86944
1490591070,-1090.5333333389,9.15118
1490591072,-1049.7333333389,8.77639
1490591074,-1047.3333333389,8.52623
1490591076,-1016.1333333389,8.7606
1490591078,-1018.5333333389,8.67894
1490591080,-1018.5333333389,8.40755
1490591082,-1028.1333333389,8.43128
1490591084,-1071.3333333389,8.57598
1490591086,-1040.1333333389,8.36747
1490591088,-1092.9333333389,8.71064
1490591090,-1044.9333333389,8.76981
1490591092,-1049.7333333389,8.88719
1490591094,-1073.7333333389,9.25156
1490591096,-1071.3333333389,9.03163
1490591098,-1016.1333333389,8.77283
1490591100,-1085.7333333389,8.35221
1490591102,-1090.5333333389,8.43552
1490591104,-1054.5333333389,9.18997
1490591106,-1088.1333333389,8.75234
1490591108,-1080.9333333389,8.22574
1490591110,-1061.7333333389,8.68105
1490591112,-1090.5333333389,8.56153
1490591114,-1088.1333333389,8.23433
1490591116,-1121.7333333389,8.64455
1490591118,-1083.3333333389,8.92879
1490591120,-1167.3333333389,8.95719
1490591122,-1128.9333333389,9.08121
1490591124,-1119.3333333389,8.37951
1490591126,-1116.9333333389,8.67275
1490591128,-1116.9333333389,8.51779
1490591130,-1104.9333333389,9.15186
1490591132,-1164.9333333389,8.59292
1490591134,-1114.5333333389,8.76098
1490591136,-1124.1333333389,9.00487
1490591138,-1198.5333333389,9.00662
1490591140,-1100.1333333389,8.92937
1490591142,-1167.3333333389,8.70005
1490591144,-1174.5333333389,9.4068
1490591146,-1100.1333333389,8.93453
1490591148,-1097.7333333389,9.02055
1490591150,-1174.5333333389,9.13526
1490591152,-1102.5333333389,8.60576
1490591154,-1104.9333333389,9.14594
1490591156,-1100.1333333389,8.34166
1490591158,-1095.3333333389,8.70552
1490591160,-1095.3333333389,8.81529
1490591162,-1102.5333333389,8.49132
1490591164,-1032.9333333389,9.09767
1490591166,-1092.9333333389,9.29859
1490591168,-1049.7333333389,9.08007
1490591170,-1071.3333333389,8.73438
1490591172,-1044.9333333389,8.4719
1490591174,-1025.7333333389,8.53662
1490591176,-1018.5333333389,8.97927
1490591178,-1035.3333333389,8.90282
1490591180,-1025.7333333389,8.66347
1490591182,-941.7333333389,8.45863
1490591184,-1042.5333333389,8.54486
1490591186,-1068.9333333389,8.64887
1490591188,-1032.9333333389,8.75103
1490591190,-1018.5333333389,8.22696
1490591192,-953.7333333389,8.4477
1490591194,-1013.7333333389,8.6307
1490591196,-1047.3333333389,8.41097
1490591198,-1008.9333333389,8.94985
1490591200,-996.9333333389,8.43814
1490591202,-1025.7333333389,8.50558
1490591204,-1028.1333333389,8.50239
1490591206,-1032.9333333389,8.53402
1490591208,-1001.7333333389,8.55375
1490591210,-1047.3333333389,9.0352
1490591212,-1016.1333333389,9.03723
1490591214,-1059.3333333389,8.86799
1490591216,-1037.7333333389,9.40693
1490591218,-984.9333333389,8.93705
1490591220,-1080.9333333389,8.99307
1490591222,-999.3333333389,9.11542
1490591224,-1066.5333333389,8.66815
1490591226,-1025.7333333389,8.51512
1490591228,-1016.1333333389,8.87191
1490591230,-1011.3333333389,8.58682
1490591232,-1059.3333333389,8.07624
1490591234,-1078.5333333389,8.77418
1490591236,-1028.1333333389,8.90936
1490591238,-1020.9333333389,8.5612
1490591240,-1071.3333333389,8.61398
1490591242,-987.3333333389,8.74122
1490591244,-1066.5333333389,8.43876
1490591246,-1037.7333333389,8.80165
1490591248,-1011.3333333389,8.23118
1490591250,-1040.1333333389,8.7942
1490591252,-1016.1333333389,8.99534
1490591254,-1020.9333333389,9.14238
1490591256,-1092.9333333389,9.07152
1490591258,-1030.5333333389,8.78954
1490591260,-994.5333333389,8.65926
1490591262,-1080.9333333389,9.10462
1490591264,-1013.7333333389,8.91959
1490591266,-1016.1333333389,8.74058
1490591268,-1023.3333333389,8.84013
1490591270,-1020.9333333389,8.97327
1490591272,-965.7333333389,8.69609
1490591274,-1008.9333333389,8.44706
1490591276,-941.7333333389,8.51975
1490591278,-977.7333333389,8.53206
1490591280,-1028.1333333389,8.07563
1490591282,-992.1333333389,8.26606
1490591284,-1049.7333333389,8.38695
1490591286,-994.5333333389,8.33017
1490591288,-1013.7333333389,8.08351
1490591290,-1016.1333333389,8.56525
1490591292,-1025.7333333389,8.02377
1490591294,-1004.1333333389,8.57241
1490591296,-1018.5333333389,8.241
1490591298,-1011.3333333389,8.20669
1490591300,-953.7333333389,8.23553
1490591302,-968.1333333389,8.416
1490591304,-982.5333333389,7.95999
1490591306,-968.1333333389,8.70414
1490591308,-1006.5333333389,8.67727
1490591310,-1006.5333333389,8.66422
1490591312,-970.5333333389,8.86377
1490591314,-1049.7333333389,8.91485
1490591316,-1006.5333333389,8.68101
1490591318,-1078.5333333389,9.05081
1490591320,-1095.3333333389,9.04521
1490591322,-1035.3333333389,9.00161
1490591324,-1016.1333333389,9.3704
1490591326,-1064.1333333389,9.11908
1490591328,-1114.5333333389,9.51525
1490591330,-1097.7333333389,9.70579
1490591332,-1061.7333333389,9.33449
1490591334,-1088.1333333389,9.53771
1490591336,-1090.5333333389,9.31251
1490591338,-1104.9333333389,8.64657
1490591340,-1102.5333333389,8.98971
1490591342,-1083.3333333389,8.73795
1490591344,-1100.1333333389,8.72986
1490591346,-1104.9333333389,9.4528
1490591348,-1114.5333333389,8.8887
1490591350,-1114.5333333389,9.11917
1490591352,-1116.9333333389,9.33444
1490591354,-1090.5333333389,9.30104
1490591356,-1181.7333333389,9.47474
1490591358,-1181.7333333389,9.62579
1490591360,-1188.9333333389,9.56983
1490591362,-1186.5333333389,8.93491
1490591364,-1188.9333333389,9.48921
1490591366,-1104.9333333389,9.152
1490591368,-1116.9333333389,9.33521
1490591370,-1116.9333333389,9.20927
1490591372,-1092.9333333389,9.57975
1490591374,-1164.9333333389,9.16373
1490591376,-1090.5333333389,8.7864
1490591378,-1116.9333333389,8.64471
1490591380,-1085.7333333389,8.98513
1490591382,-1090.5333333389,9.04749
1490591384,-1088.1333333389,9.11528
1490591386,-1164.9333333389,9.0606
1490591388,-1052.1333333389,8.64352
1490591390,-1085.7333333389,8.92829
1490591392,-1104.9333333389,9.01976
1490591394,-1064.1333333389,9.00903
1490591396,-1085.7333333389,8.41284
1490591398,-1059.3333333389,9.06778
1490591400,-1032.9333333389,9.17747
1490591402,-1040.1333333389,8.48608
1490591404,-1080.9333333389,9.16056
1490591406,-1097.7333333389,8.36745
1490591408,-1078.5333333389,8.39497
1490591410,-1092.9333333389,8.50299
1490591412,-1076.1333333389,8.81732
1490591414,-1116.9333333389,9.56227
1490591416,-1126.5333333389,9.15685
1490591418,-1119.3333333389,9.003
1490591420,-1124.1333333389,9.1033
1490591422,-1186.5333333389,8.6341
1490591424,-1198.5333333389,8.63151
1490591426,-1191.3333333389,8.4586
1490591428,-1198.5333333389,9.08886
1490591430,-1128.9333333389,8.58602
1490591432,-1215.3333333389,8.70912
