tag_number,delay,power_est
1496600302,693.200000004,23.0981
1496600306,674.000000004,17.7075
1496600310,693.200000004,23.6784
1496600314,681.200000004,22.0687
1496600318,714.800000004,21.6317
1496600322,690.800000004,19.1602
1496600326,700.400000004,24.917
1496600330,652.400000004,18.6364
1496600334,652.400000004,13.4724
1496600338,657.200000004,21.4668
1496600342,611.600000004,19.8296
1496600346,623.600000004,21.0588
1496600350,676.400000004,19.023
1496600354,664.400000004,22.8963
1496600358,662.000000004,19.9204
1496600362,599.600000004,22.7581
1496600366,630.800000004,21.9599
1496600370,731.600000004,20.1877
1496600374,774.800000004,18.2174
1496600378,702.800000004,22.6644
1496600382,746.000000004,22.3498
1496600386,726.800000004,24.5778
1496600390,794.000000004,21.5807
1496600394,741.200000004,19.3485
1496600398,724.400000004,22.4757
1496600402,695.600000004,25.0639
1496600406,743.600000004,18.6863
1496600410,683.600000004,22.3916
1496600414,705.200000004,22.3414
1496600418,698.000000004,25.0405
1496600422,705.200000004,23.5449
1496600426,681.200000004,22.0744
1496600430,724.400000004,19.8981
1496600434,700.400000004,20.6029
1496600438,794.000000004,20.3169
1496600442,698.000000004,18.1809
1496600446,712.400000004,18.6516
1496600450,729.200000004,23.9973
1496600454,724.400000004,19.508
1496600458,760.400000004,15.0137
1496600462,734.000000004,17.9495
1496600466,808.400000004,22.6424
1496600470,741.200000004,20.2644
1496600474,736.400000004,19.1822
1496600478,736.400000004,19.2601
1496600482,700.400000004,20.4996
1496600486,731.600000004,20.0071
1496600490,707.600000004,21.1207
1496600494,774.800000004,19.2676
1496600498,758.000000004,18.8443
1496600502,722.000000004,16.409
1496600506,755.600000004,16.4554
1496600510,724.400000004,15.0867
1496600514,753.200000004,19.83
1496600518,724.400000004,18.5636
1496600522,810.800000004,23.8632
1496600526,784.400000004,19.2963
1496600530,767.600000004,24.5479
1496600534,851.600000004,23.594
1496600538,839.600000004,18.7423
1496600542,834.800000004,22.1314
1496600546,789.200000004,19.9323
1496600550,832.400000004,19.8763
1496600554,822.800000004,18.1767
1496600558,842.000000004,21.8615
1496600562,854.000000004,21.9913
1496600566,928.400000004,20.4734
1496600570,890.000000004,21.7059
1496600574,933.200000004,19.4878
1496600578,868.400000004,18.4338
1496600582,902.000000004,19.0001
1496600586,916.400000004,16.96
1496600590,1012.400000004,15.8278
1496600594,938.000000004,19.4585
1496600598,873.200000004,13.4079
1496600602,880.400000004,12.0243
1496600606,873.200000004,17.0353
1496600610,846.800000004,20.9084
1496600614,882.800000004,21.1358
1496600618,904.400000004,19.3541
1496600622,846.800000004,14.4939
1496600626,921.200000004,16.1867
1496600630,854.000000004,17.7866
1496600634,914.000000004,20.7851
1496600638,866.000000004,22.3194
1496600642,837.200000004,28.6414
1496600646,808.400000004,22.5238
1496600650,916.400000004,20.8899
1496600654,890.000000004,25.3304
1496600658,921.200000004,17.6619
1496600662,856.400000004,20.7903
1496600666,887.600000004,21.8292
1496600670,866.000000004,22.3857
1496600674,878.000000004,25.5589
1496600678,899.600000004,22.7065
1496600682,882.800000004,22.3477
1496600686,822.800000004,18.6631
1496600690,863.600000004,20.7627
1496600694,870.800000004,17.2678
1496600698,861.200000004,20.6583
1496600702,911.600000004,20.864
1496600706,916.400000004,21.7647
1496600710,914.000000004,20.9893
1496600714,933.200000004,22.2775
1496600718,897.200000004,19.2314
1496600722,897.200000004,19.3331
1496600726,870.800000004,22.1877
1496600730,839.600000004,23.4888
1496600734,899.600000004,21.4795
1496600738,846.800000004,21.9123
1496600742,882.800000004,21.912
1496600746,880.400000004,22.0838
1496600750,851.600000004,20.016
1496600754,868.400000004,21.277
1496600758,866.000000004,18.1602
1496600762,902.000000004,17.2285
1496600766,832.400000004,20.5874
1496600770,866.000000004,16.2517
1496600774,849.200000004,20.0235
1496600778,861.200000004,13.8185
1496600782,822.800000004,18.2635
1496600786,858.800000004,17.2806
1496600790,926.000000004,14.7979
1496600794,921.200000004,15.0529
1496600798,902.000000004,17.5838
1496600802,834.800000004,20.0322
1496600806,868.400000004,21.5305
1496600810,808.400000004,22.8859
1496600814,849.200000004,18.181
1496600818,842.000000004,18.8506
1496600826,851.600000004,18.0766
1496600830,839.600000004,18.883
1496600834,837.200000004,19.6171
1496600838,851.600000004,18.0367
1496600842,854.000000004,18.1
1496600846,839.600000004,22.725
1496600850,868.400000004,19.6492
1496600854,849.200000004,17.4341
1496600858,849.200000004,19.9044
1496600862,846.800000004,18.9811
1496600866,849.200000004,19.9768
1496600870,849.200000004,16.7482
1496600874,856.400000004,15.7699
1496600878,839.600000004,20.4998
1496600882,856.400000004,23.2923
1496600886,822.800000004,20.5042
1496600890,902.000000004,15.1328
1496600894,854.000000004,19.9423
1496600898,878.000000004,14.4909
1496600902,846.800000004,20.0291
1496600906,808.400000004,18.1383
1496600910,849.200000004,17.9288
1496600914,822.800000004,20.2575
1496600918,820.400000004,19.3886
1496600922,815.600000004,13.8304
1496600926,842.000000004,19.2748
1496600930,791.600000004,17.9376
1496600934,856.400000004,15.8534
1496600938,897.200000004,18.7215
1496600942,844.400000004,16.0926
1496600946,834.800000004,18.2545
1496600950,861.200000004,17.7817
1496600954,863.600000004,19.8859
1496600958,854.000000004,19.703
1496600962,839.600000004,20.9314
1496600966,863.600000004,20.9771
1496600970,904.400000004,25.3288
1496600974,820.400000004,24.1394
1496600978,846.800000004,15.049
1496600982,858.800000004,20.186
1496600986,854.000000004,24.4578
1496600990,837.200000004,21.2023
1496600994,899.600000004,19.8127
1496600998,844.400000004,21.491
1496601002,856.400000004,19.4001
1496601006,844.400000004,20.8041
1496601010,806.000000004,18.6391
1496601014,796.400000004,18.9059
1496601018,815.600000004,17.3387
1496601022,825.200000004,21.9339
1496601026,779.600000004,22.12
1496601030,798.800000004,22.8603
1496601034,798.800000004,22.1012
1496601038,810.800000004,25.0253
1496601042,846.800000004,21.3701
1496601046,868.400000004,22.5979
1496601050,906.800000004,21.0895
1496601054,873.200000004,25.6064
1496601058,921.200000004,19.1616
1496601062,890.000000004,14.4201
1496601066,873.200000004,22.759
1496601070,870.800000004,22.3666
1496601074,846.800000004,21.6136
1496601078,897.200000004,25.4944
1496601082,858.800000004,26.1377
1496601086,892.400000004,21.5989
1496601090,844.400000004,24.7414
1496601094,849.200000004,21.4916
1496601098,825.200000004,23.2951
1496601102,856.400000004,22.2211
1496601106,844.400000004,22.4996
1496601110,856.400000004,23.1126
1496601114,818.000000004,16.9455
1496601118,854.000000004,19.6283
1496601122,820.400000004,18.2761
1496601126,820.400000004,20.0352
1496601130,760.400000004,17.8761
1496601134,806.000000004,19.1744
1496601138,710.000000004,16.9276
1496601142,806.000000004,21.0494
1496601146,798.800000004,15.6693
1496601150,770.000000004,19.6187
1496601154,849.200000004,20.1684
1496601158,825.200000004,20.4121
1496601162,813.200000004,20.5435
1496601166,839.600000004,19.3194
1496601170,846.800000004,17.7937
1496601174,784.400000004,16.9619
1496601178,839.600000004,21.1432
1496601182,806.000000004,20.7341
1496601186,803.600000004,16.8939
1496601190,842.000000004,17.9853
1496601194,796.400000004,19.8267
1496601198,834.800000004,17.2096
1496601202,815.600000004,18.8888
1496601206,810.800000004,23.1663
1496601210,810.800000004,23.6369
1496601214,849.200000004,21.6172
1496601218,834.800000004,23.9269
1496601222,846.800000004,21.6747
1496601226,849.200000004,24.5005
1496601230,830.000000004,23.2161
1496601234,854.000000004,21.4303
1496601238,866.000000004,26.6648
1496601242,911.600000004,19.4047
1496601246,822.800000004,18.029
1496601250,870.800000004,20.7329
1496601254,834.800000004,18.9847
1496601258,822.800000004,21.1031
1496601262,808.400000004,22.4665
1496601266,772.400000004,23.0359
1496601270,846.800000004,20.9323
1496601274,830.000000004,17.6466
1496601278,844.400000004,19.2856
1496601282,846.800000004,20.6601
1496601286,861.200000004,24.0828
1496601290,839.600000004,21.6116
1496601294,861.200000004,21.2083
1496601298,887.600000004,21.0705
1496601302,902.000000004,22.3449
1496601306,875.600000004,20.799
1496601310,897.200000004,21.1486
1496601314,914.000000004,21.2079
1496601318,863.600000004,22.3699
1496601322,834.800000004,14.4406
1496601326,813.200000004,17.957
1496601330,820.400000004,20.4571
1496601334,837.200000004,22.3389
1496601338,842.000000004,22.9561
1496601342,863.600000004,26.7603
1496601346,832.400000004,25.3021
1496601350,858.800000004,22.8917
1496601354,820.400000004,21.8306
1496601358,849.200000004,22.481
1496601362,798.800000004,21.6389
1496601366,803.600000004,25.6578
1496601370,779.600000004,25.6026
1496601374,760.400000004,19.8533
1496601378,796.400000004,19.9489
1496601382,813.200000004,19.9017
1496601386,722.000000004,20.6996
1496601390,825.200000004,19.6828
1496601394,729.200000004,20.8506
1496601398,758.000000004,21.2799
1496601402,719.600000004,18.7047
1496601406,794.000000004,19.765
1496601410,760.400000004,21.4486
1496601414,782.000000004,19.0914
1496601418,813.200000004,17.0702
1496601422,734.000000004,17.3597
1496601426,736.400000004,19.0637
1496601430,753.200000004,18.5519
1496601434,827.600000004,20.1919
1496601438,762.800000004,16.6206
1496601442,808.400000004,20.7199
1496601446,810.800000004,19.9698
1496601450,767.600000004,19.3105
1496601454,873.200000004,20.8095
1496601458,830.000000004,21.4913
1496601462,846.800000004,19.2505
1496601466,830.000000004,16.1145
1496601470,818.000000004,22.5207
1496601474,856.400000004,21.0972
1496601478,844.400000004,22.2666
1496601482,820.400000004,20.3865
1496601486,897.200000004,18.0793
1496601490,842.000000004,17.8148
1496601494,844.400000004,15.6859
1496601498,861.200000004,15.2672
1496601502,822.800000004,21.3413
1496601506,825.200000004,14.9593
1496601510,798.800000004,19.5281
1496601514,815.600000004,20.6707
1496601518,832.400000004,22.9698
1496601522,765.200000004,18.7105
1496601526,842.000000004,21.8963
1496601530,789.200000004,19.2661
1496601534,770.000000004,23.7342
1496601538,786.800000004,22.6602
1496601542,767.600000004,23.7308
1496601546,758.000000004,11.9946
1496601550,722.000000004,19.9901
1496601554,726.800000004,23.0203
1496601558,724.400000004,22.8648
1496601562,810.800000004,24.2605
1496601566,717.200000004,27.9786
1496601570,806.000000004,22.4333
1496601574,794.000000004,26.087
1496601578,784.400000004,19.0252
1496601582,796.400000004,20.2817
1496601586,856.400000004,20.4488
1496601590,923.600000004,20.2162
1496601594,947.600000004,20.8811
1496601598,1024.400000004,21.9923
1496601602,974.000000004,17.1394
1496601606,950.000000004,16.9635
1496601610,957.200000004,16.2569
1496601614,1041.200000004,18.0863
1496601618,1043.600000004,14.6014
1496601622,1005.200000004,19.0764
1496601626,993.200000004,18.4464
1496601630,964.400000004,16.4028
1496601634,993.200000004,16.8537
1496601638,942.800000004,13.7319
1496601642,971.600000004,19.2432
1496601646,945.200000004,11.2953
1496601650,1026.800000004,19.2977
1496601654,1012.400000004,15.2407
1496601658,986.000000004,16.5772
1496601662,964.400000004,18.3263
1496601666,878.000000004,16.8786
1496601670,902.000000004,17.7746
1496601674,844.400000004,13.2297
1496601678,842.000000004,16.9188
1496601682,902.000000004,14.626
1496601686,868.400000004,20.0584
1496601690,870.800000004,16.8697
1496601694,815.600000004,18.401
1496601698,880.400000004,21.4685
1496601702,846.800000004,16.889
1496601706,818.000000004,17.4264
1496601710,820.400000004,19.6246
1496601714,774.800000004,18.6151
1496601718,842.000000004,15.9309
1496601722,779.600000004,19.9522
1496601726,820.400000004,21.1037
1496601730,784.400000004,20.0823
1496601734,765.200000004,20.1907
1496601738,736.400000004,22.1982
1496601742,789.200000004,20.0748
1496601746,767.600000004,16.271
1496601750,726.800000004,20.4627
1496601754,714.800000004,23.8906
1496601758,695.600000004,21.7787
1496601762,746.000000004,22.0472
1496601766,678.800000004,22.439
1496601770,743.600000004,24.6306
1496601774,717.200000004,22.8941
1496601778,770.000000004,21.5713
1496601782,758.000000004,24.817
1496601786,810.800000004,23.7723
1496601790,731.600000004,23.2951
1496601794,714.800000004,20.8571
1496601798,765.200000004,21.8132
1496601802,758.000000004,20.3225
1496601806,810.800000004,20.8597
1496601810,724.400000004,16.9994
1496601814,808.400000004,20.7282
1496601818,796.400000004,17.4031
1496601822,796.400000004,17.2394
1496601826,813.200000004,18.0726
1496601830,810.800000004,22.8055
1496601834,791.600000004,22.6867
1496601838,798.800000004,20.7709
1496601842,830.000000004,19.4586
1496601846,839.600000004,22.688
1496601850,909.200000004,19.6678
1496601854,851.600000004,17.3326
1496601858,909.200000004,20.5531
1496601862,904.400000004,21.2551
1496601866,904.400000004,15.246
1496601870,839.600000004,22.0675
1496601874,887.600000004,18.962
1496601878,868.400000004,20.4114
1496601882,834.800000004,19.7484
1496601886,885.200000004,17.8521
1496601890,818.000000004,13.0551
1496601894,810.800000004,20.3694
1496601898,839.600000004,15.0594
1496601902,750.800000004,19.4826
1496601906,760.400000004,23.0735
1496601910,748.400000004,21.4746
1496601914,774.800000004,19.7841
1496601918,722.000000004,21.0671
1496601922,789.200000004,17.7394
1496601926,772.400000004,20.3133
1496601930,791.600000004,17.3996
1496601934,806.000000004,23.1804
1496601938,741.200000004,25.2969
1496601942,738.800000004,22.563
1496601946,789.200000004,18.7753
1496601950,777.200000004,19.6996
1496601954,760.400000004,19.5276
1496601958,786.800000004,16.5702
1496601962,786.800000004,20.8352
1496601966,765.200000004,16.7248
1496601970,849.200000004,22.4518
1496601974,849.200000004,17.7268
1496601978,858.800000004,17.7306
1496601982,837.200000004,21.0909
1496601986,873.200000004,16.7659
1496601990,866.000000004,14.7503
1496601994,868.400000004,20.1532
1496601998,866.000000004,19.4322
1496602002,880.400000004,16.883
1496602006,858.800000004,17.984
1496602010,854.000000004,17.5374
1496602014,870.800000004,16.9844
1496602018,842.000000004,16.4134
1496602022,861.200000004,21.0631
1496602026,870.800000004,16.9015
1496602030,854.000000004,20.3824
1496602034,842.000000004,18.3861
1496602038,830.000000004,21.9816
1496602042,842.000000004,18.666
1496602046,748.400000004,19.9288
1496602050,832.400000004,18.258
1496602054,779.600000004,16.2172
1496602058,786.800000004,17.0488
1496602062,851.600000004,13.9573
1496602066,801.200000004,16.3313
1496602070,818.000000004,20.4282
1496602074,880.400000004,17.3056
1496602078,880.400000004,19.0375
1496602082,806.000000004,20.4418
1496602086,827.600000004,20.567
1496602090,842.000000004,18.0359
1496602094,851.600000004,18.7209
1496602098,806.000000004,21.0536
1496602102,786.800000004,16.2842
1496602106,803.600000004,19.1921
1496602110,746.000000004,19.8949
1496602114,820.400000004,19.0234
1496602118,750.800000004,18.9874
1496602122,798.800000004,19.4452
1496602126,726.800000004,20.9884
1496602130,798.800000004,25.7827
1496602134,851.600000004,22.7888
1496602138,803.600000004,18.8707
1496602142,870.800000004,21.2565
1496602146,861.200000004,18.7448
1496602150,870.800000004,19.7144
1496602154,875.600000004,19.1606
1496602158,878.000000004,17.3655
1496602162,935.600000004,19.8754
1496602166,928.400000004,21.0951
1496602170,935.600000004,14.3205
1496602174,909.200000004,19.0618
1496602178,894.800000004,15.3514
1496602182,858.800000004,17.4081
1496602186,899.600000004,17.707
1496602190,875.600000004,21.8717
1496602194,899.600000004,15.8896
1496602198,873.200000004,19.5512
1496602202,885.200000004,21.3561
1496602206,930.800000004,24.1622
1496602210,887.600000004,17.1302
1496602214,887.600000004,18.2543
1496602218,906.800000004,18.1262
1496602222,923.600000004,18.6937
1496602226,902.000000004,18.6154
1496602230,923.600000004,24.5083
1496602234,909.200000004,19.8804
1496602238,837.200000004,22.4088
1496602242,885.200000004,22.4735
1496602246,851.600000004,22.6292
1496602250,851.600000004,18.6156
1496602254,808.400000004,18.9917
1496602258,834.800000004,18.981
1496602262,861.200000004,19.0913
1496602266,834.800000004,17.2975
1496602270,844.400000004,18.8743
1496602274,839.600000004,20.154
1496602278,914.000000004,21.7246
1496602282,856.400000004,18.9422
1496602286,861.200000004,19.1381
1496602290,844.400000004,16.3276
1496602294,846.800000004,19.8644
1496602298,878.000000004,22.0151
1496602302,921.200000004,18.5873
1496602306,914.000000004,20.6517
1496602310,923.600000004,17.0552
1496602314,926.000000004,18.3565
1496602318,940.400000004,17.8034
1496602322,926.000000004,15.2024
1496602326,938.000000004,17.5852
1496602330,947.600000004,18.5333
1496602334,930.800000004,14.7618
1496602338,909.200000004,17.5722
1496602342,921.200000004,17.4769
1496602346,935.600000004,19.0012
1496602350,1002.800000004,18.0191
1496602354,993.200000004,17.877
1496602358,1062.800000004,18.3363
1496602362,1084.400000004,20.3611
1496602366,993.200000004,20.3988
1496602370,1043.600000004,21.0075
1496602374,964.400000004,22.1108
1496602378,918.800000004,19.6997
1496602382,870.800000004,22.3458
1496602386,904.400000004,23.9608
1496602390,868.400000004,22.1672
1496602394,837.200000004,20.7649
1496602398,863.600000004,22.855
1496602402,767.600000004,20.7221
1496602406,746.000000004,19.3329
1496602410,798.800000004,20.4591
1496602414,825.200000004,23.0496
1496602418,743.600000004,19.7546
1496602422,724.400000004,20.7326
1496602426,690.800000004,19.8276
1496602430,674.000000004,17.9977
1496602434,724.400000004,16.8366
1496602438,690.800000004,18.0546
1496602442,705.200000004,16.849
1496602446,774.800000004,18.5713
1496602450,794.000000004,16.322
1496602454,834.800000004,14.6233
1496602458,863.600000004,17.3134
1496602462,854.000000004,20.2828
1496602466,875.600000004,17.5149
1496602470,911.600000004,16.2636
1496602474,921.200000004,22.7889
1496602478,969.200000004,22.4606
1496602482,921.200000004,15.7044
1496602486,902.000000004,16.9904
1496602490,904.400000004,18.6584
1496602494,861.200000004,15.0882
1496602498,834.800000004,18.7031
1496602502,856.400000004,19.6749
1496602506,909.200000004,20.3527
1496602510,856.400000004,20.9343
1496602514,854.000000004,17.9941
1496602518,858.800000004,15.8066
1496602522,854.000000004,12.3351
1496602526,834.800000004,21.0839
1496602530,830.000000004,14.5792
1496602534,858.800000004,18.5605
1496602538,870.800000004,19.7602
1496602542,950.000000004,22.5822
1496602546,1026.800000004,21.9997
1496602550,1043.600000004,23.5461
1496602554,1062.800000004,22.1643
1496602558,1034.000000004,17.449
1496602562,1034.000000004,20.8273
1496602566,976.400000004,22.0111
1496602570,966.800000004,18.8888
1496602574,954.800000004,19.9475
1496602578,938.000000004,19.3078
1496602582,921.200000004,14.5717
1496602586,892.400000004,18.7601
1496602590,856.400000004,21.1281
1496602594,870.800000004,20.0313
1496602598,892.400000004,24.0348
1496602602,844.400000004,22.6734
1496602606,870.800000004,20.7456
1496602610,801.200000004,15.0519
1496602614,866.000000004,17.8311
1496602618,861.200000004,22.8083
1496602622,846.800000004,19.7993
1496602626,837.200000004,19.8002
1496602630,856.400000004,21.675
1496602634,863.600000004,20.5444
1496602638,969.200000004,20.5205
1496602642,952.400000004,20.6796
1496602646,914.000000004,17.8733
1496602650,938.000000004,23.3769
1496602654,914.000000004,22.576
1496602658,914.000000004,18.6813
1496602662,909.200000004,17.0636
1496602666,882.800000004,22.6507
1496602670,897.200000004,23.2629
1496602674,894.800000004,24.8061
1496602678,904.400000004,21.635
1496602682,870.800000004,25.229
1496602686,974.000000004,27.9345
1496602690,928.400000004,21.4248
1496602694,911.600000004,26.0893
1496602698,933.200000004,25.2091
1496602702,885.200000004,25.5849
1496602706,868.400000004,20.9102
1496602710,906.800000004,24.8401
1496602714,827.600000004,22.5105
1496602718,669.200000004,23.523
1496602722,693.200000004,26.171
1496602726,606.800000004,27.6456
1496602730,654.800000004,18.9266
1496602734,602.000000004,27.695
1496602738,606.800000004,23.4501
1496602742,597.200000004,28.6295
1496602746,654.800000004,23.1669
1496602750,592.400000004,26.6279
1496602754,594.800000004,20.6287
1496602758,570.800000004,26.1808
1496602762,614.000000004,24.234
1496602766,592.400000004,21.4413
1496602770,604.400000004,26.4576
1496602774,626.000000004,25.5019
1496602778,599.600000004,22.4804
1496602782,606.800000004,22.8782
1496602786,614.000000004,22.2872
1496602790,662.000000004,18.631
1496602794,626.000000004,17.8411
1496602798,683.600000004,20.6314
1496602802,626.000000004,27.0105
1496602806,659.600000004,21.1936
1496602810,662.000000004,18.7737
1496602814,676.400000004,21.7196
1496602818,669.200000004,21.7133
1496602822,664.400000004,24.6814
1496602826,681.200000004,21.4407
1496602830,707.600000004,26.4788
1496602834,669.200000004,26.4179
1496602838,676.400000004,21.4656
1496602842,664.400000004,17.3918
1496602846,604.400000004,17.438
1496602850,671.600000004,20.7334
1496602854,623.600000004,22.2939
1496602858,686.000000004,20.8227
1496602862,604.400000004,20.8961
1496602866,654.800000004,15.4043
1496602870,606.800000004,23.004
1496602874,702.800000004,22.9807
1496602878,647.600000004,19.6288
1496602882,635.600000004,20.5088
1496602886,683.600000004,18.0352
1496602890,614.000000004,17.0766
1496602894,676.400000004,18.5793
1496602898,635.600000004,18.0757
1496602902,690.800000004,17.4715
1496602906,686.000000004,13.7849
1496602910,652.400000004,15.3954
1496602914,580.400000004,16.2294
1496602918,630.800000004,17.6865
1496602922,597.200000004,20.2457
1496602926,621.200000004,23.4826
1496602930,578.000000004,20.15
1496602934,618.800000004,18.1607
1496602938,650.000000004,23.9329
1496602942,558.800000004,19.2599
1496602946,582.800000004,17.1858
1496602950,554.000000004,22.1105
1496602954,585.200000004,21.5015
1496602958,599.600000004,18.5429
1496602962,623.600000004,19.4385
1496602966,558.800000004,20.9793
1496602970,585.200000004,19.9422
1496602974,633.200000004,26.0449
1496602978,587.600000004,23.4446
1496602982,638.000000004,25.409
1496602986,566.000000004,19.5822
1496602990,695.600000004,18.3401
1496602994,690.800000004,18.0967
1496602998,664.400000004,19.7424
1496603002,702.800000004,17.9027
1496603006,678.800000004,20.6859
1496603010,714.800000004,21.9387
1496603014,702.800000004,22.258
1496603018,734.000000004,21.8351
1496603022,712.400000004,25.285
1496603026,777.200000004,22.1248
1496603030,738.800000004,21.4793
1496603034,698.000000004,20.9366
1496603038,669.200000004,23.6712
1496603042,722.000000004,21.7683
1496603046,712.400000004,24.0346
1496603050,688.400000004,20.9508
1496603054,710.000000004,23.0165
1496603058,678.800000004,22.0963
1496603062,659.600000004,22.7741
1496603066,630.800000004,21.7422
1496603070,695.600000004,22.1708
1496603074,609.200000004,17.5886
1496603078,664.400000004,19.2307
1496603082,592.400000004,20.5174
1496603086,611.600000004,16.394
1496603090,626.000000004,19.7012
1496603094,609.200000004,15.9605
1496603098,633.200000004,21.2608
1496603102,630.800000004,24.8649
1496603106,664.400000004,18.0424
1496603110,597.200000004,21.055
1496603114,693.200000004,20.0029
1496603118,618.800000004,23.0587
1496603122,606.800000004,21.0868
1496603126,626.000000004,24.0984
1496603130,606.800000004,23.8284
1496603134,626.000000004,20.1205
1496603138,642.800000004,18.7665
1496603142,604.400000004,19.847
1496603146,676.400000004,18.4701
1496603150,674.000000004,14.9785
1496603154,532.400000004,16.1945
1496603158,618.800000004,12.4666
1496603162,575.600000004,15.5558
1496603166,594.800000004,16.5615
1496603170,606.800000004,22.3825
1496603174,690.800000004,19.1349
1496603178,662.000000004,18.3261
1496603182,621.200000004,11.7097
1496603186,614.000000004,16.8978
1496603190,590.000000004,21.4883
1496603194,633.200000004,17.6581
1496603198,580.400000004,21.0146
1496603202,611.600000004,20.9065
1496603206,666.800000004,26.3879
1496603210,602.000000004,16.782
1496603214,657.200000004,20.4169
1496603218,662.000000004,20.1922
1496603222,626.000000004,21.0521
1496603226,609.200000004,21.595
1496603230,628.400000004,20.8083
1496603234,628.400000004,18.9647
1496603238,678.800000004,17.6275
1496603242,630.800000004,18.0103
1496603246,674.000000004,18.125
1496603250,614.000000004,17.5322
1496603254,623.600000004,16.1622
1496603258,614.000000004,22.0216
1496603262,602.000000004,17.0054
1496603266,606.800000004,15.2197
1496603270,606.800000004,20.2606
1496603274,626.000000004,24.6872
1496603278,585.200000004,21.3436
1496603282,623.600000004,21.0807
1496603286,657.200000004,23.4285
1496603290,676.400000004,18.0827
1496603294,614.000000004,19.6106
1496603298,623.600000004,24.4598
1496603302,688.400000004,19.5623
1496603306,669.200000004,20.5315
1496603310,642.800000004,15.67
1496603314,606.800000004,18.3292
1496603318,626.000000004,16.4709
1496603322,599.600000004,23.6729
1496603326,597.200000004,20.6361
1496603330,592.400000004,18.6701
1496603334,585.200000004,16.1179
1496603338,630.800000004,19.3443
1496603342,609.200000004,20.2266
1496603346,578.000000004,15.222
1496603350,645.200000004,13.8002
1496603354,650.000000004,18.2203
1496603358,650.000000004,19.7691
1496603362,662.000000004,13.4287
1496603366,609.200000004,17.1646
1496603370,604.400000004,18.3371
1496603374,693.200000004,19.9047
1496603378,623.600000004,17.9493
1496603382,611.600000004,12.8037
1496603386,647.600000004,16.0726
1496603390,686.000000004,20.1771
1496603394,657.200000004,15.546
1496603398,616.400000004,12.9085
1496603402,616.400000004,12.2788
1496603406,662.000000004,20.2784
1496603410,623.600000004,24.6894
1496603414,630.800000004,22.059
1496603418,659.600000004,26.6047
1496603422,597.200000004,22.2692
1496603426,654.800000004,22.063
1496603430,606.800000004,22.4435
1496603434,623.600000004,24.341
1496603438,626.000000004,22.2009
1496603442,611.600000004,23.6993
1496603446,686.000000004,20.1492
1496603450,621.200000004,21.4377
1496603454,659.600000004,20.4509
1496603458,674.000000004,20.9219
1496603462,626.000000004,21.5234
1496603466,611.600000004,21.0709
1496603470,609.200000004,13.8019
1496603474,573.200000004,19.9137
1496603478,585.200000004,17.3449
1496603482,599.600000004,16.2794
1496603486,628.400000004,20.5475
1496603490,602.000000004,21.012
1496603494,578.000000004,20.5753
1496603498,626.000000004,17.6511
1496603502,590.000000004,17.7008
1496603506,611.600000004,20.7178
1496603510,690.800000004,18.3756
1496603514,650.000000004,21.3495
1496603518,609.200000004,22.3507
1496603522,635.600000004,24.3929
1496603526,599.600000004,23.7554
1496603530,606.800000004,19.3442
1496603534,582.800000004,21.4306
1496603538,626.000000004,25.6109
1496603542,546.800000004,22.3619
1496603546,642.800000004,23.8687
1496603550,618.800000004,24.1901
1496603554,621.200000004,21.9453
1496603558,568.400000004,19.0753
1496603562,561.200000004,22.7076
1496603566,630.800000004,24.6965
1496603570,597.200000004,17.9471
1496603574,580.400000004,20.0216
1496603578,669.200000004,23.1387
1496603582,587.600000004,19.4249
1496603586,602.000000004,20.6292
1496603590,618.800000004,19.945
1496603594,573.200000004,19.0263
1496603598,618.800000004,20.1895
1496603602,602.000000004,18.7077
1496603606,618.800000004,20.7158
1496603610,633.200000004,21.8105
1496603614,592.400000004,24.89
1496603618,602.000000004,20.8726
1496603622,549.200000004,19.4485
1496603626,602.000000004,21.4813
1496603630,575.600000004,27.253
1496603634,635.600000004,24.5715
1496603638,542.000000004,20.5881
1496603642,640.400000004,21.5954
1496603646,570.800000004,23.3787
1496603650,602.000000004,26.1865
1496603654,623.600000004,23.4804
1496603658,592.400000004,21.1306
1496603662,628.400000004,20.2141
1496603666,618.800000004,23.3885
1496603670,633.200000004,22.4938
1496603674,585.200000004,23.8293
1496603678,606.800000004,22.5778
1496603682,614.000000004,20.3438
1496603686,671.600000004,23.0887
1496603690,674.000000004,20.3032
1496603694,693.200000004,16.9419
1496603698,734.000000004,21.9131
1496603702,698.000000004,19.2809
1496603706,707.600000004,17.7824
1496603710,710.000000004,18.5643
1496603714,765.200000004,22.9861
1496603718,818.000000004,18.7289
1496603722,789.200000004,21.9105
1496603726,839.600000004,17.5546
1496603730,834.800000004,18.8147
1496603734,794.000000004,19.5878
1496603738,755.600000004,18.6011
1496603742,702.800000004,18.5201
1496603746,712.400000004,14.386
1496603750,746.000000004,20.5473
1496603754,705.200000004,21.8992
1496603758,683.600000004,20.5162
1496603762,724.400000004,21.8281
1496603766,736.400000004,14.9642
1496603770,750.800000004,17.6281
1496603774,822.800000004,21.9305
1496603778,729.200000004,20.5659
1496603782,770.000000004,18.3379
1496603786,777.200000004,19.5629
1496603790,810.800000004,15.1805
1496603794,748.400000004,16.6119
1496603798,815.600000004,15.5974
1496603802,808.400000004,20.1707
1496603806,834.800000004,13.8774
1496603810,813.200000004,21.6014
1496603814,822.800000004,18.3007
1496603818,724.400000004,16.3899
1496603822,846.800000004,14.5673
1496603826,772.400000004,20.9498
1496603830,791.600000004,25.0367
1496603834,796.400000004,17.3084
1496603838,786.800000004,25.2465
1496603842,758.000000004,22.208
1496603846,789.200000004,19.8968
1496603850,777.200000004,16.6213
1496603854,825.200000004,19.4552
1496603858,789.200000004,18.7757
1496603862,794.000000004,22.7174
1496603866,786.800000004,17.9157
1496603870,741.200000004,23.3092
1496603874,750.800000004,24.0651
1496603878,765.200000004,18.8113
1496603882,784.400000004,20.4521
1496603886,902.000000004,23.4168
1496603890,911.600000004,20.3988
1496603894,878.000000004,21.5249
1496603898,899.600000004,23.9956
1496603902,878.000000004,24.517
1496603906,926.000000004,17.8704
1496603910,902.000000004,16.4334
1496603914,861.200000004,20.8985
1496603918,856.400000004,24.2881
1496603922,906.800000004,19.7563
1496603926,849.200000004,17.274
1496603930,911.600000004,22.1386
1496603934,878.000000004,25.1291
1496603938,935.600000004,26.1091
1496603942,861.200000004,25.2232
1496603946,930.800000004,23.7361
1496603950,911.600000004,23.0833
1496603954,988.400000004,21.0544
1496603958,959.600000004,27.7182
1496603962,923.600000004,23.3373
1496603966,952.400000004,21.8372
1496603970,940.400000004,25.0268
1496603974,914.000000004,24.2571
1496603978,923.600000004,23.4473
1496603982,918.800000004,21.2411
1496603986,873.200000004,20.4098
1496603990,861.200000004,22.804
1496603994,863.600000004,22.7471
1496603998,892.400000004,22.5877
1496604002,875.600000004,17.8878
1496604006,878.000000004,21.9769
1496604010,856.400000004,20.361
1496604014,842.000000004,20.621
1496604018,806.000000004,16.8752
1496604022,834.800000004,21.0502
1496604026,791.600000004,16.0801
1496604030,849.200000004,19.049
1496604034,770.000000004,17.6095
1496604038,808.400000004,23.4603
1496604042,782.000000004,21.0795
1496604046,815.600000004,20.2293
1496604050,746.000000004,19.1094
1496604054,746.000000004,18.7928
1496604058,765.200000004,21.1511
1496604062,810.800000004,20.8096
1496604066,767.600000004,20.0449
1496604070,743.600000004,21.5782
1496604074,786.800000004,17.5446
1496604078,813.200000004,18.1186
1496604082,806.000000004,18.5525
1496604086,748.400000004,17.3997
1496604090,770.000000004,17.8765
1496604094,729.200000004,19.5737
1496604098,789.200000004,18.9433
1496604102,760.400000004,16.4784
1496604106,801.200000004,14.7096
1496604110,762.800000004,16.2439
1496604114,825.200000004,21.2154
1496604118,810.800000004,18.5745
1496604122,789.200000004,17.969
1496604126,750.800000004,20.7121
1496604130,801.200000004,23.7074
1496604134,767.600000004,14.2834
1496604138,815.600000004,24.3235
1496604142,837.200000004,24.4345
1496604146,820.400000004,22.4286
1496604150,714.800000004,20.6563
1496604154,772.400000004,21.2303
1496604158,849.200000004,23.7873
1496604162,796.400000004,21.8554
1496604166,813.200000004,16.4687
1496604170,758.000000004,17.4451
1496604174,827.600000004,21.4827
1496604178,801.200000004,18.6328
1496604182,830.000000004,19.3958
1496604186,796.400000004,19.8784
1496604190,774.800000004,23.1843
1496604194,726.800000004,24.6307
1496604198,765.200000004,24.1797
1496604202,760.400000004,19.3496
1496604206,815.600000004,22.0576
1496604210,803.600000004,17.8008
1496604214,820.400000004,18.2895
1496604218,729.200000004,21.6446
1496604222,803.600000004,17.2765
1496604226,796.400000004,21.0329
1496604230,808.400000004,18.9824
1496604234,851.600000004,21.9404
1496604238,858.800000004,21.9531
1496604242,902.000000004,19.7944
1496604246,868.400000004,19.6125
1496604250,909.200000004,20.0288
1496604254,923.600000004,23.7132
1496604258,885.200000004,18.6884
1496604262,899.600000004,15.531
1496604266,926.000000004,17.8684
1496604270,921.200000004,14.3254
1496604274,981.200000004,15.8837
1496604278,935.600000004,15.6916
1496604282,940.400000004,14.9906
1496604286,880.400000004,18.5997
1496604290,974.000000004,21.6997
1496604294,873.200000004,19.9916
1496604298,935.600000004,21.3477
1496604302,849.200000004,20.0269
1496604306,878.000000004,21.1568
1496604310,849.200000004,17.5955
1496604314,921.200000004,20.7355
1496604318,870.800000004,23.374
1496604322,839.600000004,23.5659
1496604326,846.800000004,19.5536
1496604330,844.400000004,24.3521
1496604334,858.800000004,23.3193
1496604338,875.600000004,21.8847
1496604342,882.800000004,20.9464
1496604346,938.000000004,22.0318
1496604350,921.200000004,18.8669
1496604354,873.200000004,22.2278
1496604358,875.600000004,20.2647
1496604362,926.000000004,19.968
1496604366,890.000000004,17.1298
1496604370,866.000000004,20.314
1496604374,863.600000004,19.4765
1496604378,866.000000004,19.8743
1496604382,890.000000004,17.2236
1496604386,933.200000004,17.2215
1496604390,911.600000004,9.10006
1496604394,906.800000004,14.7405
1496604398,921.200000004,16.1441
1496604402,935.600000004,17.4341
1496604406,966.800000004,17.449
1496604410,952.400000004,18.4224
1496604414,976.400000004,18.3651
1496604418,952.400000004,17.243
1496604422,969.200000004,19.7143
1496604426,885.200000004,20.9397
1496604430,921.200000004,17.0654
1496604434,904.400000004,23.5551
1496604438,894.800000004,21.1589
1496604442,916.400000004,23.8525
1496604446,938.000000004,17.51
1496604450,930.800000004,22.903
1496604454,964.400000004,21.4761
1496604458,897.200000004,22.42
1496604462,938.000000004,22.5076
1496604466,914.000000004,18.5503
1496604470,926.000000004,16.322
1496604474,942.800000004,17.1846
1496604478,950.000000004,15.8233
1496604482,885.200000004,18.1464
1496604486,918.800000004,20.3509
1496604490,909.200000004,23.2884
1496604494,911.600000004,17.9544
1496604498,935.600000004,21.6913
1496604502,930.800000004,18.1247
1496604506,926.000000004,16.1462
1496604510,938.000000004,22.8779
1496604514,950.000000004,20.2658
1496604518,1029.200000004,20.4501
1496604522,933.200000004,14.6448
1496604526,909.200000004,19.6356
1496604530,957.200000004,18.7896
1496604534,918.800000004,19.0664
1496604538,940.400000004,20.1143
1496604542,923.600000004,21.813
1496604546,928.400000004,16.932
1496604550,928.400000004,16.8201
1496604554,981.200000004,21.6814
1496604558,938.000000004,25.165
1496604562,938.000000004,24
1496604566,990.800000004,23.7624
1496604570,916.400000004,23.5382
1496604574,930.800000004,27.605
1496604578,945.200000004,20.3081
1496604582,952.400000004,23.17
1496604586,940.400000004,16.4864
1496604590,952.400000004,18.4628
1496604594,957.200000004,23.8262
1496604598,1031.600000004,17.0727
1496604602,959.600000004,20.1905
1496604606,1017.200000004,15.2271
1496604610,995.600000004,20.1172
1496604614,998.000000004,21.4174
1496604618,938.000000004,18.1778
1496604622,933.200000004,20.3763
1496604626,923.600000004,20.7743
1496604630,909.200000004,23.3035
1496604634,986.000000004,18.8316
1496604638,933.200000004,22.0834
1496604642,918.800000004,19.8983
1496604646,921.200000004,20.4907
1496604650,959.600000004,19.7025
1496604654,916.400000004,18.8869
1496604658,954.800000004,16.3843
1496604662,928.400000004,16.2452
1496604666,926.000000004,21.1795
1496604670,906.800000004,17.6433
1496604674,902.000000004,21.4629
1496604678,890.000000004,23.4783
1496604682,897.200000004,25.1008
1496604686,846.800000004,23.0512
1496604690,916.400000004,19.9091
1496604694,858.800000004,20.7779
1496604698,870.800000004,18.734
1496604702,918.800000004,19.0216
1496604706,897.200000004,18.8962
1496604710,856.400000004,16.9881
1496604714,830.000000004,23.6644
1496604718,815.600000004,18.2208
1496604722,882.800000004,24.0855
1496604726,844.400000004,21.5573
1496604730,844.400000004,18.5448
1496604734,830.000000004,23.0022
1496604738,839.600000004,19.5088
1496604742,863.600000004,25.6023
1496604746,863.600000004,23.8373
1496604750,914.000000004,17.3267
1496604754,978.800000004,21.2317
1496604758,995.600000004,20.1871
1496604762,998.000000004,18.3344
1496604766,1067.600000004,19.0173
1496604770,981.200000004,20.5795
1496604774,938.000000004,18.0056
1496604778,926.000000004,21.532
1496604782,880.400000004,25.1863
1496604786,921.200000004,22.7787
1496604790,892.400000004,26.6695
1496604794,978.800000004,22.5618
1496604798,959.600000004,22.3397
1496604802,998.000000004,21.9882
1496604806,986.000000004,18.7273
1496604810,990.800000004,24.6332
1496604814,926.000000004,20.3592
1496604818,966.800000004,22.9641
1496604822,1000.400000004,24.2419
1496604826,966.800000004,17.8717
1496604830,938.000000004,18.6732
1496604834,974.000000004,20.9313
1496604838,1014.800000004,20.4024
1496604842,911.600000004,17.3742
1496604846,966.800000004,22.5673
1496604850,928.400000004,20.721
1496604854,933.200000004,19.5411
1496604858,921.200000004,17.8367
1496604862,933.200000004,16.7343
1496604866,909.200000004,18.8089
1496604870,926.000000004,19.5822
1496604874,904.400000004,23.9823
1496604878,870.800000004,20.0093
1496604882,878.000000004,23.9785
1496604886,909.200000004,18.9801
1496604890,899.600000004,23.1588
1496604894,851.600000004,23.7982
1496604898,875.600000004,21.9577
1496604902,834.800000004,20.681
1496604906,854.000000004,24.7898
1496604910,851.600000004,17.3369
1496604914,873.200000004,20.089
1496604918,822.800000004,22.6032
1496604922,868.400000004,19.0091
1496604926,842.000000004,21.2605
1496604930,885.200000004,21.9126
1496604934,868.400000004,16.6168
1496604938,918.800000004,18.2453
1496604942,914.000000004,17.4129
1496604946,902.000000004,19.3183
1496604950,863.600000004,17.6153
1496604954,856.400000004,17.1084
1496604958,918.800000004,16.1111
1496604962,892.400000004,19.7301
1496604966,868.400000004,20.2142
1496604970,882.800000004,18.4306
1496604974,906.800000004,18.77
1496604978,897.200000004,21.3948
1496604982,928.400000004,19.1951
1496604986,880.400000004,19.8328
1496604990,878.000000004,21.4631
1496604994,868.400000004,17.2652
1496604998,839.600000004,21.3186
1496605002,870.800000004,23.3702
1496605006,897.200000004,24.8089
1496605010,926.000000004,18.325
1496605014,863.600000004,21.7538
1496605018,921.200000004,18.265
1496605022,904.400000004,21.8075
1496605026,926.000000004,21.0813
1496605030,885.200000004,16.8947
1496605034,974.000000004,18.2232
1496605038,923.600000004,17.8829
1496605042,933.200000004,17.6822
1496605046,928.400000004,19.4739
1496605050,909.200000004,20.9238
1496605054,839.600000004,23.9705
1496605058,818.000000004,19.4647
1496605062,832.400000004,24.6591
1496605066,796.400000004,19.393
1496605070,801.200000004,21.1423
1496605074,815.600000004,21.999
1496605078,755.600000004,18.0597
1496605082,798.800000004,21.5463
1496605086,753.200000004,25.2817
1496605090,794.000000004,18.4818
1496605094,801.200000004,20.1608
1496605098,818.000000004,20.7971
1496605102,734.000000004,21.4587
1496605106,772.400000004,18.9355
1496605110,712.400000004,19.7402
1496605114,712.400000004,19.0779
1496605118,748.400000004,15.3761
1496605122,786.800000004,19.6423
1496605126,710.000000004,19.7107
1496605130,714.800000004,16.5941
1496605134,762.800000004,18.494
1496605138,722.000000004,16.1326
1496605142,717.200000004,18.9516
1496605146,707.600000004,16.2337
1496605150,738.800000004,21.5775
1496605154,748.400000004,19.9081
1496605158,722.000000004,23.1655
1496605162,762.800000004,21.8898
1496605166,710.000000004,24.8588
1496605170,837.200000004,21.3726
1496605174,806.000000004,22.1984
1496605178,839.600000004,24.2691
1496605182,849.200000004,24.1362
1496605186,798.800000004,21.4432
1496605190,774.800000004,26.7891
1496605194,803.600000004,16.4965
1496605198,779.600000004,21.5834
1496605202,760.400000004,21.9388
1496605206,724.400000004,20.0799
1496605210,731.600000004,14.9158
1496605214,779.600000004,20.3661
1496605218,690.800000004,22.2797
1496605222,765.200000004,20.2381
1496605226,758.000000004,16.0542
1496605230,724.400000004,20.7996
1496605234,736.400000004,20.6737
1496605238,753.200000004,25.1143
1496605242,712.400000004,22.443
1496605246,762.800000004,22.1578
1496605250,765.200000004,20.0209
1496605254,818.000000004,20.5005
1496605258,806.000000004,24.9047
1496605262,748.400000004,24.1742
1496605266,791.600000004,19.7676
1496605270,777.200000004,20.4526
1496605274,770.000000004,23.1168
1496605278,714.800000004,24.4479
1496605282,741.200000004,23.4733
1496605286,750.800000004,24.5584
1496605290,753.200000004,22.0022
1496605294,717.200000004,22.9229
1496605298,772.400000004,22.8792
1496605302,748.400000004,25.7168
1496605306,722.000000004,21.703
1496605310,724.400000004,23.775
1496605314,782.000000004,24.0703
1496605318,695.600000004,24.3011
1496605322,806.000000004,24.7197
1496605326,784.400000004,22.0566
1496605330,806.000000004,21.6905
1496605334,818.000000004,21.4585
1496605338,806.000000004,21.3961
1496605342,803.600000004,19.3338
1496605346,801.200000004,24.5593
1496605350,839.600000004,21.4784
1496605354,782.000000004,20.7529
1496605358,832.400000004,20.0683
1496605362,813.200000004,22.6398
1496605366,849.200000004,19.7408
1496605370,796.400000004,23.4603
1496605374,820.400000004,21.7424
1496605378,786.800000004,21.8232
1496605382,791.600000004,16.1545
1496605386,755.600000004,21.1995
1496605390,832.400000004,21.0704
1496605394,844.400000004,21.6086
1496605398,832.400000004,23.5104
1496605402,717.200000004,20.05
1496605406,834.800000004,20.1236
1496605410,736.400000004,20.3746
1496605414,762.800000004,21.0144
1496605418,695.600000004,13.7703
1496605422,738.800000004,18.3884
1496605426,705.200000004,19.9667
1496605430,700.400000004,17.34
1496605434,714.800000004,22.3499
1496605438,755.600000004,19.2111
1496605442,798.800000004,20.9474
1496605446,918.800000004,19.8377
1496605450,806.000000004,19.5568
1496605454,830.000000004,20.5667
1496605458,755.600000004,23.0309
1496605462,832.400000004,23.6854
1496605466,832.400000004,24.0088
1496605470,854.000000004,22.3862
1496605474,842.000000004,20.9141
1496605478,832.400000004,20.294
1496605482,789.200000004,16.0402
1496605486,803.600000004,15.7126
1496605490,822.800000004,16.1383
1496605494,762.800000004,18.5227
1496605498,777.200000004,16.6802
1496605502,832.400000004,18.2123
1496605506,784.400000004,18.6597
1496605510,801.200000004,15.0167
1496605514,801.200000004,18.1501
1496605518,808.400000004,17.9506
1496605522,765.200000004,23.3382
1496605526,738.800000004,26.3792
1496605530,700.400000004,19.0775
1496605534,729.200000004,18.7334
1496605538,695.600000004,17.5445
1496605542,695.600000004,21.5539
1496605546,712.400000004,17.2426
1496605550,726.800000004,19.8555
1496605554,707.600000004,19.7678
1496605558,726.800000004,19.9866
1496605562,746.000000004,14.3016
1496605566,738.800000004,13.1286
1496605570,724.400000004,17.4659
1496605574,736.400000004,21.144
1496605578,772.400000004,18.3758
1496605582,719.600000004,19.0079
1496605586,743.600000004,23.09
1496605590,726.800000004,20.1317
1496605594,753.200000004,24.9086
1496605598,690.800000004,21.132
1496605602,726.800000004,18.9378
1496605606,712.400000004,21.168
1496605610,731.600000004,19.6557
1496605614,748.400000004,14.6178
1496605618,731.600000004,22.6589
1496605622,731.600000004,14.8086
1496605626,755.600000004,19.6866
1496605630,765.200000004,17.0191
1496605634,813.200000004,22.6904
1496605638,784.400000004,16.3625
1496605642,755.600000004,17.9281
1496605646,753.200000004,19.5758
1496605650,777.200000004,18.3457
1496605654,741.200000004,16.5209
1496605658,777.200000004,19.99
1496605662,830.000000004,18.1953
1496605666,770.000000004,21.2973
1496605670,729.200000004,21.764
1496605674,779.600000004,18.7704
1496605678,796.400000004,20.167
1496605682,842.000000004,23.5399
1496605686,808.400000004,20.9386
1496605690,798.800000004,19.4625
1496605694,798.800000004,19.1849
1496605698,791.600000004,19.8295
1496605702,782.000000004,21.8337
1496605706,789.200000004,22.205
1496605710,813.200000004,26.3511
1496605714,760.400000004,25.039
1496605718,779.600000004,22.2519
1496605722,705.200000004,26.0491
1496605726,719.600000004,20.1905
1496605730,750.800000004,21.7976
1496605738,710.000000004,19.6216
1496605742,736.400000004,22.5522
1496605746,717.200000004,21.993
1496605750,698.000000004,22.8148
1496605754,654.800000004,22.483
1496605758,767.600000004,21.728
1496605762,726.800000004,22.3382
1496605766,707.600000004,18.0794
1496605770,712.400000004,22.3102
1496605774,717.200000004,19.4698
1496605782,746.000000004,21.4425
1496605786,712.400000004,24.7706
1496605790,844.400000004,21.5406
1496605794,705.200000004,20.5745
1496605798,695.600000004,20.9573
1496605802,695.600000004,22.2299
1496605806,710.000000004,18.1547
1496605810,698.000000004,23.7987
1496605814,690.800000004,22.078
1496605818,678.800000004,17.3124
1496605822,710.000000004,28.0234
1496605826,722.000000004,24.9605
1496605830,674.000000004,24.0822
1496605834,654.800000004,17.988
1496605838,698.000000004,21.0673
1496605842,690.800000004,25.1112
1496605846,671.600000004,24.6754
1496605850,719.600000004,23.2399
1496605854,705.200000004,27.8747
1496605858,729.200000004,19.1217
1496605862,702.800000004,23.9514
1496605866,743.600000004,22.833
1496605870,662.000000004,22.5704
1496605874,722.000000004,25.2624
1496605878,688.400000004,22.7804
1496605882,693.200000004,17.7875
1496605886,676.400000004,25.9074
1496605890,666.800000004,16.9177
1496605894,686.000000004,23.1036
1496605898,688.400000004,23.8416
1496605902,671.600000004,21.4836
1496605906,693.200000004,19.6294
1496605910,738.800000004,16.3981
1496605914,774.800000004,21.1183
1496605918,746.000000004,21.7584
1496605922,794.000000004,22.1195
1496605926,796.400000004,21.1687
1496605930,832.400000004,22.9331
1496605934,906.800000004,21.8055
1496605938,842.000000004,22.4502
1496605942,868.400000004,24.1925
1496605946,851.600000004,20.5185
1496605950,854.000000004,22.1776
1496605954,798.800000004,22.8783
1496605958,794.000000004,20.7047
1496605962,719.600000004,23.1174
1496605966,750.800000004,22.1788
1496605970,844.400000004,23.2546
1496605974,719.600000004,20.8254
1496605978,678.800000004,24.2098
1496605982,712.400000004,22.6397
1496605986,743.600000004,19.4477
1496605990,683.600000004,16.4413
1496605994,789.200000004,16.4327
1496605998,710.000000004,23.8579
1496606002,748.400000004,20.5234
1496606006,738.800000004,19.7785
1496606010,731.600000004,18.8685
1496606014,722.000000004,20.8215
1496606018,734.000000004,22.5121
1496606022,801.200000004,19.6571
1496606026,748.400000004,20.1557
1496606030,813.200000004,21.4491
1496606034,825.200000004,21.682
1496606038,861.200000004,22.3413
1496606042,820.400000004,27.4394
1496606046,837.200000004,26.826
1496606050,825.200000004,24.176
1496606054,796.400000004,24.2867
1496606058,791.600000004,22.7286
1496606062,748.400000004,24.3045
1496606066,779.600000004,25.2768
1496606070,741.200000004,20.1056
1496606074,741.200000004,22.6194
1496606078,731.600000004,19.008
1496606082,794.000000004,24.1867
1496606086,806.000000004,21.516
1496606090,849.200000004,23.1114
1496606094,767.600000004,17.358
1496606098,801.200000004,20.8791
1496606102,844.400000004,15.895
1496606106,810.800000004,22.9734
1496606110,820.400000004,25.9164
1496606114,806.000000004,16.7562
1496606118,767.600000004,18.4937
1496606122,753.200000004,15.1658
1496606126,770.000000004,22.9661
1496606130,818.000000004,17.2137
1496606134,772.400000004,23.7168
1496606138,698.000000004,26.4261
1496606142,743.600000004,25.3751
1496606146,741.200000004,19.7154
1496606150,784.400000004,22.1832
1496606154,779.600000004,18.4635
1496606158,796.400000004,20.3574
1496606162,758.000000004,19.7686
1496606166,736.400000004,18.0192
1496606170,702.800000004,20.5146
1496606174,798.800000004,23.968
1496606178,808.400000004,23.5554
1496606182,770.000000004,22.5167
1496606186,722.000000004,23.8515
1496606190,762.800000004,25.3937
1496606194,743.600000004,22.3143
1496606198,791.600000004,23.3738
1496606202,717.200000004,21.2453
1496606206,748.400000004,19.7023
1496606210,724.400000004,19.505
1496606214,791.600000004,22.2608
1496606218,738.800000004,13.9374
1496606222,722.000000004,21.8622
1496606226,695.600000004,17.3061
1496606230,750.800000004,20.0016
1496606234,717.200000004,17.6094
1496606238,779.600000004,18.0959
1496606242,722.000000004,23.0793
1496606246,789.200000004,20.922
1496606250,774.800000004,18.4642
1496606254,731.600000004,20.0814
1496606258,722.000000004,21.3367
1496606262,784.400000004,21.9968
1496606266,782.000000004,22.5909
1496606270,801.200000004,20.7502
1496606274,777.200000004,17.4561
1496606278,791.600000004,17.7995
1496606282,791.600000004,17.0505
1496606286,767.600000004,20.1588
1496606290,717.200000004,18.838
1496606294,748.400000004,18.0867
1496606298,719.600000004,19.2003
1496606302,755.600000004,20.1722
1496606306,710.000000004,22.406
1496606310,729.200000004,20.6158
1496606314,698.000000004,21.2772
1496606318,681.200000004,16.3513
1496606322,662.000000004,16.4568
1496606326,702.800000004,20.2639
1496606330,678.800000004,21.268
1496606334,760.400000004,20.3783
1496606338,808.400000004,17.5958
1496606342,803.600000004,19.1785
1496606346,863.600000004,19.5273
1496606350,844.400000004,15.7855
1496606354,918.800000004,19.9162
1496606358,858.800000004,15.8057
1496606362,842.000000004,19.9766
1496606366,849.200000004,22.947
1496606370,791.600000004,17.1725
1496606374,794.000000004,19.3344
1496606378,837.200000004,19.8022
1496606382,782.000000004,21.359
1496606386,741.200000004,22.5072
1496606390,767.600000004,20.9417
1496606394,714.800000004,20.3657
1496606398,700.400000004,23.0183
1496606402,690.800000004,18.8659
1496606406,808.400000004,17.5117
1496606410,712.400000004,18.943
1496606414,707.600000004,19.4847
1496606418,765.200000004,18.6488
1496606422,837.200000004,22.2062
1496606426,830.000000004,23.0302
1496606430,914.000000004,18.8905
1496606434,902.000000004,20.4563
1496606438,815.600000004,19.2721
1496606442,851.600000004,18.1264
1496606446,830.000000004,14.2554
1496606450,825.200000004,18.2481
1496606454,815.600000004,18.6723
1496606458,825.200000004,22.8236
1496606462,758.000000004,22.6071
1496606466,729.200000004,20.8208
1496606470,741.200000004,23.1946
1496606474,779.600000004,22.8866
1496606478,724.400000004,20.1144
1496606482,743.600000004,22.1361
1496606486,762.800000004,20.6437
1496606490,741.200000004,19.2954
1496606494,762.800000004,21.2957
1496606498,746.000000004,19.2044
1496606502,734.000000004,19.7628
1496606506,777.200000004,24.5271
1496606510,810.800000004,21.311
1496606514,774.800000004,20.0713
1496606518,722.000000004,18.9072
1496606522,777.200000004,25.3663
1496606526,789.200000004,23.8982
1496606530,794.000000004,18.2317
1496606534,767.600000004,20.5209
1496606538,791.600000004,18.6363
1496606542,743.600000004,23.4
1496606546,779.600000004,17.9238
1496606550,746.000000004,20.9717
1496606554,748.400000004,21.3911
1496606558,810.800000004,20.9337
1496606562,729.200000004,24.2201
1496606566,765.200000004,22.4127
1496606570,698.000000004,20.1983
1496606574,657.200000004,17.4691
1496606578,702.800000004,15.7713
1496606582,674.000000004,20.0059
1496606586,638.000000004,17.0383
1496606590,666.800000004,18.2019
1496606594,659.600000004,17.9092
1496606598,616.400000004,15.5732
1496606602,592.400000004,20.3981
1496606606,674.000000004,17.3127
1496606610,698.000000004,14.0064
1496606614,657.200000004,18.4692
1496606618,681.200000004,15.884
1496606622,693.200000004,17.128
1496606626,702.800000004,24.4396
1496606630,686.000000004,24.3632
1496606634,690.800000004,17.3092
1496606638,710.000000004,20.2597
1496606642,676.400000004,23.2351
1496606646,671.600000004,24.2179
1496606650,683.600000004,22.4195
1496606654,628.400000004,23.1455
1496606658,681.200000004,23.3599
1496606662,664.400000004,18.447
1496606666,657.200000004,20.6802
1496606670,714.800000004,19.5805
1496606674,786.800000004,18.5839
1496606678,834.800000004,20.9527
1496606682,834.800000004,14.3432
1496606686,791.600000004,22.8935
1496606690,770.000000004,18.0099
1496606694,844.400000004,19.682
1496606698,770.000000004,18.9707
1496606702,791.600000004,21.6773
1496606706,714.800000004,16.0604
1496606710,719.600000004,18.0067
1496606714,743.600000004,21.563
1496606718,746.000000004,19.2347
1496606722,719.600000004,23.2887
1496606726,779.600000004,18.418
1496606730,746.000000004,19.4643
1496606734,808.400000004,19.8913
1496606738,784.400000004,22.6232
1496606742,722.000000004,19.7674
1496606746,808.400000004,19.1138
1496606750,741.200000004,17.4507
1496606754,717.200000004,17.1407
1496606758,710.000000004,19.4712
1496606762,743.600000004,21.1744
1496606766,710.000000004,23.1589
1496606770,712.400000004,18.8835
1496606774,693.200000004,20.9542
1496606778,712.400000004,19.491
1496606782,635.600000004,21.7617
1496606786,849.200000004,19.5129
1496606790,705.200000004,17.8799
1496606794,693.200000004,18.104
1496606798,743.600000004,19.4826
1496606802,671.600000004,20.8843
1496606806,695.600000004,20.2184
1496606810,717.200000004,23.5464
1496606814,700.400000004,19.6959
1496606818,719.600000004,21.9166
1496606822,702.800000004,22.4712
1496606826,710.000000004,21.3317
1496606830,688.400000004,20.1325
1496606834,702.800000004,24.6932
1496606838,678.800000004,24.9605
1496606842,707.600000004,23.1339
1496606846,714.800000004,22.0191
1496606854,693.200000004,21.6426
1496606858,676.400000004,19.2839
1496606862,714.800000004,22.3944
1496606866,657.200000004,22.592
1496606870,693.200000004,20.0111
1496606874,710.000000004,20.6211
1496606878,669.200000004,22.0002
1496606882,717.200000004,20.4938
1496606886,719.600000004,18.0001
1496606890,738.800000004,20.3921
1496606894,666.800000004,17.6393
1496606898,695.600000004,16.0016
1496606902,688.400000004,17.9435
1496606906,705.200000004,17.9864
1496606910,698.000000004,21.0064
1496606914,690.800000004,24.9459
1496606918,652.400000004,21.5607
1496606922,664.400000004,23.0656
1496606926,674.000000004,20.0837
1496606930,633.200000004,20.5541
1496606934,662.000000004,20.2853
1496606938,662.000000004,19.6074
1496606942,683.600000004,21.8696
1496606946,642.800000004,14.3216
1496606950,662.000000004,15.2252
1496606954,623.600000004,17.1878
1496606958,702.800000004,18.1952
1496606962,657.200000004,15.1132
1496606966,618.800000004,21.8115
1496606970,676.400000004,20.8455
1496606974,650.000000004,22.591
1496606978,621.200000004,18.347
1496606982,674.000000004,18.071
1496606986,671.600000004,19.5882
1496606990,652.400000004,20.4948
1496606994,695.600000004,17.5267
1496606998,688.400000004,19.2475
1496607002,681.200000004,14.3437
1496607006,669.200000004,19.3122
1496607010,683.600000004,15.7352
1496607014,688.400000004,18.51
1496607018,681.200000004,15.1176
1496607022,662.000000004,17.0582
1496607026,714.800000004,19.6144
1496607030,676.400000004,15.3687
1496607034,628.400000004,16.8237
1496607038,710.000000004,20.6539
1496607042,712.400000004,23.317
1496607046,712.400000004,22.7988
1496607050,698.000000004,19.1929
1496607054,705.200000004,23.0522
1496607058,698.000000004,23.2697
1496607062,726.800000004,20.5936
1496607066,724.400000004,18.6301
1496607070,710.000000004,22.9457
1496607074,746.000000004,19.4683
1496607078,777.200000004,20.9688
1496607082,825.200000004,17.659
1496607086,830.000000004,18.6896
1496607090,758.000000004,22.5126
1496607094,729.200000004,16.7346
1496607098,765.200000004,18.7663
1496607102,729.200000004,17.1681
1496607106,736.400000004,17.8483
1496607110,746.000000004,17.7191
1496607114,741.200000004,17.7072
1496607118,726.800000004,21.3527
1496607122,729.200000004,17.7578
1496607126,738.800000004,21.9914
1496607130,777.200000004,23.9152
1496607134,724.400000004,18.0099
1496607138,748.400000004,18.7174
1496607142,746.000000004,21.5529
1496607146,767.600000004,16.508
1496607150,743.600000004,18.7831
1496607154,837.200000004,14.4589
1496607158,736.400000004,13.3662
1496607162,825.200000004,14.8837
1496607166,774.800000004,20.7981
1496607170,755.600000004,17.3449
1496607174,714.800000004,16.5295
1496607178,782.000000004,16.1753
1496607182,774.800000004,18.3303
1496607186,746.000000004,16.7971
1496607190,813.200000004,19.3909
1496607194,753.200000004,16.2822
1496607198,760.400000004,18.5458
1496607202,777.200000004,19.2259
1496607206,762.800000004,20.529
1496607210,724.400000004,18.8663
1496607214,779.600000004,22.631
1496607218,736.400000004,19.1444
1496607222,777.200000004,20.0567
1496607226,734.000000004,21.9718
1496607230,779.600000004,16.1979
1496607234,755.600000004,22.9637
1496607238,714.800000004,21.7342
1496607242,717.200000004,23.8618
1496607246,762.800000004,16.4421
1496607250,777.200000004,22.7935
1496607254,750.800000004,17.2728
1496607258,705.200000004,21.6123
1496607262,789.200000004,19.6359
1496607266,738.800000004,21.0526
1496607270,794.000000004,17.779
1496607274,731.600000004,20.19
1496607278,779.600000004,22.5991
1496607282,734.000000004,19.5963
1496607286,724.400000004,21.3887
1496607290,724.400000004,22.7345
1496607294,777.200000004,23.0719
1496607298,820.400000004,25.6128
1496607302,803.600000004,22.1216
1496607306,806.000000004,18.5379
1496607310,784.400000004,22.6998
1496607314,796.400000004,18.9668
1496607318,801.200000004,21.6604
1496607322,796.400000004,24.999
1496607326,782.000000004,22.4564
1496607330,748.400000004,19.8182
1496607334,758.000000004,19.2169
1496607338,758.000000004,17.1848
1496607342,777.200000004,14.51
1496607346,722.000000004,16.3878
1496607350,784.400000004,16.3892
1496607354,803.600000004,23.2752
1496607358,698.000000004,19.0016
1496607362,791.600000004,19.97
1496607366,815.600000004,18.9422
1496607370,746.000000004,19.7975
1496607374,842.000000004,21.5157
1496607378,770.000000004,18.793
1496607382,755.600000004,16.4513
1496607386,762.800000004,22.4164
1496607390,786.800000004,19.4617
1496607394,714.800000004,18.7369
1496607398,777.200000004,20.4536
1496607402,753.200000004,21.9395
1496607406,808.400000004,24.0008
1496607410,767.600000004,21.4939
1496607414,806.000000004,22.3167
1496607418,791.600000004,19.8356
1496607422,753.200000004,21.6859
1496607426,789.200000004,18.6423
1496607430,765.200000004,18.2022
1496607434,734.000000004,24.8116
1496607438,782.000000004,20.3753
1496607442,830.000000004,17.6182
1496607446,834.800000004,17.7256
1496607450,837.200000004,23.6366
1496607454,796.400000004,22.6271
1496607458,832.400000004,21.1499
1496607462,753.200000004,22.6439
1496607466,758.000000004,22.9058
1496607470,782.000000004,22.2525
1496607474,767.600000004,23.4417
1496607478,748.400000004,25.8419
1496607482,758.000000004,28.6894
1496607486,806.000000004,22.6647
1496607490,770.000000004,21.6112
1496607494,846.800000004,18.8869
1496607498,834.800000004,17.5093
1496607502,815.600000004,19.4885
1496607506,837.200000004,20.568
1496607510,796.400000004,20.1195
1496607514,837.200000004,14.8163
1496607518,813.200000004,17.3521
1496607522,837.200000004,21.1871
1496607526,758.000000004,16.1288
1496607530,808.400000004,19.7292
1496607534,736.400000004,22.3184
1496607538,808.400000004,18.7349
1496607542,803.600000004,22.0679
1496607546,858.800000004,18.0778
1496607550,873.200000004,16.9345
1496607554,849.200000004,19.1518
1496607558,851.600000004,20.3244
1496607562,839.600000004,21.3109
1496607566,882.800000004,17.2316
1496607570,837.200000004,19.3165
1496607574,846.800000004,17.877
1496607578,844.400000004,20.3948
1496607582,822.800000004,21.288
1496607586,794.000000004,18.9248
1496607590,808.400000004,21.1516
1496607594,813.200000004,14.2853
1496607598,849.200000004,16.4143
1496607602,839.600000004,17.2033
1496607606,789.200000004,21.471
1496607610,854.000000004,22.2966
1496607614,827.600000004,22.3712
1496607618,808.400000004,21.6233
1496607622,813.200000004,24.1348
1496607626,827.600000004,21.0791
1496607630,846.800000004,19.4527
1496607634,830.000000004,26.3428
1496607638,861.200000004,22.528
1496607642,844.400000004,13.6771
1496607646,873.200000004,19.0265
1496607650,846.800000004,15.6811
1496607654,834.800000004,22.6572
1496607658,837.200000004,19.7237
1496607662,729.200000004,16.9245
1496607666,786.800000004,17.0079
1496607670,815.600000004,21.6236
1496607674,784.400000004,22.1774
1496607678,736.400000004,22.4976
1496607682,810.800000004,22.7809
1496607686,743.600000004,18.9125
1496607690,719.600000004,26.0546
1496607694,724.400000004,25.2976
1496607698,770.000000004,21.3796
1496607702,772.400000004,23.9738
1496607706,710.000000004,25.6964
1496607710,758.000000004,22.8744
1496607714,777.200000004,22.3752
1496607718,796.400000004,19.8607
1496607722,760.400000004,18.7094
1496607726,755.600000004,22.5921
1496607730,779.600000004,21.4403
1496607734,746.000000004,20.7067
1496607738,760.400000004,21.68
1496607742,738.800000004,20.0606
1496607746,772.400000004,19.836
1496607750,755.600000004,19.4259
1496607754,801.200000004,15.1241
1496607758,683.600000004,16.48
1496607762,714.800000004,19.4547
1496607766,738.800000004,16.5754
1496607770,690.800000004,17.9838
1496607774,693.200000004,22.0937
1496607778,678.800000004,22.923
1496607782,707.600000004,21.0874
1496607786,669.200000004,19.9772
1496607790,686.000000004,24.8851
1496607794,690.800000004,22.1783
1496607798,705.200000004,21.8608
1496607802,674.000000004,19.0179
1496607806,683.600000004,22.6004
1496607810,659.600000004,22.9526
1496607814,681.200000004,19.5837
1496607818,710.000000004,18.5807
1496607822,618.800000004,20.2013
1496607826,650.000000004,19.7523
1496607830,645.200000004,22.9758
1496607834,616.400000004,20.2954
1496607838,602.000000004,20.3713
1496607842,681.200000004,17.0939
1496607846,674.000000004,20.2687
1496607850,678.800000004,22.0715
1496607854,717.200000004,22.3295
1496607858,700.400000004,20.0525
1496607862,693.200000004,26.3269
1496607866,693.200000004,19.9707
1496607870,702.800000004,23.978
1496607878,659.600000004,27.7302
1496607882,602.000000004,25.2597
1496607886,592.400000004,22.9253
1496607890,650.000000004,22.2845
1496607894,626.000000004,22.227
1496607898,659.600000004,22.7118
1496607902,630.800000004,20.4787
1496607906,640.400000004,25.5083
1496607910,621.200000004,24.0644
1496607914,688.400000004,19.6241
1496607918,714.800000004,19.2305
1496607922,705.200000004,17.4819
1496607926,714.800000004,22.8041
1496607930,714.800000004,22.8864
1496607934,719.600000004,21.856
1496607938,686.000000004,22.1595
1496607942,712.400000004,23.6916
1496607946,731.600000004,22.2076
1496607950,710.000000004,15.5963
1496607954,700.400000004,18.4505
1496607958,662.000000004,21.1743
1496607962,693.200000004,20.737
1496607966,683.600000004,16.6968
1496607970,681.200000004,20.1137
1496607974,654.800000004,23.7948
1496607978,724.400000004,20.7929
1496607982,698.000000004,23.2217
1496607986,710.000000004,25.8986
1496607990,755.600000004,23.681
1496607994,765.200000004,20.073
1496607998,846.800000004,24.1654
1496608002,736.400000004,20.9584
1496608006,755.600000004,22.4073
1496608010,748.400000004,17.4527
1496608014,784.400000004,14.8703
1496608018,801.200000004,19.6567
1496608022,717.200000004,17.6409
1496608026,815.600000004,25.7604
1496608030,748.400000004,22.0804
1496608034,736.400000004,21.2168
1496608038,779.600000004,23.0693
1496608042,729.200000004,20.0438
1496608046,746.000000004,15.6256
1496608050,707.600000004,18.444
1496608054,719.600000004,18.7314
1496608058,700.400000004,19.375
1496608062,734.000000004,19.3371
1496608066,700.400000004,19.0296
1496608070,707.600000004,21.3994
1496608074,707.600000004,25.2278
1496608078,695.600000004,21.1304
1496608082,700.400000004,26.7723
1496608086,705.200000004,24.7462
1496608090,714.800000004,24.4662
1496608094,741.200000004,24.8366
1496608098,683.600000004,21.6541
1496608102,736.400000004,24.6607
1496608106,717.200000004,19.4899
1496608110,690.800000004,20.1541
1496608114,762.800000004,21.4096
1496608118,702.800000004,23.5811
1496608122,758.000000004,21.5002
1496608126,698.000000004,21.4119
1496608130,762.800000004,20.3196
1496608134,722.000000004,21.6588
1496608138,698.000000004,16.0107
1496608142,801.200000004,15.2325
1496608146,707.600000004,20.329
1496608150,822.800000004,21.7399
1496608154,815.600000004,20.7593
1496608158,755.600000004,21.2945
1496608162,863.600000004,21.7239
1496608166,830.000000004,21.9603
1496608170,842.000000004,20.9565
1496608174,743.600000004,18.7604
1496608178,750.800000004,16.9764
1496608182,777.200000004,19.531
1496608186,810.800000004,19.7517
1496608190,758.000000004,20.6816
1496608194,818.000000004,14.0857
1496608198,767.600000004,20.7446
1496608202,806.000000004,20.9794
1496608206,791.600000004,20.2666
1496608210,830.000000004,18.3339
1496608214,815.600000004,19.5487
1496608218,762.800000004,19.6877
1496608222,796.400000004,19.3582
1496608226,801.200000004,18.005
1496608230,753.200000004,20.1668
1496608234,753.200000004,17.8734
1496608238,798.800000004,26.6707
1496608242,825.200000004,20.7122
1496608246,818.000000004,21.3763
1496608250,806.000000004,22.889
1496608254,818.000000004,22.1626
1496608258,849.200000004,15.4489
1496608262,818.000000004,18.6387
1496608266,854.000000004,21.8382
1496608270,765.200000004,20.9975
1496608274,770.000000004,20.3839
1496608278,729.200000004,17.7194
1496608282,762.800000004,20.871
1496608286,765.200000004,15.6522
1496608290,770.000000004,20.0088
1496608294,738.800000004,18.511
1496608298,758.000000004,16.5952
