tag_number,delay,power_est
1496096060,460.9333333358,21.1324
1496096062,460.9333333358,27.4506
1496096064,518.5333333358,19.4798
1496096066,511.3333333358,22.8211
1496096068,465.7333333358,21.2536
1496096070,528.1333333358,22.7705
1496096072,542.5333333358,21.5003
1496096074,446.5333333358,23.5789
1496096076,528.1333333358,25.9469
1496096078,468.1333333358,24.1725
1496096080,463.3333333358,20.662
1496096082,496.9333333358,21.5968
1496096084,525.7333333358,14.8861
1496096086,422.5333333358,13.0192
1496096088,379.3333333358,13.7627
1496096090,439.3333333358,17.3382
1496096092,441.7333333358,19.9641
1496096094,410.5333333358,14.0298
1496096096,436.9333333358,16.6696
1496096098,403.3333333358,20.809
1496096100,384.1333333358,22.5803
1496096102,400.9333333358,19.4527
1496096104,475.3333333358,20.5221
1496096106,386.5333333358,21.9159
1496096108,384.1333333358,24.0082
1496096110,444.1333333358,22.4246
1496096112,429.7333333358,18.3426
1496096114,408.1333333358,20.4729
1496096116,388.9333333358,26.9284
1496096118,417.7333333358,25.4378
1496096120,436.9333333358,23.5755
1496096122,456.1333333358,22.6346
1496096124,482.5333333358,21.4382
1496096126,489.7333333358,21.8312
1496096128,412.9333333358,26.5732
1496096130,499.3333333358,22.4409
1496096132,422.5333333358,21.9288
1496096134,429.7333333358,20.1371
1496096136,436.9333333358,17.216
1496096138,520.9333333358,15.6495
1496096140,403.3333333358,19.6767
1496096142,405.7333333358,21.7896
1496096144,501.7333333358,24.6024
1496096146,434.5333333358,16.8023
1496096148,434.5333333358,21.075
1496096150,458.5333333358,23.023
1496096152,492.1333333358,20.4416
1496096154,520.9333333358,23.5407
1496096156,412.9333333358,24.325
1496096158,516.1333333358,17.5633
1496096160,484.9333333358,15.9594
1496096162,417.7333333358,19.1728
1496096164,468.1333333358,20.0938
1496096166,429.7333333358,17.8568
1496096168,453.7333333358,16.2212
1496096170,422.5333333358,17.6253
1496096172,465.7333333358,21.0841
1496096174,427.3333333358,22.6617
1496096176,422.5333333358,18.3819
1496096178,477.7333333358,15.4906
1496096180,446.5333333358,20.1371
1496096182,448.9333333358,19.8751
1496096184,422.5333333358,20.2125
1496096186,424.9333333358,24.8279
1496096188,465.7333333358,22.1379
1496096190,429.7333333358,24.6827
1496096192,460.9333333358,23.953
1496096194,410.5333333358,21.6242
1496096196,398.5333333358,19.6192
1496096198,441.7333333358,22.6117
1496096200,420.1333333358,19.4066
1496096202,391.3333333358,22.199
1496096204,400.9333333358,18.7791
1496096206,432.1333333358,22.7264
1496096208,398.5333333358,20.843
1496096210,405.7333333358,22.0851
1496096212,384.1333333358,25.7654
1496096214,444.1333333358,23.5041
1496096216,412.9333333358,25.404
1496096218,422.5333333358,23.4295
1496096220,441.7333333358,21.3482
1496096222,439.3333333358,20.9533
1496096224,432.1333333358,23.9283
1496096226,468.1333333358,19.6122
1496096228,436.9333333358,20.9189
1496096230,420.1333333358,23.5311
1496096232,472.9333333358,20.3045
1496096234,410.5333333358,27.5381
1496096236,448.9333333358,27.7556
1496096238,444.1333333358,27.5575
1496096240,396.1333333358,18.3422
1496096242,420.1333333358,20.545
1496096244,400.9333333358,20.927
1496096246,460.9333333358,24.6333
1496096248,408.1333333358,22.6637
1496096250,391.3333333358,22.4153
1496096252,393.7333333358,25.8405
1496096254,398.5333333358,26.684
1496096256,410.5333333358,24.8127
1496096258,412.9333333358,24.5001
1496096260,386.5333333358,23.8274
1496096262,396.1333333358,22.7767
1496096264,400.9333333358,18.994
1496096266,408.1333333358,22.8347
1496096268,369.7333333358,23.5961
1496096270,432.1333333358,23.6736
1496096272,410.5333333358,22.4034
1496096274,398.5333333358,21.0564
1496096276,427.3333333358,18.6587
1496096278,362.5333333358,22.5445
1496096280,357.7333333358,28.1019
1496096282,393.7333333358,23.9037
1496096284,388.9333333358,22.2623
1496096286,434.5333333358,19.3804
1496096288,403.3333333358,16.853
1496096290,470.5333333358,20.6015
1496096292,424.9333333358,18.6605
1496096294,400.9333333358,20.8878
1496096296,398.5333333358,20.2659
1496096298,398.5333333358,22.8982
1496096300,446.5333333358,23.1711
1496096302,384.1333333358,20.8424
1496096304,388.9333333358,20.9879
1496096306,398.5333333358,24.1566
1496096308,372.1333333358,22.8828
1496096310,391.3333333358,21.0662
1496096312,412.9333333358,22.3727
1496096314,412.9333333358,23.9343
1496096316,374.5333333358,24.7179
1496096318,384.1333333358,25.0229
1496096320,420.1333333358,22.9796
1496096322,374.5333333358,25.2185
1496096324,374.5333333358,20.0608
1496096326,393.7333333358,24.3257
1496096328,372.1333333358,19.155
1496096330,422.5333333358,25.1956
1496096332,391.3333333358,22.8191
1496096334,384.1333333358,25.355
1496096336,424.9333333358,17.675
1496096338,396.1333333358,19.1707
1496096340,393.7333333358,19.0283
1496096342,384.1333333358,24.3385
1496096344,427.3333333358,16.949
1496096346,376.9333333358,19.4864
1496096348,465.7333333358,21.7001
1496096350,391.3333333358,21.3779
1496096352,398.5333333358,19.2821
1496096354,403.3333333358,21.6717
1496096356,384.1333333358,21.5601
1496096358,412.9333333358,18.6901
1496096360,410.5333333358,19.7048
1496096362,446.5333333358,21.6659
1496096364,386.5333333358,19.0892
1496096366,396.1333333358,20.5184
1496096368,369.7333333358,20.5344
1496096370,393.7333333358,20.5136
1496096372,408.1333333358,17.8812
1496096374,408.1333333358,22.1545
1496096376,369.7333333358,19.6066
1496096378,384.1333333358,20.739
1496096380,410.5333333358,23.4589
1496096382,410.5333333358,25.7316
1496096384,398.5333333358,25.2258
1496096386,398.5333333358,28.0299
1496096388,432.1333333358,23.6814
1496096390,374.5333333358,25.7537
1496096392,384.1333333358,29.8609
1496096394,396.1333333358,30.266
1496096396,374.5333333358,20.638
1496096398,396.1333333358,27.0509
1496096400,391.3333333358,27.4713
1496096402,400.9333333358,28.1038
1496096404,391.3333333358,19.4656
1496096406,398.5333333358,20.6871
1496096408,448.9333333358,25.5684
1496096410,391.3333333358,25.8959
1496096412,386.5333333358,23.0229
1496096414,408.1333333358,25.7572
1496096416,367.3333333358,23.797
1496096418,432.1333333358,25.2616
1496096420,444.1333333358,24.1411
1496096422,408.1333333358,23.9478
1496096424,367.3333333358,27.0297
1496096426,393.7333333358,25.4707
1496096430,384.1333333358,23.4938
1496096432,415.3333333358,17.8591
1496096434,458.5333333358,22.1987
1496096436,417.7333333358,26.2962
1496096438,379.3333333358,19.6172
1496096440,393.7333333358,19.4161
1496096442,484.9333333358,24.4712
1496096444,451.3333333358,23.5895
1496096446,458.5333333358,24.5778
1496096448,391.3333333358,25.2104
1496096450,384.1333333358,25.1055
1496096452,393.7333333358,20.4018
1496096454,408.1333333358,24.0343
1496096456,405.7333333358,21.1709
1496096458,424.9333333358,24.3485
1496096460,412.9333333358,24.0176
1496096462,422.5333333358,22.2336
1496096464,412.9333333358,21.1181
1496096466,405.7333333358,19.6717
1496096468,367.3333333358,26.01
1496096470,408.1333333358,25.0709
1496096472,456.1333333358,17.9291
1496096474,381.7333333358,22.4224
1496096476,369.7333333358,21.8369
1496096478,391.3333333358,19.6367
1496096480,460.9333333358,19.3811
1496096482,381.7333333358,20.0988
1496096484,434.5333333358,18.3082
1496096486,446.5333333358,17.0712
1496096488,386.5333333358,19.3253
1496096490,422.5333333358,18.9712
1496096492,374.5333333358,22.3124
1496096494,408.1333333358,21.3526
1496096496,386.5333333358,22.0273
1496096498,384.1333333358,23.9222
1496096500,405.7333333358,25.4387
1496096502,374.5333333358,26.0487
1496096504,331.3333333358,21.7978
1496096506,386.5333333358,21.358
1496096508,343.3333333358,20.3086
1496096510,367.3333333358,19.2953
1496096512,362.5333333358,16.6935
1496096514,331.3333333358,22.1404
1496096516,364.9333333358,20.7394
1496096518,384.1333333358,18.0194
1496096520,410.5333333358,17.5698
1496096522,372.1333333358,16.4853
1496096524,384.1333333358,16.337
1496096526,388.9333333358,16.9313
1496096528,391.3333333358,14.3046
1496096530,393.7333333358,22.2314
1496096532,400.9333333358,21.8701
1496096534,393.7333333358,24.2946
1496096536,364.9333333358,9.63782
1496096538,374.5333333358,16.6585
1496096540,369.7333333358,19.6245
1496096542,369.7333333358,19.3453
1496096544,384.1333333358,18.3652
1496096546,420.1333333358,22.74
1496096548,415.3333333358,18.8112
1496096550,384.1333333358,23.1105
1496096552,398.5333333358,16.994
1496096554,391.3333333358,19.9955
1496096556,376.9333333358,23.4894
1496096558,376.9333333358,23.2051
1496096560,400.9333333358,19.6463
1496096562,388.9333333358,19.5355
1496096564,386.5333333358,21.9089
1496096566,393.7333333358,21.3131
1496096568,405.7333333358,22.2383
1496096570,410.5333333358,18.8253
1496096572,372.1333333358,20.7822
1496096574,400.9333333358,18.9384
1496096576,376.9333333358,21.5099
1496096578,343.3333333358,20.5773
1496096580,364.9333333358,24.0557
1496096582,360.1333333358,23.9503
1496096584,304.9333333358,17.5751
1496096586,367.3333333358,17.488
1496096588,403.3333333358,14.6426
1496096590,374.5333333358,14.3358
1496096592,398.5333333358,15.2375
1496096594,420.1333333358,14.7197
1496096596,376.9333333358,17.076
1496096598,420.1333333358,23.6562
1496096600,424.9333333358,23.9509
1496096602,386.5333333358,18.0096
1496096604,396.1333333358,20.1879
1496096606,388.9333333358,16.6738
1496096608,396.1333333358,18.1923
1496096610,396.1333333358,19.5855
1496096612,396.1333333358,18.6241
1496096614,386.5333333358,21.6646
1496096616,408.1333333358,17.5398
1496096618,396.1333333358,16.5079
1496096620,492.1333333358,19.6959
1496096622,456.1333333358,20.8955
1496096624,415.3333333358,19.013
1496096626,441.7333333358,23.7066
1496096628,398.5333333358,20.4213
1496096630,400.9333333358,22.4528
1496096632,417.7333333358,17.5947
1496096634,393.7333333358,21.4892
1496096636,403.3333333358,20.6995
1496096638,446.5333333358,18.3641
1496096640,374.5333333358,21.7707
1496096642,393.7333333358,18.5554
1496096644,408.1333333358,28.1024
1496096646,410.5333333358,21.6545
1496096648,412.9333333358,23.9378
1496096650,477.7333333358,20.4302
1496096652,403.3333333358,20.7658
1496096654,444.1333333358,21.6868
1496096656,412.9333333358,17.5356
1496096658,415.3333333358,20.6206
1496096660,384.1333333358,19.3132
1496096662,376.9333333358,25.5663
1496096664,444.1333333358,23.8644
1496096666,403.3333333358,20.821
1496096668,379.3333333358,16.8616
1496096670,408.1333333358,24.7096
1496096672,379.3333333358,13.3965
1496096674,384.1333333358,18.9333
1496096676,388.9333333358,19.4639
1496096678,396.1333333358,21.181
1496096680,396.1333333358,21.6923
1496096682,415.3333333358,21.5308
1496096684,405.7333333358,20.7344
1496096686,417.7333333358,20.5536
1496096688,393.7333333358,19.1637
1496096690,396.1333333358,26.0268
1496096692,405.7333333358,24.2311
1496096694,391.3333333358,19.7154
1496096696,398.5333333358,23.4435
1496096698,367.3333333358,18.1071
1496096700,376.9333333358,18.3635
1496096702,424.9333333358,16.5787
1496096704,391.3333333358,23.1868
1496096706,388.9333333358,22.5121
1496096708,403.3333333358,20.4431
1496096710,388.9333333358,20.8278
1496096712,403.3333333358,22.9917
1496096714,441.7333333358,22.065
1496096716,364.9333333358,19.2786
1496096718,362.5333333358,19.3463
1496096720,374.5333333358,15.5319
1496096722,396.1333333358,13.3748
1496096724,362.5333333358,9.67976
1496096726,405.7333333358,14.6499
1496096728,386.5333333358,15.3994
1496096730,381.7333333358,18.0869
1496096732,388.9333333358,20.029
1496096734,400.9333333358,20.7366
1496096736,391.3333333358,23.0487
1496096738,398.5333333358,22.9389
1496096740,376.9333333358,17.3215
1496096742,396.1333333358,16.5602
1496096744,388.9333333358,18.3043
1496096746,400.9333333358,18.9404
1496096748,446.5333333358,18.3782
1496096750,412.9333333358,14.7911
1496096752,400.9333333358,14.3194
1496096754,424.9333333358,20.067
1496096756,412.9333333358,16.4306
1496096758,398.5333333358,15.5206
1496096760,360.1333333358,21.4003
1496096762,331.3333333358,20.2566
1496096764,429.7333333358,28.3461
1496096766,403.3333333358,19.6002
1496096768,388.9333333358,23.7265
1496096770,400.9333333358,18.5469
1496096772,381.7333333358,17.0538
1496096774,379.3333333358,22.1307
1496096776,396.1333333358,17.735
1496096778,441.7333333358,20.468
1496096780,381.7333333358,19.4343
1496096782,388.9333333358,23.546
1496096784,381.7333333358,17.6058
1496096786,381.7333333358,22.5884
1496096788,357.7333333358,23.2499
1496096790,405.7333333358,25.2518
1496096792,420.1333333358,18.4531
1496096794,379.3333333358,18.5626
1496096796,388.9333333358,15.7906
1496096798,429.7333333358,21.8346
1496096800,379.3333333358,21.46
1496096802,396.1333333358,19.8811
1496096804,400.9333333358,23.2147
1496096806,348.1333333358,16.5692
1496096808,388.9333333358,17.5201
1496096810,379.3333333358,20.0528
1496096812,398.5333333358,21.6338
1496096814,396.1333333358,18.991
1496096816,412.9333333358,24.7962
1496096818,427.3333333358,19.444
1496096820,343.3333333358,16.9798
1496096822,396.1333333358,18.7911
1496096824,396.1333333358,19.6983
1496096826,340.9333333358,20.5406
1496096828,379.3333333358,19.1892
1496096830,398.5333333358,24.7085
1496096832,348.1333333358,25.2576
1496096834,381.7333333358,25.6849
1496096836,427.3333333358,19.1447
1496096838,465.7333333358,20.6256
1496096840,420.1333333358,17.43
1496096842,412.9333333358,15.9003
1496096844,417.7333333358,16.7596
1496096846,357.7333333358,17.4966
1496096848,410.5333333358,19.4111
1496096850,405.7333333358,17.8709
1496096852,357.7333333358,17.7147
1496096854,405.7333333358,18.8337
1496096856,420.1333333358,16.6671
1496096858,381.7333333358,13.9289
1496096860,374.5333333358,15.2389
1496096862,384.1333333358,22.4875
1496096864,388.9333333358,18.4393
1496096866,398.5333333358,22.5739
1496096868,420.1333333358,24.932
1496096870,408.1333333358,18.6386
1496096872,408.1333333358,23.454
1496096874,372.1333333358,18.7145
1496096876,410.5333333358,15.0138
1496096878,357.7333333358,18.292
1496096880,376.9333333358,18.9174
1496096882,388.9333333358,17.0797
1496096884,369.7333333358,20.8551
1496096886,396.1333333358,19.3512
1496096888,398.5333333358,23.1533
1496096890,372.1333333358,16.6294
1496096892,391.3333333358,19.3558
1496096894,381.7333333358,22.5245
1496096896,374.5333333358,23.7221
1496096898,367.3333333358,18.5894
1496096900,369.7333333358,19.2124
1496096902,408.1333333358,18.1365
1496096904,369.7333333358,17.0219
1496096906,393.7333333358,21.6671
1496096908,412.9333333358,18.506
1496096910,391.3333333358,20.1548
1496096912,403.3333333358,22.1674
1496096914,393.7333333358,19.0908
1496096916,412.9333333358,18.1907
1496096918,396.1333333358,22.2048
1496096920,393.7333333358,18.8704
1496096922,396.1333333358,21.5763
1496096924,372.1333333358,18.5822
1496096926,444.1333333358,21.7092
1496096928,427.3333333358,20.2834
1496096930,374.5333333358,19.665
1496096932,381.7333333358,24.6287
1496096934,388.9333333358,18.3962
1496096936,331.3333333358,18.3451
1496096938,362.5333333358,21.1918
1496096940,386.5333333358,18.3606
1496096942,338.5333333358,20.4508
1496096944,374.5333333358,21.4807
1496096946,379.3333333358,21.2942
1496096948,393.7333333358,19.5647
1496096950,417.7333333358,20.885
1496096952,439.3333333358,19.5763
1496096954,386.5333333358,17.0966
1496096956,384.1333333358,20.8032
1496096958,369.7333333358,17.9589
1496096960,324.1333333358,19.6387
1496096962,357.7333333358,21.226
1496096964,369.7333333358,20.1357
1496096966,348.1333333358,16.5881
1496096968,312.1333333358,18.6026
1496096970,384.1333333358,21.7352
1496096972,415.3333333358,19.666
1496096974,379.3333333358,19.6323
1496096976,398.5333333358,18.0689
1496096978,384.1333333358,17.8674
1496096980,441.7333333358,19.952
1496096982,398.5333333358,18.4845
1496096984,319.3333333358,23.1957
1496096986,381.7333333358,18.9958
1496096988,362.5333333358,17.1662
1496096990,388.9333333358,17.5931
1496096992,398.5333333358,21.3338
1496096994,355.3333333358,23.054
1496096996,362.5333333358,23.4461
1496096998,357.7333333358,19.9692
1496097000,345.7333333358,18.2511
1496097002,364.9333333358,20.8703
1496097004,400.9333333358,14.0902
1496097006,357.7333333358,13.9572
1496097008,393.7333333358,19.3278
1496097010,360.1333333358,21.2862
1496097012,352.9333333358,22.1158
1496097014,350.5333333358,17.8341
1496097016,362.5333333358,25.4153
1496097018,352.9333333358,20.6481
1496097020,338.5333333358,18.1188
1496097022,321.7333333358,20.8568
1496097024,386.5333333358,17.4262
1496097026,360.1333333358,19.0406
1496097028,374.5333333358,19.3015
1496097030,328.9333333358,20.4631
1496097032,336.1333333358,20.6511
1496097034,350.5333333358,20.3643
1496097036,348.1333333358,24.8208
1496097038,345.7333333358,18.2327
1496097040,393.7333333358,13.8539
1496097042,386.5333333358,18.8346
1496097044,379.3333333358,16.9365
1496097046,300.1333333358,15.3123
1496097048,379.3333333358,18.5467
1496097050,400.9333333358,19.3974
1496097052,386.5333333358,15.7892
1496097054,374.5333333358,21.053
1496097056,381.7333333358,18.5444
1496097058,367.3333333358,18.9453
1496097060,400.9333333358,19.1565
1496097062,379.3333333358,16.6883
1496097064,396.1333333358,19.413
1496097066,355.3333333358,12.9638
1496097068,364.9333333358,18.0095
1496097070,372.1333333358,17.5947
1496097072,379.3333333358,18.7616
1496097074,393.7333333358,20.468
1496097076,393.7333333358,15.0964
1496097078,405.7333333358,19.135
1496097080,439.3333333358,16.5964
1496097082,396.1333333358,19.0909
1496097084,391.3333333358,17.5985
1496097086,396.1333333358,17.8793
1496097088,379.3333333358,22.2798
1496097090,391.3333333358,22.8955
1496097092,381.7333333358,21.327
1496097094,333.7333333358,20.2529
1496097096,326.5333333358,20.9943
1496097098,352.9333333358,20.3479
1496097100,388.9333333358,19.8838
1496097102,309.7333333358,22.3112
1496097104,369.7333333358,15.8196
1496097106,398.5333333358,15.7342
1496097108,372.1333333358,15.2507
1496097110,360.1333333358,22.0645
1496097112,304.9333333358,21.8335
1496097114,312.1333333358,23.2187
1496097116,393.7333333358,20.4664
1496097118,381.7333333358,17.0621
1496097120,352.9333333358,21.7458
1496097122,405.7333333358,22.2862
1496097124,403.3333333358,26.3733
1496097126,393.7333333358,26.4922
1496097128,436.9333333358,27.6259
1496097130,415.3333333358,18.8997
1496097132,400.9333333358,13.7476
1496097134,451.3333333358,20.2226
1496097136,448.9333333358,20.9641
1496097138,432.1333333358,22.7005
1496097140,482.5333333358,15.6144
1496097142,504.1333333358,19.1602
1496097144,456.1333333358,20.7503
1496097146,451.3333333358,22.0779
1496097148,432.1333333358,24.0233
1496097150,417.7333333358,23.7752
1496097152,434.5333333358,20.2661
1496097154,468.1333333358,18.5167
1496097156,439.3333333358,22.4235
1496097158,535.3333333358,19.4489
1496097160,475.3333333358,25.9675
1496097162,446.5333333358,24.8596
1496097164,451.3333333358,18.6554
1496097166,439.3333333358,23.8629
1496097168,453.7333333358,30.4437
1496097170,451.3333333358,21.2811
1496097172,417.7333333358,24.8527
1496097174,496.9333333358,23.8841
1496097176,489.7333333358,25.1949
1496097178,496.9333333358,27.0162
1496097180,537.7333333358,24.0032
1496097182,508.9333333358,27.061
1496097184,535.3333333358,26.2145
1496097186,552.1333333358,22.2216
1496097188,528.1333333358,24.2557
1496097190,528.1333333358,23.2141
1496097192,544.9333333358,22.1021
1496097194,518.5333333358,22.3431
1496097196,525.7333333358,18.154
1496097198,506.5333333358,21.4445
1496097200,511.3333333358,22.644
1496097202,480.1333333358,21.0172
1496097204,494.5333333358,23.0228
1496097206,508.9333333358,21.1687
1496097208,482.5333333358,23.9495
1496097210,523.3333333358,24.9303
1496097212,525.7333333358,22.494
1496097214,482.5333333358,22.8207
1496097216,499.3333333358,21.4435
1496097218,489.7333333358,18.5234
1496097220,487.3333333358,19.7446
1496097222,525.7333333358,18.3271
1496097224,504.1333333358,18.8763
1496097226,506.5333333358,20.7624
1496097228,537.7333333358,19.8668
1496097230,513.7333333358,16.3975
1496097232,499.3333333358,17.7019
1496097234,482.5333333358,14.8314
1496097236,499.3333333358,17.9638
1496097238,499.3333333358,13.6205
1496097240,516.1333333358,14.6856
1496097242,585.7333333358,13.9593
1496097244,523.3333333358,20.2438
1496097246,532.9333333358,14.7011
1496097248,564.1333333358,16.6511
1496097250,564.1333333358,15.6417
1496097252,552.1333333358,12.2478
1496097254,504.1333333358,14.7461
1496097256,547.3333333358,16.6095
1496097258,542.5333333358,12.2674
1496097260,590.5333333358,14.7923
1496097262,513.7333333358,17.7077
1496097264,554.5333333358,12.6972
1496097266,537.7333333358,14.1125
1496097268,530.5333333358,13.723
1496097270,520.9333333358,14.5014
1496097272,520.9333333358,11.685
1496097274,559.3333333358,18.6741
1496097276,511.3333333358,15.9689
1496097278,492.1333333358,10.8705
1496097280,549.7333333358,12.2671
1496097282,552.1333333358,8.08218
1496097284,585.7333333358,14.2322
1496097286,482.5333333358,9.94786
1496097288,508.9333333358,12.5019
1496097290,480.1333333358,15.9284
1496097292,549.7333333358,19.247
1496097294,501.7333333358,16.9759
1496097296,489.7333333358,18.8074
1496097298,532.9333333358,18.2674
1496097300,492.1333333358,16.2449
1496097302,506.5333333358,22.0418
1496097304,504.1333333358,19.7576
1496097306,520.9333333358,17.0644
1496097308,484.9333333358,17.6492
1496097310,499.3333333358,18.193
1496097312,446.5333333358,15.552
1496097314,518.5333333358,18.3938
1496097316,458.5333333358,23.4759
1496097318,434.5333333358,21.3352
1496097320,453.7333333358,18.7895
1496097322,504.1333333358,17.6952
1496097324,463.3333333358,19.3146
1496097326,448.9333333358,21.5731
1496097328,465.7333333358,22.9889
1496097330,427.3333333358,24.1851
1496097332,417.7333333358,25.5752
1496097334,410.5333333358,21.5546
1496097336,460.9333333358,21.7591
1496097338,484.9333333358,23.6241
1496097340,465.7333333358,19.18
1496097342,436.9333333358,23.3966
1496097344,444.1333333358,21.5279
1496097346,415.3333333358,24.1685
1496097348,456.1333333358,21.8646
1496097350,448.9333333358,20.0109
1496097352,429.7333333358,20.7465
1496097354,398.5333333358,21.7999
1496097356,384.1333333358,13.1634
1496097358,405.7333333358,17.7973
1496097360,412.9333333358,16.8335
1496097362,424.9333333358,18.4708
1496097364,376.9333333358,23.2621
1496097366,381.7333333358,24.0834
1496097368,386.5333333358,27.1879
1496097370,369.7333333358,26.4645
1496097372,405.7333333358,21.9513
1496097374,384.1333333358,30.7433
1496097376,362.5333333358,28.1538
1496097378,400.9333333358,22.4364
1496097380,379.3333333358,19.9563
1496097382,360.1333333358,20.9982
1496097384,408.1333333358,22.8519
1496097386,432.1333333358,19.2572
1496097388,386.5333333358,19.7537
1496097390,381.7333333358,15.2528
1496097392,364.9333333358,16.0484
1496097394,336.1333333358,15.4167
1496097396,331.3333333358,16.6533
1496097398,386.5333333358,19.3726
1496097400,376.9333333358,20.6349
1496097402,362.5333333358,19.9991
1496097404,384.1333333358,21.2373
1496097406,410.5333333358,18.4664
1496097408,369.7333333358,22.8345
1496097410,321.7333333358,20.0313
1496097412,400.9333333358,19.8165
1496097414,400.9333333358,19.8186
1496097416,403.3333333358,19.5984
1496097418,453.7333333358,23.5127
1496097420,458.5333333358,18.7479
1496097422,475.3333333358,15.3275
1496097424,482.5333333358,20.9482
1496097426,460.9333333358,14.2919
1496097428,448.9333333358,18.6806
1496097430,494.5333333358,16.5115
1496097432,453.7333333358,17.852
1496097434,470.5333333358,12.8564
1496097436,444.1333333358,12.7582
1496097438,427.3333333358,11.4492
1496097440,465.7333333358,11.9171
1496097442,436.9333333358,20.5235
1496097444,475.3333333358,19.4623
1496097446,463.3333333358,17.3562
1496097448,456.1333333358,20.9935
1496097450,530.5333333358,16.812
1496097452,535.3333333358,15.3771
1496097454,528.1333333358,15.9547
1496097456,554.5333333358,14.8368
1496097458,523.3333333358,17.6763
1496097460,518.5333333358,21.1714
1496097462,520.9333333358,20.2305
1496097464,496.9333333358,19.685
1496097466,532.9333333358,21.6629
1496097468,544.9333333358,22.4266
1496097470,552.1333333358,23.4335
1496097472,499.3333333358,27.0432
1496097474,516.1333333358,17.4907
1496097476,568.9333333358,16.8766
1496097478,552.1333333358,10.8883
1496097480,544.9333333358,11.699
1496097482,559.3333333358,17.0567
1496097484,528.1333333358,21.5152
1496097486,547.3333333358,17.5123
1496097488,564.1333333358,20.708
1496097490,595.3333333358,23.0584
1496097492,552.1333333358,22.3957
1496097494,561.7333333358,21.3603
1496097496,600.1333333358,16.9072
1496097498,540.1333333358,17.3018
1496097500,568.9333333358,11.7362
1496097502,602.5333333358,14.1893
1496097504,592.9333333358,17.3788
1496097506,592.9333333358,18.3404
1496097508,621.7333333358,20.2553
1496097510,573.7333333358,19.3053
1496097512,580.9333333358,19.9796
1496097514,578.5333333358,21.2345
1496097516,542.5333333358,25.4018
1496097518,549.7333333358,15.7098
1496097520,568.9333333358,17.7117
1496097522,597.7333333358,16.4505
1496097524,549.7333333358,19.3086
1496097526,556.9333333358,18.4284
1496097528,566.5333333358,23.6286
1496097530,552.1333333358,21.2732
1496097532,549.7333333358,20.7328
1496097534,588.1333333358,20.0871
1496097536,568.9333333358,19.5911
1496097538,573.7333333358,23.0505
1496097540,602.5333333358,18.083
1496097542,604.9333333358,20.5547
1496097544,542.5333333358,20.515
1496097546,549.7333333358,12.7586
1496097548,516.1333333358,16.3794
1496097550,595.3333333358,21.9703
1496097552,566.5333333358,25.26
1496097554,561.7333333358,18.8472
1496097556,573.7333333358,18.6733
1496097558,532.9333333358,22.4792
1496097560,590.5333333358,21.8703
1496097562,542.5333333358,23.8417
1496097564,484.9333333358,17.961
1496097566,525.7333333358,15.7228
1496097568,487.3333333358,15.5088
1496097570,410.5333333358,15.146
1496097572,451.3333333358,17.8214
1496097574,412.9333333358,17.9932
1496097576,417.7333333358,16.8147
1496097578,446.5333333358,20.0684
1496097580,412.9333333358,20.0856
1496097582,412.9333333358,17.5194
1496097584,453.7333333358,11.7056
1496097586,391.3333333358,16.0346
1496097588,410.5333333358,16.4285
1496097590,434.5333333358,18.6645
1496097592,376.9333333358,15.3425
1496097594,379.3333333358,20.2827
1496097596,453.7333333358,20.8454
1496097598,398.5333333358,22.291
1496097600,422.5333333358,20.2843
1496097602,439.3333333358,20.0464
1496097604,432.1333333358,24.1382
1496097606,417.7333333358,17.5217
1496097608,403.3333333358,24.2878
1496097610,422.5333333358,24.4947
1496097612,398.5333333358,27.6389
1496097614,400.9333333358,24.4315
1496097616,446.5333333358,23.8309
1496097618,396.1333333358,24.5181
1496097620,396.1333333358,24.0051
1496097622,422.5333333358,23.511
1496097624,475.3333333358,29.0131
1496097626,453.7333333358,24.0162
1496097628,424.9333333358,20.2177
1496097630,472.9333333358,17.4831
1496097632,465.7333333358,14.0767
1496097634,477.7333333358,20.0895
1496097636,482.5333333358,20.2729
1496097638,470.5333333358,22.4704
1496097640,458.5333333358,20.1638
1496097642,528.1333333358,18.1412
1496097644,492.1333333358,19.2634
1496097646,458.5333333358,15.8485
1496097648,528.1333333358,14.8258
1496097650,554.5333333358,18.2787
1496097652,528.1333333358,19.5314
1496097654,506.5333333358,19.111
1496097656,523.3333333358,27.6511
1496097658,513.7333333358,21.4716
1496097660,456.1333333358,14.4715
1496097662,484.9333333358,10.1061
1496097664,475.3333333358,8.92262
1496097666,424.9333333358,13.3
1496097668,427.3333333358,22.3978
1496097670,374.5333333358,13.4254
1496097672,386.5333333358,16.1832
1496097674,386.5333333358,16.8264
1496097676,412.9333333358,21.119
1496097678,360.1333333358,19.0822
1496097680,384.1333333358,24.2729
1496097682,345.7333333358,23.1042
1496097684,367.3333333358,24.9784
1496097686,381.7333333358,20.5607
1496097688,393.7333333358,18.801
1496097690,381.7333333358,19.8097
1496097692,403.3333333358,15.9302
1496097694,405.7333333358,18.6312
1496097696,412.9333333358,19.4496
1496097698,374.5333333358,20.6384
1496097700,393.7333333358,19.1504
1496097702,386.5333333358,16.3007
1496097704,384.1333333358,18.0991
1496097706,408.1333333358,16.1365
1496097708,448.9333333358,22.449
1496097710,405.7333333358,22.0775
1496097712,352.9333333358,18.8343
1496097714,448.9333333358,21.404
1496097716,441.7333333358,23.1005
1496097718,410.5333333358,19.1883
1496097720,424.9333333358,18.8947
1496097722,391.3333333358,18.7694
1496097724,355.3333333358,22.2638
1496097726,369.7333333358,20.6901
1496097728,494.5333333358,20.7342
1496097730,446.5333333358,22.5965
1496097732,468.1333333358,23.5655
1496097734,451.3333333358,20.7044
1496097736,444.1333333358,20.5717
1496097738,412.9333333358,13.2215
1496097740,506.5333333358,12.2458
1496097742,499.3333333358,18.5094
1496097744,506.5333333358,17.3655
1496097746,513.7333333358,16.5812
1496097748,489.7333333358,18.7399
1496097750,489.7333333358,19.4036
1496097752,489.7333333358,21.1902
1496097754,540.1333333358,26.587
1496097756,484.9333333358,23.9092
1496097758,468.1333333358,20.1027
1496097760,525.7333333358,22.3828
1496097762,484.9333333358,26.0289
1496097764,475.3333333358,23.7098
1496097766,540.1333333358,25.0197
1496097768,540.1333333358,25.3023
1496097770,516.1333333358,21.4914
1496097772,523.3333333358,20.6021
1496097774,532.9333333358,18.4731
1496097776,532.9333333358,20.1861
1496097778,535.3333333358,20.6237
1496097780,504.1333333358,18.564
1496097782,520.9333333358,22.0525
1496097784,528.1333333358,18.4462
1496097786,537.7333333358,21.999
1496097788,518.5333333358,20.7447
1496097790,496.9333333358,19.1609
1496097792,501.7333333358,21.6598
1496097794,537.7333333358,17.8327
1496097796,540.1333333358,17.972
1496097798,552.1333333358,17.0256
1496097800,554.5333333358,19.1106
1496097802,544.9333333358,21.3242
1496097804,612.1333333358,21.8557
1496097806,532.9333333358,23.0309
1496097808,535.3333333358,20.8332
1496097810,532.9333333358,24.5048
1496097812,523.3333333358,18.677
1496097814,525.7333333358,17.451
1496097816,489.7333333358,21.2257
1496097818,432.1333333358,23.4018
1496097820,417.7333333358,19.9199
1496097822,501.7333333358,18.5241
1496097824,458.5333333358,21.4441
1496097826,525.7333333358,18.8478
1496097828,458.5333333358,24.8867
1496097830,470.5333333358,22.6603
1496097832,484.9333333358,22.9939
1496097834,472.9333333358,23.0772
1496097836,499.3333333358,21.8451
1496097838,424.9333333358,26.1222
1496097840,420.1333333358,21.241
1496097842,520.9333333358,17.3684
1496097844,436.9333333358,21.4221
1496097846,403.3333333358,20.2971
1496097848,484.9333333358,21.6596
1496097850,446.5333333358,23.7622
1496097852,424.9333333358,25.2664
1496097854,436.9333333358,26.5787
1496097856,415.3333333358,20.9693
1496097858,463.3333333358,21.3861
1496097860,532.9333333358,23.7149
1496097862,472.9333333358,24.9301
1496097864,472.9333333358,16.6792
1496097866,460.9333333358,21.6711
1496097868,508.9333333358,18.8814
1496097870,470.5333333358,21.843
1496097872,499.3333333358,19.4932
1496097874,520.9333333358,20.283
1496097876,520.9333333358,15.0561
1496097878,525.7333333358,18.9204
1496097880,520.9333333358,23.6693
1496097882,499.3333333358,27.2862
1496097884,540.1333333358,23.0668
1496097886,568.9333333358,23.8968
1496097888,532.9333333358,17.5355
1496097890,532.9333333358,18.3926
1496097892,532.9333333358,20.9474
1496097894,475.3333333358,18.7661
1496097896,528.1333333358,20.2273
1496097898,544.9333333358,19.5178
1496097900,520.9333333358,21.6488
1496097902,487.3333333358,21.6447
1496097904,549.7333333358,18.1033
1496097906,487.3333333358,20.5474
1496097908,480.1333333358,20.8413
1496097910,537.7333333358,20.3206
1496097912,537.7333333358,20.6926
1496097914,544.9333333358,20.1382
1496097916,528.1333333358,15.606
1496097918,535.3333333358,14.7034
1496097920,540.1333333358,14.6564
1496097922,535.3333333358,15.9575
1496097924,518.5333333358,14.8766
1496097926,525.7333333358,13.8317
1496097928,482.5333333358,17.4373
1496097930,448.9333333358,16.4672
1496097932,568.9333333358,18.8315
1496097934,542.5333333358,16.0008
1496097936,554.5333333358,19.1548
1496097938,566.5333333358,21.706
1496097940,472.9333333358,17.1757
1496097942,513.7333333358,19.56
1496097944,542.5333333358,19.2933
1496097946,525.7333333358,19.9052
1496097948,465.7333333358,21.3844
1496097950,511.3333333358,22.134
1496097952,460.9333333358,25.8171
1496097954,403.3333333358,24.5775
1496097956,451.3333333358,19.2532
1496097958,427.3333333358,18.315
1496097960,415.3333333358,14.8617
1496097962,444.1333333358,15.0406
1496097964,415.3333333358,16.6455
1496097966,403.3333333358,17.5319
1496097968,405.7333333358,19.9226
1496097970,441.7333333358,19.5814
1496097972,396.1333333358,16.8355
1496097974,424.9333333358,18.003
1496097976,439.3333333358,20.332
1496097978,415.3333333358,20.4344
1496097980,398.5333333358,16.837
1496097982,434.5333333358,22.5209
1496097984,475.3333333358,24.0742
1496097986,463.3333333358,20.7275
1496097988,439.3333333358,22.761
1496097990,504.1333333358,21.4383
1496097992,436.9333333358,16.5826
1496097994,532.9333333358,15.1007
1496097996,501.7333333358,16.7339
1496097998,475.3333333358,21.6049
1496098000,477.7333333358,9.76398
1496098002,523.3333333358,20.1736
1496098004,465.7333333358,13.3437
1496098006,446.5333333358,11.465
1496098008,432.1333333358,15.6234
1496098010,489.7333333358,16.0584
1496098012,460.9333333358,14.9484
1496098014,422.5333333358,21.9791
1496098016,422.5333333358,19.8927
1496098018,472.9333333358,28.7253
1496098020,405.7333333358,23.6537
1496098022,501.7333333358,25.1178
1496098024,441.7333333358,22.446
1496098026,436.9333333358,23.0764
1496098028,451.3333333358,19.3585
1496098030,417.7333333358,21.2124
1496098032,451.3333333358,24.4528
1496098034,410.5333333358,25.0029
1496098036,439.3333333358,21.1345
1496098038,422.5333333358,24.1928
1496098040,441.7333333358,22.9135
1496098042,451.3333333358,26.5727
1496098044,434.5333333358,25.6106
1496098046,456.1333333358,26.6408
1496098048,456.1333333358,28.1294
1496098050,422.5333333358,27.1235
1496098052,460.9333333358,23.842
1496098054,424.9333333358,18.1254
1496098056,432.1333333358,21.6628
1496098058,422.5333333358,21.3519
1496098060,460.9333333358,23.9788
1496098062,446.5333333358,18.481
1496098064,412.9333333358,17.9969
1496098066,391.3333333358,23.1339
1496098068,372.1333333358,21.5213
1496098070,415.3333333358,16.7492
1496098072,417.7333333358,21.2051
1496098074,396.1333333358,22.6529
1496098076,446.5333333358,18.7195
1496098078,436.9333333358,23.1684
1496098080,393.7333333358,19.7119
1496098082,439.3333333358,17.751
1496098084,487.3333333358,18.4289
1496098086,429.7333333358,20.7905
1496098088,386.5333333358,24.0648
1496098090,412.9333333358,22.5495
1496098092,391.3333333358,20.0869
1496098094,362.5333333358,16.1194
1496098096,393.7333333358,18.5125
1496098098,403.3333333358,15.3995
1496098100,410.5333333358,23.0063
1496098102,386.5333333358,19.074
1496098104,391.3333333358,18.4314
1496098106,400.9333333358,16.4117
1496098108,410.5333333358,19.1565
1496098110,403.3333333358,23.7745
1496098112,412.9333333358,20.4495
1496098114,364.9333333358,21.0362
1496098116,364.9333333358,22.3233
1496098118,388.9333333358,23.9237
1496098120,312.1333333358,19.4986
1496098122,369.7333333358,25.8203
1496098124,408.1333333358,18.6994
1496098126,364.9333333358,21.4803
1496098128,403.3333333358,19.9142
1496098130,424.9333333358,23.0569
1496098132,374.5333333358,23.8887
1496098134,388.9333333358,21.2577
1496098136,400.9333333358,22.4424
1496098138,364.9333333358,20.5063
1496098140,393.7333333358,10.4088
1496098142,379.3333333358,14.6463
1496098144,396.1333333358,23.2281
1496098146,398.5333333358,18.8761
1496098148,511.3333333358,22.1015
1496098150,489.7333333358,22.1342
1496098152,436.9333333358,23.9604
1496098154,451.3333333358,23.1959
1496098156,508.9333333358,17.3966
1496098158,516.1333333358,18.5959
1496098160,487.3333333358,22.7228
1496098162,470.5333333358,17.0355
1496098164,468.1333333358,21.432
1496098166,501.7333333358,16.9739
1496098168,458.5333333358,25.0109
1496098170,480.1333333358,19.5887
1496098172,494.5333333358,18.3465
1496098174,499.3333333358,13.4742
1496098176,518.5333333358,23.1182
1496098178,424.9333333358,21.2882
1496098180,444.1333333358,18.6692
1496098182,508.9333333358,20.9206
1496098184,458.5333333358,19.9447
1496098186,516.1333333358,19.8558
1496098188,439.3333333358,18.231
1496098190,456.1333333358,20.8879
1496098192,436.9333333358,19.8049
1496098194,444.1333333358,24.439
1496098196,482.5333333358,28.0838
1496098198,475.3333333358,23.1547
1496098200,496.9333333358,21.981
1496098202,429.7333333358,17.0165
1496098204,422.5333333358,21.122
1496098206,446.5333333358,20.7876
1496098208,484.9333333358,15.7621
1496098210,415.3333333358,22.5527
1496098212,417.7333333358,19.3223
1496098214,480.1333333358,20.8395
1496098216,427.3333333358,16.5466
1496098218,456.1333333358,17.2889
1496098220,487.3333333358,15.3857
1496098222,484.9333333358,24.8246
1496098224,492.1333333358,22.9183
1496098226,523.3333333358,23.5914
1496098228,516.1333333358,15.3623
1496098230,518.5333333358,18.2689
1496098232,537.7333333358,18.7054
1496098234,504.1333333358,20.7276
1496098236,535.3333333358,18.7204
1496098238,528.1333333358,20.684
1496098240,559.3333333358,20.017
1496098242,513.7333333358,15.8844
1496098244,540.1333333358,13.9449
1496098246,559.3333333358,20.5802
1496098248,528.1333333358,18.0264
1496098250,542.5333333358,19.2885
1496098252,525.7333333358,22.5362
1496098254,520.9333333358,20.2154
1496098256,544.9333333358,13.51
1496098258,499.3333333358,19.6333
1496098260,542.5333333358,19.2718
1496098262,516.1333333358,20.8712
1496098264,525.7333333358,17.7705
1496098266,494.5333333358,16.2738
1496098268,518.5333333358,19.0631
1496098270,547.3333333358,18.2042
1496098272,511.3333333358,18.3227
1496098274,494.5333333358,15.6805
1496098276,540.1333333358,20.6817
1496098278,540.1333333358,22.4118
1496098280,530.5333333358,24.9742
1496098282,525.7333333358,22.3582
1496098284,549.7333333358,20.3461
1496098286,477.7333333358,20.9935
1496098288,439.3333333358,13.8964
1496098290,532.9333333358,19.8167
1496098292,448.9333333358,17.5239
1496098294,441.7333333358,21.0591
1496098296,465.7333333358,23.2412
1496098298,439.3333333358,22.8739
1496098300,422.5333333358,21.4776
1496098302,432.1333333358,21.7862
1496098304,420.1333333358,18.0496
1496098306,391.3333333358,19.3667
1496098308,453.7333333358,17.1567
1496098310,410.5333333358,20.6442
1496098312,472.9333333358,17.6408
1496098314,448.9333333358,20.9109
1496098316,405.7333333358,15.1254
1496098318,482.5333333358,20.3683
1496098320,429.7333333358,18.2121
1496098322,408.1333333358,25.075
1496098324,432.1333333358,21.1284
1496098326,422.5333333358,21.0866
1496098328,506.5333333358,22.7571
1496098330,422.5333333358,20.5549
1496098332,432.1333333358,21.3677
1496098334,405.7333333358,25.3425
1496098336,379.3333333358,23.1038
1496098338,405.7333333358,21.4004
1496098340,412.9333333358,14.0473
1496098342,386.5333333358,16.5344
1496098344,412.9333333358,22.8424
1496098346,415.3333333358,17.9257
1496098350,422.5333333358,24.9825
1496098352,441.7333333358,20.5911
1496098354,427.3333333358,22.1724
1496098356,434.5333333358,19.3793
1496098358,451.3333333358,20.8266
1496098360,388.9333333358,20.3138
1496098362,453.7333333358,23.5712
1496098364,451.3333333358,18.8708
1496098366,415.3333333358,19.7901
1496098368,420.1333333358,12.1921
1496098370,463.3333333358,22.3185
1496098372,410.5333333358,19.9967
1496098374,439.3333333358,24.2822
1496098376,456.1333333358,27.823
1496098378,468.1333333358,27.5816
1496098380,458.5333333358,27.9281
1496098382,456.1333333358,29.3889
1496098384,427.3333333358,20.6421
1496098386,451.3333333358,20.4945
1496098388,451.3333333358,24.0162
1496098390,518.5333333358,24.2356
1496098392,429.7333333358,27.6117
1496098394,472.9333333358,23.0063
1496098396,398.5333333358,23.1803
1496098398,417.7333333358,21.86
1496098400,436.9333333358,21.315
1496098402,427.3333333358,17.8435
1496098404,403.3333333358,22.203
1496098406,422.5333333358,22.6688
1496098408,424.9333333358,20.1032
1496098410,420.1333333358,18.0966
1496098412,388.9333333358,18.4189
1496098414,448.9333333358,17.8726
1496098416,448.9333333358,18.3528
1496098418,391.3333333358,17.2928
1496098420,417.7333333358,19.9696
1496098422,475.3333333358,17.6222
1496098424,456.1333333358,15.1634
1496098426,444.1333333358,17.7517
1496098428,417.7333333358,22.1746
1496098430,424.9333333358,17.8833
1496098432,420.1333333358,23.1478
1496098434,415.3333333358,23.65
1496098436,432.1333333358,23.9683
1496098438,422.5333333358,27.2095
1496098440,417.7333333358,28.7678
1496098442,487.3333333358,28.8952
1496098444,417.7333333358,24.6166
1496098446,453.7333333358,17.2915
1496098448,410.5333333358,15.9563
1496098450,484.9333333358,19.5073
1496098452,434.5333333358,20.3363
1496098454,386.5333333358,23.3046
1496098456,408.1333333358,27.2583
1496098458,456.1333333358,23.5591
1496098460,412.9333333358,21.5667
1496098462,408.1333333358,23.337
1496098464,453.7333333358,21.925
1496098466,446.5333333358,23.2145
1496098468,432.1333333358,25.0888
1496098470,501.7333333358,23.1572
1496098472,376.9333333358,21.5875
1496098474,403.3333333358,17.3912
1496098476,412.9333333358,18.2466
1496098478,396.1333333358,25.1076
1496098480,484.9333333358,18.0116
1496098482,405.7333333358,18.5056
1496098484,420.1333333358,18.6278
1496098486,400.9333333358,20.631
1496098488,424.9333333358,17.4802
1496098490,403.3333333358,18.6257
1496098492,396.1333333358,20.8548
1496098494,456.1333333358,22.9267
1496098496,429.7333333358,27.3503
1496098498,420.1333333358,23.3569
1496098500,460.9333333358,15.7218
1496098502,417.7333333358,19.0594
1496098504,436.9333333358,20.9978
1496098506,441.7333333358,21.121
1496098508,441.7333333358,22.0829
1496098510,427.3333333358,22.55
1496098512,489.7333333358,19.4566
1496098514,420.1333333358,16.8685
1496098516,403.3333333358,22.7406
1496098518,391.3333333358,24.0544
1496098520,444.1333333358,18.7472
1496098522,403.3333333358,21.2443
1496098524,444.1333333358,21.6193
1496098526,386.5333333358,18.3642
1496098528,405.7333333358,21.0638
1496098530,384.1333333358,24.8364
1496098532,448.9333333358,18.8157
1496098534,400.9333333358,20.8316
1496098536,374.5333333358,18.8798
1496098538,405.7333333358,19.6383
1496098540,434.5333333358,20.3039
1496098542,384.1333333358,15.2171
1496098544,448.9333333358,24.6719
1496098546,460.9333333358,22.7916
1496098548,384.1333333358,20.135
1496098550,420.1333333358,21.7143
1496098552,410.5333333358,20.7208
1496098554,405.7333333358,21.2276
1496098556,422.5333333358,23.6446
1496098558,451.3333333358,30.3177
1496098560,480.1333333358,26.8365
1496098562,424.9333333358,26.593
1496098564,424.9333333358,28.3574
1496098566,417.7333333358,22.3247
1496098568,400.9333333358,24.2118
1496098570,427.3333333358,20.751
1496098572,446.5333333358,27.3831
1496098574,451.3333333358,23.4703
1496098576,429.7333333358,28.1656
1496098578,381.7333333358,21.5891
1496098580,391.3333333358,18.4123
1496098582,439.3333333358,19.6991
1496098584,393.7333333358,18.133
1496098586,379.3333333358,22.3283
1496098588,379.3333333358,24.6724
1496098590,367.3333333358,24.3416
1496098592,352.9333333358,26.1666
1496098594,393.7333333358,23.8013
1496098596,381.7333333358,20.2055
1496098598,376.9333333358,20.4623
1496098600,400.9333333358,21.988
1496098602,400.9333333358,26.0634
1496098604,398.5333333358,24.3257
1496098606,441.7333333358,20.7202
1496098608,492.1333333358,19.7633
1496098610,518.5333333358,19.9827
1496098612,540.1333333358,21.9956
1496098614,530.5333333358,20.0095
1496098616,535.3333333358,20.8108
1496098618,544.9333333358,21.2865
1496098620,547.3333333358,15.9171
1496098622,556.9333333358,19.4274
1496098624,535.3333333358,16.5004
1496098626,544.9333333358,22.5565
1496098628,556.9333333358,23.8981
1496098630,552.1333333358,18.1359
1496098632,542.5333333358,20.8685
1496098634,561.7333333358,23.6391
1496098636,559.3333333358,23.7658
1496098638,621.7333333358,21.8954
1496098640,621.7333333358,20.0737
1496098642,595.3333333358,23.0916
1496098644,544.9333333358,24.8614
1496098646,542.5333333358,25.4714
1496098648,542.5333333358,31.25
1496098650,616.9333333358,18.7174
1496098652,607.3333333358,24.25
1496098654,532.9333333358,21.5722
1496098656,595.3333333358,20.6671
1496098658,547.3333333358,19.302
1496098660,542.5333333358,18.1296
1496098662,556.9333333358,22.7873
1496098664,492.1333333358,20.815
1496098666,549.7333333358,20.214
1496098668,552.1333333358,19.1384
1496098670,511.3333333358,20.3278
1496098672,554.5333333358,19.5042
1496098674,585.7333333358,22.8414
1496098676,561.7333333358,17.6
1496098678,616.9333333358,22.1254
1496098680,626.5333333358,21.8178
1496098682,633.7333333358,19.6229
1496098684,636.1333333358,21.1196
1496098686,616.9333333358,19.2788
1496098688,624.1333333358,19.1859
1496098690,602.5333333358,24.1799
1496098692,604.9333333358,20.9722
1496098694,614.5333333358,20.8347
1496098696,616.9333333358,22.3824
1496098698,607.3333333358,27.1101
1496098700,621.7333333358,19.7874
1496098702,583.3333333358,22.4165
1496098704,614.5333333358,23.2987
1496098706,619.3333333358,21.8751
1496098708,544.9333333358,25.0296
1496098710,554.5333333358,25.0085
1496098712,537.7333333358,19.2049
1496098714,470.5333333358,18.9368
1496098716,544.9333333358,16.4319
1496098718,523.3333333358,15.6067
1496098720,532.9333333358,15.8498
1496098722,535.3333333358,12.9004
1496098724,506.5333333358,13.9543
1496098726,547.3333333358,20.5644
1496098728,590.5333333358,21.3119
1496098730,547.3333333358,24.5121
1496098732,532.9333333358,24.3504
1496098734,542.5333333358,21.2877
1496098736,556.9333333358,17.7275
1496098738,530.5333333358,24.664
1496098740,523.3333333358,18.8264
1496098742,566.5333333358,19.0111
1496098744,501.7333333358,22.2681
1496098746,480.1333333358,24.3637
1496098748,511.3333333358,17.3278
1496098750,463.3333333358,19.8687
1496098752,499.3333333358,20.6515
1496098754,472.9333333358,20.6254
1496098756,504.1333333358,24.7213
1496098758,393.7333333358,25.5533
1496098760,441.7333333358,21.1615
1496098762,408.1333333358,16.6986
1496098764,475.3333333358,22.2127
1496098766,489.7333333358,16.94
1496098768,400.9333333358,17.7471
1496098770,441.7333333358,14.5402
1496098772,489.7333333358,18.4593
1496098774,468.1333333358,21.9813
1496098776,482.5333333358,21.7542
1496098778,508.9333333358,20.3023
1496098780,448.9333333358,26.9448
1496098782,465.7333333358,22.507
1496098784,518.5333333358,23.0469
1496098786,535.3333333358,17.9166
1496098788,537.7333333358,17.1896
1496098790,559.3333333358,24.6765
1496098792,556.9333333358,24.997
1496098794,619.3333333358,20.2777
1496098796,616.9333333358,20.1104
1496098798,631.3333333358,23.3222
1496098800,626.5333333358,21.8784
1496098802,650.5333333358,18.9674
1496098804,667.3333333358,21.136
1496098806,636.1333333358,26.1973
1496098808,679.3333333358,24.1339
1496098810,648.1333333358,22.131
1496098812,616.9333333358,24.2558
1496098814,612.1333333358,21.5136
1496098816,600.1333333358,20.4743
1496098818,602.5333333358,17.7876
1496098820,604.9333333358,21.6232
1496098822,619.3333333358,25.3766
1496098824,552.1333333358,25.2971
1496098826,559.3333333358,22.9648
1496098828,588.1333333358,24.2325
1496098830,525.7333333358,24.2279
1496098832,600.1333333358,17.3919
1496098834,571.3333333358,20.6703
1496098836,588.1333333358,24.4746
1496098838,628.9333333358,21.2996
1496098840,583.3333333358,23.8198
1496098842,559.3333333358,25.0233
1496098844,590.5333333358,23.6678
1496098846,554.5333333358,22.875
1496098848,544.9333333358,20.5859
1496098850,604.9333333358,21.3938
1496098852,556.9333333358,20.1557
1496098854,537.7333333358,19.7381
1496098856,542.5333333358,18.0634
1496098858,542.5333333358,15.238
1496098860,508.9333333358,18.1572
1496098862,528.1333333358,17.6733
1496098864,489.7333333358,19.5721
1496098866,429.7333333358,16.2475
1496098868,540.1333333358,17.4892
1496098870,585.7333333358,17.4993
1496098872,496.9333333358,23.7342
1496098874,506.5333333358,14.8207
1496098876,499.3333333358,17.3107
1496098878,513.7333333358,19.4113
1496098880,480.1333333358,14.4492
1496098882,499.3333333358,16.5295
1496098884,482.5333333358,16.2266
1496098886,484.9333333358,18.0559
1496098888,477.7333333358,20.1728
1496098890,424.9333333358,18.084
1496098892,530.5333333358,13.9705
1496098894,484.9333333358,20.1307
1496098896,456.1333333358,22.3271
1496098898,511.3333333358,21.7293
1496098900,504.1333333358,14.4138
1496098902,489.7333333358,16.2017
1496098904,518.5333333358,15.5723
1496098906,535.3333333358,15.264
1496098908,465.7333333358,19.1141
1496098910,535.3333333358,23.9298
1496098912,544.9333333358,23.7802
1496098914,564.1333333358,20.7534
1496098916,607.3333333358,16.3214
1496098918,554.5333333358,23.9245
1496098920,547.3333333358,22.6009
1496098922,561.7333333358,24.226
1496098924,556.9333333358,15.3529
1496098926,547.3333333358,18.4499
1496098928,549.7333333358,19.9218
1496098930,530.5333333358,20.1964
1496098932,501.7333333358,20.5223
1496098934,468.1333333358,21.1755
1496098936,530.5333333358,22.5535
1496098938,489.7333333358,21.7163
1496098940,516.1333333358,18.9429
1496098942,475.3333333358,19.4109
1496098944,403.3333333358,20.3673
1496098946,432.1333333358,16.2235
1496098948,494.5333333358,20.3232
1496098950,410.5333333358,22.4745
1496098952,516.1333333358,19.4028
1496098954,504.1333333358,19.5724
1496098956,472.9333333358,20.2284
1496098958,439.3333333358,19.0508
1496098960,516.1333333358,19.5133
1496098962,494.5333333358,22.5457
1496098964,508.9333333358,24.0594
1496098966,523.3333333358,22.0502
1496098968,456.1333333358,26.3182
1496098970,547.3333333358,26.6694
1496098972,489.7333333358,30.6581
1496098974,489.7333333358,24.9386
1496098976,511.3333333358,26.7108
1496098978,470.5333333358,20.9664
1496098980,424.9333333358,21.4714
1496098982,475.3333333358,23.5367
1496098984,422.5333333358,23.7469
1496098986,468.1333333358,23.6793
1496098988,528.1333333358,22.2241
1496098990,516.1333333358,20.3193
1496098992,472.9333333358,12.5403
1496098994,547.3333333358,20.904
1496098996,530.5333333358,25.9918
1496098998,549.7333333358,24.2758
1496099000,597.7333333358,22.7466
1496099002,573.7333333358,24.9603
1496099004,528.1333333358,25.6527
1496099006,520.9333333358,27.7067
1496099008,559.3333333358,26.5628
1496099010,585.7333333358,22.781
1496099012,568.9333333358,22.6278
1496099014,561.7333333358,20.2774
1496099016,549.7333333358,22.5095
1496099018,559.3333333358,18.1915
1496099020,609.7333333358,17.1931
1496099022,530.5333333358,22.2507
1496099024,600.1333333358,20.7037
1496099026,549.7333333358,23.485
1496099028,552.1333333358,20.4618
1496099030,604.9333333358,18.3689
1496099032,561.7333333358,17.9131
1496099034,547.3333333358,18.8571
1496099036,556.9333333358,22.9844
1496099038,554.5333333358,14.9904
1496099040,564.1333333358,17.7261
1496099042,597.7333333358,19.2322
1496099044,540.1333333358,22.746
1496099046,614.5333333358,18.916
1496099048,592.9333333358,22.711
1496099050,540.1333333358,25.9396
1496099052,554.5333333358,26.4027
1496099054,583.3333333358,23.3431
1496099056,537.7333333358,27.1301
1496099058,564.1333333358,19.8277
1496099060,532.9333333358,23.4176
1496099062,525.7333333358,22.1259
1496099064,535.3333333358,24.5663
1496099066,523.3333333358,21.4639
1496099068,540.1333333358,24.8153
1496099070,499.3333333358,22.8617
1496099072,520.9333333358,22.0089
1496099074,506.5333333358,20.1349
1496099076,528.1333333358,20.6498
1496099078,561.7333333358,22.2297
1496099080,542.5333333358,17.9055
1496099082,513.7333333358,17.2393
1496099084,518.5333333358,17.8361
1496099086,458.5333333358,21.2575
1496099088,487.3333333358,16.2968
1496099090,475.3333333358,19.1938
1496099092,470.5333333358,21.4682
1496099094,477.7333333358,20.6281
1496099096,460.9333333358,16.5528
1496099098,489.7333333358,12.557
1496099100,448.9333333358,19.8201
1496099102,494.5333333358,16.0391
1496099104,458.5333333358,20.4267
1496099106,465.7333333358,21.0819
1496099108,508.9333333358,26.3204
1496099110,518.5333333358,26.0307
1496099112,516.1333333358,21.6747
1496099114,496.9333333358,24.3025
1496099116,475.3333333358,25.9315
1496099118,489.7333333358,24.2825
1496099120,511.3333333358,25.7661
1496099122,525.7333333358,23.773
1496099124,504.1333333358,20.8976
1496099126,511.3333333358,20.6302
1496099128,528.1333333358,22.0021
1496099130,525.7333333358,20.0357
1496099132,542.5333333358,17.9921
1496099134,547.3333333358,17.6213
1496099136,516.1333333358,13.8536
1496099138,525.7333333358,16.3208
1496099140,578.5333333358,12.4943
1496099142,528.1333333358,16.5845
1496099144,537.7333333358,21.7088
1496099146,619.3333333358,17.0243
1496099148,585.7333333358,16.1411
1496099150,573.7333333358,16.1301
1496099152,609.7333333358,19.185
1496099154,600.1333333358,15.4863
1496099156,583.3333333358,18.3237
1496099158,597.7333333358,23.0591
1496099160,530.5333333358,21.2987
1496099162,595.3333333358,16.3979
1496099164,633.7333333358,19.1509
1496099166,597.7333333358,14.8569
1496099168,552.1333333358,14.4408
1496099170,566.5333333358,16.1778
1496099172,547.3333333358,22.1295
1496099174,537.7333333358,22.2014
1496099176,573.7333333358,19.5295
1496099178,549.7333333358,18.7269
1496099180,547.3333333358,21.4371
1496099182,496.9333333358,19.6677
1496099184,508.9333333358,23.1565
1496099186,489.7333333358,14.6002
1496099188,492.1333333358,19.8081
1496099190,494.5333333358,19.5361
1496099192,532.9333333358,23.982
1496099194,489.7333333358,19.1767
1496099196,492.1333333358,16.5129
1496099198,504.1333333358,16.8734
1496099200,511.3333333358,15.9313
1496099202,528.1333333358,21.3605
1496099204,520.9333333358,17.6164
1496099206,535.3333333358,21.9592
1496099208,552.1333333358,21.6868
1496099210,525.7333333358,21.8391
1496099212,547.3333333358,17.2285
1496099214,597.7333333358,16.7265
1496099216,528.1333333358,15.7956
1496099218,547.3333333358,18.4297
1496099220,540.1333333358,22.9261
1496099222,556.9333333358,21.6356
1496099224,554.5333333358,24.9557
1496099226,532.9333333358,25.083
1496099228,525.7333333358,18.7964
1496099230,578.5333333358,20.2784
1496099232,544.9333333358,23.1081
1496099234,556.9333333358,23.1134
1496099236,559.3333333358,17.5869
1496099238,576.1333333358,11.5147
1496099240,619.3333333358,18.5946
1496099242,549.7333333358,24.7669
1496099244,585.7333333358,20.6742
1496099246,535.3333333358,23.1867
1496099248,547.3333333358,16.3127
1496099250,583.3333333358,18.2762
1496099252,542.5333333358,16.2185
1496099254,492.1333333358,22.8243
1496099256,547.3333333358,17.2465
1496099258,542.5333333358,16.5623
1496099260,559.3333333358,17.6169
1496099262,568.9333333358,21.5778
1496099264,576.1333333358,22.5205
1496099266,525.7333333358,22.4971
1496099268,530.5333333358,20.5058
1496099270,561.7333333358,21.0108
1496099272,559.3333333358,19.7179
1496099274,554.5333333358,16.0146
1496099276,554.5333333358,12.6116
1496099278,607.3333333358,15.1596
1496099280,578.5333333358,18.976
1496099282,621.7333333358,17.5277
1496099284,564.1333333358,19.3505
1496099286,592.9333333358,18.5126
1496099288,573.7333333358,20.6337
1496099290,564.1333333358,19.7909
1496099292,592.9333333358,13.6236
1496099294,621.7333333358,17.1947
1496099296,576.1333333358,19.1596
1496099298,619.3333333358,21.4238
1496099300,590.5333333358,16.6312
1496099302,556.9333333358,16.2108
1496099304,614.5333333358,23.0367
1496099306,631.3333333358,17.7194
1496099308,590.5333333358,20.4114
1496099310,561.7333333358,17.9273
1496099312,537.7333333358,16.9907
1496099314,501.7333333358,23.0824
1496099316,472.9333333358,23.0739
1496099318,504.1333333358,21.1988
1496099320,468.1333333358,19.7146
1496099322,451.3333333358,17.4116
1496099324,480.1333333358,19.5708
1496099326,460.9333333358,21.624
1496099328,453.7333333358,25.1871
1496099330,458.5333333358,23.0922
1496099332,499.3333333358,21.789
1496099334,448.9333333358,24.3256
1496099336,516.1333333358,24.0355
1496099338,492.1333333358,23.1992
1496099340,472.9333333358,25.4722
1496099342,456.1333333358,19.2514
1496099344,400.9333333358,19.2125
1496099346,492.1333333358,23.3446
1496099348,400.9333333358,20.9846
1496099350,456.1333333358,18.768
1496099352,429.7333333358,18.4193
1496099354,544.9333333358,21.2531
1496099356,484.9333333358,21.1574
1496099358,448.9333333358,21.6271
1496099360,499.3333333358,22.5207
1496099362,451.3333333358,23.6942
1496099364,482.5333333358,23.449
1496099366,494.5333333358,23.4217
1496099368,446.5333333358,24.0754
1496099370,496.9333333358,24.4929
1496099372,489.7333333358,20.7502
1496099374,453.7333333358,17.4177
1496099376,460.9333333358,20.5738
1496099378,444.1333333358,24.2081
1496099380,436.9333333358,23.5838
1496099382,417.7333333358,25.7232
1496099384,448.9333333358,21.1889
1496099386,362.5333333358,17.5588
1496099388,362.5333333358,22.4945
1496099390,398.5333333358,20.604
1496099392,400.9333333358,20.3664
1496099394,405.7333333358,23.3362
1496099396,393.7333333358,27.1662
1496099398,374.5333333358,24.9723
1496099400,384.1333333358,26.1197
1496099402,408.1333333358,22.9212
1496099404,415.3333333358,29.1482
1496099406,396.1333333358,21.3631
1496099408,412.9333333358,22.1365
1496099410,367.3333333358,24.6327
1496099412,403.3333333358,19.3762
1496099414,396.1333333358,20.5574
1496099416,403.3333333358,26.3445
1496099418,386.5333333358,24.8393
1496099420,422.5333333358,24.4706
1496099422,398.5333333358,20.1668
1496099424,403.3333333358,19.638
1496099426,427.3333333358,19.457
1496099428,434.5333333358,21.9141
1496099430,415.3333333358,21.6091
1496099432,415.3333333358,21.0088
1496099434,451.3333333358,23.265
1496099436,420.1333333358,15.7876
1496099438,415.3333333358,15.4975
1496099440,388.9333333358,19.0906
1496099442,422.5333333358,25.4616
1496099444,441.7333333358,26.1183
1496099446,465.7333333358,25.2379
1496099448,427.3333333358,20.0405
1496099450,427.3333333358,20.8389
1496099452,446.5333333358,20.6008
1496099454,446.5333333358,19.5171
1496099456,458.5333333358,22.703
1496099458,465.7333333358,26.6548
1496099460,405.7333333358,25.2886
1496099462,439.3333333358,23.6556
1496099464,439.3333333358,19.3257
1496099466,420.1333333358,20.9566
1496099468,412.9333333358,18.2677
1496099470,422.5333333358,14.0151
1496099472,396.1333333358,12.3106
1496099474,398.5333333358,15.5483
1496099476,400.9333333358,19.1136
1496099478,348.1333333358,19.626
1496099480,391.3333333358,16.2747
1496099482,393.7333333358,17.0785
1496099484,477.7333333358,21.1162
1496099486,400.9333333358,16.6782
1496099488,504.1333333358,16.997
1496099490,439.3333333358,15.3109
1496099492,516.1333333358,19.0333
1496099494,504.1333333358,18.6806
1496099496,566.5333333358,20.6274
1496099498,600.1333333358,16.0383
1496099500,607.3333333358,19.4178
1496099502,638.5333333358,15.5105
1496099504,667.3333333358,19.8146
1496099506,736.9333333358,15.6486
1496099508,708.1333333358,20.4386
1496099510,698.5333333358,19.0818
1496099512,650.5333333358,20.1266
1496099514,638.5333333358,19.3817
1496099516,592.9333333358,15.4528
1496099518,549.7333333358,19.2837
1496099520,532.9333333358,19.0176
1496099522,516.1333333358,22.1352
1496099524,592.9333333358,25.6737
1496099526,559.3333333358,21.6
1496099528,568.9333333358,16.8778
1496099530,602.5333333358,13.2619
1496099532,616.9333333358,20.4898
1496099534,568.9333333358,22.0603
1496099536,602.5333333358,21.7244
1496099538,609.7333333358,17.1231
1496099540,588.1333333358,19.3346
1496099542,559.3333333358,24.2843
1496099544,576.1333333358,22.3721
1496099546,528.1333333358,24.4063
1496099548,544.9333333358,22.1169
1496099550,508.9333333358,26.666
1496099552,475.3333333358,22.9829
1496099554,532.9333333358,25.9824
1496099556,556.9333333358,23.6431
1496099558,477.7333333358,19.6239
1496099560,475.3333333358,22.4555
1496099562,518.5333333358,22.5378
1496099564,470.5333333358,22.6033
1496099566,511.3333333358,21.6395
1496099568,530.5333333358,20.0368
1496099570,460.9333333358,19.1129
1496099572,441.7333333358,26.2248
1496099574,516.1333333358,23.8989
1496099576,494.5333333358,25.7045
1496099578,460.9333333358,24.9326
1496099580,480.1333333358,20.8586
1496099582,484.9333333358,24.6574
1496099584,487.3333333358,26.2473
1496099586,482.5333333358,26.6918
1496099588,441.7333333358,23.8534
1496099590,448.9333333358,17.0218
1496099592,516.1333333358,20.8166
1496099594,484.9333333358,22.7772
1496099596,537.7333333358,19.8543
1496099598,504.1333333358,22.9079
1496099600,463.3333333358,22.573
1496099602,530.5333333358,22.4798
1496099604,544.9333333358,21.2113
1496099606,472.9333333358,20.3446
1496099608,506.5333333358,19.0689
1496099610,513.7333333358,19.039
1496099612,482.5333333358,22.1427
1496099614,508.9333333358,16.7458
1496099616,482.5333333358,19.373
1496099618,415.3333333358,18.2845
1496099620,470.5333333358,21.026
1496099622,492.1333333358,17.3643
1496099624,494.5333333358,21.495
1496099626,460.9333333358,21.7881
1496099628,492.1333333358,20.0809
1496099630,458.5333333358,20.9499
1496099632,496.9333333358,22.8068
1496099634,540.1333333358,15.6942
1496099636,499.3333333358,22.6497
1496099638,520.9333333358,17.2145
1496099640,489.7333333358,19.2629
1496099642,520.9333333358,20.5474
1496099644,532.9333333358,16.2016
1496099646,489.7333333358,17.2079
1496099648,525.7333333358,18.809
1496099650,523.3333333358,15.3855
1496099652,506.5333333358,15.9294
1496099654,520.9333333358,14.6749
1496099656,528.1333333358,17.1423
1496099658,566.5333333358,22.2047
1496099660,547.3333333358,18.1559
1496099662,556.9333333358,17.4832
1496099664,607.3333333358,18.5162
1496099666,559.3333333358,15.952
1496099668,561.7333333358,20.8902
1496099670,540.1333333358,19.1439
1496099672,530.5333333358,12.7609
1496099674,549.7333333358,11.3449
1496099676,566.5333333358,16.9365
1496099678,552.1333333358,17.6925
1496099680,494.5333333358,19.6817
1496099682,525.7333333358,19.4824
1496099684,484.9333333358,15.5351
1496099686,456.1333333358,18.0059
1496099688,453.7333333358,20.9848
1496099690,477.7333333358,17.7549
1496099692,472.9333333358,16.9123
1496099694,463.3333333358,20.2464
1496099696,453.7333333358,18.5428
1496099698,451.3333333358,23.4136
1496099700,441.7333333358,21.5544
1496099702,410.5333333358,18.2884
1496099704,439.3333333358,17.1624
1496099706,436.9333333358,18.8873
1496099708,463.3333333358,21.9709
1496099710,412.9333333358,21.4231
1496099712,480.1333333358,18.0552
1496099714,465.7333333358,15.7909
1496099716,511.3333333358,16.4236
1496099718,544.9333333358,16.5872
1496099720,540.1333333358,15.2561
1496099722,492.1333333358,19.1188
1496099724,492.1333333358,22.3212
1496099726,448.9333333358,17.5323
1496099728,489.7333333358,19.4958
1496099730,489.7333333358,22.9534
1496099732,453.7333333358,21.2329
1496099734,446.5333333358,16.7057
1496099736,432.1333333358,17.3417
1496099738,434.5333333358,14.3321
1496099740,444.1333333358,18.0908
1496099742,458.5333333358,15.515
1496099744,417.7333333358,16.383
1496099746,405.7333333358,17.7503
1496099748,420.1333333358,17.6394
1496099750,379.3333333358,16.3504
1496099752,499.3333333358,19.5293
1496099754,436.9333333358,24.7411
1496099756,482.5333333358,20.7756
1496099758,489.7333333358,18.8425
1496099760,472.9333333358,19.2474
1496099762,484.9333333358,21.7772
1496099764,496.9333333358,19.4743
1496099766,518.5333333358,19.7067
1496099768,499.3333333358,20.2546
1496099770,530.5333333358,20.2133
1496099772,508.9333333358,20.4415
1496099774,544.9333333358,17.1433
1496099776,544.9333333358,23.1312
1496099778,542.5333333358,20.6385
1496099780,540.1333333358,18.8749
1496099782,439.3333333358,24.9673
1496099784,508.9333333358,24.6693
1496099786,496.9333333358,23.6655
1496099788,523.3333333358,21.9359
1496099790,470.5333333358,18.4544
1496099792,482.5333333358,17.5262
1496099794,506.5333333358,18.5942
1496099796,518.5333333358,21.4307
1496099798,444.1333333358,24.2104
1496099800,487.3333333358,24.0134
1496099802,412.9333333358,18.4454
1496099804,508.9333333358,17.8972
1496099806,451.3333333358,20.9571
1496099808,405.7333333358,18.1886
1496099810,424.9333333358,24.0844
1496099812,441.7333333358,26.5132
1496099814,420.1333333358,28.184
1496099816,444.1333333358,17.9054
1496099818,446.5333333358,25.1798
1496099820,388.9333333358,26.2174
1496099822,427.3333333358,22.644
1496099824,446.5333333358,19.8901
1496099826,398.5333333358,19.5894
1496099828,446.5333333358,19.6155
1496099830,427.3333333358,19.2792
1496099832,436.9333333358,21.9986
1496099834,422.5333333358,22.5017
1496099836,405.7333333358,22.3269
1496099838,420.1333333358,22.7631
1496099840,412.9333333358,23.0714
1496099842,400.9333333358,23.29
1496099844,396.1333333358,26.5506
1496099846,446.5333333358,22.4859
1496099848,429.7333333358,25.6662
1496099850,403.3333333358,24.7742
1496099852,441.7333333358,22.1521
1496099854,434.5333333358,24.0285
1496099856,417.7333333358,25.1825
1496099858,518.5333333358,22.6192
1496099860,448.9333333358,19.8829
1496099862,506.5333333358,17.054
1496099864,508.9333333358,22.3855
1496099866,535.3333333358,22.0104
1496099868,528.1333333358,19.8172
1496099870,547.3333333358,19.0138
1496099872,523.3333333358,20.2316
1496099874,434.5333333358,20.1722
1496099876,537.7333333358,17.2099
1496099878,501.7333333358,24.0302
1496099880,475.3333333358,24.396
1496099882,530.5333333358,21.8885
1496099884,523.3333333358,21.4978
1496099886,482.5333333358,21.797
1496099888,530.5333333358,24.9596
1496099890,540.1333333358,25.1175
1496099892,506.5333333358,19.7509
1496099894,499.3333333358,18.5698
1496099896,528.1333333358,22.7992
1496099898,544.9333333358,18.0461
1496099900,559.3333333358,16.7184
1496099902,528.1333333358,23.2932
1496099904,508.9333333358,18.0957
1496099906,528.1333333358,22.0055
1496099908,540.1333333358,17.7271
1496099910,460.9333333358,16.4484
1496099912,528.1333333358,15.4777
1496099914,537.7333333358,16.7141
1496099916,540.1333333358,16.9664
1496099918,544.9333333358,16.5891
1496099920,506.5333333358,16.434
1496099922,487.3333333358,16.3833
1496099924,482.5333333358,20.1868
1496099926,487.3333333358,15.7847
1496099928,408.1333333358,16.2295
1496099930,487.3333333358,15.9619
1496099932,540.1333333358,17.8433
1496099934,468.1333333358,21.035
1496099936,496.9333333358,17.8285
1496099938,480.1333333358,21.955
1496099940,400.9333333358,22.4544
1496099942,465.7333333358,27.464
1496099944,496.9333333358,22.7442
1496099946,492.1333333358,21.2643
1496099948,429.7333333358,20.4933
1496099950,463.3333333358,20.9432
1496099952,400.9333333358,23.2116
1496099954,408.1333333358,20.4507
1496099956,398.5333333358,22.6246
1496099958,458.5333333358,21.0554
1496099960,434.5333333358,20.2706
1496099962,412.9333333358,19.5522
1496099964,420.1333333358,21.4982
1496099966,432.1333333358,20.2446
1496099968,422.5333333358,20.8372
1496099970,487.3333333358,19.173
1496099972,448.9333333358,22.0721
1496099974,444.1333333358,17.38
1496099976,446.5333333358,21.9768
1496099978,465.7333333358,23.0893
1496099980,429.7333333358,24.0331
1496099982,458.5333333358,23.9834
1496099984,429.7333333358,18.9296
1496099986,398.5333333358,19.3042
1496099988,482.5333333358,22.4269
1496099990,468.1333333358,19.3321
1496099992,441.7333333358,20.5149
1496099994,444.1333333358,22.8117
1496099996,456.1333333358,18.2915
1496099998,465.7333333358,21.2956
1496100000,468.1333333358,20.9341
1496100002,429.7333333358,12.3959
1496100004,477.7333333358,19.8849
1496100006,504.1333333358,20.7697
1496100008,468.1333333358,22.306
1496100010,492.1333333358,20.0577
1496100012,472.9333333358,19.9167
1496100014,451.3333333358,18.9476
1496100016,487.3333333358,20.6829
1496100018,513.7333333358,21.827
1496100020,504.1333333358,23.4874
1496100022,458.5333333358,24.8369
1496100024,583.3333333358,27.1846
1496100026,528.1333333358,23.8744
1496100028,535.3333333358,17.4999
1496100030,542.5333333358,20.4425
1496100032,547.3333333358,18.5674
1496100034,556.9333333358,17.5978
1496100036,535.3333333358,21.4793
1496100038,528.1333333358,21.6662
1496100040,540.1333333358,17.2652
1496100042,554.5333333358,16.7471
1496100044,528.1333333358,20.7987
1496100046,547.3333333358,17.9853
1496100048,566.5333333358,18.8308
1496100050,532.9333333358,23.8173
1496100052,496.9333333358,18.1369
1496100054,516.1333333358,18.3838
1496100056,537.7333333358,19.1616
1496100058,535.3333333358,18.5906
