tag_number,delay,power_est
1496176760,250.8000000015,23.1547
1496176762,195.6000000015,19.0847
1496176764,234.0000000015,22.5409
1496176766,246.0000000015,24.397
1496176768,306.0000000015,15.3855
1496176770,282.0000000015,10.874
1496176772,294.0000000015,14.7796
1496176774,226.8000000015,13.6162
1496176776,210.0000000015,11.0641
1496176778,190.8000000015,5.79213
1496176780,260.4000000015,9.81472
1496176782,306.0000000015,12.4549
1496176784,214.8000000015,10.7247
1496176786,291.6000000015,12.0612
1496176788,207.6000000015,15.8939
1496176790,246.0000000015,18.4185
1496176792,298.8000000015,15.239
1496176794,243.6000000015,10.6378
1496176796,260.4000000015,17.1768
1496176798,325.2000000015,18.102
1496176800,236.4000000015,19.8643
1496176802,236.4000000015,15.6291
1496176804,301.2000000015,18.6036
1496176806,224.4000000015,18.8967
1496176808,243.6000000015,19.4488
1496176810,291.6000000015,18.3875
1496176812,274.8000000015,20.9596
1496176814,298.8000000015,24.6778
1496176816,234.0000000015,26.3541
1496176818,313.2000000015,22.5061
1496176820,231.6000000015,24.3664
1496176822,258.0000000015,19.3699
1496176824,260.4000000015,17.7143
1496176826,294.0000000015,19.788
1496176828,253.2000000015,21.2532
1496176830,296.4000000015,18.976
1496176834,243.6000000015,23.6009
1496176836,207.6000000015,21.1828
1496176838,282.0000000015,20.6414
1496176840,286.8000000015,28.4913
1496176842,255.6000000015,30.8468
1496176844,234.0000000015,29.9841
1496176846,253.2000000015,28.97
1496176848,195.6000000015,16.5108
1496176850,253.2000000015,22.0735
1496176852,241.2000000015,20.1206
1496176854,282.0000000015,23.2276
1496176856,265.2000000015,25.6512
1496176858,291.6000000015,24.3084
1496176860,274.8000000015,24.5126
1496176862,246.0000000015,26.216
1496176864,267.6000000015,27.0302
1496176866,294.0000000015,27.1761
1496176868,238.8000000015,31.0442
1496176870,320.4000000015,22.9945
1496176872,277.2000000015,22.9626
1496176874,207.6000000015,22.2617
1496176876,282.0000000015,19.6047
1496176878,354.0000000015,21.7389
1496176880,306.0000000015,22.8288
1496176882,318.0000000015,24.3141
1496176884,322.8000000015,20.8833
1496176886,306.0000000015,17.8443
1496176888,344.4000000015,13.2
1496176890,351.6000000015,19.3389
1496176892,378.0000000015,19.478
1496176894,334.8000000015,14.1081
1496176896,363.6000000015,14.3383
1496176898,363.6000000015,16.0732
1496176900,313.2000000015,17.4145
1496176902,358.8000000015,20.2261
1496176904,342.0000000015,19.4996
1496176906,291.6000000015,16.6826
1496176908,274.8000000015,22.1442
1496176910,274.8000000015,15.6854
1496176912,246.0000000015,23.0302
1496176914,229.2000000015,19.522
1496176916,229.2000000015,17.9226
1496176918,255.6000000015,20.3847
1496176920,212.4000000015,16.1469
1496176922,210.0000000015,21.1681
1496176924,226.8000000015,20.1712
1496176926,214.8000000015,19.4966
1496176928,219.6000000015,17.0309
1496176930,279.6000000015,19.3433
1496176932,243.6000000015,20.6168
1496176934,226.8000000015,21.2412
1496176936,212.4000000015,21.8499
1496176938,255.6000000015,19.5716
1496176940,224.4000000015,24.9362
1496176942,279.6000000015,22.0553
1496176944,226.8000000015,18.2328
1496176946,243.6000000015,18.8921
1496176948,236.4000000015,18.9183
1496176950,214.8000000015,14.9075
1496176952,207.6000000015,14.8688
1496176954,217.2000000015,12.6704
1496176956,217.2000000015,18.2272
1496176958,202.8000000015,18.3186
1496176960,272.4000000015,17.8139
1496176962,238.8000000015,19.2943
1496176964,212.4000000015,19.0141
1496176966,272.4000000015,21.0472
1496176968,258.0000000015,23.1254
1496176970,224.4000000015,16.9549
1496176972,229.2000000015,14.6794
1496176974,207.6000000015,15.4019
1496176976,219.6000000015,17.3623
1496176978,248.4000000015,16.8978
1496176980,238.8000000015,17.5264
1496176982,210.0000000015,11.1509
1496176984,193.2000000015,12.7843
1496176986,226.8000000015,22.7705
1496176988,210.0000000015,16.3361
1496176990,186.0000000015,18.2862
1496176992,219.6000000015,24.5674
1496176994,234.0000000015,22.8613
1496176996,176.4000000015,26.8526
1496176998,186.0000000015,25.481
1496177000,217.2000000015,28.0728
1496177002,212.4000000015,23.8741
1496177004,231.6000000015,21.7621
1496177006,241.2000000015,19.3396
1496177008,262.8000000015,23.0905
1496177010,262.8000000015,18.9307
1496177012,306.0000000015,19.2482
1496177014,310.8000000015,14.0828
1496177016,258.0000000015,15.7402
1496177018,274.8000000015,10.9117
1496177020,250.8000000015,17.061
1496177022,238.8000000015,16.9376
1496177024,354.0000000015,20.7402
1496177026,344.4000000015,20.4554
1496177028,308.4000000015,21.9936
1496177030,349.2000000015,27.0126
1496177032,296.4000000015,19.0755
1496177034,330.0000000015,19.1306
1496177036,327.6000000015,26.815
1496177038,296.4000000015,27.2721
1496177040,291.6000000015,23.4023
1496177042,291.6000000015,24.6468
1496177044,286.8000000015,27.197
1496177046,310.8000000015,24.8288
1496177048,330.0000000015,24.7559
1496177050,318.0000000015,21.7338
1496177052,291.6000000015,28.3841
1496177054,214.8000000015,30.6368
1496177056,346.8000000015,26.6084
1496177058,298.8000000015,25.1752
1496177060,258.0000000015,27.2682
1496177062,260.4000000015,27.7028
1496177064,310.8000000015,19.7003
1496177066,344.4000000015,24.7817
1496177068,327.6000000015,20.1168
1496177070,310.8000000015,21.396
1496177072,270.0000000015,22.8419
1496177074,284.4000000015,23.0056
1496177076,339.6000000015,21.9297
1496177078,322.8000000015,21.1774
1496177080,255.6000000015,24.6646
1496177082,296.4000000015,21.1911
1496177084,315.6000000015,22.8355
1496177086,310.8000000015,23.4296
1496177088,248.4000000015,26.3635
1496177090,330.0000000015,22.0106
1496177092,320.4000000015,21.4801
1496177094,284.4000000015,21.5629
1496177096,260.4000000015,21.2324
1496177098,277.2000000015,20.7961
1496177100,248.4000000015,24.1005
1496177102,332.4000000015,21.1821
1496177104,334.8000000015,19.9922
1496177106,260.4000000015,19.6718
1496177108,327.6000000015,23.3239
1496177110,349.2000000015,24.6276
1496177112,296.4000000015,19.7602
1496177114,327.6000000015,18.5841
1496177116,325.2000000015,17.6976
1496177118,330.0000000015,17.6068
1496177120,296.4000000015,19.4033
1496177122,279.6000000015,16.1652
1496177124,260.4000000015,19.5589
1496177126,246.0000000015,23.2087
1496177128,289.2000000015,16.5601
1496177130,265.2000000015,21.1475
1496177132,265.2000000015,19.302
1496177134,325.2000000015,19.7801
1496177136,298.8000000015,22.213
1496177138,248.4000000015,19.5458
1496177140,253.2000000015,23.4403
1496177142,306.0000000015,18.7927
1496177144,286.8000000015,15.3924
1496177146,306.0000000015,21.2843
1496177148,356.4000000015,24.1313
1496177150,238.8000000015,15.9447
1496177152,346.8000000015,18.6026
1496177154,330.0000000015,16.3466
1496177156,250.8000000015,18.2385
1496177158,286.8000000015,14.8345
1496177160,334.8000000015,19.0827
1496177162,253.2000000015,21.6887
1496177164,246.0000000015,22.9837
1496177166,272.4000000015,20.6477
1496177168,298.8000000015,22.8212
1496177170,195.6000000015,22.9128
1496177172,298.8000000015,18.4745
1496177174,327.6000000015,21.9185
1496177176,284.4000000015,19.3842
1496177178,298.8000000015,20.9877
1496177180,308.4000000015,20.3008
1496177182,303.6000000015,21.8021
1496177184,313.2000000015,24.2942
1496177186,296.4000000015,24.4288
1496177188,291.6000000015,22.2565
1496177190,286.8000000015,21.9389
1496177192,330.0000000015,22.4673
1496177194,286.8000000015,19.9585
1496177196,344.4000000015,24.9915
1496177198,284.4000000015,25.189
1496177200,322.8000000015,24.0337
1496177202,301.2000000015,18.838
1496177204,284.4000000015,24.4874
1496177206,320.4000000015,22.7243
1496177208,320.4000000015,19.8834
1496177210,322.8000000015,22.6793
1496177212,322.8000000015,21.1734
1496177214,241.2000000015,22.7352
1496177216,334.8000000015,20.0744
1496177218,318.0000000015,19.248
1496177220,320.4000000015,25.5819
1496177222,334.8000000015,23.2264
1496177224,344.4000000015,23.6251
1496177226,330.0000000015,23.4289
1496177228,339.6000000015,22.8776
1496177230,349.2000000015,22.0907
1496177232,289.2000000015,23.5236
1496177234,322.8000000015,21.0528
1496177236,342.0000000015,25.4044
1496177238,373.2000000015,25.4161
1496177240,392.4000000015,24.3743
1496177242,392.4000000015,26.7767
1496177244,342.0000000015,20.5731
1496177246,382.8000000015,18.641
1496177248,409.2000000015,18.0788
1496177250,399.6000000015,19.778
1496177252,433.2000000015,23.8211
1496177254,397.2000000015,20.5228
1496177256,380.4000000015,20.1685
1496177258,404.4000000015,18.9767
1496177260,402.0000000015,21.1278
1496177262,435.6000000015,22.7572
1496177264,363.6000000015,19.4802
1496177266,409.2000000015,22.4461
1496177268,356.4000000015,23.2385
1496177270,344.4000000015,23.25
1496177272,351.6000000015,19.4298
1496177274,334.8000000015,24.3178
1496177276,356.4000000015,17.6127
1496177278,351.6000000015,22.9625
1496177280,368.4000000015,22.2474
1496177282,342.0000000015,21.0774
1496177284,351.6000000015,24.498
1496177286,339.6000000015,24.9336
1496177288,330.0000000015,15.6705
1496177290,351.6000000015,20.2774
1496177292,332.4000000015,16.1178
1496177294,330.0000000015,20.9829
1496177296,346.8000000015,22.8777
1496177298,286.8000000015,21.8988
1496177300,306.0000000015,22.219
1496177302,342.0000000015,22.584
1496177304,286.8000000015,18.5543
1496177306,219.6000000015,19.1754
1496177308,272.4000000015,23.8664
1496177310,267.6000000015,25.2248
1496177312,282.0000000015,28.0998
1496177314,286.8000000015,23.5615
1496177316,253.2000000015,22.081
1496177318,238.8000000015,24.6344
1496177320,260.4000000015,22.8946
1496177322,272.4000000015,23.2429
1496177324,272.4000000015,23.447
1496177326,272.4000000015,25.6964
1496177328,217.2000000015,26.9651
1496177330,214.8000000015,25.8099
1496177332,205.2000000015,25.9142
1496177334,200.4000000015,28.2661
1496177336,272.4000000015,29.3925
1496177338,260.4000000015,23.2516
1496177340,234.0000000015,28.4262
1496177342,193.2000000015,25.1236
1496177344,226.8000000015,23.9705
1496177346,291.6000000015,25.017
1496177348,212.4000000015,23.9103
1496177350,226.8000000015,27.3839
1496177352,272.4000000015,25.6318
1496177354,186.0000000015,26.0524
1496177356,231.6000000015,23.315
1496177358,308.4000000015,22.6036
1496177360,282.0000000015,23.8836
1496177362,234.0000000015,19.2838
1496177364,238.8000000015,20.0694
1496177366,202.8000000015,17.9926
1496177368,210.0000000015,18.9989
1496177370,205.2000000015,18.4955
1496177372,222.0000000015,15.5803
1496177374,224.4000000015,21.3249
1496177376,226.8000000015,16.7219
1496177378,241.2000000015,20.4352
1496177380,226.8000000015,24.8548
1496177382,274.8000000015,21.6801
1496177384,262.8000000015,21.1231
1496177386,229.2000000015,18.2799
1496177388,298.8000000015,18.1795
1496177390,207.6000000015,21.1578
1496177392,207.6000000015,23.0546
1496177394,212.4000000015,22.7639
1496177396,265.2000000015,24.9
1496177398,210.0000000015,22.3724
1496177400,243.6000000015,23.7848
1496177402,231.6000000015,24.3481
1496177404,212.4000000015,22.3285
1496177406,255.6000000015,21.635
1496177408,229.2000000015,23.0782
1496177410,253.2000000015,22.4681
1496177412,224.4000000015,22.0783
1496177414,200.4000000015,23.7842
1496177416,217.2000000015,26.2027
1496177418,222.0000000015,24.6294
1496177420,200.4000000015,24.3132
1496177422,265.2000000015,19.3601
1496177424,186.0000000015,17.2616
1496177426,219.6000000015,15.1303
1496177428,205.2000000015,17.9671
1496177430,222.0000000015,18.0119
1496177432,229.2000000015,20.1735
1496177434,282.0000000015,21.2043
1496177436,193.2000000015,17.167
1496177438,231.6000000015,17.1912
1496177440,250.8000000015,14.0934
1496177442,241.2000000015,18.3671
1496177444,248.4000000015,19.526
1496177446,246.0000000015,22.9949
1496177448,243.6000000015,19.4187
1496177450,253.2000000015,21.6944
1496177452,270.0000000015,20.5157
1496177454,222.0000000015,19.8074
1496177456,243.6000000015,23.2422
1496177458,207.6000000015,23.9507
1496177460,231.6000000015,22.6878
1496177462,243.6000000015,17.3379
1496177464,231.6000000015,19.4793
1496177466,236.4000000015,18.0521
1496177468,207.6000000015,25.8483
1496177470,274.8000000015,25.8394
1496177472,306.0000000015,25.5897
1496177474,243.6000000015,13.4851
1496177476,231.6000000015,19.5615
1496177478,241.2000000015,22.6535
1496177480,289.2000000015,20.6567
1496177482,214.8000000015,27.1387
1496177484,212.4000000015,24.1652
1496177486,267.6000000015,20.2889
1496177488,219.6000000015,19.9376
1496177490,250.8000000015,20.2659
1496177492,219.6000000015,23.5938
1496177494,186.0000000015,17.8603
1496177496,270.0000000015,17.7057
1496177498,274.8000000015,23.746
1496177500,207.6000000015,26.146
1496177502,202.8000000015,26.8127
1496177504,286.8000000015,26.2042
1496177506,255.6000000015,21.8397
1496177508,236.4000000015,19.5125
1496177510,289.2000000015,17.4806
1496177512,214.8000000015,22.859
1496177514,217.2000000015,21.1774
1496177516,219.6000000015,21.2868
1496177518,282.0000000015,20.751
1496177520,217.2000000015,22.3543
1496177522,282.0000000015,27.3214
1496177524,229.2000000015,28.3809
1496177526,258.0000000015,20.9994
1496177528,229.2000000015,20.4764
1496177530,255.6000000015,21.4992
1496177532,198.0000000015,18.5113
1496177534,224.4000000015,18.1002
1496177536,238.8000000015,21.1259
1496177538,241.2000000015,25.9864
1496177540,224.4000000015,25.2318
1496177542,270.0000000015,22.2775
1496177544,212.4000000015,20.9554
1496177546,212.4000000015,25.6208
1496177548,229.2000000015,28.084
1496177550,200.4000000015,22.4278
1496177552,214.8000000015,24.3152
1496177554,222.0000000015,21.7994
1496177556,258.0000000015,23.2502
1496177558,298.8000000015,21.3885
1496177560,250.8000000015,16.9462
1496177562,318.0000000015,23.2904
1496177564,349.2000000015,21.9009
1496177566,373.2000000015,23.5249
1496177568,370.8000000015,23.9069
1496177570,354.0000000015,19.4867
1496177572,361.2000000015,22.2687
1496177574,344.4000000015,19.9718
1496177576,366.0000000015,20.4019
1496177578,349.2000000015,19.9764
1496177580,356.4000000015,24.3413
1496177582,349.2000000015,24.1984
1496177584,310.8000000015,23.5043
1496177586,344.4000000015,24.3075
1496177588,368.4000000015,20.9533
1496177590,349.2000000015,18.3736
1496177592,361.2000000015,17.5579
1496177594,363.6000000015,20.9695
1496177596,354.0000000015,23.6085
1496177598,320.4000000015,21.4537
1496177600,356.4000000015,25.0843
1496177602,344.4000000015,22.7671
1496177604,370.8000000015,27.7321
1496177606,416.4000000015,20.6519
1496177608,378.0000000015,27.285
1496177610,363.6000000015,23.7064
1496177612,406.8000000015,26.2454
1496177614,361.2000000015,13.7127
1496177616,390.0000000015,17.2316
1496177618,397.2000000015,19.1142
1496177620,337.2000000015,20.6701
1496177622,344.4000000015,18.4817
1496177624,363.6000000015,17.1376
1496177626,394.8000000015,19.8843
1496177628,322.8000000015,18.4265
1496177630,392.4000000015,19.6907
1496177632,375.6000000015,19.1071
1496177634,342.0000000015,19.4096
1496177636,394.8000000015,20.6427
1496177638,423.6000000015,23.833
1496177640,399.6000000015,18.0355
1496177642,428.4000000015,20.4858
1496177644,402.0000000015,25.7587
1496177646,356.4000000015,18.4537
1496177648,356.4000000015,17.8218
1496177650,358.8000000015,21.3935
1496177652,339.6000000015,20.2722
1496177654,392.4000000015,20.1506
1496177656,370.8000000015,15.6481
1496177658,361.2000000015,19.605
1496177660,342.0000000015,20.2532
1496177662,320.4000000015,22.4676
1496177664,354.0000000015,18.7456
1496177666,370.8000000015,17.2889
1496177668,318.0000000015,20.096
1496177670,351.6000000015,20.9117
1496177672,294.0000000015,19.945
1496177674,344.4000000015,21.4935
1496177676,337.2000000015,23.492
1496177678,303.6000000015,20.0767
1496177680,342.0000000015,23.6256
1496177682,373.2000000015,23.3229
1496177684,354.0000000015,15.8684
1496177686,366.0000000015,18.9887
1496177688,344.4000000015,17.2259
1496177690,349.2000000015,21.055
1496177692,334.8000000015,20.5338
1496177694,370.8000000015,23.0684
1496177696,351.6000000015,23.7815
1496177698,354.0000000015,21.251
1496177700,423.6000000015,19.2688
1496177702,363.6000000015,16.0777
1496177704,426.0000000015,19.9654
1496177706,406.8000000015,23.0316
1496177708,428.4000000015,19.5975
1496177710,411.6000000015,22.2736
1496177712,416.4000000015,16.7984
1496177714,428.4000000015,17.1274
1496177716,435.6000000015,13.6359
1496177718,397.2000000015,19.007
1496177720,414.0000000015,20.1256
1496177722,409.2000000015,23.9474
1496177724,363.6000000015,15.4176
1496177726,392.4000000015,20.2183
1496177728,320.4000000015,24.4781
1496177730,308.4000000015,24.1143
1496177732,349.2000000015,22.3753
1496177734,349.2000000015,19.4649
1496177736,327.6000000015,21.5994
1496177738,327.6000000015,19.5208
1496177740,334.8000000015,16.3232
1496177742,294.0000000015,13.4667
1496177744,303.6000000015,16.3976
1496177746,411.6000000015,14.4377
1496177748,339.6000000015,15.7505
1496177750,346.8000000015,15.6332
1496177752,325.2000000015,17.0563
1496177754,351.6000000015,11.2824
1496177756,351.6000000015,17.144
1496177758,346.8000000015,12.8975
1496177760,351.6000000015,23.91
1496177762,330.0000000015,17.4377
1496177764,354.0000000015,17.4559
1496177766,344.4000000015,21.0565
1496177768,346.8000000015,14.7843
1496177770,310.8000000015,19.7418
1496177772,315.6000000015,21.4787
1496177774,354.0000000015,16.454
1496177776,322.8000000015,17.5857
1496177778,361.2000000015,17.6096
1496177780,339.6000000015,18.2048
1496177782,354.0000000015,19.3529
1496177784,284.4000000015,20.8845
1496177786,332.4000000015,22.2183
1496177788,339.6000000015,23.8663
1496177790,313.2000000015,21.4872
1496177792,330.0000000015,23.2433
1496177794,325.2000000015,23.0414
1496177796,250.8000000015,22.5635
1496177798,286.8000000015,22.0645
1496177800,250.8000000015,18.5949
1496177802,241.2000000015,20.6172
1496177804,226.8000000015,21.1049
1496177806,322.8000000015,18.8787
1496177808,265.2000000015,23.2027
1496177810,219.6000000015,18.9994
1496177812,226.8000000015,15.063
1496177814,243.6000000015,15.9035
1496177816,210.0000000015,20.2673
1496177818,200.4000000015,21.6539
1496177820,217.2000000015,20.1551
1496177822,190.8000000015,20.9723
1496177824,198.0000000015,18.8878
1496177826,176.4000000015,19.9081
1496177828,207.6000000015,17.0319
1496177830,190.8000000015,19.8367
1496177832,202.8000000015,23.2229
1496177834,193.2000000015,19.6379
1496177836,202.8000000015,15.8458
1496177838,217.2000000015,22.026
1496177840,183.6000000015,16.0882
1496177842,226.8000000015,16.2889
1496177844,202.8000000015,16.1748
1496177846,162.0000000015,18.8487
1496177848,178.8000000015,21.3701
1496177850,181.2000000015,25.3121
1496177852,181.2000000015,18.8415
1496177854,202.8000000015,20.2115
1496177856,186.0000000015,17.0583
1496177858,171.6000000015,15.5648
1496177860,188.4000000015,21.88
1496177862,200.4000000015,21.5398
1496177864,190.8000000015,24.5267
1496177866,198.0000000015,21.6424
1496177868,236.4000000015,20.4935
1496177870,274.8000000015,26.0879
1496177872,190.8000000015,18.2856
1496177874,243.6000000015,20.5253
1496177876,207.6000000015,20.0811
1496177878,171.6000000015,21.9583
1496177880,222.0000000015,20.1634
1496177882,205.2000000015,24.3785
1496177884,198.0000000015,22.4867
1496177886,207.6000000015,19.2287
1496177888,188.4000000015,18.7686
1496177890,183.6000000015,19.9283
1496177892,229.2000000015,19.3413
1496177894,212.4000000015,21.1029
1496177896,200.4000000015,24.6748
1496177898,219.6000000015,24.475
1496177900,212.4000000015,25.9898
1496177902,200.4000000015,21.773
1496177904,229.2000000015,19.7135
1496177906,260.4000000015,21.2103
1496177910,265.2000000015,12.8709
1496177912,265.2000000015,18.0519
1496177914,205.2000000015,16.6561
1496177916,222.0000000015,20.5168
1496177918,260.4000000015,18.1474
1496177920,294.0000000015,21.3505
1496177922,250.8000000015,16.9739
1496177924,250.8000000015,24.4347
1496177926,289.2000000015,22.0975
1496177928,236.4000000015,25.1825
1496177930,301.2000000015,27.3498
1496177932,253.2000000015,23.6875
1496177934,255.6000000015,21.6688
1496177936,243.6000000015,19.603
1496177938,279.6000000015,20.5847
1496177940,298.8000000015,21.8593
1496177942,262.8000000015,23.5415
1496177944,277.2000000015,19.1312
1496177946,286.8000000015,18.5502
1496177948,298.8000000015,14.8044
1496177950,296.4000000015,16.6103
1496177952,250.8000000015,18.2699
1496177954,260.4000000015,8.77722
1496177956,291.6000000015,19.7115
1496177958,327.6000000015,21.1209
1496177960,241.2000000015,18.211
1496177962,243.6000000015,11.5227
1496177964,246.0000000015,17.8646
1496177966,210.0000000015,20.1177
1496177968,238.8000000015,19.5714
1496177970,224.4000000015,23.2244
1496177972,214.8000000015,14.5961
1496177974,236.4000000015,21.8339
1496177976,224.4000000015,23.4877
1496177978,212.4000000015,22.4696
1496177980,229.2000000015,23.9197
1496177982,229.2000000015,21.2761
1496177984,183.6000000015,17.6898
1496177986,234.0000000015,10.5531
1496177988,219.6000000015,18.996
1496177990,207.6000000015,23.4191
1496177992,236.4000000015,20.4367
1496177994,205.2000000015,21.265
1496177996,174.0000000015,16.2446
1496177998,174.0000000015,16.8383
1496178000,222.0000000015,20.7065
1496178002,217.2000000015,18.2142
1496178004,195.6000000015,16.6433
1496178006,207.6000000015,20.8391
1496178008,224.4000000015,15.1454
1496178010,195.6000000015,12.8224
1496178012,217.2000000015,14.5738
1496178014,202.8000000015,14.8936
1496178016,190.8000000015,17.1139
1496178018,210.0000000015,13.734
1496178020,178.8000000015,21.6332
1496178022,169.2000000015,19.8267
1496178024,229.2000000015,15.7542
1496178026,193.2000000015,20.6036
1496178028,246.0000000015,18.9875
1496178030,198.0000000015,21.0945
1496178032,214.8000000015,18.2641
1496178034,229.2000000015,20.1173
1496178036,200.4000000015,17.5027
1496178038,234.0000000015,21.6266
1496178040,248.4000000015,18.0432
1496178042,188.4000000015,20.7887
1496178044,255.6000000015,20.326
1496178046,202.8000000015,22.7973
1496178048,207.6000000015,25.4168
1496178050,207.6000000015,23.4918
1496178052,270.0000000015,20.0085
1496178054,198.0000000015,20.4718
1496178056,217.2000000015,21.9483
1496178058,212.4000000015,21.8721
1496178060,207.6000000015,21.3407
1496178062,253.2000000015,19.3568
1496178064,200.4000000015,20.5218
1496178066,200.4000000015,20.5692
1496178068,265.2000000015,18.6316
1496178070,291.6000000015,19.8038
1496178072,212.4000000015,18.11
1496178074,260.4000000015,18.3224
1496178076,258.0000000015,21.4451
1496178078,267.6000000015,21.3941
1496178080,284.4000000015,20.9345
1496178082,255.6000000015,18.8438
1496178084,210.0000000015,23.4444
1496178086,246.0000000015,20.9776
1496178088,246.0000000015,25.5525
1496178090,308.4000000015,19.4255
1496178092,279.6000000015,18.1207
1496178094,260.4000000015,16.9527
1496178096,214.8000000015,17.0342
1496178098,186.0000000015,19.5615
1496178100,164.4000000015,19.9706
1496178102,183.6000000015,19.6526
1496178104,210.0000000015,21.6963
1496178106,214.8000000015,25.811
1496178108,176.4000000015,25.4015
1496178110,183.6000000015,21.3335
1496178112,198.0000000015,19.9397
1496178114,205.2000000015,26.3362
1496178116,188.4000000015,27.6434
1496178118,205.2000000015,25.1697
1496178120,243.6000000015,24.1107
1496178122,210.0000000015,23.0063
1496178124,202.8000000015,25.6478
1496178126,222.0000000015,19.567
1496178128,212.4000000015,21.9305
1496178130,195.6000000015,19.5368
1496178132,200.4000000015,23.5929
1496178134,260.4000000015,14.8957
1496178136,176.4000000015,22.1985
1496178138,212.4000000015,19.967
1496178140,174.0000000015,23.7361
1496178142,217.2000000015,22.4776
1496178144,195.6000000015,21.3977
1496178146,195.6000000015,17.5636
1496178148,174.0000000015,17.0399
1496178150,210.0000000015,17.6095
1496178152,205.2000000015,21.8018
1496178154,202.8000000015,21.6846
1496178156,190.8000000015,18.1373
1496178158,212.4000000015,16.6768
1496178160,188.4000000015,17.6916
1496178162,207.6000000015,18.332
1496178164,219.6000000015,19.412
1496178166,181.2000000015,21.0556
1496178168,200.4000000015,23.3845
1496178170,198.0000000015,19.589
1496178172,195.6000000015,18.5701
1496178174,186.0000000015,21.1359
1496178176,183.6000000015,18.3862
1496178178,178.8000000015,20.6469
1496178180,181.2000000015,17.9818
1496178182,145.2000000015,21.4605
1496178184,152.4000000015,18.2038
1496178186,121.2000000015,19.7523
1496178188,174.0000000015,20.4959
1496178190,183.6000000015,18.8269
1496178192,152.4000000015,20.3579
1496178194,169.2000000015,22.4496
1496178196,190.8000000015,22.0884
1496178198,114.0000000015,23.7049
1496178200,159.6000000015,21.6048
1496178202,128.4000000015,21.375
1496178204,190.8000000015,24.3856
1496178206,207.6000000015,23.1551
1496178208,128.4000000015,26.2463
1496178210,174.0000000015,27.2551
1496178212,169.2000000015,24.2085
1496178214,202.8000000015,22.1742
1496178216,178.8000000015,19.8813
1496178218,178.8000000015,19.5345
1496178220,174.0000000015,19.8355
1496178222,183.6000000015,20.06
1496178224,176.4000000015,18.688
1496178226,217.2000000015,19.9838
1496178228,190.8000000015,21.608
1496178230,178.8000000015,25.006
1496178232,200.4000000015,19.0033
1496178234,200.4000000015,23.8611
1496178236,202.8000000015,24.7168
1496178238,178.8000000015,24.0916
1496178240,236.4000000015,23.6386
1496178242,169.2000000015,21.4579
1496178244,188.4000000015,22.9233
1496178246,200.4000000015,24.7197
1496178248,207.6000000015,21.1312
1496178250,190.8000000015,19.5744
1496178252,246.0000000015,16.1268
1496178254,214.8000000015,18.133
1496178256,171.6000000015,16.3518
1496178258,207.6000000015,19.1518
1496178260,183.6000000015,14.851
1496178262,188.4000000015,19.9928
1496178264,193.2000000015,18.4319
1496178266,250.8000000015,23.6543
1496178268,193.2000000015,22.5056
1496178270,188.4000000015,26.388
1496178272,195.6000000015,19.4085
1496178274,202.8000000015,19.3896
1496178276,202.8000000015,22.4906
1496178278,195.6000000015,26.6088
1496178280,193.2000000015,22.3482
1496178282,210.0000000015,19.4322
1496178284,193.2000000015,20.5553
1496178286,181.2000000015,24.7343
1496178288,205.2000000015,21.0917
1496178290,190.8000000015,21.9257
1496178292,178.8000000015,19.1563
1496178294,166.8000000015,16.2441
1496178296,226.8000000015,21.3921
1496178298,188.4000000015,20.8424
1496178300,183.6000000015,14.803
1496178302,188.4000000015,16.524
1496178304,190.8000000015,21.9401
1496178306,200.4000000015,20.768
1496178308,174.0000000015,21.3087
1496178310,195.6000000015,22.789
1496178312,123.6000000015,24.0012
1496178314,207.6000000015,25.1757
1496178316,222.0000000015,22.5074
1496178318,248.4000000015,23.9925
1496178320,296.4000000015,22.7578
1496178322,330.0000000015,26.4179
1496178324,361.2000000015,22.4798
1496178326,354.0000000015,22.5164
1496178328,423.6000000015,16.1161
1496178330,440.4000000015,14.6618
1496178332,409.2000000015,12.1094
1496178334,363.6000000015,14.9521
1496178336,368.4000000015,23.3279
1496178338,385.2000000015,22.0497
1496178340,358.8000000015,25.3114
1496178342,363.6000000015,22.6879
1496178344,346.8000000015,25.4687
1496178346,306.0000000015,22.834
1496178348,351.6000000015,20.8847
1496178350,361.2000000015,24.1543
1496178352,344.4000000015,23.8474
1496178354,366.0000000015,23.6035
1496178356,279.6000000015,20.707
1496178358,332.4000000015,21.5975
1496178360,277.2000000015,18.4061
1496178362,253.2000000015,22.819
1496178364,274.8000000015,15.6385
1496178366,258.0000000015,18.9737
1496178368,274.8000000015,21.8018
1496178370,212.4000000015,20.3747
1496178372,258.0000000015,18.3303
1496178374,226.8000000015,19.4615
1496178376,270.0000000015,15.2838
1496178378,282.0000000015,22.2027
1496178380,322.8000000015,7.53569
1496178382,248.4000000015,17.3951
1496178384,327.6000000015,15.2035
1496178386,346.8000000015,24.3625
1496178388,334.8000000015,16.2351
1496178390,334.8000000015,23.7718
1496178392,339.6000000015,24.4589
1496178394,346.8000000015,24.0283
1496178396,351.6000000015,24.6773
1496178398,385.2000000015,22.1006
1496178400,351.6000000015,22.9194
1496178402,363.6000000015,25.9703
1496178404,363.6000000015,23.5262
1496178406,322.8000000015,20.3848
1496178408,342.0000000015,24.3926
1496178410,342.0000000015,23.2775
1496178412,349.2000000015,21.9224
1496178414,363.6000000015,22.7483
1496178416,325.2000000015,17.116
1496178418,334.8000000015,20.515
1496178420,327.6000000015,21.55
1496178422,322.8000000015,25.3474
1496178424,284.4000000015,23.3878
1496178426,361.2000000015,17.5598
1496178428,303.6000000015,24.6959
1496178430,342.0000000015,25.5765
1496178432,296.4000000015,23.432
1496178434,296.4000000015,19.2551
1496178436,356.4000000015,25.8457
1496178438,284.4000000015,15.3678
1496178440,315.6000000015,23.8305
1496178442,351.6000000015,21.031
1496178444,236.4000000015,16.8676
1496178446,274.8000000015,18.927
1496178448,327.6000000015,19.9466
1496178450,243.6000000015,15.306
1496178452,310.8000000015,24.0611
1496178454,334.8000000015,21.7111
1496178456,236.4000000015,22.2132
1496178458,344.4000000015,19.6454
1496178460,313.2000000015,19.0378
1496178462,262.8000000015,20.671
1496178464,258.0000000015,24.1774
1496178466,313.2000000015,25.2908
1496178468,248.4000000015,23.1771
1496178470,267.6000000015,19.4352
1496178472,260.4000000015,21.1173
1496178474,296.4000000015,17.6587
1496178476,255.6000000015,20.2467
1496178478,361.2000000015,19.2709
1496178480,226.8000000015,22.4209
1496178482,342.0000000015,24.3547
1496178484,289.2000000015,23.763
1496178486,342.0000000015,20.6619
1496178488,296.4000000015,22.1626
1496178490,279.6000000015,22.0316
1496178492,342.0000000015,25.3575
1496178494,298.8000000015,26.7828
1496178496,243.6000000015,28.337
1496178498,346.8000000015,26.0613
1496178500,231.6000000015,28.0777
1496178502,325.2000000015,25.3153
1496178504,342.0000000015,23.2925
1496178506,325.2000000015,26.914
1496178508,308.4000000015,26.5688
1496178510,274.8000000015,20.5767
1496178512,342.0000000015,25.4669
1496178514,356.4000000015,24.0616
1496178516,397.2000000015,20.2798
1496178518,361.2000000015,18.971
1496178520,337.2000000015,16.9266
1496178522,349.2000000015,22.228
1496178524,404.4000000015,22.0828
1496178526,416.4000000015,17.6316
1496178528,411.6000000015,20.6058
1496178530,399.6000000015,18.2017
1496178532,402.0000000015,19.2612
1496178534,339.6000000015,13.9975
1496178536,385.2000000015,21.0855
1496178538,351.6000000015,16.4445
1496178540,320.4000000015,18.1392
1496178542,368.4000000015,20.9586
1496178544,373.2000000015,19.0594
1496178546,349.2000000015,17.3337
1496178548,322.8000000015,19.5352
1496178550,375.6000000015,23.0965
1496178552,356.4000000015,18.0179
1496178554,334.8000000015,22.4532
1496178556,342.0000000015,23.6534
1496178558,361.2000000015,27.7109
1496178560,349.2000000015,24.68
1496178562,330.0000000015,22.3227
1496178564,344.4000000015,23.4371
1496178566,320.4000000015,21.9914
1496178568,366.0000000015,21.9272
1496178570,351.6000000015,22.227
1496178572,296.4000000015,18.9988
1496178574,346.8000000015,20.7776
1496178576,342.0000000015,21.9445
1496178578,289.2000000015,22.0191
1496178580,294.0000000015,21.8512
1496178582,339.6000000015,23.2433
1496178584,339.6000000015,22.5831
1496178586,339.6000000015,22.0818
1496178588,354.0000000015,22.6947
1496178590,361.2000000015,18.3359
1496178592,310.8000000015,17.3244
1496178594,351.6000000015,16.3724
1496178596,327.6000000015,18.3086
1496178598,325.2000000015,18.4073
1496178600,274.8000000015,20.0191
1496178602,313.2000000015,18.6749
1496178604,246.0000000015,15.5461
1496178606,219.6000000015,17.1598
1496178608,207.6000000015,18.8408
1496178610,322.8000000015,17.2435
1496178612,214.8000000015,21.5578
1496178614,255.6000000015,19.5704
1496178616,337.2000000015,20.7921
1496178618,267.6000000015,18.2278
1496178620,344.4000000015,16.4981
1496178622,351.6000000015,19.8887
1496178624,298.8000000015,19.586
1496178626,339.6000000015,20.0027
1496178628,339.6000000015,16.0148
1496178630,315.6000000015,18.7016
1496178632,322.8000000015,10.5678
1496178634,344.4000000015,13.1829
1496178636,296.4000000015,21.3433
1496178638,301.2000000015,20.8967
1496178640,337.2000000015,17.8265
1496178642,337.2000000015,17.1941
1496178644,322.8000000015,16.9361
1496178646,310.8000000015,18.2546
1496178648,397.2000000015,21.9243
1496178650,342.0000000015,21.8212
1496178652,346.8000000015,19.2826
1496178654,351.6000000015,20.9897
1496178656,325.2000000015,18.0404
1496178658,339.6000000015,16.496
1496178660,332.4000000015,19.2563
1496178662,375.6000000015,20.1832
1496178664,366.0000000015,16.2877
1496178666,387.6000000015,18.6717
1496178668,349.2000000015,21.1419
1496178670,368.4000000015,21.2127
1496178672,334.8000000015,22.5411
1496178674,392.4000000015,18.9985
1496178676,416.4000000015,15.0671
1496178678,339.6000000015,19.4377
1496178680,327.6000000015,15.7994
1496178682,334.8000000015,15.6737
1496178684,286.8000000015,18.2218
1496178686,356.4000000015,13.7051
1496178688,344.4000000015,13.3107
1496178690,356.4000000015,16.3214
1496178692,334.8000000015,20.4807
1496178694,433.2000000015,20.5005
1496178696,356.4000000015,20.4468
1496178698,366.0000000015,21.8378
1496178700,368.4000000015,21.6394
1496178702,373.2000000015,9.84186
1496178704,337.2000000015,17.089
1496178706,358.8000000015,10.7094
1496178708,349.2000000015,10.4989
1496178710,334.8000000015,9.7865
1496178712,344.4000000015,14.5845
1496178714,346.8000000015,16.3156
1496178716,368.4000000015,14.7842
1496178718,368.4000000015,15.3748
1496178720,428.4000000015,15.9229
1496178722,414.0000000015,15.1313
1496178724,397.2000000015,15.0349
1496178726,351.6000000015,20.2837
1496178728,375.6000000015,21.5541
1496178730,382.8000000015,16.6946
1496178732,356.4000000015,17.0466
1496178734,392.4000000015,19.8206
1496178736,416.4000000015,13.5047
1496178738,426.0000000015,16.4731
1496178740,356.4000000015,17.9859
1496178742,418.8000000015,20.4838
1496178744,356.4000000015,13.1816
1496178746,346.8000000015,19.2762
1496178748,363.6000000015,20.2654
1496178750,416.4000000015,16.6916
1496178752,363.6000000015,25.0851
1496178754,368.4000000015,24.6094
1496178756,423.6000000015,24.9464
1496178758,366.0000000015,21.1881
1496178760,397.2000000015,21.0971
1496178762,380.4000000015,15.4569
1496178764,378.0000000015,11.8304
1496178766,361.2000000015,13.0426
1496178768,346.8000000015,17.832
1496178770,442.8000000015,22.3519
1496178772,366.0000000015,17.2585
1496178774,397.2000000015,19.4146
1496178776,361.2000000015,23.2333
1496178778,363.6000000015,21.7867
1496178780,349.2000000015,19.9504
1496178782,378.0000000015,20.5013
1496178784,378.0000000015,21.8321
1496178786,382.8000000015,22.5291
1496178788,358.8000000015,21.6141
1496178790,430.8000000015,21.1236
1496178792,385.2000000015,18.618
1496178794,354.0000000015,21.7128
1496178796,387.6000000015,24.2807
1496178798,421.2000000015,20.3027
1496178800,366.0000000015,21.6448
1496178802,433.2000000015,23.3387
1496178804,418.8000000015,23.1058
1496178806,402.0000000015,22.5028
1496178808,418.8000000015,18.8537
1496178810,442.8000000015,15.3465
1496178812,440.4000000015,11.8828
1496178814,411.6000000015,13.547
1496178816,397.2000000015,11.5791
1496178818,438.0000000015,17.8413
1496178820,368.4000000015,20.4709
1496178822,428.4000000015,20.9577
1496178824,366.0000000015,21.2669
1496178826,361.2000000015,23.0805
1496178828,378.0000000015,22.8406
1496178830,330.0000000015,20.3578
1496178832,346.8000000015,25.4627
1496178834,351.6000000015,20.2296
1496178836,373.2000000015,19.6444
1496178838,330.0000000015,19.9552
1496178840,318.0000000015,24.3384
1496178842,286.8000000015,22.8549
1496178844,337.2000000015,22.533
1496178846,234.0000000015,19.3591
1496178848,325.2000000015,21.9736
1496178850,310.8000000015,16.848
1496178852,238.8000000015,15.5507
1496178854,246.0000000015,18.6666
1496178856,322.8000000015,17.7667
1496178858,298.8000000015,20.4214
1496178860,306.0000000015,16.4046
1496178862,284.4000000015,17.8735
1496178864,272.4000000015,20.243
1496178866,212.4000000015,23.1796
1496178868,190.8000000015,19.2031
1496178870,210.0000000015,21.9983
1496178872,236.4000000015,18.9134
1496178874,193.2000000015,15.1786
1496178876,200.4000000015,14.771
1496178878,202.8000000015,16.7884
1496178880,217.2000000015,20.6715
1496178882,169.2000000015,17.9112
1496178884,222.0000000015,17.4027
1496178886,169.2000000015,20.8523
1496178888,198.0000000015,18.5857
1496178890,231.6000000015,20.1529
1496178892,214.8000000015,17.6008
1496178894,178.8000000015,20.5846
1496178896,195.6000000015,15.7842
1496178898,181.2000000015,17.7977
1496178900,109.2000000015,20.4488
1496178902,188.4000000015,11.1664
1496178904,181.2000000015,17.8068
1496178906,174.0000000015,18.3413
1496178908,183.6000000015,19.1968
1496178910,188.4000000015,22.7638
1496178912,205.2000000015,22.0298
1496178914,150.0000000015,21.2085
1496178916,190.8000000015,22.7478
1496178918,222.0000000015,27.7425
1496178920,176.4000000015,25.2083
1496178922,193.2000000015,17.511
1496178924,202.8000000015,22.3538
1496178926,178.8000000015,22.5363
1496178928,186.0000000015,24.8015
1496178930,210.0000000015,23.8317
1496178932,202.8000000015,14.1804
1496178934,176.4000000015,19.7932
1496178936,174.0000000015,25.9673
1496178938,164.4000000015,22.2003
1496178940,174.0000000015,18.7544
1496178942,152.4000000015,29.9813
1496178944,238.8000000015,21.3694
1496178946,214.8000000015,25.4107
1496178948,262.8000000015,26.6023
1496178950,337.2000000015,23.6619
1496178952,346.8000000015,23.9094
1496178954,361.2000000015,25.2515
1496178956,339.6000000015,22.8291
1496178958,368.4000000015,22.6844
1496178960,366.0000000015,23.0915
1496178962,334.8000000015,21.7378
1496178964,325.2000000015,23.6395
1496178966,313.2000000015,23.8198
1496178968,243.6000000015,21.9543
1496178970,265.2000000015,21.7394
1496178972,308.4000000015,21.5301
1496178974,320.4000000015,20.7717
1496178976,231.6000000015,25.4723
1496178978,212.4000000015,22.6454
1496178980,241.2000000015,22.3123
1496178982,224.4000000015,19.4756
1496178984,210.0000000015,20.688
1496178986,243.6000000015,12.7924
1496178988,234.0000000015,21.9129
1496178990,219.6000000015,25.196
1496178992,262.8000000015,23.5722
1496178994,306.0000000015,22.3739
1496178996,286.8000000015,20.2948
1496178998,378.0000000015,17.7022
1496179000,397.2000000015,22.6717
1496179002,370.8000000015,19.15
1496179004,349.2000000015,15.1458
1496179006,342.0000000015,14.2533
1496179008,332.4000000015,14.8234
1496179010,334.8000000015,23.2922
1496179012,382.8000000015,19.1739
1496179014,351.6000000015,19.4964
1496179016,306.0000000015,20.5286
1496179018,337.2000000015,16.731
1496179020,301.2000000015,18.2983
1496179022,342.0000000015,18.7877
1496179024,284.4000000015,18.3466
1496179026,303.6000000015,18.4249
1496179028,322.8000000015,20.7506
1496179030,315.6000000015,15.3898
1496179032,332.4000000015,14.5726
1496179034,313.2000000015,17.6047
1496179036,274.8000000015,20.7312
1496179038,286.8000000015,26.1657
1496179040,342.0000000015,23.3569
1496179042,334.8000000015,20.7791
1496179044,310.8000000015,19.3218
1496179046,332.4000000015,18.4896
1496179048,322.8000000015,21.5296
1496179050,255.6000000015,22.2727
1496179052,313.2000000015,18.8973
1496179054,313.2000000015,19.6996
1496179056,337.2000000015,20.2446
1496179058,289.2000000015,18.3033
1496179060,356.4000000015,16.6965
1496179062,325.2000000015,18.2258
1496179064,337.2000000015,18.1434
1496179066,390.0000000015,22.1103
1496179068,358.8000000015,20.0275
1496179070,234.0000000015,18.6792
1496179072,313.2000000015,22.3751
1496179074,349.2000000015,20.6794
1496179076,270.0000000015,17.7014
1496179078,286.8000000015,18.5466
1496179080,339.6000000015,14.9636
1496179082,325.2000000015,18.2088
1496179084,322.8000000015,17.3941
1496179086,346.8000000015,9.78055
1496179088,318.0000000015,10.0432
1496179090,339.6000000015,16.1117
1496179092,342.0000000015,17.5611
1496179094,358.8000000015,16.6626
1496179096,332.4000000015,17.9959
1496179098,354.0000000015,23.5709
1496179100,330.0000000015,22.3441
1496179102,342.0000000015,24.8521
1496179104,356.4000000015,21.0223
1496179106,366.0000000015,17.8002
1496179108,354.0000000015,18.1954
1496179110,325.2000000015,16.4628
1496179112,334.8000000015,17.3366
1496179114,385.2000000015,13.3182
1496179116,346.8000000015,15.8113
1496179118,366.0000000015,18.844
1496179120,358.8000000015,18.4094
1496179122,402.0000000015,18.9675
1496179124,361.2000000015,20.8674
1496179126,402.0000000015,17.5419
1496179128,363.6000000015,15.645
1496179130,382.8000000015,13.51
1496179132,368.4000000015,15.4369
1496179134,392.4000000015,20.9053
1496179136,349.2000000015,22.0054
1496179138,337.2000000015,21.0315
1496179140,334.8000000015,17.5283
1496179142,349.2000000015,21.5757
1496179144,291.6000000015,21.8024
1496179146,363.6000000015,22.0308
1496179148,339.6000000015,21.882
1496179150,334.8000000015,17.022
1496179152,318.0000000015,20.3306
1496179154,356.4000000015,20.1948
1496179156,337.2000000015,21.5167
1496179158,277.2000000015,19.0715
1496179160,325.2000000015,24.3841
1496179162,308.4000000015,23.848
1496179164,332.4000000015,18.8026
1496179166,320.4000000015,22.2261
1496179168,330.0000000015,25.8047
1496179170,294.0000000015,22.5756
1496179172,289.2000000015,19.971
1496179174,327.6000000015,19.0932
1496179176,310.8000000015,15.5222
1496179178,270.0000000015,11.3163
1496179180,277.2000000015,11.4851
1496179182,303.6000000015,16.7765
1496179184,289.2000000015,17.7457
1496179186,289.2000000015,16.9538
1496179188,315.6000000015,22.8895
1496179190,277.2000000015,22.5414
1496179192,294.0000000015,22.5898
1496179194,339.6000000015,21.2473
1496179196,330.0000000015,18.6141
1496179198,267.6000000015,23.3446
1496179200,296.4000000015,23.866
1496179202,286.8000000015,24.555
1496179204,258.0000000015,27.7925
1496179206,346.8000000015,24.3107
1496179208,260.4000000015,24.2006
1496179210,272.4000000015,21.117
1496179212,337.2000000015,25.1624
1496179214,270.0000000015,23.7059
1496179216,334.8000000015,25.2071
1496179218,260.4000000015,20.9702
1496179220,270.0000000015,20.0493
1496179222,306.0000000015,20.3286
1496179224,279.6000000015,16.1695
1496179226,330.0000000015,21.176
1496179228,349.2000000015,19.7965
1496179230,337.2000000015,22.0539
1496179232,270.0000000015,25.8539
1496179234,284.4000000015,25.4414
1496179236,296.4000000015,20.8428
1496179238,346.8000000015,25.2283
1496179240,301.2000000015,19.1051
1496179242,334.8000000015,22.6185
1496179244,291.6000000015,19.3331
1496179246,325.2000000015,23.8309
1496179248,318.0000000015,22.633
1496179250,229.2000000015,22.6286
1496179252,358.8000000015,22.515
1496179254,298.8000000015,23.7653
1496179256,279.6000000015,21.7343
1496179258,301.2000000015,23.0864
1496179260,332.4000000015,25.1704
1496179262,296.4000000015,22.7515
1496179264,284.4000000015,25.4183
1496179266,260.4000000015,23.3933
1496179268,315.6000000015,25.3619
1496179270,260.4000000015,26.3501
1496179272,277.2000000015,19.9202
1496179274,318.0000000015,22.4279
1496179276,224.4000000015,24.344
1496179278,267.6000000015,23.4877
1496179280,330.0000000015,18.2799
1496179282,260.4000000015,21.0544
1496179284,291.6000000015,22.5264
1496179286,351.6000000015,23.4625
1496179288,327.6000000015,27.0544
1496179290,308.4000000015,25.2835
1496179292,308.4000000015,23.9825
1496179294,361.2000000015,18.1318
1496179296,354.0000000015,23.5839
1496179298,361.2000000015,23.1019
1496179300,337.2000000015,19.3901
1496179302,351.6000000015,16.7938
1496179304,356.4000000015,20.3111
1496179306,342.0000000015,21.4404
1496179308,368.4000000015,22.6139
1496179310,301.2000000015,20.3682
1496179312,354.0000000015,21.4789
1496179314,368.4000000015,24.4204
1496179316,286.8000000015,22.9001
1496179318,332.4000000015,18.5084
1496179320,334.8000000015,21.5136
1496179322,337.2000000015,17.3645
1496179324,349.2000000015,24.1578
1496179326,334.8000000015,25.6625
1496179328,339.6000000015,22.7222
1496179330,354.0000000015,23.4632
1496179332,375.6000000015,22.6118
1496179334,315.6000000015,21.8125
1496179336,303.6000000015,23.2505
1496179338,272.4000000015,23.286
1496179340,325.2000000015,20.2022
1496179342,250.8000000015,26.0454
1496179344,325.2000000015,20.7365
1496179346,306.0000000015,19.9703
1496179348,308.4000000015,20.852
1496179350,238.8000000015,19.0437
1496179352,265.2000000015,14.8512
1496179354,241.2000000015,19.8805
1496179356,260.4000000015,19.6433
1496179358,277.2000000015,24.264
1496179360,286.8000000015,22.3393
1496179362,195.6000000015,20.5238
1496179364,231.6000000015,17.5206
1496179366,289.2000000015,16.0046
1496179368,253.2000000015,18.657
1496179370,243.6000000015,18.8452
1496179372,267.6000000015,20.1324
1496179374,214.8000000015,17.3066
1496179376,298.8000000015,17.2711
1496179378,279.6000000015,16.9823
1496179380,258.0000000015,21.464
1496179382,255.6000000015,22.2242
1496179384,306.0000000015,25.883
1496179386,303.6000000015,21.6873
1496179388,313.2000000015,26.4177
1496179390,291.6000000015,23.2347
1496179392,344.4000000015,21.9878
1496179394,284.4000000015,18.2202
1496179396,354.0000000015,23.9144
1496179398,301.2000000015,27.8968
1496179400,250.8000000015,22.31
1496179402,277.2000000015,26.4524
1496179404,286.8000000015,18.3362
1496179406,272.4000000015,23.568
1496179408,296.4000000015,24.1589
1496179410,306.0000000015,21.4626
1496179412,310.8000000015,18.1111
1496179414,337.2000000015,19.8221
1496179416,332.4000000015,21.8348
1496179418,310.8000000015,16.699
1496179420,291.6000000015,17.6358
1496179422,255.6000000015,20.9474
1496179424,303.6000000015,25.5411
1496179426,226.8000000015,19.5858
1496179428,236.4000000015,19.5348
1496179430,325.2000000015,19.9
1496179432,270.0000000015,21.7709
1496179434,267.6000000015,17.1586
1496179436,267.6000000015,18.5944
1496179438,217.2000000015,18.5687
1496179440,231.6000000015,19.4676
1496179442,301.2000000015,17.8308
1496179444,246.0000000015,20.3097
1496179446,246.0000000015,21.6399
1496179448,212.4000000015,15.4244
1496179450,241.2000000015,21.4242
1496179452,212.4000000015,22.6931
1496179454,243.6000000015,21.8108
1496179456,224.4000000015,23.7467
1496179458,231.6000000015,18.3206
1496179460,169.2000000015,20.586
1496179462,193.2000000015,18.9539
1496179464,183.6000000015,19.1652
1496179466,183.6000000015,21.6436
1496179468,169.2000000015,19.1125
1496179470,154.8000000015,18.8759
1496179472,164.4000000015,23.7417
1496179474,123.6000000015,14.2599
1496179476,169.2000000015,17.2006
1496179478,121.2000000015,18.583
1496179480,198.0000000015,17.9832
1496179482,190.8000000015,16.7221
1496179484,202.8000000015,22.3564
1496179486,222.0000000015,18.3848
1496179488,234.0000000015,18.4199
1496179490,198.0000000015,24.3713
1496179492,255.6000000015,26.7122
1496179494,298.8000000015,18.8416
1496179496,250.8000000015,25.5698
1496179498,284.4000000015,22.2201
1496179500,286.8000000015,19.0958
1496179502,332.4000000015,22.7681
1496179504,286.8000000015,17.651
1496179506,250.8000000015,21.0881
1496179508,260.4000000015,15.8565
1496179510,255.6000000015,18.397
1496179512,260.4000000015,22.9507
1496179514,243.6000000015,27.506
1496179516,236.4000000015,27.8726
1496179518,236.4000000015,18.1538
1496179520,241.2000000015,13.1398
1496179522,226.8000000015,18.4726
1496179524,255.6000000015,19.6416
1496179526,229.2000000015,22.682
1496179528,303.6000000015,23.3041
1496179530,279.6000000015,22.7454
1496179532,195.6000000015,23.176
1496179534,226.8000000015,16.9819
1496179536,231.6000000015,24.4567
1496179538,279.6000000015,22.3184
1496179540,193.2000000015,25.4963
1496179542,226.8000000015,21.4737
1496179544,222.0000000015,25.1682
1496179546,214.8000000015,21.8666
1496179548,226.8000000015,18.0547
1496179550,282.0000000015,23.256
1496179552,193.2000000015,24.2925
1496179554,198.0000000015,20.1876
1496179556,210.0000000015,15.7185
1496179558,224.4000000015,15.3028
1496179560,229.2000000015,19.281
1496179562,284.4000000015,22.0621
1496179564,250.8000000015,24.0253
1496179566,222.0000000015,25.5258
1496179568,238.8000000015,19.1866
1496179570,202.8000000015,23.9524
1496179572,219.6000000015,24.9975
1496179574,224.4000000015,28.1932
1496179576,231.6000000015,24.7533
1496179578,238.8000000015,19.4238
1496179580,243.6000000015,17.8202
1496179582,279.6000000015,20.9824
1496179584,212.4000000015,20.5814
1496179586,296.4000000015,21.1309
1496179588,289.2000000015,19.7398
1496179590,231.6000000015,17.6406
1496179592,238.8000000015,18.843
1496179594,286.8000000015,21.4931
1496179596,210.0000000015,22.4394
1496179598,210.0000000015,21.0361
1496179600,246.0000000015,19.9929
1496179602,210.0000000015,19.3523
1496179604,202.8000000015,14.4612
1496179606,277.2000000015,18.0521
1496179608,226.8000000015,20.3043
1496179610,207.6000000015,19.2324
1496179612,212.4000000015,21.8469
1496179614,200.4000000015,23.4747
1496179616,217.2000000015,24.8943
1496179618,210.0000000015,22.9943
1496179620,284.4000000015,26.8481
1496179622,241.2000000015,29.3282
1496179624,219.6000000015,19.7725
1496179626,207.6000000015,19.0129
1496179628,265.2000000015,22.372
1496179630,248.4000000015,25.423
1496179632,238.8000000015,21.7233
1496179634,267.6000000015,19.2755
1496179636,200.4000000015,19.5469
1496179638,255.6000000015,18.3903
1496179640,217.2000000015,14.1108
1496179642,198.0000000015,20.3754
1496179644,210.0000000015,21.7974
1496179646,229.2000000015,23.465
1496179648,200.4000000015,24.0678
1496179650,234.0000000015,22.7242
1496179652,248.4000000015,22.0318
1496179654,202.8000000015,25.9238
1496179656,205.2000000015,20.6772
1496179658,222.0000000015,18.2435
1496179660,231.6000000015,22.8944
1496179662,198.0000000015,24.5279
1496179664,190.8000000015,18.4613
1496179666,207.6000000015,16.7542
1496179668,205.2000000015,16.1215
1496179670,176.4000000015,15.4788
1496179672,214.8000000015,18.8512
1496179674,200.4000000015,14.4102
1496179676,190.8000000015,22.6982
1496179678,219.6000000015,23.8266
1496179680,174.0000000015,25.0253
1496179682,202.8000000015,20.6599
1496179684,178.8000000015,18.1384
1496179686,195.6000000015,23.4905
1496179688,188.4000000015,25.053
1496179690,193.2000000015,24.6119
1496179692,176.4000000015,21.5382
1496179694,193.2000000015,20.1423
1496179696,135.6000000015,19.4168
1496179698,193.2000000015,21.2234
1496179700,289.2000000015,22.757
1496179702,202.8000000015,23.8054
1496179704,195.6000000015,17.1317
1496179706,202.8000000015,14.4503
1496179710,190.8000000015,19.7991
1496179712,193.2000000015,15.5003
1496179714,193.2000000015,15.2154
1496179716,166.8000000015,17.1435
1496179718,183.6000000015,17.2757
1496179720,193.2000000015,17.9915
1496179722,118.8000000015,15.1275
1496179724,176.4000000015,19.4334
1496179726,176.4000000015,20.0539
1496179728,193.2000000015,20.1489
1496179730,195.6000000015,16.3247
1496179732,226.8000000015,14.9298
1496179734,176.4000000015,20.3882
1496179736,174.0000000015,18.9328
1496179738,198.0000000015,11.836
1496179740,205.2000000015,16.8172
1496179742,210.0000000015,13.5235
1496179744,248.4000000015,20.8735
1496179746,200.4000000015,26.7304
1496179748,198.0000000015,22.5747
1496179750,217.2000000015,20.9447
1496179752,231.6000000015,24.4385
1496179754,212.4000000015,23.8604
1496179756,181.2000000015,21.7249
1496179758,222.0000000015,19.6072
1496179760,214.8000000015,22.6415
1496179762,214.8000000015,23.83
1496179764,200.4000000015,25.1366
1496179766,205.2000000015,27.5009
1496179768,193.2000000015,13.6957
1496179770,234.0000000015,25.6939
1496179772,226.8000000015,22.6577
1496179774,205.2000000015,25.2295
1496179776,212.4000000015,26.4913
1496179778,229.2000000015,23.6165
1496179780,193.2000000015,23.5827
1496179782,193.2000000015,23.8557
1496179784,265.2000000015,25.188
1496179786,181.2000000015,26.0108
1496179788,195.6000000015,22.513
1496179790,214.8000000015,22.5934
1496179792,193.2000000015,23.5461
1496179794,190.8000000015,20.125
1496179796,205.2000000015,15.9944
1496179798,253.2000000015,19.2107
1496179800,205.2000000015,21.2473
1496179802,205.2000000015,18.9762
1496179804,243.6000000015,18.514
1496179806,260.4000000015,21.7498
1496179808,214.8000000015,22.5814
1496179810,238.8000000015,20.2274
1496179812,214.8000000015,26.3431
1496179814,202.8000000015,26.0267
1496179816,212.4000000015,21.226
1496179818,224.4000000015,23.5131
1496179820,214.8000000015,20.2464
1496179822,217.2000000015,24.1527
1496179824,229.2000000015,24.1288
1496179826,212.4000000015,18.9301
1496179828,200.4000000015,24.7775
1496179830,219.6000000015,24.541
1496179832,195.6000000015,24.9122
1496179834,195.6000000015,24.8587
1496179836,250.8000000015,29.809
1496179838,224.4000000015,27.4845
1496179840,205.2000000015,25.0624
1496179842,217.2000000015,24.0034
1496179844,243.6000000015,24.525
1496179846,217.2000000015,23.5621
1496179848,212.4000000015,21.9535
1496179850,205.2000000015,20.9617
1496179852,210.0000000015,24.7097
1496179854,282.0000000015,21.6288
1496179856,234.0000000015,21.7469
1496179858,246.0000000015,25.9859
1496179860,238.8000000015,22.8618
1496179862,212.4000000015,20.6103
1496179864,222.0000000015,19.3371
1496179866,210.0000000015,22.5003
1496179868,214.8000000015,24.3038
1496179870,207.6000000015,22.6405
1496179872,231.6000000015,24.2608
1496179874,217.2000000015,22.7383
1496179876,226.8000000015,22.5143
1496179878,181.2000000015,25.9872
1496179880,210.0000000015,25.9912
1496179882,190.8000000015,22.0023
1496179884,229.2000000015,24.9598
1496179886,190.8000000015,24.5392
1496179888,193.2000000015,25.4915
1496179890,205.2000000015,22.4652
1496179892,214.8000000015,22.5289
1496179894,200.4000000015,15.0551
1496179896,202.8000000015,16.5597
1496179898,262.8000000015,15.1087
1496179900,205.2000000015,15.6269
1496179902,234.0000000015,21.0805
1496179904,212.4000000015,19.1221
1496179906,217.2000000015,18.3335
1496179908,195.6000000015,20.6723
1496179910,294.0000000015,19.3326
1496179912,188.4000000015,21.8652
1496179914,202.8000000015,24.0737
1496179916,212.4000000015,23.4316
1496179918,178.8000000015,24.0313
1496179920,207.6000000015,23.4234
1496179922,217.2000000015,12.7217
1496179924,236.4000000015,18.2304
1496179926,186.0000000015,22.4335
1496179928,183.6000000015,19.3144
1496179930,212.4000000015,23.7717
1496179932,178.8000000015,26.0856
1496179934,190.8000000015,22.5869
1496179936,234.0000000015,17.666
1496179938,198.0000000015,20.6604
1496179940,226.8000000015,19.7487
1496179942,193.2000000015,18.1235
1496179944,200.4000000015,19.913
1496179946,188.4000000015,15.7409
1496179948,217.2000000015,17.4453
1496179950,219.6000000015,17.5397
1496179952,166.8000000015,17.3223
1496179954,229.2000000015,17.4936
1496179956,210.0000000015,23.1081
1496179958,195.6000000015,17.0202
1496179960,190.8000000015,17.82
1496179962,272.4000000015,19.5781
1496179964,207.6000000015,27.2405
1496179966,207.6000000015,19.8267
1496179968,210.0000000015,23.4355
1496179970,238.8000000015,18.2473
1496179972,243.6000000015,16.1671
1496179974,205.2000000015,14.6555
1496179976,226.8000000015,16.8239
1496179978,236.4000000015,20.0453
1496179980,222.0000000015,18.9266
1496179982,219.6000000015,20.8763
1496179984,183.6000000015,22.0432
1496179986,258.0000000015,20.4034
1496179988,229.2000000015,16.8151
1496179990,205.2000000015,15.9782
1496179992,306.0000000015,18.2518
1496179994,298.8000000015,17.6803
1496179996,212.4000000015,21.4904
1496179998,205.2000000015,19.7321
1496180000,301.2000000015,20.9511
1496180002,279.6000000015,20.4197
1496180004,265.2000000015,17.2815
1496180006,255.6000000015,21.2317
1496180008,274.8000000015,20.317
1496180010,255.6000000015,14.296
1496180012,332.4000000015,20.0277
1496180014,267.6000000015,19.2666
1496180016,277.2000000015,23.1465
1496180018,291.6000000015,14.0325
1496180020,267.6000000015,20.8861
1496180022,270.0000000015,20.4212
1496180024,234.0000000015,23.0892
1496180026,243.6000000015,20.9799
1496180028,243.6000000015,13.9228
1496180030,207.6000000015,16.3331
1496180032,229.2000000015,16.9326
1496180034,210.0000000015,19.4311
1496180036,255.6000000015,8.4336
1496180038,250.8000000015,13.9845
1496180040,207.6000000015,18.6015
1496180042,207.6000000015,12.5285
1496180044,248.4000000015,13.1453
1496180046,224.4000000015,14.5021
1496180048,195.6000000015,17.6123
1496180050,224.4000000015,20.8809
1496180052,217.2000000015,20.6351
1496180054,255.6000000015,14.3647
1496180056,272.4000000015,13.8014
1496180058,241.2000000015,16.1858
1496180060,195.6000000015,14.928
1496180062,267.6000000015,13.3985
1496180064,267.6000000015,17.2171
1496180066,246.0000000015,17.9789
1496180068,219.6000000015,19.107
1496180070,222.0000000015,17.1903
1496180072,231.6000000015,16.9552
1496180074,265.2000000015,20.949
1496180076,222.0000000015,15.7833
1496180078,224.4000000015,16.4623
1496180080,286.8000000015,19.7197
1496180082,200.4000000015,20.8779
1496180084,181.2000000015,15.2939
1496180086,195.6000000015,16.1456
1496180088,226.8000000015,14.7584
1496180090,176.4000000015,14.7549
1496180092,188.4000000015,14.2199
1496180094,200.4000000015,19.6853
1496180096,169.2000000015,18.1799
1496180098,195.6000000015,20.6532
1496180100,166.8000000015,20.5977
1496180102,190.8000000015,24.8207
1496180104,202.8000000015,25.8684
1496180106,219.6000000015,23.7661
1496180108,193.2000000015,22.0485
1496180110,214.8000000015,27.0848
1496180112,214.8000000015,19.2366
1496180114,214.8000000015,17.94
1496180116,222.0000000015,18.0697
1496180118,284.4000000015,19.6298
1496180120,217.2000000015,21.5237
1496180122,169.2000000015,24.5629
1496180124,262.8000000015,21.7165
1496180126,205.2000000015,25.8419
1496180128,250.8000000015,22.6058
1496180130,190.8000000015,20.1384
1496180132,224.4000000015,20.2472
1496180134,188.4000000015,12.8532
1496180136,217.2000000015,16.6121
1496180138,178.8000000015,18.4749
1496180140,200.4000000015,20.9167
1496180142,207.6000000015,19.9054
1496180144,248.4000000015,20.1374
1496180146,214.8000000015,24.0495
1496180148,207.6000000015,24.4794
1496180150,224.4000000015,19.3202
1496180152,217.2000000015,18.0368
1496180154,210.0000000015,20.8261
1496180156,253.2000000015,17.974
1496180158,202.8000000015,21.29
1496180160,183.6000000015,21.7082
1496180162,226.8000000015,24.393
1496180164,193.2000000015,17.651
1496180166,214.8000000015,19.8002
1496180168,190.8000000015,23.8864
1496180170,207.6000000015,15.8582
1496180172,181.2000000015,20.5058
1496180174,217.2000000015,24.8173
1496180176,181.2000000015,22.6389
1496180178,186.0000000015,18.8206
1496180180,248.4000000015,21.9038
1496180182,277.2000000015,21.1349
1496180184,234.0000000015,20.0622
1496180186,284.4000000015,13.4302
1496180188,325.2000000015,11.26
1496180190,310.8000000015,16.4347
1496180192,337.2000000015,15.6357
1496180194,370.8000000015,14.7821
1496180196,332.4000000015,21.2881
1496180198,342.0000000015,20.6629
1496180200,354.0000000015,19.0357
1496180202,358.8000000015,16.0263
1496180204,279.6000000015,17.4917
1496180206,327.6000000015,24.3315
1496180208,322.8000000015,17.9534
1496180210,356.4000000015,22.5603
1496180212,349.2000000015,13.7804
1496180214,296.4000000015,11.7318
1496180216,310.8000000015,18.6991
1496180218,313.2000000015,20.5682
1496180220,339.6000000015,22.2999
1496180222,344.4000000015,24.4234
1496180224,294.0000000015,24.9067
1496180226,301.2000000015,22.4661
1496180228,258.0000000015,27.7514
1496180230,258.0000000015,19.5538
1496180232,286.8000000015,20.0119
1496180234,262.8000000015,18.1675
1496180236,243.6000000015,23.3736
1496180238,236.4000000015,18.4029
1496180240,222.0000000015,20.5534
1496180242,207.6000000015,16.6766
1496180244,291.6000000015,18.8212
1496180246,234.0000000015,24.1297
1496180248,202.8000000015,23.2282
1496180250,210.0000000015,18.8487
1496180252,214.8000000015,22.3953
1496180254,207.6000000015,20.6866
1496180256,212.4000000015,15.017
1496180258,222.0000000015,19.0677
1496180260,195.6000000015,20.0292
1496180262,217.2000000015,17.216
1496180264,260.4000000015,23.8462
1496180266,253.2000000015,22.2632
1496180268,243.6000000015,20.6055
1496180270,315.6000000015,21.6472
1496180272,289.2000000015,22.8359
1496180274,282.0000000015,20.5673
1496180276,255.6000000015,23.5097
1496180278,351.6000000015,18.9839
1496180280,330.0000000015,19.7864
1496180282,351.6000000015,17.7003
1496180284,363.6000000015,17.3961
1496180286,349.2000000015,22.5295
1496180288,361.2000000015,21.8978
1496180290,358.8000000015,20.9155
1496180292,337.2000000015,21.5009
1496180294,375.6000000015,21.1681
1496180296,378.0000000015,22.4474
1496180298,337.2000000015,21.7318
1496180300,361.2000000015,21.6502
1496180302,356.4000000015,17.8874
1496180304,394.8000000015,18.2984
1496180306,373.2000000015,20.3031
1496180308,409.2000000015,19.0952
1496180310,433.2000000015,26.7776
1496180312,380.4000000015,26.8959
1496180314,392.4000000015,23.9844
1496180316,426.0000000015,22.3286
1496180318,368.4000000015,24.8843
1496180320,409.2000000015,22.0808
1496180322,399.6000000015,21.7433
1496180324,368.4000000015,24.6156
1496180326,351.6000000015,23.5627
1496180328,406.8000000015,24.3104
1496180330,411.6000000015,24.6358
1496180332,378.0000000015,22.5779
1496180334,414.0000000015,27.5532
1496180336,435.6000000015,24.0827
1496180338,394.8000000015,18.8746
1496180340,397.2000000015,22.3293
1496180342,414.0000000015,22.5016
1496180344,375.6000000015,21.8435
1496180346,375.6000000015,18.3735
1496180348,399.6000000015,22.0605
1496180350,404.4000000015,22.4931
1496180352,411.6000000015,20.3248
1496180354,418.8000000015,24.4495
1496180356,390.0000000015,23.4075
1496180358,373.2000000015,22.9363
1496180360,370.8000000015,26.682
1496180362,390.0000000015,23.7129
1496180364,349.2000000015,22.2808
1496180366,370.8000000015,26.8429
1496180368,370.8000000015,20.6044
1496180370,334.8000000015,21.1952
1496180372,298.8000000015,21.9648
1496180374,308.4000000015,22.4313
1496180376,339.6000000015,21.123
1496180378,286.8000000015,20.3417
1496180380,286.8000000015,22.3913
1496180382,298.8000000015,22.4023
1496180384,222.0000000015,20.88
1496180386,246.0000000015,21.0963
1496180388,272.4000000015,18.8787
1496180390,217.2000000015,17.1747
1496180392,284.4000000015,20.2136
1496180394,253.2000000015,22.0337
1496180396,222.0000000015,23.5611
1496180398,200.4000000015,27.5123
1496180400,214.8000000015,25.5156
1496180402,207.6000000015,11.0896
1496180404,217.2000000015,9.04694
1496180406,241.2000000015,19.9756
1496180408,212.4000000015,18.3862
1496180410,284.4000000015,20.6421
1496180412,253.2000000015,18.8917
1496180414,258.0000000015,19.7252
1496180416,231.6000000015,21.318
1496180418,186.0000000015,14.9183
1496180420,210.0000000015,23.6004
1496180422,200.4000000015,21.8338
1496180424,200.4000000015,19.9835
1496180426,202.8000000015,20.9488
1496180428,241.2000000015,23.3343
1496180430,188.4000000015,23.8884
1496180432,265.2000000015,22.8709
1496180434,250.8000000015,19.8819
1496180436,214.8000000015,19.8134
1496180438,188.4000000015,18.388
1496180440,243.6000000015,24.4733
1496180442,243.6000000015,7.14664
1496180444,243.6000000015,15.5866
1496180446,222.0000000015,20.4397
1496180448,226.8000000015,24.2983
1496180450,219.6000000015,19.3588
1496180452,214.8000000015,20.3085
1496180454,217.2000000015,20.8091
1496180456,262.8000000015,20.1503
1496180458,231.6000000015,23.493
1496180460,255.6000000015,22.4503
1496180462,238.8000000015,21.7606
1496180464,236.4000000015,27.4506
1496180466,277.2000000015,16.3098
1496180468,250.8000000015,18.8272
1496180470,250.8000000015,18.3934
1496180472,238.8000000015,19.2883
1496180474,217.2000000015,19.5883
1496180476,284.4000000015,21.6463
1496180478,226.8000000015,24.5462
1496180480,238.8000000015,23.1733
1496180482,253.2000000015,20.4007
1496180484,253.2000000015,19.9397
1496180486,226.8000000015,20.6232
1496180488,291.6000000015,26.6421
1496180490,258.0000000015,21.477
1496180492,224.4000000015,23.496
1496180494,255.6000000015,24.3973
1496180496,236.4000000015,21.7146
1496180498,248.4000000015,24.9892
1496180500,243.6000000015,26.832
1496180502,346.8000000015,16.306
1496180504,241.2000000015,20.3036
1496180506,248.4000000015,24.0708
1496180508,243.6000000015,21.4218
1496180510,258.0000000015,18.2266
1496180512,202.8000000015,22.0811
1496180514,212.4000000015,21.7474
1496180516,238.8000000015,24.1196
1496180518,202.8000000015,22.7311
1496180520,291.6000000015,18.5823
1496180522,226.8000000015,22.3331
1496180524,260.4000000015,23.6799
1496180526,229.2000000015,23.6931
1496180528,202.8000000015,15.6743
1496180530,262.8000000015,20.3832
1496180532,236.4000000015,19.687
1496180534,229.2000000015,18.6934
1496180536,226.8000000015,22.6966
1496180538,229.2000000015,24.7314
1496180540,202.8000000015,21.8993
1496180542,231.6000000015,19.3146
1496180544,248.4000000015,21.9069
1496180546,205.2000000015,25.3782
1496180548,205.2000000015,27.6842
1496180550,202.8000000015,23.4979
1496180552,253.2000000015,20.4201
1496180554,200.4000000015,26.1358
1496180556,207.6000000015,21.5291
1496180558,224.4000000015,22.8233
1496180560,226.8000000015,24.8045
1496180562,198.0000000015,26.7639
1496180564,234.0000000015,23.7178
1496180566,210.0000000015,24.5927
1496180568,217.2000000015,24.3265
1496180570,217.2000000015,22.3114
1496180572,212.4000000015,21.3811
1496180574,174.0000000015,20.9574
1496180576,217.2000000015,18.7304
1496180578,205.2000000015,22.3664
1496180580,243.6000000015,21.2236
1496180582,174.0000000015,18.7224
1496180584,169.2000000015,16.9822
1496180586,207.6000000015,13.0972
1496180588,195.6000000015,23.372
1496180590,150.0000000015,21.6923
1496180592,178.8000000015,18.3466
1496180594,164.4000000015,13.386
1496180596,154.8000000015,12.0164
1496180598,174.0000000015,14.7698
1496180600,186.0000000015,15.7839
1496180602,193.2000000015,14.7844
1496180604,188.4000000015,14.7099
1496180606,198.0000000015,17.5157
1496180608,202.8000000015,15.3279
1496180610,178.8000000015,20.1613
1496180612,253.2000000015,20.1722
1496180614,246.0000000015,15.2597
1496180616,342.0000000015,20.6526
1496180618,308.4000000015,21.6069
1496180620,243.6000000015,20.6172
1496180622,212.4000000015,20.1628
1496180624,253.2000000015,24.5836
1496180626,212.4000000015,17.4523
1496180628,241.2000000015,16.7625
1496180630,284.4000000015,16.0876
1496180632,212.4000000015,20.1435
1496180634,241.2000000015,24.1823
1496180636,188.4000000015,25.2054
1496180638,262.8000000015,19.5153
1496180640,212.4000000015,13.3033
1496180642,200.4000000015,17.377
1496180644,226.8000000015,14.903
1496180646,198.0000000015,19.4786
1496180648,200.4000000015,20.5647
1496180650,178.8000000015,18.1164
1496180652,226.8000000015,10.126
1496180654,178.8000000015,11.3494
1496180656,193.2000000015,12.2723
1496180658,186.0000000015,21.3579
1496180660,212.4000000015,22.8302
1496180662,178.8000000015,20.9883
1496180664,198.0000000015,15.4747
1496180666,200.4000000015,20.5425
1496180668,198.0000000015,20.2564
1496180670,198.0000000015,20.3168
1496180672,188.4000000015,20.3389
1496180674,202.8000000015,15.9873
1496180676,147.6000000015,22.3104
1496180678,169.2000000015,26.9827
1496180680,212.4000000015,25.6931
1496180682,166.8000000015,20.361
1496180684,171.6000000015,20.976
1496180686,234.0000000015,18.4928
1496180688,181.2000000015,19.9259
1496180690,123.6000000015,21.2525
1496180692,186.0000000015,23.6339
1496180694,195.6000000015,9.67872
1496180696,159.6000000015,18.1296
1496180698,198.0000000015,20.7017
1496180700,186.0000000015,27.0679
1496180702,246.0000000015,23.4539
1496180704,133.2000000015,20.4721
1496180706,202.8000000015,22.228
1496180708,207.6000000015,19.4586
1496180710,176.4000000015,21.3092
1496180712,188.4000000015,20.6792
1496180714,200.4000000015,22.212
1496180716,174.0000000015,20.1009
1496180718,183.6000000015,16.0157
1496180720,202.8000000015,21.6444
1496180722,181.2000000015,23.2891
1496180724,176.4000000015,19.3865
1496180726,198.0000000015,14.4573
1496180728,198.0000000015,17.3114
1496180730,193.2000000015,19.4536
1496180732,152.4000000015,23.3127
1496180734,190.8000000015,21.7088
1496180736,145.2000000015,14.802
1496180738,200.4000000015,17.5057
1496180740,200.4000000015,13.9926
1496180742,169.2000000015,21.9222
1496180744,133.2000000015,16.8194
1496180746,195.6000000015,17.7353
1496180748,178.8000000015,17.3023
1496180750,164.4000000015,15.8465
1496180752,176.4000000015,18.9208
1496180754,202.8000000015,23.5302
1496180756,152.4000000015,18.1327
1496180758,181.2000000015,16.2942
