tag_number,delay,power_est
1491999440,299.3333333348,12.0692
1491999442,294.5333333348,8.96005
1491999444,328.1333333348,8.66042
1491999446,354.5333333348,11.2941
1491999448,342.5333333348,6.91933
1491999450,349.7333333348,9.28238
1491999452,325.7333333348,8.92838
1491999454,320.9333333348,6.41739
1491999456,316.1333333348,10.6875
1491999458,320.9333333348,8.55059
1491999460,332.9333333348,8.02412
1491999462,328.1333333348,9.49008
1491999464,313.7333333348,10.7656
1491999466,340.1333333348,9.16445
1491999468,308.9333333348,7.95248
1491999470,277.7333333348,10.3832
1491999472,318.5333333348,11.6892
1491999474,313.7333333348,9.87293
1491999476,337.7333333348,10.0548
1491999478,308.9333333348,10.6939
1491999480,296.9333333348,11.4442
1491999482,292.1333333348,9.11113
1491999484,268.1333333348,11.3466
1491999486,265.7333333348,7.5409
1491999488,318.5333333348,8.42345
1491999490,323.3333333348,10.8477
1491999492,232.1333333348,13.3444
1491999494,244.1333333348,12.892
1491999496,222.5333333348,11.0702
1491999498,284.9333333348,11.8392
1491999500,328.1333333348,11.6058
1491999502,308.9333333348,9.68066
1491999504,152.9333333348,8.63596
1491999506,316.1333333348,10.3194
1491999508,380.9333333348,12.5742
1491999510,294.5333333348,10.8118
1491999512,330.5333333348,9.42045
1491999514,318.5333333348,9.33874
1491999516,301.7333333348,9.99847
1491999518,287.3333333348,7.787
1491999520,337.7333333348,11.0154
1491999522,258.5333333348,10.201
1491999524,256.1333333348,10.32
1491999526,275.3333333348,8.42371
1491999528,294.5333333348,8.40249
1491999530,246.5333333348,11.223
1491999532,316.1333333348,10.8915
1491999534,236.9333333348,11.206
1491999536,292.1333333348,9.73539
1491999538,256.1333333348,8.80167
1491999540,296.9333333348,8.62897
1491999542,313.7333333348,10.0724
1491999544,282.5333333348,12.557
1491999546,263.3333333348,11.7727
1491999548,320.9333333348,5.51391
1491999550,337.7333333348,7.27829
1491999552,212.9333333348,8.85015
1491999554,342.5333333348,9.17185
1491999556,332.9333333348,9.06885
1491999558,265.7333333348,8.08952
1491999560,332.9333333348,9.47559
1491999562,344.9333333348,9.05595
1491999564,294.5333333348,2.89678
1491999566,361.7333333348,6.91559
1491999568,342.5333333348,9.27507
1491999570,354.5333333348,5.2681
1491999572,328.1333333348,7.96469
1491999574,313.7333333348,6.4268
1491999576,323.3333333348,8.20681
1491999578,347.3333333348,10.3732
1491999580,332.9333333348,8.46298
1491999582,299.3333333348,9.32414
1491999584,361.7333333348,8.06341
1491999586,340.1333333348,10.0792
1491999588,342.5333333348,7.87034
1491999590,323.3333333348,8.4926
1491999592,347.3333333348,7.97047
1491999594,332.9333333348,6.00974
1491999596,318.5333333348,8.59685
1491999598,349.7333333348,10.2939
1491999600,330.5333333348,9.06344
1491999602,388.1333333348,11.6096
1491999604,323.3333333348,9.43906
1491999606,390.5333333348,9.95414
1491999608,380.9333333348,12.2879
1491999610,409.7333333348,8.9908
1491999612,328.1333333348,9.01043
1491999614,352.1333333348,7.45743
1491999616,361.7333333348,10.5112
1491999618,340.1333333348,11.7872
1491999620,371.3333333348,11.0601
1491999622,412.1333333348,11.6734
1491999624,354.5333333348,10.5222
1491999626,337.7333333348,10.7693
1491999628,356.9333333348,4.49406
1491999630,323.3333333348,8.43596
1491999632,354.5333333348,11.9499
1491999634,400.1333333348,11.2074
1491999636,368.9333333348,7.29171
1491999638,424.1333333348,8.49265
1491999640,402.5333333348,9.10045
1491999642,342.5333333348,11.1364
1491999644,397.7333333348,10.0211
1491999646,361.7333333348,12.0013
1491999648,421.7333333348,10.7783
1491999650,416.9333333348,8.96261
1491999652,414.5333333348,7.72864
1491999654,385.7333333348,6.26939
1491999656,414.5333333348,6.11735
1491999658,332.9333333348,7.76225
1491999660,385.7333333348,8.38273
1491999662,385.7333333348,9.04568
1491999664,342.5333333348,4.73716
1491999666,388.1333333348,4.88353
1491999668,385.7333333348,9.37823
1491999670,354.5333333348,8.81774
1491999672,335.3333333348,9.86279
1491999674,352.1333333348,7.41413
1491999676,419.3333333348,8.35392
1491999678,361.7333333348,7.96546
1491999680,356.9333333348,8.51603
1491999682,400.1333333348,8.51912
1491999684,354.5333333348,11.2483
1491999686,383.3333333348,8.91733
1491999688,385.7333333348,9.77917
1491999690,344.9333333348,6.6425
1491999692,356.9333333348,7.34466
1491999694,414.5333333348,5.74671
1491999696,397.7333333348,4.23061
1491999698,366.5333333348,6.36855
1491999700,392.9333333348,6.14053
1491999702,421.7333333348,7.61829
1491999704,400.1333333348,7.35725
1491999706,414.5333333348,6.92613
1491999708,404.9333333348,7.41321
1491999710,383.3333333348,6.64289
1491999712,397.7333333348,7.74096
1491999714,496.1333333348,6.76881
1491999716,426.5333333348,8.02097
1491999718,448.1333333348,5.98931
1491999720,479.3333333348,6.233
1491999722,474.5333333348,5.19884
1491999724,448.1333333348,7.18133
1491999726,476.9333333348,9.81496
1491999728,474.5333333348,8.05004
1491999730,496.1333333348,8.00425
1491999732,462.5333333348,7.3714
1491999734,450.5333333348,9.72602
1491999736,450.5333333348,6.89372
1491999738,462.5333333348,4.66448
1491999740,402.5333333348,8.99352
1491999742,486.5333333348,7.54061
1491999744,424.1333333348,5.21678
1491999746,412.1333333348,6.08688
1491999748,443.3333333348,4.95515
1491999750,407.3333333348,9.04908
1491999752,452.9333333348,8.46634
1491999754,450.5333333348,8.42131
1491999756,419.3333333348,7.33404
1491999758,428.9333333348,7.0234
1491999760,498.5333333348,5.87671
1491999762,414.5333333348,6.58938
1491999764,402.5333333348,7.38223
1491999766,376.1333333348,7.6986
1491999768,366.5333333348,9.40378
1491999770,395.3333333348,8.4639
1491999772,402.5333333348,9.07743
1491999774,392.9333333348,8.6623
1491999776,414.5333333348,6.95494
1491999778,395.3333333348,7.14542
1491999780,352.1333333348,5.85747
1491999782,419.3333333348,7.17656
1491999784,373.7333333348,11.1778
1491999786,385.7333333348,5.79219
1491999788,414.5333333348,9.78458
1491999790,356.9333333348,10.2968
1491999792,344.9333333348,9.76146
1491999794,304.1333333348,10.874
1491999796,349.7333333348,7.66555
1491999798,296.9333333348,6.2032
1491999800,337.7333333348,8.8408
1491999802,320.9333333348,9.16683
1491999804,282.5333333348,9.29653
1491999806,294.5333333348,8.34778
1491999808,296.9333333348,9.58223
1491999810,306.5333333348,8.47126
1491999812,342.5333333348,7.80616
1491999814,289.7333333348,8.94011
1491999816,301.7333333348,9.85746
1491999818,277.7333333348,10.8135
1491999820,260.9333333348,8.54465
1491999822,260.9333333348,7.31548
1491999824,263.3333333348,6.26281
1491999826,268.1333333348,9.69436
1491999828,313.7333333348,7.10628
1491999830,265.7333333348,10.0814
1491999832,318.5333333348,8.23656
1491999834,287.3333333348,9.71553
1491999836,316.1333333348,7.66853
1491999838,244.1333333348,8.13882
1491999840,296.9333333348,9.04566
1491999842,352.1333333348,8.78375
1491999844,373.7333333348,8.17648
1491999846,340.1333333348,9.20611
1491999848,349.7333333348,9.07842
1491999850,349.7333333348,5.79027
1491999852,378.5333333348,8.67704
1491999854,376.1333333348,7.64079
1491999856,392.9333333348,9.46522
1491999858,376.1333333348,7.78062
1491999860,392.9333333348,10.5335
1491999862,347.3333333348,10.0368
1491999864,337.7333333348,9.0732
1491999866,347.3333333348,10.5485
1491999868,390.5333333348,10.4821
1491999870,390.5333333348,8.25518
1491999872,344.9333333348,9.20668
1491999874,316.1333333348,7.73889
1491999876,342.5333333348,7.52482
1491999878,316.1333333348,6.15555
1491999880,340.1333333348,8.13585
1491999882,325.7333333348,9.50179
1491999884,356.9333333348,10.0518
1491999886,296.9333333348,9.08833
1491999888,308.9333333348,6.40302
1491999890,258.5333333348,8.33752
1491999892,263.3333333348,11.4158
1491999894,284.9333333348,10.6041
1491999896,325.7333333348,10.1318
1491999898,260.9333333348,10.3747
1491999900,311.3333333348,8.65271
1491999902,239.3333333348,9.93238
1491999904,239.3333333348,9.73448
1491999906,313.7333333348,10.6498
1491999908,275.3333333348,8.95743
1491999910,265.7333333348,9.93294
1491999912,325.7333333348,7.82156
1491999914,263.3333333348,9.93195
1491999916,287.3333333348,9.03897
1491999918,263.3333333348,10.9362
1491999920,337.7333333348,11.9063
1491999922,275.3333333348,13.1917
1491999924,299.3333333348,12.6776
1491999926,239.3333333348,9.87161
1491999930,208.1333333348,10.8748
1491999932,212.9333333348,6.66568
1491999934,275.3333333348,8.85484
1491999936,193.7333333348,11.1669
1491999938,277.7333333348,11.0712
1491999940,248.9333333348,11.5793
1491999942,253.7333333348,11.9906
1491999944,270.5333333348,11.6752
1491999946,292.1333333348,11.2418
1491999948,308.9333333348,11.0372
1491999950,318.5333333348,11.2335
1491999952,313.7333333348,9.67049
1491999954,198.5333333348,9.75198
1491999956,256.1333333348,10.9963
1491999958,239.3333333348,10.7929
1491999960,203.3333333348,12.057
1491999962,282.5333333348,10.7848
1491999964,232.1333333348,12.076
1491999966,244.1333333348,10.6645
1491999968,200.9333333348,9.94132
1491999970,212.9333333348,9.78062
1491999972,227.3333333348,11.2259
1491999974,251.3333333348,9.74446
1491999976,232.1333333348,9.72828
1491999978,277.7333333348,7.38535
1491999980,193.7333333348,8.56044
1491999982,179.3333333348,12.9512
1491999984,181.7333333348,8.52224
1491999986,232.1333333348,5.9652
1491999988,212.9333333348,3.93256
1491999990,172.1333333348,6.98482
1491999992,203.3333333348,8.64
1491999994,217.7333333348,10.6397
1491999996,208.1333333348,11.1104
1491999998,186.5333333348,11.7045
1492000000,236.9333333348,10.5099
1492000002,212.9333333348,6.5089
1492000004,222.5333333348,10.7257
1492000006,186.5333333348,10.2
1492000008,205.7333333348,10.4532
1492000010,172.1333333348,9.66079
1492000012,208.1333333348,8.95124
1492000014,208.1333333348,7.72678
1492000016,220.1333333348,9.09004
1492000018,186.5333333348,9.56407
1492000020,272.9333333348,8.05294
1492000022,208.1333333348,8.33438
1492000024,234.5333333348,11.1801
1492000026,210.5333333348,10.8315
1492000028,174.5333333348,9.19814
1492000030,193.7333333348,9.83798
1492000032,191.3333333348,10.791
1492000034,186.5333333348,11.9958
1492000036,212.9333333348,12.153
1492000038,196.1333333348,12.7081
1492000040,200.9333333348,10.4273
1492000042,232.1333333348,11.1049
1492000044,181.7333333348,6.94932
1492000046,196.1333333348,8.60141
1492000048,239.3333333348,5.09531
1492000050,179.3333333348,9.757
1492000052,198.5333333348,10.1107
1492000054,193.7333333348,8.00676
1492000056,181.7333333348,8.79053
1492000058,193.7333333348,8.58183
1492000060,244.1333333348,8.93941
1492000062,193.7333333348,9.73649
1492000064,193.7333333348,10.0161
1492000066,196.1333333348,10.6543
1492000068,191.3333333348,11.8636
1492000070,234.5333333348,7.83432
1492000072,200.9333333348,6.96613
1492000074,198.5333333348,5.77098
1492000076,176.9333333348,5.94826
1492000078,224.9333333348,7.15405
1492000080,181.7333333348,7.53568
1492000082,155.3333333348,7.91864
1492000084,200.9333333348,9.76653
1492000086,193.7333333348,8.54907
1492000088,253.7333333348,9.92301
1492000090,193.7333333348,9.35963
1492000092,215.3333333348,8.82026
1492000094,191.3333333348,9.02581
1492000096,174.5333333348,8.78671
1492000098,174.5333333348,8.7513
1492000100,210.5333333348,9.72786
1492000102,193.7333333348,9.81319
1492000104,193.7333333348,8.55964
1492000106,236.9333333348,11.5519
1492000108,224.9333333348,7.29973
1492000110,184.1333333348,8.15724
1492000112,241.7333333348,6.81814
1492000114,181.7333333348,8.01895
1492000116,169.7333333348,4.57808
1492000118,191.3333333348,8.2166
1492000120,186.5333333348,8.47296
1492000122,188.9333333348,8.93941
1492000124,160.1333333348,8.92482
1492000126,176.9333333348,8.34277
1492000128,198.5333333348,8.42085
1492000130,205.7333333348,10.0947
1492000132,217.7333333348,8.85837
1492000134,270.5333333348,10.9507
1492000136,186.5333333348,9.94326
1492000138,164.9333333348,8.52409
1492000140,196.1333333348,9.54619
1492000142,167.3333333348,9.9269
1492000144,215.3333333348,10.4989
1492000146,212.9333333348,9.22509
1492000148,227.3333333348,8.42877
1492000150,196.1333333348,10.6119
1492000152,244.1333333348,9.44225
1492000154,200.9333333348,8.59531
1492000156,256.1333333348,6.79085
1492000158,181.7333333348,7.96211
1492000160,198.5333333348,9.20221
1492000162,208.1333333348,8.74201
1492000164,205.7333333348,6.29716
1492000166,265.7333333348,10.3532
1492000168,193.7333333348,10.2852
1492000170,172.1333333348,9.52098
1492000172,212.9333333348,9.51365
1492000174,172.1333333348,9.85768
1492000176,167.3333333348,10.0402
1492000178,179.3333333348,9.58293
1492000180,181.7333333348,11.8488
1492000182,196.1333333348,7.64971
1492000184,229.7333333348,9.61563
1492000186,220.1333333348,9.62383
1492000188,196.1333333348,9.0344
1492000190,222.5333333348,7.79136
1492000192,174.5333333348,9.8607
1492000194,157.7333333348,10.5084
1492000196,181.7333333348,9.55792
1492000198,174.5333333348,10.5776
1492000200,179.3333333348,9.47326
1492000202,193.7333333348,10.6875
1492000204,193.7333333348,11.3845
1492000206,160.1333333348,7.77737
1492000208,246.5333333348,10.0373
1492000210,186.5333333348,8.82687
1492000212,196.1333333348,8.61483
1492000214,224.9333333348,9.96365
1492000216,198.5333333348,10.3416
1492000218,172.1333333348,10.4929
1492000220,198.5333333348,12.6355
1492000222,186.5333333348,8.84009
1492000224,172.1333333348,9.99735
1492000226,224.9333333348,10.7763
1492000228,184.1333333348,10.753
1492000230,126.5333333348,11.7649
1492000232,176.9333333348,11.4059
1492000234,241.7333333348,11.8311
1492000236,157.7333333348,11.1609
1492000238,236.9333333348,11.7539
1492000240,155.3333333348,10.7092
1492000242,191.3333333348,8.30887
1492000244,220.1333333348,11.3838
1492000246,193.7333333348,10.633
1492000248,186.5333333348,11.0697
1492000250,176.9333333348,9.21267
1492000252,176.9333333348,9.57298
1492000254,236.9333333348,9.85745
1492000256,160.1333333348,10.6052
1492000258,200.9333333348,8.5563
1492000260,232.1333333348,12.0797
1492000262,224.9333333348,11.9937
1492000264,203.3333333348,11.7878
1492000266,205.7333333348,12.2319
1492000268,148.1333333348,10.3838
1492000270,169.7333333348,9.20501
1492000272,188.9333333348,11.379
1492000274,167.3333333348,10.4778
1492000276,138.5333333348,5.38661
1492000278,172.1333333348,9.02491
1492000280,114.5333333348,8.88988
1492000282,136.1333333348,10.253
1492000284,131.3333333348,9.00371
1492000286,164.9333333348,7.99861
1492000288,155.3333333348,12.4021
1492000290,167.3333333348,11.6402
1492000292,126.5333333348,12.4983
1492000294,152.9333333348,12.7438
1492000296,164.9333333348,13.0924
1492000298,95.3333333348,9.86471
1492000300,167.3333333348,7.45533
1492000302,169.7333333348,10.0015
1492000304,102.5333333348,10.0097
1492000306,116.9333333348,10.741
1492000308,162.5333333348,10.6079
1492000310,104.9333333348,10.4908
1492000312,172.1333333348,5.32509
1492000314,167.3333333348,9.73653
1492000316,128.9333333348,10.0247
1492000318,164.9333333348,9.89808
1492000320,164.9333333348,9.27638
1492000322,174.5333333348,12.2575
1492000324,181.7333333348,10.6773
1492000326,162.5333333348,9.19303
1492000328,196.1333333348,11.84
1492000330,169.7333333348,10.1791
1492000332,236.9333333348,10.6267
1492000334,193.7333333348,10.2727
1492000336,176.9333333348,13.0942
1492000338,193.7333333348,11.1494
1492000340,186.5333333348,11.8776
1492000342,200.9333333348,11.3769
1492000344,152.9333333348,11.6071
1492000346,176.9333333348,11.3682
1492000348,208.1333333348,11.5567
1492000350,164.9333333348,10.965
1492000352,155.3333333348,9.4813
1492000354,224.9333333348,8.81112
1492000356,186.5333333348,5.93056
1492000358,186.5333333348,9.20675
1492000360,222.5333333348,8.75802
1492000362,138.5333333348,11.6612
1492000364,160.1333333348,10.2345
1492000366,184.1333333348,10.939
1492000368,193.7333333348,11.6756
1492000370,160.1333333348,9.25937
1492000372,179.3333333348,10.4551
1492000374,196.1333333348,8.87782
1492000376,239.3333333348,11.3742
1492000378,179.3333333348,8.89866
1492000380,212.9333333348,6.11475
1492000382,251.3333333348,7.30935
1492000384,200.9333333348,8.45968
1492000386,157.7333333348,7.43034
1492000388,188.9333333348,6.33074
1492000390,176.9333333348,8.99411
1492000392,169.7333333348,12.2662
1492000394,193.7333333348,7.04703
1492000396,169.7333333348,9.00476
1492000398,215.3333333348,7.99444
1492000400,169.7333333348,11.2211
1492000402,181.7333333348,9.67786
1492000404,244.1333333348,10.2426
1492000406,191.3333333348,9.08386
1492000408,162.5333333348,8.45789
1492000410,246.5333333348,9.37938
1492000412,208.1333333348,9.2522
1492000414,191.3333333348,8.35307
1492000416,232.1333333348,9.33756
1492000418,191.3333333348,8.70573
1492000420,208.1333333348,7.92889
1492000422,217.7333333348,7.76033
1492000424,248.9333333348,4.53319
1492000426,234.5333333348,6.57104
1492000428,256.1333333348,7.35825
1492000430,198.5333333348,8.557
1492000432,167.3333333348,8.23156
1492000434,227.3333333348,7.59129
1492000436,193.7333333348,7.55276
1492000438,251.3333333348,7.47094
1492000440,220.1333333348,6.20834
1492000442,198.5333333348,4.13028
1492000444,244.1333333348,6.54468
1492000446,229.7333333348,6.43593
1492000448,162.5333333348,8.2881
1492000450,186.5333333348,8.95101
1492000452,205.7333333348,9.366
1492000454,179.3333333348,5.64616
1492000456,222.5333333348,8.37651
1492000458,167.3333333348,7.85748
1492000460,215.3333333348,7.16687
1492000462,203.3333333348,6.24074
1492000464,145.7333333348,7.41588
1492000466,251.3333333348,8.78458
1492000468,224.9333333348,11.4878
1492000470,193.7333333348,8.13805
1492000472,222.5333333348,7.08288
1492000474,241.7333333348,6.42589
1492000476,164.9333333348,7.60452
1492000478,200.9333333348,4.75693
1492000480,244.1333333348,6.39323
1492000482,188.9333333348,6.43546
1492000484,294.5333333348,7.90676
1492000486,217.7333333348,5.39028
1492000488,198.5333333348,9.11408
1492000490,248.9333333348,5.37474
1492000492,256.1333333348,7.17804
1492000494,222.5333333348,9.93371
1492000496,246.5333333348,9.89044
1492000498,198.5333333348,6.2736
1492000500,232.1333333348,8.4375
1492000502,220.1333333348,5.16563
1492000504,224.9333333348,7.56704
1492000506,215.3333333348,7.32533
1492000508,251.3333333348,5.85613
1492000510,256.1333333348,5.06959
1492000512,193.7333333348,10.568
1492000514,272.9333333348,6.53386
1492000516,188.9333333348,8.15582
1492000518,251.3333333348,9.07646
1492000520,198.5333333348,9.5844
1492000522,258.5333333348,4.92458
1492000524,270.5333333348,5.28002
1492000526,220.1333333348,5.6593
1492000528,234.5333333348,7.07792
1492000530,344.9333333348,8.4268
1492000532,296.9333333348,9.3986
1492000534,306.5333333348,9.00919
1492000536,344.9333333348,10.1066
1492000538,308.9333333348,11.0288
1492000540,323.3333333348,7.96519
1492000542,308.9333333348,11.621
1492000544,287.3333333348,13.2044
1492000546,323.3333333348,9.1456
1492000548,282.5333333348,12.0028
1492000550,268.1333333348,10.8018
1492000552,306.5333333348,13.6244
1492000554,337.7333333348,11.0397
1492000556,289.7333333348,10.7407
1492000558,258.5333333348,10.0298
1492000560,251.3333333348,7.17577
1492000562,301.7333333348,8.17415
1492000564,347.3333333348,8.99453
1492000566,349.7333333348,8.18796
1492000568,277.7333333348,9.16844
1492000570,323.3333333348,7.95792
1492000572,282.5333333348,9.61469
1492000574,335.3333333348,9.76607
1492000576,304.1333333348,11.3394
1492000578,287.3333333348,10.539
1492000580,277.7333333348,10.0953
1492000582,232.1333333348,9.79576
1492000584,200.9333333348,11.1834
1492000586,253.7333333348,7.95678
1492000588,258.5333333348,6.83851
1492000590,272.9333333348,7.40486
1492000592,263.3333333348,6.05242
1492000594,239.3333333348,9.2637
1492000596,246.5333333348,10.1566
1492000598,270.5333333348,11.2351
1492000600,193.7333333348,9.2032
1492000602,251.3333333348,10.8454
1492000604,212.9333333348,9.97288
1492000606,188.9333333348,10.0305
1492000608,196.1333333348,8.05368
1492000610,253.7333333348,9.91668
1492000612,174.5333333348,9.4193
1492000614,196.1333333348,11.7455
1492000616,210.5333333348,9.98182
1492000618,205.7333333348,10.8088
1492000620,263.3333333348,10.2848
1492000622,196.1333333348,10.9479
1492000624,188.9333333348,9.67778
1492000626,287.3333333348,9.97449
1492000628,241.7333333348,10.8465
1492000630,203.3333333348,10.3348
1492000632,272.9333333348,10.9785
1492000634,212.9333333348,9.8833
1492000636,260.9333333348,8.38878
1492000638,301.7333333348,9.66396
1492000640,188.9333333348,8.43009
1492000642,275.3333333348,8.28408
1492000644,284.9333333348,9.13186
1492000646,222.5333333348,9.01601
1492000648,265.7333333348,6.63626
1492000650,234.5333333348,8.54912
1492000652,198.5333333348,9.13535
1492000654,210.5333333348,10.7097
1492000656,253.7333333348,8.40715
1492000658,246.5333333348,9.28075
1492000660,275.3333333348,10.2354
1492000662,284.9333333348,10.2671
1492000664,193.7333333348,9.32297
1492000666,263.3333333348,10.1745
1492000668,246.5333333348,9.78141
1492000670,251.3333333348,10.5023
1492000672,253.7333333348,8.37141
1492000674,268.1333333348,8.40594
1492000676,217.7333333348,6.85948
1492000678,234.5333333348,7.89937
1492000680,212.9333333348,7.668
1492000682,212.9333333348,9.37246
1492000684,239.3333333348,9.67974
1492000686,232.1333333348,9.20517
1492000688,179.3333333348,9.00516
1492000690,217.7333333348,8.58276
1492000692,229.7333333348,8.28908
1492000694,224.9333333348,10.6891
1492000696,234.5333333348,8.13455
1492000698,205.7333333348,8.82467
1492000700,212.9333333348,9.20063
1492000702,224.9333333348,11.4512
1492000704,191.3333333348,9.91144
1492000706,277.7333333348,11.4136
1492000708,234.5333333348,12.406
1492000710,193.7333333348,10.0927
1492000712,208.1333333348,9.61109
1492000714,232.1333333348,4.75835
1492000716,200.9333333348,4.9354
1492000718,234.5333333348,8.62748
1492000720,191.3333333348,7.44101
1492000722,184.1333333348,6.57465
1492000724,212.9333333348,9.34104
1492000726,193.7333333348,6.55683
1492000728,179.3333333348,5.77166
1492000730,256.1333333348,7.56063
1492000732,217.7333333348,9.89362
1492000734,232.1333333348,8.29046
1492000736,253.7333333348,8.94979
1492000738,181.7333333348,9.49808
1492000740,292.1333333348,9.13701
1492000742,191.3333333348,11.5262
1492000744,162.5333333348,12.5629
1492000746,191.3333333348,7.86045
1492000748,184.1333333348,10.0549
1492000750,193.7333333348,8.57853
1492000752,179.3333333348,6.29743
1492000754,188.9333333348,6.81136
1492000756,167.3333333348,5.70882
1492000758,186.5333333348,5.54948
1492000760,155.3333333348,8.72643
1492000762,188.9333333348,8.75019
1492000764,169.7333333348,7.27478
1492000766,155.3333333348,8.14125
1492000768,162.5333333348,9.35343
1492000770,136.1333333348,9.50026
1492000772,152.9333333348,9.65189
1492000774,179.3333333348,10.3634
1492000776,239.3333333348,8.75306
1492000778,232.1333333348,9.43974
1492000780,258.5333333348,11.5629
1492000782,294.5333333348,10.0828
1492000784,251.3333333348,10.1496
1492000786,301.7333333348,12.9783
1492000788,311.3333333348,11.0143
1492000790,265.7333333348,11.0593
1492000792,320.9333333348,8.81072
1492000794,294.5333333348,8.55103
1492000796,284.9333333348,10.0371
1492000798,294.5333333348,9.2256
1492000800,260.9333333348,7.59222
1492000802,208.1333333348,8.05578
1492000804,287.3333333348,10.2271
1492000806,270.5333333348,8.85442
1492000808,210.5333333348,8.35476
1492000810,287.3333333348,6.84517
1492000812,236.9333333348,9.95789
1492000814,236.9333333348,10.6158
1492000816,184.1333333348,8.82792
1492000818,174.5333333348,10.2283
1492000820,217.7333333348,11.3871
1492000822,222.5333333348,10.8208
1492000824,184.1333333348,9.64609
1492000826,176.9333333348,10.4018
1492000828,198.5333333348,9.99888
1492000830,210.5333333348,11.3048
1492000832,174.5333333348,10.2522
1492000834,212.9333333348,10.1841
1492000836,150.5333333348,10.4509
1492000838,181.7333333348,8.01455
1492000840,184.1333333348,7.42278
1492000842,140.9333333348,9.19842
1492000844,174.5333333348,9.07399
1492000846,184.1333333348,11.6371
1492000848,188.9333333348,9.33595
1492000850,203.3333333348,2.67365
1492000852,203.3333333348,9.18606
1492000854,186.5333333348,9.20288
1492000856,188.9333333348,7.62173
1492000858,188.9333333348,9.87448
1492000860,232.1333333348,9.33433
1492000862,212.9333333348,11.3029
1492000864,198.5333333348,10.8324
1492000866,215.3333333348,12.3749
1492000868,193.7333333348,11.0631
1492000870,186.5333333348,12.3976
1492000872,227.3333333348,12.7204
1492000874,272.9333333348,10.3677
1492000876,181.7333333348,11.9952
1492000878,227.3333333348,11.5686
1492000880,210.5333333348,10.6494
1492000882,212.9333333348,10.1803
1492000884,246.5333333348,8.3949
1492000886,172.1333333348,7.75955
1492000888,167.3333333348,11.5397
1492000890,210.5333333348,10.8517
1492000892,179.3333333348,8.61999
1492000894,196.1333333348,8.42137
1492000896,174.5333333348,8.84427
1492000898,188.9333333348,9.19721
1492000900,181.7333333348,11.7667
1492000902,167.3333333348,12.4149
1492000904,184.1333333348,12.6634
1492000906,174.5333333348,9.78488
1492000908,162.5333333348,10.7885
1492000910,160.1333333348,10.7722
1492000912,172.1333333348,10.1327
1492000914,131.3333333348,12.4256
1492000916,169.7333333348,14.3011
1492000918,172.1333333348,12.0081
1492000920,136.1333333348,13.2484
1492000922,186.5333333348,12.1853
1492000924,169.7333333348,11.5603
1492000926,97.7333333348,9.21844
1492000928,184.1333333348,7.10605
1492000930,179.3333333348,6.79549
1492000932,116.9333333348,6.99275
1492000934,155.3333333348,5.74742
1492000936,107.3333333348,9.04654
1492000938,95.3333333348,9.03232
1492000940,116.9333333348,8.53427
1492000942,136.1333333348,7.7401
1492000944,167.3333333348,8.47537
1492000946,157.7333333348,9.78048
1492000948,145.7333333348,11.0014
1492000950,162.5333333348,11.1145
1492000952,148.1333333348,8.68282
1492000954,167.3333333348,11.6006
1492000956,160.1333333348,11.1032
1492000958,112.1333333348,9.99833
1492000960,155.3333333348,10.8601
1492000962,172.1333333348,11.0896
1492000964,145.7333333348,9.96962
1492000966,104.9333333348,11.9698
1492000968,78.5333333348001,10.4644
1492000970,160.1333333348,8.90022
1492000972,162.5333333348,9.2222
1492000974,107.3333333348,10.9498
1492000976,136.1333333348,9.87863
1492000978,193.7333333348,6.00982
1492000980,160.1333333348,8.04838
1492000982,191.3333333348,6.14207
1492000984,164.9333333348,10.4473
1492000986,107.3333333348,6.74361
1492000988,172.1333333348,7.64475
1492000990,162.5333333348,6.59455
1492000992,143.3333333348,8.1697
1492000994,174.5333333348,6.63528
1492000996,232.1333333348,6.57166
1492000998,152.9333333348,7.87019
1492001000,270.5333333348,9.95631
1492001002,191.3333333348,7.48416
1492001004,186.5333333348,8.44215
1492001006,210.5333333348,9.08315
1492001008,232.1333333348,9.96075
1492001010,145.7333333348,7.98089
1492001012,217.7333333348,10.1148
1492001014,277.7333333348,8.53578
1492001016,203.3333333348,9.56724
1492001018,260.9333333348,7.31589
1492001020,193.7333333348,10.7846
1492001022,246.5333333348,8.54363
1492001024,256.1333333348,11.8979
1492001026,196.1333333348,10.2628
1492001028,229.7333333348,10.5273
1492001030,251.3333333348,11.4677
1492001032,181.7333333348,12.5212
1492001034,196.1333333348,11.8043
1492001036,155.3333333348,9.15414
1492001038,160.1333333348,9.4767
1492001040,109.7333333348,10.7452
1492001042,181.7333333348,8.4997
1492001044,188.9333333348,11.8316
1492001046,169.7333333348,8.50598
1492001048,253.7333333348,9.70523
1492001050,162.5333333348,11.5879
1492001052,157.7333333348,8.70984
1492001054,164.9333333348,8.62405
1492001056,157.7333333348,9.0713
1492001058,184.1333333348,8.18913
1492001060,193.7333333348,8.20801
1492001062,128.9333333348,9.48876
1492001064,155.3333333348,10.5905
1492001066,167.3333333348,9.17832
1492001068,150.5333333348,10.2923
1492001070,191.3333333348,9.20587
1492001072,167.3333333348,8.52419
1492001074,121.7333333348,7.411
1492001076,138.5333333348,10.0459
1492001078,104.9333333348,11.2688
1492001080,164.9333333348,8.27937
1492001082,215.3333333348,9.45607
1492001084,169.7333333348,11.8931
1492001086,174.5333333348,11.0157
1492001088,198.5333333348,10.3015
1492001090,162.5333333348,7.78629
1492001092,181.7333333348,10.6269
1492001094,169.7333333348,8.11667
1492001096,128.9333333348,6.26077
1492001098,164.9333333348,9.91296
1492001100,164.9333333348,7.91242
1492001102,143.3333333348,6.71127
1492001104,97.7333333348,8.24218
1492001106,150.5333333348,8.8986
1492001108,140.9333333348,11.1345
1492001110,193.7333333348,10.7944
1492001112,181.7333333348,8.37715
1492001114,114.5333333348,9.79202
1492001116,162.5333333348,9.65095
1492001118,95.3333333348,10.1265
1492001120,143.3333333348,8.98745
1492001122,160.1333333348,7.9748
1492001124,167.3333333348,8.96171
1492001126,162.5333333348,10.0549
1492001128,148.1333333348,11.4557
1492001130,164.9333333348,11.3545
1492001132,186.5333333348,6.48525
1492001134,203.3333333348,10.0421
1492001136,164.9333333348,11.9284
1492001138,167.3333333348,8.36544
1492001140,164.9333333348,11.7614
1492001142,172.1333333348,9.04758
1492001144,222.5333333348,11.0588
1492001146,148.1333333348,10.8627
1492001148,212.9333333348,11.1368
1492001150,179.3333333348,10.1988
1492001152,186.5333333348,10.0591
1492001154,164.9333333348,9.90357
1492001156,184.1333333348,12.0333
1492001158,131.3333333348,11.7739
1492001160,162.5333333348,11.889
1492001162,172.1333333348,12.4973
1492001164,143.3333333348,12.0533
1492001166,136.1333333348,10.6609
1492001168,179.3333333348,11.9514
1492001170,107.3333333348,13.1189
1492001172,157.7333333348,10.3173
1492001174,164.9333333348,12.0136
1492001176,102.5333333348,5.97153
1492001178,114.5333333348,9.51714
1492001180,124.1333333348,10.0886
1492001182,88.1333333348001,10.1808
1492001184,220.1333333348,10.6677
1492001186,157.7333333348,9.69937
1492001188,133.7333333348,10.7122
1492001190,167.3333333348,11.9463
1492001192,184.1333333348,10.8074
1492001194,172.1333333348,7.33481
1492001196,222.5333333348,11.695
1492001198,200.9333333348,11.2375
1492001200,208.1333333348,10.8157
1492001202,176.9333333348,9.71825
1492001204,140.9333333348,7.69313
1492001206,174.5333333348,10.8685
1492001208,184.1333333348,8.73537
1492001210,143.3333333348,7.57992
1492001212,176.9333333348,13.1227
1492001214,176.9333333348,12.26
1492001216,126.5333333348,11.8352
1492001218,174.5333333348,9.85206
1492001220,174.5333333348,10.6097
1492001222,174.5333333348,11.384
1492001224,160.1333333348,10.7068
1492001226,179.3333333348,11.2292
1492001228,188.9333333348,10.7133
1492001230,198.5333333348,11.0995
1492001232,193.7333333348,9.79301
1492001234,196.1333333348,8.18578
1492001236,268.1333333348,12.629
1492001238,246.5333333348,10.9336
1492001240,265.7333333348,10.26
1492001242,332.9333333348,9.21037
1492001244,337.7333333348,9.18139
1492001246,359.3333333348,7.91278
1492001248,361.7333333348,9.12587
1492001250,335.3333333348,7.77492
1492001252,340.1333333348,9.46409
1492001254,359.3333333348,9.97973
1492001256,289.7333333348,10.3536
1492001258,340.1333333348,10.837
1492001260,364.1333333348,7.2549
1492001262,342.5333333348,10.5789
1492001264,392.9333333348,8.47073
1492001266,337.7333333348,6.54688
1492001268,320.9333333348,8.35501
1492001270,359.3333333348,11.0632
1492001272,368.9333333348,10.6988
1492001274,332.9333333348,11.6566
1492001276,366.5333333348,10.3951
1492001278,349.7333333348,12.0215
1492001280,340.1333333348,9.82747
1492001282,344.9333333348,9.0535
1492001284,335.3333333348,6.24835
1492001286,335.3333333348,6.63876
1492001288,340.1333333348,11.6357
1492001290,320.9333333348,10.3185
1492001292,318.5333333348,8.56651
1492001294,337.7333333348,9.63153
1492001296,260.9333333348,9.06591
1492001298,251.3333333348,10.07
1492001300,301.7333333348,8.08536
1492001302,306.5333333348,9.18988
1492001304,260.9333333348,6.21978
1492001306,318.5333333348,7.77805
1492001308,270.5333333348,6.41176
1492001310,220.1333333348,9.43388
1492001312,280.1333333348,9.19406
1492001314,258.5333333348,6.26874
1492001316,253.7333333348,7.18533
1492001318,277.7333333348,8.31698
1492001320,224.9333333348,9.61549
1492001322,246.5333333348,8.18172
1492001324,212.9333333348,7.01753
1492001326,208.1333333348,5.60964
1492001328,268.1333333348,8.88569
1492001330,395.3333333348,9.91732
1492001332,328.1333333348,11.4645
1492001334,340.1333333348,9.53938
1492001336,347.3333333348,9.17939
1492001338,272.9333333348,7.09504
1492001340,270.5333333348,7.10172
1492001342,344.9333333348,9.35739
1492001344,337.7333333348,8.44439
1492001346,328.1333333348,8.49621
1492001348,299.3333333348,9.40568
1492001350,313.7333333348,8.9442
1492001352,244.1333333348,8.47706
1492001354,275.3333333348,8.37226
1492001356,258.5333333348,7.26009
1492001358,265.7333333348,6.98911
1492001360,347.3333333348,6.73167
1492001362,284.9333333348,5.33969
1492001364,210.5333333348,9.73186
1492001366,330.5333333348,5.76733
1492001368,253.7333333348,9.67841
1492001370,198.5333333348,11.5066
1492001372,272.9333333348,10.7743
1492001374,337.7333333348,12.2373
1492001376,220.1333333348,12.5462
1492001378,251.3333333348,13.375
1492001380,260.9333333348,8.5468
1492001382,248.9333333348,8.91315
1492001384,323.3333333348,9.12729
1492001386,234.5333333348,6.01663
1492001388,236.9333333348,7.08727
1492001390,296.9333333348,3.0738
1492001392,246.5333333348,5.11531
1492001394,234.5333333348,5.47126
1492001396,212.9333333348,8.17027
1492001398,280.1333333348,9.13536
1492001400,224.9333333348,10.2972
1492001402,258.5333333348,8.73416
1492001404,217.7333333348,11.0981
1492001406,203.3333333348,10.1038
1492001408,220.1333333348,10.8324
1492001410,296.9333333348,10.9293
1492001412,212.9333333348,9.0168
1492001414,277.7333333348,10.669
1492001416,203.3333333348,9.18761
1492001418,280.1333333348,12.742
1492001420,316.1333333348,13.2863
1492001422,313.7333333348,9.19125
1492001424,352.1333333348,8.96367
1492001426,332.9333333348,8.17695
1492001428,356.9333333348,8.77264
1492001430,404.9333333348,8.97006
1492001432,390.5333333348,9.79996
1492001434,378.5333333348,10.1035
1492001436,373.7333333348,8.62024
1492001438,364.1333333348,9.89561
1492001440,366.5333333348,8.19327
1492001442,395.3333333348,6.82531
1492001444,409.7333333348,9.2134
1492001446,356.9333333348,8.17034
1492001448,392.9333333348,8.49298
1492001450,383.3333333348,9.67111
1492001452,378.5333333348,8.29419
1492001454,347.3333333348,8.30135
1492001456,431.3333333348,8.04744
1492001458,337.7333333348,9.56253
1492001460,354.5333333348,10.6138
1492001462,361.7333333348,8.69982
1492001464,371.3333333348,6.7194
1492001466,352.1333333348,8.41923
1492001468,371.3333333348,8.74846
1492001470,356.9333333348,10.3131
1492001472,349.7333333348,5.53286
1492001474,407.3333333348,6.72845
1492001476,347.3333333348,9.19655
1492001478,368.9333333348,9.07973
1492001480,392.9333333348,7.57119
1492001482,361.7333333348,6.71315
1492001484,402.5333333348,6.65227
1492001486,414.5333333348,8.59153
1492001488,392.9333333348,9.25978
1492001490,424.1333333348,9.00913
1492001492,421.7333333348,7.37037
1492001494,412.1333333348,8.57666
1492001496,424.1333333348,9.30568
1492001498,416.9333333348,9.80392
1492001500,421.7333333348,9.03113
1492001502,376.1333333348,9.55025
1492001504,390.5333333348,5.03011
1492001506,409.7333333348,7.91411
1492001508,402.5333333348,9.1087
1492001510,356.9333333348,6.67992
1492001512,352.1333333348,6.94683
1492001514,337.7333333348,7.10086
1492001516,349.7333333348,6.14616
1492001518,349.7333333348,5.95795
1492001520,354.5333333348,7.2949
1492001522,320.9333333348,7.00263
1492001524,349.7333333348,4.41221
1492001526,328.1333333348,5.17149
1492001528,316.1333333348,5.25743
1492001530,347.3333333348,4.16871
1492001532,313.7333333348,4.89522
1492001534,340.1333333348,5.54057
1492001536,284.9333333348,4.19798
1492001538,248.9333333348,5.07698
1492001540,268.1333333348,8.03469
1492001542,342.5333333348,6.68884
1492001544,268.1333333348,8.7747
1492001546,270.5333333348,8.41714
1492001550,217.7333333348,7.15756
1492001552,318.5333333348,7.51599
1492001554,253.7333333348,10.3223
1492001556,236.9333333348,7.85021
1492001558,256.1333333348,7.17926
1492001560,313.7333333348,9.99344
1492001562,316.1333333348,9.52805
1492001564,347.3333333348,4.48828
1492001566,320.9333333348,7.77657
1492001568,416.9333333348,7.63691
1492001570,356.9333333348,7.55624
1492001572,318.5333333348,6.72266
1492001574,378.5333333348,7.5626
1492001576,397.7333333348,7.82442
1492001578,385.7333333348,7.42009
1492001580,373.7333333348,7.48478
1492001582,349.7333333348,9.51448
1492001584,342.5333333348,7.8887
1492001586,354.5333333348,8.69806
1492001588,352.1333333348,6.0137
1492001590,349.7333333348,6.8239
1492001592,368.9333333348,7.84876
1492001594,337.7333333348,6.68204
1492001596,347.3333333348,7.9938
1492001598,354.5333333348,8.96593
1492001600,352.1333333348,7.19394
1492001602,340.1333333348,7.3025
1492001604,400.1333333348,8.1025
1492001606,318.5333333348,8.35966
1492001608,352.1333333348,9.83275
1492001610,332.9333333348,8.52383
1492001612,308.9333333348,9.68344
1492001614,342.5333333348,8.95906
1492001616,306.5333333348,8.35682
1492001618,308.9333333348,9.2776
1492001620,301.7333333348,9.17657
1492001622,335.3333333348,11.7353
1492001624,325.7333333348,12.994
1492001626,308.9333333348,13.5323
1492001628,287.3333333348,8.3516
1492001630,282.5333333348,9.22124
1492001632,270.5333333348,8.3384
1492001634,311.3333333348,6.89048
1492001636,253.7333333348,8.11919
1492001638,244.1333333348,8.30096
1492001640,304.1333333348,8.00691
1492001642,256.1333333348,8.64974
1492001644,304.1333333348,8.92652
1492001646,232.1333333348,10.1267
1492001648,263.3333333348,8.02554
1492001650,265.7333333348,9.73063
1492001652,248.9333333348,7.35481
1492001654,217.7333333348,9.60079
1492001656,294.5333333348,9.5574
1492001658,186.5333333348,10.4554
1492001660,253.7333333348,9.00804
1492001662,246.5333333348,8.30841
1492001664,258.5333333348,10.9847
1492001666,251.3333333348,9.50888
1492001668,210.5333333348,9.72762
1492001670,272.9333333348,9.44606
1492001672,280.1333333348,8.59555
1492001674,318.5333333348,9.59221
1492001676,253.7333333348,11.6276
1492001678,299.3333333348,6.93588
1492001680,270.5333333348,8.12597
1492001682,325.7333333348,10.7549
1492001684,371.3333333348,7.3299
1492001686,280.1333333348,7.80727
1492001688,332.9333333348,7.57078
1492001690,428.9333333348,7.07205
1492001692,344.9333333348,8.97764
1492001694,359.3333333348,10.6684
1492001696,414.5333333348,12.0681
1492001698,359.3333333348,12.5738
1492001700,356.9333333348,12.6924
1492001702,368.9333333348,10.8915
1492001704,349.7333333348,12.2498
1492001706,366.5333333348,8.28093
1492001708,419.3333333348,7.57291
1492001710,404.9333333348,6.66531
1492001712,404.9333333348,6.89699
1492001714,359.3333333348,5.39543
1492001716,385.7333333348,10.4754
1492001718,404.9333333348,9.11386
1492001720,409.7333333348,10.3912
1492001722,380.9333333348,7.69873
1492001724,416.9333333348,10.8375
1492001726,383.3333333348,8.92978
1492001728,395.3333333348,9.12167
1492001730,371.3333333348,9.76059
1492001732,404.9333333348,9.63176
1492001734,371.3333333348,10.1383
1492001736,352.1333333348,10.8913
1492001738,356.9333333348,12.8265
1492001740,395.3333333348,11.4042
1492001742,380.9333333348,9.99704
1492001744,332.9333333348,7.69625
1492001746,330.5333333348,8.46253
1492001748,335.3333333348,8.64626
1492001750,361.7333333348,11.0744
1492001752,328.1333333348,11.4445
1492001754,364.1333333348,12.404
1492001756,340.1333333348,10.9453
1492001758,337.7333333348,12.2013
1492001760,292.1333333348,11.5559
1492001762,320.9333333348,12.1546
1492001764,301.7333333348,12.7522
1492001766,270.5333333348,12.7751
1492001768,320.9333333348,13.1444
1492001770,335.3333333348,11.1499
1492001772,320.9333333348,10.4397
1492001774,284.9333333348,10.6794
1492001776,332.9333333348,7.29628
1492001778,306.5333333348,8.55681
1492001780,332.9333333348,7.54797
1492001782,296.9333333348,10.5903
1492001784,248.9333333348,10.3944
1492001786,301.7333333348,6.67583
1492001788,251.3333333348,12.5957
1492001790,289.7333333348,11.383
1492001792,325.7333333348,9.54053
1492001794,296.9333333348,10.4537
1492001796,246.5333333348,9.93079
1492001798,272.9333333348,9.40484
1492001800,232.1333333348,10.2889
1492001802,244.1333333348,10.4897
1492001804,263.3333333348,9.3228
1492001806,241.7333333348,6.72229
1492001808,232.1333333348,11.1
1492001810,316.1333333348,10.1548
1492001812,323.3333333348,10.526
1492001814,263.3333333348,9.64006
1492001816,289.7333333348,7.95827
1492001818,248.9333333348,8.98015
1492001820,292.1333333348,11.5557
1492001822,265.7333333348,10.1811
1492001824,268.1333333348,5.43484
1492001826,296.9333333348,7.15501
1492001828,289.7333333348,7.44556
1492001830,282.5333333348,10.0411
1492001832,272.9333333348,9.11768
1492001834,236.9333333348,8.54748
1492001836,212.9333333348,8.51066
1492001838,277.7333333348,9.81258
1492001840,272.9333333348,7.46569
1492001842,241.7333333348,6.51866
1492001844,320.9333333348,8.94194
1492001846,301.7333333348,7.93029
1492001848,313.7333333348,9.19137
1492001850,306.5333333348,11.4754
1492001852,272.9333333348,8.73294
1492001854,344.9333333348,9.76011
1492001856,265.7333333348,5.97281
1492001858,347.3333333348,6.29834
1492001860,263.3333333348,7.49603
1492001862,260.9333333348,10.4552
1492001864,313.7333333348,8.85767
1492001866,284.9333333348,9.06425
1492001868,316.1333333348,8.0593
1492001870,313.7333333348,11.1325
1492001872,299.3333333348,10.3831
1492001874,246.5333333348,11.3196
1492001876,248.9333333348,10.535
1492001878,304.1333333348,9.35688
1492001880,260.9333333348,10.2193
1492001882,320.9333333348,12.0981
1492001884,284.9333333348,10.5454
1492001886,296.9333333348,13.1385
1492001888,265.7333333348,11.7199
1492001890,323.3333333348,10.5275
1492001892,284.9333333348,9.32131
1492001894,335.3333333348,11.6509
1492001896,328.1333333348,11.3518
1492001898,294.5333333348,11.135
1492001900,316.1333333348,9.47763
1492001902,320.9333333348,10.9697
1492001904,330.5333333348,12.3968
1492001906,344.9333333348,11.5574
1492001908,306.5333333348,13.8993
1492001910,349.7333333348,12.8674
1492001912,323.3333333348,14.2913
1492001914,332.9333333348,12.0829
1492001916,352.1333333348,9.1832
1492001918,349.7333333348,10.4594
1492001920,349.7333333348,9.41202
1492001922,397.7333333348,11.1428
1492001924,392.9333333348,10.8171
1492001926,361.7333333348,11.5443
1492001928,340.1333333348,11.1954
1492001930,349.7333333348,9.48028
1492001932,320.9333333348,11.6047
1492001934,376.1333333348,10.2004
1492001936,378.5333333348,10.2864
1492001938,292.1333333348,10.0971
1492001940,397.7333333348,10.4461
1492001942,344.9333333348,11.3837
1492001944,359.3333333348,8.36004
1492001946,354.5333333348,9.47969
1492001948,368.9333333348,9.20765
1492001950,347.3333333348,10.219
1492001952,400.1333333348,10.5767
1492001954,349.7333333348,10.3038
1492001956,412.1333333348,12.6883
1492001958,366.5333333348,12.6235
1492001960,397.7333333348,10.9161
1492001962,392.9333333348,10.9469
1492001964,352.1333333348,13.0153
1492001966,335.3333333348,12.7041
1492001968,335.3333333348,12.9217
1492001970,330.5333333348,12.2563
1492001972,328.1333333348,11.233
1492001974,359.3333333348,11.4317
1492001976,347.3333333348,11.3708
1492001978,328.1333333348,8.48758
1492001980,359.3333333348,11.5185
1492001982,404.9333333348,10.9404
1492001984,342.5333333348,12.0392
1492001986,400.1333333348,12.2233
1492001988,340.1333333348,12.4975
1492001990,342.5333333348,12.5436
1492001992,301.7333333348,14.0797
1492001994,328.1333333348,10.4116
1492001996,347.3333333348,11.1921
1492001998,354.5333333348,9.03636
1492002000,337.7333333348,9.26911
1492002002,323.3333333348,14.6068
1492002004,352.1333333348,12.1979
1492002006,335.3333333348,10.6636
1492002008,313.7333333348,8.16269
1492002010,397.7333333348,8.37113
1492002012,311.3333333348,8.84
1492002014,325.7333333348,10.1646
1492002016,287.3333333348,13.5419
1492002018,224.9333333348,11.1593
1492002020,299.3333333348,9.19847
1492002022,335.3333333348,11.1713
1492002024,239.3333333348,11.2555
1492002026,325.7333333348,9.69661
1492002028,313.7333333348,10.6541
1492002030,308.9333333348,9.05721
1492002032,265.7333333348,10.3147
1492002034,241.7333333348,11.4218
1492002036,253.7333333348,9.32353
1492002038,277.7333333348,9.73678
1492002040,241.7333333348,10.2964
1492002042,253.7333333348,12.5374
1492002044,284.9333333348,10.6422
1492002046,241.7333333348,11.8704
1492002048,323.3333333348,12.292
1492002050,253.7333333348,11.3808
1492002052,246.5333333348,12.7024
1492002054,299.3333333348,9.36718
1492002056,289.7333333348,10.3224
1492002058,301.7333333348,8.87535
1492002060,268.1333333348,10.7327
1492002062,268.1333333348,11.1425
1492002064,265.7333333348,6.82056
1492002066,340.1333333348,8.59943
1492002068,256.1333333348,7.88336
1492002070,299.3333333348,10.3618
1492002072,270.5333333348,11.3048
1492002074,260.9333333348,12.2885
1492002076,248.9333333348,10.893
1492002078,227.3333333348,11.3731
1492002080,292.1333333348,13.1086
1492002082,270.5333333348,12.3391
1492002084,263.3333333348,11.1058
1492002086,308.9333333348,11.8325
1492002088,220.1333333348,11.0221
1492002090,280.1333333348,10.392
1492002092,258.5333333348,11.1421
1492002094,325.7333333348,13.9705
1492002096,335.3333333348,11.315
1492002098,284.9333333348,10.0818
1492002100,335.3333333348,10.0366
1492002102,256.1333333348,8.59335
1492002104,328.1333333348,7.20757
1492002106,337.7333333348,9.83416
1492002108,215.3333333348,12.9026
1492002110,299.3333333348,12.0227
1492002112,292.1333333348,9.20886
1492002114,270.5333333348,10.8908
1492002116,246.5333333348,9.65485
1492002118,272.9333333348,8.69649
1492002120,323.3333333348,9.61583
1492002122,268.1333333348,11.6814
1492002124,268.1333333348,9.34903
1492002126,292.1333333348,8.94685
1492002128,301.7333333348,7.58784
1492002130,344.9333333348,6.26746
1492002132,268.1333333348,7.22265
1492002134,258.5333333348,7.96421
1492002136,272.9333333348,7.70763
1492002138,253.7333333348,7.20593
1492002140,323.3333333348,7.46982
1492002142,272.9333333348,7.51263
1492002144,272.9333333348,6.70683
1492002146,282.5333333348,9.54445
1492002148,251.3333333348,8.16928
1492002150,263.3333333348,9.17175
1492002152,253.7333333348,9.07209
1492002154,208.1333333348,9.16878
1492002156,241.7333333348,10.979
1492002158,268.1333333348,8.53665
1492002160,256.1333333348,10.2007
1492002162,203.3333333348,10.0278
1492002164,270.5333333348,6.9842
1492002166,308.9333333348,7.8593
1492002168,248.9333333348,9.71338
1492002170,272.9333333348,8.73731
1492002172,232.1333333348,9.45177
1492002174,172.1333333348,11.9746
1492002176,241.7333333348,13.2475
1492002178,272.9333333348,10.6033
1492002180,239.3333333348,13.7061
1492002182,253.7333333348,10.7624
1492002184,294.5333333348,7.98339
1492002186,198.5333333348,10.9932
1492002188,270.5333333348,11.7587
1492002190,282.5333333348,13.6533
1492002192,260.9333333348,8.74249
1492002194,227.3333333348,10.8058
1492002196,282.5333333348,12.9387
1492002198,260.9333333348,12.0661
1492002200,320.9333333348,12.8607
1492002202,308.9333333348,12.3207
1492002204,256.1333333348,11.9257
1492002206,292.1333333348,10.8761
1492002208,272.9333333348,10.3354
1492002210,289.7333333348,9.55492
1492002212,268.1333333348,12.0477
1492002214,200.9333333348,12.2143
1492002216,280.1333333348,10.6937
1492002218,275.3333333348,10.1434
1492002220,191.3333333348,10.4036
1492002222,248.9333333348,11.3682
1492002224,241.7333333348,9.76335
1492002226,191.3333333348,8.89429
1492002228,239.3333333348,6.91971
1492002230,241.7333333348,8.36321
1492002232,241.7333333348,8.88666
1492002234,215.3333333348,7.36971
1492002236,224.9333333348,9.99462
1492002238,188.9333333348,10.2836
1492002240,227.3333333348,9.96253
1492002242,241.7333333348,9.54032
1492002244,270.5333333348,9.64259
1492002246,203.3333333348,9.33596
1492002248,263.3333333348,9.50842
1492002250,200.9333333348,10.7089
1492002252,229.7333333348,9.14385
1492002254,224.9333333348,10.4856
1492002256,232.1333333348,10.4713
1492002258,296.9333333348,9.25348
1492002260,232.1333333348,7.52358
1492002262,256.1333333348,6.43736
1492002264,241.7333333348,6.18341
1492002266,232.1333333348,8.58844
1492002268,229.7333333348,8.92607
1492002270,256.1333333348,10.7738
1492002272,200.9333333348,13.2281
1492002274,260.9333333348,12.3549
1492002276,246.5333333348,8.08574
1492002278,256.1333333348,10.654
1492002280,251.3333333348,5.58383
1492002282,229.7333333348,8.61962
1492002284,232.1333333348,8.11074
1492002286,275.3333333348,8.72494
1492002288,217.7333333348,9.15101
1492002290,246.5333333348,10.0515
1492002292,191.3333333348,5.21207
1492002294,253.7333333348,6.78655
1492002296,210.5333333348,8.35152
1492002298,265.7333333348,9.35087
1492002300,210.5333333348,8.93107
1492002302,236.9333333348,9.19415
1492002304,246.5333333348,8.37781
1492002306,258.5333333348,9.05372
1492002308,191.3333333348,10.9236
1492002310,184.1333333348,9.29773
1492002312,210.5333333348,11.5361
1492002314,244.1333333348,9.87817
1492002316,236.9333333348,10.7215
1492002318,193.7333333348,9.81365
1492002320,229.7333333348,10.1575
1492002322,179.3333333348,6.15598
1492002324,196.1333333348,9.22319
1492002326,191.3333333348,8.84875
1492002328,198.5333333348,9.42196
1492002330,208.1333333348,6.76214
1492002332,181.7333333348,8.26342
1492002334,239.3333333348,8.86282
1492002336,169.7333333348,6.74357
1492002338,251.3333333348,6.98142
1492002340,217.7333333348,12.2214
1492002342,258.5333333348,7.16804
1492002344,260.9333333348,10.0745
1492002346,186.5333333348,6.34923
1492002348,205.7333333348,10.5938
1492002350,251.3333333348,8.54059
1492002352,258.5333333348,8.17364
1492002354,215.3333333348,6.86157
1492002356,244.1333333348,11.5239
1492002358,234.5333333348,10.2674
1492002360,196.1333333348,10.9783
1492002362,244.1333333348,10.6093
1492002364,260.9333333348,12.4937
1492002366,263.3333333348,10.6137
1492002368,265.7333333348,9.96824
1492002370,301.7333333348,10.2342
1492002372,248.9333333348,8.89451
1492002374,323.3333333348,7.55905
1492002376,265.7333333348,7.97904
1492002378,289.7333333348,8.88031
1492002380,304.1333333348,10.1808
1492002382,337.7333333348,5.48278
1492002384,289.7333333348,5.95373
1492002386,337.7333333348,8.88483
1492002388,335.3333333348,9.374
1492002390,289.7333333348,8.49655
1492002392,320.9333333348,9.10624
1492002394,313.7333333348,9.10113
1492002396,308.9333333348,5.97425
1492002398,316.1333333348,7.17895
1492002400,265.7333333348,9.09246
1492002402,251.3333333348,9.59403
1492002404,320.9333333348,9.98279
1492002406,260.9333333348,5.97105
1492002408,239.3333333348,9.65135
1492002410,289.7333333348,9.39377
1492002412,258.5333333348,6.70645
1492002414,284.9333333348,8.35747
1492002416,282.5333333348,9.73022
1492002418,296.9333333348,8.13357
1492002420,311.3333333348,7.32997
1492002422,323.3333333348,10.4497
1492002424,280.1333333348,9.51211
1492002426,311.3333333348,10.459
1492002428,342.5333333348,12.6849
1492002430,284.9333333348,12.2033
1492002432,301.7333333348,10.3755
1492002434,287.3333333348,10.8387
1492002436,272.9333333348,10.3473
1492002438,316.1333333348,11.5635
1492002440,265.7333333348,11.6701
1492002442,239.3333333348,11.276
1492002444,328.1333333348,9.34318
1492002446,332.9333333348,10.3798
1492002448,265.7333333348,10.8074
1492002450,316.1333333348,9.34476
1492002452,296.9333333348,9.74702
1492002454,215.3333333348,9.85816
1492002456,304.1333333348,9.55506
1492002458,258.5333333348,8.73685
1492002460,272.9333333348,6.38066
1492002462,275.3333333348,9.43805
1492002464,306.5333333348,8.73488
1492002466,224.9333333348,10.4417
1492002468,241.7333333348,8.04793
1492002470,236.9333333348,7.47162
1492002472,232.1333333348,8.48576
1492002474,258.5333333348,5.12209
1492002476,232.1333333348,4.83531
1492002478,263.3333333348,5.93019
1492002480,268.1333333348,7.5639
1492002482,208.1333333348,9.68786
1492002484,205.7333333348,9.14363
1492002486,244.1333333348,11.7975
1492002488,236.9333333348,10.7664
1492002490,236.9333333348,10.2105
1492002492,289.7333333348,7.32547
1492002494,316.1333333348,8.52238
1492002496,205.7333333348,10.7652
1492002498,294.5333333348,8.69568
1492002500,215.3333333348,7.80264
1492002502,222.5333333348,6.25704
1492002504,301.7333333348,8.73271
1492002506,253.7333333348,11.1774
1492002508,181.7333333348,11.923
1492002510,222.5333333348,10.8779
1492002512,212.9333333348,8.0825
1492002514,191.3333333348,10.27
1492002516,196.1333333348,10.1894
1492002518,193.7333333348,7.94948
1492002520,196.1333333348,8.41958
1492002522,265.7333333348,8.89685
1492002524,217.7333333348,9.30606
1492002526,251.3333333348,8.11618
1492002528,222.5333333348,10.9016
1492002530,220.1333333348,10.3521
1492002532,275.3333333348,12.298
1492002534,325.7333333348,9.89178
1492002536,215.3333333348,9.8285
1492002538,270.5333333348,8.65063
1492002540,244.1333333348,10.3572
1492002542,246.5333333348,9.46106
1492002544,203.3333333348,10.2567
1492002546,220.1333333348,10.4458
1492002548,205.7333333348,10.6193
1492002550,227.3333333348,9.00385
1492002552,263.3333333348,8.35625
1492002554,217.7333333348,9.41134
1492002556,246.5333333348,8.37453
1492002558,208.1333333348,7.81748
1492002560,275.3333333348,5.7008
1492002562,263.3333333348,6.62869
1492002564,251.3333333348,8.96521
1492002566,232.1333333348,9.07486
1492002568,224.9333333348,10.854
1492002570,236.9333333348,9.07204
1492002572,320.9333333348,10.0125
1492002574,323.3333333348,9.66247
1492002576,304.1333333348,10.6101
1492002578,241.7333333348,11.1743
1492002580,234.5333333348,11.5507
1492002582,193.7333333348,10.109
1492002584,200.9333333348,10.9812
1492002586,263.3333333348,11.0361
1492002588,236.9333333348,11.6381
1492002590,205.7333333348,11.4717
1492002592,176.9333333348,10.2104
1492002594,236.9333333348,8.2755
1492002596,328.1333333348,9.99396
1492002598,248.9333333348,11.6802
1492002600,191.3333333348,11.7597
1492002602,215.3333333348,12.0159
1492002604,236.9333333348,11.7321
1492002610,198.5333333348,9.00266
1492002612,208.1333333348,10.2129
1492002614,184.1333333348,10.2902
1492002616,148.1333333348,11.0894
1492002618,208.1333333348,11.2086
1492002620,208.1333333348,10.8344
1492002622,191.3333333348,8.43
1492002624,227.3333333348,10.2615
1492002626,198.5333333348,11.5727
1492002628,198.5333333348,9.038
1492002630,246.5333333348,11.4047
1492002632,263.3333333348,12.0889
1492002634,217.7333333348,13.3967
1492002636,275.3333333348,11.8019
1492002638,239.3333333348,8.55045
1492002640,232.1333333348,6.70046
1492002642,320.9333333348,7.80895
1492002644,268.1333333348,9.18269
1492002646,263.3333333348,8.80839
1492002648,328.1333333348,9.37329
1492002650,299.3333333348,10.8105
1492002652,296.9333333348,10.9842
1492002654,246.5333333348,10.5008
1492002656,277.7333333348,10.4743
1492002658,318.5333333348,10.9047
1492002660,337.7333333348,11.114
1492002662,292.1333333348,10.2789
1492002664,284.9333333348,9.83963
1492002666,323.3333333348,5.94606
1492002668,200.9333333348,8.18872
1492002670,275.3333333348,8.96819
1492002672,272.9333333348,7.75854
1492002674,316.1333333348,8.60997
1492002676,287.3333333348,9.2674
1492002678,280.1333333348,8.03186
1492002680,313.7333333348,9.09652
1492002682,342.5333333348,7.82534
1492002684,280.1333333348,7.86305
1492002686,260.9333333348,11.1727
1492002688,308.9333333348,9.33681
1492002690,299.3333333348,7.35911
1492002692,268.1333333348,7.02805
1492002694,335.3333333348,9.2941
1492002696,330.5333333348,8.7768
1492002698,260.9333333348,8.05886
1492002700,304.1333333348,6.10251
1492002702,253.7333333348,8.73722
1492002704,260.9333333348,11.1662
1492002706,325.7333333348,8.44696
1492002708,265.7333333348,10.2452
1492002710,277.7333333348,11.1851
1492002712,306.5333333348,10.9438
1492002714,215.3333333348,10.7635
1492002716,220.1333333348,9.8645
1492002718,258.5333333348,5.6429
1492002720,248.9333333348,9.29204
1492002722,179.3333333348,7.48167
1492002724,191.3333333348,6.01344
1492002726,217.7333333348,8.32557
1492002728,196.1333333348,8.45874
1492002730,212.9333333348,9.05637
1492002732,210.5333333348,9.52144
1492002734,196.1333333348,8.23928
1492002736,198.5333333348,8.24465
1492002738,196.1333333348,9.44377
1492002740,193.7333333348,6.91018
1492002742,246.5333333348,7.48751
1492002744,193.7333333348,6.99868
1492002746,203.3333333348,11.6161
1492002748,191.3333333348,9.64221
1492002750,203.3333333348,10.1419
1492002752,258.5333333348,7.69161
1492002754,265.7333333348,10.4216
1492002756,181.7333333348,9.23002
1492002758,246.5333333348,8.66682
1492002760,234.5333333348,9.52572
1492002762,229.7333333348,10.341
1492002764,212.9333333348,10.5947
1492002766,208.1333333348,9.41679
1492002768,174.5333333348,8.48627
1492002770,193.7333333348,7.17232
1492002772,220.1333333348,8.60442
1492002774,196.1333333348,7.07919
1492002776,246.5333333348,7.82714
1492002778,263.3333333348,6.4059
1492002780,196.1333333348,7.53407
1492002782,198.5333333348,8.95488
1492002784,229.7333333348,8.12995
1492002786,253.7333333348,7.73145
1492002788,320.9333333348,7.47774
1492002790,256.1333333348,7.07213
1492002792,330.5333333348,10.2794
1492002794,347.3333333348,9.85456
1492002796,342.5333333348,6.17135
1492002798,320.9333333348,8.25619
1492002800,397.7333333348,10.5505
1492002802,402.5333333348,8.40777
1492002804,409.7333333348,8.48424
1492002806,426.5333333348,8.14048
1492002808,404.9333333348,8.24297
1492002810,421.7333333348,10.211
1492002812,414.5333333348,8.13563
1492002814,404.9333333348,8.30008
1492002816,431.3333333348,11.2693
1492002818,414.5333333348,11.8222
1492002820,421.7333333348,10.2206
1492002822,395.3333333348,8.77612
1492002824,412.1333333348,8.56597
1492002826,397.7333333348,8.23688
1492002828,416.9333333348,10.2846
1492002830,404.9333333348,11.7413
1492002832,344.9333333348,8.33538
1492002834,366.5333333348,8.06584
1492002836,340.1333333348,8.83551
1492002838,352.1333333348,7.78045
1492002840,371.3333333348,7.39694
1492002842,318.5333333348,7.71775
1492002844,308.9333333348,8.94936
1492002846,342.5333333348,8.18167
1492002848,284.9333333348,7.50121
1492002850,277.7333333348,9.55321
1492002852,248.9333333348,9.44714
1492002854,265.7333333348,9.18574
1492002856,246.5333333348,10.3059
1492002858,306.5333333348,7.93925
1492002860,251.3333333348,7.50217
1492002862,193.7333333348,5.13033
1492002864,299.3333333348,7.17616
1492002866,272.9333333348,6.02708
1492002868,244.1333333348,7.65119
1492002870,280.1333333348,8.87457
1492002872,272.9333333348,8.04764
1492002874,234.5333333348,12.5109
1492002876,244.1333333348,11.2234
1492002878,222.5333333348,8.67843
1492002880,241.7333333348,8.46699
1492002882,270.5333333348,7.75081
1492002884,282.5333333348,7.68772
1492002886,275.3333333348,9.35697
1492002888,270.5333333348,7.51142
1492002890,280.1333333348,9.34304
1492002892,296.9333333348,8.55775
1492002894,275.3333333348,8.40681
1492002896,282.5333333348,5.5106
1492002898,292.1333333348,6.92942
1492002900,277.7333333348,7.90516
1492002902,239.3333333348,7.32893
1492002904,340.1333333348,10.0121
1492002906,251.3333333348,6.71415
1492002908,265.7333333348,8.55019
1492002910,306.5333333348,8.52012
1492002912,311.3333333348,10.5455
1492002914,282.5333333348,8.2586
1492002916,332.9333333348,7.61837
1492002918,284.9333333348,7.16426
1492002920,292.1333333348,7.4621
1492002922,330.5333333348,8.24769
1492002924,272.9333333348,8.94725
1492002926,316.1333333348,10.395
1492002928,335.3333333348,9.92666
1492002930,299.3333333348,12.8039
1492002932,328.1333333348,11.5414
1492002934,347.3333333348,9.75515
1492002936,323.3333333348,12.7753
1492002938,323.3333333348,11.1446
1492002940,397.7333333348,9.47064
1492002942,373.7333333348,10.1519
1492002944,407.3333333348,10.5372
1492002946,440.9333333348,3.26407
1492002948,479.3333333348,3.62538
1492002950,426.5333333348,4.17237
1492002952,517.7333333348,6.50103
1492002954,364.1333333348,8.75194
1492002956,436.1333333348,9.8245
1492002958,424.1333333348,8.39082
1492002960,436.1333333348,6.81369
1492002962,448.1333333348,7.30768
1492002964,421.7333333348,8.70003
1492002966,354.5333333348,7.47265
1492002968,433.7333333348,5.36528
1492002970,416.9333333348,6.59587
1492002972,385.7333333348,9.63835
1492002974,404.9333333348,8.7116
1492002976,426.5333333348,12.7203
1492002978,352.1333333348,11.1502
1492002980,383.3333333348,10.0099
1492002982,426.5333333348,11.7074
1492002984,390.5333333348,12.7613
1492002986,433.7333333348,10.601
1492002988,335.3333333348,8.70423
1492002990,416.9333333348,10.1692
1492002992,380.9333333348,10.4192
1492002994,371.3333333348,11.3635
1492002996,347.3333333348,13.2039
1492002998,392.9333333348,13.3913
1492003000,378.5333333348,12.0104
1492003002,354.5333333348,11.4084
1492003004,361.7333333348,10.8361
1492003006,392.9333333348,11.4703
1492003008,344.9333333348,11.691
1492003010,364.1333333348,11.7696
1492003012,347.3333333348,10.8929
1492003014,373.7333333348,11.5771
1492003016,407.3333333348,10.6217
1492003018,404.9333333348,10.2562
1492003020,407.3333333348,9.8516
1492003022,421.7333333348,12.9393
1492003024,400.1333333348,11.4005
1492003026,402.5333333348,11.1115
1492003028,431.3333333348,9.28878
1492003030,390.5333333348,10.0101
1492003032,289.7333333348,9.68655
1492003034,361.7333333348,9.06961
1492003036,402.5333333348,8.44319
1492003038,356.9333333348,12.4905
1492003040,400.1333333348,6.51048
1492003042,397.7333333348,12.9791
1492003044,323.3333333348,12.0621
1492003046,404.9333333348,10.9981
1492003048,392.9333333348,11.3541
1492003050,378.5333333348,8.31334
1492003052,344.9333333348,9.36332
1492003054,359.3333333348,6.68032
1492003056,352.1333333348,8.51951
1492003058,414.5333333348,9.10649
1492003060,318.5333333348,10.3461
1492003062,330.5333333348,12.629
1492003064,376.1333333348,11.0643
1492003066,361.7333333348,12.5873
1492003068,373.7333333348,11.7402
1492003070,325.7333333348,11.6575
1492003072,349.7333333348,12.7473
1492003074,340.1333333348,14.0929
1492003076,313.7333333348,12.3951
1492003078,304.1333333348,8.05102
1492003080,328.1333333348,10.0058
1492003082,332.9333333348,11.0528
1492003084,294.5333333348,11.335
1492003086,344.9333333348,10.4092
1492003088,356.9333333348,8.46612
1492003090,340.1333333348,10.7738
1492003092,390.5333333348,11.9085
1492003094,352.1333333348,10.9258
1492003096,301.7333333348,11.6835
1492003098,361.7333333348,11.134
1492003100,335.3333333348,11.1406
1492003102,332.9333333348,10.4565
1492003104,404.9333333348,9.28157
1492003106,400.1333333348,10.8889
1492003108,395.3333333348,11.7769
1492003110,412.1333333348,11.156
1492003112,400.1333333348,10.9435
1492003114,385.7333333348,11.6424
1492003116,500.9333333348,10.7691
1492003118,467.3333333348,10.7905
1492003120,524.9333333348,11.1904
1492003122,520.1333333348,10.4559
1492003124,443.3333333348,10.5418
1492003126,486.5333333348,9.75726
1492003128,431.3333333348,9.55766
1492003130,428.9333333348,9.91717
1492003132,421.7333333348,8.66502
1492003134,476.9333333348,11.1488
1492003136,486.5333333348,9.17104
1492003138,503.3333333348,9.36013
1492003140,424.1333333348,10.2996
1492003142,428.9333333348,10.8295
1492003144,448.1333333348,9.51284
1492003146,460.1333333348,11.2515
1492003148,467.3333333348,11.0318
1492003150,515.3333333348,11.1198
1492003152,491.3333333348,11.7831
1492003154,488.9333333348,10.0587
1492003156,498.5333333348,9.07692
1492003158,479.3333333348,9.22619
1492003160,481.7333333348,9.62649
1492003162,503.3333333348,10.9597
1492003164,438.5333333348,11.3956
1492003166,467.3333333348,5.38133
1492003168,503.3333333348,3.61814
1492003170,450.5333333348,7.46988
1492003172,503.3333333348,11.6727
1492003174,522.5333333348,9.97715
1492003176,498.5333333348,4.97002
1492003178,496.1333333348,7.68915
1492003180,455.3333333348,9.93904
1492003182,424.1333333348,9.11643
1492003184,481.7333333348,9.16365
1492003186,455.3333333348,9.83174
1492003188,426.5333333348,8.63656
1492003190,424.1333333348,9.42334
1492003192,469.7333333348,10.2299
1492003194,404.9333333348,11.2171
1492003196,421.7333333348,8.80398
1492003198,395.3333333348,9.55445
1492003200,409.7333333348,9.82911
1492003202,404.9333333348,9.14662
1492003204,428.9333333348,10.328
1492003206,402.5333333348,10.934
1492003208,361.7333333348,10.7923
1492003210,419.3333333348,9.26428
1492003212,440.9333333348,8.37082
1492003214,443.3333333348,9.98391
1492003216,414.5333333348,9.89768
1492003218,491.3333333348,9.55207
1492003220,498.5333333348,10.4923
1492003222,462.5333333348,10.0509
1492003224,431.3333333348,9.78955
1492003226,450.5333333348,8.65105
1492003228,352.1333333348,9.51031
1492003230,431.3333333348,9.79778
1492003232,438.5333333348,10.3743
1492003234,426.5333333348,7.46837
1492003236,443.3333333348,8.49361
1492003238,433.7333333348,9.21054
1492003240,431.3333333348,9.54378
1492003242,428.9333333348,9.31558
1492003244,472.1333333348,8.44693
1492003246,412.1333333348,9.43505
1492003248,421.7333333348,5.37238
1492003250,395.3333333348,9.95768
1492003252,395.3333333348,8.7524
1492003254,419.3333333348,8.9585
1492003256,412.1333333348,8.00239
1492003258,438.5333333348,7.60838
1492003260,460.1333333348,7.76012
1492003262,481.7333333348,7.74655
1492003264,448.1333333348,9.33528
1492003266,455.3333333348,6.87057
1492003268,385.7333333348,8.66658
1492003270,452.9333333348,9.08808
1492003272,467.3333333348,10.5817
1492003274,366.5333333348,9.75145
1492003276,428.9333333348,8.80819
1492003278,407.3333333348,10.6475
1492003280,443.3333333348,12.1198
1492003282,424.1333333348,9.61619
1492003284,376.1333333348,6.90775
1492003286,407.3333333348,7.7808
1492003288,426.5333333348,8.26562
1492003290,421.7333333348,10.0563
1492003292,431.3333333348,9.32706
1492003294,402.5333333348,7.60335
1492003296,424.1333333348,9.26998
1492003298,390.5333333348,11.3537
1492003300,424.1333333348,11.1639
1492003302,376.1333333348,11.5466
1492003304,404.9333333348,10.6454
1492003306,385.7333333348,10.4268
1492003308,416.9333333348,9.89392
1492003310,426.5333333348,6.93517
1492003312,407.3333333348,8.15981
1492003314,383.3333333348,9.947
1492003316,380.9333333348,9.43686
1492003318,383.3333333348,8.33202
1492003320,409.7333333348,8.72656
1492003322,424.1333333348,9.22192
1492003324,416.9333333348,13.2552
1492003326,419.3333333348,13.3976
1492003328,445.7333333348,9.67891
1492003330,414.5333333348,8.87806
1492003332,438.5333333348,8.88286
1492003334,428.9333333348,8.70709
1492003336,359.3333333348,10.3904
1492003338,421.7333333348,9.32483
1492003340,397.7333333348,9.8648
1492003342,352.1333333348,11.8823
1492003344,388.1333333348,10.0613
1492003346,428.9333333348,10.911
1492003350,424.1333333348,9.7224
1492003352,409.7333333348,9.57363
1492003354,397.7333333348,11.7722
1492003356,452.9333333348,9.39669
1492003358,366.5333333348,9.06779
1492003360,407.3333333348,7.74454
1492003362,438.5333333348,7.58385
1492003364,431.3333333348,7.95803
1492003366,409.7333333348,10.6309
1492003368,469.7333333348,9.69194
1492003370,431.3333333348,9.0079
1492003372,412.1333333348,9.33075
1492003374,431.3333333348,8.02752
1492003376,433.7333333348,8.51828
1492003378,416.9333333348,8.56799
1492003380,419.3333333348,7.92414
1492003382,412.1333333348,9.43774
1492003384,436.1333333348,8.02219
1492003386,436.1333333348,9.77035
1492003388,428.9333333348,6.52156
1492003390,440.9333333348,10.3808
1492003392,445.7333333348,9.37521
1492003394,397.7333333348,9.19283
1492003396,414.5333333348,8.62717
1492003398,419.3333333348,8.36497
1492003400,421.7333333348,9.04156
1492003402,431.3333333348,9.61251
1492003404,368.9333333348,10.9618
1492003406,376.1333333348,10.8694
1492003408,392.9333333348,8.46203
1492003410,385.7333333348,8.58547
1492003412,416.9333333348,8.21854
1492003414,424.1333333348,9.87392
1492003416,340.1333333348,8.21887
1492003418,476.9333333348,10.8688
1492003420,344.9333333348,12.1863
1492003422,404.9333333348,11.0621
1492003424,438.5333333348,12.5507
1492003426,342.5333333348,10.0107
1492003428,395.3333333348,11.7042
1492003430,409.7333333348,9.88347
1492003432,414.5333333348,11.9123
1492003434,402.5333333348,12.3168
1492003436,416.9333333348,10.5831
1492003438,359.3333333348,10.781
