tag_number,delay,power_est
1498131048,69.4666666669,107.787
1498131050,33.4666666669,108.551
1498131052,-4.93333333309999,104.903
1498131054,45.4666666669,99.5886
1498131056,35.8666666669001,108.991
1498131058,74.2666666669001,114.424
1498131060,-28.9333333331,110.766
1498131062,-16.9333333331,112.327
1498131064,33.4666666669,103.505
1498131066,-36.1333333330999,109.049
1498131068,-19.3333333331,108.426
1498131070,-16.9333333331,117.171
1498131072,4.66666666690003,120.978
1498131074,-50.5333333331,117.827
1498131076,-16.9333333331,114.554
1498131078,-24.1333333330999,114.86
1498131080,-50.5333333331,114.482
1498131082,-52.9333333331,112.736
1498131084,-57.7333333330999,112.89
1498131086,-16.9333333331,112.842
1498131088,-60.1333333330999,117.455
1498131090,-81.7333333330999,113.22
1498131092,-43.3333333331,118.52
1498131094,-52.9333333331,113.549
1498131096,-69.7333333330999,106.033
1498131098,-45.7333333330999,106.911
1498131100,-40.9333333331,104.245
1498131102,-36.1333333330999,118.024
1498131104,-45.7333333330999,111.466
1498131106,31.0666666669,116.33
1498131108,88.6666666669,118.55
1498131110,-19.3333333331,109.823
1498131112,-38.5333333331,107.463
1498131114,31.0666666669,107.757
1498131116,-43.3333333331,116.086
1498131118,-12.1333333330999,118.241
1498131120,21.4666666669,102.454
1498131122,26.2666666669001,102.698
1498131124,-24.1333333330999,101.793
1498131126,40.6666666669,107.543
1498131128,71.8666666669001,100.405
1498131130,64.6666666669,103.279
1498131132,62.2666666669001,107.743
1498131134,98.2666666669001,104.248
1498131136,83.8666666669001,103.003
1498131138,55.0666666669,108.856
1498131140,83.8666666669001,106.569
1498131142,115.0666666669,120.606
1498131144,143.8666666669,106.783
1498131146,100.6666666669,113.26
1498131148,127.0666666669,117.021
1498131150,124.6666666669,113.243
1498131152,170.2666666669,111.885
1498131154,153.4666666669,102.981
1498131156,167.8666666669,103.379
1498131158,136.6666666669,105.067
1498131160,83.8666666669001,102.957
1498131162,105.4666666669,106.651
1498131164,93.4666666669,119.309
1498131166,71.8666666669001,117.492
1498131168,69.4666666669,119.421
1498131170,19.0666666669,102.745
1498131172,71.8666666669001,110.656
1498131174,40.6666666669,104.426
1498131176,59.8666666669001,113.261
1498131178,62.2666666669001,106.869
1498131180,81.4666666669,108.478
1498131182,57.4666666669,108.518
1498131184,107.8666666669,102.373
1498131186,167.8666666669,108.652
1498131188,100.6666666669,114.038
1498131190,93.4666666669,116.742
1498131192,98.2666666669001,114.037
1498131194,122.2666666669,111.465
1498131196,103.0666666669,108.331
1498131198,98.2666666669001,108.539
1498131200,91.0666666669,112.032
1498131202,98.2666666669001,113.368
1498131204,26.2666666669001,108.175
1498131206,95.8666666669001,112.496
1498131208,81.4666666669,115.898
1498131210,21.4666666669,115.703
1498131212,16.6666666669,110.938
1498131214,50.2666666669001,116.115
1498131216,57.4666666669,107.92
1498131218,81.4666666669,115.067
1498131220,55.0666666669,113.739
1498131222,43.0666666669,113.495
1498131224,103.0666666669,106.383
1498131226,69.4666666669,113.04
1498131228,67.0666666669,114.136
1498131230,83.8666666669001,106.396
1498131232,81.4666666669,109.223
1498131234,95.8666666669001,106.186
1498131236,103.0666666669,109.758
1498131238,115.0666666669,115.498
1498131240,100.6666666669,105.823
1498131242,64.6666666669,101.421
1498131244,93.4666666669,105.67
1498131246,112.6666666669,103.669
1498131248,112.6666666669,109.968
1498131250,112.6666666669,108.413
1498131252,62.2666666669001,107.896
1498131254,105.4666666669,111.215
1498131256,88.6666666669,103.501
1498131258,91.0666666669,113.836
1498131260,50.2666666669001,107.852
1498131262,112.6666666669,113.087
1498131264,148.6666666669,106.94
1498131266,105.4666666669,107.743
1498131268,107.8666666669,109.126
1498131270,69.4666666669,107.921
1498131272,100.6666666669,114.321
1498131274,91.0666666669,104.702
1498131276,100.6666666669,104.514
1498131278,136.6666666669,110.269
1498131280,117.4666666669,105.223
1498131282,43.0666666669,111.536
1498131284,81.4666666669,112.599
1498131286,117.4666666669,105.345
1498131288,100.6666666669,108.914
1498131290,67.0666666669,104.605
1498131292,74.2666666669001,102.996
1498131294,83.8666666669001,103.945
1498131296,86.2666666669001,104.656
1498131298,117.4666666669,101.498
1498131300,127.0666666669,114.41
1498131302,112.6666666669,107.735
1498131304,110.2666666669,105.894
1498131306,146.2666666669,107.938
1498131308,160.6666666669,110.305
1498131310,110.2666666669,101.494
1498131312,117.4666666669,103.585
1498131314,134.2666666669,103.226
1498131316,117.4666666669,110.727
1498131318,95.8666666669001,107.358
1498131320,69.4666666669,104.477
1498131322,146.2666666669,105.006
1498131324,76.6666666669,98.9102
1498131326,105.4666666669,101.571
1498131328,115.0666666669,99.0666
1498131330,40.6666666669,97.0359
1498131332,57.4666666669,93.2532
1498131334,86.2666666669001,94.4487
1498131336,179.8666666669,97.6599
1498131338,93.4666666669,103.389
1498131340,98.2666666669001,105.166
1498131342,88.6666666669,110.847
1498131344,64.6666666669,112.776
1498131346,-16.9333333331,105.775
1498131348,23.8666666669001,114.967
1498131350,16.6666666669,116.816
1498131352,-24.1333333330999,112.843
1498131354,-33.7333333330999,108.48
1498131356,-4.93333333309999,107.679
1498131358,-38.5333333331,115.449
1498131360,-28.9333333331,120.937
1498131362,11.8666666669001,112.933
1498131364,-19.3333333331,119.156
1498131366,-26.5333333331,111.817
1498131368,-21.7333333330999,117.989
1498131370,-4.93333333309999,109.186
1498131372,45.4666666669,124.764
1498131374,-60.1333333330999,118.852
1498131376,-28.9333333331,120.512
1498131378,-31.3333333331,112.061
1498131380,14.2666666669001,119.842
1498131382,-52.9333333331,115.04
1498131384,-14.5333333331,126.426
1498131386,-69.7333333330999,125.302
1498131388,-67.3333333331,111.999
1498131390,-52.9333333331,113.904
1498131392,-40.9333333331,115.94
1498131394,-96.1333333330999,113.098
1498131396,-7.33333333309997,116.214
1498131398,-62.5333333331,113.036
1498131400,-69.7333333330999,117.327
1498131402,-98.5333333331,117.368
1498131404,-122.5333333331,112.748
1498131406,-84.1333333330999,115.541
1498131408,-76.9333333331,117.6
1498131410,-72.1333333331,119.235
1498131412,-50.5333333331,110.895
1498131414,-84.1333333330999,113.961
1498131416,-72.1333333331,108.272
1498131418,-33.7333333330999,113.434
1498131420,-55.3333333331,114.152
1498131422,-67.3333333331,113.65
1498131424,-64.9333333331,117.829
1498131426,-69.7333333330999,113.501
1498131428,-36.1333333330999,116.105
1498131430,-67.3333333331,108.867
1498131432,-50.5333333331,107.118
1498131434,-69.7333333330999,109.877
1498131436,-60.1333333330999,108.125
1498131438,-28.9333333331,109.946
1498131440,-45.7333333330999,101.999
1498131442,-67.3333333331,104.476
1498131444,-52.9333333331,109.249
1498131446,-112.9333333331,113.171
1498131448,-36.1333333330999,106.267
1498131450,-72.1333333331,114.427
1498131452,-86.5333333331,117.353
1498131454,-55.3333333331,113.986
1498131456,-69.7333333330999,110.915
1498131458,-84.1333333330999,111.359
1498131460,-72.1333333331,107.231
1498131462,-16.9333333331,103.503
1498131464,-38.5333333331,115.283
1498131466,-45.7333333330999,111.896
1498131468,-88.9333333331,108.924
1498131470,-62.5333333331,109.561
1498131472,-74.5333333331,110.832
1498131474,-48.1333333330999,108.069
1498131476,-4.93333333309999,109.604
1498131478,-64.9333333331,109.867
1498131480,-81.7333333330999,112.142
1498131482,-88.9333333331,112.319
1498131484,-50.5333333331,108.88
1498131486,-72.1333333331,107.236
1498131488,-40.9333333331,118.075
1498131490,-91.3333333331,112.348
1498131492,-69.7333333330999,108.16
1498131494,-98.5333333331,111.296
1498131496,-81.7333333330999,113.221
1498131498,-72.1333333331,106.588
1498131500,-57.7333333330999,115.654
1498131502,-50.5333333331,111.295
1498131504,-28.9333333331,109.886
1498131506,-91.3333333331,115.487
1498131508,-110.5333333331,116.242
1498131510,-72.1333333331,114.938
1498131512,-69.7333333330999,118.196
1498131514,-93.7333333330999,111.539
1498131516,-69.7333333330999,111.692
1498131518,-88.9333333331,115.466
1498131520,-144.1333333331,111.031
1498131522,-127.3333333331,111.709
1498131524,-74.5333333331,112.854
1498131526,-64.9333333331,121.282
1498131528,-117.7333333331,113.624
1498131530,-105.7333333331,105.86
1498131532,-122.5333333331,116.167
1498131534,-88.9333333331,111.469
1498131536,-86.5333333331,113.505
1498131538,-81.7333333330999,112.357
1498131540,-88.9333333331,118.58
1498131542,-144.1333333331,117.507
1498131544,-146.5333333331,113.573
1498131546,-57.7333333330999,107.973
1498131548,-98.5333333331,118.107
1498131550,-136.9333333331,117.481
1498131552,-136.9333333331,123.866
1498131554,-79.3333333331,121.56
1498131556,-141.7333333331,114.356
1498131558,-91.3333333331,113.754
1498131560,-93.7333333330999,120.524
1498131562,-72.1333333331,118.117
1498131564,-91.3333333331,113.524
1498131566,-134.5333333331,117.566
1498131568,-38.5333333331,112.096
1498131570,-64.9333333331,109.632
1498131572,-67.3333333331,113.032
1498131574,-79.3333333331,126.365
1498131576,-67.3333333331,112.657
1498131578,-96.1333333330999,108.757
1498131580,-136.9333333331,118.425
1498131582,-144.1333333331,111.911
1498131584,-122.5333333331,104.449
1498131586,-86.5333333331,104.109
1498131588,-74.5333333331,107.62
1498131590,-108.1333333331,114.205
1498131592,-86.5333333331,114.971
1498131594,-132.1333333331,106.206
1498131596,-93.7333333330999,103.65
1498131598,-124.9333333331,106.044
1498131600,-98.5333333331,107.58
1498131602,-79.3333333331,104.952
1498131604,-74.5333333331,107.781
1498131606,-67.3333333331,107.78
1498131608,-74.5333333331,113.547
1498131610,-74.5333333331,118.48
1498131612,-122.5333333331,119.136
1498131614,-81.7333333330999,108.525
1498131616,-79.3333333331,108.686
1498131618,-60.1333333330999,103.696
1498131620,-100.9333333331,104.487
1498131622,-50.5333333331,106.442
1498131624,-36.1333333330999,107.735
1498131626,-84.1333333330999,113.862
1498131628,-93.7333333330999,107.438
1498131630,-98.5333333331,110.949
1498131632,-72.1333333331,112.206
1498131634,-115.3333333331,97.1639
1498131636,-45.7333333330999,97.7167
1498131638,-43.3333333331,101.81
1498131640,-60.1333333330999,96.523
1498131642,-69.7333333330999,97.8052
1498131644,-91.3333333331,109.968
1498131646,-57.7333333330999,106.493
1498131648,-48.1333333330999,111.506
1498131650,-64.9333333331,113.137
1498131652,-62.5333333331,106.778
1498131654,-33.7333333330999,109.778
1498131656,-72.1333333331,107.094
1498131658,-43.3333333331,113.791
1498131660,9.46666666689998,109.68
1498131662,-40.9333333331,110.708
1498131664,-26.5333333331,107.7
1498131666,-24.1333333330999,108.872
1498131668,-21.7333333330999,109.773
1498131670,-12.1333333330999,120.001
1498131672,-19.3333333331,109.697
1498131674,-14.5333333331,110.297
1498131676,-9.73333333309995,120.409
1498131678,21.4666666669,117.978
1498131680,-21.7333333330999,114.884
1498131682,-12.1333333330999,122.023
1498131684,38.2666666669001,112.507
1498131686,74.2666666669001,100.284
1498131688,16.6666666669,104.068
1498131690,-16.9333333331,117.902
1498131692,-55.3333333331,125.554
1498131694,-19.3333333331,113.37
1498131696,-9.73333333309995,119.758
1498131698,31.0666666669,107.836
1498131700,2.26666666690005,107.108
1498131702,-9.73333333309995,112.636
1498131704,9.46666666689998,107.814
1498131706,62.2666666669001,108.557
1498131708,26.2666666669001,103.938
1498131710,-14.5333333331,107.52
1498131712,2.26666666690005,103.728
1498131714,35.8666666669001,108.187
1498131716,23.8666666669001,107.36
1498131718,21.4666666669,109.805
1498131720,64.6666666669,106.779
1498131722,83.8666666669001,107.833
1498131724,-9.73333333309995,102.954
1498131726,62.2666666669001,106.487
1498131728,62.2666666669001,102.254
1498131730,67.0666666669,112.272
1498131732,55.0666666669,114.883
1498131734,59.8666666669001,103.474
1498131736,81.4666666669,105.94
1498131738,40.6666666669,105.627
1498131740,86.2666666669001,105.396
1498131742,79.0666666669,109.866
1498131744,71.8666666669001,97.8055
1498131746,74.2666666669001,101.74
1498131748,110.2666666669,100.996
1498131750,57.4666666669,113.2
1498131752,59.8666666669001,112.637
1498131754,103.0666666669,113.675
1498131756,98.2666666669001,107.53
1498131758,79.0666666669,108.425
1498131760,76.6666666669,100.751
1498131762,98.2666666669001,104.391
1498131764,79.0666666669,107.101
1498131766,16.6666666669,110.984
1498131768,98.2666666669001,114.613
1498131770,103.0666666669,109.637
1498131772,31.0666666669,114.292
1498131774,57.4666666669,115.177
1498131776,38.2666666669001,112.92
1498131778,-12.1333333330999,113.548
1498131780,62.2666666669001,104.548
1498131782,88.6666666669,117.423
1498131784,71.8666666669001,107.975
1498131786,74.2666666669001,104.106
1498131788,67.0666666669,109.293
1498131790,95.8666666669001,110.549
1498131792,93.4666666669,106.773
1498131794,62.2666666669001,108.865
1498131796,67.0666666669,107.152
1498131798,86.2666666669001,106.262
1498131800,93.4666666669,106.983
1498131802,91.0666666669,107.196
1498131804,35.8666666669001,114.047
1498131806,43.0666666669,111.949
1498131808,26.2666666669001,116.28
1498131810,67.0666666669,113.776
1498131812,76.6666666669,107.506
1498131814,81.4666666669,115.194
1498131816,71.8666666669001,111.561
1498131818,79.0666666669,112.258
1498131820,52.6666666669,111.669
1498131822,71.8666666669001,109.468
1498131824,62.2666666669001,103.111
1498131826,98.2666666669001,106.183
1498131828,71.8666666669001,101.773
1498131830,62.2666666669001,107.543
1498131832,105.4666666669,108.465
1498131834,107.8666666669,113.451
1498131836,93.4666666669,112.928
1498131838,105.4666666669,111.558
1498131840,100.6666666669,107.202
1498131842,43.0666666669,108.3
1498131844,55.0666666669,113.948
1498131846,47.8666666669001,105.797
1498131848,69.4666666669,107.888
1498131850,91.0666666669,111.542
1498131852,112.6666666669,104.114
1498131854,47.8666666669001,118.809
1498131856,9.46666666689998,120.481
1498131858,71.8666666669001,119.914
1498131860,64.6666666669,114.861
1498131862,28.6666666669,119.334
1498131864,35.8666666669001,119.298
1498131866,40.6666666669,114.583
1498131868,67.0666666669,108.547
1498131870,43.0666666669,109.982
1498131872,67.0666666669,108.912
1498131874,115.0666666669,115.444
1498131876,52.6666666669,108.137
1498131878,33.4666666669,108.541
1498131880,55.0666666669,114.051
1498131882,-33.7333333330999,113.828
1498131884,-28.9333333331,115.262
1498131886,16.6666666669,124.957
1498131888,83.8666666669001,111.533
1498131890,67.0666666669,110.613
1498131892,23.8666666669001,111.876
1498131894,50.2666666669001,105.449
1498131896,55.0666666669,110.121
1498131898,11.8666666669001,108.01
1498131900,23.8666666669001,103.497
1498131902,74.2666666669001,113.32
1498131904,-31.3333333331,118.072
1498131906,40.6666666669,124.336
1498131908,-9.73333333309995,116.911
1498131910,31.0666666669,118.962
1498131912,14.2666666669001,118.025
1498131914,14.2666666669001,116.371
1498131916,64.6666666669,116.264
1498131918,-0.133333333099927,108.077
1498131920,-45.7333333330999,108.689
1498131922,-7.33333333309997,110.314
1498131924,-26.5333333331,112.065
1498131926,-48.1333333330999,104.457
1498131928,-12.1333333330999,113.666
1498131930,11.8666666669001,97.5984
1498131932,-2.53333333310002,98.0596
1498131934,-14.5333333331,101.139
1498131936,-19.3333333331,105.556
1498131938,-52.9333333331,110.398
1498131940,-36.1333333330999,106.342
1498131942,-50.5333333331,110.807
1498131944,-33.7333333330999,110.064
1498131946,-52.9333333331,108.129
1498131948,-14.5333333331,109.509
1498131950,-21.7333333330999,111.335
1498131952,-45.7333333330999,115.304
1498131954,-74.5333333331,113.359
1498131956,-45.7333333330999,114.035
1498131958,31.0666666669,116.839
1498131960,-67.3333333331,116.591
1498131962,-60.1333333330999,106.806
1498131964,-9.73333333309995,108.811
1498131966,-48.1333333330999,110.082
1498131968,-62.5333333331,100.435
1498131970,-36.1333333330999,103.396
1498131972,-45.7333333330999,111.216
1498131974,-48.1333333330999,114.046
1498131976,-43.3333333331,108.051
1498131978,-36.1333333330999,104.192
1498131980,-38.5333333331,107.824
1498131982,-72.1333333331,99.8916
1498131984,-52.9333333331,106.218
1498131986,-36.1333333330999,103.889
1498131988,-43.3333333331,108.94
1498131990,-52.9333333331,104.562
1498131992,-4.93333333309999,108.22
1498131994,-36.1333333330999,115.471
1498131996,-67.3333333331,109.567
1498131998,-52.9333333331,109.246
1498132000,-67.3333333331,114.652
1498132002,-88.9333333331,120.173
1498132004,-72.1333333331,115.034
1498132006,-38.5333333331,112.647
1498132008,-86.5333333331,102.847
1498132010,-55.3333333331,103.418
1498132012,-57.7333333330999,109.31
1498132014,-55.3333333331,101.641
1498132016,-79.3333333331,106.346
1498132018,-74.5333333331,105.961
1498132020,-36.1333333330999,109.864
1498132022,-67.3333333331,111.499
1498132024,-28.9333333331,110.488
1498132026,-55.3333333331,111.792
1498132028,-62.5333333331,114.516
1498132030,-67.3333333331,118.082
1498132032,-55.3333333331,112.956
1498132034,-38.5333333331,109.674
1498132036,-19.3333333331,105.413
1498132038,-108.1333333331,104.885
1498132040,-69.7333333330999,95.8556
1498132042,-79.3333333331,101.9
1498132044,-72.1333333331,100.869
1498132046,-69.7333333330999,111.808
1498132048,-50.5333333331,108.186
1498132050,-76.9333333331,116.168
1498132052,-67.3333333331,115.599
1498132054,-62.5333333331,111.158
1498132056,-74.5333333331,111.78
1498132058,-74.5333333331,113.442
1498132060,-60.1333333330999,112.997
1498132062,-72.1333333331,110.9
1498132064,-40.9333333331,108.077
1498132066,-64.9333333331,112.723
1498132068,-26.5333333331,113.691
1498132070,-55.3333333331,115.211
1498132072,-19.3333333331,113.087
1498132074,-45.7333333330999,123.564
1498132076,-45.7333333330999,112.766
1498132078,-50.5333333331,121.569
1498132080,-88.9333333331,119.63
1498132082,-69.7333333330999,119.932
1498132084,-40.9333333331,112.966
1498132086,-36.1333333330999,110.345
1498132088,-50.5333333331,113.32
1498132090,-67.3333333331,109.605
1498132092,-67.3333333331,107.393
1498132094,-76.9333333331,110.469
1498132096,-9.73333333309995,110.823
1498132098,-21.7333333330999,107.571
1498132100,-74.5333333331,105.963
1498132102,-69.7333333330999,114.123
1498132104,-55.3333333331,109.003
1498132106,-67.3333333331,111.667
1498132108,-40.9333333331,117.089
1498132110,-45.7333333330999,111.004
1498132112,-67.3333333331,110.391
1498132114,-67.3333333331,109.224
1498132116,-50.5333333331,106.147
1498132118,-24.1333333330999,110.407
1498132120,-93.7333333330999,114.826
1498132122,-45.7333333330999,106.398
1498132124,-33.7333333330999,109.378
1498132126,-21.7333333330999,116.01
1498132128,-88.9333333331,111.917
1498132130,-55.3333333331,111.233
1498132132,-64.9333333331,107.752
1498132134,-79.3333333331,109.344
1498132136,-31.3333333331,113.678
1498132138,-14.5333333331,106.192
1498132140,-28.9333333331,108.754
1498132142,-40.9333333331,114.527
1498132144,2.26666666690005,116.87
1498132146,7.06666666690001,111.539
1498132148,-110.5333333331,114.247
1498132150,-72.1333333331,112.45
1498132152,-50.5333333331,112.129
1498132154,-64.9333333331,117.206
1498132156,-38.5333333331,117.302
1498132158,-74.5333333331,118.659
1498132160,-69.7333333330999,114.741
1498132162,-45.7333333330999,114.898
1498132164,-0.133333333099927,121.867
1498132166,-50.5333333331,113.361
1498132168,-79.3333333331,113.124
1498132170,-43.3333333331,105.136
1498132172,-43.3333333331,110.457
1498132174,-48.1333333330999,111.273
1498132176,-69.7333333330999,107.357
1498132178,-43.3333333331,109.108
1498132180,-50.5333333331,113.778
1498132182,-67.3333333331,118.639
1498132184,-60.1333333330999,114.932
1498132186,-38.5333333331,110.013
1498132188,-52.9333333331,109.352
1498132190,-62.5333333331,108.979
1498132192,-52.9333333331,113.535
1498132194,-43.3333333331,116.048
1498132196,-33.7333333330999,113.494
1498132198,-64.9333333331,111.751
1498132200,-14.5333333331,105.983
1498132202,-79.3333333331,107.119
1498132204,-57.7333333330999,105.407
1498132206,-117.7333333331,112.407
1498132208,-67.3333333331,109.354
1498132210,-112.9333333331,110.092
1498132212,-81.7333333330999,108.103
1498132214,-55.3333333331,115.816
1498132216,-64.9333333331,121.104
1498132218,-50.5333333331,114.844
1498132220,-79.3333333331,108.222
1498132222,-43.3333333331,120.214
1498132224,-81.7333333330999,117.593
1498132226,-57.7333333330999,110.044
1498132228,11.8666666669001,106.179
1498132230,-12.1333333330999,101.593
1498132232,-74.5333333331,104.926
1498132234,-50.5333333331,109.244
1498132236,-64.9333333331,107.048
1498132238,-112.9333333331,108.513
1498132240,-86.5333333331,111.119
1498132242,-45.7333333330999,109.706
1498132244,-64.9333333331,110.102
1498132246,-88.9333333331,114.095
1498132248,-12.1333333330999,116.758
1498132250,-81.7333333330999,113.595
1498132252,-57.7333333330999,118.439
1498132254,-40.9333333331,107.762
1498132256,-74.5333333331,116.369
1498132258,-69.7333333330999,110.599
1498132260,-105.7333333331,120.482
1498132262,-55.3333333331,115.796
1498132264,-48.1333333330999,105.001
1498132266,-48.1333333330999,109.407
1498132268,-45.7333333330999,109.699
1498132270,-62.5333333331,108.001
1498132272,-129.7333333331,112.233
1498132274,-84.1333333330999,110.141
1498132276,-67.3333333331,112.364
1498132278,-74.5333333331,117.078
1498132280,-60.1333333330999,111.765
1498132282,-50.5333333331,113.02
1498132284,-64.9333333331,116.759
1498132286,-81.7333333330999,114.997
1498132288,-50.5333333331,105.587
1498132290,-72.1333333331,111.023
1498132292,-62.5333333331,113.328
1498132294,2.26666666690005,105.625
1498132296,-31.3333333331,106.252
1498132298,43.0666666669,101.551
1498132300,74.2666666669001,107.225
1498132302,98.2666666669001,108.039
1498132304,74.2666666669001,102.349
1498132306,59.8666666669001,101.145
1498132308,98.2666666669001,105.097
1498132310,81.4666666669,99.3259
1498132312,141.4666666669,99.0858
1498132314,93.4666666669,96.5674
1498132316,95.8666666669001,97.6102
1498132318,76.6666666669,105.842
1498132320,55.0666666669,103.155
1498132322,103.0666666669,103.394
1498132324,88.6666666669,106.906
1498132326,50.2666666669001,112.895
1498132328,86.2666666669001,94.6739
1498132330,64.6666666669,108.545
1498132332,47.8666666669001,102.126
1498132334,52.6666666669,105.071
1498132336,52.6666666669,108.846
1498132338,-38.5333333331,110.231
1498132340,35.8666666669001,105.246
1498132342,50.2666666669001,102.392
1498132344,43.0666666669,106.347
1498132346,45.4666666669,101.392
1498132350,35.8666666669001,105.298
1498132352,47.8666666669001,105.28
1498132354,79.0666666669,111.514
1498132356,86.2666666669001,111.038
1498132358,43.0666666669,110.248
1498132360,45.4666666669,106.959
1498132362,50.2666666669001,106.805
1498132364,57.4666666669,104.281
1498132366,67.0666666669,107.402
1498132368,62.2666666669001,102.57
1498132370,100.6666666669,102.202
1498132372,-4.93333333309999,111.133
1498132374,71.8666666669001,113.687
1498132376,45.4666666669,112.629
1498132378,33.4666666669,107.37
1498132380,71.8666666669001,103.058
1498132382,69.4666666669,106.182
1498132384,-0.133333333099927,108.948
1498132386,52.6666666669,109.431
1498132388,62.2666666669001,105.546
1498132390,28.6666666669,109.058
1498132392,-9.73333333309995,103.027
1498132394,83.8666666669001,113.435
1498132396,83.8666666669001,101.188
1498132398,-21.7333333330999,112.453
1498132400,19.0666666669,108.24
1498132402,26.2666666669001,102.644
1498132404,14.2666666669001,102.265
1498132406,-12.1333333330999,104.873
1498132408,-0.133333333099927,109.116
1498132410,11.8666666669001,114.989
1498132412,19.0666666669,113.239
1498132414,33.4666666669,116.785
1498132416,-16.9333333331,117.536
1498132418,67.0666666669,112.503
1498132420,28.6666666669,117.229
1498132422,33.4666666669,106.232
1498132424,-36.1333333330999,116.331
1498132426,11.8666666669001,101.488
1498132428,-9.73333333309995,102.415
1498132430,-45.7333333330999,111.404
1498132432,-79.3333333331,103.697
1498132434,-7.33333333309997,109.509
1498132436,-50.5333333331,102.906
1498132438,-55.3333333331,107.415
1498132440,-12.1333333330999,112.995
1498132442,-28.9333333331,102.44
1498132444,9.46666666689998,99.3416
1498132446,-48.1333333330999,106.104
1498132448,-24.1333333330999,109.931
1498132450,-14.5333333331,113.93
1498132452,-4.93333333309999,106.365
1498132454,-45.7333333330999,105.646
1498132456,-43.3333333331,112.278
1498132458,-36.1333333330999,112.79
1498132460,-55.3333333331,111.181
1498132462,-50.5333333331,105.962
1498132464,-48.1333333330999,114.777
1498132466,-38.5333333331,110.502
1498132468,-55.3333333331,114.709
1498132470,-55.3333333331,114.238
1498132472,-62.5333333331,104.85
1498132474,-2.53333333310002,112.048
1498132476,-76.9333333331,112.009
1498132478,-31.3333333331,108.104
1498132480,-9.73333333309995,99.401
1498132482,9.46666666689998,106.418
1498132484,-14.5333333331,99.02
1498132486,9.46666666689998,102.143
1498132488,19.0666666669,104.592
1498132490,35.8666666669001,107.452
1498132492,71.8666666669001,99.2249
1498132494,33.4666666669,101.919
1498132496,47.8666666669001,97.1065
1498132498,28.6666666669,102.912
1498132500,93.4666666669,105.138
1498132502,31.0666666669,109.268
1498132504,79.0666666669,111.059
1498132506,98.2666666669001,103.581
1498132508,71.8666666669001,107.272
1498132510,95.8666666669001,106.843
1498132512,67.0666666669,111.274
1498132514,21.4666666669,106.575
1498132516,91.0666666669,102.783
1498132518,81.4666666669,105.577
1498132520,79.0666666669,105.502
1498132522,-4.93333333309999,102.512
1498132524,23.8666666669001,102.186
1498132526,35.8666666669001,99.4819
1498132528,40.6666666669,101.872
1498132530,45.4666666669,105.569
1498132532,74.2666666669001,106.239
1498132534,4.66666666690003,105.191
1498132536,95.8666666669001,110.552
1498132538,98.2666666669001,113.434
1498132540,83.8666666669001,110.313
1498132542,57.4666666669,112.779
1498132544,103.0666666669,104.653
1498132546,50.2666666669001,117.013
1498132548,71.8666666669001,107.102
1498132550,81.4666666669,97.8134
1498132552,74.2666666669001,104.22
1498132554,47.8666666669001,104.692
1498132556,146.2666666669,98.007
1498132558,62.2666666669001,103.718
1498132560,79.0666666669,112.564
1498132562,79.0666666669,110.641
1498132564,83.8666666669001,115.235
1498132566,67.0666666669,109.353
1498132568,76.6666666669,113.327
1498132570,86.2666666669001,105.575
1498132572,35.8666666669001,112.685
1498132574,28.6666666669,118.033
1498132576,79.0666666669,116.013
1498132578,-2.53333333310002,118.735
1498132580,62.2666666669001,110.048
1498132582,112.6666666669,114.011
1498132584,55.0666666669,110.004
1498132586,57.4666666669,107.866
1498132588,100.6666666669,109.692
1498132590,105.4666666669,115.607
1498132592,79.0666666669,115.488
1498132594,69.4666666669,117.683
1498132596,86.2666666669001,117.199
1498132598,11.8666666669001,106.235
1498132600,93.4666666669,107.261
1498132602,86.2666666669001,106.049
1498132604,83.8666666669001,106.154
1498132606,91.0666666669,103.42
1498132608,98.2666666669001,102.308
1498132610,43.0666666669,111.232
1498132612,86.2666666669001,113.076
1498132614,76.6666666669,115.537
1498132616,64.6666666669,113.069
1498132618,83.8666666669001,106.955
1498132620,117.4666666669,107.964
1498132622,74.2666666669001,114.245
1498132624,33.4666666669,115.263
1498132626,110.2666666669,114.446
1498132628,93.4666666669,108.398
1498132630,64.6666666669,108.32
1498132632,57.4666666669,112.752
1498132634,57.4666666669,109.028
1498132636,31.0666666669,122.258
1498132638,57.4666666669,111.759
1498132640,67.0666666669,116.121
1498132642,71.8666666669001,111.545
1498132644,79.0666666669,111.539
1498132646,100.6666666669,108.808
1498132648,21.4666666669,109.475
1498132650,98.2666666669001,105.517
1498132652,112.6666666669,115.954
1498132654,100.6666666669,115.866
1498132656,117.4666666669,121.265
1498132658,117.4666666669,113.72
1498132660,151.0666666669,124.404
1498132662,98.2666666669001,112.02
1498132664,100.6666666669,119.419
1498132666,143.8666666669,116.435
1498132668,110.2666666669,120.332
1498132670,122.2666666669,122.777
1498132672,160.6666666669,109.841
1498132674,160.6666666669,116.652
1498132676,170.2666666669,115.136
1498132678,199.0666666669,118.879
1498132680,158.2666666669,107.469
1498132682,177.4666666669,117.722
1498132684,170.2666666669,111.273
1498132686,163.0666666669,104.724
1498132688,160.6666666669,108.966
1498132690,189.4666666669,107.337
1498132692,165.4666666669,110.189
1498132694,167.8666666669,109.38
1498132696,153.4666666669,114.824
1498132698,127.0666666669,116.288
1498132700,127.0666666669,121.572
1498132702,177.4666666669,116.379
1498132704,175.0666666669,116.391
1498132706,151.0666666669,120.753
1498132708,110.2666666669,114.017
1498132710,103.0666666669,115.237
1498132712,91.0666666669,109.861
1498132714,117.4666666669,119.702
1498132716,107.8666666669,117.331
1498132718,110.2666666669,120.469
1498132720,81.4666666669,120.955
1498132722,74.2666666669001,121.075
1498132724,69.4666666669,129.931
1498132726,57.4666666669,126.94
1498132728,76.6666666669,126.053
1498132730,59.8666666669001,117.617
1498132732,57.4666666669,113.723
1498132734,69.4666666669,108.746
1498132736,57.4666666669,116.409
1498132738,47.8666666669001,123.13
1498132740,95.8666666669001,116.275
1498132742,71.8666666669001,120.722
1498132744,52.6666666669,118.493
1498132746,45.4666666669,125.997
1498132748,74.2666666669001,121.558
1498132750,45.4666666669,119.623
1498132752,67.0666666669,112.64
1498132754,105.4666666669,113.318
1498132756,19.0666666669,115.83
1498132758,4.66666666690003,117.2
1498132760,31.0666666669,122.039
1498132762,16.6666666669,123.499
1498132764,19.0666666669,119.876
1498132766,55.0666666669,115.257
1498132768,76.6666666669,117.992
1498132770,33.4666666669,115.792
1498132772,45.4666666669,119.562
1498132774,31.0666666669,118.491
1498132776,52.6666666669,117.067
1498132778,7.06666666690001,119.925
1498132780,83.8666666669001,115.104
1498132782,21.4666666669,119.74
1498132784,-2.53333333310002,112.673
1498132786,64.6666666669,109.397
1498132788,40.6666666669,120.557
1498132790,-7.33333333309997,119.83
1498132792,19.0666666669,113.164
1498132794,16.6666666669,113.151
1498132796,-40.9333333331,112.393
1498132798,-21.7333333330999,112.218
1498132800,-7.33333333309997,117.054
1498132802,-16.9333333331,122.281
1498132804,-48.1333333330999,113.273
1498132806,-52.9333333331,114.88
1498132808,-26.5333333331,112.38
1498132810,-60.1333333330999,116.234
1498132812,-26.5333333331,116.12
1498132814,2.26666666690005,109.79
1498132816,-38.5333333331,112.952
1498132818,81.4666666669,114.718
1498132820,79.0666666669,119.107
1498132822,86.2666666669001,116.512
1498132824,172.6666666669,109.929
1498132826,167.8666666669,109.627
1498132828,151.0666666669,113.831
1498132830,143.8666666669,113.246
1498132832,110.2666666669,108.213
1498132834,127.0666666669,123.001
1498132836,91.0666666669,113.253
1498132838,105.4666666669,121.931
1498132840,81.4666666669,123.394
1498132842,45.4666666669,127.767
1498132844,57.4666666669,121.114
1498132846,7.06666666690001,120.296
1498132848,-7.33333333309997,121.956
1498132850,26.2666666669001,119.237
1498132852,45.4666666669,112.158
1498132854,64.6666666669,117.062
1498132856,23.8666666669001,120.699
1498132858,98.2666666669001,118.967
1498132860,40.6666666669,115.683
1498132862,28.6666666669,115.737
1498132864,62.2666666669001,120.496
1498132866,81.4666666669,112.022
1498132868,35.8666666669001,114.047
1498132870,4.66666666690003,118.841
1498132872,35.8666666669001,110.772
1498132874,-4.93333333309999,112.144
1498132876,55.0666666669,121.796
1498132878,-50.5333333331,116.474
1498132880,-50.5333333331,110.19
1498132882,-28.9333333331,110.721
1498132884,-9.73333333309995,106.496
1498132886,-21.7333333330999,110.798
1498132888,-81.7333333330999,116.611
1498132890,67.0666666669,114.577
1498132892,4.66666666690003,121.005
1498132894,-24.1333333330999,116.732
1498132896,-19.3333333331,110.463
1498132898,-48.1333333330999,119.366
1498132900,-33.7333333330999,111.573
1498132902,-12.1333333330999,116.304
1498132904,7.06666666690001,121.545
1498132906,-14.5333333331,110.525
1498132908,-31.3333333331,117.6
1498132910,-4.93333333309999,114.289
1498132912,-40.9333333331,119.144
1498132914,-81.7333333330999,125.587
1498132916,-0.133333333099927,120.223
1498132918,-43.3333333331,116.11
1498132920,-38.5333333331,125.015
1498132922,21.4666666669,120.678
1498132924,-24.1333333330999,114.898
1498132926,-52.9333333331,122.433
1498132928,-60.1333333330999,118.879
1498132930,-40.9333333331,120.613
1498132932,-60.1333333330999,120.464
1498132934,-24.1333333330999,111.417
1498132936,-24.1333333330999,115.034
1498132938,-36.1333333330999,118.982
1498132940,-2.53333333310002,121.264
1498132942,26.2666666669001,120.048
1498132944,14.2666666669001,113.899
1498132946,7.06666666690001,115.845
1498132948,47.8666666669001,105.763
1498132950,11.8666666669001,115.379
1498132952,-19.3333333331,121.617
1498132954,-60.1333333330999,119.262
1498132956,-14.5333333331,119.167
1498132958,-43.3333333331,122.233
1498132960,-16.9333333331,114.524
1498132962,-2.53333333310002,117.893
1498132964,-40.9333333331,116.402
1498132966,-40.9333333331,118.828
1498132968,2.26666666690005,111.165
1498132970,-9.73333333309995,119.381
1498132972,-31.3333333331,113.419
1498132974,-36.1333333330999,120.052
1498132976,11.8666666669001,113.713
1498132978,-48.1333333330999,112.467
1498132980,-40.9333333331,119.236
1498132982,14.2666666669001,112.337
1498132984,-9.73333333309995,112.511
1498132986,-7.33333333309997,109.869
1498132988,-43.3333333331,113.326
1498132990,28.6666666669,112.002
1498132992,-64.9333333331,112.218
1498132994,11.8666666669001,116.383
1498132996,-14.5333333331,105.994
1498132998,-26.5333333331,117.64
1498133000,28.6666666669,114.213
1498133002,-28.9333333331,109.759
1498133004,-43.3333333331,105.036
1498133006,-45.7333333330999,112.243
1498133008,-43.3333333331,111.536
1498133010,-33.7333333330999,116.909
1498133012,-62.5333333331,116.65
1498133014,-36.1333333330999,119.678
1498133016,-74.5333333331,115.888
1498133018,-7.33333333309997,117.122
1498133020,-55.3333333331,121.09
1498133022,-31.3333333331,116.789
1498133024,-14.5333333331,115.925
1498133026,-45.7333333330999,107.124
1498133028,-45.7333333330999,118.384
1498133030,-76.9333333331,112.197
1498133032,-50.5333333331,109.305
1498133034,-64.9333333331,117.12
1498133036,-28.9333333331,116.827
1498133038,40.6666666669,122.645
1498133040,14.2666666669001,123.225
1498133042,-14.5333333331,120.573
1498133044,-52.9333333331,113.39
1498133046,-38.5333333331,114.648
1498133048,-14.5333333331,120.026
1498133050,9.46666666689998,114.695
1498133052,-24.1333333330999,118.11
1498133054,-26.5333333331,114.567
1498133056,-57.7333333330999,114.787
1498133058,-40.9333333331,120.937
1498133060,-16.9333333331,115.854
1498133062,-26.5333333331,115.64
1498133064,-26.5333333331,116.802
1498133066,-52.9333333331,114.923
1498133068,-0.133333333099927,115.659
1498133070,-62.5333333331,114.12
1498133072,-40.9333333331,116.258
1498133074,-26.5333333331,111.463
1498133076,-38.5333333331,112.129
1498133078,-33.7333333330999,114.035
1498133080,-43.3333333331,108.994
1498133082,-64.9333333331,113.292
1498133084,-55.3333333331,113.927
1498133086,-12.1333333330999,120.829
1498133088,-67.3333333331,116.971
1498133090,-108.1333333331,119.589
1498133092,-24.1333333330999,110.785
1498133094,-57.7333333330999,118.152
1498133096,-67.3333333331,105.272
1498133098,-67.3333333331,112.389
1498133100,-55.3333333331,119.967
1498133102,-57.7333333330999,122.175
1498133104,-67.3333333331,115.286
1498133106,-62.5333333331,114.886
1498133108,-64.9333333331,119.852
1498133110,-74.5333333331,120.041
1498133112,-16.9333333331,124.2
1498133114,11.8666666669001,120.99
1498133116,-52.9333333331,116.782
1498133118,-31.3333333331,120.639
1498133120,-69.7333333330999,122.441
1498133122,-43.3333333331,119.823
1498133124,-40.9333333331,117.645
1498133126,88.6666666669,113.558
1498133128,-45.7333333330999,115.339
1498133130,-16.9333333331,112.955
1498133132,45.4666666669,118.794
1498133134,7.06666666690001,113.307
1498133136,-33.7333333330999,114.617
1498133138,28.6666666669,119.518
1498133140,7.06666666690001,119.574
1498133142,-31.3333333331,118.618
1498133144,-16.9333333331,112.952
1498133146,-57.7333333330999,119.788
1498133148,-21.7333333330999,122.086
1498133150,19.0666666669,116.191
1498133152,16.6666666669,115.491
1498133154,-14.5333333331,117.665
1498133156,-7.33333333309997,113.084
1498133158,7.06666666690001,120.671
1498133160,7.06666666690001,115.996
1498133162,38.2666666669001,109.273
1498133164,43.0666666669,106.24
1498133166,59.8666666669001,112.249
1498133168,-16.9333333331,121.255
1498133170,7.06666666690001,120.159
1498133172,4.66666666690003,119.581
1498133174,7.06666666690001,122.384
1498133176,7.06666666690001,125.767
1498133178,-21.7333333330999,123.462
1498133180,-4.93333333309999,122.54
1498133182,-16.9333333331,120.487
1498133184,14.2666666669001,127.549
1498133186,9.46666666689998,124.613
1498133188,-40.9333333331,120.958
1498133190,19.0666666669,110.715
1498133192,-19.3333333331,115.671
1498133194,19.0666666669,112.388
1498133196,-0.133333333099927,113.257
1498133198,35.8666666669001,119.569
1498133200,11.8666666669001,118.44
1498133202,26.2666666669001,118.426
1498133204,67.0666666669,125.07
1498133206,-33.7333333330999,126.172
1498133208,-4.93333333309999,125.011
1498133210,-36.1333333330999,113.833
1498133212,7.06666666690001,115.704
1498133214,-43.3333333331,117.461
1498133216,-31.3333333331,126.031
1498133218,-31.3333333331,122.69
1498133220,-52.9333333331,112.538
1498133222,-33.7333333330999,116.12
1498133224,-31.3333333331,120.556
1498133226,-4.93333333309999,122.509
1498133228,-43.3333333331,122.026
1498133230,-16.9333333331,128.048
1498133232,-14.5333333331,120.777
1498133234,-36.1333333330999,114.662
1498133236,-55.3333333331,119.92
1498133238,4.66666666690003,112.081
1498133240,-26.5333333331,122.242
1498133242,-7.33333333309997,112.528
1498133244,28.6666666669,115.889
1498133246,43.0666666669,115.228
1498133248,-24.1333333330999,114.778
1498133250,-26.5333333331,111.886
1498133252,-52.9333333331,125.502
1498133254,-19.3333333331,106.22
1498133256,28.6666666669,124.445
1498133258,-7.33333333309997,110.419
1498133260,-33.7333333330999,106.011
1498133262,-69.7333333330999,100.803
1498133264,11.8666666669001,111.429
1498133266,-45.7333333330999,115.736
1498133268,-0.133333333099927,118.547
1498133270,26.2666666669001,116.587
1498133272,-50.5333333331,120.002
1498133274,-4.93333333309999,118.315
1498133276,-12.1333333330999,106.926
1498133278,-50.5333333331,112.195
1498133280,-16.9333333331,111.638
1498133282,33.4666666669,107.471
1498133284,-21.7333333330999,105.075
1498133286,-36.1333333330999,108.075
1498133288,-40.9333333331,108.032
1498133290,16.6666666669,107.524
1498133292,-26.5333333331,112.263
1498133294,-0.133333333099927,103.471
1498133296,-2.53333333310002,108.266
1498133298,-36.1333333330999,108.701
1498133300,-48.1333333330999,104.117
1498133302,2.26666666690005,111.434
1498133304,33.4666666669,108.39
1498133306,-0.133333333099927,113.982
1498133308,-55.3333333331,99.7306
1498133310,-2.53333333310002,115.308
1498133312,-52.9333333331,110.588
1498133314,7.06666666690001,112.469
1498133316,-36.1333333330999,101.762
1498133318,-45.7333333330999,110.273
1498133320,-50.5333333331,110.622
1498133322,-2.53333333310002,109.623
1498133324,-50.5333333331,107.556
1498133326,-31.3333333331,107.049
1498133328,-21.7333333330999,108.599
1498133330,-26.5333333331,106.615
1498133332,-48.1333333330999,106.163
1498133334,-28.9333333331,107.047
1498133336,-57.7333333330999,117.832
1498133338,-79.3333333331,112.217
1498133340,-16.9333333331,113.948
1498133342,-48.1333333330999,107.699
1498133344,-74.5333333331,113.452
1498133346,-31.3333333331,114.622
1498133348,-45.7333333330999,114.398
1498133350,-55.3333333331,98.3964
1498133352,-26.5333333331,114.338
1498133354,-38.5333333331,111.372
1498133356,-28.9333333331,117.35
1498133358,-36.1333333330999,114.477
1498133360,-69.7333333330999,115.434
1498133362,-9.73333333309995,114.919
1498133364,-45.7333333330999,106.888
1498133366,-33.7333333330999,106.398
1498133368,-12.1333333330999,109.339
1498133370,-57.7333333330999,108.432
1498133372,-60.1333333330999,107.436
1498133374,-67.3333333331,100.836
1498133376,-57.7333333330999,108.678
1498133378,-36.1333333330999,101.313
1498133380,-19.3333333331,105.212
1498133382,-33.7333333330999,108.599
1498133384,-50.5333333331,103.308
1498133386,-55.3333333331,117.459
1498133388,-38.5333333331,107.828
1498133390,-12.1333333330999,119.414
1498133392,-45.7333333330999,112.616
1498133394,-26.5333333331,113.196
1498133396,-16.9333333331,111.246
1498133398,-38.5333333331,112.428
1498133400,-43.3333333331,111.028
1498133402,-24.1333333330999,111.423
1498133404,-69.7333333330999,115.926
1498133406,-4.93333333309999,110.907
1498133408,4.66666666690003,114.193
1498133410,-45.7333333330999,107.503
1498133412,-43.3333333331,102.506
1498133414,38.2666666669001,109.52
1498133416,28.6666666669,106.109
1498133418,57.4666666669,105.845
1498133420,45.4666666669,108.985
1498133422,79.0666666669,106.981
1498133424,38.2666666669001,115.593
1498133426,71.8666666669001,109.974
1498133428,43.0666666669,103.887
1498133430,47.8666666669001,106.443
1498133432,74.2666666669001,111.647
1498133434,67.0666666669,102.183
1498133436,55.0666666669,101.801
1498133438,23.8666666669001,106.035
1498133440,64.6666666669,103.442
1498133442,91.0666666669,107.278
1498133444,110.2666666669,116.459
1498133446,76.6666666669,111.75
1498133448,59.8666666669001,109.104
1498133450,62.2666666669001,102.607
1498133452,69.4666666669,98.8521
1498133454,95.8666666669001,102.714
1498133456,95.8666666669001,98.5378
1498133458,93.4666666669,107.039
1498133460,86.2666666669001,101.393
1498133462,71.8666666669001,104.239
1498133464,69.4666666669,114.929
1498133466,103.0666666669,107.975
1498133468,115.0666666669,110.91
1498133470,79.0666666669,101.472
1498133472,103.0666666669,107.808
1498133474,33.4666666669,109.502
1498133476,40.6666666669,109.53
1498133478,57.4666666669,108.517
1498133480,52.6666666669,109.169
1498133482,45.4666666669,108.292
1498133484,26.2666666669001,113.091
1498133486,16.6666666669,105.791
1498133488,45.4666666669,112.482
1498133490,2.26666666690005,110.707
1498133492,-14.5333333331,100.862
1498133494,-12.1333333330999,108.669
1498133496,-33.7333333330999,115.187
1498133498,9.46666666689998,111.47
1498133500,-7.33333333309997,111.411
1498133502,-28.9333333331,115.519
1498133504,-24.1333333330999,112.01
1498133506,-31.3333333331,113.191
1498133508,-50.5333333331,115.136
1498133510,-4.93333333309999,115.1
1498133512,55.0666666669,113.585
1498133514,-57.7333333330999,109.61
1498133516,-24.1333333330999,112.005
1498133518,-16.9333333331,116.126
1498133520,-28.9333333331,116.002
1498133522,4.66666666690003,113.218
1498133524,23.8666666669001,123.9
1498133526,7.06666666690001,112.684
1498133528,-62.5333333331,104.732
1498133530,-28.9333333331,115.861
1498133532,-9.73333333309995,107.377
1498133534,-48.1333333330999,110.908
1498133536,-14.5333333331,120.804
1498133538,7.06666666690001,115.338
1498133540,-45.7333333330999,120.759
1498133542,-48.1333333330999,104.969
1498133544,-38.5333333331,104.691
1498133546,-36.1333333330999,112.483
1498133548,-31.3333333331,109.019
1498133550,-60.1333333330999,113.624
1498133552,2.26666666690005,115.257
1498133554,-64.9333333331,109.123
1498133556,-33.7333333330999,110.724
1498133558,-33.7333333330999,112.983
1498133560,40.6666666669,109.165
1498133562,-33.7333333330999,121.866
1498133564,-55.3333333331,122.552
1498133566,-33.7333333330999,113.872
1498133568,-86.5333333331,116.905
1498133570,-12.1333333330999,122.569
1498133572,-19.3333333331,113.396
1498133574,-40.9333333331,122.183
1498133576,-19.3333333331,114.019
1498133578,-57.7333333330999,109.03
1498133580,-64.9333333331,114.363
1498133582,-57.7333333330999,120.183
1498133584,-52.9333333331,112.267
1498133586,-55.3333333331,109.093
1498133588,-72.1333333331,125.069
1498133590,-43.3333333331,120.032
1498133592,-76.9333333331,120.076
1498133594,-57.7333333330999,112.299
1498133596,-55.3333333331,111.996
1498133598,-21.7333333330999,107.824
1498133600,-24.1333333330999,110.741
1498133602,-26.5333333331,122.617
1498133604,-38.5333333331,118.14
1498133606,-40.9333333331,115.33
1498133608,-45.7333333330999,108.479
1498133610,-38.5333333331,107.26
1498133612,40.6666666669,114.354
1498133614,-50.5333333331,110.902
1498133616,-9.73333333309995,115.967
1498133618,2.26666666690005,115.823
1498133620,-50.5333333331,108.499
1498133622,-67.3333333331,110.972
1498133624,-9.73333333309995,110.104
1498133626,-28.9333333331,115.619
1498133628,-55.3333333331,111.17
1498133630,-36.1333333330999,111.111
1498133632,-57.7333333330999,108.766
1498133634,-55.3333333331,104.025
1498133636,-40.9333333331,102.882
1498133638,7.06666666690001,100.87
1498133640,-69.7333333330999,116.692
1498133642,-45.7333333330999,109.336
1498133644,-81.7333333330999,111.275
1498133646,-60.1333333330999,111.567
1498133648,-38.5333333331,114.707
1498133650,-48.1333333330999,121.047
1498133652,-48.1333333330999,113.951
1498133654,-62.5333333331,118.939
1498133656,9.46666666689998,118.323
1498133658,-67.3333333331,109.871
1498133660,-45.7333333330999,109.976
1498133662,-19.3333333331,113.893
1498133664,-28.9333333331,107.259
1498133666,-52.9333333331,115.947
1498133668,-14.5333333331,122.815
1498133670,-28.9333333331,107.694
1498133672,-55.3333333331,109.144
1498133674,-33.7333333330999,109.641
1498133676,-24.1333333330999,107.448
1498133678,23.8666666669001,110.691
1498133680,-33.7333333330999,116.689
1498133682,-43.3333333331,104.425
1498133684,-7.33333333309997,107.103
1498133686,-55.3333333331,110.861
1498133688,7.06666666690001,111.766
1498133690,16.6666666669,106.806
1498133692,-48.1333333330999,112.004
1498133694,-31.3333333331,102.43
1498133696,-31.3333333331,108.159
1498133698,-55.3333333331,104.363
1498133700,-38.5333333331,110.728
1498133702,-14.5333333331,112.482
1498133704,-7.33333333309997,103.813
1498133706,-45.7333333330999,111.564
1498133708,-24.1333333330999,108.671
1498133710,-31.3333333331,112.133
1498133712,-57.7333333330999,101.681
1498133714,-33.7333333330999,103.287
1498133716,-45.7333333330999,103.636
1498133718,-2.53333333310002,109.044
1498133720,-48.1333333330999,113.786
1498133722,-16.9333333331,99.6587
1498133724,-14.5333333331,100.478
1498133726,-52.9333333331,100.566
1498133728,-64.9333333331,112.304
1498133730,-12.1333333330999,108.687
1498133732,-9.73333333309995,113.331
1498133734,-24.1333333330999,119.88
1498133736,-26.5333333331,112.991
1498133738,-16.9333333331,108.229
1498133740,-12.1333333330999,106.225
1498133742,-48.1333333330999,111.42
1498133744,-21.7333333330999,109.165
1498133746,-24.1333333330999,109.594
1498133748,-57.7333333330999,111.014
1498133750,-62.5333333331,114.621
1498133752,-33.7333333330999,114.744
1498133754,-55.3333333331,117.36
1498133756,-69.7333333330999,118.428
1498133758,-19.3333333331,120.02
1498133760,-67.3333333331,113.718
1498133762,-57.7333333330999,112.662
1498133764,-0.133333333099927,117.403
1498133766,-14.5333333331,117.404
1498133768,-52.9333333331,122.355
1498133770,-45.7333333330999,125.118
1498133772,-62.5333333331,118.405
1498133774,-24.1333333330999,109.695
1498133776,-16.9333333331,120.237
1498133778,-64.9333333331,114.782
1498133780,-50.5333333331,114.241
1498133782,-14.5333333331,112.866
1498133784,47.8666666669001,118.241
1498133786,-0.133333333099927,115.074
1498133788,21.4666666669,113.418
1498133790,-43.3333333331,119.059
1498133792,-36.1333333330999,115.665
1498133794,-52.9333333331,115.846
1498133796,-36.1333333330999,121.372
1498133798,-38.5333333331,115.889
1498133800,-24.1333333330999,112.537
1498133802,-57.7333333330999,124.402
1498133804,-69.7333333330999,121.254
1498133806,-52.9333333331,118.203
1498133808,-50.5333333331,117.269
1498133810,-76.9333333331,118.529
1498133812,-43.3333333331,121.625
1498133814,-67.3333333331,115.896
1498133816,-36.1333333330999,116.928
1498133818,-72.1333333331,115.033
1498133820,-55.3333333331,113.508
1498133822,-16.9333333331,110.658
1498133824,-67.3333333331,115.224
1498133826,-26.5333333331,113.634
1498133828,-36.1333333330999,110.056
1498133830,-43.3333333331,120.277
1498133832,7.06666666690001,115.623
1498133834,-9.73333333309995,113.96
1498133836,-38.5333333331,117.314
1498133838,-52.9333333331,118.51
1498133840,-24.1333333330999,122.047
1498133842,16.6666666669,122.367
1498133844,-28.9333333331,116.936
1498133846,-26.5333333331,117.256
1498133848,-48.1333333330999,111.833
1498133850,-52.9333333331,115.258
1498133852,-60.1333333330999,115.993
1498133854,-7.33333333309997,119.009
1498133856,-36.1333333330999,116.795
1498133858,-14.5333333331,128.683
1498133860,-38.5333333331,129.206
1498133862,-43.3333333331,125.597
1498133864,-28.9333333331,123.251
1498133866,-24.1333333330999,118.155
1498133868,-19.3333333331,117.241
1498133870,-31.3333333331,112.229
1498133872,-38.5333333331,112.678
1498133874,-74.5333333331,116.277
1498133876,-21.7333333330999,114.678
1498133878,-48.1333333330999,117.173
1498133880,-79.3333333331,115.6
1498133882,-69.7333333330999,114.091
1498133884,-43.3333333331,111.678
1498133886,-52.9333333331,118.263
1498133888,-0.133333333099927,116.143
1498133890,-48.1333333330999,101.124
1498133892,-28.9333333331,119.698
1498133894,-28.9333333331,111.777
1498133896,-55.3333333331,115.881
1498133898,-55.3333333331,115.903
1498133900,-64.9333333331,106.113
1498133902,-57.7333333330999,115.734
1498133904,-52.9333333331,106.429
1498133906,-40.9333333331,107.285
1498133908,-74.5333333331,108.21
1498133910,-36.1333333330999,115.076
1498133912,-45.7333333330999,115.046
1498133914,-12.1333333330999,118.309
1498133916,-52.9333333331,114.589
1498133918,-40.9333333331,112.385
1498133920,-74.5333333331,116.64
1498133922,-79.3333333331,110.38
1498133924,-79.3333333331,113.074
1498133926,-31.3333333331,121.32
1498133928,-79.3333333331,117.259
1498133930,-108.1333333331,121.59
1498133932,-64.9333333331,113.951
1498133934,-55.3333333331,117.438
1498133936,-64.9333333331,118.062
1498133938,-74.5333333331,113.467
1498133940,-76.9333333331,110.773
1498133942,-67.3333333331,115.702
1498133944,-79.3333333331,116.904
1498133946,-88.9333333331,116.192
1498133948,-74.5333333331,121.596
1498133950,-81.7333333330999,116.645
1498133952,-67.3333333331,117.418
1498133954,-57.7333333330999,119.271
1498133956,-57.7333333330999,112.023
1498133958,-74.5333333331,114.802
1498133960,-40.9333333331,113.039
1498133962,-33.7333333330999,110.763
1498133964,-110.5333333331,112.176
1498133966,-69.7333333330999,114.508
1498133968,-79.3333333331,117.849
1498133970,-76.9333333331,120.32
1498133972,-52.9333333331,112.37
1498133974,-55.3333333331,113.045
1498133976,-48.1333333330999,110.699
1498133978,-117.7333333331,108.613
1498133980,-93.7333333330999,109.798
1498133982,-98.5333333331,110.612
1498133984,-45.7333333330999,107.079
1498133986,-50.5333333331,111.111
1498133988,-76.9333333331,115.232
1498133990,-69.7333333330999,105.967
1498133992,-103.3333333331,117.729
1498133994,-72.1333333331,116.501
1498133996,-52.9333333331,115.764
1498133998,-36.1333333330999,112.493
1498134000,-62.5333333331,113.423
1498134002,-79.3333333331,109.09
1498134004,-55.3333333331,104.555
1498134006,-48.1333333330999,111.377
1498134008,-40.9333333331,107.658
1498134010,-69.7333333330999,107.196
1498134012,-21.7333333330999,107.52
1498134014,-40.9333333331,104.027
1498134016,-40.9333333331,110.421
1498134018,-16.9333333331,106.307
1498134020,-31.3333333331,116.873
1498134022,-57.7333333330999,116.685
1498134024,-38.5333333331,116.308
1498134026,-48.1333333330999,119.882
1498134028,-36.1333333330999,117.114
1498134030,-21.7333333330999,122.328
1498134032,4.66666666690003,110.731
1498134034,62.2666666669001,119.052
1498134036,-7.33333333309997,114.06
1498134038,-19.3333333331,119.949
1498134040,26.2666666669001,116.303
1498134042,-28.9333333331,117.02
1498134044,14.2666666669001,119.535
1498134046,-45.7333333330999,118.444
1498134048,23.8666666669001,106.726
1498134050,-36.1333333330999,109.775
1498134052,-19.3333333331,112.787
1498134054,-36.1333333330999,112.777
1498134056,-38.5333333331,119.386
1498134058,-28.9333333331,116.718
1498134060,-33.7333333330999,114.941
1498134062,-19.3333333331,116.291
1498134064,-55.3333333331,111.37
1498134066,-12.1333333330999,103.429
1498134068,-43.3333333331,108.96
1498134070,-31.3333333331,104.92
1498134072,-74.5333333331,116.889
1498134074,-60.1333333330999,116.115
1498134076,-36.1333333330999,109.516
1498134078,-60.1333333330999,112.066
1498134080,-55.3333333331,111.45
1498134082,-28.9333333331,114.115
1498134084,-48.1333333330999,112.28
1498134086,-62.5333333331,112.482
1498134088,-60.1333333330999,103.962
1498134090,-48.1333333330999,114.793
1498134092,-31.3333333331,112.755
1498134094,-24.1333333330999,116.594
1498134096,-60.1333333330999,110.746
1498134098,-33.7333333330999,113.039
1498134100,-40.9333333331,120.032
1498134102,-19.3333333331,111.464
1498134104,-40.9333333331,112.536
1498134106,-21.7333333330999,112.342
1498134108,-74.5333333331,121.181
1498134110,-4.93333333309999,116.99
1498134112,-38.5333333331,113.469
1498134114,-45.7333333330999,118.471
1498134116,-14.5333333331,108.097
1498134118,-43.3333333331,116.448
1498134120,-21.7333333330999,121.39
1498134122,-40.9333333331,118.182
1498134124,-28.9333333331,122.002
1498134126,2.26666666690005,120.813
1498134128,-55.3333333331,120.377
1498134130,-57.7333333330999,112.569
1498134132,-0.133333333099927,115.724
1498134134,-21.7333333330999,111.408
1498134136,-19.3333333331,120.069
1498134138,-7.33333333309997,115.85
1498134140,16.6666666669,114.989
1498134142,-26.5333333331,111.583
1498134144,-26.5333333331,114.197
1498134146,-0.133333333099927,121.166
1498134148,2.26666666690005,119.839
1498134150,-40.9333333331,115.389
1498134152,-24.1333333330999,113.301
1498134154,-4.93333333309999,119.265
1498134156,-16.9333333331,117.912
1498134158,-79.3333333331,118.936
1498134160,-38.5333333331,117.3
1498134162,-12.1333333330999,120.087
1498134164,-26.5333333331,109.688
1498134166,-40.9333333331,117.811
1498134168,-33.7333333330999,113.755
1498134170,-50.5333333331,114.358
1498134172,4.66666666690003,115.213
1498134174,-36.1333333330999,120.033
1498134176,-0.133333333099927,118.476
1498134178,-16.9333333331,118.264
1498134180,-24.1333333330999,121.074
1498134182,-60.1333333330999,122.603
1498134184,-38.5333333331,113.808
1498134186,-12.1333333330999,111.619
1498134188,-31.3333333331,118.791
1498134190,4.66666666690003,117.729
1498134192,21.4666666669,111.438
1498134194,-62.5333333331,109.564
1498134196,-64.9333333331,109.633
1498134198,4.66666666690003,120.564
1498134200,-24.1333333330999,119.711
1498134202,4.66666666690003,115.51
1498134204,-52.9333333331,124.543
1498134206,-16.9333333331,116.685
1498134208,-62.5333333331,116.262
1498134210,-88.9333333331,102.356
1498134212,-14.5333333331,111.1
1498134214,-9.73333333309995,109.114
1498134216,-45.7333333330999,121.734
1498134218,-67.3333333331,114.47
1498134220,28.6666666669,121.158
1498134222,-76.9333333331,122.469
1498134224,-33.7333333330999,120.032
1498134226,-36.1333333330999,121.117
1498134228,-4.93333333309999,121.231
1498134230,-45.7333333330999,115.285
1498134232,-52.9333333331,116.088
1498134234,-84.1333333330999,123.83
1498134236,-38.5333333331,117.468
1498134238,-72.1333333331,116.58
1498134240,-84.1333333330999,115.089
1498134242,-60.1333333330999,123.885
1498134244,-33.7333333330999,115.868
1498134246,-45.7333333330999,116.384
1498134248,-72.1333333331,111.177
1498134250,-52.9333333331,111.072
1498134252,-69.7333333330999,112.309
1498134254,-55.3333333331,108.135
1498134256,-50.5333333331,112.247
1498134258,-55.3333333331,115.404
1498134260,-52.9333333331,115.14
1498134262,-57.7333333330999,109.722
1498134264,-48.1333333330999,109.786
1498134266,-74.5333333331,105.808
1498134270,-48.1333333330999,110.762
1498134272,-0.133333333099927,106.434
1498134274,-4.93333333309999,108.106
1498134276,-72.1333333331,102.77
1498134278,-33.7333333330999,111.325
1498134280,-12.1333333330999,104.922
1498134282,-74.5333333331,101.538
1498134284,-60.1333333330999,115.139
1498134286,-38.5333333331,109.399
1498134288,7.06666666690001,113.109
1498134290,-98.5333333331,112.931
1498134292,-72.1333333331,107.179
1498134294,-38.5333333331,109.74
1498134296,-98.5333333331,116.129
1498134298,-57.7333333330999,113.755
1498134300,-33.7333333330999,113.985
1498134302,-57.7333333330999,117.119
1498134304,-81.7333333330999,115.515
1498134306,-52.9333333331,120.966
1498134308,-72.1333333331,111.759
1498134310,-28.9333333331,107.739
1498134312,-84.1333333330999,115.655
1498134314,-52.9333333331,106.095
1498134316,-43.3333333331,108.067
1498134318,-62.5333333331,115.687
1498134320,-72.1333333331,110.356
1498134322,-60.1333333330999,119.772
1498134324,-81.7333333330999,125.607
1498134326,-60.1333333330999,113.851
1498134328,-50.5333333331,116.407
1498134330,-21.7333333330999,116.834
1498134332,-79.3333333331,114.221
1498134334,-48.1333333330999,123.444
1498134336,-33.7333333330999,106.165
1498134338,-76.9333333331,113.531
1498134340,-108.1333333331,115.8
1498134342,-72.1333333331,115.979
1498134344,-45.7333333330999,122.098
1498134346,-62.5333333331,107.201
1498134348,-96.1333333330999,105.052
1498134350,-67.3333333331,105.687
1498134352,-57.7333333330999,109.16
1498134354,-43.3333333331,111.101
1498134356,-67.3333333331,110.467
1498134358,-57.7333333330999,106.208
1498134360,-62.5333333331,100.92
1498134362,-100.9333333331,117.397
1498134364,-55.3333333331,115.17
1498134366,-117.7333333331,112.612
1498134368,-81.7333333330999,117.499
1498134370,-50.5333333331,116.319
1498134372,-48.1333333330999,116.106
1498134374,-69.7333333330999,107.162
1498134376,-62.5333333331,111.264
1498134378,-74.5333333331,111.272
1498134380,-74.5333333331,110.131
1498134382,-141.7333333331,106.849
1498134384,-103.3333333331,119.329
1498134386,-52.9333333331,107.962
1498134388,-50.5333333331,109.843
1498134390,-72.1333333331,113.268
1498134392,-79.3333333331,110.439
1498134394,-55.3333333331,112.137
1498134396,-108.1333333331,114.819
1498134398,-100.9333333331,116.663
1498134400,-86.5333333331,119.658
1498134402,-72.1333333331,110.935
1498134404,-76.9333333331,114.937
1498134406,-79.3333333331,115.427
1498134408,-72.1333333331,110.485
1498134410,-76.9333333331,107.996
1498134412,-79.3333333331,118.776
1498134414,-96.1333333330999,114.852
1498134416,-60.1333333330999,108.949
1498134418,-110.5333333331,117.944
1498134420,-103.3333333331,114.104
1498134422,-67.3333333331,117.249
1498134424,-81.7333333330999,113.665
1498134426,-93.7333333330999,105.368
1498134428,-129.7333333331,110.218
1498134430,-81.7333333330999,108.595
1498134432,-96.1333333330999,113.618
1498134434,-79.3333333331,114.543
1498134436,-57.7333333330999,112.839
1498134438,-14.5333333331,119.267
1498134440,-50.5333333331,116.927
1498134442,-21.7333333330999,112.778
1498134444,-43.3333333331,117.865
1498134446,-64.9333333331,116.1
1498134448,-28.9333333331,113.93
1498134450,-26.5333333331,119.324
1498134452,-16.9333333331,118.879
1498134454,-60.1333333330999,109.278
1498134456,-36.1333333330999,119.641
1498134458,-45.7333333330999,127.552
1498134460,-86.5333333331,108.722
1498134462,-33.7333333330999,107.252
1498134464,-16.9333333331,113.903
1498134466,38.2666666669001,118.29
1498134468,-84.1333333330999,114.846
1498134470,-19.3333333331,109.522
1498134472,-26.5333333331,121.693
1498134474,-76.9333333331,110.936
1498134476,-24.1333333330999,109.595
1498134478,-16.9333333331,112.455
1498134480,-31.3333333331,106.811
1498134482,-4.93333333309999,106.423
1498134484,-31.3333333331,110.761
1498134486,35.8666666669001,109.231
1498134488,-38.5333333331,113.889
1498134490,-36.1333333330999,103.983
1498134492,-72.1333333331,110.638
1498134494,-21.7333333330999,101.377
1498134496,-19.3333333331,121.039
1498134498,-33.7333333330999,112.799
1498134500,-19.3333333331,107.598
1498134502,-9.73333333309995,106.48
1498134504,-16.9333333331,113.762
1498134506,-31.3333333331,110.039
1498134508,31.0666666669,117.151
1498134510,-45.7333333330999,110.706
1498134512,-40.9333333331,120.486
1498134514,-16.9333333331,112.458
1498134516,-2.53333333310002,119.026
1498134518,-45.7333333330999,109.54
1498134520,-48.1333333330999,113.334
1498134522,-55.3333333331,107.373
1498134524,-21.7333333330999,115.134
1498134526,-52.9333333331,106.018
1498134528,-67.3333333331,115.479
1498134530,-16.9333333331,114.912
1498134532,-57.7333333330999,117.247
1498134534,-84.1333333330999,109.022
1498134536,-43.3333333331,117.594
1498134538,-69.7333333330999,110.333
1498134540,-57.7333333330999,117.763
1498134542,-33.7333333330999,116.254
1498134544,-48.1333333330999,118.013
1498134546,-64.9333333331,110.338
1498134548,-81.7333333330999,108.458
1498134550,-31.3333333331,108.894
1498134552,-33.7333333330999,113.557
1498134554,-72.1333333331,120.351
1498134556,-64.9333333331,121.569
1498134558,-43.3333333331,108.065
1498134560,-40.9333333331,114.741
1498134562,-55.3333333331,117.743
1498134564,-72.1333333331,118.694
1498134566,-67.3333333331,114.583
1498134568,-50.5333333331,111.298
1498134570,-72.1333333331,116.784
1498134572,-43.3333333331,116.192
1498134574,-69.7333333330999,118.424
1498134576,-52.9333333331,114.309
1498134578,-64.9333333331,114.774
1498134580,-43.3333333331,115.8
1498134582,-69.7333333330999,122.373
1498134584,-76.9333333331,109.388
1498134586,91.0666666669,115.641
1498134588,-40.9333333331,120.731
1498134590,-88.9333333331,116.14
1498134592,-88.9333333331,115.052
1498134594,-31.3333333331,113.568
1498134596,-24.1333333330999,109.09
1498134598,-76.9333333331,110.314
1498134600,-91.3333333331,109.968
1498134602,-72.1333333331,113.922
1498134604,-48.1333333330999,117.616
1498134606,-81.7333333330999,109.56
1498134608,-105.7333333331,108.567
1498134610,-50.5333333331,110.002
1498134612,-84.1333333330999,117.377
1498134614,-67.3333333331,124.155
1498134616,-74.5333333331,118.763
1498134618,-43.3333333331,118.562
1498134620,-88.9333333331,107.729
1498134622,-76.9333333331,118.995
1498134624,-43.3333333331,113.492
1498134626,-50.5333333331,114.419
1498134628,-72.1333333331,104.136
1498134630,-36.1333333330999,117.465
1498134632,-50.5333333331,115.538
1498134634,-50.5333333331,112.303
1498134636,-21.7333333330999,111.919
1498134638,-14.5333333331,121.713
1498134640,-33.7333333330999,118.772
1498134642,-4.93333333309999,116.087
1498134644,-50.5333333331,120.677
1498134646,-0.133333333099927,119.496
1498134648,-14.5333333331,121.912
1498134650,-43.3333333331,111.039
1498134652,-26.5333333331,119.619
1498134654,-33.7333333330999,117.402
1498134656,-24.1333333330999,115.853
1498134658,7.06666666690001,117.064
1498134660,19.0666666669,109.021
1498134662,-19.3333333331,116.042
1498134664,-21.7333333330999,117.682
1498134666,-72.1333333331,120.877
1498134668,-48.1333333330999,119.824
1498134670,-55.3333333331,120.291
1498134672,-43.3333333331,118.063
1498134674,2.26666666690005,118.286
1498134676,-19.3333333331,115.765
1498134678,-48.1333333330999,119.244
1498134680,-31.3333333331,108.032
1498134682,-45.7333333330999,105.175
1498134684,-57.7333333330999,106.211
1498134686,-64.9333333331,118.296
1498134688,-31.3333333331,110.912
1498134690,-50.5333333331,110.873
1498134692,-69.7333333330999,106.291
1498134694,-124.9333333331,111.374
1498134696,-40.9333333331,116.174
1498134698,-57.7333333330999,117.764
1498134700,-26.5333333331,117.67
1498134702,-62.5333333331,109.818
1498134704,-40.9333333331,110.227
1498134706,-12.1333333330999,117.121
1498134708,4.66666666690003,106.329
1498134710,-31.3333333331,108.47
1498134712,-24.1333333330999,116.2
1498134714,-36.1333333330999,106.553
1498134716,-7.33333333309997,109.34
1498134718,4.66666666690003,114.141
1498134720,-0.133333333099927,113.947
1498134722,-57.7333333330999,118.792
1498134724,-26.5333333331,113.885
1498134726,-0.133333333099927,122.153
1498134728,-55.3333333331,122.01
1498134730,-33.7333333330999,109.066
1498134732,-48.1333333330999,109.525
1498134734,-64.9333333331,108.173
1498134736,-62.5333333331,109.992
1498134738,-50.5333333331,120.272
1498134740,38.2666666669001,116.768
1498134742,-69.7333333330999,118.73
1498134744,-28.9333333331,108.859
1498134746,-45.7333333330999,109.188
1498134748,-57.7333333330999,108.578
1498134750,-9.73333333309995,98.5862
1498134752,-50.5333333331,108.345
1498134754,-24.1333333330999,110.63
1498134756,-36.1333333330999,105.002
1498134758,-60.1333333330999,100.804
1498134760,-57.7333333330999,105.595
1498134762,-50.5333333331,103.65
1498134764,-28.9333333331,111.526
1498134766,-26.5333333331,112.503
1498134768,7.06666666690001,113.672
1498134770,-14.5333333331,115.478
1498134772,-62.5333333331,111.988
1498134774,-36.1333333330999,109.339
1498134776,-43.3333333331,111.895
1498134778,-31.3333333331,110.245
1498134780,-16.9333333331,106.264
1498134782,-40.9333333331,112.31
1498134784,-57.7333333330999,102.478
1498134786,-103.3333333331,108.099
1498134788,-48.1333333330999,104.141
1498134790,-28.9333333331,110.465
1498134792,-45.7333333330999,112.806
1498134794,-48.1333333330999,117.152
1498134796,-74.5333333331,122.829
1498134798,-31.3333333331,117.266
1498134800,-117.7333333331,116.178
1498134802,-9.73333333309995,106.874
1498134804,-48.1333333330999,115.776
1498134806,-81.7333333330999,114.58
1498134808,-69.7333333330999,112.645
1498134810,-62.5333333331,109.026
1498134812,-64.9333333331,110.697
1498134814,-76.9333333331,106.362
1498134816,-16.9333333331,112.232
1498134818,-88.9333333331,115.489
1498134820,-67.3333333331,107.61
1498134822,-74.5333333331,104.323
1498134824,-105.7333333331,109.222
1498134826,-62.5333333331,117.268
1498134828,-60.1333333330999,112.197
1498134830,-36.1333333330999,117.771
1498134832,-45.7333333330999,108.113
1498134834,-55.3333333331,107.209
1498134836,-98.5333333331,111.655
1498134838,-36.1333333330999,112.792
1498134840,-38.5333333331,105.042
1498134842,-55.3333333331,110.834
1498134844,-52.9333333331,106.523
1498134846,-52.9333333331,116.994
1498134848,-67.3333333331,112.929
1498134850,-88.9333333331,109.941
1498134852,-60.1333333330999,109.054
1498134854,-36.1333333330999,114.795
1498134856,-7.33333333309997,113.815
1498134858,-36.1333333330999,112.064
1498134860,-45.7333333330999,109.864
1498134862,7.06666666690001,108.366
1498134864,-7.33333333309997,111.148
1498134866,-7.33333333309997,107.834
1498134868,74.2666666669001,105.79
1498134870,81.4666666669,101.687
1498134872,79.0666666669,101.001
1498134874,52.6666666669,99.1472
1498134876,81.4666666669,107.569
1498134878,16.6666666669,106.276
1498134880,71.8666666669001,102.154
1498134882,143.8666666669,114.832
1498134884,119.8666666669,105.843
1498134886,79.0666666669,111.034
1498134888,91.0666666669,115.4
1498134890,115.0666666669,114.954
1498134892,55.0666666669,106.017
1498134894,86.2666666669001,115.554
1498134896,50.2666666669001,117.103
1498134898,127.0666666669,111.061
1498134900,88.6666666669,105.022
1498134902,74.2666666669001,108.477
1498134904,100.6666666669,108.848
1498134906,38.2666666669001,122.649
1498134908,79.0666666669,122.19
1498134910,98.2666666669001,121.816
1498134912,57.4666666669,118.491
1498134914,81.4666666669,117.24
1498134916,67.0666666669,111.331
1498134918,47.8666666669001,106.966
1498134920,71.8666666669001,114.204
1498134922,67.0666666669,109.208
1498134924,50.2666666669001,116.382
1498134926,71.8666666669001,115.648
1498134928,91.0666666669,114.931
1498134930,50.2666666669001,108.05
1498134932,16.6666666669,112.814
1498134934,43.0666666669,115.342
1498134936,-0.133333333099927,107.125
1498134938,83.8666666669001,109.403
1498134940,79.0666666669,107.163
1498134942,62.2666666669001,117.277
1498134944,76.6666666669,104.701
1498134946,47.8666666669001,105.269
1498134948,86.2666666669001,120.887
1498134950,47.8666666669001,116.914
1498134952,43.0666666669,123.501
1498134954,100.6666666669,116.011
1498134956,86.2666666669001,115.635
1498134958,74.2666666669001,119.314
1498134960,83.8666666669001,109.542
1498134962,43.0666666669,120.117
1498134964,40.6666666669,113.785
1498134966,-33.7333333330999,112.042
1498134968,45.4666666669,111.205
1498134970,-7.33333333309997,106.149
1498134972,-14.5333333331,111.212
1498134974,74.2666666669001,123.12
1498134976,11.8666666669001,112.13
1498134978,-14.5333333331,108.235
1498134980,-21.7333333330999,117.656
1498134982,16.6666666669,119.447
1498134984,11.8666666669001,107.605
1498134986,-0.133333333099927,100.739
1498134988,-16.9333333331,113.209
1498134990,40.6666666669,110.005
1498134992,-14.5333333331,112.727
1498134994,7.06666666690001,107.871
1498134996,-16.9333333331,112.58
1498134998,4.66666666690003,107.253
1498135000,-48.1333333330999,99.264
1498135002,-0.133333333099927,105.838
1498135004,-0.133333333099927,102.663
1498135006,2.26666666690005,110.406
1498135008,-36.1333333330999,104.93
1498135010,-16.9333333331,106.365
1498135012,-16.9333333331,112.941
1498135014,-7.33333333309997,114.26
1498135016,-7.33333333309997,102.782
1498135018,-9.73333333309995,106.926
1498135020,-4.93333333309999,121.068
1498135022,-69.7333333330999,111.418
1498135024,-45.7333333330999,112.343
1498135026,-50.5333333331,102.849
1498135028,-50.5333333331,104.205
1498135030,-74.5333333331,109.04
1498135032,-48.1333333330999,104.832
1498135034,-14.5333333331,106.84
1498135036,-0.133333333099927,119.661
1498135038,-72.1333333331,114.629
1498135040,-76.9333333331,114.617
1498135042,-52.9333333331,111.976
1498135044,-28.9333333331,102.219
1498135046,-74.5333333331,112.915
