tag_number,delay,power_est
1492071712,407.3333333348,9.25384
1492071714,349.7333333348,8.72106
1492071716,344.9333333348,7.973
1492071718,400.1333333348,6.96253
1492071720,412.1333333348,11.3287
1492071722,354.5333333348,9.17204
1492071724,392.9333333348,9.59303
1492071726,380.9333333348,10.7826
1492071728,337.7333333348,10.8209
1492071730,368.9333333348,7.50519
1492071732,340.1333333348,10.8677
1492071734,400.1333333348,9.63917
1492071736,354.5333333348,9.77024
1492071738,342.5333333348,9.78994
1492071740,263.3333333348,10.5575
1492071742,318.5333333348,9.72815
1492071744,337.7333333348,8.93277
1492071746,280.1333333348,11.6167
1492071748,282.5333333348,10.8098
1492071750,253.7333333348,8.65335
1492071752,354.5333333348,12.1124
1492071754,256.1333333348,12.1012
1492071756,296.9333333348,12.3928
1492071758,332.9333333348,8.88357
1492071760,265.7333333348,5.83589
1492071762,277.7333333348,10.4309
1492071764,330.5333333348,9.47035
1492071766,258.5333333348,10.6208
1492071768,244.1333333348,10.1647
1492071770,256.1333333348,9.68994
1492071772,272.9333333348,9.59733
1492071774,330.5333333348,11.5668
1492071776,332.9333333348,11.6566
1492071778,241.7333333348,9.24816
1492071780,263.3333333348,7.19343
1492071782,241.7333333348,7.89172
1492071784,239.3333333348,8.12045
1492071786,265.7333333348,9.30025
1492071788,270.5333333348,9.89242
1492071790,284.9333333348,9.99277
1492071792,287.3333333348,9.50144
1492071794,304.1333333348,10.3507
1492071796,256.1333333348,9.38749
1492071798,270.5333333348,11.2903
1492071800,275.3333333348,9.70529
1492071802,356.9333333348,8.20351
1492071804,323.3333333348,10.7906
1492071806,330.5333333348,12.8394
1492071808,311.3333333348,11.2866
1492071810,342.5333333348,12.4987
1492071812,325.7333333348,7.80181
1492071814,323.3333333348,7.183
1492071816,320.9333333348,6.56338
1492071818,277.7333333348,8.50613
1492071820,272.9333333348,8.86717
1492071822,236.9333333348,9.95349
1492071824,198.5333333348,9.71589
1492071826,265.7333333348,8.75035
1492071828,275.3333333348,9.44877
1492071830,256.1333333348,11.0208
1492071832,160.1333333348,11.0456
1492071834,263.3333333348,11.2035
1492071836,222.5333333348,10.9661
1492071838,251.3333333348,9.37891
1492071840,260.9333333348,10.2157
1492071842,246.5333333348,9.07999
1492071844,272.9333333348,8.93466
1492071846,263.3333333348,10.3524
1492071848,236.9333333348,6.86261
1492071850,188.9333333348,9.83983
1492071852,256.1333333348,10.5788
1492071854,229.7333333348,8.94477
1492071856,241.7333333348,9.48771
1492071858,229.7333333348,6.63383
1492071860,292.1333333348,7.21882
1492071862,200.9333333348,7.1574
1492071864,272.9333333348,7.1291
1492071866,306.5333333348,9.16757
1492071868,284.9333333348,5.02619
1492071870,222.5333333348,7.15491
1492071872,292.1333333348,9.63987
1492071874,325.7333333348,10.4949
1492071876,282.5333333348,11.5039
1492071878,248.9333333348,12.8388
1492071880,256.1333333348,12.9442
1492071882,335.3333333348,8.84585
1492071884,263.3333333348,10.197
1492071886,292.1333333348,9.57693
1492071888,260.9333333348,10.7245
1492071890,311.3333333348,6.89479
1492071892,342.5333333348,8.55802
1492071894,313.7333333348,8.25674
1492071896,251.3333333348,8.45257
1492071898,215.3333333348,11.84
1492071900,323.3333333348,10.0777
1492071902,234.5333333348,9.52878
1492071904,316.1333333348,8.77627
1492071906,332.9333333348,9.08686
1492071908,251.3333333348,7.589
1492071910,253.7333333348,8.7956
1492071912,325.7333333348,11.0676
1492071914,316.1333333348,12.3015
1492071916,337.7333333348,13.2735
1492071918,337.7333333348,9.25327
1492071920,299.3333333348,11.7111
1492071922,332.9333333348,8.46697
1492071924,337.7333333348,9.73223
1492071926,349.7333333348,10.0543
1492071928,330.5333333348,10.4414
1492071930,340.1333333348,7.59375
1492071932,402.5333333348,9.41825
1492071934,388.1333333348,10.2407
1492071936,392.9333333348,8.21391
1492071938,414.5333333348,7.06726
1492071940,347.3333333348,6.93983
1492071942,359.3333333348,8.92924
1492071944,412.1333333348,6.56786
1492071946,412.1333333348,6.14448
1492071948,354.5333333348,7.65062
1492071950,380.9333333348,7.22864
1492071952,349.7333333348,8.4793
1492071954,340.1333333348,9.83226
1492071956,412.1333333348,7.32873
1492071958,388.1333333348,6.19462
1492071960,380.9333333348,6.33422
1492071962,359.3333333348,5.77605
1492071964,349.7333333348,4.03189
1492071966,361.7333333348,4.49267
1492071968,349.7333333348,3.08103
1492071970,397.7333333348,8.0772
1492071972,352.1333333348,8.34406
1492071974,323.3333333348,8.03015
1492071976,332.9333333348,7.58831
1492071978,316.1333333348,6.64463
1492071980,344.9333333348,7.41351
1492071982,340.1333333348,7.30052
1492071984,409.7333333348,6.70611
1492071986,306.5333333348,8.87409
1492071988,330.5333333348,9.13796
1492071990,354.5333333348,7.52316
1492071992,323.3333333348,9.78366
1492071994,296.9333333348,7.54397
1492071996,270.5333333348,9.21717
1492071998,325.7333333348,10.0811
1492072000,344.9333333348,9.55064
1492072002,352.1333333348,9.43485
1492072004,328.1333333348,7.97335
1492072006,330.5333333348,7.55918
1492072008,260.9333333348,7.92245
1492072010,296.9333333348,8.36048
1492072012,251.3333333348,4.85858
1492072014,251.3333333348,10.5171
1492072016,282.5333333348,8.96002
1492072018,328.1333333348,9.24183
1492072020,263.3333333348,2.58412
1492072022,289.7333333348,3.37525
1492072024,284.9333333348,9.24201
1492072026,258.5333333348,9.78413
1492072028,299.3333333348,8.83179
1492072030,277.7333333348,9.65467
1492072032,270.5333333348,8.09661
1492072034,318.5333333348,8.08193
1492072036,268.1333333348,11.2509
1492072038,275.3333333348,9.01983
1492072040,292.1333333348,9.08331
1492072042,292.1333333348,10.8258
1492072044,222.5333333348,10.3335
1492072046,304.1333333348,10.6328
1492072048,289.7333333348,8.53392
1492072050,227.3333333348,8.75406
1492072052,220.1333333348,8.65216
1492072054,256.1333333348,10.6881
1492072056,275.3333333348,10.2139
1492072058,251.3333333348,9.0879
1492072060,296.9333333348,10.3054
1492072062,253.7333333348,11.2701
1492072064,205.7333333348,8.77478
1492072066,260.9333333348,8.88859
1492072068,304.1333333348,9.18618
1492072070,227.3333333348,9.10569
1492072072,236.9333333348,7.54243
1492072074,217.7333333348,8.861
1492072076,263.3333333348,10.2604
1492072078,212.9333333348,8.93661
1492072080,337.7333333348,9.55259
1492072082,253.7333333348,11.2067
1492072084,268.1333333348,10.77
1492072086,275.3333333348,10.8229
1492072088,263.3333333348,9.58073
1492072090,289.7333333348,9.81022
1492072092,313.7333333348,13.6039
1492072094,265.7333333348,8.66918
1492072096,320.9333333348,9.47995
1492072098,270.5333333348,8.64207
1492072100,296.9333333348,7.34503
1492072102,220.1333333348,9.37572
1492072104,198.5333333348,9.18258
1492072106,258.5333333348,11.1082
1492072108,277.7333333348,11.9442
1492072110,258.5333333348,10.9437
1492072112,282.5333333348,9.95226
1492072114,229.7333333348,9.61782
1492072116,222.5333333348,10.0365
1492072118,203.3333333348,9.20302
1492072120,220.1333333348,9.66791
1492072122,200.9333333348,9.6247
1492072124,193.7333333348,9.21511
1492072126,184.1333333348,8.72578
1492072128,241.7333333348,8.77131
1492072130,270.5333333348,7.15998
1492072132,320.9333333348,6.47999
1492072134,222.5333333348,9.1587
1492072136,205.7333333348,5.84473
1492072138,200.9333333348,8.58673
1492072140,205.7333333348,9.58816
1492072142,191.3333333348,6.97752
1492072144,272.9333333348,6.82277
1492072146,208.1333333348,5.50369
1492072148,248.9333333348,8.84623
1492072150,232.1333333348,10.2189
1492072152,248.9333333348,12.1
1492072154,239.3333333348,12.2903
1492072156,263.3333333348,9.28643
1492072158,325.7333333348,12.1907
1492072160,287.3333333348,11.5109
1492072162,258.5333333348,7.08168
1492072164,349.7333333348,8.28249
1492072166,268.1333333348,9.05056
1492072168,347.3333333348,7.48118
1492072170,325.7333333348,8.77899
1492072172,335.3333333348,10.585
1492072174,284.9333333348,11.8964
1492072176,311.3333333348,10.6263
1492072178,311.3333333348,10.0896
1492072180,306.5333333348,11.5835
1492072182,364.1333333348,10.2054
1492072184,335.3333333348,11.4589
1492072186,325.7333333348,8.9672
1492072188,354.5333333348,7.57349
1492072190,337.7333333348,8.26171
1492072192,332.9333333348,5.80796
1492072194,304.1333333348,6.6815
1492072196,332.9333333348,6.46553
1492072198,268.1333333348,7.08327
1492072200,364.1333333348,9.65321
1492072202,325.7333333348,7.13175
1492072204,342.5333333348,8.76078
1492072206,395.3333333348,8.27029
1492072208,414.5333333348,9.22465
1492072210,400.1333333348,8.88272
1492072212,409.7333333348,8.47995
1492072214,428.9333333348,9.24749
1492072216,464.9333333348,9.60465
1492072218,541.7333333348,8.27415
1492072220,565.7333333348,7.66253
1492072222,556.1333333348,7.61631
1492072224,563.3333333348,7.62443
1492072226,575.3333333348,9.2341
1492072228,580.1333333348,10.2982
1492072230,577.7333333348,7.49065
1492072232,570.5333333348,7.03414
1492072234,577.7333333348,5.90341
1492072236,536.9333333348,6.00385
1492072238,503.3333333348,9.45102
1492072240,558.5333333348,7.60134
1492072242,481.7333333348,6.90784
1492072244,431.3333333348,7.93901
1492072246,476.9333333348,8.94035
1492072248,436.1333333348,10.2941
1492072250,433.7333333348,8.44756
1492072252,404.9333333348,9.25092
1492072254,452.9333333348,9.05803
1492072256,426.5333333348,11.0277
1492072258,402.5333333348,10.2435
1492072260,373.7333333348,9.28974
1492072262,390.5333333348,8.67883
1492072264,356.9333333348,8.1211
1492072266,426.5333333348,9.01919
1492072268,349.7333333348,7.9031
1492072270,378.5333333348,7.45832
1492072272,414.5333333348,7.27046
1492072274,409.7333333348,10.5186
1492072276,402.5333333348,7.88605
1492072278,431.3333333348,8.54302
1492072280,412.1333333348,8.51983
1492072282,407.3333333348,9.03515
1492072284,419.3333333348,6.71124
1492072286,426.5333333348,7.86436
1492072288,388.1333333348,8.2598
1492072290,409.7333333348,9.16428
1492072292,428.9333333348,9.10538
1492072294,395.3333333348,7.99422
1492072296,400.1333333348,9.18131
1492072298,460.1333333348,9.99613
1492072300,407.3333333348,9.28591
1492072302,344.9333333348,9.23763
1492072304,421.7333333348,8.45134
1492072306,407.3333333348,10.8208
1492072308,421.7333333348,12.757
1492072310,409.7333333348,10.9043
1492072312,431.3333333348,10.4145
1492072314,412.1333333348,10.7638
1492072316,397.7333333348,6.2479
1492072318,426.5333333348,6.63965
1492072320,366.5333333348,8.86735
1492072322,347.3333333348,8.16067
1492072324,412.1333333348,8.99889
1492072326,416.9333333348,7.66496
1492072328,335.3333333348,8.78868
1492072330,388.1333333348,10.4343
1492072332,337.7333333348,8.8733
1492072334,392.9333333348,9.56576
1492072336,352.1333333348,8.06995
1492072338,373.7333333348,10.4288
1492072340,400.1333333348,8.36518
1492072342,388.1333333348,9.13569
1492072344,433.7333333348,6.8631
1492072346,395.3333333348,11.6356
1492072348,400.1333333348,7.46768
1492072350,414.5333333348,7.07374
1492072352,390.5333333348,6.9361
1492072354,349.7333333348,10.5402
1492072356,421.7333333348,8.80626
1492072358,395.3333333348,7.7396
1492072360,428.9333333348,8.99937
1492072362,431.3333333348,6.83762
1492072364,409.7333333348,8.58056
1492072366,433.7333333348,8.5332
1492072368,426.5333333348,8.34687
1492072370,445.7333333348,9.03885
1492072372,419.3333333348,5.31764
1492072374,462.5333333348,6.25467
1492072376,431.3333333348,5.10405
1492072378,414.5333333348,5.24469
1492072380,428.9333333348,5.78525
1492072382,428.9333333348,7.72517
1492072384,424.1333333348,9.86082
1492072386,462.5333333348,6.72818
1492072388,419.3333333348,9.34148
1492072390,426.5333333348,8.78775
1492072392,421.7333333348,6.08118
1492072394,431.3333333348,6.21864
1492072396,414.5333333348,9.15323
1492072398,421.7333333348,8.60694
1492072400,421.7333333348,8.34275
1492072402,404.9333333348,10.4191
1492072404,364.1333333348,8.12041
1492072406,431.3333333348,7.61602
1492072408,414.5333333348,7.96703
1492072410,397.7333333348,11.1559
1492072412,416.9333333348,9.76189
1492072414,419.3333333348,10.9338
1492072416,407.3333333348,10.2056
1492072418,426.5333333348,9.10142
1492072420,416.9333333348,5.06651
1492072422,380.9333333348,11.1146
1492072424,457.7333333348,8.86153
1492072426,407.3333333348,9.78442
1492072428,404.9333333348,12.4368
1492072430,409.7333333348,9.18349
1492072432,400.1333333348,9.3365
1492072434,344.9333333348,8.76979
1492072436,378.5333333348,9.45581
1492072438,366.5333333348,11.4782
1492072440,349.7333333348,9.55112
1492072442,395.3333333348,8.77593
1492072444,412.1333333348,9.02123
1492072446,349.7333333348,6.50351
1492072448,325.7333333348,10.5813
1492072450,409.7333333348,11.6777
1492072452,352.1333333348,9.85807
1492072454,366.5333333348,8.70327
1492072456,448.1333333348,7.99179
1492072458,404.9333333348,8.55325
1492072460,412.1333333348,7.4437
1492072462,407.3333333348,8.45951
1492072464,402.5333333348,8.84714
1492072466,342.5333333348,9.2868
1492072468,407.3333333348,10.0386
1492072470,424.1333333348,9.98006
1492072472,397.7333333348,10.0859
1492072474,400.1333333348,11.4402
1492072476,392.9333333348,9.6148
1492072478,349.7333333348,9.49988
1492072480,352.1333333348,7.74436
1492072482,431.3333333348,8.11164
1492072484,332.9333333348,9.65907
1492072486,347.3333333348,9.32821
1492072488,354.5333333348,7.36219
1492072490,390.5333333348,7.90761
1492072492,323.3333333348,8.73552
1492072494,335.3333333348,8.82995
1492072496,342.5333333348,8.59591
1492072498,352.1333333348,8.43249
1492072500,342.5333333348,7.8673
1492072502,301.7333333348,7.03421
1492072504,268.1333333348,6.83277
1492072506,306.5333333348,7.10309
1492072508,263.3333333348,8.52484
1492072510,256.1333333348,6.57998
1492072512,277.7333333348,10.0649
1492072514,318.5333333348,11.8108
1492072516,268.1333333348,7.89757
1492072518,270.5333333348,8.47809
1492072520,320.9333333348,8.28841
1492072522,335.3333333348,9.91019
1492072524,296.9333333348,9.9605
1492072526,328.1333333348,10.251
1492072528,311.3333333348,9.80244
1492072530,299.3333333348,7.99989
1492072532,256.1333333348,8.09285
1492072534,258.5333333348,8.07452
1492072536,198.5333333348,9.64262
1492072538,253.7333333348,10.3481
1492072540,311.3333333348,8.97781
1492072542,205.7333333348,9.84508
1492072544,280.1333333348,11.1257
1492072546,265.7333333348,10.1851
1492072548,203.3333333348,10.4273
1492072550,244.1333333348,9.53993
1492072552,256.1333333348,11.3258
1492072554,188.9333333348,9.12936
1492072556,284.9333333348,8.32125
1492072558,275.3333333348,7.42536
1492072560,196.1333333348,6.8864
1492072562,212.9333333348,8.58895
1492072564,212.9333333348,8.98907
1492072566,256.1333333348,10.5942
1492072568,232.1333333348,9.8894
1492072570,239.3333333348,7.84917
1492072572,253.7333333348,9.26195
1492072574,220.1333333348,8.36424
1492072576,258.5333333348,7.75188
1492072578,258.5333333348,10.7349
1492072580,270.5333333348,8.30945
1492072582,304.1333333348,8.90006
1492072584,282.5333333348,8.67752
1492072586,239.3333333348,8.78352
1492072588,193.7333333348,7.19022
1492072590,277.7333333348,5.08547
1492072592,282.5333333348,9.60906
1492072594,258.5333333348,8.75261
1492072596,308.9333333348,8.59193
1492072598,258.5333333348,8.83239
1492072600,232.1333333348,8.7962
1492072602,289.7333333348,8.47967
1492072604,280.1333333348,10.2938
1492072606,224.9333333348,10.0092
1492072608,280.1333333348,7.36383
1492072610,236.9333333348,8.43304
1492072612,198.5333333348,10.2252
1492072614,263.3333333348,11.4558
1492072616,332.9333333348,10.2758
1492072618,241.7333333348,8.65981
1492072620,296.9333333348,6.74451
1492072622,270.5333333348,8.23589
1492072624,332.9333333348,6.16066
1492072626,256.1333333348,6.65328
1492072628,270.5333333348,9.86635
1492072630,328.1333333348,8.88131
1492072632,200.9333333348,7.68699
1492072634,265.7333333348,9.92904
1492072636,277.7333333348,10.0046
1492072638,260.9333333348,10.055
1492072640,256.1333333348,6.7612
1492072642,265.7333333348,8.24384
1492072644,191.3333333348,5.90397
1492072646,260.9333333348,8.58507
1492072648,253.7333333348,5.10783
1492072650,284.9333333348,7.58614
1492072652,246.5333333348,6.96612
1492072654,232.1333333348,8.73969
1492072656,270.5333333348,8.09345
1492072658,330.5333333348,7.88074
1492072660,340.1333333348,7.92182
1492072662,234.5333333348,7.73631
1492072664,253.7333333348,7.95275
1492072666,292.1333333348,10.894
1492072668,306.5333333348,6.66851
1492072670,347.3333333348,9.45471
1492072672,275.3333333348,9.05925
1492072674,354.5333333348,6.76245
1492072676,342.5333333348,7.95707
1492072678,253.7333333348,7.69527
1492072680,251.3333333348,10.9526
1492072682,217.7333333348,8.44016
1492072684,181.7333333348,8.41425
1492072686,196.1333333348,8.77207
1492072688,205.7333333348,6.25739
1492072690,193.7333333348,7.81192
1492072692,203.3333333348,8.15049
1492072694,193.7333333348,9.10296
1492072696,167.3333333348,6.03087
1492072698,186.5333333348,12.1993
1492072700,160.1333333348,11.1686
1492072702,181.7333333348,9.98494
1492072704,188.9333333348,9.38615
1492072706,198.5333333348,10.4459
1492072708,258.5333333348,12.177
1492072710,215.3333333348,12.683
1492072712,210.5333333348,10.917
1492072714,260.9333333348,12.0885
1492072716,167.3333333348,10.7806
1492072718,162.5333333348,11.2534
1492072720,160.1333333348,11.5368
1492072722,148.1333333348,10.5478
1492072724,136.1333333348,7.45935
1492072726,160.1333333348,9.44746
1492072728,140.9333333348,8.08677
1492072730,162.5333333348,7.79871
1492072732,169.7333333348,6.09839
1492072734,172.1333333348,8.42033
1492072736,152.9333333348,7.27437
1492072738,131.3333333348,6.76994
1492072740,162.5333333348,7.39208
1492072742,169.7333333348,7.26869
1492072744,181.7333333348,7.657
1492072746,220.1333333348,10.4853
1492072748,172.1333333348,7.60592
1492072750,140.9333333348,7.77764
1492072752,167.3333333348,4.30473
1492072754,167.3333333348,5.19903
1492072756,152.9333333348,8.05132
1492072758,169.7333333348,8.70757
1492072760,203.3333333348,7.41654
1492072762,196.1333333348,8.81228
1492072764,164.9333333348,8.87256
1492072766,227.3333333348,9.62952
1492072768,138.5333333348,8.37738
1492072770,172.1333333348,8.43332
1492072772,239.3333333348,7.99233
1492072774,179.3333333348,7.64572
1492072776,176.9333333348,8.59792
1492072778,124.1333333348,11.5557
1492072780,208.1333333348,10.266
1492072782,169.7333333348,8.49037
1492072784,217.7333333348,9.01388
1492072786,188.9333333348,10.2786
1492072788,157.7333333348,11.4375
1492072790,186.5333333348,10.4167
1492072792,196.1333333348,10.8805
1492072794,145.7333333348,10.5382
1492072796,145.7333333348,10.4165
1492072798,157.7333333348,10.1993
1492072800,186.5333333348,10.8579
1492072802,143.3333333348,10.425
1492072804,200.9333333348,12.8038
1492072806,114.5333333348,10.7309
1492072808,172.1333333348,8.84376
1492072810,196.1333333348,10.4537
1492072812,174.5333333348,10.9343
1492072814,176.9333333348,9.75895
1492072816,119.3333333348,11.8884
1492072818,169.7333333348,8.74537
1492072820,157.7333333348,10.4279
1492072822,198.5333333348,8.81745
1492072824,184.1333333348,9.15082
1492072826,184.1333333348,8.02218
1492072828,186.5333333348,8.44107
1492072830,193.7333333348,10.079
1492072832,155.3333333348,8.48092
1492072834,200.9333333348,10.886
1492072836,244.1333333348,9.06753
1492072838,251.3333333348,7.11147
1492072840,179.3333333348,9.68561
1492072842,224.9333333348,10.4712
1492072844,152.9333333348,8.41263
1492072846,203.3333333348,9.68057
1492072848,193.7333333348,10.1555
1492072850,179.3333333348,10.306
1492072852,186.5333333348,7.58409
1492072854,176.9333333348,5.91442
1492072856,198.5333333348,7.55659
1492072858,181.7333333348,5.76845
1492072860,236.9333333348,8.31292
1492072862,191.3333333348,6.64786
1492072864,193.7333333348,7.05513
1492072866,203.3333333348,7.32786
1492072868,179.3333333348,5.94497
1492072870,181.7333333348,8.61532
1492072872,184.1333333348,9.17095
1492072874,184.1333333348,10.7057
1492072876,172.1333333348,3.42715
1492072878,186.5333333348,6.21106
1492072880,155.3333333348,8.71061
1492072882,203.3333333348,9.51205
1492072884,203.3333333348,7.64644
1492072886,162.5333333348,7.07281
1492072888,174.5333333348,5.52941
1492072890,191.3333333348,6.14591
1492072892,176.9333333348,7.7805
1492072894,181.7333333348,10.1491
1492072896,205.7333333348,8.61883
1492072898,188.9333333348,10.2782
1492072900,188.9333333348,9.39932
1492072902,244.1333333348,8.75254
1492072904,208.1333333348,6.75374
1492072906,188.9333333348,7.25103
1492072908,292.1333333348,5.63234
1492072910,186.5333333348,7.46512
1492072912,186.5333333348,9.43993
1492072914,220.1333333348,8.76024
1492072916,224.9333333348,8.82592
1492072918,198.5333333348,10.7705
1492072920,186.5333333348,8.59366
1492072922,210.5333333348,8.79842
1492072924,208.1333333348,10.0037
1492072926,172.1333333348,7.85387
1492072928,179.3333333348,9.89879
1492072930,186.5333333348,11.7283
1492072932,191.3333333348,11.1333
1492072934,188.9333333348,10.788
1492072936,174.5333333348,11.358
1492072938,179.3333333348,7.40451
1492072940,217.7333333348,8.62636
1492072942,181.7333333348,8.79981
1492072944,186.5333333348,9.45994
1492072946,186.5333333348,8.89962
1492072950,174.5333333348,10.5194
1492072952,164.9333333348,10.9992
1492072954,116.9333333348,8.25129
1492072956,174.5333333348,8.25731
1492072958,155.3333333348,6.82094
1492072960,191.3333333348,7.23403
1492072962,140.9333333348,8.73368
1492072964,162.5333333348,8.14731
1492072966,227.3333333348,5.86671
1492072968,179.3333333348,5.25148
1492072970,148.1333333348,7.88293
1492072972,157.7333333348,11.4639
1492072974,181.7333333348,10.1244
1492072976,164.9333333348,10.79
1492072978,191.3333333348,10.9714
1492072980,140.9333333348,9.21902
1492072982,174.5333333348,7.49448
1492072984,179.3333333348,9.61219
1492072986,167.3333333348,8.73937
1492072988,114.5333333348,12.8095
1492072990,196.1333333348,10.384
1492072992,136.1333333348,12.3692
1492072994,145.7333333348,11.6602
1492072996,198.5333333348,11.5377
1492072998,167.3333333348,11.6049
1492073000,162.5333333348,10.4954
1492073002,145.7333333348,12.4901
1492073004,107.3333333348,9.92362
1492073006,193.7333333348,10.2657
1492073008,164.9333333348,9.68893
1492073010,157.7333333348,9.80415
1492073012,107.3333333348,9.67382
1492073014,150.5333333348,8.18771
1492073016,145.7333333348,7.22618
1492073018,121.7333333348,8.55387
1492073020,179.3333333348,7.24671
1492073022,174.5333333348,7.21584
1492073024,114.5333333348,7.22546
1492073026,160.1333333348,7.02361
1492073028,160.1333333348,9.93286
1492073030,138.5333333348,10.1218
1492073032,162.5333333348,7.84577
1492073034,186.5333333348,9.4278
1492073036,172.1333333348,7.70792
1492073038,148.1333333348,7.68491
1492073040,172.1333333348,6.9843
1492073042,140.9333333348,8.94403
1492073044,148.1333333348,9.02971
1492073046,174.5333333348,8.24233
1492073048,174.5333333348,8.76761
1492073050,174.5333333348,7.11764
1492073052,186.5333333348,6.14738
1492073054,196.1333333348,6.03376
1492073056,164.9333333348,7.69559
1492073058,191.3333333348,6.58
1492073060,181.7333333348,7.79553
1492073062,186.5333333348,6.71242
1492073064,248.9333333348,6.33364
1492073066,215.3333333348,7.08745
1492073068,205.7333333348,7.26161
1492073070,179.3333333348,5.89532
1492073072,191.3333333348,4.61029
1492073074,196.1333333348,6.89454
1492073076,208.1333333348,4.69334
1492073078,193.7333333348,5.90398
1492073080,186.5333333348,7.43592
1492073082,196.1333333348,6.5694
1492073084,260.9333333348,4.99018
1492073086,260.9333333348,6.21762
1492073088,212.9333333348,7.87342
1492073090,222.5333333348,8.97698
1492073092,246.5333333348,9.78169
1492073094,234.5333333348,10.7043
1492073096,270.5333333348,6.82566
1492073098,248.9333333348,7.83726
1492073100,244.1333333348,7.0924
1492073102,253.7333333348,8.8423
1492073104,217.7333333348,8.2286
1492073106,248.9333333348,9.29173
1492073108,244.1333333348,8.11165
1492073110,248.9333333348,9.06125
1492073112,220.1333333348,9.08962
1492073114,248.9333333348,9.47713
1492073116,248.9333333348,9.74496
1492073118,186.5333333348,10.1262
1492073120,198.5333333348,9.21411
1492073122,188.9333333348,8.84818
1492073124,186.5333333348,8.89606
1492073126,239.3333333348,9.42273
1492073128,184.1333333348,9.51569
1492073130,167.3333333348,9.78619
1492073132,193.7333333348,10.4072
1492073134,191.3333333348,9.04386
1492073136,128.9333333348,9.47661
1492073138,196.1333333348,10.7194
1492073140,164.9333333348,11.6592
1492073142,167.3333333348,11.1286
1492073144,181.7333333348,10.1164
1492073146,167.3333333348,9.24945
1492073148,160.1333333348,9.01998
1492073150,234.5333333348,10.0203
1492073152,203.3333333348,7.82113
1492073154,128.9333333348,9.7206
1492073156,119.3333333348,11.1841
1492073158,188.9333333348,12.0995
1492073160,138.5333333348,11.0154
1492073162,112.1333333348,11.3742
1492073164,162.5333333348,7.76841
1492073166,169.7333333348,6.78641
1492073168,167.3333333348,7.78274
1492073170,181.7333333348,7.95697
1492073172,140.9333333348,7.50622
1492073174,138.5333333348,7.20386
1492073176,174.5333333348,8.38178
1492073178,200.9333333348,8.49047
1492073180,162.5333333348,9.28275
1492073182,246.5333333348,9.57601
1492073184,124.1333333348,8.1557
1492073186,172.1333333348,10.2098
1492073188,176.9333333348,11.058
1492073190,191.3333333348,8.149
1492073192,155.3333333348,8.06226
1492073194,162.5333333348,8.66189
1492073196,97.7333333348,7.17734
1492073198,112.1333333348,7.94215
1492073200,152.9333333348,11.1075
1492073202,90.5333333348001,10.9667
1492073204,76.1333333348001,8.70195
1492073206,97.7333333348,7.72698
1492073208,174.5333333348,10.3224
1492073210,114.5333333348,11.6594
1492073212,116.9333333348,10.4851
1492073214,157.7333333348,8.75885
1492073216,174.5333333348,8.91801
1492073218,174.5333333348,9.54694
1492073220,179.3333333348,11.013
1492073222,119.3333333348,11.0354
1492073224,152.9333333348,12.6592
1492073226,138.5333333348,11.3134
1492073228,104.9333333348,7.57992
1492073230,107.3333333348,10.6098
1492073232,176.9333333348,11.2538
1492073234,145.7333333348,10.6367
1492073236,104.9333333348,9.3102
1492073238,176.9333333348,9.96223
1492073240,172.1333333348,9.35455
1492073242,112.1333333348,9.72396
1492073244,157.7333333348,10.9267
1492073246,167.3333333348,9.409
1492073248,162.5333333348,10.0116
1492073250,205.7333333348,7.73015
1492073252,179.3333333348,8.19472
1492073254,145.7333333348,10.8861
1492073256,164.9333333348,5.66272
1492073258,167.3333333348,6.67159
1492073260,184.1333333348,6.83257
1492073262,155.3333333348,7.81182
1492073264,169.7333333348,4.45267
1492073266,121.7333333348,6.38118
1492073268,126.5333333348,7.67707
1492073270,148.1333333348,8.56673
1492073272,83.3333333348,8.27021
1492073274,174.5333333348,8.89426
1492073276,160.1333333348,10.1211
1492073278,160.1333333348,8.17837
1492073280,179.3333333348,8.9696
1492073282,174.5333333348,11.0023
1492073284,136.1333333348,11.4644
1492073286,176.9333333348,9.38337
1492073288,157.7333333348,10.4975
1492073290,145.7333333348,11.1251
1492073292,140.9333333348,9.90295
1492073294,181.7333333348,7.01317
1492073296,160.1333333348,5.54208
1492073298,126.5333333348,3.75908
1492073300,174.5333333348,6.18334
1492073302,152.9333333348,8.44132
1492073304,184.1333333348,6.49952
1492073306,128.9333333348,8.41702
1492073308,198.5333333348,10.9079
1492073310,167.3333333348,8.94738
1492073312,174.5333333348,7.2306
1492073314,152.9333333348,5.13397
1492073316,162.5333333348,5.23728
1492073318,167.3333333348,6.33653
1492073320,95.3333333348,6.21249
1492073322,116.9333333348,2.54063
1492073324,176.9333333348,8.87377
1492073326,114.5333333348,9.27499
1492073328,140.9333333348,12.7393
1492073330,162.5333333348,6.20723
1492073332,167.3333333348,6.65147
1492073334,186.5333333348,8.68664
1492073336,162.5333333348,7.38797
1492073338,131.3333333348,7.51082
1492073340,155.3333333348,11.0223
1492073342,164.9333333348,8.90022
1492073344,95.3333333348,9.16795
1492073346,133.7333333348,9.84677
1492073348,114.5333333348,6.7133
1492073350,157.7333333348,6.9549
1492073352,167.3333333348,7.96718
1492073354,181.7333333348,7.05825
1492073356,176.9333333348,7.82783
1492073358,176.9333333348,7.44237
1492073360,172.1333333348,6.59989
1492073362,179.3333333348,9.98326
1492073364,167.3333333348,9.15729
1492073366,200.9333333348,5.86002
1492073368,143.3333333348,7.33148
1492073370,109.7333333348,7.06192
1492073372,174.5333333348,9.28313
1492073374,155.3333333348,10.7707
1492073376,181.7333333348,8.58771
1492073378,198.5333333348,10.5145
1492073380,193.7333333348,12.3119
1492073382,196.1333333348,10.4621
1492073384,169.7333333348,9.17712
1492073386,181.7333333348,9.63238
1492073388,222.5333333348,8.63737
1492073390,205.7333333348,8.9275
1492073392,188.9333333348,7.80693
1492073394,203.3333333348,9.87144
1492073396,196.1333333348,10.9412
1492073398,133.7333333348,10.2847
1492073400,220.1333333348,12.3817
1492073402,181.7333333348,12.7625
1492073404,217.7333333348,11.3783
1492073406,208.1333333348,9.1469
1492073408,215.3333333348,9.44521
1492073410,186.5333333348,9.89635
1492073412,224.9333333348,9.62536
1492073414,198.5333333348,9.17834
1492073416,188.9333333348,10.8678
1492073418,155.3333333348,10.6999
1492073420,174.5333333348,11.669
1492073422,172.1333333348,10.6782
1492073424,200.9333333348,8.78685
1492073426,205.7333333348,8.82349
1492073428,160.1333333348,9.62843
1492073430,191.3333333348,10.8172
1492073432,179.3333333348,9.71627
1492073434,155.3333333348,9.93325
1492073436,184.1333333348,11.6854
1492073438,227.3333333348,11.0112
1492073440,234.5333333348,10.2901
1492073442,167.3333333348,8.3731
1492073444,155.3333333348,10.8928
1492073446,164.9333333348,10.6539
1492073448,172.1333333348,10.5319
1492073450,174.5333333348,11.1524
1492073452,200.9333333348,9.1961
1492073454,184.1333333348,8.69595
1492073456,145.7333333348,10.8323
1492073458,196.1333333348,10.3098
1492073460,181.7333333348,9.5304
1492073462,112.1333333348,10.9487
1492073464,143.3333333348,9.85003
1492073466,174.5333333348,10.2175
1492073468,90.5333333348001,7.04498
1492073470,164.9333333348,9.60165
1492073472,145.7333333348,10.9783
1492073474,136.1333333348,9.30661
1492073476,205.7333333348,8.69784
1492073478,184.1333333348,6.88535
1492073480,184.1333333348,9.55355
1492073482,227.3333333348,10.2842
1492073484,193.7333333348,10.512
1492073486,164.9333333348,8.99325
1492073488,200.9333333348,8.54306
1492073490,143.3333333348,8.74461
1492073492,174.5333333348,10.9968
1492073494,184.1333333348,9.92759
1492073496,116.9333333348,10.7405
1492073498,164.9333333348,8.42522
1492073500,179.3333333348,9.66329
1492073502,136.1333333348,8.32831
1492073504,167.3333333348,7.80312
1492073506,112.1333333348,8.50507
1492073508,109.7333333348,9.503
1492073510,136.1333333348,7.48539
1492073512,148.1333333348,9.37254
1492073514,121.7333333348,8.12842
1492073516,119.3333333348,9.81498
1492073518,126.5333333348,7.81766
1492073520,102.5333333348,6.92871
1492073522,109.7333333348,9.78326
1492073524,193.7333333348,9.6188
1492073526,157.7333333348,10.3889
1492073528,119.3333333348,8.62943
1492073530,179.3333333348,10.5089
1492073532,167.3333333348,10.1247
1492073534,102.5333333348,9.43137
1492073536,181.7333333348,7.86852
1492073538,76.1333333348001,7.7022
1492073540,167.3333333348,5.65308
1492073542,136.1333333348,8.07205
1492073544,140.9333333348,7.51951
1492073546,160.1333333348,6.08338
1492073548,167.3333333348,8.51792
1492073550,155.3333333348,9.99258
1492073552,114.5333333348,9.21168
1492073554,205.7333333348,7.77375
1492073556,148.1333333348,7.93808
1492073558,184.1333333348,8.17062
1492073560,169.7333333348,9.50741
1492073562,68.9333333348001,11.6751
1492073564,160.1333333348,10.2881
1492073566,143.3333333348,11.7068
1492073568,126.5333333348,9.72679
1492073570,140.9333333348,6.89166
1492073572,167.3333333348,10.0964
1492073574,138.5333333348,7.97392
1492073576,169.7333333348,8.11023
1492073578,124.1333333348,8.9694
1492073580,136.1333333348,7.98488
1492073582,162.5333333348,5.69602
1492073584,200.9333333348,6.45012
1492073586,217.7333333348,6.90774
1492073588,196.1333333348,6.698
1492073590,174.5333333348,7.60103
1492073592,157.7333333348,8.18772
1492073594,174.5333333348,8.22449
1492073596,167.3333333348,9.81729
1492073598,119.3333333348,11.3652
1492073600,184.1333333348,12.375
1492073602,128.9333333348,9.62495
1492073604,104.9333333348,10.0622
1492073606,112.1333333348,10.9278
1492073608,150.5333333348,8.01946
1492073610,112.1333333348,10.326
1492073612,157.7333333348,9.75986
1492073614,107.3333333348,9.31786
1492073616,191.3333333348,10.6321
1492073618,167.3333333348,9.27477
1492073620,140.9333333348,10.5372
1492073622,138.5333333348,8.64437
1492073624,196.1333333348,10.288
1492073626,179.3333333348,9.05043
1492073628,220.1333333348,10.7971
1492073630,176.9333333348,9.25046
1492073632,169.7333333348,11.563
1492073634,241.7333333348,10.3777
1492073636,196.1333333348,10.9833
1492073638,181.7333333348,9.09947
1492073640,181.7333333348,7.59947
1492073642,174.5333333348,10.0423
1492073644,179.3333333348,12.1096
1492073646,186.5333333348,10.7284
1492073648,186.5333333348,8.38088
1492073650,200.9333333348,8.18309
1492073652,181.7333333348,9.46582
1492073654,208.1333333348,7.29264
1492073656,162.5333333348,6.8406
1492073658,186.5333333348,7.03435
1492073660,155.3333333348,9.41105
1492073662,179.3333333348,8.85826
1492073664,181.7333333348,9.59282
1492073666,160.1333333348,10.0036
1492073668,193.7333333348,6.71208
1492073670,167.3333333348,7.42163
1492073672,160.1333333348,9.55048
1492073674,179.3333333348,9.92794
1492073676,186.5333333348,9.68619
1492073678,174.5333333348,8.68409
1492073680,186.5333333348,9.94138
1492073682,176.9333333348,5.94177
1492073684,119.3333333348,7.50064
1492073686,176.9333333348,5.58238
1492073688,186.5333333348,6.83618
1492073690,157.7333333348,6.19174
1492073692,193.7333333348,5.32129
1492073694,191.3333333348,3.83532
1492073696,92.9333333348001,5.87368
1492073698,102.5333333348,9.33609
1492073700,133.7333333348,6.87765
1492073702,148.1333333348,9.30153
1492073704,198.5333333348,5.02888
1492073706,133.7333333348,11.0136
1492073708,143.3333333348,9.62157
1492073710,160.1333333348,8.79138
1492073712,140.9333333348,9.97146
1492073714,102.5333333348,9.6531
1492073716,155.3333333348,7.72962
1492073718,160.1333333348,7.22936
1492073720,200.9333333348,6.53932
1492073722,160.1333333348,5.78152
1492073724,71.3333333348,8.467
1492073726,174.5333333348,6.95134
1492073728,155.3333333348,7.28676
1492073730,160.1333333348,6.83805
1492073732,136.1333333348,6.33871
1492073734,167.3333333348,8.26254
1492073736,155.3333333348,9.29423
1492073738,160.1333333348,8.36501
1492073740,162.5333333348,6.62725
1492073742,138.5333333348,6.82704
1492073744,162.5333333348,7.92824
1492073746,138.5333333348,7.93361
1492073748,167.3333333348,7.18707
1492073750,97.7333333348,8.76644
1492073752,174.5333333348,6.94112
1492073754,83.3333333348,5.61425
1492073756,155.3333333348,7.05537
1492073758,112.1333333348,8.60407
1492073760,164.9333333348,10.0946
1492073762,188.9333333348,10.0868
1492073764,145.7333333348,9.7027
1492073766,155.3333333348,8.26652
1492073768,162.5333333348,9.31916
1492073770,167.3333333348,8.86488
1492073772,131.3333333348,7.55088
1492073774,138.5333333348,7.02925
1492073776,152.9333333348,10.3753
1492073778,131.3333333348,10.1941
1492073780,102.5333333348,9.14193
1492073782,162.5333333348,8.49193
1492073784,76.1333333348001,4.98593
1492073786,152.9333333348,10.5562
1492073788,160.1333333348,8.99064
1492073790,112.1333333348,10.7067
1492073792,143.3333333348,11.5836
1492073794,150.5333333348,11.2147
1492073796,102.5333333348,10.2303
1492073798,138.5333333348,11.0996
1492073800,157.7333333348,10.2219
1492073802,119.3333333348,9.89009
1492073804,112.1333333348,10.6497
1492073806,167.3333333348,12.0494
1492073808,95.3333333348,7.97563
1492073810,143.3333333348,10.8437
1492073812,112.1333333348,8.54875
1492073814,90.5333333348001,11.0422
1492073816,152.9333333348,7.86073
1492073818,145.7333333348,10.858
1492073820,102.5333333348,10.9603
1492073822,124.1333333348,10.2984
1492073824,104.9333333348,13.3235
1492073826,150.5333333348,9.76337
1492073828,169.7333333348,9.96626
1492073830,191.3333333348,10.1095
1492073832,157.7333333348,9.3932
1492073834,124.1333333348,6.74809
1492073836,160.1333333348,10.5171
1492073838,169.7333333348,10.402
1492073840,184.1333333348,8.19172
1492073842,160.1333333348,10.4702
1492073844,239.3333333348,7.68529
1492073846,325.7333333348,9.10904
1492073848,272.9333333348,7.59724
1492073850,299.3333333348,7.49407
1492073852,251.3333333348,6.96984
1492073854,304.1333333348,7.93877
1492073856,323.3333333348,10.6791
1492073858,287.3333333348,9.69925
1492073860,287.3333333348,8.53539
1492073862,323.3333333348,8.3783
1492073864,289.7333333348,8.3289
1492073866,253.7333333348,11.1047
1492073868,342.5333333348,11.3309
1492073870,270.5333333348,11.6853
1492073872,277.7333333348,11.5614
1492073874,272.9333333348,9.015
1492073876,234.5333333348,6.75878
1492073878,224.9333333348,8.27943
1492073880,277.7333333348,9.11953
1492073882,316.1333333348,10.0627
1492073884,229.7333333348,11.4642
1492073886,332.9333333348,12.1476
1492073888,275.3333333348,8.06855
1492073890,323.3333333348,9.5098
1492073892,277.7333333348,3.89603
1492073894,287.3333333348,8.98821
1492073896,316.1333333348,11.7691
1492073898,248.9333333348,6.62799
1492073900,263.3333333348,9.85725
1492073902,313.7333333348,9.44975
1492073904,220.1333333348,13.3148
1492073906,313.7333333348,6.43613
1492073908,316.1333333348,4.93782
1492073910,253.7333333348,4.26192
1492073912,308.9333333348,3.99869
1492073914,246.5333333348,5.97052
1492073916,263.3333333348,9.74924
1492073918,311.3333333348,10.198
1492073920,239.3333333348,11.9611
1492073922,196.1333333348,6.30912
1492073924,236.9333333348,7.28415
1492073926,217.7333333348,6.27922
1492073928,313.7333333348,3.60415
1492073930,347.3333333348,9.05949
1492073932,311.3333333348,8.73643
1492073934,256.1333333348,8.33326
1492073936,306.5333333348,10.5108
1492073938,256.1333333348,14.2895
1492073940,241.7333333348,11.2566
1492073942,251.3333333348,9.09074
1492073944,311.3333333348,10.0222
1492073946,263.3333333348,8.9649
1492073948,265.7333333348,7.17421
1492073950,306.5333333348,8.86161
1492073952,289.7333333348,11.8514
1492073954,282.5333333348,11.2476
1492073956,268.1333333348,8.87215
1492073958,260.9333333348,9.59336
1492073960,299.3333333348,7.57309
1492073962,236.9333333348,6.93346
1492073964,260.9333333348,3.2409
1492073966,299.3333333348,5.14277
1492073968,280.1333333348,5.90269
1492073970,292.1333333348,10.2091
1492073972,308.9333333348,9.24314
1492073974,277.7333333348,10.2874
1492073976,265.7333333348,9.90906
1492073978,330.5333333348,10.9901
1492073980,282.5333333348,12.1119
1492073982,236.9333333348,11.5398
1492073984,306.5333333348,13.1941
1492073986,234.5333333348,13.6089
1492073988,275.3333333348,11.3874
1492073990,251.3333333348,10.0221
1492073992,239.3333333348,6.9686
1492073994,268.1333333348,9.41263
1492073996,292.1333333348,8.77857
1492073998,236.9333333348,8.77509
1492074000,222.5333333348,11.1154
1492074002,236.9333333348,11.7816
1492074004,284.9333333348,9.88023
1492074006,320.9333333348,9.28382
1492074008,241.7333333348,8.69714
1492074010,268.1333333348,10.4933
1492074012,270.5333333348,10.7488
1492074014,311.3333333348,7.009
1492074016,256.1333333348,12.0666
1492074018,272.9333333348,12.2899
1492074020,265.7333333348,11.435
1492074022,212.9333333348,11.0901
1492074024,296.9333333348,8.80558
1492074026,265.7333333348,8.88648
1492074028,244.1333333348,8.93368
1492074030,251.3333333348,7.98915
1492074032,251.3333333348,7.71578
1492074034,239.3333333348,11.3112
1492074036,299.3333333348,8.98269
1492074038,260.9333333348,11.4867
1492074040,198.5333333348,9.30951
1492074042,229.7333333348,9.90722
1492074044,280.1333333348,8.189
1492074046,210.5333333348,8.74989
1492074048,306.5333333348,8.22219
1492074050,241.7333333348,10.6275
1492074052,215.3333333348,11.6331
1492074054,236.9333333348,11.8414
1492074056,289.7333333348,10.9046
1492074058,246.5333333348,11.5229
1492074060,217.7333333348,11.6615
1492074062,210.5333333348,12.4114
1492074064,229.7333333348,12.5453
1492074066,277.7333333348,12.7856
1492074068,260.9333333348,11.2853
1492074070,251.3333333348,7.89035
1492074072,222.5333333348,10.5907
1492074074,200.9333333348,11.2372
1492074076,200.9333333348,10.6919
1492074078,316.1333333348,9.22588
1492074080,347.3333333348,9.88365
1492074082,222.5333333348,10.0587
1492074084,284.9333333348,10.6704
1492074086,244.1333333348,12.0166
1492074088,265.7333333348,12.7904
1492074090,248.9333333348,13.5872
1492074092,299.3333333348,12.334
1492074094,263.3333333348,13.7708
1492074096,287.3333333348,11.2686
1492074098,227.3333333348,12.9071
1492074100,258.5333333348,10.6856
1492074102,277.7333333348,11.0643
1492074104,239.3333333348,10.2546
1492074106,203.3333333348,6.12988
1492074108,234.5333333348,9.1709
1492074110,215.3333333348,13.3017
1492074112,236.9333333348,8.76574
1492074114,212.9333333348,9.80617
1492074116,220.1333333348,10.3761
1492074118,200.9333333348,9.2524
1492074120,268.1333333348,8.8621
1492074122,191.3333333348,8.78686
1492074124,234.5333333348,9.53451
1492074126,239.3333333348,9.87309
1492074128,234.5333333348,11.3316
1492074130,210.5333333348,7.43319
1492074132,263.3333333348,9.19704
1492074134,200.9333333348,10.8993
1492074136,256.1333333348,11.357
1492074138,246.5333333348,11.8326
1492074140,227.3333333348,10.6937
1492074142,229.7333333348,8.98217
1492074144,198.5333333348,12.0049
1492074146,251.3333333348,12.9991
1492074148,260.9333333348,8.8764
1492074150,248.9333333348,8.78048
1492074152,217.7333333348,7.81176
1492074154,227.3333333348,9.18756
1492074156,222.5333333348,6.58052
1492074158,191.3333333348,9.45818
1492074160,184.1333333348,9.19682
1492074162,184.1333333348,11.3062
1492074164,203.3333333348,10.5712
1492074166,184.1333333348,10.6311
1492074168,210.5333333348,10.6046
1492074170,215.3333333348,11.2654
1492074172,263.3333333348,8.85527
1492074174,234.5333333348,5.80638
1492074176,196.1333333348,7.88596
1492074178,260.9333333348,8.09618
1492074180,251.3333333348,9.2583
1492074182,241.7333333348,10.3769
1492074184,244.1333333348,13.0856
1492074186,217.7333333348,13.2854
1492074188,263.3333333348,10.9377
1492074190,241.7333333348,7.92352
1492074192,340.1333333348,9.03504
1492074194,241.7333333348,6.65045
1492074196,296.9333333348,6.2631
1492074198,272.9333333348,10.1739
1492074200,256.1333333348,10.1436
1492074202,277.7333333348,10.2478
1492074204,320.9333333348,10.9215
1492074206,260.9333333348,9.3425
1492074208,260.9333333348,7.84443
1492074210,292.1333333348,8.10149
1492074212,227.3333333348,8.71416
1492074214,320.9333333348,9.43364
1492074216,234.5333333348,9.60739
1492074218,198.5333333348,8.80722
1492074220,280.1333333348,6.78739
1492074222,258.5333333348,9.33843
1492074224,227.3333333348,11.6875
1492074226,215.3333333348,9.33347
1492074228,277.7333333348,7.40454
1492074230,260.9333333348,9.02821
1492074232,260.9333333348,10.7102
1492074234,280.1333333348,8.90188
1492074236,229.7333333348,7.848
1492074238,258.5333333348,9.22704
1492074240,330.5333333348,9.10081
1492074242,265.7333333348,8.50152
1492074244,246.5333333348,7.59375
1492074246,258.5333333348,8.56294
1492074248,263.3333333348,5.71591
1492074250,217.7333333348,8.08248
1492074252,284.9333333348,12.0219
1492074254,349.7333333348,7.35559
1492074256,318.5333333348,7.80362
1492074258,318.5333333348,7.9834
1492074260,323.3333333348,8.29201
1492074262,292.1333333348,6.35648
1492074264,332.9333333348,7.48218
1492074266,265.7333333348,9.19568
1492074268,306.5333333348,7.79859
1492074270,404.9333333348,7.61506
1492074272,260.9333333348,9.84366
1492074274,340.1333333348,8.51935
1492074276,287.3333333348,10.5541
1492074278,323.3333333348,10.5317
1492074280,275.3333333348,9.90604
1492074282,352.1333333348,8.59918
1492074284,304.1333333348,8.80363
1492074286,323.3333333348,9.91613
1492074288,294.5333333348,9.01349
1492074290,222.5333333348,8.0808
1492074292,323.3333333348,9.55343
1492074294,311.3333333348,8.15756
1492074296,277.7333333348,6.37016
1492074298,282.5333333348,5.91293
1492074300,316.1333333348,9.02282
1492074302,246.5333333348,7.1029
1492074304,275.3333333348,9.22433
1492074306,258.5333333348,8.2559
1492074308,224.9333333348,10.423
1492074310,227.3333333348,10.7829
1492074312,284.9333333348,10.5566
1492074314,229.7333333348,8.82133
1492074316,251.3333333348,8.15458
1492074318,347.3333333348,8.43077
1492074320,227.3333333348,6.85727
1492074322,256.1333333348,7.92891
1492074324,323.3333333348,7.63852
1492074326,217.7333333348,9.11249
1492074328,253.7333333348,6.48415
1492074330,248.9333333348,8.27253
1492074332,232.1333333348,7.97271
1492074334,318.5333333348,9.88176
1492074336,287.3333333348,10.1757
1492074338,306.5333333348,6.04427
1492074340,311.3333333348,7.54928
1492074342,304.1333333348,9.11201
1492074344,256.1333333348,10.6711
1492074346,296.9333333348,10.8925
1492074348,260.9333333348,11.1816
1492074350,253.7333333348,8.13083
1492074352,268.1333333348,11.676
1492074354,289.7333333348,10.5992
1492074356,244.1333333348,9.87806
1492074358,232.1333333348,10.103
1492074360,275.3333333348,9.95907
1492074362,251.3333333348,11.4445
1492074364,282.5333333348,12.3711
1492074366,280.1333333348,12.6377
1492074368,244.1333333348,12.1208
1492074370,275.3333333348,11.8677
1492074372,292.1333333348,11.6418
1492074374,239.3333333348,10.3749
1492074376,311.3333333348,10.6269
1492074378,344.9333333348,11.3955
1492074380,270.5333333348,10.6015
1492074382,272.9333333348,12.3254
1492074384,244.1333333348,12.0023
1492074386,277.7333333348,12.0448
1492074388,299.3333333348,9.90118
1492074390,284.9333333348,9.88962
1492074392,258.5333333348,10.6095
1492074394,287.3333333348,10.9254
1492074396,224.9333333348,10.228
1492074398,265.7333333348,9.12475
1492074400,277.7333333348,11.5624
1492074402,253.7333333348,8.22311
1492074404,280.1333333348,5.48816
1492074406,282.5333333348,6.87676
1492074408,232.1333333348,9.73518
1492074410,340.1333333348,8.98574
1492074412,277.7333333348,11.322
1492074414,215.3333333348,9.46343
1492074416,265.7333333348,10.7356
1492074418,316.1333333348,8.36038
1492074420,215.3333333348,12.5351
1492074422,236.9333333348,11.6191
1492074424,239.3333333348,12.1926
1492074426,246.5333333348,11.8678
1492074428,229.7333333348,9.32945
1492074430,268.1333333348,12.6323
1492074432,191.3333333348,7.82565
1492074434,304.1333333348,9.69992
1492074436,294.5333333348,10.125
1492074438,272.9333333348,9.73062
1492074440,220.1333333348,11.0974
1492074442,253.7333333348,10.4292
1492074444,196.1333333348,9.85419
1492074446,294.5333333348,9.23697
1492074448,268.1333333348,10.5152
1492074450,208.1333333348,12.6813
1492074452,246.5333333348,9.91505
1492074454,232.1333333348,10.7858
1492074456,241.7333333348,8.03751
1492074458,253.7333333348,7.39563
1492074460,220.1333333348,4.05345
1492074462,277.7333333348,6.9409
1492074464,265.7333333348,8.6344
1492074466,268.1333333348,8.53241
1492074468,244.1333333348,7.78931
1492074470,239.3333333348,11.8496
1492074472,212.9333333348,10.1369
1492074474,277.7333333348,8.2871
1492074476,347.3333333348,9.44616
1492074478,203.3333333348,10.926
1492074480,253.7333333348,12.767
1492074482,256.1333333348,13.2924
1492074484,232.1333333348,11.3657
1492074486,289.7333333348,10.2832
1492074488,294.5333333348,9.04954
1492074490,229.7333333348,7.75088
1492074492,234.5333333348,7.89792
1492074494,174.5333333348,8.25774
1492074496,196.1333333348,8.99192
1492074498,268.1333333348,11.1837
1492074500,265.7333333348,11.945
1492074502,203.3333333348,10.9407
1492074504,200.9333333348,11.9891
1492074506,248.9333333348,8.02055
1492074508,169.7333333348,9.76564
1492074510,200.9333333348,10.2457
1492074512,241.7333333348,9.36908
1492074514,186.5333333348,9.54551
1492074516,205.7333333348,9.83767
1492074518,222.5333333348,9.97771
1492074520,263.3333333348,10.6742
1492074522,313.7333333348,14.1201
1492074524,342.5333333348,13.271
1492074526,349.7333333348,8.66289
1492074528,371.3333333348,8.46731
1492074530,332.9333333348,8.16646
1492074532,337.7333333348,12.0229
1492074534,352.1333333348,11.9854
1492074536,287.3333333348,11.3366
1492074538,344.9333333348,6.20284
1492074540,340.1333333348,9.36149
1492074542,337.7333333348,6.84719
1492074544,359.3333333348,11.8546
1492074546,301.7333333348,9.36255
1492074548,340.1333333348,8.55393
1492074550,332.9333333348,6.34052
1492074552,280.1333333348,8.0772
1492074554,340.1333333348,8.67131
1492074556,318.5333333348,7.10517
1492074558,304.1333333348,9.41785
1492074560,260.9333333348,8.53008
1492074562,268.1333333348,9.92528
1492074564,284.9333333348,10.3733
1492074566,320.9333333348,9.68397
1492074570,198.5333333348,12.5251
1492074572,316.1333333348,10.5108
1492074574,337.7333333348,12.6941
1492074576,275.3333333348,12.1204
1492074578,292.1333333348,12.3217
1492074580,265.7333333348,9.42393
1492074582,244.1333333348,9.22259
1492074584,203.3333333348,13.3088
1492074586,260.9333333348,13.5246
1492074588,253.7333333348,8.45633
1492074590,196.1333333348,9.61144
1492074592,203.3333333348,10.9119
1492074594,248.9333333348,9.75394
1492074596,174.5333333348,10.994
1492074598,200.9333333348,9.94695
1492074600,217.7333333348,10.7844
1492074602,220.1333333348,11.0786
1492074604,246.5333333348,11.9661
1492074606,308.9333333348,10.3614
1492074608,251.3333333348,10.9727
1492074610,260.9333333348,10.9937
1492074612,272.9333333348,10.8288
1492074614,200.9333333348,9.75007
1492074616,292.1333333348,10.1118
1492074618,268.1333333348,9.86847
1492074620,251.3333333348,10.8981
1492074622,268.1333333348,10.8055
1492074624,198.5333333348,10.0525
1492074626,205.7333333348,10.6056
1492074628,263.3333333348,7.71424
1492074630,203.3333333348,7.5394
1492074632,232.1333333348,11.4395
1492074634,268.1333333348,9.69633
1492074636,253.7333333348,10.6164
1492074638,224.9333333348,11.5329
1492074640,287.3333333348,6.67431
1492074642,222.5333333348,5.52337
1492074644,263.3333333348,12.7982
1492074646,306.5333333348,8.28023
1492074648,270.5333333348,8.38787
1492074650,275.3333333348,8.29258
1492074652,234.5333333348,8.54934
1492074654,265.7333333348,8.51279
1492074656,258.5333333348,7.84363
1492074658,244.1333333348,10.0669
1492074660,320.9333333348,11.0589
1492074662,253.7333333348,8.50385
1492074664,270.5333333348,8.62117
1492074666,234.5333333348,10.2196
1492074668,239.3333333348,10.0336
1492074670,260.9333333348,9.42197
1492074672,320.9333333348,10.9251
1492074674,263.3333333348,10.0234
1492074676,248.9333333348,6.35001
1492074678,227.3333333348,7.0153
1492074680,229.7333333348,9.57222
1492074682,244.1333333348,8.87092
1492074684,296.9333333348,10.4517
1492074686,215.3333333348,9.58904
1492074688,256.1333333348,6.50131
1492074690,260.9333333348,6.67421
1492074692,229.7333333348,9.00167
1492074694,224.9333333348,11.18
1492074696,282.5333333348,10.2274
1492074698,160.1333333348,10.7654
1492074700,229.7333333348,9.2158
1492074702,253.7333333348,9.25652
1492074704,248.9333333348,10.6959
1492074706,275.3333333348,9.55713
1492074708,239.3333333348,10.271
1492074710,229.7333333348,9.18118
1492074712,198.5333333348,8.57919
1492074714,236.9333333348,8.80501
1492074716,248.9333333348,8.51034
1492074718,277.7333333348,9.78727
1492074720,200.9333333348,10.8191
1492074722,174.5333333348,9.6686
1492074724,258.5333333348,9.75839
1492074726,212.9333333348,9.46022
1492074728,232.1333333348,6.43782
1492074730,306.5333333348,6.87411
1492074732,258.5333333348,6.34125
1492074734,203.3333333348,10.2948
1492074736,210.5333333348,6.33611
1492074738,186.5333333348,8.41194
1492074740,198.5333333348,8.3119
1492074742,198.5333333348,9.1782
1492074744,205.7333333348,8.61139
1492074746,294.5333333348,8.62771
1492074748,248.9333333348,10.2393
1492074750,258.5333333348,6.93908
1492074752,263.3333333348,7.73697
1492074754,277.7333333348,6.98628
1492074756,258.5333333348,6.98442
1492074758,299.3333333348,9.9664
1492074760,253.7333333348,4.29465
1492074762,193.7333333348,4.87917
1492074764,289.7333333348,4.71649
1492074766,289.7333333348,8.21881
1492074768,275.3333333348,7.2128
1492074770,251.3333333348,6.44584
1492074772,241.7333333348,6.69489
1492074774,272.9333333348,8.51741
1492074776,246.5333333348,6.5925
1492074778,200.9333333348,5.48505
1492074780,265.7333333348,4.44597
1492074782,268.1333333348,5.96001
1492074784,256.1333333348,7.18425
1492074786,251.3333333348,4.86087
1492074788,272.9333333348,5.13787
1492074790,256.1333333348,6.69326
1492074792,280.1333333348,7.59191
1492074794,188.9333333348,4.27446
1492074796,212.9333333348,4.87092
1492074798,236.9333333348,6.99715
1492074800,241.7333333348,9.0874
1492074802,335.3333333348,8.11799
1492074804,258.5333333348,8.98313
1492074806,227.3333333348,9.82657
1492074808,212.9333333348,8.44819
1492074810,191.3333333348,8.15775
1492074812,188.9333333348,10.6366
1492074814,174.5333333348,10.9499
1492074816,222.5333333348,9.56198
1492074818,220.1333333348,7.57792
1492074820,196.1333333348,10.876
1492074822,248.9333333348,9.48833
1492074824,179.3333333348,8.51983
1492074826,198.5333333348,6.4152
1492074828,198.5333333348,10.4824
1492074830,196.1333333348,9.30758
1492074832,196.1333333348,8.61092
1492074834,210.5333333348,9.62121
1492074836,220.1333333348,8.67627
1492074838,256.1333333348,5.88928
1492074840,246.5333333348,7.11109
1492074842,241.7333333348,5.93479
1492074844,330.5333333348,9.191
1492074846,340.1333333348,10.1547
1492074848,335.3333333348,8.69403
1492074850,400.1333333348,8.99571
1492074852,349.7333333348,9.61493
1492074854,356.9333333348,7.08808
1492074856,378.5333333348,8.71762
1492074858,337.7333333348,8.22329
1492074860,318.5333333348,6.79004
1492074862,383.3333333348,7.99509
1492074864,320.9333333348,7.68593
1492074866,364.1333333348,5.88213
1492074868,368.9333333348,7.25243
1492074870,330.5333333348,6.01586
1492074872,328.1333333348,6.37546
1492074874,347.3333333348,8.45534
1492074876,335.3333333348,9.10567
1492074878,364.1333333348,8.70238
1492074880,328.1333333348,7.51057
1492074882,347.3333333348,10.6204
1492074884,400.1333333348,10.6361
1492074886,373.7333333348,8.75493
1492074888,340.1333333348,8.13666
1492074890,407.3333333348,5.62245
1492074892,347.3333333348,6.89124
1492074894,344.9333333348,8.92216
1492074896,364.1333333348,8.65506
1492074898,337.7333333348,9.72171
1492074900,340.1333333348,8.2314
1492074902,366.5333333348,7.9293
1492074904,313.7333333348,9.97848
1492074906,332.9333333348,7.47052
1492074908,349.7333333348,8.32225
1492074910,356.9333333348,8.97289
1492074912,352.1333333348,7.75356
1492074914,376.1333333348,8.76359
1492074916,335.3333333348,9.96854
1492074918,356.9333333348,10.868
1492074920,397.7333333348,7.8572
1492074922,409.7333333348,6.59577
1492074924,368.9333333348,7.3796
1492074926,421.7333333348,10.436
1492074928,404.9333333348,8.8473
1492074930,476.9333333348,7.98711
1492074932,385.7333333348,8.0972
1492074934,419.3333333348,5.47047
1492074936,400.1333333348,9.07719
1492074938,407.3333333348,9.10571
1492074940,337.7333333348,8.107
1492074942,397.7333333348,8.81294
1492074944,347.3333333348,8.44409
1492074946,376.1333333348,9.01525
1492074948,378.5333333348,4.84312
1492074950,409.7333333348,8.24633
1492074952,340.1333333348,6.81315
1492074954,344.9333333348,3.55298
1492074956,337.7333333348,3.8227
1492074958,392.9333333348,7.21603
1492074960,421.7333333348,8.81028
1492074962,397.7333333348,7.63204
1492074964,352.1333333348,7.32072
1492074966,414.5333333348,8.07623
1492074968,412.1333333348,7.57281
1492074970,428.9333333348,6.95276
1492074972,414.5333333348,7.54479
1492074974,412.1333333348,7.04193
1492074976,467.3333333348,7.34351
1492074978,416.9333333348,7.54653
1492074980,378.5333333348,8.00523
1492074982,404.9333333348,9.44127
1492074984,364.1333333348,8.75878
1492074986,414.5333333348,8.33233
1492074988,397.7333333348,7.54875
1492074990,361.7333333348,11.3281
1492074992,361.7333333348,11.1712
1492074994,388.1333333348,8.47307
1492074996,356.9333333348,8.92997
1492074998,371.3333333348,9.6411
1492075000,416.9333333348,9.60452
1492075002,342.5333333348,8.13343
1492075004,361.7333333348,8.11673
1492075006,349.7333333348,6.4726
1492075008,306.5333333348,9.86652
1492075010,368.9333333348,7.08568
1492075012,390.5333333348,7.06627
1492075014,390.5333333348,7.87333
1492075016,414.5333333348,8.30924
1492075018,404.9333333348,6.83189
1492075020,419.3333333348,5.75203
1492075022,407.3333333348,6.13201
1492075024,416.9333333348,5.9509
1492075026,409.7333333348,5.23082
1492075028,421.7333333348,9.55358
1492075030,450.5333333348,9.67766
1492075032,476.9333333348,7.15143
1492075034,433.7333333348,7.35457
1492075036,419.3333333348,10.3785
1492075038,448.1333333348,7.01603
1492075040,440.9333333348,8.06127
1492075042,416.9333333348,6.80154
1492075044,428.9333333348,9.67827
1492075046,404.9333333348,8.87484
1492075048,383.3333333348,5.42313
1492075050,380.9333333348,6.34526
1492075052,424.1333333348,7.51788
1492075054,445.7333333348,8.76986
1492075056,388.1333333348,9.71301
1492075058,443.3333333348,9.68502
1492075060,409.7333333348,10.2851
1492075062,436.1333333348,9.0198
1492075064,421.7333333348,8.7459
1492075066,431.3333333348,8.03941
1492075068,371.3333333348,8.62075
1492075070,428.9333333348,7.4774
1492075072,356.9333333348,9.52472
1492075074,400.1333333348,8.33198
1492075076,371.3333333348,8.66571
1492075078,325.7333333348,9.6141
1492075080,366.5333333348,8.14835
1492075082,328.1333333348,8.7407
1492075084,352.1333333348,11.3043
1492075086,373.7333333348,10.8317
1492075088,359.3333333348,11.8443
1492075090,332.9333333348,10.6342
1492075092,354.5333333348,10.7564
1492075094,332.9333333348,11.7514
1492075096,268.1333333348,8.08717
1492075098,378.5333333348,12.6813
1492075100,289.7333333348,7.10521
1492075102,275.3333333348,6.97994
1492075104,359.3333333348,10.2937
1492075106,260.9333333348,12.1505
1492075108,241.7333333348,11.2312
1492075110,248.9333333348,10.765
1492075112,323.3333333348,12.1987
1492075114,296.9333333348,10.8728
1492075116,277.7333333348,11.3518
1492075118,236.9333333348,10.9401
1492075120,244.1333333348,8.56971
1492075122,296.9333333348,5.51085
1492075124,313.7333333348,6.17721
1492075126,332.9333333348,6.64828
1492075128,308.9333333348,9.74222
1492075130,292.1333333348,9.15175
1492075132,258.5333333348,10.2152
1492075134,260.9333333348,7.1844
1492075136,241.7333333348,8.01941
1492075138,251.3333333348,8.73264
1492075140,282.5333333348,8.79818
1492075142,260.9333333348,6.67163
1492075144,265.7333333348,10.5623
1492075146,224.9333333348,8.02743
1492075148,244.1333333348,4.50694
1492075150,294.5333333348,8.30022
1492075152,296.9333333348,8.61353
1492075154,328.1333333348,10.5233
1492075156,296.9333333348,12.5461
1492075158,248.9333333348,5.40598
1492075160,289.7333333348,8.28077
1492075162,304.1333333348,9.82444
1492075164,244.1333333348,10.1963
1492075166,308.9333333348,11.6095
1492075168,328.1333333348,9.25548
1492075170,191.3333333348,8.42093
1492075172,258.5333333348,9.41153
1492075174,272.9333333348,9.88659
1492075176,263.3333333348,11.65
1492075178,311.3333333348,9.63797
1492075180,289.7333333348,9.86454
1492075182,282.5333333348,12.066
1492075184,248.9333333348,11.8144
1492075186,191.3333333348,12.6983
1492075188,244.1333333348,8.09233
1492075190,253.7333333348,8.04345
1492075192,210.5333333348,9.1643
1492075194,289.7333333348,9.37324
1492075196,301.7333333348,9.97964
1492075198,220.1333333348,8.98299
1492075200,251.3333333348,8.79998
1492075202,203.3333333348,8.6877
1492075204,246.5333333348,10.1694
1492075206,229.7333333348,8.39477
1492075208,222.5333333348,9.50572
1492075210,200.9333333348,8.50549
1492075212,203.3333333348,8.46886
1492075214,275.3333333348,9.98033
1492075216,203.3333333348,9.52319
1492075218,203.3333333348,8.03843
1492075220,208.1333333348,8.97437
1492075222,224.9333333348,9.7083
1492075224,191.3333333348,10.7477
1492075226,191.3333333348,6.22596
1492075228,215.3333333348,7.80707
1492075230,215.3333333348,5.82828
1492075232,196.1333333348,12.2684
1492075234,236.9333333348,11.5882
1492075236,258.5333333348,12.4688
1492075238,246.5333333348,8.98867
1492075240,275.3333333348,8.5415
1492075242,188.9333333348,11.1855
1492075244,222.5333333348,11.2054
1492075246,215.3333333348,10.3589
1492075248,239.3333333348,13.7344
1492075250,191.3333333348,11.7728
1492075252,193.7333333348,10.873
1492075254,301.7333333348,12.7048
1492075256,270.5333333348,10.1233
1492075258,191.3333333348,10.8314
1492075260,268.1333333348,10.6926
1492075262,239.3333333348,10.7092
1492075264,270.5333333348,9.95979
1492075266,263.3333333348,10.5217
1492075268,246.5333333348,11.5564
1492075270,268.1333333348,12.0616
1492075272,244.1333333348,9.656
1492075274,239.3333333348,10.7711
1492075276,236.9333333348,11.0216
1492075278,335.3333333348,10.2434
1492075280,253.7333333348,9.02883
1492075282,217.7333333348,10.1274
1492075284,239.3333333348,5.80972
1492075286,220.1333333348,7.55273
1492075288,304.1333333348,8.23636
1492075290,229.7333333348,9.04646
1492075292,205.7333333348,10.9744
1492075294,256.1333333348,8.27877
1492075296,246.5333333348,10.2364
1492075298,260.9333333348,12.2956
1492075300,277.7333333348,9.0402
1492075302,256.1333333348,10.5362
1492075304,294.5333333348,8.93451
1492075306,325.7333333348,8.53713
1492075308,311.3333333348,8.87805
1492075310,344.9333333348,10.4965
1492075312,373.7333333348,9.50012
1492075314,323.3333333348,7.61068
1492075316,301.7333333348,8.63677
1492075318,323.3333333348,10.2549
1492075320,311.3333333348,10.7059
1492075322,323.3333333348,10.5438
1492075324,344.9333333348,13.4519
1492075326,316.1333333348,13.1944
1492075328,337.7333333348,11.5132
1492075330,328.1333333348,9.00931
1492075332,318.5333333348,11.169
1492075334,364.1333333348,11.3042
1492075336,419.3333333348,11.7941
1492075338,368.9333333348,11.1476
1492075340,484.1333333348,9.14947
1492075342,421.7333333348,11.4296
1492075344,433.7333333348,12.5393
1492075346,397.7333333348,10.2661
1492075348,409.7333333348,9.72447
1492075350,409.7333333348,9.52916
1492075352,419.3333333348,4.93679
1492075354,392.9333333348,6.55093
1492075356,426.5333333348,9.04918
1492075358,409.7333333348,6.39368
1492075360,378.5333333348,4.77006
1492075362,392.9333333348,5.92463
1492075364,493.7333333348,5.09776
1492075366,431.3333333348,8.7516
1492075368,510.5333333348,8.89097
1492075370,479.3333333348,8.6942
1492075372,419.3333333348,10.0372
1492075374,412.1333333348,7.28812
1492075376,431.3333333348,5.71208
1492075378,438.5333333348,7.80294
1492075380,505.7333333348,10.5019
1492075382,532.1333333348,10.9575
1492075384,503.3333333348,9.82839
1492075386,551.3333333348,9.40235
1492075388,431.3333333348,9.4327
1492075390,476.9333333348,7.87593
1492075392,421.7333333348,10.2279
1492075394,452.9333333348,6.19209
1492075396,421.7333333348,8.79689
1492075398,474.5333333348,8.69063
1492075400,404.9333333348,7.50357
1492075402,431.3333333348,6.13474
1492075404,416.9333333348,7.20583
1492075406,416.9333333348,7.04412
1492075408,440.9333333348,8.85556
1492075410,553.7333333348,7.99865
1492075412,481.7333333348,10.1691
1492075414,467.3333333348,8.01956
1492075416,512.9333333348,7.64005
1492075418,522.5333333348,6.81432
1492075420,522.5333333348,11.6381
1492075422,548.9333333348,12.5696
1492075424,503.3333333348,11.508
1492075426,508.1333333348,7.64832
1492075428,544.1333333348,5.39673
1492075430,541.7333333348,7.38408
1492075432,522.5333333348,7.21855
1492075434,551.3333333348,7.44713
1492075436,500.9333333348,6.74472
1492075438,515.3333333348,6.29913
1492075440,455.3333333348,8.16141
1492075442,448.1333333348,9.20253
1492075444,520.1333333348,7.2987
1492075446,491.3333333348,6.37817
1492075448,438.5333333348,7.16161
1492075450,428.9333333348,7.11703
1492075452,505.7333333348,6.83247
1492075454,428.9333333348,5.38593
1492075456,376.1333333348,6.36061
1492075458,438.5333333348,9.44238
1492075460,383.3333333348,7.05585
1492075462,416.9333333348,6.9978
1492075464,356.9333333348,5.07876
1492075466,371.3333333348,6.26637
1492075468,325.7333333348,6.082
1492075470,400.1333333348,7.92059
1492075472,313.7333333348,7.24801
1492075474,402.5333333348,9.78518
1492075476,337.7333333348,9.9086
1492075478,347.3333333348,9.01448
1492075480,342.5333333348,6.4064
1492075482,340.1333333348,7.68199
1492075484,287.3333333348,8.30793
1492075486,325.7333333348,9.02758
1492075488,335.3333333348,12.1559
1492075490,282.5333333348,9.48847
1492075492,311.3333333348,10.3355
1492075494,330.5333333348,9.19201
1492075496,368.9333333348,7.80022
1492075498,349.7333333348,9.40364
1492075500,344.9333333348,11.6741
1492075502,330.5333333348,8.45305
1492075504,342.5333333348,6.38532
1492075506,368.9333333348,9.97843
1492075508,376.1333333348,6.93447
1492075510,392.9333333348,8.24103
1492075512,409.7333333348,6.53848
1492075514,409.7333333348,6.81926
1492075516,397.7333333348,8.5498
1492075518,397.7333333348,6.47786
1492075520,344.9333333348,6.45416
1492075522,349.7333333348,5.32094
1492075524,301.7333333348,8.67055
1492075526,306.5333333348,8.55177
1492075528,349.7333333348,6.23227
1492075530,342.5333333348,4.70314
1492075532,330.5333333348,6.86983
1492075534,282.5333333348,6.95444
1492075536,316.1333333348,9.71828
1492075538,364.1333333348,8.84537
1492075540,328.1333333348,10.5178
1492075542,260.9333333348,11.7609
1492075544,270.5333333348,9.49412
1492075546,275.3333333348,8.06338
1492075548,304.1333333348,7.87278
1492075550,277.7333333348,8.95498
1492075552,275.3333333348,7.20663
1492075554,198.5333333348,6.62525
1492075556,294.5333333348,7.52446
1492075558,335.3333333348,8.25971
1492075560,217.7333333348,7.3336
1492075562,335.3333333348,7.63049
1492075564,265.7333333348,6.47344
1492075566,210.5333333348,7.5071
1492075568,275.3333333348,8.50758
1492075570,253.7333333348,8.97863
1492075572,212.9333333348,8.92612
1492075574,306.5333333348,8.36545
1492075576,227.3333333348,9.27455
1492075578,270.5333333348,7.95415
1492075580,296.9333333348,4.8014
1492075582,265.7333333348,7.16777
1492075584,265.7333333348,8.7373
1492075586,289.7333333348,7.61195
1492075588,251.3333333348,6.63389
1492075590,272.9333333348,9.33005
1492075592,272.9333333348,10.5676
1492075594,200.9333333348,10.6223
1492075596,215.3333333348,8.94395
1492075598,241.7333333348,8.03224
1492075600,172.1333333348,8.19577
1492075602,215.3333333348,8.83946
1492075604,193.7333333348,8.46431
1492075606,272.9333333348,8.81307
1492075608,220.1333333348,9.9915
1492075610,229.7333333348,8.15822
1492075612,196.1333333348,8.12024
1492075614,220.1333333348,7.20924
1492075616,193.7333333348,7.47173
1492075618,174.5333333348,5.93562
1492075620,174.5333333348,6.49652
1492075622,246.5333333348,8.63606
1492075624,198.5333333348,7.48147
1492075626,205.7333333348,8.76608
1492075628,260.9333333348,10.1189
1492075630,232.1333333348,8.90254
1492075632,244.1333333348,10.3424
1492075634,236.9333333348,10.0627
1492075636,241.7333333348,10.0887
1492075638,244.1333333348,10.4968
1492075640,196.1333333348,9.13086
1492075642,200.9333333348,7.68203
1492075644,272.9333333348,6.51307
1492075646,222.5333333348,7.37531
1492075648,265.7333333348,10.2118
1492075650,244.1333333348,12.3109
1492075652,200.9333333348,10.6939
1492075654,304.1333333348,10.9039
1492075656,217.7333333348,10.1527
1492075658,251.3333333348,10.7359
1492075660,188.9333333348,11.4997
1492075662,328.1333333348,9.57909
1492075664,212.9333333348,10.6586
1492075666,241.7333333348,12.5729
1492075668,292.1333333348,10.8125
1492075670,191.3333333348,9.90603
1492075672,284.9333333348,5.80572
1492075674,246.5333333348,4.25397
1492075676,234.5333333348,6.56078
1492075678,217.7333333348,8.45851
1492075680,289.7333333348,7.5918
1492075682,246.5333333348,8.36844
1492075684,258.5333333348,6.16424
1492075686,320.9333333348,6.38851
1492075688,272.9333333348,7.53806
1492075690,241.7333333348,8.79721
1492075692,287.3333333348,9.95983
1492075694,244.1333333348,9.33877
1492075696,311.3333333348,8.31668
1492075698,260.9333333348,7.33636
1492075700,234.5333333348,7.36035
1492075702,258.5333333348,6.97743
1492075704,256.1333333348,8.26394
1492075706,246.5333333348,8.63485
1492075708,284.9333333348,10.5517
1492075710,227.3333333348,8.24697
