tag_number,delay,power_est
1496883302,-9.99999999900001,22.7447
1496883304,66.8000000010001,20.8077
1496883306,14.000000001,17.3269
1496883308,66.8000000010001,22.7247
1496883310,21.200000001,20.5872
1496883312,9.20000000100003,20.572
1496883314,-12.399999999,26.4325
1496883316,45.200000001,26.0962
1496883318,59.600000001,24.5463
1496883320,2.00000000099999,20.24
1496883322,11.600000001,20.9457
1496883324,4.40000000099997,23.3765
1496883326,4.40000000099997,23.5857
1496883328,33.200000001,28.2214
1496883330,69.200000001,27.0077
1496883332,26.000000001,20.5541
1496883334,59.600000001,20.8545
1496883336,69.200000001,17.5467
1496883338,105.200000001,21.5369
1496883340,86.000000001,26.3098
1496883342,2.00000000099999,25.6404
1496883344,11.600000001,20.9075
1496883346,9.20000000100003,23.829
1496883348,66.8000000010001,21.1147
1496883350,-12.399999999,18.5599
1496883352,23.600000001,23.3625
1496883354,64.400000001,22.6277
1496883356,54.8000000010001,22.5617
1496883358,6.80000000100006,19.6069
1496883360,26.000000001,21.3285
1496883362,14.000000001,20.4593
1496883364,47.600000001,25.767
1496883366,69.200000001,26.3075
1496883368,71.600000001,29.2342
1496883370,57.200000001,25.3676
1496883372,9.20000000100003,26.0786
1496883374,71.600000001,25.6118
1496883376,40.400000001,26.9451
1496883378,45.200000001,22.9303
1496883380,42.8000000010001,21.3264
1496883382,28.400000001,23.5839
1496883384,35.600000001,26.9758
1496883386,71.600000001,27.922
1496883388,30.8000000010001,23.1178
1496883390,62.000000001,25.1456
1496883392,74.000000001,20.2147
1496883394,40.400000001,24.4584
1496883396,26.000000001,25.4489
1496883398,66.8000000010001,22.7843
1496883400,38.000000001,23.5735
1496883402,66.8000000010001,21.2177
1496883404,88.400000001,18.7699
1496883406,23.600000001,22.1438
1496883408,9.20000000100003,24.2551
1496883410,47.600000001,21.2618
1496883412,-17.1999999989999,23.0076
1496883414,-0.399999998999988,22.6445
1496883416,69.200000001,19.898
1496883418,16.400000001,20.9693
1496883420,16.400000001,26.5625
1496883422,59.600000001,24.5444
1496883424,86.000000001,20.7039
1496883426,14.000000001,18.2382
1496883428,74.000000001,21.5368
1496883430,33.200000001,19.3171
1496883432,62.000000001,20.7009
1496883434,83.600000001,22.5293
1496883436,52.400000001,23.6593
1496883438,11.600000001,18.202
1496883440,40.400000001,21.9699
1496883442,40.400000001,19.8993
1496883444,54.8000000010001,18.3659
1496883446,35.600000001,13.675
1496883448,9.20000000100003,17.4457
1496883450,-0.399999998999988,19.1747
1496883452,28.400000001,26.3585
1496883454,18.8000000010001,22.6488
1496883456,26.000000001,18.7906
1496883458,71.600000001,22.2725
1496883460,88.400000001,23.0065
1496883462,-0.399999998999988,18.5982
1496883464,66.8000000010001,21.6373
1496883466,16.400000001,23.7154
1496883468,-29.1999999989999,23.1101
1496883470,-26.799999999,25.2431
1496883472,11.600000001,22.8504
1496883474,-7.59999999900003,26.8507
1496883476,-0.399999998999988,26.9837
1496883478,21.200000001,22.6837
1496883480,50.000000001,20.8942
1496883482,21.200000001,19.6306
1496883484,35.600000001,19.7765
1496883486,16.400000001,17.4905
1496883488,14.000000001,22.2996
1496883490,11.600000001,23.7935
1496883492,4.40000000099997,26.46
1496883494,40.400000001,23.3102
1496883496,-36.399999999,22.5854
1496883498,9.20000000100003,26.5628
1496883500,4.40000000099997,24.3769
1496883502,18.8000000010001,23.1031
1496883504,14.000000001,22.6577
1496883506,-2.79999999899997,22.8162
1496883508,-9.99999999900001,22.5161
1496883510,38.000000001,19.2284
1496883512,30.8000000010001,20.1084
1496883514,-2.79999999899997,24.2286
1496883516,-26.799999999,23.155
1496883518,2.00000000099999,20.6022
1496883520,-38.799999999,23.0782
1496883522,-0.399999998999988,25.2007
1496883524,30.8000000010001,20.0928
1496883526,6.80000000100006,21.8446
1496883528,52.400000001,22.0149
1496883530,-9.99999999900001,21.4572
1496883532,4.40000000099997,22.3273
1496883534,6.80000000100006,21.1414
1496883536,33.200000001,19.3427
1496883538,-7.59999999900003,22.9063
1496883540,18.8000000010001,23.972
1496883542,50.000000001,20.0375
1496883544,26.000000001,22.7196
1496883546,-0.399999998999988,22.9329
1496883548,-14.799999999,20.991
1496883550,62.000000001,23.7381
1496883552,18.8000000010001,22.2326
1496883554,9.20000000100003,24.6032
1496883556,86.000000001,21.5394
1496883558,47.600000001,25.763
1496883560,64.400000001,27.6661
1496883562,57.200000001,24.752
1496883564,62.000000001,24.4829
1496883566,93.200000001,18.4764
1496883568,66.8000000010001,15.7283
1496883570,50.000000001,25.3578
1496883572,64.400000001,23.7719
1496883574,88.400000001,22.4759
1496883576,66.8000000010001,25.0501
1496883578,59.600000001,19.961
1496883580,71.600000001,25.5822
1496883582,71.600000001,21.3383
1496883584,26.000000001,17.5054
1496883586,59.600000001,27.5345
1496883588,59.600000001,23.6761
1496883590,-7.59999999900003,23.0207
1496883592,76.400000001,22.2882
1496883594,76.400000001,22.3499
1496883596,66.8000000010001,20.3885
1496883598,42.8000000010001,21.7344
1496883600,81.200000001,23.5413
1496883602,18.8000000010001,23.5137
1496883604,45.200000001,23.5891
1496883606,59.600000001,27.5876
1496883608,71.600000001,26.554
1496883610,4.40000000099997,26.9304
1496883612,62.000000001,22.2153
1496883614,-2.79999999899997,20.2849
1496883616,33.200000001,20.2037
1496883618,14.000000001,22.7033
1496883620,18.8000000010001,26.2165
1496883622,23.600000001,22.8223
1496883624,14.000000001,20.8299
1496883626,14.000000001,22.8794
1496883628,11.600000001,27.7453
1496883630,-19.599999999,24.5309
1496883632,62.000000001,20.6196
1496883634,-24.399999999,27.7263
1496883636,14.000000001,29.4942
1496883638,9.20000000100003,25.9714
1496883640,98.000000001,26.8972
1496883642,78.8000000010001,29.8356
1496883644,102.800000001,25.4232
1496883646,182.000000001,21.6039
1496883648,95.600000001,24.1577
1496883650,117.200000001,23.7919
1496883652,129.200000001,24.4087
1496883654,105.200000001,26.9497
1496883656,112.400000001,28.5817
1496883658,83.600000001,23.4048
1496883660,98.000000001,23.4281
1496883662,107.600000001,21.0757
1496883664,105.200000001,23.0191
1496883666,100.400000001,19.9805
1496883668,119.600000001,18.4799
1496883670,172.400000001,22.0035
1496883672,167.600000001,21.8497
1496883674,112.400000001,26.3067
1496883676,148.400000001,19.0069
1496883678,184.400000001,21.8
1496883680,129.200000001,20.5432
1496883682,110.000000001,17.8667
1496883684,143.600000001,19.2014
1496883686,172.400000001,20.0547
1496883688,148.400000001,24.3401
1496883690,215.600000001,24.211
1496883692,201.200000001,21.7181
1496883694,210.800000001,24.2563
1496883696,191.600000001,22.0938
1496883698,242.000000001,25.5811
1496883700,206.000000001,21.5757
1496883702,203.600000001,22.4382
1496883704,210.800000001,25.4994
1496883706,174.800000001,27.7804
1496883708,114.800000001,26.1498
1496883710,160.400000001,22.3278
1496883712,198.800000001,22.7205
1496883714,162.800000001,22.0573
1496883716,230.000000001,21.6235
1496883718,218.000000001,20.0794
1496883720,215.600000001,21.3818
1496883722,220.400000001,19.8784
1496883724,218.000000001,23.3712
1496883726,220.400000001,20.4917
1496883728,215.600000001,23.0668
1496883730,206.000000001,20.2148
1496883732,198.800000001,22.5993
1496883734,172.400000001,23.2351
1496883736,215.600000001,23.6404
1496883738,244.400000001,22.4195
1496883740,167.600000001,21.2635
1496883742,194.000000001,18.1122
1496883744,182.000000001,20.1432
1496883746,126.800000001,22.2209
1496883748,165.200000001,25.3525
1496883750,126.800000001,22.4037
1496883752,170.000000001,22.0239
1496883754,119.600000001,20.4345
1496883756,165.200000001,18.0618
1496883758,165.200000001,24.7795
1496883760,213.200000001,21.9711
1496883762,182.000000001,18.1318
1496883764,172.400000001,21.1346
1496883766,182.000000001,26.1277
1496883768,150.800000001,22.8895
1496883770,138.800000001,17.7659
1496883772,134.000000001,19.2896
1496883774,136.400000001,21.2359
1496883776,129.200000001,21.3589
1496883778,148.400000001,23.9317
1496883780,112.400000001,24.839
1496883782,160.400000001,28.2037
1496883784,124.400000001,26.2812
1496883786,155.600000001,28.2259
1496883788,110.000000001,22.4941
1496883790,110.000000001,23.3015
1496883792,126.800000001,21.4542
1496883794,117.200000001,23.3678
1496883796,167.600000001,26.5029
1496883798,143.600000001,27.4149
1496883800,136.400000001,18.6526
1496883802,112.400000001,18.0416
1496883804,162.800000001,19.6536
1496883806,124.400000001,23.5709
1496883808,93.200000001,19.1843
1496883810,110.000000001,15.2029
1496883812,158.000000001,19.0429
1496883814,124.400000001,19.4554
1496883816,122.000000001,20.5446
1496883818,138.800000001,23.6824
1496883820,165.200000001,24.3943
1496883822,131.600000001,18.6343
1496883824,213.200000001,23.0726
1496883826,143.600000001,24.0255
1496883828,122.000000001,25.5704
1496883830,134.000000001,21.332
1496883832,167.600000001,19.1725
1496883834,124.400000001,26.4252
1496883836,114.800000001,19.5615
1496883838,129.200000001,20.7461
1496883840,153.200000001,26.871
1496883842,162.800000001,28.4713
1496883844,160.400000001,26.0424
1496883846,129.200000001,23.6148
1496883848,177.200000001,19.7619
1496883850,155.600000001,21.2564
1496883852,222.800000001,20.8381
1496883854,107.600000001,23.4158
1496883856,143.600000001,21.2346
1496883858,158.000000001,24.6113
1496883860,110.000000001,24.5053
1496883862,146.000000001,24.891
1496883864,126.800000001,29.7803
1496883866,126.800000001,23.3217
1496883868,136.400000001,19.6169
1496883870,186.800000001,19.3567
1496883872,167.600000001,23.534
1496883874,122.000000001,25.3531
1496883876,148.400000001,23.1021
1496883878,165.200000001,24.4656
1496883880,119.600000001,20.2386
1496883882,129.200000001,24.9326
1496883884,141.200000001,23.8084
1496883886,134.000000001,26.1244
1496883888,162.800000001,23.6282
1496883890,184.400000001,22.2567
1496883892,213.200000001,20.5232
1496883894,203.600000001,24.7753
1496883896,210.800000001,21.0073
1496883898,206.000000001,23.6596
1496883900,194.000000001,25.8628
1496883902,146.000000001,16.7857
1496883904,189.200000001,21.9039
1496883906,170.000000001,17.6702
1496883908,134.000000001,18.725
1496883910,222.800000001,19.229
1496883912,170.000000001,20.0806
1496883914,107.600000001,19.625
1496883916,215.600000001,20.0365
1496883918,194.000000001,14.1998
1496883920,186.800000001,13.9618
1496883922,124.400000001,17.8067
1496883924,122.000000001,25.1329
1496883926,129.200000001,21.4459
1496883928,102.800000001,20.4736
1496883930,110.000000001,19.0749
1496883932,110.000000001,22.5164
1496883934,160.400000001,23.4448
1496883936,69.200000001,21.117
1496883938,141.200000001,21.1147
1496883940,174.800000001,21.2809
1496883942,129.200000001,18.9389
1496883944,150.800000001,14.4936
1496883946,117.200000001,17.0047
1496883948,198.800000001,16.7034
1496883950,160.400000001,17.3018
1496883952,167.600000001,24.0644
1496883954,179.600000001,24.0234
1496883956,177.200000001,22.8431
1496883958,162.800000001,23.567
1496883960,227.600000001,25.0684
1496883962,203.600000001,22.3951
1496883964,189.200000001,25.1733
1496883966,203.600000001,27.6988
1496883968,196.400000001,26.8922
1496883970,182.000000001,24.0242
1496883972,222.800000001,27.2097
1496883974,213.200000001,24.8701
1496883976,225.200000001,22.4371
1496883978,206.000000001,18.786
1496883980,232.400000001,19.7897
1496883982,237.200000001,23.1788
1496883984,244.400000001,17.9798
1496883986,249.200000001,23.9354
1496883988,244.400000001,20.7898
1496883990,251.600000001,15.0661
1496883992,230.000000001,18.0902
1496883994,266.000000001,18.0425
1496883996,261.200000001,19.8807
1496883998,292.400000001,19.029
1496884000,282.800000001,16.6828
1496884002,251.600000001,18.3668
1496884004,218.000000001,18.0059
1496884006,246.800000001,19.153
1496884008,268.400000001,19.9006
1496884010,215.600000001,18.0597
1496884012,225.200000001,17.1936
1496884014,196.400000001,19.1511
1496884016,230.000000001,20.7551
1496884018,167.600000001,21.769
1496884020,225.200000001,21.2337
1496884022,208.400000001,19.3128
1496884024,242.000000001,16.0091
1496884026,232.400000001,23.3089
1496884028,225.200000001,22.1969
1496884030,184.400000001,26.4011
1496884032,225.200000001,25.4258
1496884034,237.200000001,23.0077
1496884036,227.600000001,20.0137
1496884038,256.400000001,20.4548
1496884040,225.200000001,21.5766
1496884042,182.000000001,25.1217
1496884044,201.200000001,22.6899
1496884046,213.200000001,28.0015
1496884048,179.600000001,28.3006
1496884050,201.200000001,28.9242
1496884052,162.800000001,27.094
1496884054,225.200000001,22.5708
1496884056,167.600000001,24.8734
1496884058,148.400000001,18.2152
1496884060,143.600000001,17.8494
1496884062,162.800000001,21.6083
1496884064,126.800000001,19.0791
1496884066,141.200000001,21.2783
1496884068,155.600000001,21.5262
1496884070,143.600000001,24.5756
1496884072,141.200000001,26.5417
1496884074,122.000000001,21.0865
1496884076,153.200000001,23.8963
1496884078,134.000000001,25.7252
1496884080,141.200000001,23.6359
1496884082,191.600000001,24.6
1496884084,138.800000001,24.5492
1496884086,95.600000001,23.4851
1496884088,194.000000001,26.7116
1496884090,117.200000001,20.1165
1496884092,143.600000001,18.9696
1496884094,167.600000001,20.2845
1496884096,107.600000001,16.3731
1496884098,148.400000001,21.5934
1496884100,146.000000001,20.9427
1496884102,160.400000001,22.1945
1496884104,153.200000001,17.7518
1496884106,189.200000001,21.445
1496884108,186.800000001,18.0275
1496884110,182.000000001,19.5756
1496884112,165.200000001,23.3218
1496884114,136.400000001,23.7259
1496884116,150.800000001,24.9056
1496884118,117.200000001,16.5141
1496884120,196.400000001,16.6781
1496884122,134.000000001,9.82471
1496884124,138.800000001,17.6673
1496884126,119.600000001,16.717
1496884128,148.400000001,17.2263
1496884130,143.600000001,24.4778
1496884132,131.600000001,14.7723
1496884134,148.400000001,13.3596
1496884136,174.800000001,15.5919
1496884138,141.200000001,15.8804
1496884140,90.8000000009999,20.0028
1496884142,198.800000001,20.0158
1496884144,112.400000001,21.1415
1496884146,76.400000001,22.9955
1496884148,122.000000001,20.1769
1496884150,112.400000001,17.4587
1496884152,102.800000001,23.0395
1496884154,95.600000001,22.6862
1496884156,134.000000001,19.4208
1496884158,124.400000001,20.4865
1496884160,105.200000001,19.2807
1496884162,134.000000001,19.0932
1496884164,98.000000001,22.4506
1496884166,107.600000001,20.9352
1496884168,170.000000001,23.1669
1496884170,184.400000001,22.3172
1496884172,179.600000001,20.7367
1496884174,148.400000001,19.2422
1496884176,170.000000001,21.6275
1496884178,160.400000001,21.2699
1496884180,122.000000001,20.9112
1496884182,165.200000001,22.4389
1496884184,114.800000001,21.624
1496884186,114.800000001,21.4268
1496884188,102.800000001,20.2747
1496884190,138.800000001,18.6411
1496884192,122.000000001,21.0262
1496884194,95.600000001,18.9813
1496884196,138.800000001,18.0211
1496884198,146.000000001,22.2447
1496884200,83.600000001,23.9012
1496884202,117.200000001,19.6837
1496884204,107.600000001,22.2729
1496884206,122.000000001,23.0166
1496884208,105.200000001,21.6558
1496884210,102.800000001,18.9505
1496884212,117.200000001,20.6085
1496884214,124.400000001,22.7588
1496884216,102.800000001,24.6243
1496884218,117.200000001,21.3465
1496884220,64.400000001,23.4294
1496884222,88.400000001,21.8048
1496884224,131.600000001,21.531
1496884226,117.200000001,24.153
1496884228,110.000000001,21.0772
1496884230,107.600000001,21.7706
1496884232,112.400000001,20.6776
1496884234,148.400000001,31.3763
1496884236,141.200000001,27.9524
1496884238,143.600000001,22.9466
1496884240,119.600000001,21.5543
1496884242,100.400000001,18.3469
1496884244,93.200000001,18.4701
1496884246,105.200000001,19.9639
1496884248,47.600000001,20.5848
1496884250,110.000000001,16.1638
1496884252,107.600000001,19.707
1496884254,78.8000000010001,20.2666
1496884256,134.000000001,24.5852
1496884258,131.600000001,22.3229
1496884260,122.000000001,24.751
1496884262,74.000000001,22.3552
1496884264,105.200000001,23.6875
1496884266,126.800000001,20.3892
1496884268,102.800000001,20.8064
1496884270,117.200000001,17.6307
1496884272,119.600000001,20.7124
1496884274,74.000000001,23.6853
1496884276,100.400000001,22.5494
1496884278,110.000000001,23.1893
1496884280,126.800000001,23.2438
1496884282,114.800000001,21.003
1496884284,90.8000000009999,21.7986
1496884286,117.200000001,23.9262
1496884288,78.8000000010001,20.3123
1496884290,88.400000001,21.056
1496884292,100.400000001,22.333
1496884294,81.200000001,20.8757
1496884296,117.200000001,25.718
1496884298,126.800000001,22.3481
1496884300,112.400000001,20.4369
1496884302,88.400000001,26.8199
1496884304,102.800000001,25.6622
1496884306,110.000000001,23.4183
1496884308,90.8000000009999,26.8648
1496884310,107.600000001,23.2571
1496884312,117.200000001,21.1244
1496884314,122.000000001,20.7135
1496884316,78.8000000010001,18.5993
1496884318,114.800000001,21.6069
1496884320,153.200000001,15.9865
1496884322,105.200000001,16.193
1496884324,134.000000001,22.3114
1496884326,107.600000001,24.4349
1496884328,110.000000001,24.1783
1496884330,78.8000000010001,23.869
1496884332,124.400000001,21.7418
1496884334,134.000000001,22.2534
1496884336,90.8000000009999,21.4855
1496884338,146.000000001,20.6328
1496884340,143.600000001,18.3288
1496884342,98.000000001,21.3664
1496884344,78.8000000010001,22.2175
1496884346,129.200000001,27.9776
1496884348,114.800000001,22.8995
1496884350,83.600000001,22.6398
1496884352,88.400000001,27.034
1496884354,83.600000001,24.783
1496884356,122.000000001,26.9626
1496884358,98.000000001,23.3509
1496884360,90.8000000009999,21.3674
1496884362,112.400000001,25.523
1496884364,102.800000001,26.9916
1496884366,126.800000001,27.277
1496884368,143.600000001,26.1254
1496884370,81.200000001,24.9498
1496884372,126.800000001,21.7358
1496884374,122.000000001,22.3753
1496884376,114.800000001,23.5099
1496884378,83.600000001,21.5969
1496884380,220.400000001,23.9245
1496884382,138.800000001,27.8533
1496884384,134.000000001,20.8684
1496884386,160.400000001,26.7577
1496884388,153.200000001,27.814
1496884390,124.400000001,18.6018
1496884392,141.200000001,22.6299
1496884394,198.800000001,24.0368
1496884396,153.200000001,23.6724
1496884398,153.200000001,23.9782
1496884400,155.600000001,21.732
1496884402,138.800000001,28.5183
1496884404,146.000000001,25.1994
1496884406,143.600000001,30.6789
1496884410,138.800000001,28.5202
1496884412,158.000000001,29.409
1496884414,222.800000001,25.5947
1496884416,150.800000001,27.9859
1496884418,141.200000001,28.3419
1496884420,98.000000001,29.0748
1496884422,148.400000001,27.1367
1496884424,146.000000001,27.3214
1496884426,126.800000001,25.1801
1496884428,148.400000001,28.3517
1496884430,167.600000001,31.1583
1496884432,150.800000001,27.7117
1496884434,184.400000001,28.9384
1496884436,184.400000001,31.2913
1496884438,146.000000001,24.717
1496884440,150.800000001,28.0297
1496884442,242.000000001,26.4844
1496884444,177.200000001,26.4797
1496884446,167.600000001,25.0104
1496884448,153.200000001,25.5182
1496884450,182.000000001,29.2068
1496884452,155.600000001,30.9623
1496884454,167.600000001,24.7797
1496884456,167.600000001,27.1201
1496884458,201.200000001,22.7876
1496884460,158.000000001,25.4279
1496884462,155.600000001,24.3105
1496884464,189.200000001,25.0917
1496884466,126.800000001,23.4876
1496884468,112.400000001,24.7069
1496884470,122.000000001,25.2779
1496884472,124.400000001,25.3179
1496884474,105.200000001,25.7043
1496884476,107.600000001,27.3377
1496884478,155.600000001,27.4968
1496884480,126.800000001,27.0666
1496884482,110.000000001,29.0042
1496884484,194.000000001,23.7963
1496884486,141.200000001,24.8309
1496884488,126.800000001,24.9951
1496884490,206.000000001,24.7925
1496884492,148.400000001,25.7184
1496884494,124.400000001,26.3857
1496884496,153.200000001,27.9786
1496884498,124.400000001,27.57
1496884500,124.400000001,28.414
1496884502,184.400000001,23.0442
1496884504,136.400000001,21.0474
1496884506,143.600000001,23.1958
1496884508,220.400000001,22.6789
1496884510,105.200000001,19.376
1496884512,110.000000001,18.2792
1496884514,110.000000001,19.9161
1496884516,112.400000001,23.5302
1496884518,141.200000001,19.8321
1496884520,143.600000001,19.2891
1496884522,100.400000001,23.8825
1496884524,112.400000001,24.5348
1496884526,102.800000001,21.1379
1496884528,146.000000001,19.7703
1496884530,141.200000001,18.831
1496884532,158.000000001,21.3777
1496884534,105.200000001,22.3929
1496884536,112.400000001,23.1306
1496884538,186.800000001,19.9212
1496884540,172.400000001,20.095
1496884542,170.000000001,14.1571
1496884544,126.800000001,22.303
1496884546,107.600000001,18.2203
1496884548,170.000000001,18.5954
1496884550,189.200000001,27.6472
1496884552,186.800000001,18.7179
1496884554,225.200000001,18.2084
1496884556,165.200000001,20.104
1496884558,179.600000001,22.7103
1496884560,225.200000001,18.2608
1496884562,232.400000001,18.3808
1496884564,160.400000001,24.6305
1496884566,203.600000001,24.253
1496884568,285.200000001,20.1712
1496884570,251.600000001,24.9053
1496884572,150.800000001,22.5371
1496884574,206.000000001,20.9726
1496884576,186.800000001,22.6895
1496884578,153.200000001,25.3523
1496884580,225.200000001,22.9862
1496884582,244.400000001,23.9219
1496884584,153.200000001,24.2298
1496884586,143.600000001,28.302
1496884588,162.800000001,23.5072
1496884590,177.200000001,26.2589
1496884592,136.400000001,23.0927
1496884594,141.200000001,23.1803
1496884596,155.600000001,22.729
1496884598,141.200000001,21.9866
1496884600,162.800000001,26.1452
1496884602,167.600000001,25.1779
1496884604,165.200000001,24.2028
1496884606,143.600000001,26.4817
1496884608,162.800000001,23.3974
1496884610,222.800000001,26.426
1496884612,230.000000001,23.9129
1496884614,287.600000001,25.3784
1496884616,330.800000001,21.2592
1496884618,314.000000001,19.3021
1496884620,405.200000001,18.5636
1496884622,359.600000001,16.0858
1496884624,263.600000001,16.2571
1496884626,261.200000001,18.2925
1496884628,333.200000001,15.107
1496884630,314.000000001,22.4726
1496884632,249.200000001,18.2479
1496884634,299.600000001,22.5307
1496884636,318.800000001,25.1199
1496884638,256.400000001,24.9054
1496884640,268.400000001,19.3557
1496884642,268.400000001,23.0871
1496884644,292.400000001,23.7823
1496884646,309.200000001,23.5216
1496884648,316.400000001,18.9988
1496884650,278.000000001,21.174
1496884652,280.400000001,22.6781
1496884654,268.400000001,19.4369
1496884656,311.600000001,17.6207
1496884658,215.600000001,20.0915
1496884660,210.800000001,20.5601
1496884662,249.200000001,19.6216
1496884664,210.800000001,20.473
1496884666,218.000000001,18.8263
1496884668,170.000000001,19.0207
1496884670,225.200000001,22.8693
1496884672,201.200000001,20.026
1496884674,148.400000001,20.7432
1496884676,227.600000001,18.2727
1496884678,251.600000001,19.7464
1496884680,167.600000001,15.8301
1496884682,232.400000001,22.0098
1496884684,232.400000001,22.9108
1496884686,244.400000001,19.5957
1496884688,237.200000001,23.3394
1496884690,218.000000001,20.2969
1496884692,263.600000001,13.5445
1496884694,242.000000001,19.5511
1496884696,266.000000001,19.6107
1496884698,285.200000001,21.1075
1496884700,261.200000001,20.6003
1496884702,237.200000001,20.135
1496884704,249.200000001,23.4935
1496884706,242.000000001,24.1575
1496884708,246.800000001,23.235
1496884710,129.200000001,22.4212
1496884712,184.400000001,16.283
1496884714,220.400000001,20.3386
1496884716,186.800000001,20.8537
1496884718,148.400000001,19.2428
1496884720,189.200000001,19.0944
1496884722,227.600000001,21.765
1496884724,146.000000001,19.3125
1496884726,148.400000001,16.8159
1496884728,107.600000001,15.2751
1496884730,179.600000001,19.3243
1496884732,110.000000001,16.4591
1496884734,119.600000001,18.5818
1496884736,100.400000001,15.4366
1496884738,110.000000001,23.6607
1496884740,102.800000001,18.5673
1496884742,102.800000001,20.4341
1496884744,100.400000001,17.6524
1496884746,100.400000001,23.1425
1496884748,100.400000001,20.4269
1496884750,119.600000001,13.5039
1496884752,86.000000001,14.4652
1496884754,110.000000001,15.2763
1496884756,143.600000001,15.8657
1496884758,100.400000001,16.2781
1496884760,78.8000000010001,17.2909
1496884762,98.000000001,15.345
1496884764,76.400000001,18.3557
1496884766,21.200000001,15.4571
1496884768,71.600000001,14.7195
1496884770,83.600000001,11.1882
1496884772,78.8000000010001,12.1519
1496884774,11.600000001,11.9965
1496884776,40.400000001,18.3585
1496884778,66.8000000010001,15.2493
1496884780,83.600000001,21.3044
1496884782,54.8000000010001,20.9864
1496884784,114.800000001,20.5278
1496884786,129.200000001,20.1807
1496884788,138.800000001,18.5808
1496884790,126.800000001,20.3445
1496884792,150.800000001,17.5734
1496884794,218.000000001,19.0233
1496884796,251.600000001,22.2382
1496884798,266.000000001,20.0792
1496884800,340.400000001,23.0626
1496884802,278.000000001,16.9183
1496884804,256.400000001,19.0006
1496884806,311.600000001,20.7415
1496884808,261.200000001,20.8882
1496884810,249.200000001,21.9804
1496884812,297.200000001,20.1988
1496884814,285.200000001,17.8783
1496884816,246.800000001,15.1553
1496884818,270.800000001,21.7099
1496884820,316.400000001,18.1177
1496884822,285.200000001,17.5814
1496884824,249.200000001,15.6857
1496884826,251.600000001,18.6108
1496884828,314.000000001,19.764
1496884830,294.800000001,21.702
1496884832,256.400000001,20.4774
1496884834,309.200000001,22.3978
1496884836,285.200000001,20.6673
1496884838,256.400000001,19.8387
1496884840,268.400000001,19.7096
1496884842,261.200000001,15.9743
1496884844,268.400000001,20.8021
1496884846,256.400000001,20.9135
1496884848,268.400000001,17.1762
1496884850,239.600000001,18.6623
1496884852,239.600000001,18.4694
1496884854,268.400000001,19.6728
1496884856,246.800000001,22.0159
1496884858,258.800000001,19.2268
1496884860,213.200000001,21.7676
1496884862,232.400000001,19.8656
1496884864,249.200000001,23.9035
1496884866,201.200000001,17.151
1496884868,246.800000001,23.6125
1496884870,244.400000001,23.2733
1496884872,206.000000001,15.0381
1496884874,198.800000001,15.4912
1496884876,263.600000001,22.7381
1496884878,263.600000001,22.4783
1496884880,124.400000001,25.1169
1496884882,189.200000001,20.0615
1496884884,225.200000001,22.1673
1496884886,155.600000001,21.2563
1496884888,186.800000001,23.8429
1496884890,198.800000001,20.2834
1496884892,198.800000001,15.6688
1496884894,196.400000001,18.9713
1496884896,213.200000001,19.5061
1496884898,230.000000001,12.4012
1496884900,210.800000001,12.1735
1496884902,201.200000001,13.2869
1496884904,225.200000001,19.8601
1496884906,225.200000001,22.8775
1496884908,179.600000001,21.7699
1496884910,311.600000001,15.8984
1496884912,198.800000001,20.0605
1496884914,150.800000001,17.3232
1496884916,196.400000001,18.3406
1496884918,174.800000001,21.0887
1496884920,227.600000001,18.5762
1496884922,220.400000001,19.036
1496884924,220.400000001,17.8812
1496884926,208.400000001,17.9267
1496884928,249.200000001,20.0148
1496884930,182.000000001,15.5537
1496884932,249.200000001,14.7866
1496884934,210.800000001,16.2849
1496884936,218.000000001,15.0087
1496884938,208.400000001,16.7784
1496884940,225.200000001,16.226
1496884942,148.400000001,16.9437
1496884944,141.200000001,20.4648
1496884946,189.200000001,21.545
1496884948,232.400000001,18.4463
1496884950,186.800000001,12.6875
1496884952,227.600000001,13.4639
1496884954,177.200000001,15.6996
1496884956,227.600000001,18.9069
1496884958,227.600000001,21.2875
1496884960,249.200000001,21.0055
1496884962,249.200000001,26.5662
1496884964,242.000000001,25.2943
1496884966,275.600000001,21.7047
1496884968,316.400000001,19.0905
1496884970,256.400000001,20.1014
1496884972,239.600000001,19.153
1496884974,251.600000001,17.7739
1496884976,237.200000001,20.8543
1496884978,258.800000001,20.0694
1496884980,215.600000001,22.786
1496884982,244.400000001,24.5709
1496884984,246.800000001,23.1521
1496884986,179.600000001,19.6507
1496884988,210.800000001,23.6348
1496884990,213.200000001,21.2655
1496884992,244.400000001,23.7266
1496884994,242.000000001,23.2908
1496884996,239.600000001,24.9242
1496884998,268.400000001,23.6477
1496885000,206.000000001,22.1551
1496885002,282.800000001,23.0004
1496885004,304.400000001,22.9245
1496885006,278.000000001,20.7101
1496885008,268.400000001,23.5107
1496885010,251.600000001,25.5759
1496885012,263.600000001,21.7095
1496885014,268.400000001,21.325
1496885016,246.800000001,14.894
1496885018,270.800000001,21.4595
1496885020,194.000000001,19.386
1496885022,227.600000001,23.5899
1496885024,165.200000001,16.8751
1496885026,239.600000001,17.3113
1496885028,198.800000001,19.5189
1496885030,222.800000001,22.9754
1496885032,150.800000001,18.2587
1496885034,165.200000001,18.9888
1496885036,174.800000001,17.9705
1496885038,153.200000001,24.1646
1496885040,186.800000001,24.2295
1496885042,184.400000001,20.6119
1496885044,206.000000001,19.853
1496885046,203.600000001,17.9919
1496885048,177.200000001,19.3108
1496885050,172.400000001,22.539
1496885052,141.200000001,20.5415
1496885054,177.200000001,20.678
1496885056,215.600000001,23.1435
1496885058,198.800000001,24.9842
1496885060,143.600000001,22.944
1496885062,158.000000001,21.8821
1496885064,141.200000001,21.1395
1496885066,107.600000001,20.2148
1496885068,155.600000001,22.3837
1496885070,155.600000001,19.858
1496885072,184.400000001,17.8085
1496885074,129.200000001,21.4146
1496885076,194.000000001,19.1362
1496885078,220.400000001,19.5254
1496885080,258.800000001,22.8005
1496885082,191.600000001,23.7428
1496885084,227.600000001,23.4265
1496885086,258.800000001,21.0632
1496885088,254.000000001,23.6342
1496885090,258.800000001,21.9096
1496885092,311.600000001,18.7185
1496885094,270.800000001,15.796
1496885096,263.600000001,14.7811
1496885098,302.000000001,15.7195
1496885100,256.400000001,20.4642
1496885102,285.200000001,21.0522
1496885104,256.400000001,22.9019
1496885106,273.200000001,17.3404
1496885108,254.000000001,20.519
1496885110,227.600000001,22.0878
1496885112,261.200000001,21.0951
1496885114,266.000000001,24.8493
1496885116,242.000000001,15.6868
1496885118,266.000000001,20.5723
1496885120,249.200000001,21.9377
1496885122,249.200000001,20.984
1496885124,251.600000001,22.5216
1496885126,220.400000001,22.6877
1496885128,244.400000001,25.3897
1496885130,237.200000001,28.9554
1496885132,246.800000001,23.982
1496885134,261.200000001,25.2433
1496885136,292.400000001,22.625
1496885138,242.000000001,24.2668
1496885140,285.200000001,25.2237
1496885142,297.200000001,19.8478
1496885144,220.400000001,25.8614
1496885146,251.600000001,22.5966
1496885148,261.200000001,20.4763
1496885150,254.000000001,23.7719
1496885152,237.200000001,24.448
1496885154,244.400000001,19.9421
1496885156,239.600000001,20.6011
1496885158,208.400000001,23.4049
1496885160,242.000000001,22.2468
1496885162,230.000000001,22.713
1496885164,227.600000001,23.3154
1496885166,208.400000001,23.0034
1496885168,225.200000001,23.6669
1496885170,206.000000001,22.8538
1496885172,186.800000001,24.124
1496885174,220.400000001,25.886
1496885176,249.200000001,22.1056
1496885178,194.000000001,20.6079
1496885180,210.800000001,24.8602
1496885182,196.400000001,26.7215
1496885184,227.600000001,24.3255
1496885186,170.000000001,22.0722
1496885188,225.200000001,23.6539
1496885190,263.600000001,22.3267
1496885192,280.400000001,21.7663
1496885194,246.800000001,23.5937
1496885196,282.800000001,23.8146
1496885198,239.600000001,23.8685
1496885200,249.200000001,21.4571
1496885202,251.600000001,23.4516
1496885204,302.000000001,25.5357
1496885206,290.000000001,22.1592
1496885208,244.400000001,24.2333
1496885210,244.400000001,23.0674
1496885212,242.000000001,21.0288
1496885214,268.400000001,22.9055
1496885216,254.000000001,20.8841
1496885218,261.200000001,21.6777
1496885220,234.800000001,19.6015
1496885222,254.000000001,20.2534
1496885224,230.000000001,21.0995
1496885226,244.400000001,23.65
1496885228,191.600000001,18.3347
1496885230,244.400000001,20.7066
1496885232,254.000000001,17.9775
1496885234,184.400000001,16.1265
1496885236,227.600000001,16.9011
1496885238,210.800000001,20.3714
1496885240,201.200000001,17.7339
1496885242,198.800000001,19.0021
1496885244,208.400000001,23.3123
1496885246,215.600000001,22.5835
1496885248,227.600000001,20.2722
1496885250,165.200000001,24.2796
1496885252,249.200000001,23.9692
1496885254,160.400000001,24.1849
1496885256,182.000000001,23.5972
1496885258,213.200000001,21.4988
1496885260,206.000000001,23.4261
1496885262,170.000000001,19.2195
1496885264,203.600000001,20.9226
1496885266,230.000000001,24.3617
1496885268,210.800000001,23.6359
1496885270,213.200000001,21.3685
1496885272,285.200000001,22.3646
1496885274,242.000000001,22.6179
1496885276,179.600000001,21.5288
1496885278,210.800000001,21.3735
1496885280,230.000000001,23.0388
1496885282,203.600000001,18.0982
1496885284,237.200000001,23.2585
1496885286,218.000000001,23.2305
1496885288,222.800000001,26.4543
1496885290,174.800000001,20.8726
1496885292,215.600000001,14.6968
1496885294,191.600000001,24.7867
1496885296,124.400000001,20.6419
1496885298,172.400000001,26.2668
1496885300,234.800000001,23.6149
1496885302,203.600000001,24.6652
1496885304,186.800000001,23.3786
1496885306,179.600000001,25.0641
1496885308,172.400000001,25.3711
1496885310,184.400000001,26.6643
1496885312,230.000000001,23.0406
1496885314,141.200000001,26.1082
1496885316,146.000000001,20.5663
1496885318,129.200000001,20.2498
1496885320,246.800000001,19.5673
1496885322,162.800000001,19.8259
1496885324,246.800000001,22.4184
1496885326,191.600000001,22.4431
1496885328,222.800000001,26.4838
1496885330,150.800000001,17.3643
1496885332,213.200000001,19.2009
1496885334,218.000000001,22.378
1496885336,225.200000001,19.8728
1496885338,218.000000001,21.6165
1496885340,242.000000001,22.9633
1496885342,210.800000001,23.9818
1496885344,191.600000001,23.3291
1496885346,213.200000001,22.7386
1496885348,215.600000001,21.4326
1496885350,196.400000001,20.3433
1496885352,215.600000001,23.2416
1496885354,172.400000001,20.4791
1496885356,167.600000001,18.488
1496885358,138.800000001,20.4397
1496885360,126.800000001,15.8596
1496885362,165.200000001,18.4232
1496885364,160.400000001,19.9204
1496885366,215.600000001,18.9259
1496885368,172.400000001,20.6615
1496885370,155.600000001,20.0396
1496885372,194.000000001,20.9563
1496885374,150.800000001,19.8116
1496885376,134.000000001,19.6632
1496885378,242.000000001,21.5636
1496885380,182.000000001,20.537
1496885382,194.000000001,20.0822
1496885384,167.600000001,24.1152
1496885386,239.600000001,24.1403
1496885388,227.600000001,23.4006
1496885390,210.800000001,17.0131
1496885392,244.400000001,21.6375
1496885394,194.000000001,22.1633
1496885396,215.600000001,22.9353
1496885398,234.800000001,18.7937
1496885400,244.400000001,22.2129
1496885402,153.200000001,20.6575
1496885404,234.800000001,20.2554
1496885406,249.200000001,18.6074
1496885408,222.800000001,22.8007
1496885410,261.200000001,20.3014
1496885412,242.000000001,24.3515
1496885414,258.800000001,27.5178
1496885416,270.800000001,17.8072
1496885418,266.000000001,20.969
1496885420,244.400000001,23.8372
1496885422,222.800000001,23.2356
1496885424,280.400000001,22.1602
1496885426,239.600000001,22.519
1496885428,225.200000001,26.0049
1496885430,261.200000001,22.0011
1496885432,225.200000001,19.0304
1496885434,230.000000001,22.8395
1496885436,234.800000001,22.3971
1496885438,232.400000001,21.4053
1496885440,258.800000001,22.7126
1496885442,249.200000001,20.1358
1496885444,249.200000001,17.2132
1496885446,242.000000001,22.8055
1496885448,258.800000001,20.5849
1496885450,282.800000001,20.6002
1496885452,282.800000001,22.5313
1496885454,232.400000001,22.3049
1496885456,287.600000001,20.5681
1496885458,258.800000001,22.6017
1496885460,251.600000001,23.4029
1496885462,230.000000001,21.8144
1496885464,230.000000001,22.2546
1496885466,232.400000001,20.4012
1496885468,222.800000001,20.3195
1496885470,256.400000001,19.2792
1496885472,210.800000001,19.899
1496885474,218.000000001,18.6418
1496885476,232.400000001,23.0542
1496885478,227.600000001,24.4612
1496885480,251.600000001,19.9673
1496885482,186.800000001,19.4886
1496885484,158.000000001,22.807
1496885486,225.200000001,19.1387
1496885488,246.800000001,20.6932
1496885490,227.600000001,19.1945
1496885492,203.600000001,19.9542
1496885494,230.000000001,20.3845
1496885496,227.600000001,19.6494
1496885498,227.600000001,20.9445
1496885500,220.400000001,21.1895
1496885502,242.000000001,18.8493
1496885504,174.800000001,20.3943
1496885506,246.800000001,20.1074
1496885508,249.200000001,21.4805
1496885510,227.600000001,20.8725
1496885512,242.000000001,18.3964
1496885514,256.400000001,16.8425
1496885516,263.600000001,20.9744
1496885518,254.000000001,23.5024
1496885520,273.200000001,23.641
1496885522,278.000000001,25.2124
1496885524,292.400000001,22.3378
1496885526,258.800000001,20.4671
1496885528,278.000000001,17.9318
1496885530,294.800000001,20.805
1496885532,299.600000001,22.0477
1496885534,302.000000001,21.2651
1496885536,306.800000001,25.6054
1496885538,326.000000001,21.758
1496885540,314.000000001,18.9878
1496885542,263.600000001,23.7887
1496885544,263.600000001,24.5516
1496885546,323.600000001,23.2036
1496885548,323.600000001,21.9108
1496885550,273.200000001,24.9957
1496885552,328.400000001,23.8745
1496885554,342.800000001,23.1981
1496885556,280.400000001,22.3521
1496885558,304.400000001,21.3058
1496885560,292.400000001,24.853
1496885562,275.600000001,19.9728
1496885564,251.600000001,20.5601
1496885566,263.600000001,17.5732
1496885568,244.400000001,22.9205
1496885570,230.000000001,24.1279
1496885572,282.800000001,22.2818
1496885574,232.400000001,22.5604
1496885576,239.600000001,19.2373
1496885578,203.600000001,12.7213
1496885580,249.200000001,20.0408
1496885582,230.000000001,15.9413
1496885584,246.800000001,20.2195
1496885586,258.800000001,23.6143
1496885588,218.000000001,17.402
1496885590,206.000000001,19.3666
1496885592,234.800000001,17.1331
1496885594,213.200000001,18.3748
1496885596,220.400000001,19.9427
1496885598,210.800000001,17.9874
1496885600,230.000000001,20.6818
1496885602,203.600000001,19.3397
1496885604,194.000000001,16.7897
1496885606,234.800000001,21.0691
1496885608,158.000000001,18.893
1496885610,170.000000001,21.7176
1496885612,194.000000001,19.3881
1496885614,189.200000001,20.823
1496885616,191.600000001,23.885
1496885618,218.000000001,21.5801
1496885620,237.200000001,21.8978
1496885622,222.800000001,16.0017
1496885624,210.800000001,18.3946
1496885626,244.400000001,18.7249
1496885628,172.400000001,17.3432
1496885630,177.200000001,18.2488
1496885632,174.800000001,23.577
1496885634,124.400000001,26.1153
1496885636,239.600000001,26.6395
1496885638,189.200000001,17.8057
1496885640,143.600000001,18.7195
1496885642,215.600000001,20.7524
1496885644,124.400000001,17.0491
1496885646,153.200000001,21.447
1496885648,141.200000001,24.2319
1496885650,136.400000001,20.4222
1496885652,155.600000001,21.6812
1496885654,129.200000001,18.8282
1496885656,158.000000001,22.7051
1496885658,182.000000001,18.2747
1496885660,126.800000001,21.8684
1496885662,162.800000001,23.5026
1496885664,206.000000001,18.359
1496885666,146.000000001,18.3177
1496885668,117.200000001,18.4519
1496885670,206.000000001,24.3411
1496885672,155.600000001,22.3695
1496885674,110.000000001,15.2762
1496885676,177.200000001,18.5872
1496885678,146.000000001,22.2196
1496885680,210.800000001,13.954
1496885682,122.000000001,21.1968
1496885684,167.600000001,19.5394
1496885686,148.400000001,22.3457
1496885688,196.400000001,18.2162
1496885690,210.800000001,18.137
1496885692,158.000000001,19.8521
1496885694,158.000000001,21.8142
1496885696,119.600000001,23.0429
1496885698,203.600000001,15.6309
1496885700,107.600000001,18.5222
1496885702,174.800000001,20.9834
1496885704,119.600000001,21.6235
1496885706,110.000000001,18.3093
1496885708,131.600000001,16.5006
1496885710,141.200000001,20.0663
1496885712,110.000000001,24.433
1496885714,136.400000001,13.2095
1496885716,134.000000001,16.3679
1496885718,143.600000001,20.0439
1496885720,93.200000001,18.1052
1496885722,131.600000001,20.1355
1496885724,134.000000001,18.6632
1496885726,112.400000001,18.9753
1496885728,129.200000001,16.0053
1496885730,107.600000001,22.3556
1496885732,136.400000001,21.83
1496885734,126.800000001,22.2564
1496885736,126.800000001,23.9862
1496885738,122.000000001,21.8094
1496885740,124.400000001,25.4792
1496885742,148.400000001,24.5095
1496885744,112.400000001,23.5856
1496885746,119.600000001,25.1732
1496885748,100.400000001,25.5885
1496885750,134.000000001,23.8379
1496885752,206.000000001,27.8717
1496885754,112.400000001,22.3601
1496885756,182.000000001,23.1731
1496885758,141.200000001,27.669
1496885760,129.200000001,26.9445
1496885762,160.400000001,23.2853
1496885764,143.600000001,23.7095
1496885766,165.200000001,23.1847
1496885768,105.200000001,25.8012
1496885770,117.200000001,20.2311
1496885772,141.200000001,24.4012
1496885774,114.800000001,23.7352
1496885776,95.600000001,22.1128
1496885778,93.200000001,20.8989
1496885780,167.600000001,20.9098
1496885782,124.400000001,24.3085
1496885784,148.400000001,26.4326
1496885786,150.800000001,21.7875
1496885788,150.800000001,23.4888
1496885790,153.200000001,20.8271
1496885792,114.800000001,23.1681
1496885794,126.800000001,24.5114
1496885796,95.600000001,23.5339
1496885798,136.400000001,22.9703
1496885800,88.400000001,23.6431
1496885802,102.800000001,21.7462
1496885804,102.800000001,20.3369
1496885806,112.400000001,18.7142
1496885808,114.800000001,19.0504
1496885810,98.000000001,23.2383
1496885812,158.000000001,21.953
1496885814,114.800000001,23.9503
1496885816,126.800000001,19.2652
1496885818,86.000000001,24.4149
1496885820,136.400000001,21.5284
1496885822,172.400000001,23.4492
1496885824,119.600000001,22.4068
1496885826,81.200000001,19.0253
1496885828,150.800000001,20.7402
1496885830,153.200000001,20.6065
1496885832,134.000000001,21.3154
1496885834,126.800000001,20.2346
1496885836,110.000000001,24.6175
1496885838,105.200000001,23.542
1496885840,122.000000001,20.2955
1496885842,198.800000001,20.4523
1496885844,138.800000001,22.0858
1496885846,174.800000001,19.3427
1496885848,225.200000001,16.9831
1496885850,206.000000001,20.1008
1496885852,230.000000001,19.6883
1496885854,266.000000001,16.9971
1496885856,282.800000001,18.7175
1496885858,268.400000001,20.5323
1496885860,285.200000001,19.9895
1496885862,326.000000001,21.0583
1496885864,290.000000001,18.0902
1496885866,311.600000001,23.1656
1496885868,323.600000001,22.953
1496885870,326.000000001,25.1306
1496885872,323.600000001,24.5834
1496885874,263.600000001,22.6424
1496885876,254.000000001,22.873
1496885878,261.200000001,20.5887
1496885880,302.000000001,19.375
1496885882,256.400000001,23.3611
1496885884,302.000000001,18.1051
1496885886,266.000000001,21.1497
1496885888,294.800000001,18.6289
1496885890,309.200000001,19.108
1496885892,304.400000001,19.0242
1496885894,249.200000001,18.8519
1496885896,290.000000001,18.9388
1496885898,263.600000001,18.8372
1496885900,266.000000001,20.5629
1496885902,220.400000001,21.2293
1496885904,268.400000001,20.0201
1496885906,251.600000001,16.4788
1496885908,246.800000001,16.8462
1496885910,196.400000001,20.2003
1496885912,278.000000001,23.2558
1496885914,261.200000001,14.4859
1496885916,227.600000001,20.9811
1496885918,234.800000001,18.4588
1496885920,239.600000001,22.5975
1496885922,246.800000001,17.4166
1496885924,237.200000001,17.725
1496885926,309.200000001,19.5248
1496885928,246.800000001,20.0174
1496885930,218.000000001,17.1419
1496885932,280.400000001,16.7362
1496885934,232.400000001,19.3961
1496885936,297.200000001,21.9656
1496885938,256.400000001,19.4977
1496885940,306.800000001,18.6331
1496885942,254.000000001,19.1787
1496885944,234.800000001,25.7099
1496885946,242.000000001,23.7401
1496885948,258.800000001,19.2678
1496885950,256.400000001,21.7447
1496885952,234.800000001,22.553
1496885954,258.800000001,22.5986
1496885956,242.000000001,16.3714
1496885958,246.800000001,19.4783
1496885960,222.800000001,25.8084
1496885962,239.600000001,24.0492
1496885964,246.800000001,23.8773
1496885966,242.000000001,21.0836
1496885968,222.800000001,16.7069
1496885970,201.200000001,21.4662
1496885972,215.600000001,17.8877
1496885974,230.000000001,16.7987
1496885976,201.200000001,20.3048
1496885978,218.000000001,19.8437
1496885980,225.200000001,25.3336
1496885982,194.000000001,18.7464
1496885984,222.800000001,26.295
1496885986,191.600000001,27.1212
1496885988,242.000000001,24.9741
1496885990,189.200000001,24.4441
1496885992,239.600000001,23.7072
1496885994,172.400000001,28.476
1496885996,237.200000001,28.7042
1496885998,234.800000001,21.4212
1496886000,230.000000001,22.2745
1496886002,162.800000001,29.5824
1496886004,220.400000001,28.2719
1496886006,189.200000001,26.2109
1496886008,232.400000001,24.3532
1496886010,230.000000001,23.725
1496886012,225.200000001,27.1135
1496886014,179.600000001,22.7377
1496886016,189.200000001,24.2524
1496886018,155.600000001,22.2847
1496886020,201.200000001,24.1888
1496886022,220.400000001,26.5957
1496886024,220.400000001,23.2422
1496886026,186.800000001,23.1269
1496886028,244.400000001,22.5461
1496886030,198.800000001,19.9413
1496886032,227.600000001,22.2406
1496886034,242.000000001,20.019
1496886036,179.600000001,25.296
1496886038,184.400000001,21.9119
1496886040,177.200000001,25.0564
1496886042,129.200000001,26.9672
1496886044,95.600000001,24.1099
1496886046,184.400000001,20.0139
1496886048,234.800000001,25.778
1496886050,124.400000001,24.8159
1496886052,134.000000001,26.3044
1496886054,146.000000001,22.5929
1496886056,165.200000001,23.2781
1496886058,177.200000001,21.4425
1496886060,189.200000001,22.9293
1496886062,227.600000001,22.3477
1496886064,138.800000001,20.0698
1496886066,150.800000001,18.877
1496886068,150.800000001,20.2988
1496886070,177.200000001,24.5501
1496886072,119.600000001,21.9739
1496886074,136.400000001,23.5685
1496886076,141.200000001,21.9653
1496886078,138.800000001,19.3433
1496886080,126.800000001,20.7084
1496886082,160.400000001,22.3628
1496886084,158.000000001,19.0055
1496886086,196.400000001,22.7878
1496886088,112.400000001,22.7011
1496886090,170.000000001,23.85
1496886092,198.800000001,23.2537
1496886094,150.800000001,23.3437
1496886096,191.600000001,22.5371
1496886098,162.800000001,25.292
1496886100,230.000000001,23.1604
1496886102,146.000000001,20.3451
1496886104,170.000000001,23.5873
1496886106,198.800000001,25.9006
1496886108,184.400000001,25.3016
1496886110,170.000000001,22.04
1496886112,88.400000001,25.8599
1496886114,112.400000001,19.3761
1496886116,148.400000001,23.5987
1496886118,83.600000001,24.5957
1496886120,114.800000001,18.0672
1496886122,129.200000001,21.1627
1496886124,131.600000001,20.7635
1496886126,136.400000001,23.9431
1496886128,126.800000001,23.3455
1496886130,98.000000001,22.5132
1496886132,105.200000001,21.7923
1496886134,122.000000001,22.2562
1496886136,100.400000001,22.5787
1496886138,102.800000001,25.7167
1496886140,112.400000001,21.9228
1496886142,203.600000001,20.6712
1496886144,126.800000001,21.8855
1496886146,100.400000001,21.2522
1496886148,146.000000001,18.2674
1496886150,148.400000001,21.9196
1496886152,98.000000001,25.0923
1496886154,112.400000001,23.6115
1496886156,134.000000001,19.6951
1496886158,105.200000001,20.7243
1496886160,131.600000001,18.5685
1496886162,124.400000001,18.439
1496886164,225.200000001,20.8801
1496886166,129.200000001,17.8921
1496886168,174.800000001,16.4716
1496886170,148.400000001,15.7132
1496886172,134.000000001,19.6357
1496886174,158.000000001,20.4778
1496886176,124.400000001,19.9263
1496886178,201.200000001,22.1164
1496886180,110.000000001,21.2498
1496886182,126.800000001,20.8239
1496886184,150.800000001,21.0599
1496886186,148.400000001,21.0366
1496886188,122.000000001,20.6985
1496886190,117.200000001,21.6197
1496886192,148.400000001,20.006
1496886194,119.600000001,17.2763
1496886196,141.200000001,21.3304
1496886198,182.000000001,19.7104
1496886200,122.000000001,19.5833
1496886202,107.600000001,17.969
1496886204,122.000000001,19.6895
1496886206,117.200000001,18.686
1496886208,141.200000001,21.4246
1496886210,114.800000001,22.7441
1496886212,126.800000001,21.7366
1496886214,153.200000001,16.7786
1496886216,172.400000001,19.4907
1496886218,126.800000001,15.4925
1496886220,117.200000001,18.8097
1496886222,162.800000001,24.4561
1496886224,155.600000001,23.2394
1496886226,206.000000001,15.5252
1496886228,134.000000001,17.4571
1496886230,179.600000001,10.3391
1496886232,134.000000001,18.2393
1496886234,244.400000001,18.4191
1496886236,167.600000001,20.6141
1496886238,218.000000001,21.8732
1496886240,222.800000001,23.0052
1496886242,186.800000001,16.501
1496886244,148.400000001,22.9747
1496886246,160.400000001,20.3344
1496886248,186.800000001,21.2823
1496886250,196.400000001,18.9623
1496886252,153.200000001,19.7996
1496886254,225.200000001,21.6246
1496886256,126.800000001,17.9407
1496886258,129.200000001,15.6076
1496886260,146.000000001,16.8018
1496886262,162.800000001,23.258
1496886264,143.600000001,24.9061
1496886266,189.200000001,20.937
1496886268,129.200000001,22.1877
1496886270,124.400000001,16.7149
1496886272,172.400000001,22.6237
1496886274,194.000000001,20.2628
1496886276,146.000000001,14.1339
1496886278,153.200000001,21.24
1496886280,172.400000001,24.3151
1496886282,129.200000001,18.168
1496886284,107.600000001,21.1279
1496886286,102.800000001,20.7671
1496886288,105.200000001,22.6405
1496886290,102.800000001,17.9436
1496886292,100.400000001,23.8278
1496886294,83.600000001,16.0056
1496886296,155.600000001,22.0961
1496886298,117.200000001,17.5603
1496886300,105.200000001,23.3091
1496886302,174.800000001,20.5756
1496886304,100.400000001,22.8275
1496886306,105.200000001,23.3973
1496886308,143.600000001,23.0462
1496886310,114.800000001,19.5725
1496886312,105.200000001,24.7491
1496886314,105.200000001,18.9502
1496886316,126.800000001,16.7808
1496886318,136.400000001,19.6873
1496886320,102.800000001,16.3433
1496886322,105.200000001,20.0688
1496886324,95.600000001,20.8812
1496886326,110.000000001,17.9275
1496886330,134.000000001,17.2107
1496886332,86.000000001,19.5163
1496886334,98.000000001,18.1373
1496886336,98.000000001,19.2666
1496886338,105.200000001,19.3042
1496886340,83.600000001,22.9744
1496886342,126.800000001,16.0264
1496886344,100.400000001,23.1518
1496886346,119.600000001,14.8296
1496886348,134.000000001,20.2192
1496886350,165.200000001,21.1907
1496886352,150.800000001,22.5568
1496886354,110.000000001,20.1319
1496886356,98.000000001,22.2995
1496886358,143.600000001,18.4729
1496886360,93.200000001,21.6536
1496886362,93.200000001,22.1049
1496886364,131.600000001,19.3948
1496886366,100.400000001,18.9966
1496886368,167.600000001,24.1002
1496886370,122.000000001,24.4822
1496886372,143.600000001,22.5542
1496886374,129.200000001,19.368
1496886376,98.000000001,22.3274
1496886378,114.800000001,15.3021
1496886380,124.400000001,22.2541
1496886382,117.200000001,21.7062
1496886384,100.400000001,17.4603
1496886386,93.200000001,20.3177
1496886388,112.400000001,20.4745
1496886390,88.400000001,21.6551
1496886392,66.8000000010001,19.6051
1496886394,76.400000001,22.8551
1496886396,81.200000001,24.9851
1496886398,86.000000001,24.9925
1496886400,112.400000001,21.3334
1496886402,95.600000001,20.9022
1496886404,160.400000001,18.9274
1496886406,110.000000001,17.9691
1496886408,112.400000001,22.6931
1496886410,124.400000001,21.6935
1496886412,148.400000001,23.7088
1496886414,155.600000001,13.6591
1496886416,134.000000001,21.2559
1496886418,201.200000001,19.5683
1496886420,177.200000001,21.8503
1496886422,136.400000001,23.9181
1496886424,194.000000001,26.6684
1496886426,105.200000001,21.2194
1496886428,107.600000001,23.8141
1496886430,136.400000001,19.7046
1496886432,112.400000001,25.9607
1496886434,129.200000001,26.1497
1496886436,112.400000001,19.7049
1496886438,90.8000000009999,21.0091
1496886440,102.800000001,18.7977
1496886442,117.200000001,21.9937
1496886444,129.200000001,24.0199
1496886446,105.200000001,21.9195
1496886448,100.400000001,23.7562
1496886450,138.800000001,21.4378
1496886452,114.800000001,25.7118
1496886454,88.400000001,22.4195
1496886456,126.800000001,16.9932
1496886458,146.000000001,20.2835
1496886460,119.600000001,20.9237
1496886462,162.800000001,18.9392
1496886464,126.800000001,23.0114
1496886466,93.200000001,21.8061
1496886468,117.200000001,19.9392
1496886470,124.400000001,20.7743
1496886472,146.000000001,19.4558
1496886474,138.800000001,17.7262
1496886476,146.000000001,17.1252
1496886478,105.200000001,19.2004
1496886480,93.200000001,21.831
1496886482,69.200000001,23.4003
1496886484,131.600000001,20.8606
1496886486,112.400000001,22.7108
1496886488,64.400000001,19.1268
1496886490,90.8000000009999,20.026
1496886492,98.000000001,12.0165
1496886494,90.8000000009999,14.924
1496886496,81.200000001,22.9011
1496886498,74.000000001,23.1075
1496886500,76.400000001,22.0624
1496886502,76.400000001,21.065
1496886504,107.600000001,19.4418
1496886506,105.200000001,20.9627
1496886508,81.200000001,19.3554
1496886510,69.200000001,20.4773
1496886512,102.800000001,17.1119
1496886514,64.400000001,19.8457
1496886516,100.400000001,24.0085
1496886518,117.200000001,20.6685
1496886520,90.8000000009999,23.9989
1496886522,69.200000001,24.1372
1496886524,119.600000001,22.6239
1496886526,69.200000001,18.4287
1496886528,93.200000001,20.4497
1496886530,88.400000001,15.6369
1496886532,81.200000001,24.7132
1496886534,21.200000001,20.9631
1496886536,81.200000001,25.5077
1496886538,69.200000001,22.4709
1496886540,38.000000001,20.4905
1496886542,38.000000001,16.721
1496886544,88.400000001,19.0767
1496886546,81.200000001,23.6619
1496886548,98.000000001,23.9241
1496886550,107.600000001,21.8888
1496886552,105.200000001,21.4082
1496886554,98.000000001,20.5804
1496886556,105.200000001,21.2576
1496886558,71.600000001,17.5873
1496886560,66.8000000010001,16.6064
1496886562,90.8000000009999,19.7444
1496886564,98.000000001,22.1488
1496886566,100.400000001,17.3001
1496886568,100.400000001,18.5572
1496886570,119.600000001,17.3721
1496886572,66.8000000010001,18.0513
1496886574,78.8000000010001,19.6654
1496886576,76.400000001,20.709
1496886578,131.600000001,10.6964
1496886580,102.800000001,13.1079
1496886582,64.400000001,19.6209
1496886584,102.800000001,17.6528
1496886586,102.800000001,21.9161
1496886588,146.000000001,24.8937
1496886590,83.600000001,21.7161
1496886592,124.400000001,26.4992
1496886594,59.600000001,21.7378
1496886596,64.400000001,21.6203
1496886598,76.400000001,22.4423
1496886600,95.600000001,18.2433
1496886602,100.400000001,14.7234
1496886604,141.200000001,17.3557
1496886606,95.600000001,18.6312
1496886608,90.8000000009999,17.5757
1496886610,102.800000001,21.2059
1496886612,26.000000001,21.4895
1496886614,98.000000001,20.1571
1496886616,112.400000001,21.1151
1496886618,100.400000001,21.1987
1496886620,76.400000001,19.6408
1496886622,86.000000001,22.4962
1496886624,98.000000001,21.6492
1496886626,100.400000001,20.3933
1496886628,69.200000001,15.8183
1496886630,98.000000001,18.2987
1496886632,105.200000001,20.3098
1496886634,112.400000001,24.2394
1496886636,114.800000001,19.9542
1496886638,81.200000001,21.0155
1496886640,66.8000000010001,22.9473
1496886642,95.600000001,22.4216
1496886644,148.400000001,21.4502
1496886646,93.200000001,23.8608
1496886648,102.800000001,20.2857
1496886650,98.000000001,23.8236
1496886652,126.800000001,18.0466
1496886654,76.400000001,16.6452
1496886656,105.200000001,22.3639
1496886658,102.800000001,17.8309
1496886660,88.400000001,27.1545
1496886662,95.600000001,22.5577
1496886664,150.800000001,15.6889
1496886666,90.8000000009999,16.1885
1496886668,100.400000001,21.4341
1496886670,141.200000001,20.235
1496886672,134.000000001,13.736
1496886674,88.400000001,17.2194
1496886676,158.000000001,16.1379
1496886678,141.200000001,21.6623
1496886680,83.600000001,21.3801
1496886682,114.800000001,20.9117
1496886684,153.200000001,23.4014
1496886686,107.600000001,27.6016
1496886688,90.8000000009999,23.4897
1496886690,153.200000001,23.4891
1496886692,170.000000001,23.8594
1496886694,110.000000001,22.4394
1496886696,93.200000001,20.1243
1496886698,119.600000001,21.9882
1496886700,158.000000001,20.1627
1496886702,95.600000001,21.8263
1496886704,102.800000001,21.7245
1496886706,134.000000001,22.9445
1496886708,110.000000001,19.2853
1496886710,134.000000001,22.2311
1496886712,114.800000001,22.5068
1496886714,177.200000001,22.3664
1496886716,244.400000001,23.2824
1496886718,201.200000001,23.0184
1496886720,100.400000001,20.5848
1496886722,237.200000001,23.3195
1496886724,213.200000001,21.5802
1496886726,131.600000001,22.1261
1496886728,102.800000001,19.4903
1496886730,165.200000001,19.7618
1496886732,165.200000001,19.8568
1496886734,98.000000001,21.733
1496886736,114.800000001,24.5192
1496886738,119.600000001,22.0317
1496886740,114.800000001,22.1371
1496886742,129.200000001,23.9397
1496886744,122.000000001,23.9601
1496886746,124.400000001,23.5041
1496886748,86.000000001,17.1164
1496886750,102.800000001,22.72
1496886752,119.600000001,17.7329
1496886754,122.000000001,17.2807
1496886756,117.200000001,21.291
1496886758,105.200000001,21.7402
1496886760,98.000000001,22.467
1496886762,98.000000001,21.3682
1496886764,134.000000001,18.6645
1496886766,136.400000001,18.9071
1496886768,88.400000001,15.7497
1496886770,98.000000001,15.3661
1496886772,126.800000001,19.9383
1496886774,134.000000001,16.1155
1496886776,105.200000001,17.3163
1496886778,78.8000000010001,18.2491
1496886780,57.200000001,20.3473
1496886782,69.200000001,19.665
1496886784,83.600000001,21.7392
1496886786,117.200000001,20.2774
1496886788,146.000000001,17.3286
1496886790,88.400000001,18.5449
1496886792,90.8000000009999,18.4007
1496886794,98.000000001,18.3645
1496886796,69.200000001,18.0523
1496886798,114.800000001,20.3477
1496886800,114.800000001,21.5854
1496886802,105.200000001,21.5297
1496886804,95.600000001,21.8195
1496886806,138.800000001,22.3085
1496886808,83.600000001,19.3673
1496886810,78.8000000010001,18.6709
1496886812,100.400000001,12.7487
1496886814,86.000000001,13.7076
1496886816,93.200000001,21.3259
1496886818,78.8000000010001,17.9535
1496886820,119.600000001,13.4909
1496886822,100.400000001,16.3759
1496886824,90.8000000009999,20.6575
1496886826,122.000000001,24.0968
1496886828,150.800000001,24.7357
1496886830,78.8000000010001,24.7778
1496886832,119.600000001,25.7773
1496886834,100.400000001,23.862
1496886836,90.8000000009999,25.3044
1496886838,88.400000001,20.952
1496886840,102.800000001,19.9077
1496886842,18.8000000010001,22.8902
1496886844,26.000000001,20.8915
1496886846,136.400000001,25.3631
1496886848,95.600000001,28.8482
1496886850,76.400000001,21.9171
1496886852,90.8000000009999,22.0271
1496886854,95.600000001,23.1397
1496886856,122.000000001,22.121
1496886858,134.000000001,21.6241
1496886860,107.600000001,19.9809
1496886862,74.000000001,23.5258
1496886864,112.400000001,16.0035
1496886866,165.200000001,17.8504
1496886868,98.000000001,25.7097
1496886870,105.200000001,23.8069
1496886872,134.000000001,21.6453
1496886874,126.800000001,25.9472
1496886876,62.000000001,21.7229
1496886878,129.200000001,22.3567
1496886880,102.800000001,19.6578
1496886882,88.400000001,16.7687
1496886884,95.600000001,21.3885
1496886886,102.800000001,20.6339
1496886888,114.800000001,19.6827
1496886890,52.400000001,23.7038
1496886892,52.400000001,20.8256
1496886894,138.800000001,22.2939
1496886896,105.200000001,20.6177
1496886898,98.000000001,17.9719
1496886900,86.000000001,20.3538
1496886902,98.000000001,20.8235
1496886904,119.600000001,17.7903
1496886906,78.8000000010001,20.1641
1496886908,76.400000001,21.5293
1496886910,86.000000001,23.7252
1496886912,100.400000001,18.859
1496886914,76.400000001,18.3037
1496886916,90.8000000009999,14.1648
1496886918,78.8000000010001,20.835
1496886920,117.200000001,24.2095
1496886922,102.800000001,15.6037
1496886924,28.400000001,20.8197
1496886926,122.000000001,19.4766
1496886928,102.800000001,22.9136
1496886930,98.000000001,15.6514
1496886932,112.400000001,19.5778
1496886934,124.400000001,18.9084
1496886936,100.400000001,21.12
1496886938,100.400000001,20.6396
1496886940,110.000000001,22.2972
1496886942,76.400000001,21.623
1496886944,71.600000001,22.2843
1496886946,88.400000001,20.5198
1496886948,78.8000000010001,22.4436
1496886950,35.600000001,21.8332
1496886952,112.400000001,21.6003
1496886954,122.000000001,23.3608
1496886956,93.200000001,23.318
1496886958,69.200000001,22.7095
1496886960,100.400000001,23.3382
1496886962,74.000000001,25.7771
1496886964,62.000000001,27.4165
1496886966,38.000000001,30.2086
1496886968,62.000000001,28.969
1496886970,81.200000001,19.6912
1496886972,76.400000001,24.1102
1496886974,105.200000001,25.3944
1496886976,45.200000001,23.5067
1496886978,52.400000001,19.9771
1496886980,110.000000001,17.7736
1496886982,90.8000000009999,22.965
1496886984,76.400000001,18.3903
1496886986,95.600000001,21.445
1496886988,86.000000001,21.4528
1496886990,59.600000001,15.9224
1496886992,112.400000001,14.1832
1496886994,107.600000001,18.1539
1496886996,143.600000001,19.6527
1496886998,148.400000001,20.1686
1496887000,167.600000001,18.2269
1496887002,165.200000001,20.813
1496887004,155.600000001,20.5144
1496887006,172.400000001,18.7757
1496887008,167.600000001,20.3611
1496887010,242.000000001,22.6767
1496887012,218.000000001,16.9384
1496887014,258.800000001,16.4457
1496887016,177.200000001,17.5258
1496887018,220.400000001,15.8016
1496887020,198.800000001,11.1776
1496887022,225.200000001,10.1805
1496887024,191.600000001,17.285
1496887026,239.600000001,13.0156
1496887028,225.200000001,15.9661
1496887030,242.000000001,15.7382
1496887032,196.400000001,18.2683
1496887034,244.400000001,18.5001
1496887036,280.400000001,18.8618
1496887038,297.200000001,20.3836
1496887040,318.800000001,20.5916
1496887042,285.200000001,18.9801
1496887044,311.600000001,23.3163
1496887046,314.000000001,21.3217
1496887048,328.400000001,26.0038
1496887050,376.400000001,23.9077
1496887052,354.800000001,20.0493
1496887054,354.800000001,23.2529
1496887056,359.600000001,21.8835
1496887058,333.200000001,21.1431
1496887060,347.600000001,20.0692
1496887062,335.600000001,23.6986
1496887064,354.800000001,22.3713
1496887066,326.000000001,22.7317
1496887068,398.000000001,18.7892
1496887070,335.600000001,23.0507
1496887072,316.400000001,20.092
1496887074,350.000000001,17.3764
1496887076,438.800000001,19.3744
1496887078,381.200000001,22.4514
1496887080,326.000000001,24.6678
1496887082,366.800000001,20.7576
1496887084,304.400000001,16.9591
1496887086,321.200000001,20.031
1496887088,297.200000001,17.8141
1496887090,254.000000001,21.3358
1496887092,302.000000001,22.6151
1496887094,282.800000001,21.2785
1496887096,210.800000001,19.5364
1496887098,249.200000001,24.0327
1496887100,237.200000001,27.6214
1496887102,249.200000001,27.8557
1496887104,210.800000001,17.9785
1496887106,261.200000001,22.9493
1496887108,278.000000001,26.6195
1496887110,258.800000001,20.5913
1496887112,210.800000001,20.5977
1496887114,242.000000001,22.557
1496887116,254.000000001,17.3712
1496887118,232.400000001,19.4242
1496887120,196.400000001,20.1755
1496887122,213.200000001,24.286
1496887124,227.600000001,17.7851
1496887126,148.400000001,21.141
1496887128,232.400000001,20.4644
1496887130,194.000000001,17.8022
1496887132,227.600000001,22.449
1496887134,230.000000001,19.8469
1496887136,220.400000001,24.3348
1496887138,189.200000001,23.3757
1496887140,242.000000001,19.6736
1496887142,251.600000001,21.9162
1496887144,234.800000001,24.2288
1496887146,287.600000001,24.3333
1496887148,244.400000001,26.0146
1496887150,237.200000001,18.6752
1496887152,222.800000001,18.2841
1496887154,237.200000001,11.8678
1496887156,218.000000001,25.4826
1496887158,177.200000001,18.5874
1496887160,201.200000001,14.9197
1496887162,210.800000001,18.9766
1496887164,184.400000001,17.0688
1496887166,196.400000001,14.3205
1496887168,215.600000001,12.272
1496887170,136.400000001,18.3655
1496887172,208.400000001,15.1435
1496887174,222.800000001,17.4696
1496887176,186.800000001,19.0138
1496887178,138.800000001,20.3594
1496887180,165.200000001,22.4619
1496887182,222.800000001,18.903
1496887184,134.000000001,17.711
1496887186,179.600000001,18.0139
1496887188,182.000000001,18.4377
1496887190,191.600000001,21.3019
1496887192,186.800000001,23.1322
1496887194,170.000000001,19.3752
1496887196,160.400000001,19.2523
1496887198,146.000000001,20.7336
1496887200,194.000000001,18.9185
1496887202,206.000000001,22.8202
1496887204,141.200000001,23.392
1496887206,158.000000001,26.5171
1496887208,208.400000001,20.0952
1496887210,162.800000001,18.6579
1496887212,234.800000001,23.6711
1496887214,218.000000001,21.7427
1496887216,162.800000001,15.7106
1496887218,215.600000001,14.7215
1496887220,232.400000001,16.4966
1496887222,215.600000001,18.3921
1496887224,95.600000001,23.2135
1496887226,215.600000001,22.0422
1496887228,189.200000001,22.8645
1496887230,206.000000001,21.3153
1496887232,165.200000001,16.1327
1496887234,237.200000001,19.8911
1496887236,136.400000001,21.0563
1496887238,191.600000001,20.0914
1496887240,213.200000001,25.9305
1496887242,174.800000001,21.6534
1496887244,184.400000001,22.0996
1496887246,194.000000001,16.947
1496887248,174.800000001,18.1029
1496887250,131.600000001,16.9612
1496887252,203.600000001,19.433
1496887254,239.600000001,19.7071
1496887256,206.000000001,21.1736
1496887258,198.800000001,23.5059
1496887260,220.400000001,21.3585
1496887262,254.000000001,24.4545
1496887264,225.200000001,21.5101
1496887266,232.400000001,21.2536
1496887268,239.600000001,16.8162
1496887270,230.000000001,17.362
1496887272,210.800000001,19.4279
1496887274,239.600000001,22.036
1496887276,208.400000001,22.377
1496887278,153.200000001,20.5268
1496887280,191.600000001,20.0037
1496887282,239.600000001,19.5539
1496887284,234.800000001,20.3446
1496887286,172.400000001,21.9446
1496887288,184.400000001,22.503
1496887290,93.200000001,25.1929
1496887292,155.600000001,19.2133
1496887294,184.400000001,25.3808
1496887296,131.600000001,15.2524
1496887298,210.800000001,22.4624
1496887300,194.000000001,20.7437
