tag_number,delay,power_est
1496204042,344.4000000015,15.9055
1496204044,330.0000000015,19.7666
1496204046,366.0000000015,20.9744
1496204048,366.0000000015,22.1455
1496204050,358.8000000015,22.0194
1496204052,325.2000000015,20.8698
1496204054,351.6000000015,21.2431
1496204056,351.6000000015,21.5644
1496204058,349.2000000015,24.361
1496204060,342.0000000015,20.9999
1496204062,296.4000000015,23.3219
1496204064,358.8000000015,19.9151
1496204066,361.2000000015,18.5388
1496204070,358.8000000015,21.8531
1496204072,387.6000000015,19.8518
1496204074,414.0000000015,20.98
1496204076,361.2000000015,24.1004
1496204078,351.6000000015,21.6581
1496204080,414.0000000015,21.3397
1496204082,368.4000000015,24.6192
1496204084,349.2000000015,14.6675
1496204086,382.8000000015,20.8004
1496204088,382.8000000015,21.6316
1496204090,392.4000000015,17.0562
1496204092,382.8000000015,22.0419
1496204094,394.8000000015,23.7412
1496204096,421.2000000015,20.2225
1496204098,334.8000000015,14.6411
1496204100,349.2000000015,22.8073
1496204102,411.6000000015,20.5509
1496204104,361.2000000015,23.0441
1496204106,339.6000000015,19.4439
1496204108,406.8000000015,21.2975
1496204110,387.6000000015,17.0283
1496204112,339.6000000015,16.0646
1496204114,370.8000000015,18.833
1496204116,361.2000000015,17.0808
1496204118,351.6000000015,19.2228
1496204120,327.6000000015,14.8779
1496204122,344.4000000015,18.1633
1496204124,346.8000000015,19.9131
1496204126,322.8000000015,15.126
1496204128,286.8000000015,15.2158
1496204130,229.2000000015,19.0435
1496204132,222.0000000015,19.6395
1496204134,298.8000000015,21.2042
1496204136,308.4000000015,19.4325
1496204138,325.2000000015,17.2921
1496204140,310.8000000015,11.2816
1496204142,294.0000000015,21.2622
1496204144,224.4000000015,17.3615
1496204146,255.6000000015,22.2534
1496204148,337.2000000015,15.245
1496204150,231.6000000015,15.336
1496204152,270.0000000015,15.3602
1496204154,289.2000000015,23.8341
1496204156,334.8000000015,15.8043
1496204158,322.8000000015,21.68
1496204160,346.8000000015,20.9011
1496204162,325.2000000015,20.8702
1496204164,282.0000000015,24.588
1496204166,366.0000000015,16.0837
1496204168,351.6000000015,20.0205
1496204170,320.4000000015,22.6768
1496204172,334.8000000015,22.5854
1496204174,332.4000000015,25.1769
1496204176,284.4000000015,16.8893
1496204178,265.2000000015,19.2598
1496204180,351.6000000015,23.1181
1496204182,301.2000000015,22.4913
1496204184,279.6000000015,19.8569
1496204186,255.6000000015,20.3104
1496204188,313.2000000015,18.5621
1496204190,284.4000000015,18.6069
1496204192,322.8000000015,18.3736
1496204194,310.8000000015,18.2467
1496204196,289.2000000015,20.6209
1496204198,246.0000000015,22.4185
1496204200,267.6000000015,19.1495
1496204202,289.2000000015,14.9473
1496204204,253.2000000015,18.6643
1496204206,332.4000000015,15.3551
1496204208,289.2000000015,17.5563
1496204210,274.8000000015,21.6835
1496204212,262.8000000015,24.1284
1496204214,238.8000000015,20.3109
1496204216,267.6000000015,21.9675
1496204218,262.8000000015,22.5473
1496204220,308.4000000015,26.5071
1496204222,286.8000000015,20.8307
1496204224,322.8000000015,21.5195
1496204226,318.0000000015,23.8818
1496204228,322.8000000015,21.7626
1496204230,306.0000000015,22.9437
1496204232,315.6000000015,26.8538
1496204234,322.8000000015,24.341
1496204236,306.0000000015,23.0401
1496204238,301.2000000015,23.5324
1496204240,325.2000000015,21.2171
1496204242,308.4000000015,19.3869
1496204244,289.2000000015,17.9918
1496204246,262.8000000015,20.0476
1496204248,334.8000000015,19.6209
1496204250,332.4000000015,21.4416
1496204252,298.8000000015,21.4024
1496204254,342.0000000015,19.6139
1496204256,344.4000000015,16.1733
1496204258,356.4000000015,20.9517
1496204260,399.6000000015,20.9225
1496204262,411.6000000015,13.2338
1496204264,440.4000000015,15.7274
1496204266,392.4000000015,19.7151
1496204268,423.6000000015,18.2074
1496204270,414.0000000015,15.3282
1496204272,421.2000000015,16.3724
1496204274,418.8000000015,14.6157
1496204276,428.4000000015,16.7215
1496204278,433.2000000015,16.117
1496204280,421.2000000015,20.8315
1496204282,406.8000000015,13.1083
1496204284,378.0000000015,13.7879
1496204286,390.0000000015,14.193
1496204288,368.4000000015,13.9809
1496204290,409.2000000015,15.9269
1496204292,406.8000000015,10.7764
1496204294,411.6000000015,10.5025
1496204296,447.6000000015,10.6577
1496204298,414.0000000015,7.09576
1496204300,418.8000000015,15.3172
1496204302,423.6000000015,14.9271
1496204304,428.4000000015,18.7021
1496204306,385.2000000015,15.0445
1496204308,409.2000000015,15.9863
1496204310,426.0000000015,17.2081
1496204312,406.8000000015,14.4783
1496204314,421.2000000015,14.2354
1496204316,423.6000000015,18.6663
1496204318,428.4000000015,22.0607
1496204320,416.4000000015,22.5451
1496204322,368.4000000015,15.2041
1496204324,402.0000000015,16.9732
1496204326,423.6000000015,14.9253
1496204328,370.8000000015,9.10659
1496204330,426.0000000015,13.7228
1496204332,478.8000000015,9.40184
1496204334,409.2000000015,15.3215
1496204336,416.4000000015,17.047
1496204338,416.4000000015,21.2556
1496204340,454.8000000015,16.912
1496204342,500.4000000015,15.0975
1496204344,490.8000000015,13.0879
1496204346,548.4000000015,9.95882
1496204348,462.0000000015,17.252
1496204350,459.6000000015,14.6155
1496204352,452.4000000015,17.1064
1496204354,433.2000000015,16.0178
1496204356,466.8000000015,16.5818
1496204358,426.0000000015,12.6641
1496204360,498.0000000015,12.8869
1496204362,438.0000000015,14
1496204364,440.4000000015,15.3473
1496204366,380.4000000015,18.9721
1496204368,418.8000000015,12.4801
1496204370,428.4000000015,5.43545
1496204372,373.2000000015,7.18218
1496204374,330.0000000015,9.03491
1496204376,332.4000000015,10.5261
1496204378,361.2000000015,14.2641
1496204380,332.4000000015,15.0923
1496204382,332.4000000015,10.9616
1496204384,337.2000000015,16.8767
1496204386,385.2000000015,19.1534
1496204388,349.2000000015,21.1544
1496204390,291.6000000015,21.2334
1496204392,255.6000000015,17.3401
1496204394,315.6000000015,19.1258
1496204396,282.0000000015,22.4851
1496204398,246.0000000015,23.3975
1496204400,318.0000000015,21.2545
1496204402,310.8000000015,19.4404
1496204404,310.8000000015,18.167
1496204406,274.8000000015,12.3678
1496204408,277.2000000015,16.1793
1496204410,322.8000000015,15.7671
1496204412,322.8000000015,16.4834
1496204414,330.0000000015,10.2432
1496204416,325.2000000015,15.071
1496204418,342.0000000015,18.0738
1496204420,277.2000000015,17.7329
1496204422,339.6000000015,19.412
1496204424,390.0000000015,18.5031
1496204426,366.0000000015,23.4225
1496204428,337.2000000015,15.01
1496204430,356.4000000015,19.2162
1496204432,382.8000000015,25.8446
1496204434,370.8000000015,29.4725
1496204436,351.6000000015,25.201
1496204438,363.6000000015,19.8452
1496204440,356.4000000015,14.4945
1496204442,344.4000000015,24.625
1496204444,330.0000000015,21.2638
1496204446,351.6000000015,19.8815
1496204448,327.6000000015,17.8979
1496204450,291.6000000015,20.7938
1496204452,349.2000000015,25.4436
1496204454,373.2000000015,19.0739
1496204456,334.8000000015,22.7134
1496204458,334.8000000015,27.634
1496204460,330.0000000015,22.056
1496204462,373.2000000015,12.7803
1496204464,339.6000000015,20.4565
1496204466,262.8000000015,17.9713
1496204468,349.2000000015,15.3984
1496204470,325.2000000015,14.9399
1496204472,330.0000000015,14.7925
1496204474,306.0000000015,19.1791
1496204476,298.8000000015,26.0668
1496204478,344.4000000015,25.0918
1496204480,320.4000000015,25.423
1496204482,231.6000000015,23.2377
1496204484,325.2000000015,23.5974
1496204486,286.8000000015,26.7369
1496204488,270.0000000015,20.9008
1496204490,284.4000000015,26.0042
1496204492,308.4000000015,24.6761
1496204494,258.0000000015,28.2425
1496204496,265.2000000015,24.7648
1496204498,270.0000000015,25.8642
1496204500,294.0000000015,28.5045
1496204502,334.8000000015,22.8174
1496204504,260.4000000015,23.5292
1496204506,327.6000000015,23.1548
1496204508,294.0000000015,20.0644
1496204510,219.6000000015,17.5018
1496204512,294.0000000015,17.5582
1496204514,313.2000000015,19.9577
1496204516,298.8000000015,22.0545
1496204518,272.4000000015,24.7469
1496204520,330.0000000015,35.1225
1496204522,351.6000000015,24.1176
1496204524,334.8000000015,25.0768
1496204526,334.8000000015,21.9089
1496204528,313.2000000015,23.0237
1496204530,344.4000000015,23.3428
1496204532,332.4000000015,25.634
1496204534,334.8000000015,21.7093
1496204536,320.4000000015,26.2394
1496204538,325.2000000015,22.0886
1496204540,334.8000000015,25.6442
1496204542,322.8000000015,23.4252
1496204544,284.4000000015,22.2839
1496204546,342.0000000015,21.0756
1496204548,346.8000000015,16.2427
1496204550,358.8000000015,16.7535
1496204552,402.0000000015,16.7514
1496204554,363.6000000015,17.8077
1496204556,346.8000000015,20.2708
1496204558,358.8000000015,21.0937
1496204560,378.0000000015,24.2035
1496204562,363.6000000015,20.5795
1496204564,414.0000000015,19.8764
1496204566,418.8000000015,22.2761
1496204568,426.0000000015,22.634
1496204570,442.8000000015,19.9823
1496204572,414.0000000015,26.7855
1496204574,404.4000000015,18.0266
1496204576,423.6000000015,19.8693
1496204578,440.4000000015,23.4675
1496204580,438.0000000015,19.9398
1496204582,409.2000000015,17.5809
1496204584,447.6000000015,18.9647
1496204586,404.4000000015,23.3988
1496204588,433.2000000015,20.5684
1496204590,397.2000000015,23.2144
1496204592,392.4000000015,21.9688
1496204594,356.4000000015,15.4285
1496204596,380.4000000015,17.3405
1496204598,397.2000000015,14.802
1496204600,414.0000000015,17.9999
1496204602,356.4000000015,15.5668
1496204604,370.8000000015,15.6008
1496204606,387.6000000015,22.6732
1496204608,363.6000000015,19.065
1496204610,404.4000000015,20.778
1496204612,445.2000000015,21.657
1496204614,411.6000000015,21.5103
1496204616,363.6000000015,18.625
1496204618,390.0000000015,16.5777
1496204620,363.6000000015,16.0287
1496204622,356.4000000015,19.6274
1496204624,339.6000000015,19.8543
1496204626,346.8000000015,17.805
1496204628,378.0000000015,21.8849
1496204630,363.6000000015,20.5592
1496204632,342.0000000015,17.5047
1496204634,344.4000000015,17.8481
1496204636,351.6000000015,18.8957
1496204638,361.2000000015,19.3423
1496204640,406.8000000015,20.3661
1496204642,342.0000000015,22.9437
1496204644,387.6000000015,20.067
1496204646,361.2000000015,25.7899
1496204648,349.2000000015,22.0735
1496204650,339.6000000015,17.1939
1496204652,354.0000000015,25.0798
1496204654,354.0000000015,19.1247
1496204656,378.0000000015,19.6761
1496204658,356.4000000015,21.0686
1496204660,337.2000000015,16.8685
1496204662,325.2000000015,14.1522
1496204664,351.6000000015,19.0989
1496204666,356.4000000015,19.7634
1496204668,356.4000000015,18.4987
1496204670,320.4000000015,18.266
1496204672,385.2000000015,18.62
1496204674,361.2000000015,12.9061
1496204676,339.6000000015,14.1392
1496204678,366.0000000015,18.1736
1496204680,404.4000000015,19.2194
1496204682,375.6000000015,20.4982
1496204684,411.6000000015,15.758
1496204686,346.8000000015,14.7376
1496204688,390.0000000015,23.8941
1496204690,390.0000000015,21.5298
1496204692,411.6000000015,20.0661
1496204694,406.8000000015,19.7091
1496204696,399.6000000015,20.6952
1496204698,385.2000000015,16.9864
1496204700,346.8000000015,19.8302
1496204702,356.4000000015,18.6195
1496204704,378.0000000015,19.2971
1496204706,361.2000000015,23.455
1496204708,416.4000000015,21.0883
1496204710,399.6000000015,22.7208
1496204712,368.4000000015,15.5118
1496204714,354.0000000015,20.4897
1496204716,358.8000000015,17.6708
1496204718,394.8000000015,19.8749
1496204720,406.8000000015,21.4142
1496204722,363.6000000015,18.9832
1496204724,363.6000000015,20.0756
1496204726,339.6000000015,20.2053
1496204728,344.4000000015,20.7455
1496204730,370.8000000015,19.6976
1496204732,363.6000000015,23.4272
1496204734,361.2000000015,20.0905
1496204736,390.0000000015,13.3239
1496204738,330.0000000015,22.8851
1496204740,404.4000000015,22.6031
1496204742,356.4000000015,19.732
1496204744,430.8000000015,21.9539
1496204746,366.0000000015,17.8309
1496204748,370.8000000015,12.7047
1496204750,385.2000000015,18.2881
1496204752,418.8000000015,21.7096
1496204754,342.0000000015,19.9572
1496204756,361.2000000015,19.3321
1496204758,416.4000000015,21.1751
1496204760,406.8000000015,19.9724
1496204762,399.6000000015,21.8984
1496204764,373.2000000015,23.0684
1496204766,414.0000000015,18.1365
1496204768,380.4000000015,20.1195
1496204770,375.6000000015,18.3625
1496204772,387.6000000015,21.9098
1496204774,409.2000000015,21.1472
1496204776,394.8000000015,21.2977
1496204778,354.0000000015,16.0184
1496204780,334.8000000015,13.4517
1496204782,382.8000000015,20.0337
1496204784,390.0000000015,19.0169
1496204786,334.8000000015,16.9748
1496204788,339.6000000015,19.3407
1496204790,315.6000000015,19.5256
1496204792,325.2000000015,18.7136
1496204794,308.4000000015,21.53
1496204796,310.8000000015,17.6972
1496204798,349.2000000015,21.2846
1496204800,344.4000000015,19.0654
1496204802,339.6000000015,17.7249
1496204804,349.2000000015,17.0903
1496204806,337.2000000015,21.3027
1496204808,358.8000000015,15.6329
1496204810,313.2000000015,8.19835
1496204812,342.0000000015,18.0765
1496204814,337.2000000015,18.0824
1496204816,334.8000000015,16.9486
1496204818,334.8000000015,20.9929
1496204820,308.4000000015,19.4698
1496204822,337.2000000015,15.0839
1496204824,294.0000000015,15.2583
1496204826,349.2000000015,18.0892
1496204828,315.6000000015,19.698
1496204830,358.8000000015,13.2749
1496204832,349.2000000015,17.8009
1496204834,332.4000000015,17.9387
1496204836,330.0000000015,16.3178
1496204838,337.2000000015,17.8699
1496204840,320.4000000015,16.2589
1496204842,332.4000000015,15.3246
1496204844,334.8000000015,16.6355
1496204846,366.0000000015,15.4795
1496204848,337.2000000015,14.584
1496204850,358.8000000015,19.7891
1496204852,378.0000000015,15.0018
1496204854,414.0000000015,9.47807
1496204856,433.2000000015,10.8303
1496204858,469.2000000015,14.4098
1496204860,426.0000000015,16.0712
1496204862,433.2000000015,15.6907
1496204864,457.2000000015,14.8847
1496204866,418.8000000015,17.1098
1496204868,406.8000000015,10.383
1496204870,404.4000000015,17.8832
1496204872,418.8000000015,18.0096
1496204874,421.2000000015,17.685
1496204876,409.2000000015,13.2521
1496204878,418.8000000015,10.282
1496204880,382.8000000015,10.5329
1496204882,363.6000000015,16.3984
1496204884,404.4000000015,18.6498
1496204886,354.0000000015,15.8931
1496204888,378.0000000015,14.0892
1496204890,337.2000000015,15.2825
1496204892,363.6000000015,18.2185
1496204894,354.0000000015,21.9613
1496204896,327.6000000015,22.8211
1496204898,334.8000000015,18.5524
1496204900,351.6000000015,21.4377
1496204902,334.8000000015,18.6684
1496204904,337.2000000015,17.0374
1496204906,318.0000000015,22.9447
1496204908,344.4000000015,22.3259
1496204910,370.8000000015,19.6923
1496204912,339.6000000015,20.394
1496204914,358.8000000015,20.58
1496204916,387.6000000015,22.6518
1496204918,358.8000000015,24.9205
1496204920,368.4000000015,20.1813
1496204922,349.2000000015,22.0964
1496204924,385.2000000015,22.3451
1496204926,414.0000000015,23.8275
1496204928,358.8000000015,20.67
1496204930,260.4000000015,23.7351
1496204932,294.0000000015,20.4032
1496204934,327.6000000015,23.1718
1496204936,258.0000000015,19.1776
1496204938,342.0000000015,18.858
1496204940,327.6000000015,19.2016
1496204942,291.6000000015,19.2185
1496204944,303.6000000015,18.5182
1496204946,253.2000000015,16.3019
1496204948,301.2000000015,18.5539
1496204950,306.0000000015,17.914
1496204952,217.2000000015,18.0913
1496204954,274.8000000015,21.3735
1496204956,308.4000000015,14.7662
1496204958,258.0000000015,14.5778
1496204960,303.6000000015,21.5537
1496204962,284.4000000015,20.8567
1496204964,272.4000000015,21.0799
1496204966,262.8000000015,20.0043
1496204968,265.2000000015,21.5254
1496204970,258.0000000015,23.5848
1496204972,255.6000000015,15.7807
1496204974,236.4000000015,15.5563
1496204976,248.4000000015,18.4736
1496204978,277.2000000015,17.0048
1496204980,289.2000000015,19.5515
1496204982,260.4000000015,19.7227
1496204984,342.0000000015,17.344
1496204986,354.0000000015,16.244
1496204988,373.2000000015,16.76
1496204990,351.6000000015,20.4306
1496204992,363.6000000015,19.6687
1496204994,378.0000000015,16.0741
1496204996,392.4000000015,18.4016
1496204998,358.8000000015,16.9306
1496205000,368.4000000015,16.3293
1496205002,402.0000000015,17.0916
1496205004,373.2000000015,18.9021
1496205006,370.8000000015,16.9828
1496205008,327.6000000015,17.8811
1496205010,349.2000000015,18.3181
1496205012,373.2000000015,22.0815
1496205014,356.4000000015,21.2334
1496205016,344.4000000015,16.875
1496205018,354.0000000015,15.2085
1496205020,409.2000000015,12.2223
1496205022,406.8000000015,15.9601
1496205024,430.8000000015,14.8335
1496205026,459.6000000015,14.1042
1496205028,426.0000000015,19.4042
1496205030,382.8000000015,13.4234
1496205032,416.4000000015,15.1309
1496205034,378.0000000015,20.5737
1496205036,361.2000000015,18.2652
1496205038,310.8000000015,19.1907
1496205040,301.2000000015,16.613
1496205042,246.0000000015,15.9238
1496205044,334.8000000015,15.6687
1496205046,224.4000000015,13.9982
1496205048,248.4000000015,15.5788
1496205050,270.0000000015,14.9654
1496205052,270.0000000015,18.9908
1496205054,229.2000000015,15.572
1496205056,238.8000000015,10.9491
1496205058,250.8000000015,21.2307
1496205060,246.0000000015,14.3368
1496205062,286.8000000015,15.1577
1496205064,265.2000000015,17.7989
1496205066,298.8000000015,19.3159
1496205068,289.2000000015,15.791
1496205070,296.4000000015,12.7821
1496205072,354.0000000015,15.3241
1496205074,332.4000000015,18.1323
1496205076,322.8000000015,19.2207
1496205078,322.8000000015,20.8996
1496205080,344.4000000015,18.7973
1496205082,313.2000000015,19.285
1496205084,330.0000000015,11.9904
1496205086,346.8000000015,10.0832
1496205088,349.2000000015,18.2153
1496205090,356.4000000015,20.4897
1496205092,320.4000000015,23.1398
1496205094,342.0000000015,19.8936
1496205096,318.0000000015,21.1603
1496205098,342.0000000015,21.7143
1496205100,226.8000000015,25.1109
1496205102,243.6000000015,24.335
1496205104,315.6000000015,19.2558
1496205106,234.0000000015,21.7085
1496205108,258.0000000015,20.565
1496205110,234.0000000015,22.2112
1496205112,301.2000000015,22.1119
1496205114,212.4000000015,19.0487
1496205116,262.8000000015,19.6381
1496205118,265.2000000015,23.9959
1496205120,315.6000000015,22.5062
1496205122,253.2000000015,17.2124
1496205124,246.0000000015,20.609
1496205126,241.2000000015,20.1968
1496205128,210.0000000015,19.2233
1496205130,241.2000000015,21.0511
1496205132,193.2000000015,21.996
1496205134,255.6000000015,21.6494
1496205136,262.8000000015,21.8285
1496205138,250.8000000015,17.6428
1496205140,286.8000000015,24.2713
1496205142,253.2000000015,22.9695
1496205144,301.2000000015,19.7188
1496205146,214.8000000015,19.1871
1496205148,308.4000000015,22.5803
1496205150,315.6000000015,18.1399
1496205152,301.2000000015,19.113
1496205154,313.2000000015,16.7926
1496205156,294.0000000015,21.5809
1496205158,258.0000000015,23.922
1496205160,322.8000000015,23.3422
1496205162,301.2000000015,20.5857
1496205164,289.2000000015,15.3414
1496205166,234.0000000015,15.8472
1496205168,248.4000000015,12.2441
1496205170,322.8000000015,18.4934
1496205172,286.8000000015,20.3794
1496205174,250.8000000015,24.4403
1496205176,265.2000000015,20.606
1496205178,282.0000000015,20.3744
1496205180,363.6000000015,23.0172
1496205182,327.6000000015,17.541
1496205184,337.2000000015,25.112
1496205186,344.4000000015,21.3077
1496205188,354.0000000015,18.511
1496205190,327.6000000015,17.8925
1496205192,306.0000000015,16.2512
1496205194,363.6000000015,18.9168
1496205196,373.2000000015,20.0656
1496205198,373.2000000015,20.2674
1496205200,332.4000000015,17.2502
1496205202,342.0000000015,19.8418
1496205204,337.2000000015,22.3676
1496205206,238.8000000015,19.0763
1496205208,231.6000000015,23.4917
1496205210,255.6000000015,18.284
1496205212,231.6000000015,25.2118
1496205214,183.6000000015,20.7263
1496205216,214.8000000015,17.1359
1496205218,214.8000000015,21.8234
1496205220,222.0000000015,19.0331
1496205222,226.8000000015,18.0226
1496205224,205.2000000015,17.5505
1496205226,212.4000000015,17.9092
1496205228,186.0000000015,19.8943
1496205230,210.0000000015,15.3903
1496205232,207.6000000015,19.2783
1496205234,210.0000000015,20.4695
1496205236,188.4000000015,19.9058
1496205238,186.0000000015,20.1334
1496205240,272.4000000015,22.6338
1496205242,229.2000000015,15.0412
1496205244,246.0000000015,17.3958
1496205246,224.4000000015,19.0239
1496205248,205.2000000015,17.4864
1496205250,260.4000000015,14.7327
1496205252,195.6000000015,13.0584
1496205254,236.4000000015,17.2223
1496205256,188.4000000015,17.3762
1496205258,188.4000000015,13.9332
1496205260,202.8000000015,19.7754
1496205262,198.0000000015,17.7826
1496205264,224.4000000015,16.0191
1496205266,188.4000000015,16.5389
1496205268,229.2000000015,20.1346
1496205270,198.0000000015,11.2989
1496205272,222.0000000015,13.523
1496205274,212.4000000015,21.6185
1496205276,202.8000000015,19.6026
1496205278,193.2000000015,18.7492
1496205280,226.8000000015,22.1191
1496205282,219.6000000015,17.1246
1496205284,183.6000000015,19.1188
1496205286,183.6000000015,20.9354
1496205288,195.6000000015,16.8116
1496205290,205.2000000015,17.437
1496205292,248.4000000015,18.0609
1496205294,219.6000000015,17.3265
1496205296,178.8000000015,15.7791
1496205298,202.8000000015,18.7209
1496205300,183.6000000015,17.4749
1496205302,243.6000000015,21.2608
1496205304,198.0000000015,17.4729
1496205306,164.4000000015,18.1571
1496205308,205.2000000015,18.1233
1496205310,190.8000000015,21.7641
1496205312,241.2000000015,19.8789
1496205314,193.2000000015,15.6811
1496205316,181.2000000015,18.2324
1496205318,207.6000000015,16.3508
1496205320,183.6000000015,16.1872
1496205322,202.8000000015,11.4422
1496205324,188.4000000015,13.1946
1496205326,210.0000000015,14.2338
1496205328,174.0000000015,8.46756
1496205330,169.2000000015,17.35
1496205332,217.2000000015,13.8889
1496205334,174.0000000015,14.4382
1496205336,210.0000000015,15.3419
1496205338,178.8000000015,17.8441
1496205340,205.2000000015,22.338
1496205342,188.4000000015,20.8156
1496205344,164.4000000015,15.6899
1496205346,164.4000000015,15.7235
1496205348,181.2000000015,17.4647
1496205350,135.6000000015,17.9306
1496205352,133.2000000015,16.5922
1496205354,128.4000000015,18.0506
1496205356,147.6000000015,14.4779
1496205358,174.0000000015,14.5475
1496205360,154.8000000015,14.0613
1496205362,154.8000000015,13.9901
1496205364,159.6000000015,14.1395
1496205366,181.2000000015,17.3973
1496205368,198.0000000015,16.7096
1496205370,202.8000000015,19.2823
1496205372,145.2000000015,20.4324
1496205374,152.4000000015,17.3288
1496205376,169.2000000015,19.2918
1496205378,121.2000000015,20.8085
1496205380,207.6000000015,18.2966
1496205382,174.0000000015,18.4233
1496205384,198.0000000015,15.1213
1496205386,202.8000000015,19.0968
1496205388,121.2000000015,20.0246
1496205390,171.6000000015,19.6358
1496205392,181.2000000015,17.1806
1496205394,210.0000000015,14.4928
1496205396,202.8000000015,13.5133
1496205398,202.8000000015,15.8019
1496205400,246.0000000015,14.2348
1496205402,258.0000000015,16.457
1496205404,195.6000000015,19.8164
1496205406,272.4000000015,19.0792
1496205408,178.8000000015,21.3819
1496205410,186.0000000015,17.1752
1496205412,202.8000000015,15.6399
1496205414,226.8000000015,18.666
1496205416,231.6000000015,19.223
1496205418,178.8000000015,21.3698
1496205420,159.6000000015,21.9633
1496205422,118.8000000015,16.011
1496205424,186.0000000015,21.8367
1496205426,169.2000000015,17.3343
1496205428,162.0000000015,19.9266
1496205430,142.8000000015,15.9139
1496205432,193.2000000015,21.6309
1496205434,174.0000000015,13.3991
1496205436,202.8000000015,13.9212
1496205438,135.6000000015,17.5411
1496205440,186.0000000015,14.611
1496205442,178.8000000015,17.1197
1496205444,152.4000000015,17.2297
1496205446,205.2000000015,17.1269
1496205448,166.8000000015,17.9509
1496205450,181.2000000015,13.48
1496205452,174.0000000015,15.8616
1496205454,186.0000000015,18.9942
1496205456,217.2000000015,17.0208
1496205458,200.4000000015,20.5898
1496205460,193.2000000015,20.2068
1496205462,186.0000000015,21.1246
1496205464,243.6000000015,20.0638
1496205466,231.6000000015,21.2394
1496205468,217.2000000015,22.4023
1496205470,224.4000000015,20.2467
1496205472,238.8000000015,16.5376
1496205474,193.2000000015,16.7978
1496205476,193.2000000015,16.2303
1496205478,226.8000000015,16.5225
1496205480,207.6000000015,25.9831
1496205482,224.4000000015,17.6701
1496205484,190.8000000015,18.546
1496205486,214.8000000015,15.2384
1496205488,255.6000000015,16.5387
1496205490,195.6000000015,14.3062
1496205492,162.0000000015,11.2179
1496205494,200.4000000015,22.2284
1496205496,186.0000000015,19.7136
1496205498,174.0000000015,15.9524
1496205500,147.6000000015,19.4747
1496205502,174.0000000015,19.0228
1496205504,130.8000000015,20.0051
1496205506,193.2000000015,15.0663
1496205508,178.8000000015,20.3378
1496205510,147.6000000015,17.9482
1496205512,154.8000000015,20.1247
1496205514,138.0000000015,22.5135
1496205516,145.2000000015,26.3791
1496205518,152.4000000015,25.2157
1496205520,133.2000000015,21.2426
1496205522,109.2000000015,20.7595
1496205524,164.4000000015,14.3691
1496205526,171.6000000015,17.5534
1496205528,178.8000000015,16.7662
1496205530,116.4000000015,20.1458
1496205532,181.2000000015,20.3869
1496205534,190.8000000015,20.278
1496205536,138.0000000015,21.3466
1496205538,166.8000000015,21.3565
1496205540,190.8000000015,24.0508
1496205542,207.6000000015,25.7675
1496205544,114.0000000015,18.0261
1496205546,150.0000000015,21.2017
1496205548,159.6000000015,18.5632
1496205550,154.8000000015,23.8863
1496205552,90.0000000015,19.6015
1496205554,142.8000000015,19.4789
1496205556,162.0000000015,21.9031
1496205558,157.2000000015,21.1478
1496205560,94.8000000015001,17.9443
1496205562,133.2000000015,20.0723
1496205564,154.8000000015,22.7505
1496205566,164.4000000015,26.1189
1496205568,140.4000000015,23.8134
1496205570,147.6000000015,15.3336
1496205572,145.2000000015,18.4767
1496205574,123.6000000015,20.3684
1496205576,140.4000000015,18.6715
1496205578,166.8000000015,22.1118
1496205580,174.0000000015,21.2225
1496205582,114.0000000015,18.8688
1496205584,159.6000000015,22.4454
1496205586,133.2000000015,20.6456
1496205588,171.6000000015,17.467
1496205590,195.6000000015,17.2354
1496205592,164.4000000015,20.6387
1496205594,174.0000000015,18.87
1496205596,126.0000000015,20.6998
1496205598,154.8000000015,24.4356
1496205600,121.2000000015,25.8464
1496205602,171.6000000015,29.75
1496205604,169.2000000015,26.948
1496205606,162.0000000015,21.7756
1496205608,193.2000000015,24.1982
1496205610,210.0000000015,21.0965
1496205612,171.6000000015,21.6872
1496205614,164.4000000015,21.5423
1496205616,159.6000000015,26.6911
1496205618,154.8000000015,20.3918
1496205620,145.2000000015,25.0088
1496205622,145.2000000015,19.441
1496205624,183.6000000015,21.9463
1496205626,162.0000000015,22.5335
1496205628,102.0000000015,23.1636
1496205630,87.6000000015,24.7928
1496205632,109.2000000015,21.5398
1496205634,152.4000000015,23.6966
1496205636,140.4000000015,23.5255
1496205638,135.6000000015,15.7836
1496205640,135.6000000015,21.6029
1496205642,181.2000000015,18.6738
1496205644,195.6000000015,18.2143
1496205646,222.0000000015,20.8685
1496205648,265.2000000015,21.1641
1496205650,246.0000000015,19.1777
1496205652,210.0000000015,21.675
1496205654,250.8000000015,21.6035
1496205656,246.0000000015,21.3705
1496205658,219.6000000015,19.7256
1496205660,258.0000000015,22.8296
1496205662,325.2000000015,21.0728
1496205664,236.4000000015,24.998
1496205666,260.4000000015,26.0888
1496205668,226.8000000015,22.6004
1496205670,234.0000000015,23.8929
1496205672,289.2000000015,25.0783
1496205674,301.2000000015,23.859
1496205676,250.8000000015,14.696
1496205678,229.2000000015,17.995
1496205680,306.0000000015,17.8195
1496205682,282.0000000015,18.4292
1496205684,207.6000000015,16.3129
1496205686,229.2000000015,16.8693
1496205688,210.0000000015,15.1945
1496205690,231.6000000015,13.7637
1496205692,214.8000000015,10.6964
1496205694,241.2000000015,10.8875
1496205696,250.8000000015,20.9535
1496205698,183.6000000015,13.0732
1496205700,243.6000000015,15.6584
1496205702,198.0000000015,24.2421
1496205704,238.8000000015,19.0189
1496205706,210.0000000015,18.3599
1496205708,214.8000000015,20.3062
1496205710,212.4000000015,20.8519
1496205712,219.6000000015,27.8195
1496205714,147.6000000015,23.497
1496205716,169.2000000015,19.3338
1496205718,193.2000000015,16.7368
1496205720,190.8000000015,20.2425
1496205722,214.8000000015,15.6665
1496205724,250.8000000015,21.0728
1496205726,181.2000000015,19.5174
1496205728,193.2000000015,20.506
1496205730,190.8000000015,21.7713
1496205732,121.2000000015,19.757
1496205734,226.8000000015,19.4245
1496205736,171.6000000015,18.9632
1496205738,190.8000000015,19.1598
1496205740,193.2000000015,18.685
1496205742,202.8000000015,15.2148
1496205744,169.2000000015,16.9852
1496205746,224.4000000015,20.025
1496205748,212.4000000015,19.6036
1496205750,188.4000000015,21.6941
1496205752,190.8000000015,24.0404
1496205754,207.6000000015,21.7851
1496205756,174.0000000015,22.7623
1496205758,190.8000000015,20.8171
1496205760,176.4000000015,21.2967
1496205762,188.4000000015,21.8092
1496205764,181.2000000015,21.4929
1496205766,154.8000000015,22.774
1496205768,157.2000000015,26.0581
1496205770,176.4000000015,18.4285
1496205772,114.0000000015,15.6542
1496205774,97.2000000015,18.6005
1496205776,169.2000000015,15.134
1496205778,183.6000000015,17.5736
1496205780,200.4000000015,18.3796
1496205782,181.2000000015,21.0231
1496205784,214.8000000015,21.7705
1496205786,181.2000000015,20.4169
1496205788,159.6000000015,22.3282
1496205790,171.6000000015,16.1587
1496205792,128.4000000015,19.5045
1496205794,121.2000000015,24.0301
1496205796,99.6000000015,18.3866
1496205798,106.8000000015,16.066
1496205800,150.0000000015,13.6919
1496205802,109.2000000015,14.5493
1496205804,106.8000000015,19.3453
1496205806,157.2000000015,16.037
1496205808,166.8000000015,13.834
1496205810,109.2000000015,16.7335
1496205812,138.0000000015,17.6155
1496205814,145.2000000015,17.2327
1496205816,87.6000000015,15.0778
1496205818,152.4000000015,15.7077
1496205820,114.0000000015,18.9547
1496205822,94.8000000015001,14.5085
1496205824,94.8000000015001,15.8098
1496205826,142.8000000015,16.9819
1496205828,121.2000000015,19.4985
1496205830,123.6000000015,20.0427
1496205832,99.6000000015,14.5007
1496205834,150.0000000015,19.5031
1496205836,166.8000000015,20.2772
1496205838,44.4000000015,21.2322
1496205840,104.4000000015,18.1032
1496205842,99.6000000015,19.0982
1496205844,99.6000000015,13.4786
1496205846,92.4000000015,17.5941
1496205848,128.4000000015,16.22
1496205850,118.8000000015,12.2485
1496205852,150.0000000015,14.0022
1496205854,116.4000000015,19.6522
1496205856,154.8000000015,21.3727
1496205858,154.8000000015,19.3857
1496205860,186.0000000015,9.87331
1496205862,181.2000000015,7.762
1496205864,159.6000000015,19.5695
1496205866,178.8000000015,20.3778
1496205870,164.4000000015,21.0558
1496205872,116.4000000015,22.8102
1496205874,154.8000000015,25.8989
1496205876,121.2000000015,17.3645
1496205878,126.0000000015,19.3831
1496205880,181.2000000015,18.6041
1496205882,138.0000000015,16.3354
1496205884,157.2000000015,16.2406
1496205886,130.8000000015,17.6153
1496205888,178.8000000015,19.3749
1496205890,102.0000000015,19.8977
1496205892,150.0000000015,16.2565
1496205894,169.2000000015,22.3127
1496205896,97.2000000015,17.2011
1496205898,87.6000000015,23.2583
1496205900,102.0000000015,21.5191
1496205902,171.6000000015,22.726
1496205904,171.6000000015,19.0441
1496205906,154.8000000015,19.3411
1496205908,114.0000000015,20.3778
1496205910,205.2000000015,20.5504
1496205912,109.2000000015,17.0954
1496205914,133.2000000015,21.5194
1496205916,104.4000000015,24.877
1496205918,121.2000000015,20.5753
1496205920,118.8000000015,24.4514
1496205922,162.0000000015,22.3252
1496205924,166.8000000015,24.1485
1496205926,150.0000000015,20.7563
1496205928,121.2000000015,20.058
1496205930,166.8000000015,19.1764
1496205932,157.2000000015,18.1014
1496205934,214.8000000015,17.8895
1496205936,135.6000000015,18.4077
1496205938,166.8000000015,19.1987
1496205940,116.4000000015,13.3671
1496205942,157.2000000015,13.9861
1496205944,152.4000000015,14.5752
1496205946,183.6000000015,13.5589
1496205948,186.0000000015,20.8838
1496205950,140.4000000015,21.517
1496205952,147.6000000015,16.5166
1496205954,154.8000000015,20.4764
1496205956,162.0000000015,21.7893
1496205958,116.4000000015,18.7001
1496205960,123.6000000015,21.9983
1496205962,174.0000000015,20.0098
1496205964,147.6000000015,20.5371
1496205966,111.6000000015,21.8615
1496205968,202.8000000015,19.223
1496205970,145.2000000015,26.8431
1496205972,145.2000000015,24.1516
1496205974,128.4000000015,18.9666
1496205976,169.2000000015,18.1092
1496205978,147.6000000015,22.1257
1496205980,111.6000000015,22.7578
1496205982,126.0000000015,19.0467
1496205984,145.2000000015,24.7154
1496205986,166.8000000015,21.5098
1496205988,140.4000000015,23.4791
1496205990,166.8000000015,20.3581
1496205992,109.2000000015,18.1832
1496205994,152.4000000015,18.3689
1496205996,109.2000000015,17.6898
1496205998,164.4000000015,21.3233
1496206000,164.4000000015,16.825
1496206002,92.4000000015,17.4623
1496206004,164.4000000015,19.3999
1496206006,152.4000000015,23.0684
1496206008,130.8000000015,15.8052
1496206010,123.6000000015,19.0688
1496206012,181.2000000015,15.2208
1496206014,178.8000000015,15.4381
1496206016,178.8000000015,17.1939
1496206018,159.6000000015,19.3228
1496206020,200.4000000015,19.0429
1496206022,157.2000000015,19.6865
1496206024,111.6000000015,20.3902
1496206026,154.8000000015,17.7846
1496206028,190.8000000015,19.9371
1496206030,193.2000000015,22.9563
1496206032,169.2000000015,17.4487
1496206034,193.2000000015,18.2998
1496206036,217.2000000015,15.3586
1496206038,140.4000000015,17.4744
1496206040,174.0000000015,18.7457
1496206042,198.0000000015,15.5782
1496206044,200.4000000015,21.4459
1496206046,171.6000000015,20.6143
1496206048,169.2000000015,25.3739
1496206050,142.8000000015,28.9419
1496206052,178.8000000015,25.5618
1496206054,171.6000000015,18.1858
1496206056,195.6000000015,15.2973
1496206058,159.6000000015,18.9562
1496206060,142.8000000015,15.6809
1496206062,159.6000000015,15.2926
1496206064,154.8000000015,21.4915
1496206066,121.2000000015,16.1879
1496206068,176.4000000015,17.3653
1496206070,174.0000000015,19.9149
1496206072,174.0000000015,21.2168
1496206074,121.2000000015,17.9489
1496206076,214.8000000015,19.8386
1496206078,94.8000000015001,14.987
1496206080,150.0000000015,13.4537
1496206082,130.8000000015,18.9022
1496206084,147.6000000015,21.5109
1496206086,181.2000000015,16.1903
1496206088,234.0000000015,18.7309
1496206090,183.6000000015,16.5655
1496206092,219.6000000015,15.5182
1496206094,171.6000000015,22.1551
1496206096,181.2000000015,18.2008
1496206098,126.0000000015,21.3566
1496206100,205.2000000015,20.5196
1496206102,286.8000000015,17.7957
1496206104,265.2000000015,13.496
1496206106,217.2000000015,19.1781
1496206108,320.4000000015,21.0298
1496206110,224.4000000015,18.6754
1496206112,301.2000000015,18.3503
1496206114,272.4000000015,15.6921
1496206116,332.4000000015,19.5067
1496206118,310.8000000015,20.2679
1496206120,313.2000000015,16.4829
1496206122,337.2000000015,18.8975
1496206124,346.8000000015,18.4339
1496206126,351.6000000015,16.1911
1496206128,344.4000000015,17.0454
1496206130,344.4000000015,15.7664
1496206132,339.6000000015,13.0167
1496206134,325.2000000015,14.4126
1496206136,342.0000000015,17.4189
1496206138,279.6000000015,16.9813
1496206140,339.6000000015,19.9888
1496206142,337.2000000015,17.1113
1496206144,294.0000000015,20.6756
1496206146,334.8000000015,23.77
1496206148,337.2000000015,19.4415
1496206150,325.2000000015,19.6764
1496206152,344.4000000015,18.8149
1496206154,406.8000000015,12.1428
1496206156,342.0000000015,10.9223
1496206158,298.8000000015,14.0861
1496206160,322.8000000015,13.4626
1496206162,318.0000000015,16.4162
1496206164,294.0000000015,20.229
1496206166,282.0000000015,17.4503
1496206168,306.0000000015,17.521
1496206170,349.2000000015,17.6018
1496206172,325.2000000015,19.0559
1496206174,306.0000000015,20.727
1496206176,322.8000000015,24.8295
1496206178,459.6000000015,21.3009
1496206180,433.2000000015,19.5985
1496206182,423.6000000015,15.1932
1496206184,450.0000000015,16.084
1496206186,469.2000000015,17.6604
1496206188,414.0000000015,16.0118
1496206190,416.4000000015,16.7036
1496206192,442.8000000015,14.0115
1496206194,502.8000000015,14.445
1496206196,430.8000000015,11.5007
1496206198,430.8000000015,20.5818
1496206200,459.6000000015,15.6575
1496206202,416.4000000015,21.8175
1496206204,464.4000000015,19.1399
1496206206,493.2000000015,18.5975
1496206208,445.2000000015,14.9031
1496206210,406.8000000015,15.7946
1496206212,416.4000000015,17.767
1496206214,433.2000000015,19.2299
1496206216,416.4000000015,20.6578
1496206218,421.2000000015,19.4944
1496206220,411.6000000015,19.6599
1496206222,426.0000000015,15.7498
1496206224,416.4000000015,18.5534
1496206226,375.6000000015,16.491
1496206228,418.8000000015,21.0618
1496206230,462.0000000015,21.2647
1496206232,397.2000000015,21.038
1496206234,399.6000000015,17.2392
1496206236,406.8000000015,22.5219
1496206238,406.8000000015,17.3398
1496206240,404.4000000015,19.8547
1496206242,361.2000000015,19.1046
1496206244,428.4000000015,17.2609
1496206246,414.0000000015,19.6183
1496206248,409.2000000015,20.2095
1496206250,423.6000000015,19.4742
1496206252,399.6000000015,19.9745
1496206254,358.8000000015,18.7764
1496206256,378.0000000015,21.6616
1496206258,397.2000000015,17.4701
1496206260,358.8000000015,21.4614
1496206262,358.8000000015,23.153
1496206264,356.4000000015,20.602
1496206266,411.6000000015,19.1849
1496206268,382.8000000015,24.7035
1496206270,349.2000000015,18.9837
1496206272,344.4000000015,22.4678
1496206274,356.4000000015,20.263
1496206276,354.0000000015,22.4072
1496206278,373.2000000015,20.2791
1496206280,354.0000000015,17.6165
1496206282,385.2000000015,14.2388
1496206284,318.0000000015,13.0913
1496206286,339.6000000015,17.8794
1496206288,356.4000000015,15.9824
1496206290,366.0000000015,19.5364
1496206292,349.2000000015,14.6835
1496206294,342.0000000015,15.7953
1496206296,358.8000000015,18.3591
1496206298,368.4000000015,11.2376
1496206300,344.4000000015,20.7786
1496206302,337.2000000015,18.8437
1496206304,366.0000000015,16.5898
1496206306,327.6000000015,22.0203
1496206308,351.6000000015,21.5411
1496206310,368.4000000015,24.7592
1496206312,325.2000000015,19.6089
1496206314,296.4000000015,22.3219
1496206316,320.4000000015,24.4742
1496206318,378.0000000015,18.5072
1496206320,346.8000000015,12.9806
1496206322,332.4000000015,18.004
1496206324,344.4000000015,15.1785
1496206326,344.4000000015,20.2477
1496206328,327.6000000015,20.755
1496206330,368.4000000015,22.4539
1496206332,349.2000000015,23.0489
1496206334,337.2000000015,15.0199
1496206336,332.4000000015,19.8306
1496206338,320.4000000015,20.4869
1496206340,363.6000000015,25.0978
1496206342,351.6000000015,18.6656
1496206344,339.6000000015,21.0941
1496206346,370.8000000015,17.5437
1496206348,375.6000000015,15.2053
1496206350,327.6000000015,17.9374
1496206352,361.2000000015,14.0372
1496206354,339.6000000015,16.8668
1496206356,354.0000000015,15.7034
1496206358,378.0000000015,17.8434
1496206360,411.6000000015,15.1053
1496206362,402.0000000015,14.2984
1496206364,375.6000000015,12.1955
1496206366,332.4000000015,13.0442
1496206368,349.2000000015,20.099
1496206370,387.6000000015,22.001
1496206372,342.0000000015,17.565
1496206374,339.6000000015,17.9725
1496206376,361.2000000015,21.888
1496206378,327.6000000015,15.1115
1496206380,339.6000000015,15.7987
1496206382,344.4000000015,16.9089
1496206384,322.8000000015,20.0438
1496206386,332.4000000015,18.8669
1496206388,303.6000000015,20.6401
1496206390,274.8000000015,18.6798
1496206392,332.4000000015,20.3036
1496206394,337.2000000015,21.4825
1496206396,267.6000000015,20.1004
1496206398,294.0000000015,21.5979
1496206400,322.8000000015,16.0472
1496206402,342.0000000015,18.916
1496206404,286.8000000015,20.099
1496206406,255.6000000015,25.0132
1496206408,342.0000000015,18.7877
1496206410,291.6000000015,18.6848
1496206412,219.6000000015,16.2824
1496206414,289.2000000015,12.267
1496206416,298.8000000015,12.565
1496206418,272.4000000015,18.5668
1496206420,224.4000000015,17.7288
1496206422,241.2000000015,25.113
1496206424,315.6000000015,21.3281
1496206426,262.8000000015,21.5853
1496206428,322.8000000015,17.3963
1496206430,330.0000000015,15.8248
1496206432,322.8000000015,18.6802
1496206434,294.0000000015,20.7808
1496206436,272.4000000015,14.3502
1496206438,330.0000000015,15.5388
1496206440,289.2000000015,16.1566
1496206442,330.0000000015,18.8241
1496206444,289.2000000015,18.3341
1496206446,327.6000000015,14.8122
1496206448,342.0000000015,15.7966
1496206450,315.6000000015,14.3935
1496206452,250.8000000015,25.63
1496206454,330.0000000015,17.0455
1496206456,310.8000000015,18.111
1496206458,301.2000000015,20.137
1496206460,358.8000000015,17.1295
1496206462,318.0000000015,20.3946
1496206464,339.6000000015,17.9137
1496206466,327.6000000015,19.0235
1496206468,296.4000000015,15.7601
1496206470,286.8000000015,16.8651
1496206472,339.6000000015,18.8423
1496206474,325.2000000015,20.3864
1496206476,320.4000000015,16.1243
1496206478,241.2000000015,22.7771
1496206480,277.2000000015,19.9239
1496206482,315.6000000015,21.0566
1496206484,303.6000000015,22.6988
1496206486,351.6000000015,23.3498
1496206488,330.0000000015,18.4284
1496206490,346.8000000015,18.9427
1496206492,325.2000000015,18.8536
1496206494,342.0000000015,19.9988
1496206496,354.0000000015,22.9399
1496206498,370.8000000015,18.6544
1496206500,330.0000000015,17.0826
1496206502,306.0000000015,18.2235
1496206504,313.2000000015,15.924
1496206506,351.6000000015,18.6603
1496206508,298.8000000015,19.487
1496206510,330.0000000015,17.2681
1496206512,318.0000000015,17.3545
1496206514,279.6000000015,20.4066
1496206516,330.0000000015,14.8699
1496206518,358.8000000015,15.2993
1496206520,342.0000000015,17.5335
1496206522,294.0000000015,21.6376
1496206524,303.6000000015,17.4458
1496206526,337.2000000015,18.1321
1496206528,306.0000000015,18.57
1496206530,282.0000000015,19.5714
1496206532,315.6000000015,8.51708
1496206534,294.0000000015,17.0025
1496206536,322.8000000015,17.3428
1496206538,308.4000000015,22.5238
1496206540,330.0000000015,23.5964
1496206542,325.2000000015,18.0671
1496206544,248.4000000015,18.0761
1496206546,373.2000000015,18.9186
1496206548,284.4000000015,21.4671
1496206550,318.0000000015,20.3752
1496206552,289.2000000015,22.4471
1496206554,296.4000000015,15.4674
1496206556,298.8000000015,22.4551
1496206558,286.8000000015,18.5595
1496206560,346.8000000015,13.8307
1496206562,337.2000000015,10.3921
1496206564,279.6000000015,15.9237
1496206566,253.2000000015,16.3076
1496206568,325.2000000015,18.0023
1496206570,327.6000000015,13.5237
1496206572,310.8000000015,15.1466
1496206574,330.0000000015,18.0295
1496206576,322.8000000015,17.2358
1496206578,306.0000000015,14.5218
1496206580,234.0000000015,20.1464
1496206582,339.6000000015,15.1837
1496206584,325.2000000015,21.4327
1496206586,366.0000000015,20.497
1496206588,291.6000000015,21.8843
1496206590,332.4000000015,19.2891
1496206592,334.8000000015,14.8076
1496206594,301.2000000015,13.2484
1496206596,270.0000000015,14.7232
1496206598,344.4000000015,14.4462
1496206600,327.6000000015,13.2419
1496206602,327.6000000015,15.3392
1496206604,354.0000000015,15.2734
1496206606,294.0000000015,22.0485
1496206608,334.8000000015,19.909
1496206610,315.6000000015,13.1602
1496206612,274.8000000015,19.2302
1496206614,308.4000000015,19.082
1496206616,286.8000000015,18.2308
1496206618,332.4000000015,18.7041
1496206620,322.8000000015,24.854
1496206622,282.0000000015,18.9375
1496206624,306.0000000015,19.3285
1496206626,284.4000000015,20.7054
1496206628,231.6000000015,19.168
1496206630,298.8000000015,21.2316
1496206632,322.8000000015,22.9371
1496206634,332.4000000015,19.9996
1496206636,337.2000000015,17.4759
1496206638,301.2000000015,16.6147
1496206640,303.6000000015,19.7446
1496206642,284.4000000015,18.1644
1496206644,334.8000000015,14.8913
1496206646,342.0000000015,20.9054
1496206648,330.0000000015,19.4359
1496206650,301.2000000015,24.4221
1496206652,332.4000000015,22.3836
1496206654,306.0000000015,14.9206
1496206656,334.8000000015,19.2805
1496206658,267.6000000015,15.4725
1496206660,246.0000000015,16.0996
1496206662,289.2000000015,16.8041
1496206664,318.0000000015,20.7881
1496206666,315.6000000015,15.3626
1496206668,330.0000000015,17.7346
1496206670,306.0000000015,19.7435
1496206672,294.0000000015,21.0388
1496206674,303.6000000015,26.3318
1496206676,334.8000000015,26.391
1496206678,356.4000000015,23.3975
1496206680,327.6000000015,20.1731
1496206682,298.8000000015,19.1638
1496206684,279.6000000015,17.0473
1496206686,313.2000000015,16.6542
1496206688,258.0000000015,18.4505
1496206690,286.8000000015,19.2456
1496206692,291.6000000015,19.3321
1496206694,306.0000000015,20.5242
1496206696,241.2000000015,20.1357
1496206698,303.6000000015,18.3121
1496206700,332.4000000015,20.6542
1496206702,320.4000000015,20.6743
1496206704,298.8000000015,20.2974
1496206706,318.0000000015,21.1811
1496206708,322.8000000015,24.9833
1496206710,315.6000000015,22.084
1496206712,277.2000000015,22.1363
1496206714,358.8000000015,22.9697
1496206716,342.0000000015,24.0983
1496206718,325.2000000015,23.3142
1496206720,322.8000000015,23.7276
1496206722,351.6000000015,17.2646
1496206724,375.6000000015,17.6694
1496206726,370.8000000015,18.4047
1496206728,402.0000000015,19.9698
1496206730,368.4000000015,20.8791
1496206732,406.8000000015,25.4258
1496206734,327.6000000015,18.6507
1496206736,366.0000000015,18.4385
1496206738,378.0000000015,22.6175
1496206740,361.2000000015,19.078
1496206742,346.8000000015,17.0746
1496206744,344.4000000015,20.7535
1496206746,399.6000000015,19.0172
1496206748,354.0000000015,21.8941
1496206750,320.4000000015,19.6312
1496206752,351.6000000015,17.4145
1496206754,368.4000000015,13.7354
1496206756,370.8000000015,18.2318
1496206758,358.8000000015,16.7959
1496206760,354.0000000015,17.9764
1496206762,339.6000000015,20.5098
1496206764,339.6000000015,17.7829
1496206766,310.8000000015,20.5941
1496206768,366.0000000015,19.0276
1496206770,363.6000000015,22.54
1496206772,351.6000000015,18.5728
1496206774,356.4000000015,17.8906
1496206776,358.8000000015,23.946
1496206778,344.4000000015,21.9686
1496206780,327.6000000015,12.9422
1496206782,320.4000000015,16.2707
1496206784,272.4000000015,9.88612
1496206786,330.0000000015,12.0552
1496206788,404.4000000015,14.8009
1496206790,339.6000000015,15.7636
1496206792,346.8000000015,15.7549
1496206794,356.4000000015,17.3537
1496206796,342.0000000015,19.6041
1496206798,313.2000000015,19.4008
1496206800,342.0000000015,24.4342
1496206802,277.2000000015,23.3873
1496206804,310.8000000015,24.0011
1496206806,346.8000000015,26.5527
1496206808,351.6000000015,23.3935
1496206810,332.4000000015,21.0189
1496206812,337.2000000015,18.0322
1496206814,349.2000000015,17.8178
1496206816,334.8000000015,20.7054
1496206818,339.6000000015,25.9714
1496206820,346.8000000015,22.1655
1496206822,330.0000000015,22.1407
1496206824,392.4000000015,19.0362
1496206826,315.6000000015,16.0455
1496206828,250.8000000015,21.8588
1496206830,325.2000000015,15.0889
1496206832,322.8000000015,17.0982
1496206834,294.0000000015,24.1343
1496206836,306.0000000015,16.5475
1496206838,308.4000000015,19.5273
1496206840,322.8000000015,18.9965
1496206842,310.8000000015,18.658
1496206844,339.6000000015,19.2838
1496206846,330.0000000015,21.7938
1496206848,306.0000000015,19.9325
1496206850,282.0000000015,19.6041
1496206852,342.0000000015,17.7291
1496206854,325.2000000015,17.7347
1496206856,298.8000000015,20.9636
1496206858,246.0000000015,19.0237
1496206860,310.8000000015,19.2198
1496206862,298.8000000015,24.2142
1496206864,248.4000000015,18.9624
1496206866,284.4000000015,21.4045
1496206868,303.6000000015,16.5669
1496206870,286.8000000015,19.8391
1496206872,231.6000000015,23.5171
1496206874,298.8000000015,21.7796
1496206876,342.0000000015,21.0293
1496206878,318.0000000015,20.3659
1496206880,272.4000000015,20.2985
1496206882,337.2000000015,19.7424
1496206884,337.2000000015,18.1965
1496206886,286.8000000015,23.4992
1496206888,320.4000000015,19.4203
1496206890,327.6000000015,16.1052
1496206892,344.4000000015,17.2834
1496206894,291.6000000015,14.5446
1496206896,265.2000000015,15.3219
1496206898,267.6000000015,16.0452
1496206900,310.8000000015,15.5249
1496206902,306.0000000015,15.4449
1496206904,320.4000000015,18.7878
1496206906,279.6000000015,17.145
1496206908,238.8000000015,16.9218
1496206910,318.0000000015,19.7975
1496206912,356.4000000015,20.366
1496206914,310.8000000015,14.6472
1496206916,308.4000000015,13.7961
1496206918,322.8000000015,18.6495
1496206920,313.2000000015,20.0718
1496206922,322.8000000015,20.8836
1496206924,320.4000000015,19.8078
1496206926,318.0000000015,18.0634
1496206928,325.2000000015,18.0111
1496206930,298.8000000015,21.6388
1496206932,332.4000000015,25.0914
1496206934,346.8000000015,28.1954
1496206936,296.4000000015,22.473
1496206938,274.8000000015,28.427
1496206940,327.6000000015,25.1289
1496206942,308.4000000015,24.5752
1496206944,270.0000000015,21.9471
1496206946,330.0000000015,25.2305
1496206948,344.4000000015,27.0482
1496206950,320.4000000015,24.8764
1496206952,320.4000000015,27.2483
1496206954,342.0000000015,24.6057
1496206956,349.2000000015,27.0129
1496206958,298.8000000015,23.6949
1496206960,330.0000000015,24.9548
1496206962,349.2000000015,22.1083
1496206964,334.8000000015,19.4926
1496206966,294.0000000015,22.6834
1496206968,282.0000000015,23.9046
1496206970,337.2000000015,21.1517
1496206972,332.4000000015,21.2029
1496206974,315.6000000015,23.0817
1496206976,322.8000000015,22.9552
1496206978,346.8000000015,21.3185
1496206980,337.2000000015,19.3769
1496206982,325.2000000015,25.3213
1496206984,358.8000000015,29.0579
1496206986,361.2000000015,21.2867
1496206988,349.2000000015,17.9682
1496206990,332.4000000015,22.0144
1496206992,368.4000000015,22.5228
1496206994,339.6000000015,21.9285
1496206996,366.0000000015,21.5177
1496206998,418.8000000015,23.2886
1496207000,428.4000000015,20.5652
1496207002,375.6000000015,21.8904
1496207004,382.8000000015,24.377
1496207006,421.2000000015,21.3819
1496207008,414.0000000015,20.549
1496207010,423.6000000015,19.7037
1496207012,421.2000000015,18.9312
1496207014,435.6000000015,19.3307
1496207016,416.4000000015,20.3817
1496207018,411.6000000015,18.9155
1496207020,406.8000000015,16.3264
1496207022,430.8000000015,24.0671
1496207024,428.4000000015,17.8179
1496207026,385.2000000015,22.5623
1496207028,428.4000000015,23.0679
1496207030,373.2000000015,24.7138
1496207032,366.0000000015,17.7824
1496207034,418.8000000015,12.7819
1496207036,399.6000000015,17.0869
1496207038,332.4000000015,15.4946
1496207040,351.6000000015,20.7234
1496207042,409.2000000015,9.63401
1496207044,358.8000000015,27.4959
1496207046,409.2000000015,21.303
1496207048,370.8000000015,20.0046
1496207050,354.0000000015,21.796
1496207052,361.2000000015,21.6567
1496207054,354.0000000015,19.6077
1496207056,344.4000000015,20.7354
1496207058,368.4000000015,21.1696
1496207060,291.6000000015,24.9525
1496207062,342.0000000015,19.9216
1496207064,337.2000000015,18.9192
1496207066,325.2000000015,23.6819
1496207068,342.0000000015,25.7164
1496207070,339.6000000015,24.3689
1496207072,358.8000000015,22.2602
1496207074,308.4000000015,15.7742
1496207076,322.8000000015,14.8287
1496207078,318.0000000015,17.341
1496207080,330.0000000015,13.8334
1496207082,337.2000000015,16.7107
1496207084,342.0000000015,18.1019
1496207086,337.2000000015,19.8126
1496207088,291.6000000015,23.0758
1496207090,303.6000000015,21.1126
1496207092,298.8000000015,19.7112
1496207094,346.8000000015,20.8221
1496207096,320.4000000015,20.6427
1496207098,289.2000000015,21.933
1496207100,339.6000000015,21.7304
1496207102,303.6000000015,21.3463
1496207104,337.2000000015,22.1972
1496207106,337.2000000015,23.0876
1496207108,344.4000000015,24.6442
1496207110,298.8000000015,23.9643
1496207112,344.4000000015,28.6598
1496207114,351.6000000015,27.3047
1496207116,390.0000000015,24.6669
1496207118,351.6000000015,17.5453
1496207120,354.0000000015,13.4223
1496207122,375.6000000015,19.8523
1496207124,356.4000000015,20.625
1496207126,282.0000000015,18.4712
1496207128,310.8000000015,20.2505
1496207130,351.6000000015,16.0001
1496207132,339.6000000015,20.2323
1496207134,325.2000000015,18.1525
1496207136,337.2000000015,19.3831
1496207138,361.2000000015,16.7555
1496207140,332.4000000015,16.2466
1496207142,346.8000000015,18.6804
1496207144,368.4000000015,21.8531
1496207146,361.2000000015,23.5472
1496207148,346.8000000015,22.764
1496207150,342.0000000015,24.7003
1496207152,339.6000000015,20.5752
1496207154,354.0000000015,23.5706
1496207156,346.8000000015,23.0387
1496207158,349.2000000015,19.2521
1496207160,313.2000000015,19.8048
1496207162,358.8000000015,23.8595
1496207164,327.6000000015,27.6727
1496207166,334.8000000015,19.3938
1496207168,346.8000000015,23.8301
1496207170,339.6000000015,23.3102
1496207172,339.6000000015,22.846
1496207174,358.8000000015,24.4515
1496207176,322.8000000015,23.0912
1496207178,354.0000000015,23.6387
1496207180,334.8000000015,22.6272
1496207182,349.2000000015,25.1373
1496207184,351.6000000015,25.5165
1496207186,382.8000000015,23.2106
1496207188,356.4000000015,23.9315
1496207190,363.6000000015,22.4823
1496207192,342.0000000015,19.535
1496207194,310.8000000015,23.0044
1496207196,346.8000000015,24.2652
1496207198,373.2000000015,22.1426
1496207200,342.0000000015,23.419
1496207202,337.2000000015,25.9684
1496207204,358.8000000015,23.5874
1496207206,349.2000000015,24.2688
1496207208,358.8000000015,24.9242
1496207210,378.0000000015,23.2801
1496207212,351.6000000015,26.803
1496207214,378.0000000015,23.7858
1496207216,320.4000000015,19.3456
1496207218,354.0000000015,22.5455
1496207220,344.4000000015,22.8562
1496207222,327.6000000015,17.6372
1496207224,306.0000000015,25.4992
1496207226,356.4000000015,25.0631
1496207228,368.4000000015,21.7368
1496207230,368.4000000015,24.0579
1496207232,301.2000000015,25.9877
1496207234,337.2000000015,27.1074
1496207236,356.4000000015,31.1772
1496207238,332.4000000015,26.6538
1496207240,320.4000000015,27.0729
1496207242,325.2000000015,23.3966
1496207244,318.0000000015,29.7818
1496207246,346.8000000015,25.2185
1496207248,354.0000000015,23.7916
1496207250,351.6000000015,26.9631
1496207252,313.2000000015,24.3685
1496207254,301.2000000015,29.2144
1496207256,354.0000000015,28.3932
1496207258,346.8000000015,27.9828
1496207260,315.6000000015,26.5811
1496207262,332.4000000015,26.6325
1496207264,282.0000000015,24.2521
1496207266,291.6000000015,25.0896
1496207268,265.2000000015,24.5341
1496207270,246.0000000015,23.9139
1496207272,310.8000000015,25.4712
1496207274,238.8000000015,24.6094
1496207276,301.2000000015,25.0631
1496207278,282.0000000015,27.2696
1496207280,291.6000000015,23.4803
1496207282,241.2000000015,26.5993
1496207284,248.4000000015,20.4979
1496207286,289.2000000015,19.872
1496207288,255.6000000015,19.883
1496207290,330.0000000015,16.717
1496207292,320.4000000015,25.1299
1496207294,258.0000000015,19.8591
1496207296,315.6000000015,19.6748
1496207298,303.6000000015,24.9887
1496207300,258.0000000015,25.7309
1496207304,306.0000000015,23.3221
1496207306,286.8000000015,20.2637
1496207308,301.2000000015,24.8417
1496207310,337.2000000015,22.4475
1496207312,301.2000000015,21.7974
1496207314,260.4000000015,26.2028
1496207316,339.6000000015,21.7259
1496207318,334.8000000015,30.3339
1496207320,325.2000000015,29.4631
1496207322,301.2000000015,27.8241
1496207324,344.4000000015,21.1521
1496207326,332.4000000015,20.0277
1496207328,303.6000000015,13.7809
1496207330,284.4000000015,13.5981
1496207332,286.8000000015,17.7633
1496207334,320.4000000015,22.8327
1496207336,296.4000000015,24.4662
1496207338,318.0000000015,14.5546
1496207340,296.4000000015,19.6019
1496207342,265.2000000015,22.4561
1496207344,178.8000000015,20.2309
1496207346,169.2000000015,17.8676
1496207348,186.0000000015,16.8993
1496207350,164.4000000015,17.4407
1496207352,123.6000000015,23.543
1496207354,169.2000000015,21.9684
1496207356,193.2000000015,18.0031
1496207358,92.4000000015,22.463
1496207360,128.4000000015,19.3847
1496207362,114.0000000015,20.9643
1496207364,159.6000000015,24.3464
1496207366,128.4000000015,20.1239
1496207368,171.6000000015,23.2445
1496207370,140.4000000015,23.8672
1496207372,162.0000000015,26.4487
1496207374,106.8000000015,21.9114
1496207376,114.0000000015,21.9182
1496207378,190.8000000015,21.2329
1496207380,157.2000000015,19.4096
1496207382,169.2000000015,21.7527
1496207384,157.2000000015,23.4133
1496207386,214.8000000015,20.4514
1496207388,193.2000000015,21.6231
1496207390,138.0000000015,26.2718
1496207392,142.8000000015,23.8822
1496207394,219.6000000015,21.4353
1496207396,186.0000000015,17.6193
1496207398,116.4000000015,15.7336
1496207400,169.2000000015,18.0152
1496207402,150.0000000015,25.2642
1496207404,174.0000000015,26.1187
1496207406,190.8000000015,31.4847
1496207408,169.2000000015,27.089
1496207410,183.6000000015,22.1302
1496207412,178.8000000015,19.6247
1496207414,178.8000000015,16.2423
1496207416,159.6000000015,18.389
1496207418,193.2000000015,20.5058
1496207420,111.6000000015,23.6853
1496207422,171.6000000015,16.4743
1496207424,174.0000000015,19.1891
1496207426,145.2000000015,19.9645
1496207428,147.6000000015,15.1086
1496207430,159.6000000015,18.0815
1496207432,198.0000000015,20.4749
1496207434,174.0000000015,18.9334
1496207436,142.8000000015,16.0352
1496207438,157.2000000015,16.4414
1496207440,126.0000000015,17.9243
1496207442,140.4000000015,18.0485
1496207444,130.8000000015,20.3438
1496207446,183.6000000015,21.4209
1496207448,157.2000000015,21.2719
1496207450,157.2000000015,17.826
1496207452,200.4000000015,16.4479
1496207454,181.2000000015,17.2715
1496207456,207.6000000015,18.7535
1496207458,241.2000000015,13.0074
1496207460,224.4000000015,15.7889
1496207462,210.0000000015,19.556
1496207464,200.4000000015,15.1176
1496207466,195.6000000015,21.695
1496207468,241.2000000015,21.9304
1496207470,193.2000000015,22.6701
1496207472,154.8000000015,20.5343
1496207474,181.2000000015,14.9455
1496207476,200.4000000015,16.7555
1496207478,183.6000000015,18.6569
1496207480,181.2000000015,19.3885
1496207482,207.6000000015,11.8739
1496207484,246.0000000015,15.7305
1496207486,274.8000000015,22.3314
1496207488,198.0000000015,21.1004
1496207490,243.6000000015,21.5022
1496207492,217.2000000015,22.236
1496207494,260.4000000015,16.5446
1496207496,238.8000000015,22.3806
1496207498,243.6000000015,17.5576
1496207500,246.0000000015,20.0123
1496207502,193.2000000015,15.5321
1496207504,214.8000000015,21.1321
1496207506,272.4000000015,16.0772
1496207508,217.2000000015,16.693
1496207510,219.6000000015,24.0031
1496207512,238.8000000015,22.373
1496207514,205.2000000015,8.36173
1496207518,214.8000000015,14.5901
1496207520,234.0000000015,12.7827
1496207522,219.6000000015,14.1396
1496207524,207.6000000015,14.6933
1496207526,202.8000000015,16.5042
1496207528,193.2000000015,13.5624
1496207530,277.2000000015,20.1749
1496207532,214.8000000015,21.5038
1496207534,210.0000000015,21.1358
1496207536,250.8000000015,23.1756
1496207538,217.2000000015,19.4237
1496207540,190.8000000015,21.9102
1496207542,212.4000000015,15.7691
1496207544,210.0000000015,18.4144
1496207546,190.8000000015,18.0506
1496207548,207.6000000015,16.3622
1496207550,219.6000000015,12.8346
1496207552,183.6000000015,18.7365
1496207554,198.0000000015,19.7714
1496207556,171.6000000015,19.5238
1496207558,195.6000000015,27.2352
1496207560,200.4000000015,25.2547
1496207562,174.0000000015,24.5812
1496207564,202.8000000015,26.0542
1496207566,212.4000000015,24.2752
1496207568,166.8000000015,13.5445
1496207570,198.0000000015,13.5338
1496207572,210.0000000015,13.3622
1496207574,236.4000000015,23.9793
1496207576,226.8000000015,23.219
1496207578,236.4000000015,14.2238
1496207580,238.8000000015,21.7721
1496207582,231.6000000015,18.725
1496207584,248.4000000015,20.9503
1496207586,236.4000000015,22.084
1496207588,284.4000000015,24.0972
1496207590,248.4000000015,24.3537
1496207592,272.4000000015,26.0069
1496207594,274.8000000015,21.5453
1496207596,243.6000000015,17.5736
1496207598,306.0000000015,18.2743
1496207600,282.0000000015,23.2937
1496207602,260.4000000015,23.4344
1496207604,214.8000000015,23.2002
1496207606,262.8000000015,18.2227
1496207608,277.2000000015,20.3097
1496207610,212.4000000015,15.9422
1496207612,231.6000000015,15.7736
1496207614,246.0000000015,17.6789
1496207616,303.6000000015,20.0101
1496207618,327.6000000015,17.5408
1496207620,332.4000000015,17.998
1496207622,294.0000000015,25.7443
1496207624,325.2000000015,19.8101
1496207626,260.4000000015,21.9205
1496207628,344.4000000015,19.9452
1496207630,301.2000000015,18.5034
1496207632,286.8000000015,19.6389
1496207634,298.8000000015,18.6168
1496207636,330.0000000015,17.934
1496207638,298.8000000015,20.6728
1496207640,339.6000000015,24.3214
1496207642,339.6000000015,22.1705
1496207644,313.2000000015,21.5684
1496207646,351.6000000015,21.0115
1496207648,306.0000000015,20.6854
1496207650,282.0000000015,21.3798
1496207652,229.2000000015,20.1565
1496207654,202.8000000015,20.0789
1496207656,320.4000000015,12.1765
1496207658,296.4000000015,13.9584
1496207660,284.4000000015,16.7099
1496207662,286.8000000015,14.8978
1496207664,289.2000000015,18.9367
1496207666,246.0000000015,23.073
1496207668,279.6000000015,17.1157
1496207670,253.2000000015,14.2329
1496207672,303.6000000015,13.3747
1496207674,308.4000000015,23.5296
1496207676,270.0000000015,22.3846
1496207678,303.6000000015,18.1426
1496207680,308.4000000015,14.2471
1496207682,325.2000000015,14.697
1496207684,330.0000000015,15.019
1496207686,315.6000000015,15.5724
1496207688,327.6000000015,16.8704
1496207690,366.0000000015,18.9548
1496207692,366.0000000015,20.2651
1496207694,402.0000000015,19.7245
1496207696,397.2000000015,16.1679
1496207698,358.8000000015,19.032
1496207700,387.6000000015,14.7148
1496207702,358.8000000015,13.9693
1496207704,404.4000000015,13.6156
1496207706,394.8000000015,15.4446
1496207708,346.8000000015,19.79
1496207710,320.4000000015,17.4458
1496207712,337.2000000015,19.6668
1496207714,306.0000000015,17.8942
1496207716,248.4000000015,21.7786
1496207718,186.0000000015,25.152
1496207720,260.4000000015,23.0249
1496207722,243.6000000015,20.9958
1496207724,217.2000000015,19.3747
1496207726,205.2000000015,18.2606
1496207730,222.0000000015,19.8532
1496207732,274.8000000015,19.4378
1496207734,207.6000000015,20.2481
1496207736,205.2000000015,16.4733
1496207738,234.0000000015,23.0965
1496207740,198.0000000015,24.3322
1496207742,190.8000000015,25.049
1496207744,200.4000000015,23.9309
1496207746,190.8000000015,22.1381
1496207748,200.4000000015,21.7725
1496207750,181.2000000015,28.5367
1496207752,176.4000000015,25.6229
1496207754,193.2000000015,21.4469
1496207756,219.6000000015,18.7548
1496207758,198.0000000015,15.5783
1496207760,231.6000000015,21.7974
1496207762,248.4000000015,23.2651
1496207764,262.8000000015,17.8273
1496207766,322.8000000015,22.5603
1496207768,322.8000000015,22.7322
1496207770,354.0000000015,19.7718
1496207772,346.8000000015,17.8374
1496207774,349.2000000015,22.8279
1496207776,303.6000000015,22.3741
1496207778,289.2000000015,18.2216
1496207780,315.6000000015,18.6503
1496207782,346.8000000015,19.6453
1496207784,318.0000000015,19.4065
1496207786,315.6000000015,21.7243
1496207788,325.2000000015,21.6998
1496207790,342.0000000015,19.8563
1496207792,320.4000000015,20.5965
1496207794,349.2000000015,18.6159
1496207796,351.6000000015,21.3353
1496207798,366.0000000015,18.334
1496207800,334.8000000015,20.5558
1496207802,344.4000000015,21.3226
1496207804,342.0000000015,22.5563
1496207806,349.2000000015,20.2196
1496207808,279.6000000015,21.5901
1496207810,363.6000000015,21.0499
1496207812,346.8000000015,21.3864
1496207814,253.2000000015,23.1204
1496207816,291.6000000015,23.3034
1496207818,318.0000000015,21.6661
1496207820,284.4000000015,14.1069
1496207822,229.2000000015,11.928
1496207824,279.6000000015,17.6171
1496207826,320.4000000015,17.5767
1496207828,294.0000000015,12.8645
1496207830,286.8000000015,15.7417
1496207832,267.6000000015,16.2807
1496207834,270.0000000015,17.1513
1496207836,210.0000000015,15.6991
1496207838,270.0000000015,15.6708
1496207840,255.6000000015,11.5856
1496207842,260.4000000015,13.0323
1496207844,301.2000000015,13.3188
1496207846,296.4000000015,14.033
1496207848,246.0000000015,16.4449
1496207850,272.4000000015,19.2284
1496207852,298.8000000015,22.4934
1496207854,320.4000000015,21.2096
1496207856,274.8000000015,19.7032
1496207858,332.4000000015,15.7969
1496207860,346.8000000015,15.5564
1496207862,277.2000000015,15.4006
1496207864,298.8000000015,18.1909
1496207866,327.6000000015,17.0479
1496207868,282.0000000015,14.4108
1496207870,265.2000000015,17.5862
1496207872,282.0000000015,18.1215
1496207874,265.2000000015,18.3559
1496207876,255.6000000015,19.9915
1496207878,234.0000000015,16.9734
1496207880,217.2000000015,16.1816
1496207882,241.2000000015,12.6029
1496207884,274.8000000015,14.4916
1496207886,253.2000000015,18.5309
1496207888,255.6000000015,16.1613
1496207890,224.4000000015,19.3978
1496207892,253.2000000015,18.0343
1496207894,250.8000000015,18.147
1496207896,289.2000000015,18.5977
1496207898,222.0000000015,15.8572
1496207900,229.2000000015,21.6083
1496207902,219.6000000015,27.0217
1496207904,222.0000000015,25.775
1496207906,246.0000000015,21.5708
1496207908,279.6000000015,18.7786
1496207910,258.0000000015,21.5559
1496207912,267.6000000015,18.7958
1496207914,253.2000000015,19.4512
1496207916,301.2000000015,15.1814
1496207918,236.4000000015,19.0282
1496207920,207.6000000015,20.5168
1496207922,246.0000000015,14.567
1496207924,212.4000000015,22.7571
1496207926,193.2000000015,21.3273
1496207928,188.4000000015,22.3938
1496207930,207.6000000015,9.34558
1496207932,198.0000000015,20.5576
1496207934,183.6000000015,19.9413
1496207936,205.2000000015,20.9096
1496207938,207.6000000015,20.87
1496207940,195.6000000015,24.2665
1496207942,212.4000000015,23.5357
1496207944,222.0000000015,20.9124
1496207946,152.4000000015,18.4776
1496207948,231.6000000015,19.3753
1496207950,241.2000000015,25.8413
1496207952,217.2000000015,20.5758
1496207954,195.6000000015,18.2695
1496207956,200.4000000015,22.9983
1496207958,265.2000000015,29.1954
1496207960,202.8000000015,22.9989
1496207962,253.2000000015,21.0474
1496207964,214.8000000015,17.5892
1496207966,222.0000000015,20.5348
1496207968,224.4000000015,18.0594
1496207970,200.4000000015,20.5319
1496207972,210.0000000015,17.7566
1496207974,186.0000000015,21.7396
1496207976,224.4000000015,21.4185
1496207978,188.4000000015,20.1039
1496207980,226.8000000015,28.154
1496207982,243.6000000015,23.7697
1496207984,181.2000000015,18.1824
1496207986,193.2000000015,21.9648
1496207988,205.2000000015,17.4776
1496207990,135.6000000015,23.4503
1496207992,162.0000000015,17.5944
1496207994,186.0000000015,20.9633
1496207996,162.0000000015,17.0469
1496207998,195.6000000015,17.3142
1496208000,176.4000000015,17.4346
1496208002,214.8000000015,23.0126
1496208004,169.2000000015,19.7108
1496208006,190.8000000015,27.2371
1496208008,198.0000000015,22.0722
1496208010,217.2000000015,22.2085
1496208012,202.8000000015,17.2434
1496208014,226.8000000015,23.5557
1496208016,195.6000000015,20.9103
1496208018,190.8000000015,18.8725
1496208020,190.8000000015,19.1051
1496208022,186.0000000015,15.5842
1496208024,200.4000000015,13.5569
1496208026,200.4000000015,19.1327
1496208028,171.6000000015,22.7325
1496208030,140.4000000015,21.1551
1496208032,176.4000000015,20.2311
1496208034,207.6000000015,21.7707
1496208036,190.8000000015,19.5177
1496208038,138.0000000015,22.8171
1496208040,183.6000000015,26.1394
