tag_number,delay,power_est
1498083068,530.5333333358,113.811
1498083070,393.7333333358,108.929
1498083072,465.7333333358,111.434
1498083074,492.1333333358,108.731
1498083076,446.5333333358,112.516
1498083078,448.9333333358,106.621
1498083080,441.7333333358,112.268
1498083082,451.3333333358,105.25
1498083084,439.3333333358,111.125
1498083086,501.7333333358,104.923
1498083088,412.9333333358,109.284
1498083090,415.3333333358,115.7
1498083092,436.9333333358,117.002
1498083094,439.3333333358,111.897
1498083096,432.1333333358,115.864
1498083098,448.9333333358,120.88
1498083100,424.9333333358,118.865
1498083102,444.1333333358,118.682
1498083104,427.3333333358,112.953
1498083106,458.5333333358,113.362
1498083108,432.1333333358,111.343
1498083110,415.3333333358,109.404
1498083112,424.9333333358,105.873
1498083114,444.1333333358,110.696
1498083116,439.3333333358,111.577
1498083118,412.9333333358,108.271
1498083120,376.9333333358,120.227
1498083122,427.3333333358,117.32
1498083124,410.5333333358,113.972
1498083126,434.5333333358,115.762
1498083128,417.7333333358,118.3
1498083130,463.3333333358,117.825
1498083132,420.1333333358,109.708
1498083134,489.7333333358,114.306
1498083136,446.5333333358,120.847
1498083138,446.5333333358,113.822
1498083140,427.3333333358,117.088
1498083142,494.5333333358,117.577
1498083144,420.1333333358,122.485
1498083146,463.3333333358,118.713
1498083148,487.3333333358,119.323
1498083150,427.3333333358,110.484
1498083152,444.1333333358,120.054
1498083154,463.3333333358,107.28
1498083156,480.1333333358,112.939
1498083158,422.5333333358,120.892
1498083160,472.9333333358,117.809
1498083162,496.9333333358,119.906
1498083164,432.1333333358,123.305
1498083166,504.1333333358,123.183
1498083168,453.7333333358,111.122
1498083170,429.7333333358,109.981
1498083172,477.7333333358,114.187
1498083174,448.9333333358,118.961
1498083176,427.3333333358,108.993
1498083178,432.1333333358,108.216
1498083180,456.1333333358,119.905
1498083182,444.1333333358,107.43
1498083184,468.1333333358,99.3244
1498083186,480.1333333358,116.299
1498083188,448.9333333358,111.516
1498083190,434.5333333358,111.907
1498083192,537.7333333358,113.183
1498083194,487.3333333358,115.674
1498083196,492.1333333358,117.393
1498083198,405.7333333358,114.573
1498083200,446.5333333358,118.067
1498083202,451.3333333358,97.925
1498083204,516.1333333358,108.47
1498083206,400.9333333358,116.62
1498083208,448.9333333358,107.679
1498083210,494.5333333358,117.356
1498083212,523.3333333358,113.158
1498083214,516.1333333358,109.767
1498083216,482.5333333358,111.635
1498083218,453.7333333358,114.794
1498083220,422.5333333358,112.648
1498083222,441.7333333358,113.389
1498083224,432.1333333358,108.566
1498083226,434.5333333358,110.908
1498083228,472.9333333358,104.823
1498083230,448.9333333358,106.63
1498083232,492.1333333358,107.691
1498083234,530.5333333358,105.989
1498083236,432.1333333358,111.774
1498083238,451.3333333358,112.008
1498083240,484.9333333358,113.767
1498083242,463.3333333358,117.93
1498083244,456.1333333358,111.229
1498083246,436.9333333358,110.955
1498083248,417.7333333358,108.899
1498083250,504.1333333358,111.467
1498083252,432.1333333358,109.91
1498083254,427.3333333358,112.251
1498083256,460.9333333358,113.621
1498083258,429.7333333358,109.83
1498083260,422.5333333358,104.363
1498083262,429.7333333358,106.545
1498083264,465.7333333358,108.972
1498083266,432.1333333358,114.328
1498083268,434.5333333358,110.852
1498083270,432.1333333358,107.827
1498083272,424.9333333358,109.505
1498083274,434.5333333358,117.344
1498083276,403.3333333358,115.364
1498083278,465.7333333358,114.569
1498083280,369.7333333358,124.098
1498083282,453.7333333358,120.456
1498083284,463.3333333358,107.953
1498083286,422.5333333358,113.643
1498083288,506.5333333358,117.741
1498083290,513.7333333358,109.818
1498083292,520.9333333358,114.718
1498083294,528.1333333358,114.105
1498083296,470.5333333358,111.078
1498083298,444.1333333358,112.121
1498083300,456.1333333358,113.196
1498083302,492.1333333358,109.749
1498083304,506.5333333358,106.98
1498083306,508.9333333358,110.21
1498083308,523.3333333358,120.032
1498083310,439.3333333358,121.454
1498083312,453.7333333358,120.532
1498083314,456.1333333358,120.346
1498083316,487.3333333358,119.181
1498083318,504.1333333358,123.571
1498083320,434.5333333358,115.767
1498083322,492.1333333358,115.774
1498083324,542.5333333358,118.882
1498083326,520.9333333358,103.008
1498083328,535.3333333358,113.469
1498083330,528.1333333358,118.792
1498083332,542.5333333358,114.239
1498083334,547.3333333358,106.803
1498083336,542.5333333358,101.516
1498083338,542.5333333358,104.398
1498083340,516.1333333358,111.522
1498083342,465.7333333358,128.96
1498083344,544.9333333358,115.423
1498083346,525.7333333358,114.508
1498083348,528.1333333358,107.53
1498083350,528.1333333358,111.939
1498083352,504.1333333358,109.237
1498083354,528.1333333358,109.413
1498083356,475.3333333358,110.99
1498083358,556.9333333358,107.145
1498083360,542.5333333358,106.404
1498083362,532.9333333358,107.968
1498083364,540.1333333358,115.615
1498083366,518.5333333358,112.511
1498083368,508.9333333358,114.363
1498083370,540.1333333358,112.244
1498083372,540.1333333358,107.266
1498083374,540.1333333358,112.891
1498083376,530.5333333358,111.86
1498083378,542.5333333358,111.267
1498083380,513.7333333358,110.425
1498083382,559.3333333358,102.634
1498083384,552.1333333358,102.939
1498083386,511.3333333358,110.858
1498083388,542.5333333358,122.287
1498083390,542.5333333358,113.34
1498083392,484.9333333358,103.156
1498083394,494.5333333358,109.493
1498083396,482.5333333358,116.199
1498083398,489.7333333358,116.694
1498083400,448.9333333358,114.649
1498083402,487.3333333358,114.1
1498083404,477.7333333358,116.315
1498083406,506.5333333358,121.179
1498083408,511.3333333358,120.788
1498083410,513.7333333358,119.334
1498083412,477.7333333358,116.788
1498083414,540.1333333358,109.15
1498083416,504.1333333358,110.608
1498083418,499.3333333358,103.089
1498083420,523.3333333358,109.058
1498083422,470.5333333358,109.91
1498083424,441.7333333358,104.91
1498083426,484.9333333358,115.048
1498083428,441.7333333358,116.526
1498083430,499.3333333358,125.317
1498083432,508.9333333358,116.281
1498083434,441.7333333358,125.114
1498083436,470.5333333358,118.473
1498083438,535.3333333358,115.618
1498083440,494.5333333358,112.883
1498083442,470.5333333358,111.791
1498083444,492.1333333358,126.76
1498083446,444.1333333358,111.561
1498083448,530.5333333358,120.872
1498083450,530.5333333358,114.285
1498083452,460.9333333358,116.351
1498083454,525.7333333358,120.533
1498083456,508.9333333358,110.479
1498083458,441.7333333358,110.101
1498083460,504.1333333358,107.306
1498083462,547.3333333358,109.05
1498083464,542.5333333358,107.988
1498083466,523.3333333358,114.043
1498083468,547.3333333358,123.607
1498083470,475.3333333358,115.801
1498083472,463.3333333358,114.781
1498083474,439.3333333358,117.257
1498083476,492.1333333358,112.903
1498083478,501.7333333358,113.28
1498083480,460.9333333358,118.1
1498083482,460.9333333358,112.959
1498083484,537.7333333358,122.419
1498083486,528.1333333358,120.822
1498083488,456.1333333358,117.679
1498083490,451.3333333358,119.931
1498083492,436.9333333358,120.681
1498083494,396.1333333358,115.774
1498083496,444.1333333358,111.92
1498083498,448.9333333358,113.171
1498083500,391.3333333358,108.912
1498083502,403.3333333358,115.947
1498083504,393.7333333358,118.411
1498083506,398.5333333358,113.911
1498083508,388.9333333358,118.697
1498083510,403.3333333358,112.796
1498083512,434.5333333358,118.592
1498083514,542.5333333358,117.065
1498083516,612.1333333358,112.825
1498083518,549.7333333358,110.12
1498083520,595.3333333358,115.658
1498083522,612.1333333358,122.066
1498083524,554.5333333358,112.53
1498083526,578.5333333358,113.749
1498083528,614.5333333358,126.188
1498083530,590.5333333358,114.209
1498083532,542.5333333358,111.415
1498083534,607.3333333358,110.83
1498083536,578.5333333358,114.173
1498083538,595.3333333358,114.325
1498083540,554.5333333358,115.323
1498083542,540.1333333358,118.011
1498083544,554.5333333358,108.97
1498083546,564.1333333358,109.118
1498083548,547.3333333358,111.204
1498083550,542.5333333358,109.855
1498083552,559.3333333358,111.774
1498083554,540.1333333358,124.593
1498083556,537.7333333358,112.115
1498083558,544.9333333358,114.538
1498083560,501.7333333358,119.454
1498083562,540.1333333358,116.167
1498083564,516.1333333358,111.427
1498083566,506.5333333358,110.015
1498083568,528.1333333358,116.161
1498083570,535.3333333358,114.505
1498083572,528.1333333358,115.356
1498083574,537.7333333358,109.61
1498083576,549.7333333358,111.763
1498083578,571.3333333358,108.306
1498083580,556.9333333358,115.871
1498083582,556.9333333358,110.588
1498083584,614.5333333358,112.679
1498083586,547.3333333358,115.626
1498083588,595.3333333358,114.547
1498083590,554.5333333358,118.118
1498083592,530.5333333358,109.83
1498083594,552.1333333358,116.16
1498083596,556.9333333358,117.369
1498083598,544.9333333358,105.902
1498083600,552.1333333358,106.274
1498083602,532.9333333358,114.779
1498083604,516.1333333358,115.72
1498083606,504.1333333358,120.218
1498083608,552.1333333358,118.257
1498083610,484.9333333358,121.403
1498083612,571.3333333358,117.442
1498083614,571.3333333358,112.6
1498083616,554.5333333358,109.517
1498083618,592.9333333358,114.905
1498083620,588.1333333358,116.766
1498083622,609.7333333358,113.063
1498083624,614.5333333358,117.622
1498083626,628.9333333358,109.957
1498083628,592.9333333358,114.72
1498083630,580.9333333358,111.29
1498083632,561.7333333358,108.701
1498083634,576.1333333358,116.718
1498083636,621.7333333358,118.569
1498083638,583.3333333358,111.804
1498083640,552.1333333358,110.935
1498083642,518.5333333358,117.246
1498083644,540.1333333358,120.046
1498083646,513.7333333358,115.649
1498083648,480.1333333358,119.896
1498083650,528.1333333358,113.558
1498083652,537.7333333358,116.657
1498083654,499.3333333358,113.37
1498083656,556.9333333358,111.168
1498083658,554.5333333358,118.138
1498083660,540.1333333358,115.733
1498083662,561.7333333358,111.988
1498083664,525.7333333358,113.366
1498083666,511.3333333358,115.273
1498083668,535.3333333358,111.517
1498083670,496.9333333358,109.28
1498083672,530.5333333358,102.887
1498083674,532.9333333358,106.678
1498083676,583.3333333358,111.949
1498083678,482.5333333358,103.497
1498083680,549.7333333358,105.657
1498083682,516.1333333358,108.907
1498083684,552.1333333358,116.56
1498083686,566.5333333358,113.974
1498083688,532.9333333358,115.595
1498083690,537.7333333358,112.958
1498083692,616.9333333358,115.804
1498083694,535.3333333358,115.438
1498083696,566.5333333358,107.222
1498083698,556.9333333358,110.02
1498083700,554.5333333358,113.469
1498083702,561.7333333358,108.63
1498083704,530.5333333358,104.223
1498083706,535.3333333358,95.1106
1498083708,480.1333333358,101.632
1498083710,532.9333333358,110.871
1498083712,480.1333333358,112.114
1498083714,513.7333333358,110.594
1498083716,559.3333333358,105.782
1498083718,530.5333333358,108.302
1498083720,520.9333333358,107.175
1498083722,573.7333333358,121.579
1498083724,549.7333333358,117.631
1498083726,540.1333333358,119.336
1498083728,549.7333333358,109.634
1498083730,544.9333333358,106.48
1498083732,549.7333333358,115.095
1498083734,576.1333333358,103.786
1498083736,607.3333333358,105.726
1498083738,568.9333333358,101.774
1498083740,578.5333333358,103.345
1498083742,590.5333333358,102.28
1498083744,578.5333333358,100.624
1498083746,624.1333333358,97.6938
1498083748,631.3333333358,105.592
1498083750,600.1333333358,107.166
1498083752,607.3333333358,102.468
1498083754,640.9333333358,105.414
1498083756,602.5333333358,99.8392
1498083758,624.1333333358,109.882
1498083760,648.1333333358,108.636
1498083762,612.1333333358,116.986
1498083764,660.1333333358,107.778
1498083766,655.3333333358,105.379
1498083768,624.1333333358,103.305
1498083770,645.7333333358,104.996
1498083772,612.1333333358,106.507
1498083774,604.9333333358,106.122
1498083776,614.5333333358,108.498
1498083778,571.3333333358,108.347
1498083780,556.9333333358,110.075
1498083782,631.3333333358,111.112
1498083784,616.9333333358,110.843
1498083786,619.3333333358,106.124
1498083788,633.7333333358,107.732
1498083790,626.5333333358,109.872
1498083792,592.9333333358,111.884
1498083794,657.7333333358,114.887
1498083796,633.7333333358,117.678
1498083798,638.5333333358,98.3231
1498083800,624.1333333358,108.773
1498083802,612.1333333358,114.198
1498083804,609.7333333358,100.943
1498083806,657.7333333358,111.875
1498083808,590.5333333358,109.231
1498083810,564.1333333358,113.114
1498083812,609.7333333358,114.52
1498083814,571.3333333358,108.932
1498083816,619.3333333358,112.379
1498083818,660.1333333358,118.053
1498083820,621.7333333358,107.6
1498083822,645.7333333358,113.028
1498083824,648.1333333358,109.819
1498083826,592.9333333358,99.0689
1498083828,595.3333333358,107.045
1498083830,633.7333333358,115.637
1498083832,592.9333333358,105.596
1498083834,626.5333333358,114.809
1498083836,628.9333333358,121.491
1498083838,556.9333333358,115.496
1498083840,616.9333333358,113.8
1498083842,619.3333333358,115.513
1498083844,597.7333333358,104.368
1498083846,614.5333333358,113.717
1498083848,602.5333333358,111.187
1498083850,614.5333333358,106.774
1498083852,590.5333333358,107.178
1498083854,621.7333333358,112.894
1498083856,595.3333333358,113.267
1498083858,568.9333333358,111.359
1498083860,614.5333333358,112.536
1498083862,607.3333333358,113.673
1498083864,566.5333333358,115.742
1498083866,626.5333333358,119.438
1498083868,612.1333333358,116.87
1498083870,592.9333333358,121.793
1498083872,631.3333333358,115.498
1498083874,604.9333333358,118.056
1498083876,566.5333333358,116.448
1498083878,633.7333333358,114.333
1498083880,564.1333333358,119.067
1498083882,580.9333333358,122.411
1498083884,571.3333333358,118.247
1498083886,583.3333333358,118.33
1498083888,612.1333333358,117.11
1498083890,585.7333333358,116.511
1498083892,583.3333333358,118.292
1498083894,602.5333333358,114.753
1498083896,602.5333333358,117.114
1498083898,580.9333333358,119.958
1498083900,544.9333333358,121.618
1498083902,571.3333333358,111.219
1498083904,580.9333333358,115.896
1498083906,556.9333333358,115.15
1498083908,631.3333333358,122.735
1498083910,614.5333333358,122.236
1498083912,556.9333333358,118.659
1498083914,597.7333333358,115.621
1498083916,571.3333333358,108.612
1498083918,566.5333333358,112.293
1498083920,616.9333333358,125.164
1498083922,621.7333333358,115.705
1498083924,561.7333333358,114.045
1498083926,600.1333333358,111.802
1498083930,554.5333333358,117.065
1498083932,559.3333333358,123.16
1498083934,568.9333333358,119.878
1498083936,564.1333333358,116.78
1498083938,559.3333333358,108.481
1498083940,564.1333333358,106.626
1498083942,585.7333333358,108.215
1498083944,600.1333333358,106.041
1498083946,621.7333333358,116.573
1498083948,537.7333333358,116.395
1498083950,583.3333333358,118.991
1498083952,600.1333333358,121.917
1498083954,559.3333333358,122.362
1498083956,612.1333333358,120.608
1498083958,602.5333333358,111.886
1498083960,578.5333333358,112.382
1498083962,540.1333333358,107.998
1498083964,547.3333333358,118.746
1498083966,535.3333333358,117.122
1498083968,528.1333333358,110.688
1498083970,549.7333333358,115.011
1498083972,525.7333333358,114.517
1498083974,513.7333333358,108.977
1498083976,532.9333333358,106.106
1498083978,525.7333333358,107.833
1498083980,489.7333333358,120.111
1498083982,492.1333333358,109.651
1498083984,482.5333333358,113.043
1498083986,508.9333333358,111.45
1498083988,544.9333333358,110.975
1498083990,496.9333333358,125.5
1498083992,516.1333333358,122.701
1498083994,492.1333333358,113.252
1498083996,508.9333333358,122.244
1498083998,508.9333333358,121.511
1498084000,444.1333333358,113.932
1498084002,477.7333333358,116.442
1498084004,422.5333333358,113.343
1498084006,468.1333333358,116.573
1498084008,446.5333333358,119.27
1498084010,475.3333333358,110.57
1498084012,475.3333333358,116.876
1498084014,439.3333333358,119.113
1498084016,446.5333333358,118.579
1498084018,540.1333333358,119.366
1498084020,518.5333333358,118.282
1498084022,451.3333333358,112.943
1498084024,499.3333333358,107.228
1498084026,470.5333333358,107.244
1498084028,417.7333333358,102.909
1498084030,487.3333333358,111.153
1498084032,504.1333333358,111.191
1498084034,468.1333333358,109.037
1498084036,458.5333333358,113.387
1498084038,427.3333333358,108.374
1498084040,408.1333333358,109.172
1498084042,441.7333333358,101.694
1498084044,388.9333333358,104.76
1498084046,415.3333333358,106.127
1498084048,484.9333333358,109.325
1498084050,487.3333333358,101.679
1498084052,492.1333333358,113.671
1498084054,508.9333333358,107.348
1498084056,460.9333333358,117.623
1498084058,487.3333333358,111.196
1498084060,530.5333333358,106.286
1498084062,465.7333333358,105.481
1498084064,501.7333333358,108.302
1498084066,520.9333333358,110.841
1498084068,446.5333333358,115.031
1498084070,477.7333333358,114.636
1498084072,446.5333333358,115.585
1498084074,446.5333333358,116.201
1498084076,492.1333333358,111.289
1498084078,494.5333333358,114.458
1498084080,477.7333333358,110.004
1498084082,482.5333333358,109.233
1498084084,429.7333333358,113.726
1498084086,408.1333333358,114.571
1498084088,528.1333333358,118.06
1498084090,451.3333333358,112.287
1498084092,468.1333333358,110.809
1498084094,453.7333333358,116.126
1498084096,477.7333333358,112.944
1498084098,448.9333333358,118.525
1498084100,451.3333333358,115.992
1498084102,415.3333333358,116.217
1498084104,384.1333333358,113.215
1498084106,444.1333333358,118.676
1498084108,470.5333333358,110.339
1498084110,487.3333333358,119.251
1498084112,501.7333333358,112.548
1498084114,487.3333333358,117.17
1498084116,482.5333333358,119.918
1498084118,477.7333333358,111.724
1498084120,537.7333333358,109.253
1498084122,508.9333333358,103.626
1498084124,532.9333333358,112.068
1498084126,537.7333333358,114.281
1498084128,499.3333333358,114.343
1498084130,508.9333333358,114.317
1498084132,552.1333333358,117.357
1498084134,540.1333333358,116.487
1498084136,556.9333333358,116.046
1498084138,561.7333333358,104.38
1498084140,547.3333333358,116.55
1498084142,595.3333333358,114.455
1498084144,578.5333333358,115.468
1498084146,525.7333333358,109.917
1498084148,554.5333333358,112.605
1498084150,552.1333333358,107.729
1498084152,525.7333333358,101.708
1498084154,559.3333333358,105.168
1498084156,537.7333333358,104.015
1498084158,530.5333333358,109.964
1498084160,554.5333333358,103.639
1498084162,542.5333333358,103.571
1498084164,544.9333333358,100.685
1498084166,540.1333333358,102.898
1498084168,532.9333333358,99.7807
1498084170,535.3333333358,100.523
1498084172,559.3333333358,103.928
1498084174,518.5333333358,103.985
1498084176,554.5333333358,102.339
1498084178,535.3333333358,113.312
1498084180,523.3333333358,114.402
1498084182,496.9333333358,113.408
1498084184,525.7333333358,118.351
1498084186,506.5333333358,109.063
1498084188,525.7333333358,109.043
1498084190,489.7333333358,117.375
1498084192,472.9333333358,118.808
1498084194,484.9333333358,112.321
1498084196,537.7333333358,119.387
1498084198,465.7333333358,114.181
1498084200,475.3333333358,113.116
1498084202,544.9333333358,114.042
1498084204,523.3333333358,110.257
1498084206,516.1333333358,110.037
1498084208,523.3333333358,114.586
1498084210,444.1333333358,115.285
1498084212,439.3333333358,115.4
1498084214,508.9333333358,109.021
1498084216,494.5333333358,120.536
1498084218,456.1333333358,114.534
1498084220,489.7333333358,119.397
1498084222,453.7333333358,122.575
1498084224,446.5333333358,125.666
1498084226,487.3333333358,121.486
1498084228,470.5333333358,115.813
1498084230,463.3333333358,117.02
1498084232,480.1333333358,116.796
1498084234,544.9333333358,113.694
1498084236,472.9333333358,112.772
1498084238,427.3333333358,118.987
1498084240,472.9333333358,104.768
1498084242,420.1333333358,108.059
1498084244,508.9333333358,100.775
1498084246,504.1333333358,106.308
1498084248,429.7333333358,105.147
1498084250,451.3333333358,111.837
1498084252,458.5333333358,102.008
1498084254,470.5333333358,113.091
1498084256,434.5333333358,113.851
1498084258,528.1333333358,104.752
1498084260,480.1333333358,100.941
1498084262,480.1333333358,112.76
1498084264,535.3333333358,106.62
1498084266,523.3333333358,114.397
1498084268,547.3333333358,113.748
1498084270,535.3333333358,111.69
1498084272,532.9333333358,108.559
1498084274,595.3333333358,112.926
1498084276,571.3333333358,103.325
1498084278,559.3333333358,110.33
1498084280,588.1333333358,112.905
1498084282,604.9333333358,120.694
1498084284,592.9333333358,114.89
1498084286,583.3333333358,111.465
1498084288,645.7333333358,108.009
1498084290,588.1333333358,111.28
1498084292,619.3333333358,100.858
1498084294,614.5333333358,107.471
1498084296,604.9333333358,105.268
1498084298,648.1333333358,108.741
1498084300,626.5333333358,111.509
1498084302,585.7333333358,115.249
1498084304,614.5333333358,109.586
1498084306,626.5333333358,114.719
1498084308,631.3333333358,123.522
1498084310,621.7333333358,121.438
1498084312,626.5333333358,121.19
1498084314,612.1333333358,116.332
1498084316,628.9333333358,113.997
1498084318,628.9333333358,122.59
1498084320,626.5333333358,116.213
1498084322,643.3333333358,113.003
1498084324,648.1333333358,120.685
1498084326,604.9333333358,114.009
1498084328,592.9333333358,121.655
1498084330,614.5333333358,112.896
1498084332,585.7333333358,115.018
1498084334,636.1333333358,117.38
1498084336,616.9333333358,119.693
1498084338,595.3333333358,111.892
1498084340,590.5333333358,104.693
1498084342,607.3333333358,101.966
1498084344,566.5333333358,117.113
1498084346,537.7333333358,112.731
1498084348,523.3333333358,109.151
1498084350,518.5333333358,103.423
1498084352,528.1333333358,109.208
1498084354,504.1333333358,110.41
1498084356,504.1333333358,111.983
1498084358,472.9333333358,109.68
1498084360,484.9333333358,113.463
1498084362,532.9333333358,107
1498084364,465.7333333358,104.987
1498084366,499.3333333358,97.764
1498084368,434.5333333358,105.188
1498084370,535.3333333358,101.289
1498084372,492.1333333358,112.349
1498084374,484.9333333358,102.133
1498084376,482.5333333358,110.84
1498084378,456.1333333358,104.308
1498084380,422.5333333358,114.31
1498084382,448.9333333358,111.085
1498084384,444.1333333358,98.6109
1498084386,451.3333333358,111.943
1498084388,420.1333333358,108.279
1498084390,480.1333333358,110.863
1498084392,456.1333333358,108.223
1498084394,456.1333333358,110.37
1498084396,439.3333333358,104.858
1498084398,463.3333333358,103.689
1498084400,501.7333333358,104.289
1498084402,472.9333333358,107.131
1498084404,463.3333333358,102.769
1498084406,511.3333333358,95.3855
1498084408,516.1333333358,104.648
1498084410,463.3333333358,103.038
1498084412,520.9333333358,106.073
1498084414,487.3333333358,113.633
1498084416,475.3333333358,113.196
1498084418,453.7333333358,105.969
1498084420,427.3333333358,104.167
1498084422,417.7333333358,100.968
1498084424,441.7333333358,102.511
1498084426,482.5333333358,110.067
1498084428,458.5333333358,104.859
1498084430,518.5333333358,107.712
1498084432,513.7333333358,103.897
1498084434,446.5333333358,107.404
1498084436,451.3333333358,103.102
1498084438,451.3333333358,102.453
1498084440,441.7333333358,103.896
1498084442,501.7333333358,101.526
1498084444,511.3333333358,110.204
1498084446,446.5333333358,109.002
1498084448,422.5333333358,114.709
1498084450,422.5333333358,111.291
1498084452,427.3333333358,103.54
1498084454,504.1333333358,110.413
1498084456,448.9333333358,110.234
1498084458,441.7333333358,108.727
1498084460,484.9333333358,104.888
1498084462,432.1333333358,108.482
1498084464,400.9333333358,103.13
1498084466,477.7333333358,103.767
1498084468,427.3333333358,111.43
1498084470,446.5333333358,106.324
1498084472,444.1333333358,111.74
1498084474,439.3333333358,106.15
1498084476,444.1333333358,108.359
1498084478,463.3333333358,116.269
1498084480,475.3333333358,109.979
1498084482,475.3333333358,115.696
1498084484,518.5333333358,117.127
1498084486,446.5333333358,109.763
1498084488,432.1333333358,107.711
1498084490,468.1333333358,110.59
1498084492,441.7333333358,109.062
1498084494,400.9333333358,107.436
1498084496,460.9333333358,115.493
1498084498,460.9333333358,117.07
1498084500,427.3333333358,113.466
1498084502,472.9333333358,112.842
1498084504,487.3333333358,114.112
1498084506,463.3333333358,105.561
1498084508,520.9333333358,111.958
1498084510,453.7333333358,118.884
1498084512,434.5333333358,120.46
1498084514,496.9333333358,118.82
1498084516,460.9333333358,116.477
1498084518,458.5333333358,108.01
1498084520,470.5333333358,109.697
1498084522,451.3333333358,111.505
1498084524,456.1333333358,119.289
1498084526,480.1333333358,114.582
1498084528,480.1333333358,110.426
1498084530,504.1333333358,111.634
1498084532,436.9333333358,115.342
1498084534,504.1333333358,116.822
1498084536,487.3333333358,110.495
1498084538,444.1333333358,109.992
1498084540,540.1333333358,104.763
1498084542,475.3333333358,106.231
1498084544,499.3333333358,103.764
1498084546,528.1333333358,112.767
1498084548,504.1333333358,111.048
1498084550,508.9333333358,106.107
1498084552,508.9333333358,111.934
1498084554,463.3333333358,116.976
1498084556,537.7333333358,102.461
1498084558,508.9333333358,108.943
1498084560,458.5333333358,111.416
1498084562,405.7333333358,102.885
1498084564,432.1333333358,108.147
1498084566,441.7333333358,113.308
1498084568,499.3333333358,114.168
1498084570,456.1333333358,112.097
1498084572,530.5333333358,108.495
1498084574,480.1333333358,116.672
1498084576,475.3333333358,113.78
1498084578,484.9333333358,110.789
1498084580,441.7333333358,111.684
1498084582,484.9333333358,109.649
1498084584,511.3333333358,115.696
1498084586,458.5333333358,106.997
1498084588,463.3333333358,100.606
1498084590,429.7333333358,111.985
1498084592,436.9333333358,103.762
1498084594,432.1333333358,112.959
1498084596,532.9333333358,111.888
1498084598,446.5333333358,112.518
1498084600,496.9333333358,114.385
1498084602,508.9333333358,109.999
1498084604,458.5333333358,112.861
1498084606,487.3333333358,116.542
1498084608,499.3333333358,113.657
1498084610,477.7333333358,111.555
1498084612,482.5333333358,107.639
1498084614,547.3333333358,113.875
1498084616,549.7333333358,121.406
1498084618,530.5333333358,116.048
1498084620,501.7333333358,122.112
1498084622,482.5333333358,116.701
1498084624,532.9333333358,116.306
1498084626,494.5333333358,122.303
1498084628,544.9333333358,121.268
1498084630,523.3333333358,120.322
1498084632,530.5333333358,122.455
1498084634,482.5333333358,110.448
1498084636,513.7333333358,113.14
1498084638,523.3333333358,108.923
1498084640,523.3333333358,113.633
1498084642,477.7333333358,115.229
1498084644,528.1333333358,116.677
1498084646,482.5333333358,114.2
1498084648,444.1333333358,112.629
1498084650,487.3333333358,117.996
1498084652,525.7333333358,122.778
1498084654,458.5333333358,109.884
1498084656,501.7333333358,106.632
1498084658,451.3333333358,115.996
1498084660,432.1333333358,110.803
1498084662,513.7333333358,110.219
1498084664,496.9333333358,113.175
1498084666,530.5333333358,110.667
1498084668,518.5333333358,113.713
1498084670,496.9333333358,111.85
1498084672,436.9333333358,111.801
1498084674,458.5333333358,112.758
1498084676,554.5333333358,113.835
1498084678,453.7333333358,115.134
1498084680,506.5333333358,120.936
1498084682,523.3333333358,106.821
1498084684,472.9333333358,106.21
1498084686,518.5333333358,109.143
1498084688,525.7333333358,104.337
1498084690,506.5333333358,101.805
1498084692,508.9333333358,99.0642
1498084694,525.7333333358,106.072
1498084696,480.1333333358,108.285
1498084698,492.1333333358,105.229
1498084700,520.9333333358,108.97
1498084702,489.7333333358,106.33
1498084704,513.7333333358,109.933
1498084706,472.9333333358,114.26
1498084708,475.3333333358,114.505
1498084710,463.3333333358,122.132
1498084712,468.1333333358,113.527
1498084714,458.5333333358,118.809
1498084716,540.1333333358,111.433
1498084718,494.5333333358,109.701
1498084720,475.3333333358,109.642
1498084722,544.9333333358,112.876
1498084724,494.5333333358,116.645
1498084726,475.3333333358,114.531
1498084728,470.5333333358,106.417
1498084730,477.7333333358,109.84
1498084732,520.9333333358,111.542
1498084736,530.5333333358,120.287
1498084738,518.5333333358,110.199
1498084740,535.3333333358,112.506
1498084742,549.7333333358,107.98
1498084744,484.9333333358,113.47
1498084746,513.7333333358,117.254
1498084748,556.9333333358,108.511
1498084750,516.1333333358,107.9
1498084752,564.1333333358,113.721
1498084754,544.9333333358,112.96
1498084756,583.3333333358,116.65
1498084758,520.9333333358,108.664
1498084760,540.1333333358,116.048
1498084762,494.5333333358,110.795
1498084764,549.7333333358,108.932
1498084766,576.1333333358,107.705
1498084768,549.7333333358,99.976
1498084770,506.5333333358,104.309
1498084772,492.1333333358,95.48
1498084774,511.3333333358,107.049
1498084776,542.5333333358,104.087
1498084778,547.3333333358,112.313
1498084780,542.5333333358,104.125
1498084782,530.5333333358,112.8
1498084784,535.3333333358,109.306
1498084786,523.3333333358,107.88
1498084788,465.7333333358,111.178
1498084790,544.9333333358,127.626
1498084792,520.9333333358,112.383
1498084794,542.5333333358,117.627
1498084796,535.3333333358,111.067
1498084798,537.7333333358,109.241
1498084800,480.1333333358,107.338
1498084802,542.5333333358,109.609
1498084804,532.9333333358,108.112
1498084806,511.3333333358,106.878
1498084808,544.9333333358,118.44
1498084810,535.3333333358,115.239
1498084812,501.7333333358,115.639
1498084814,552.1333333358,124.289
1498084816,480.1333333358,118.538
1498084818,494.5333333358,111.107
1498084820,532.9333333358,111.942
1498084822,530.5333333358,102.127
1498084824,508.9333333358,110.571
1498084826,530.5333333358,110.503
1498084828,559.3333333358,111.713
1498084830,528.1333333358,115.073
1498084832,554.5333333358,117.922
1498084834,470.5333333358,118.374
1498084836,520.9333333358,112.11
1498084838,544.9333333358,114.781
1498084840,530.5333333358,119.38
1498084842,465.7333333358,116.748
1498084844,523.3333333358,107.725
1498084846,496.9333333358,102.801
1498084848,508.9333333358,106.506
1498084850,547.3333333358,107.928
1498084852,523.3333333358,112.093
1498084854,544.9333333358,112.118
1498084856,496.9333333358,113.271
1498084860,496.9333333358,113.598
1498084862,556.9333333358,108.285
1498084864,465.7333333358,108.954
1498084866,549.7333333358,105.99
1498084868,556.9333333358,98.3623
1498084870,559.3333333358,111.533
1498084872,602.5333333358,109.817
1498084874,523.3333333358,108.146
1498084876,448.9333333358,108.65
1498084878,470.5333333358,106.943
1498084880,508.9333333358,103.49
1498084882,446.5333333358,108.809
1498084884,441.7333333358,115.339
1498084886,489.7333333358,109.284
1498084888,420.1333333358,104.111
1498084890,432.1333333358,109.2
1498084892,482.5333333358,106.844
1498084894,470.5333333358,109.405
1498084896,465.7333333358,114.146
1498084898,453.7333333358,113.546
1498084900,424.9333333358,106.555
1498084902,501.7333333358,106.125
1498084904,376.9333333358,106.415
1498084906,357.7333333358,108.356
1498084908,400.9333333358,110.196
1498084910,420.1333333358,107.64
1498084912,410.5333333358,105.861
1498084914,391.3333333358,108.696
1498084916,410.5333333358,119.639
1498084918,391.3333333358,111.38
1498084920,326.5333333358,109.736
1498084922,412.9333333358,113.113
1498084924,396.1333333358,111.664
1498084926,388.9333333358,105.38
1498084928,400.9333333358,113.313
1498084930,388.9333333358,112.216
1498084932,372.1333333358,104.221
1498084934,410.5333333358,107.07
1498084936,374.5333333358,106.14
1498084938,386.5333333358,106.778
1498084940,374.5333333358,110.096
1498084942,369.7333333358,113.886
1498084944,381.7333333358,113.646
1498084946,379.3333333358,102.343
1498084948,362.5333333358,105.169
1498084950,403.3333333358,111.14
1498084952,381.7333333358,107.917
1498084954,326.5333333358,107.549
1498084956,357.7333333358,108.472
1498084958,415.3333333358,97.2731
1498084960,369.7333333358,105.424
1498084962,386.5333333358,107.363
1498084964,403.3333333358,111.086
1498084966,355.3333333358,104.334
1498084968,396.1333333358,111.885
1498084970,470.5333333358,115.635
1498084972,360.1333333358,116.339
1498084974,403.3333333358,109.752
1498084976,444.1333333358,119.276
1498084978,362.5333333358,110.469
1498084980,381.7333333358,112.454
1498084982,396.1333333358,108.667
1498084984,386.5333333358,104.464
1498084986,398.5333333358,100.687
1498084988,376.9333333358,111.361
1498084990,405.7333333358,107.02
1498084992,417.7333333358,114.021
1498084994,448.9333333358,111.333
1498084996,400.9333333358,109.532
1498084998,429.7333333358,102.641
1498085000,429.7333333358,104.413
1498085002,381.7333333358,101.144
1498085004,367.3333333358,98.3886
1498085006,446.5333333358,102.677
1498085008,357.7333333358,104.689
1498085010,372.1333333358,104.724
1498085012,357.7333333358,108.749
1498085014,360.1333333358,114.391
1498085016,374.5333333358,108.476
1498085018,391.3333333358,106.725
1498085020,360.1333333358,104.787
1498085022,400.9333333358,106.355
1498085024,391.3333333358,110.417
1498085026,367.3333333358,110.329
1498085028,388.9333333358,109.541
1498085030,372.1333333358,108.588
1498085032,362.5333333358,119.454
1498085034,396.1333333358,111.164
1498085036,372.1333333358,116.643
1498085038,336.1333333358,111.833
1498085040,307.3333333358,119.028
1498085042,355.3333333358,113.46
1498085044,321.7333333358,109.069
1498085046,328.9333333358,112.488
1498085048,355.3333333358,108.789
1498085050,316.9333333358,114.461
1498085052,314.5333333358,110.17
1498085054,328.9333333358,105.573
1498085056,297.7333333358,112.901
1498085058,384.1333333358,113.872
1498085060,364.9333333358,113.186
1498085062,369.7333333358,117.054
1498085064,364.9333333358,108.982
1498085066,372.1333333358,103.608
1498085068,314.5333333358,109.654
1498085070,319.3333333358,105.111
1498085072,367.3333333358,110.196
1498085074,338.5333333358,106.953
1498085076,364.9333333358,118.239
1498085078,333.7333333358,113.347
1498085080,340.9333333358,105.336
1498085082,360.1333333358,117.1
1498085084,304.9333333358,119.117
1498085086,242.5333333358,115.51
1498085088,314.5333333358,113.66
1498085090,348.1333333358,112.228
1498085092,292.9333333358,115.576
1498085094,333.7333333358,101.657
1498085096,319.3333333358,109.354
1498085098,376.9333333358,104.328
1498085100,316.9333333358,118.025
1498085102,352.9333333358,110.168
1498085104,372.1333333358,113.958
1498085106,333.7333333358,111.474
1498085108,372.1333333358,102.681
1498085110,302.5333333358,109.437
1498085112,367.3333333358,114.586
1498085114,340.9333333358,111.934
1498085116,331.3333333358,112.427
1498085118,393.7333333358,115.925
1498085120,410.5333333358,112.699
1498085122,345.7333333358,114.708
1498085124,393.7333333358,115.419
1498085126,420.1333333358,116.329
1498085128,367.3333333358,112.545
1498085130,460.9333333358,107.47
1498085132,408.1333333358,108.817
1498085134,415.3333333358,114.998
1498085136,415.3333333358,114.014
1498085138,417.7333333358,111.195
1498085140,412.9333333358,116.274
1498085142,446.5333333358,116.448
1498085144,439.3333333358,116.865
1498085146,405.7333333358,117.332
1498085148,453.7333333358,117.236
1498085150,511.3333333358,111.254
1498085152,436.9333333358,110.401
1498085154,477.7333333358,108.893
1498085156,441.7333333358,103.319
1498085158,477.7333333358,103.914
1498085160,496.9333333358,112.477
1498085162,520.9333333358,112.588
1498085164,556.9333333358,112.25
1498085166,556.9333333358,109.176
1498085168,561.7333333358,107.907
1498085170,540.1333333358,101.016
1498085172,549.7333333358,106.032
1498085174,559.3333333358,103.656
1498085176,554.5333333358,108.925
1498085178,580.9333333358,114.483
1498085180,607.3333333358,112.853
1498085182,542.5333333358,114.573
1498085184,554.5333333358,113.704
1498085186,590.5333333358,115.174
1498085188,559.3333333358,111.017
1498085190,556.9333333358,112.469
1498085192,540.1333333358,114.36
1498085194,523.3333333358,112.222
1498085196,573.7333333358,106.257
1498085198,547.3333333358,116.004
1498085200,554.5333333358,112.194
1498085202,561.7333333358,116.57
1498085204,540.1333333358,112.934
1498085206,540.1333333358,118.131
1498085208,542.5333333358,110.046
1498085210,547.3333333358,110.984
1498085212,554.5333333358,104.702
1498085214,511.3333333358,119.346
1498085216,568.9333333358,104.468
1498085218,528.1333333358,114.368
1498085220,523.3333333358,107.847
1498085222,523.3333333358,107.907
1498085224,511.3333333358,103.639
1498085226,530.5333333358,103.787
1498085228,482.5333333358,106.815
1498085230,544.9333333358,109.915
1498085232,542.5333333358,113.351
1498085234,487.3333333358,113.261
1498085236,535.3333333358,119.779
1498085238,518.5333333358,117.459
1498085240,475.3333333358,121.719
1498085242,444.1333333358,110.944
1498085244,501.7333333358,104.895
1498085246,465.7333333358,113.828
1498085248,489.7333333358,113.129
1498085250,470.5333333358,110.011
1498085252,472.9333333358,107.084
1498085254,463.3333333358,111.183
1498085256,463.3333333358,107.708
1498085258,439.3333333358,112.117
1498085260,468.1333333358,108.132
1498085262,511.3333333358,104.234
1498085264,508.9333333358,111.179
1498085266,496.9333333358,108.361
1498085268,525.7333333358,114.925
1498085270,482.5333333358,114.484
1498085272,436.9333333358,115.785
1498085274,470.5333333358,117.788
1498085276,525.7333333358,121.85
1498085278,439.3333333358,115.495
1498085280,432.1333333358,121.407
1498085282,451.3333333358,113.739
1498085284,396.1333333358,114.918
1498085286,422.5333333358,109.553
1498085288,396.1333333358,119.042
1498085290,429.7333333358,116.283
1498085292,393.7333333358,124.15
1498085294,400.9333333358,116.929
1498085296,405.7333333358,120.051
1498085298,403.3333333358,120.799
1498085300,422.5333333358,115.832
1498085302,379.3333333358,118.502
1498085304,410.5333333358,122.561
1498085306,379.3333333358,116.817
1498085308,396.1333333358,121.026
1498085310,424.9333333358,114.238
1498085312,393.7333333358,110.158
1498085314,360.1333333358,119.607
1498085316,415.3333333358,112.741
1498085318,436.9333333358,115.936
1498085320,374.5333333358,114.167
1498085322,388.9333333358,113.419
1498085324,441.7333333358,119.664
1498085326,422.5333333358,118.486
1498085328,420.1333333358,119.661
1498085330,492.1333333358,120.381
1498085332,441.7333333358,110.324
1498085334,441.7333333358,112.351
1498085336,475.3333333358,113.42
1498085338,439.3333333358,117.502
1498085340,492.1333333358,114.109
1498085342,477.7333333358,119.163
1498085344,506.5333333358,126.206
1498085346,547.3333333358,123.949
1498085348,547.3333333358,109.71
1498085350,482.5333333358,112.365
1498085352,540.1333333358,114.98
1498085354,513.7333333358,105.753
1498085356,511.3333333358,108.949
1498085358,516.1333333358,109.159
1498085360,501.7333333358,108.431
1498085362,482.5333333358,101.584
1498085364,487.3333333358,103.476
1498085366,472.9333333358,105.795
1498085368,398.5333333358,102.683
1498085370,439.3333333358,100.909
1498085372,424.9333333358,111.222
1498085374,388.9333333358,113.873
1498085376,376.9333333358,113.775
1498085378,396.1333333358,107.603
1498085380,345.7333333358,100.227
1498085382,319.3333333358,105.278
1498085384,360.1333333358,104.249
1498085386,343.3333333358,103.909
1498085388,352.9333333358,113.446
1498085390,367.3333333358,111.079
1498085392,345.7333333358,113.693
1498085394,321.7333333358,108.987
1498085396,364.9333333358,111.221
1498085398,360.1333333358,115.55
1498085400,340.9333333358,111.679
1498085402,355.3333333358,113.863
1498085404,357.7333333358,112.227
1498085406,379.3333333358,112.502
1498085408,396.1333333358,106.931
1498085410,374.5333333358,105.396
1498085412,364.9333333358,113.801
1498085414,364.9333333358,110.038
1498085416,374.5333333358,105.689
1498085418,369.7333333358,112.985
1498085420,367.3333333358,106.197
1498085422,333.7333333358,107.584
1498085424,396.1333333358,101.607
1498085426,379.3333333358,116.115
1498085428,331.3333333358,116.998
1498085430,405.7333333358,113.903
1498085432,374.5333333358,111.039
1498085434,384.1333333358,115.971
1498085436,381.7333333358,112.005
1498085438,300.1333333358,106.983
1498085440,352.9333333358,106.767
1498085442,412.9333333358,109.42
1498085444,393.7333333358,111.63
1498085446,364.9333333358,108.167
1498085448,384.1333333358,115.492
1498085450,391.3333333358,114.755
1498085452,364.9333333358,118.436
1498085454,379.3333333358,121.316
1498085456,348.1333333358,110.593
1498085458,374.5333333358,119.507
1498085460,391.3333333358,118.231
1498085462,307.3333333358,118.273
1498085464,316.9333333358,124.986
1498085466,307.3333333358,122.968
1498085468,348.1333333358,120.636
1498085470,357.7333333358,112.856
1498085472,398.5333333358,105.079
1498085474,350.5333333358,111.18
1498085476,350.5333333358,119.617
1498085478,398.5333333358,116.935
1498085480,381.7333333358,113.735
1498085482,372.1333333358,116.228
1498085484,352.9333333358,121.063
1498085486,343.3333333358,107.284
1498085488,345.7333333358,116.074
1498085490,400.9333333358,119.26
1498085492,393.7333333358,112.535
1498085494,328.9333333358,120.168
1498085496,376.9333333358,112.052
1498085498,384.1333333358,117.402
1498085500,319.3333333358,116.084
1498085502,348.1333333358,117.176
1498085504,429.7333333358,112.975
1498085506,391.3333333358,123.045
1498085508,393.7333333358,124.202
1498085510,420.1333333358,121.524
1498085512,410.5333333358,128.821
1498085514,372.1333333358,120.838
1498085516,420.1333333358,120.36
1498085518,379.3333333358,120.178
1498085520,391.3333333358,121.789
1498085522,412.9333333358,123.853
1498085524,321.7333333358,121.256
1498085526,345.7333333358,120.635
1498085528,393.7333333358,119.27
1498085530,391.3333333358,120.48
1498085532,384.1333333358,113.381
1498085534,376.9333333358,117.763
1498085536,417.7333333358,109.816
1498085538,381.7333333358,105.678
1498085540,369.7333333358,110.758
1498085542,396.1333333358,108.439
1498085544,422.5333333358,109.158
1498085546,408.1333333358,119.361
1498085548,398.5333333358,108.883
1498085550,410.5333333358,112.054
1498085552,482.5333333358,111.752
1498085554,470.5333333358,107.382
1498085556,458.5333333358,108.426
1498085558,463.3333333358,113.257
1498085560,400.9333333358,126.651
1498085562,424.9333333358,119.748
1498085564,388.9333333358,101.66
1498085566,480.1333333358,100.821
1498085568,408.1333333358,103.631
1498085570,412.9333333358,106.071
1498085572,427.3333333358,98.6921
1498085574,412.9333333358,110.476
1498085576,393.7333333358,108.872
1498085578,424.9333333358,111.492
1498085580,420.1333333358,105.762
1498085582,376.9333333358,105.918
1498085584,415.3333333358,108.322
1498085586,372.1333333358,105.453
1498085588,412.9333333358,100.767
1498085590,422.5333333358,95.813
1498085592,410.5333333358,105.195
1498085594,350.5333333358,107.501
1498085596,420.1333333358,107.738
1498085598,350.5333333358,112.187
1498085600,352.9333333358,111.844
1498085602,381.7333333358,114.539
1498085604,360.1333333358,116.286
1498085606,357.7333333358,114.677
1498085608,415.3333333358,116.71
1498085610,379.3333333358,112.602
1498085612,340.9333333358,106.803
1498085614,412.9333333358,104.896
1498085616,376.9333333358,111.861
1498085618,391.3333333358,109.405
1498085620,362.5333333358,108.701
1498085622,381.7333333358,102.644
1498085624,379.3333333358,114.007
1498085626,408.1333333358,107.829
1498085628,384.1333333358,109.587
1498085630,343.3333333358,115.905
1498085632,417.7333333358,117.579
1498085634,398.5333333358,115.551
1498085636,415.3333333358,119.867
1498085638,412.9333333358,122.475
1498085640,403.3333333358,117.726
1498085642,374.5333333358,115.2
1498085644,403.3333333358,109.764
1498085646,417.7333333358,107.723
1498085648,376.9333333358,113.688
1498085650,374.5333333358,119.518
1498085652,410.5333333358,108.067
1498085654,448.9333333358,110.288
1498085656,412.9333333358,116.28
1498085658,410.5333333358,105.504
1498085660,396.1333333358,117.585
1498085662,391.3333333358,113.269
1498085664,417.7333333358,112.047
1498085666,398.5333333358,110.659
1498085668,400.9333333358,109.332
1498085670,400.9333333358,101.304
1498085672,379.3333333358,108.354
1498085674,338.5333333358,111.875
1498085676,391.3333333358,107.999
1498085678,350.5333333358,106.854
1498085680,331.3333333358,106.035
1498085682,362.5333333358,102.203
1498085684,388.9333333358,98.8036
1498085686,384.1333333358,104.618
1498085688,376.9333333358,104.746
1498085690,369.7333333358,103.439
1498085692,348.1333333358,112.886
1498085694,393.7333333358,106.898
1498085696,400.9333333358,106.597
1498085698,393.7333333358,116.693
1498085700,432.1333333358,119.805
1498085702,412.9333333358,108.55
1498085704,343.3333333358,101.443
1498085706,367.3333333358,111.773
1498085708,400.9333333358,110.05
1498085710,388.9333333358,110
1498085712,412.9333333358,107.114
1498085714,396.1333333358,107.19
1498085716,388.9333333358,111.522
1498085718,393.7333333358,111.718
1498085720,444.1333333358,115.808
1498085722,422.5333333358,116.412
1498085724,364.9333333358,112.435
1498085726,408.1333333358,109.431
1498085730,436.9333333358,120.848
1498085732,379.3333333358,112.839
1498085734,367.3333333358,106.544
1498085736,384.1333333358,109.955
1498085738,403.3333333358,113.301
1498085740,415.3333333358,105.421
1498085742,398.5333333358,107.538
1498085744,396.1333333358,108.507
1498085746,410.5333333358,113.718
1498085748,376.9333333358,110.899
1498085750,417.7333333358,103.718
1498085752,400.9333333358,122.649
1498085754,422.5333333358,115.717
1498085756,400.9333333358,112.609
1498085758,446.5333333358,119.036
1498085760,403.3333333358,116.623
1498085762,398.5333333358,111.354
1498085764,391.3333333358,117.729
1498085766,436.9333333358,112.151
1498085768,403.3333333358,117.378
1498085770,422.5333333358,115.747
1498085772,326.5333333358,113.309
1498085774,444.1333333358,109.071
1498085776,417.7333333358,106.02
1498085778,427.3333333358,108.519
1498085780,422.5333333358,105.58
1498085782,424.9333333358,114.186
1498085784,386.5333333358,113.477
1498085786,403.3333333358,106.994
1498085788,410.5333333358,107.007
1498085790,391.3333333358,106.283
1498085792,434.5333333358,99.9162
1498085794,384.1333333358,109.637
1498085796,405.7333333358,108.881
1498085798,391.3333333358,112.86
1498085800,391.3333333358,98.4441
1498085802,396.1333333358,105.335
1498085804,396.1333333358,105.792
1498085806,396.1333333358,102.428
1498085808,424.9333333358,110.106
1498085810,379.3333333358,110.683
1498085812,396.1333333358,116.901
1498085814,434.5333333358,112.868
1498085816,360.1333333358,110.809
1498085818,379.3333333358,111.439
1498085820,398.5333333358,111.357
1498085822,376.9333333358,114.618
1498085824,384.1333333358,109.037
1498085826,408.1333333358,111.063
1498085828,398.5333333358,117.089
1498085830,417.7333333358,115.263
1498085832,376.9333333358,110.534
1498085834,393.7333333358,111.39
1498085836,381.7333333358,113.073
1498085838,381.7333333358,113.731
1498085840,348.1333333358,107.792
1498085842,386.5333333358,109.274
1498085844,412.9333333358,112.342
1498085846,388.9333333358,116.494
1498085848,362.5333333358,112.638
1498085850,408.1333333358,110.44
1498085852,412.9333333358,114.768
1498085854,393.7333333358,109.991
1498085856,403.3333333358,119.713
1498085858,434.5333333358,115.275
1498085860,398.5333333358,108.455
1498085862,400.9333333358,112.703
1498085864,417.7333333358,112.627
1498085866,468.1333333358,111.274
1498085868,448.9333333358,102.485
1498085870,415.3333333358,113.183
1498085872,408.1333333358,104.149
1498085874,420.1333333358,106.308
1498085876,417.7333333358,110.637
1498085878,468.1333333358,105.823
1498085880,384.1333333358,111.688
1498085882,408.1333333358,103.098
1498085884,403.3333333358,106.281
1498085886,398.5333333358,112.82
1498085888,403.3333333358,111.299
1498085890,427.3333333358,108.198
1498085892,393.7333333358,115.491
1498085894,396.1333333358,114.131
1498085896,405.7333333358,114.199
1498085898,412.9333333358,121.143
1498085900,405.7333333358,113.888
1498085902,412.9333333358,109.071
1498085904,350.5333333358,110.165
1498085906,396.1333333358,117.277
1498085908,444.1333333358,114.179
1498085910,384.1333333358,115.69
1498085912,420.1333333358,109.979
1498085914,398.5333333358,118.663
1498085916,345.7333333358,106.932
1498085918,391.3333333358,115.587
1498085920,427.3333333358,105.621
1498085922,441.7333333358,112.317
1498085924,408.1333333358,107.665
1498085926,405.7333333358,115.764
1498085928,422.5333333358,110.413
1498085930,427.3333333358,114.701
1498085932,429.7333333358,107.248
1498085934,422.5333333358,109.649
1498085936,396.1333333358,107.418
1498085938,403.3333333358,112.57
1498085940,388.9333333358,111.563
1498085942,379.3333333358,106.982
1498085944,381.7333333358,108.536
1498085946,398.5333333358,109.405
1498085948,372.1333333358,110.927
1498085950,420.1333333358,113.363
1498085952,444.1333333358,108.556
1498085954,381.7333333358,109.043
1498085956,405.7333333358,118.42
1498085958,400.9333333358,109.985
1498085960,391.3333333358,117.237
1498085962,369.7333333358,109.306
1498085964,427.3333333358,106.544
1498085966,376.9333333358,110.975
1498085968,396.1333333358,110.864
1498085970,403.3333333358,108.657
1498085972,391.3333333358,112.382
1498085974,446.5333333358,117.108
1498085976,405.7333333358,114.202
1498085978,364.9333333358,110.613
1498085980,415.3333333358,109.024
1498085982,415.3333333358,108.928
1498085984,386.5333333358,108.466
1498085986,403.3333333358,109.386
1498085988,388.9333333358,111.117
1498085990,405.7333333358,111.696
1498085992,412.9333333358,109.133
1498085994,458.5333333358,119.367
1498085996,379.3333333358,116.741
1498085998,367.3333333358,111.816
1498086000,393.7333333358,108.804
1498086002,372.1333333358,115.467
1498086004,388.9333333358,110.739
1498086006,360.1333333358,112.871
1498086008,331.3333333358,108.479
1498086010,379.3333333358,119.446
1498086012,376.9333333358,117.975
1498086014,388.9333333358,115.129
1498086016,379.3333333358,120.482
1498086018,357.7333333358,115.335
1498086020,357.7333333358,115.615
1498086022,374.5333333358,117.543
1498086024,348.1333333358,121.805
1498086026,374.5333333358,118.603
1498086028,396.1333333358,119.142
1498086030,345.7333333358,119.27
1498086032,405.7333333358,121.748
1498086034,376.9333333358,113.24
1498086036,352.9333333358,113.484
1498086038,393.7333333358,106.585
1498086040,379.3333333358,106.45
1498086042,364.9333333358,116.191
1498086044,374.5333333358,117.077
1498086046,400.9333333358,114.651
1498086048,367.3333333358,111.259
1498086050,391.3333333358,112.062
1498086052,412.9333333358,112.81
1498086054,391.3333333358,108.568
1498086056,379.3333333358,107.031
1498086058,412.9333333358,108.268
1498086060,408.1333333358,108.877
1498086062,384.1333333358,106.638
1498086064,427.3333333358,104.261
1498086066,388.9333333358,108.381
1498086068,422.5333333358,107.217
1498086070,427.3333333358,113.998
1498086072,405.7333333358,116.353
1498086074,398.5333333358,115.452
1498086076,420.1333333358,116.69
1498086078,405.7333333358,107.053
1498086080,386.5333333358,114.274
1498086082,403.3333333358,112.304
1498086084,403.3333333358,105.42
1498086086,340.9333333358,116.81
1498086088,427.3333333358,113.123
1498086090,398.5333333358,110.197
1498086092,376.9333333358,110.659
1498086094,398.5333333358,108.229
1498086096,400.9333333358,109.017
1498086098,396.1333333358,110.305
1498086100,417.7333333358,111.695
1498086102,403.3333333358,119.887
1498086104,360.1333333358,116.156
1498086106,374.5333333358,113.461
1498086108,420.1333333358,112.349
1498086110,403.3333333358,115.298
1498086112,384.1333333358,107.033
1498086114,398.5333333358,110.912
1498086116,374.5333333358,111.19
1498086118,400.9333333358,107.953
1498086120,381.7333333358,110.071
1498086122,372.1333333358,107.551
1498086124,357.7333333358,105.917
1498086126,396.1333333358,115.896
1498086128,372.1333333358,110.27
1498086130,302.5333333358,104.496
1498086132,367.3333333358,114.573
1498086134,328.9333333358,119.585
1498086136,314.5333333358,117.206
1498086138,314.5333333358,108.342
1498086140,300.1333333358,111.56
1498086142,297.7333333358,121.163
1498086144,367.3333333358,116.948
1498086146,444.1333333358,113.574
1498086148,381.7333333358,116.046
1498086150,436.9333333358,112.372
1498086152,398.5333333358,115.797
1498086154,429.7333333358,115.086
1498086156,448.9333333358,114.809
1498086158,434.5333333358,114.347
1498086160,405.7333333358,117.279
1498086162,432.1333333358,119.948
1498086164,487.3333333358,110.448
1498086166,465.7333333358,117.694
1498086168,482.5333333358,121.772
1498086170,480.1333333358,122.349
1498086172,420.1333333358,121.68
1498086174,408.1333333358,126.783
1498086176,496.9333333358,112.498
1498086178,448.9333333358,109.81
1498086180,415.3333333358,107.19
1498086182,439.3333333358,108.905
1498086184,439.3333333358,101.324
1498086186,456.1333333358,104.924
1498086188,460.9333333358,109.884
1498086190,408.1333333358,107.235
1498086192,432.1333333358,107.9
1498086194,458.5333333358,111.387
1498086196,400.9333333358,108.575
1498086198,400.9333333358,107.903
1498086200,439.3333333358,116.703
1498086202,384.1333333358,102.986
1498086204,434.5333333358,114.705
1498086206,482.5333333358,110.638
1498086208,463.3333333358,119.775
1498086210,410.5333333358,114.722
1498086212,499.3333333358,110.84
1498086214,448.9333333358,111.276
1498086216,463.3333333358,113.48
1498086218,516.1333333358,115.519
1498086220,494.5333333358,110.204
1498086222,520.9333333358,112.961
1498086224,518.5333333358,112.267
1498086226,566.5333333358,121.073
1498086228,518.5333333358,106.634
1498086230,547.3333333358,113.984
1498086232,513.7333333358,112.838
1498086234,482.5333333358,122.257
1498086236,544.9333333358,113.947
1498086238,528.1333333358,116.381
1498086240,494.5333333358,111.651
1498086242,516.1333333358,108.39
1498086244,530.5333333358,115.612
1498086246,487.3333333358,111.266
1498086248,499.3333333358,110.344
1498086250,494.5333333358,111.017
1498086252,456.1333333358,109.814
1498086254,516.1333333358,107.217
1498086256,516.1333333358,103.495
1498086258,453.7333333358,104.123
1498086260,518.5333333358,105.587
1498086262,501.7333333358,112.071
1498086264,482.5333333358,112.344
1498086266,528.1333333358,111.509
1498086268,470.5333333358,110.107
1498086270,477.7333333358,113.501
1498086272,477.7333333358,126.277
1498086274,518.5333333358,108.644
1498086276,429.7333333358,116.658
1498086278,470.5333333358,117.58
1498086280,446.5333333358,119.649
1498086282,412.9333333358,112.052
1498086284,424.9333333358,118.203
1498086286,446.5333333358,116.578
1498086288,417.7333333358,112.193
1498086290,427.3333333358,113.056
1498086292,405.7333333358,114.04
1498086294,393.7333333358,112.268
1498086296,374.5333333358,115.679
1498086298,424.9333333358,117.699
1498086300,348.1333333358,112.344
1498086302,381.7333333358,115.066
1498086304,393.7333333358,120.491
1498086306,360.1333333358,120.238
1498086308,372.1333333358,112.889
1498086310,369.7333333358,112.077
1498086312,381.7333333358,115.122
1498086314,369.7333333358,112.959
1498086316,343.3333333358,117.152
1498086318,391.3333333358,110.236
1498086320,369.7333333358,113.542
1498086322,376.9333333358,112.836
1498086324,350.5333333358,117.472
1498086326,348.1333333358,106.722
1498086328,400.9333333358,111.028
1498086330,412.9333333358,116.282
1498086332,386.5333333358,118.775
1498086334,396.1333333358,122.405
1498086336,415.3333333358,125.236
1498086338,360.1333333358,111.074
1498086340,410.5333333358,113.45
1498086342,420.1333333358,117.967
1498086344,338.5333333358,114.564
1498086346,357.7333333358,119.004
1498086348,355.3333333358,126.537
1498086350,367.3333333358,126.719
1498086352,372.1333333358,127.529
1498086354,405.7333333358,124.789
1498086356,364.9333333358,123.591
1498086358,355.3333333358,118.295
1498086360,384.1333333358,117.448
1498086362,374.5333333358,119.301
1498086364,326.5333333358,119.66
1498086366,379.3333333358,111.82
1498086368,369.7333333358,114.676
1498086370,391.3333333358,111.995
1498086372,439.3333333358,114.459
1498086374,451.3333333358,116.694
1498086376,400.9333333358,119.511
1498086378,475.3333333358,115.747
1498086380,439.3333333358,112.024
1498086382,422.5333333358,111.006
1498086384,480.1333333358,108.886
1498086386,460.9333333358,113.168
1498086388,412.9333333358,108.973
1498086390,400.9333333358,109.355
1498086392,400.9333333358,108.124
1498086394,381.7333333358,114.296
1498086396,396.1333333358,114.015
1498086398,439.3333333358,114.67
1498086400,398.5333333358,108.285
1498086402,408.1333333358,107.184
1498086404,444.1333333358,105.024
1498086406,408.1333333358,107.459
1498086408,444.1333333358,108.238
1498086410,511.3333333358,106.303
1498086412,448.9333333358,114.13
1498086414,496.9333333358,117.51
1498086416,484.9333333358,112.541
1498086418,448.9333333358,116.244
1498086420,436.9333333358,112.68
1498086422,453.7333333358,112.907
1498086424,362.5333333358,114.203
1498086426,480.1333333358,110.925
1498086428,492.1333333358,109.282
1498086430,446.5333333358,108.542
1498086432,393.7333333358,110.346
1498086434,427.3333333358,105.778
1498086436,400.9333333358,110.418
1498086438,451.3333333358,110.86
1498086440,415.3333333358,111.919
1498086442,468.1333333358,113.666
1498086444,386.5333333358,110.452
1498086446,403.3333333358,109.547
1498086448,410.5333333358,112.522
1498086450,403.3333333358,100.773
1498086452,422.5333333358,107.579
1498086454,415.3333333358,113.218
1498086456,400.9333333358,115.047
1498086458,403.3333333358,113.514
1498086460,398.5333333358,109.177
1498086462,393.7333333358,107.512
1498086464,408.1333333358,127.169
1498086466,405.7333333358,119.096
1498086468,427.3333333358,120.081
1498086470,386.5333333358,120.427
1498086472,381.7333333358,123.582
1498086474,386.5333333358,120.83
1498086476,391.3333333358,116.954
1498086478,410.5333333358,112.012
1498086480,367.3333333358,116.266
1498086482,367.3333333358,111.095
1498086484,333.7333333358,117.219
1498086486,376.9333333358,113.21
1498086488,381.7333333358,118.644
1498086490,372.1333333358,114.649
1498086492,408.1333333358,126.305
1498086494,343.3333333358,119.768
1498086496,379.3333333358,117.244
1498086498,345.7333333358,113.898
1498086500,352.9333333358,115.89
1498086502,376.9333333358,116.255
1498086504,391.3333333358,118.817
1498086506,376.9333333358,113.154
1498086508,355.3333333358,115.871
1498086510,372.1333333358,112.217
1498086512,364.9333333358,110.327
1498086514,352.9333333358,116.979
1498086516,374.5333333358,120.191
1498086518,348.1333333358,106.126
1498086520,374.5333333358,112.078
1498086522,398.5333333358,114.878
1498086524,403.3333333358,110.524
1498086526,388.9333333358,112.553
1498086528,384.1333333358,106.065
1498086530,398.5333333358,114.037
1498086532,362.5333333358,112.365
1498086534,362.5333333358,116.042
1498086536,369.7333333358,116.051
1498086538,379.3333333358,115.99
1498086540,405.7333333358,114.868
1498086542,372.1333333358,114.017
1498086544,376.9333333358,108.733
1498086546,400.9333333358,117.724
1498086548,362.5333333358,119.193
1498086550,403.3333333358,116.815
1498086552,405.7333333358,113.285
1498086554,398.5333333358,112.824
1498086556,369.7333333358,113.383
1498086558,398.5333333358,109.321
1498086560,355.3333333358,112.922
1498086562,338.5333333358,114.998
1498086564,352.9333333358,111.331
1498086566,360.1333333358,105.218
1498086568,369.7333333358,103.655
1498086570,384.1333333358,104.61
1498086572,381.7333333358,107.36
1498086574,376.9333333358,108
1498086576,352.9333333358,113.912
1498086578,343.3333333358,115.585
1498086580,367.3333333358,108.499
1498086582,331.3333333358,106.194
1498086584,369.7333333358,108.79
1498086586,369.7333333358,106.054
1498086588,352.9333333358,111.619
1498086590,307.3333333358,116.456
1498086592,372.1333333358,117.177
1498086594,381.7333333358,115.559
1498086596,364.9333333358,122.518
1498086598,340.9333333358,116.473
1498086600,348.1333333358,116.658
1498086602,362.5333333358,120.837
1498086604,307.3333333358,109.256
1498086606,355.3333333358,115.575
1498086608,360.1333333358,121.183
1498086610,376.9333333358,130.418
1498086612,381.7333333358,121.835
1498086614,319.3333333358,112.491
1498086616,364.9333333358,114.754
1498086618,384.1333333358,128.334
1498086620,345.7333333358,111.733
1498086622,309.7333333358,121.148
1498086624,386.5333333358,121.405
1498086626,314.5333333358,121.779
1498086628,333.7333333358,111.974
1498086630,357.7333333358,119.063
1498086632,309.7333333358,115.599
1498086634,336.1333333358,113.318
1498086636,352.9333333358,113.072
1498086638,268.9333333358,118.848
1498086640,362.5333333358,113.566
1498086642,360.1333333358,107.323
1498086644,321.7333333358,100.999
1498086646,369.7333333358,109.258
1498086648,338.5333333358,111.893
1498086650,357.7333333358,112.958
1498086652,381.7333333358,117.974
1498086654,393.7333333358,109.138
1498086656,350.5333333358,108.789
1498086658,343.3333333358,117.571
1498086660,362.5333333358,115.81
1498086662,336.1333333358,118.293
1498086664,376.9333333358,114.622
1498086666,499.3333333358,117.759
1498086668,405.7333333358,129.264
1498086670,391.3333333358,112.766
1498086672,415.3333333358,110.805
1498086674,372.1333333358,112.812
1498086676,384.1333333358,118.036
1498086678,405.7333333358,115.611
1498086680,410.5333333358,114.491
1498086682,487.3333333358,116.934
1498086684,453.7333333358,118.462
1498086686,386.5333333358,112.638
1498086688,513.7333333358,119.457
1498086690,508.9333333358,111.617
1498086692,436.9333333358,111.151
1498086694,506.5333333358,109.585
1498086696,547.3333333358,118.829
1498086698,458.5333333358,120.167
1498086700,537.7333333358,121.45
1498086702,463.3333333358,116.504
1498086704,420.1333333358,118.583
1498086706,518.5333333358,108.106
1498086708,434.5333333358,114.803
1498086710,412.9333333358,119.173
1498086712,417.7333333358,117.597
1498086714,482.5333333358,115.031
1498086716,405.7333333358,115.44
1498086718,463.3333333358,122.788
1498086720,424.9333333358,110.645
1498086722,384.1333333358,114.793
1498086724,400.9333333358,110.964
1498086726,410.5333333358,116.6
1498086728,396.1333333358,109.686
1498086730,379.3333333358,104.665
1498086732,398.5333333358,108.867
1498086734,403.3333333358,114.102
1498086736,391.3333333358,114.818
1498086738,408.1333333358,122.331
1498086740,372.1333333358,119.328
1498086742,398.5333333358,114.022
1498086744,408.1333333358,117.565
1498086746,379.3333333358,104.022
1498086748,408.1333333358,112.254
1498086750,405.7333333358,117.14
1498086752,391.3333333358,108.259
1498086754,386.5333333358,109.421
1498086756,386.5333333358,115.747
1498086758,324.1333333358,112.954
1498086760,381.7333333358,123.685
1498086762,412.9333333358,118.621
1498086764,388.9333333358,123.431
1498086766,388.9333333358,118.741
1498086768,384.1333333358,111.192
1498086770,326.5333333358,115.423
1498086772,319.3333333358,112.399
1498086774,384.1333333358,115.674
1498086776,336.1333333358,116.352
1498086778,316.9333333358,108.678
1498086780,374.5333333358,120.419
1498086782,381.7333333358,120.183
1498086784,379.3333333358,106.801
1498086786,420.1333333358,118.216
1498086788,367.3333333358,116.163
1498086790,369.7333333358,119.025
1498086792,381.7333333358,120.357
1498086794,374.5333333358,116.473
1498086796,307.3333333358,107.426
1498086798,396.1333333358,117.233
1498086800,396.1333333358,114.838
1498086802,364.9333333358,117.604
1498086804,393.7333333358,110.97
1498086806,376.9333333358,121.699
1498086808,374.5333333358,116.674
1498086810,369.7333333358,123.03
1498086812,379.3333333358,120.878
1498086814,379.3333333358,116.978
1498086816,352.9333333358,116.219
1498086818,340.9333333358,109.291
1498086820,374.5333333358,113.519
1498086822,367.3333333358,111.637
1498086824,374.5333333358,110.904
1498086826,285.7333333358,115.183
1498086828,384.1333333358,117.778
1498086830,326.5333333358,113.53
1498086832,369.7333333358,115.544
1498086834,391.3333333358,118.563
1498086836,388.9333333358,115.801
1498086838,333.7333333358,109.292
1498086840,352.9333333358,109.358
1498086842,381.7333333358,110.253
1498086844,391.3333333358,110.022
1498086846,360.1333333358,109.483
1498086848,381.7333333358,107.99
1498086850,393.7333333358,111.925
1498086852,357.7333333358,111.328
1498086854,374.5333333358,113.21
1498086856,374.5333333358,111.874
1498086858,362.5333333358,108.399
1498086860,386.5333333358,115.403
1498086862,345.7333333358,114.563
1498086864,384.1333333358,111.493
1498086866,393.7333333358,119.775
1498086868,386.5333333358,111.123
1498086870,374.5333333358,111.779
1498086872,379.3333333358,113.863
1498086874,384.1333333358,119.262
1498086876,379.3333333358,120.791
1498086878,422.5333333358,107.895
1498086880,405.7333333358,107.657
1498086882,393.7333333358,112.754
1498086884,458.5333333358,102.749
1498086886,460.9333333358,108.592
1498086888,441.7333333358,120.298
1498086890,446.5333333358,105.462
1498086892,453.7333333358,110.079
1498086894,480.1333333358,109.437
1498086896,460.9333333358,109.843
1498086898,477.7333333358,104.261
1498086900,398.5333333358,107.228
1498086902,446.5333333358,99.4127
1498086904,451.3333333358,103.928
1498086906,412.9333333358,111.115
1498086908,458.5333333358,106.096
1498086910,484.9333333358,112.299
1498086912,516.1333333358,117.072
1498086914,424.9333333358,110.157
1498086916,470.5333333358,113.116
1498086918,444.1333333358,106.886
1498086920,501.7333333358,118.902
1498086922,453.7333333358,111.101
1498086924,458.5333333358,115.556
1498086926,456.1333333358,108.998
1498086928,456.1333333358,115.592
1498086930,439.3333333358,114.669
1498086932,508.9333333358,120.447
1498086934,436.9333333358,113
1498086936,434.5333333358,120.808
1498086938,480.1333333358,113.587
1498086940,456.1333333358,114.637
1498086942,429.7333333358,103.159
1498086944,451.3333333358,112.812
1498086946,432.1333333358,110.444
1498086948,398.5333333358,104.974
1498086950,405.7333333358,113.456
1498086952,405.7333333358,118.53
1498086954,381.7333333358,116.5
1498086956,422.5333333358,109.733
1498086958,415.3333333358,110.293
1498086960,424.9333333358,114.996
1498086962,422.5333333358,123.378
1498086964,422.5333333358,116.517
1498086966,396.1333333358,115.069
1498086968,432.1333333358,124.425
1498086970,410.5333333358,118.331
1498086972,379.3333333358,118.488
1498086974,381.7333333358,114.002
1498086976,448.9333333358,111.336
1498086978,348.1333333358,121.091
1498086980,410.5333333358,108.82
1498086982,456.1333333358,105.283
1498086984,405.7333333358,116.458
1498086986,405.7333333358,112.522
1498086988,367.3333333358,111.414
1498086990,384.1333333358,112.75
1498086992,391.3333333358,107.58
1498086994,451.3333333358,106.306
1498086996,391.3333333358,116.728
1498086998,403.3333333358,101.558
1498087000,381.7333333358,106.929
1498087002,391.3333333358,113.204
1498087004,398.5333333358,110.232
1498087006,403.3333333358,112.751
1498087008,412.9333333358,116.098
1498087010,412.9333333358,109.413
1498087012,398.5333333358,116.246
1498087014,331.3333333358,119.814
1498087016,372.1333333358,119.256
1498087018,393.7333333358,114.57
1498087020,386.5333333358,112.174
1498087022,372.1333333358,117.542
1498087024,396.1333333358,113.392
1498087026,352.9333333358,108.85
1498087028,381.7333333358,102.198
1498087030,396.1333333358,109.22
1498087032,376.9333333358,112.961
1498087034,393.7333333358,110.853
1498087036,408.1333333358,107.688
1498087038,357.7333333358,104.835
1498087040,424.9333333358,104.819
1498087042,393.7333333358,109.082
1498087044,369.7333333358,110.66
1498087046,369.7333333358,111.79
1498087048,408.1333333358,107.995
1498087050,372.1333333358,109.384
1498087052,381.7333333358,105.93
1498087054,355.3333333358,109.588
1498087056,384.1333333358,110.916
1498087058,388.9333333358,115.776
1498087060,386.5333333358,116.826
1498087062,415.3333333358,112.934
1498087064,410.5333333358,113.191
1498087066,415.3333333358,117.212
