tag_number,delay,power_est
1497424324,982.5333333383,17.7454
1497424328,908.1333333383,18.3463
1497424332,936.9333333383,17.4349
1497424336,924.9333333383,17.2212
1497424340,922.5333333383,17.6823
1497424344,936.9333333383,17.4006
1497424348,960.9333333383,17.2835
1497424352,920.1333333383,16.4805
1497424356,903.3333333383,16.7159
1497424360,975.3333333383,16.6321
1497424364,924.9333333383,16.7758
1497424368,948.9333333383,17.6968
1497424372,915.3333333383,17.1785
1497424376,996.9333333383,17.9123
1497424380,977.7333333383,17.2793
1497424384,910.5333333383,16.9937
1497424388,903.3333333383,17.0925
1497424392,963.3333333383,16.5454
1497424396,922.5333333383,17.7876
1497424400,965.7333333383,15.7456
1497424404,965.7333333383,15.9534
1497424408,994.5333333383,16.0489
1497424412,905.7333333383,16.2577
1497424416,910.5333333383,15.8166
1497424420,920.1333333383,15.8107
1497424424,910.5333333383,16.135
1497424428,915.3333333383,16.2729
1497424432,874.5333333383,16.9997
1497424436,1011.3333333383,17.1454
1497424440,948.9333333383,17.1579
1497424444,915.3333333383,16.8861
1497424448,917.7333333383,17.2681
1497424452,929.7333333383,17.0286
1497424456,929.7333333383,16.1174
1497424460,946.5333333383,17.4828
1497424464,970.5333333383,16.5936
1497424468,984.9333333383,17.1289
1497424472,905.7333333383,18.5357
1497424476,977.7333333383,16.897
1497424480,970.5333333383,16.944
1497424484,1001.7333333383,16.6296
1497424488,1013.7333333383,16.4272
1497424492,982.5333333383,16.3431
1497424496,1023.3333333383,16.5907
1497424500,1004.1333333383,16.4174
1497424504,1018.5333333383,16.6693
1497424508,1049.7333333383,18.7227
1497424512,982.5333333383,16.7514
1497424516,1018.5333333383,17.4055
1497424520,1008.9333333383,16.8798
1497424524,932.1333333383,18.5788
1497424528,1006.5333333383,17.6343
1497424532,1016.1333333383,17.6159
1497424536,1035.3333333383,16.8734
1497424540,1054.5333333383,17.3588
1497424544,1049.7333333383,17.7681
1497424548,1032.9333333383,17.7011
1497424552,1052.1333333383,17.3438
1497424556,1054.5333333383,16.8662
1497424560,1042.5333333383,17.8819
1497424564,1040.1333333383,16.9369
1497424568,1061.7333333383,16.6036
1497424572,1047.3333333383,17.6388
1497424576,1037.7333333383,16.0881
1497424580,1052.1333333383,16.8068
1497424584,1088.1333333383,16.3453
1497424588,1107.3333333383,17.4937
1497424592,1061.7333333383,18.1228
1497424596,1116.9333333383,16.5002
1497424600,1042.5333333383,15.943
1497424604,1016.1333333383,15.6445
1497424608,1047.3333333383,16.3279
1497424612,1047.3333333383,16.7716
1497424616,999.3333333383,15.6348
1497424620,1059.3333333383,15.8985
1497424624,1023.3333333383,16.6695
1497424628,1032.9333333383,18.1875
1497424632,980.1333333383,17.7675
1497424636,1020.9333333383,18.0282
1497424640,1037.7333333383,17.905
1497424644,968.1333333383,15.8532
1497424648,1059.3333333383,17.1523
1497424652,1080.9333333383,16.2206
1497424656,1044.9333333383,17.0846
1497424660,1071.3333333383,15.1993
1497424664,1042.5333333383,16.4296
1497424668,1090.5333333383,17.4491
1497424672,1037.7333333383,17.4186
1497424676,1040.1333333383,16.9605
1497424680,1100.1333333383,16.814
1497424684,1071.3333333383,17.3422
1497424688,1054.5333333383,16.5557
1497424692,1056.9333333383,16.8379
1497424696,1073.7333333383,17.0786
1497424700,1044.9333333383,17.0914
1497424704,1028.1333333383,17.9785
1497424708,1090.5333333383,17.5044
1497424712,992.1333333383,16.9005
1497424716,1032.9333333383,17.4557
1497424720,944.1333333383,17.9106
1497424724,970.5333333383,17.994
1497424728,1016.1333333383,17.7745
1497424732,939.3333333383,18.5956
1497424736,893.7333333383,17.1544
1497424740,900.9333333383,17.0681
1497424744,872.1333333383,16.3626
1497424748,922.5333333383,17.3612
1497424752,893.7333333383,15.9825
1497424756,977.7333333383,17.1204
1497424760,1018.5333333383,18.1295
1497424764,939.3333333383,18.1713
1497424768,932.1333333383,17.7602
1497424772,896.1333333383,17.8555
1497424776,936.9333333383,16.2932
1497424780,912.9333333383,16.6773
1497424784,929.7333333383,16.4549
1497424788,989.7333333383,17.0693
1497424792,920.1333333383,16.6189
1497424796,953.7333333383,16.8751
1497424800,908.1333333383,17.3381
1497424804,992.1333333383,16.3036
1497424808,910.5333333383,16.9236
1497424812,980.1333333383,16.3702
1497424816,1004.1333333383,16.931
1497424820,965.7333333383,16.9248
1497424824,1025.7333333383,16.6387
1497424828,963.3333333383,16.7062
1497424832,963.3333333383,14.8063
1497424836,944.1333333383,17.059
1497424840,888.9333333383,16.6973
1497424844,881.7333333383,16.0845
1497424848,912.9333333383,16.8638
1497424852,915.3333333383,17.3513
1497424856,910.5333333383,16.846
1497424860,881.7333333383,17.1581
1497424864,862.5333333383,17.6413
1497424868,939.3333333383,17.0997
1497424872,1054.5333333383,17.331
1497424876,1076.1333333383,17.711
1497424880,1054.5333333383,16.9565
1497424884,1092.9333333383,16.9795
1497424888,1133.7333333383,16.5539
1497424892,1095.3333333383,15.9433
1497424896,1104.9333333383,16.1116
1497424900,1042.5333333383,17.1317
1497424904,939.3333333383,17.9182
1497424908,965.7333333383,17.097
1497424912,915.3333333383,17.0371
1497424916,951.3333333383,16.6469
1497424920,922.5333333383,17.6599
1497424924,939.3333333383,17.5262
1497424928,965.7333333383,18.7969
1497424932,989.7333333383,17.3903
1497424936,1004.1333333383,17.037
1497424940,972.9333333383,16.7
1497424944,1056.9333333383,18.1373
1497424948,1095.3333333383,18.4251
1497424952,1032.9333333383,17.4284
1497424956,1056.9333333383,16.2834
1497424960,1042.5333333383,16.587
1497424964,1001.7333333383,17.3806
1497424968,1040.1333333383,17.9556
1497424972,1006.5333333383,18.4246
1497424976,1071.3333333383,17.348
1497424980,972.9333333383,17.6871
1497424984,1006.5333333383,17.0469
1497424988,1004.1333333383,16.6545
1497424992,1016.1333333383,16.6635
1497424996,912.9333333383,17.3732
1497425000,941.7333333383,17.6113
1497425004,946.5333333383,16.4704
1497425008,1008.9333333383,16.3085
1497425012,951.3333333383,16.6053
1497425016,1044.9333333383,16.5124
1497425020,1049.7333333383,16.686
1497425024,1083.3333333383,17.0169
1497425028,1076.1333333383,16.3066
1497425032,1052.1333333383,16.2842
1497425036,970.5333333383,17.0985
1497425040,1006.5333333383,16.3917
1497425044,1023.3333333383,17.3588
1497425048,977.7333333383,15.9002
1497425052,932.1333333383,16.1313
1497425056,1028.1333333383,16.5764
1497425060,1030.5333333383,16.874
1497425064,1030.5333333383,16.6442
1497425068,1030.5333333383,16.7516
1497425072,1071.3333333383,15.945
1497425076,1054.5333333383,17.2979
1497425080,1066.5333333383,17.0006
1497425084,1040.1333333383,16.8156
1497425088,1056.9333333383,16.7916
1497425092,1040.1333333383,16.2126
1497425096,1054.5333333383,16.1794
1497425100,1059.3333333383,15.9571
1497425104,1054.5333333383,16.2999
1497425108,1061.7333333383,17.2202
1497425112,972.9333333383,16.8849
1497425116,1042.5333333383,15.7743
1497425120,1040.1333333383,15.9185
1497425124,992.1333333383,16.408
1497425128,1032.9333333383,19.3565
1497425132,972.9333333383,18.1371
1497425136,989.7333333383,16.1834
1497425140,932.1333333383,16.7209
1497425144,994.5333333383,18.6301
1497425148,936.9333333383,17.73
1497425152,922.5333333383,17.3345
1497425156,908.1333333383,16.8275
1497425160,884.1333333383,18.3293
1497425164,910.5333333383,17.8351
1497425168,879.3333333383,17.188
1497425172,965.7333333383,17.6256
1497425176,1011.3333333383,18.1356
1497425180,1064.1333333383,18.4641
1497425184,1097.7333333383,17.2014
1497425188,1078.5333333383,17.4201
1497425192,1126.5333333383,16.678
1497425196,1088.1333333383,16.835
1497425200,1167.3333333383,16.0145
1497425204,1145.7333333383,16.3202
1497425208,1121.7333333383,16.5879
1497425212,1145.7333333383,16.2872
1497425216,1104.9333333383,17.7265
1497425220,1121.7333333383,17.3229
1497425224,1121.7333333383,15.4976
1497425228,1107.3333333383,16.8393
1497425232,1097.7333333383,16.1431
1497425236,1128.9333333383,16.129
1497425240,1035.3333333383,16.5703
1497425244,1090.5333333383,17.8786
1497425248,1025.7333333383,16.2977
1497425252,1023.3333333383,16.0721
1497425256,972.9333333383,17.5577
1497425260,951.3333333383,16.4472
1497425264,999.3333333383,16.4401
1497425268,968.1333333383,17.388
1497425272,1016.1333333383,18.4027
1497425276,1008.9333333383,18.1111
1497425280,1078.5333333383,18.2742
1497425284,1083.3333333383,16.4584
1497425288,1152.9333333383,17.4855
1497425292,1116.9333333383,17.0565
1497425296,1150.5333333383,16.1496
1497425300,1114.5333333383,16.5523
1497425304,1059.3333333383,16.6212
1497425308,1066.5333333383,16.9406
1497425312,1047.3333333383,17.0309
1497425316,1035.3333333383,15.9247
1497425320,1008.9333333383,16.7607
1497425324,992.1333333383,17.2745
1497425328,1083.3333333383,17.4292
1497425332,1035.3333333383,16.5493
1497425336,1032.9333333383,19.0187
1497425340,1049.7333333383,16.4304
1497425344,1054.5333333383,16.4132
1497425348,1061.7333333383,15.408
1497425352,1097.7333333383,16.7919
1497425356,1061.7333333383,15.4955
1497425360,1092.9333333383,15.6862
1497425364,1083.3333333383,16.942
1497425368,1121.7333333383,17.0176
1497425372,1100.1333333383,16.0229
1497425376,1102.5333333383,17.5555
1497425380,1104.9333333383,16.9115
1497425384,1083.3333333383,17.7954
1497425388,1090.5333333383,18.3172
1497425392,1095.3333333383,16.9508
1497425396,1114.5333333383,17.7241
1497425400,1102.5333333383,18.3299
1497425404,1114.5333333383,16.3399
1497425408,1080.9333333383,17.0966
1497425412,1090.5333333383,17.9295
1497425416,1044.9333333383,17.0237
1497425420,1042.5333333383,17.2381
1497425424,1078.5333333383,18.4421
1497425428,1037.7333333383,16.8456
1497425432,1061.7333333383,16.9628
1497425436,1054.5333333383,16.8922
1497425440,1068.9333333383,18.0838
1497425444,1054.5333333383,16.1625
1497425448,1028.1333333383,15.9867
1497425452,996.9333333383,16.5033
1497425456,1006.5333333383,16.7761
1497425460,948.9333333383,17.7505
1497425464,968.1333333383,18.4555
1497425468,1001.7333333383,17.0892
1497425472,1011.3333333383,17.3852
1497425476,1037.7333333383,16.9379
1497425480,1059.3333333383,17.3053
1497425484,1047.3333333383,16.7263
1497425488,1025.7333333383,16.8996
1497425492,999.3333333383,16.7547
1497425496,1030.5333333383,16.8897
1497425500,932.1333333383,18.215
1497425504,980.1333333383,16.2524
1497425508,970.5333333383,17.1608
1497425512,946.5333333383,17.91
1497425516,960.9333333383,17.7938
1497425520,910.5333333383,18.0028
1497425524,984.9333333383,17.7074
1497425528,912.9333333383,17.4629
1497425532,982.5333333383,15.7308
1497425536,900.9333333383,17.2118
1497425540,903.3333333383,16.7981
1497425544,915.3333333383,17.3464
1497425548,944.1333333383,17.2864
1497425552,980.1333333383,16.3119
1497425556,963.3333333383,18.662
1497425560,982.5333333383,16.0507
1497425564,922.5333333383,16.7657
1497425568,992.1333333383,17.0059
1497425572,970.5333333383,16.7676
1497425576,1004.1333333383,17.4254
1497425580,1047.3333333383,17.5456
1497425584,1068.9333333383,16.9402
1497425588,1100.1333333383,16.5371
1497425592,1107.3333333383,17.5853
1497425596,1136.1333333383,18.7164
1497425600,1078.5333333383,16.2179
1497425604,1100.1333333383,17.8369
1497425608,1073.7333333383,16.3881
1497425612,1047.3333333383,16.9516
1497425616,1023.3333333383,17.2366
1497425620,956.1333333383,17.8714
1497425624,968.1333333383,17.3105
1497425628,896.1333333383,17.6445
1497425632,896.1333333383,17.4571
1497425636,910.5333333383,15.9362
1497425640,908.1333333383,18.4689
1497425644,951.3333333383,16.6652
1497425648,924.9333333383,17.6035
1497425652,908.1333333383,16.872
1497425656,905.7333333383,17.6269
1497425660,891.3333333383,16.6332
1497425664,886.5333333383,16.7448
1497425668,927.3333333383,17.3598
1497425672,922.5333333383,16.4054
1497425676,1023.3333333383,18.5457
1497425680,977.7333333383,17.2774
1497425684,965.7333333383,16.3563
1497425688,946.5333333383,18.3702
1497425692,980.1333333383,16.5303
1497425696,1040.1333333383,16.6033
1497425700,975.3333333383,18.5659
1497425704,1006.5333333383,18.6085
1497425708,987.3333333383,17.3391
1497425712,960.9333333383,16.5122
1497425716,920.1333333383,17.7117
1497425720,1008.9333333383,16.2899
1497425724,1013.7333333383,17.4529
1497425728,939.3333333383,17.3656
1497425732,893.7333333383,17.2276
1497425736,908.1333333383,16.1812
1497425740,941.7333333383,15.7547
1497425744,908.1333333383,17.2367
1497425748,915.3333333383,17.5294
1497425752,934.5333333383,17.2812
1497425756,903.3333333383,14.9762
1497425760,934.5333333383,17.3919
1497425764,874.5333333383,17.2
1497425768,905.7333333383,16.6911
1497425772,886.5333333383,18.4084
1497425776,958.5333333383,17.7876
1497425780,876.9333333383,17.0069
1497425784,963.3333333383,16.5327
1497425788,852.9333333383,16.6761
1497425792,920.1333333383,17.6276
1497425796,893.7333333383,17.8324
1497425800,917.7333333383,17.7343
1497425804,872.1333333383,17.9155
1497425808,864.9333333383,18.4938
1497425812,965.7333333383,18.0818
1497425816,888.9333333383,17.8072
1497425820,932.1333333383,17.5873
1497425824,905.7333333383,18.8543
1497425828,876.9333333383,18.5027
1497425832,908.1333333383,17.4659
1497425836,886.5333333383,18.6342
1497425840,936.9333333383,18.0933
1497425844,910.5333333383,17.4553
1497425848,912.9333333383,17.797
1497425852,891.3333333383,18.386
1497425856,956.1333333383,17.0883
1497425860,989.7333333383,18.0629
1497425864,965.7333333383,18.0748
1497425868,956.1333333383,17.6455
1497425872,912.9333333383,18.1426
1497425876,970.5333333383,18.6181
1497425880,992.1333333383,17.1309
1497425884,936.9333333383,17.1358
1497425888,932.1333333383,17.7442
1497425892,920.1333333383,17.3911
1497425896,936.9333333383,17.3795
1497425900,903.3333333383,17.7209
1497425904,932.1333333383,17.3866
1497425908,965.7333333383,17.2273
1497425912,996.9333333383,17.2922
1497425916,972.9333333383,17.0808
1497425920,960.9333333383,18.1578
1497425924,1013.7333333383,18.2303
1497425928,1008.9333333383,17.9089
1497425932,1059.3333333383,17.1561
1497425936,1049.7333333383,17.7493
1497425940,1068.9333333383,17.6264
1497425944,1064.1333333383,17.1086
1497425948,1032.9333333383,17.9256
1497425952,1107.3333333383,16.4864
1497425956,1054.5333333383,16.5983
1497425960,1061.7333333383,17.7696
1497425964,1044.9333333383,17.729
1497425972,1145.7333333383,18.8894
1497425976,1042.5333333383,17.0829
1497425980,1124.1333333383,17.0908
1497425984,1112.1333333383,18.9276
1497425988,1088.1333333383,17.683
1497425992,1104.9333333383,16.5698
1497425996,1112.1333333383,17.5137
1497426000,1124.1333333383,16.8997
1497426004,1114.5333333383,16.6673
1497426008,1131.3333333383,17.7192
1497426012,1092.9333333383,17.1738
1497426016,1112.1333333383,16.8086
1497426020,1102.5333333383,15.5292
1497426024,1064.1333333383,17.4208
1497426028,1064.1333333383,17.6529
1497426032,1044.9333333383,18.9054
1497426036,1018.5333333383,17.8874
1497426040,1042.5333333383,17.7637
1497426044,1004.1333333383,17.7456
1497426048,984.9333333383,18.2822
1497426052,982.5333333383,17.8005
1497426056,989.7333333383,17.8473
1497426060,1001.7333333383,17.7347
1497426064,1004.1333333383,17.5498
1497426068,1020.9333333383,16.0984
1497426072,1068.9333333383,16.7565
1497426076,1102.5333333383,16.8421
1497426080,1107.3333333383,16.8117
1497426084,1104.9333333383,17.3882
1497426088,1049.7333333383,17.4883
1497426092,1112.1333333383,17.2594
1497426096,1066.5333333383,17.8588
1497426100,1011.3333333383,17.5045
1497426104,1030.5333333383,18.1976
1497426108,960.9333333383,17.1255
1497426112,999.3333333383,17.4245
1497426116,1030.5333333383,17.2883
1497426120,1001.7333333383,17.7403
1497426124,972.9333333383,18.3737
1497426128,1013.7333333383,16.6532
1497426132,1056.9333333383,17.3353
1497426136,1032.9333333383,16.1131
1497426140,1061.7333333383,16.9379
1497426144,1035.3333333383,16.5231
1497426148,1049.7333333383,17.6804
1497426152,1004.1333333383,16.4191
1497426156,1052.1333333383,16.3609
1497426160,1008.9333333383,16.6587
1497426164,1035.3333333383,14.7751
1497426168,1047.3333333383,15.947
1497426172,1037.7333333383,16.449
1497426176,980.1333333383,15.8121
1497426180,951.3333333383,16.0549
1497426184,927.3333333383,15.4155
1497426188,963.3333333383,15.8148
1497426192,939.3333333383,15.9533
1497426196,946.5333333383,15.2681
1497426200,951.3333333383,14.962
1497426204,936.9333333383,16.3495
1497426208,879.3333333383,16.3312
1497426212,891.3333333383,16.5314
1497426216,898.5333333383,16.2462
1497426220,915.3333333383,17.2555
1497426224,872.1333333383,16.7708
1497426228,920.1333333383,17.1866
1497426232,936.9333333383,16.6781
1497426236,888.9333333383,17.2941
1497426240,924.9333333383,17.6104
1497426244,881.7333333383,16.2592
1497426248,917.7333333383,16.0331
1497426252,936.9333333383,16.6716
1497426256,898.5333333383,16.5322
1497426260,946.5333333383,17.4651
1497426264,932.1333333383,16.8691
1497426268,982.5333333383,18.7758
1497426272,920.1333333383,17.7759
1497426276,941.7333333383,16.7659
1497426280,958.5333333383,18.4697
1497426284,934.5333333383,17.9221
1497426288,936.9333333383,17.7037
1497426292,963.3333333383,16.9872
1497426296,946.5333333383,16.6722
1497426300,944.1333333383,17.3679
1497426304,941.7333333383,17.0574
1497426308,1030.5333333383,17.4748
1497426312,915.3333333383,17.5263
1497426316,960.9333333383,17.2867
1497426320,932.1333333383,17.9665
1497426324,1013.7333333383,18.1859
1497426328,922.5333333383,18.1758
1497426332,924.9333333383,17.809
1497426336,968.1333333383,17.3886
1497426340,915.3333333383,17.7974
1497426344,1004.1333333383,17.9054
1497426348,953.7333333383,17.1667
1497426352,989.7333333383,18.1559
1497426356,1023.3333333383,16.4553
1497426360,1008.9333333383,17.3259
1497426364,1016.1333333383,17.8547
1497426368,1042.5333333383,16.497
1497426372,1052.1333333383,16.6358
1497426376,956.1333333383,18.3963
1497426380,992.1333333383,17.4426
1497426384,927.3333333383,17.3154
1497426388,972.9333333383,17.4174
1497426392,934.5333333383,17.3714
1497426396,1001.7333333383,17.7849
1497426400,1032.9333333383,17.4724
1497426404,1016.1333333383,16.5654
1497426408,1035.3333333383,16.3615
1497426412,1040.1333333383,15.9794
1497426416,1056.9333333383,15.8117
1497426420,1032.9333333383,16.4392
1497426424,1035.3333333383,16.9881
1497426428,1040.1333333383,16.7104
1497426432,1040.1333333383,17.1827
1497426436,1011.3333333383,17.6746
1497426440,944.1333333383,16.4442
1497426444,992.1333333383,17.1311
1497426448,1016.1333333383,17.1164
1497426452,951.3333333383,17.8084
1497426456,1004.1333333383,17.2701
1497426460,994.5333333383,17.172
1497426464,900.9333333383,16.7694
1497426468,999.3333333383,16.8088
1497426472,936.9333333383,16.8353
1497426476,968.1333333383,16.5807
1497426480,992.1333333383,16.8277
1497426484,982.5333333383,15.5506
1497426488,1004.1333333383,17.0463
1497426492,939.3333333383,16.4377
1497426496,1035.3333333383,17.6244
1497426500,1020.9333333383,16.9475
1497426504,1044.9333333383,18.0904
1497426508,1023.3333333383,17.6684
1497426512,939.3333333383,17.7377
1497426516,1037.7333333383,16.5382
1497426520,1035.3333333383,16.176
1497426524,1056.9333333383,16.9512
1497426528,1059.3333333383,16.4202
1497426532,1083.3333333383,15.3759
1497426536,1052.1333333383,15.8774
1497426540,1030.5333333383,16.2684
1497426544,1042.5333333383,15.826
1497426548,1052.1333333383,17.5061
1497426552,1042.5333333383,16.1313
1497426556,1042.5333333383,16.8127
1497426560,1056.9333333383,17.0044
1497426564,1109.7333333383,16.9183
1497426568,1104.9333333383,16.9408
1497426572,1121.7333333383,15.7643
1497426576,1131.3333333383,15.9664
1497426580,1126.5333333383,15.8765
1497426584,1059.3333333383,15.4627
1497426588,1073.7333333383,15.7053
1497426592,1121.7333333383,16.0401
1497426596,1078.5333333383,16.8471
1497426600,1049.7333333383,14.9921
1497426604,1030.5333333383,16.6781
1497426608,1049.7333333383,17.1808
1497426612,1083.3333333383,16.87
1497426616,1047.3333333383,16.7566
1497426620,1102.5333333383,16.4929
1497426624,1047.3333333383,16.5707
1497426628,1049.7333333383,15.3889
1497426632,1054.5333333383,17.9278
1497426636,1078.5333333383,17.0198
1497426640,1076.1333333383,17.1558
1497426644,1052.1333333383,17.2154
1497426648,1023.3333333383,17.1792
1497426652,1066.5333333383,17.8524
1497426656,1056.9333333383,16.1959
1497426660,1042.5333333383,17.3914
1497426664,1047.3333333383,17.1504
1497426668,1030.5333333383,16.0202
1497426672,1032.9333333383,17.0155
1497426676,1032.9333333383,18.694
1497426680,941.7333333383,17.0204
1497426684,1023.3333333383,16.6891
1497426688,1006.5333333383,16.9952
1497426692,1020.9333333383,18.5995
1497426696,1044.9333333383,17.6449
1497426700,972.9333333383,17.545
1497426704,1020.9333333383,16.7894
1497426708,980.1333333383,17.8244
1497426712,992.1333333383,17.7889
1497426716,948.9333333383,17.6128
1497426720,936.9333333383,17.8942
1497426724,989.7333333383,17.475
1497426728,968.1333333383,17.3472
1497426732,932.1333333383,18.2968
1497426736,992.1333333383,18.1088
1497426740,884.1333333383,18.1914
1497426744,896.1333333383,18.2632
1497426748,987.3333333383,16.6904
1497426752,953.7333333383,17.8601
1497426756,927.3333333383,17.3996
1497426760,968.1333333383,15.9814
1497426764,958.5333333383,16.5636
1497426768,941.7333333383,16.6198
1497426772,982.5333333383,16.4588
1497426776,915.3333333383,17.7067
1497426780,987.3333333383,17.232
1497426784,999.3333333383,15.1522
1497426788,956.1333333383,17.7134
1497426792,984.9333333383,16.6789
1497426796,903.3333333383,15.6806
1497426800,936.9333333383,16.6991
1497426804,960.9333333383,17.2354
1497426808,941.7333333383,16.5768
1497426812,982.5333333383,16.6236
1497426816,975.3333333383,17.606
1497426820,972.9333333383,16.8789
1497426824,951.3333333383,16.9249
1497426828,946.5333333383,16.6351
1497426832,924.9333333383,17.4298
1497426836,939.3333333383,17.6661
1497426840,939.3333333383,16.2307
1497426844,965.7333333383,17.3935
1497426848,944.1333333383,16.6993
1497426852,992.1333333383,17.5011
1497426856,939.3333333383,17.5755
1497426860,934.5333333383,17.378
1497426864,977.7333333383,16.5761
1497426868,975.3333333383,16.2348
1497426872,936.9333333383,16.9476
1497426876,922.5333333383,17.2253
1497426880,958.5333333383,17.6758
1497426884,941.7333333383,16.9302
1497426888,992.1333333383,17.834
1497426892,920.1333333383,16.2331
1497426896,1008.9333333383,17.4154
1497426900,1001.7333333383,17.017
1497426904,980.1333333383,18.369
1497426908,956.1333333383,18.5025
1497426912,956.1333333383,17.532
1497426916,960.9333333383,19.5609
1497426920,972.9333333383,17.4151
1497426924,977.7333333383,18.5776
1497426928,908.1333333383,16.7477
1497426932,948.9333333383,15.948
1497426936,968.1333333383,16.5611
1497426940,982.5333333383,16.408
1497426944,912.9333333383,17.0472
1497426948,922.5333333383,16.0774
1497426952,992.1333333383,16.4636
1497426956,953.7333333383,15.0904
1497426960,941.7333333383,17.6777
1497426964,1001.7333333383,17.1536
1497426968,953.7333333383,16.827
1497426972,963.3333333383,16.4978
1497426976,977.7333333383,16.5758
1497426980,963.3333333383,17.4061
1497426984,1037.7333333383,16.5728
1497426988,975.3333333383,15.9595
1497426992,903.3333333383,17.1669
1497426996,898.5333333383,17.2188
1497427000,929.7333333383,17.0391
1497427004,908.1333333383,16.556
1497427008,884.1333333383,18.0086
1497427012,929.7333333383,17.0371
1497427016,893.7333333383,16.8782
1497427020,917.7333333383,17.1443
1497427024,881.7333333383,16.6545
1497427028,912.9333333383,17.1111
1497427032,910.5333333383,16.9981
1497427036,927.3333333383,17.0466
1497427040,891.3333333383,17.6296
1497427044,941.7333333383,17.1283
1497427048,910.5333333383,17.6272
1497427052,910.5333333383,17.3101
1497427056,946.5333333383,16.7449
1497427060,922.5333333383,16.0333
1497427064,920.1333333383,15.9904
1497427068,905.7333333383,16.6195
1497427072,944.1333333383,16.4325
1497427076,891.3333333383,16.7498
1497427080,905.7333333383,17.2862
1497427084,884.1333333383,17.5388
1497427088,989.7333333383,17.8774
1497427092,888.9333333383,17.4852
1497427096,900.9333333383,16.7107
1497427100,934.5333333383,17.5052
1497427104,896.1333333383,17.1169
1497427108,903.3333333383,18.0812
1497427112,898.5333333383,17.3498
1497427116,932.1333333383,17.9611
1497427120,874.5333333383,17.4544
1497427124,884.1333333383,17.404
1497427128,886.5333333383,17.0054
1497427132,876.9333333383,16.3708
1497427136,900.9333333383,16.7159
1497427140,884.1333333383,17.0115
1497427144,929.7333333383,17.8165
1497427148,900.9333333383,18.8725
1497427152,939.3333333383,16.7884
1497427156,917.7333333383,17.5165
1497427160,896.1333333383,17.4643
1497427164,881.7333333383,16.3808
1497427168,929.7333333383,17.2071
1497427172,960.9333333383,18.1045
1497427176,944.1333333383,16.5827
1497427180,898.5333333383,17.1684
1497427184,912.9333333383,17.4669
1497427188,876.9333333383,17.2473
1497427196,903.3333333383,16.8523
1497427200,920.1333333383,15.7724
1497427204,888.9333333383,17.5145
1497427208,879.3333333383,16.5998
1497427212,881.7333333383,17.0978
1497427216,874.5333333383,17.322
1497427220,893.7333333383,16.8281
1497427224,932.1333333383,16.5271
1497427228,920.1333333383,17.2197
1497427232,912.9333333383,17.4678
1497427236,987.3333333383,17.4953
1497427240,908.1333333383,15.9045
1497427244,939.3333333383,17.2259
1497427248,888.9333333383,16.5701
1497427252,898.5333333383,16.9259
1497427256,862.5333333383,16.6027
1497427260,891.3333333383,16.5009
1497427264,922.5333333383,17.1855
1497427268,927.3333333383,17.5156
1497427272,915.3333333383,17.7641
1497427276,867.3333333383,18.7041
1497427280,896.1333333383,17.3488
1497427284,900.9333333383,17.794
1497427288,905.7333333383,18.2055
1497427292,884.1333333383,17.5515
1497427296,1004.1333333383,17.0604
1497427300,939.3333333383,17.7874
1497427304,927.3333333383,16.4507
1497427308,936.9333333383,16.3847
1497427312,956.1333333383,16.9371
1497427316,948.9333333383,18.6173
1497427320,917.7333333383,17.9821
1497427324,980.1333333383,17.6781
1497427328,1114.5333333383,17.3073
1497427332,903.3333333383,16.7475
1497427336,891.3333333383,16.436
1497427340,934.5333333383,17.2286
1497427344,917.7333333383,18.569
1497427348,929.7333333383,17.5757
1497427352,893.7333333383,16.7953
1497427356,903.3333333383,16.1199
1497427360,908.1333333383,17.0308
1497427364,869.7333333383,18.0263
1497427368,908.1333333383,16.4458
1497427372,958.5333333383,16.5479
1497427376,898.5333333383,17.1943
1497427380,888.9333333383,16.9687
1497427384,968.1333333383,16.8714
1497427388,924.9333333383,18.017
1497427392,948.9333333383,16.8339
1497427396,893.7333333383,16.6965
1497427400,924.9333333383,17.1048
1497427404,922.5333333383,16.6755
1497427408,896.1333333383,17.5
1497427412,956.1333333383,15.9466
1497427416,898.5333333383,16.2146
1497427420,939.3333333383,16.798
1497427424,903.3333333383,18.0557
1497427428,939.3333333383,17.7411
1497427432,912.9333333383,17.9701
1497427436,908.1333333383,17.68
1497427440,893.7333333383,17.4394
1497427444,922.5333333383,16.8076
1497427448,958.5333333383,18.6963
1497427452,888.9333333383,18.5547
1497427456,896.1333333383,17.0966
1497427460,881.7333333383,19.704
1497427464,922.5333333383,17.6722
1497427468,939.3333333383,16.9729
1497427472,951.3333333383,17.8056
1497427476,934.5333333383,17.4106
1497427480,910.5333333383,18.0768
1497427484,910.5333333383,16.3227
1497427488,941.7333333383,16.2902
1497427492,903.3333333383,17.4069
1497427496,922.5333333383,16.5749
1497427500,910.5333333383,16.1875
1497427504,874.5333333383,16.059
1497427508,905.7333333383,17.1968
1497427512,941.7333333383,17.651
1497427516,929.7333333383,17.8115
1497427520,893.7333333383,18.1804
1497427524,908.1333333383,17.1992
1497427528,939.3333333383,17.6085
1497427532,927.3333333383,17.4101
1497427536,965.7333333383,18.3158
1497427540,886.5333333383,16.1395
1497427544,915.3333333383,17.4549
1497427548,968.1333333383,17.3975
1497427552,920.1333333383,15.8122
1497427556,910.5333333383,16.339
1497427560,929.7333333383,15.9952
1497427564,915.3333333383,16.0144
1497427568,972.9333333383,18.5082
1497427572,932.1333333383,16.149
1497427576,1001.7333333383,16.2433
1497427580,939.3333333383,18.4708
1497427584,972.9333333383,16.0854
1497427588,989.7333333383,18.0774
1497427592,1006.5333333383,16.4219
1497427596,1032.9333333383,16.8047
1497427600,977.7333333383,17.1748
1497427604,1035.3333333383,15.7631
1497427608,1032.9333333383,17.7249
1497427612,1011.3333333383,17.1705
1497427616,953.7333333383,16.8953
1497427620,1042.5333333383,17.4921
1497427624,1016.1333333383,16.0734
1497427628,1008.9333333383,16.7208
1497427632,992.1333333383,17.7336
1497427636,980.1333333383,15.5763
1497427640,996.9333333383,16.6373
1497427644,994.5333333383,16.8312
1497427648,992.1333333383,16.9942
1497427652,946.5333333383,15.9962
1497427656,968.1333333383,16.2629
1497427660,956.1333333383,15.3118
1497427664,1020.9333333383,16.0877
1497427668,932.1333333383,17.3939
1497427672,951.3333333383,17.7151
1497427676,960.9333333383,18.7432
1497427680,968.1333333383,17.7417
1497427684,915.3333333383,17.1097
1497427688,920.1333333383,18.3033
1497427692,958.5333333383,17.5646
1497427696,874.5333333383,16.7427
1497427700,956.1333333383,16.7888
1497427704,924.9333333383,15.9401
1497427712,900.9333333383,16.8901
1497427716,917.7333333383,16.7989
1497427720,953.7333333383,16.7913
1497427724,900.9333333383,16.6114
1497427728,948.9333333383,17.9788
1497427732,934.5333333383,17.7187
1497427736,958.5333333383,16.7624
1497427740,992.1333333383,17.2238
1497427744,898.5333333383,16.2984
1497427748,963.3333333383,17.4275
1497427752,910.5333333383,16.8958
1497427756,934.5333333383,16.7204
1497427760,903.3333333383,17.7628
1497427764,934.5333333383,16.8797
1497427768,891.3333333383,16.5161
1497427772,932.1333333383,18.0829
1497427776,941.7333333383,18.7998
1497427780,903.3333333383,17.9677
1497427784,977.7333333383,18.4578
1497427788,915.3333333383,17.3211
1497427792,917.7333333383,16.9985
1497427796,886.5333333383,17.2863
1497427800,888.9333333383,17.0173
1497427804,915.3333333383,16.5284
1497427808,934.5333333383,17.1856
1497427812,924.9333333383,16.1795
1497427816,912.9333333383,16.3642
1497427820,896.1333333383,17.1406
1497427824,898.5333333383,16.0983
1497427828,905.7333333383,17.0334
1497427832,898.5333333383,17.0726
1497427836,908.1333333383,16.7576
1497427840,922.5333333383,17.0863
1497427844,932.1333333383,17.5279
1497427848,972.9333333383,18.161
1497427852,975.3333333383,18.2572
1497427856,1013.7333333383,15.7541
1497427860,963.3333333383,17.2304
1497427864,1037.7333333383,17.2753
1497427868,1037.7333333383,16.6187
1497427872,982.5333333383,17.9465
1497427876,1011.3333333383,18.1389
1497427880,1001.7333333383,17.8694
1497427884,1023.3333333383,16.3564
1497427888,960.9333333383,16.8055
1497427892,939.3333333383,17.5828
1497427896,982.5333333383,17.5729
1497427900,989.7333333383,16.7659
1497427904,927.3333333383,16.7145
1497427908,977.7333333383,17.2092
1497427912,920.1333333383,17.3235
1497427916,980.1333333383,18.1016
1497427920,924.9333333383,16.0584
1497427924,927.3333333383,17.7948
1497427928,960.9333333383,18.5412
1497427932,932.1333333383,16.3698
1497427936,941.7333333383,16.3325
1497427940,888.9333333383,16.3406
1497427944,903.3333333383,15.8994
1497427948,920.1333333383,15.6374
1497427952,910.5333333383,15.7071
1497427956,924.9333333383,16.4969
1497427960,874.5333333383,17.6561
1497427964,912.9333333383,17.5792
1497427968,876.9333333383,16.9477
1497427972,884.1333333383,17.4527
1497427976,855.3333333383,16.2096
1497427980,905.7333333383,16.8492
1497427984,867.3333333383,17.0104
1497427988,845.7333333383,16.9903
1497427992,903.3333333383,18.1531
1497427996,891.3333333383,16.3606
1497428000,881.7333333383,18.0679
1497428004,874.5333333383,18.7661
1497428008,886.5333333383,18.5513
1497428012,922.5333333383,18.4902
1497428016,891.3333333383,18.7335
1497428020,888.9333333383,17.4043
1497428024,917.7333333383,17.8968
1497428028,831.3333333383,17.0287
1497428032,886.5333333383,16.9686
1497428036,860.1333333383,18.5196
1497428040,932.1333333383,18.4624
1497428044,852.9333333383,18.216
1497428048,917.7333333383,17.5199
1497428052,903.3333333383,18.5093
1497428056,891.3333333383,18.4735
1497428060,908.1333333383,18.6379
1497428064,900.9333333383,18.2129
1497428068,881.7333333383,17.9754
1497428072,833.7333333383,16.303
1497428076,869.7333333383,16.2739
1497428080,888.9333333383,16.9851
1497428084,898.5333333383,17.7999
1497428088,845.7333333383,17.057
1497428092,896.1333333383,16.4435
1497428096,884.1333333383,17.0243
1497428100,900.9333333383,16.8708
1497428104,862.5333333383,17.0203
1497428108,884.1333333383,17.195
1497428112,927.3333333383,17.0357
1497428116,881.7333333383,16.224
1497428120,881.7333333383,15.8658
1497428124,910.5333333383,18.078
1497428128,891.3333333383,17.4529
1497428132,900.9333333383,18.1793
1497428136,872.1333333383,18.3697
1497428140,879.3333333383,18.0452
1497428144,896.1333333383,19.8268
1497428148,896.1333333383,18.1414
1497428152,908.1333333383,17.945
1497428156,948.9333333383,18.2185
1497428160,903.3333333383,17.6235
1497428164,920.1333333383,18.9286
1497428168,951.3333333383,17.1282
1497428172,905.7333333383,18.1118
1497428176,908.1333333383,17.027
1497428180,927.3333333383,17.5827
1497428184,956.1333333383,17.2417
1497428188,869.7333333383,17.4941
1497428192,898.5333333383,16.2959
1497428196,903.3333333383,19.6054
1497428200,888.9333333383,18.1246
1497428204,927.3333333383,17.6525
1497428208,891.3333333383,16.9176
1497428212,896.1333333383,18.6473
1497428216,920.1333333383,18.5759
1497428220,929.7333333383,17.9115
1497428224,896.1333333383,17.1011
1497428228,924.9333333383,17.6916
1497428232,874.5333333383,16.8816
1497428236,896.1333333383,18.2019
1497428240,888.9333333383,16.4571
1497428244,900.9333333383,18.1989
1497428248,891.3333333383,18.2815
1497428252,848.1333333383,16.8177
1497428256,922.5333333383,18.6512
1497428260,869.7333333383,17.4224
1497428264,893.7333333383,17.7627
1497428268,912.9333333383,17.5402
1497428272,881.7333333383,16.7422
1497428276,941.7333333383,16.8129
1497428280,968.1333333383,16.9142
1497428284,982.5333333383,17.0789
1497428288,984.9333333383,18.5144
1497428292,963.3333333383,17.2673
1497428296,982.5333333383,17.0827
1497428300,1023.3333333383,17.6284
1497428304,960.9333333383,17.2205
1497428308,924.9333333383,17.0734
1497428312,977.7333333383,16.6136
1497428316,881.7333333383,17.8824
1497428320,929.7333333383,17.8236
1497428324,912.9333333383,16.8157
1497428328,965.7333333383,17.8103
1497428332,905.7333333383,16.3087
1497428336,946.5333333383,15.7796
1497428340,941.7333333383,17.0111
1497428344,948.9333333383,16.6954
1497428348,977.7333333383,16.4379
1497428352,941.7333333383,17.0842
1497428356,999.3333333383,17.2935
1497428360,932.1333333383,17.5502
1497428364,968.1333333383,16.4269
1497428368,1032.9333333383,17.4933
1497428372,1001.7333333383,17.4212
1497428376,1023.3333333383,16.9789
1497428380,972.9333333383,18.2801
1497428384,1035.3333333383,17.0587
1497428388,989.7333333383,17.3755
1497428392,987.3333333383,17.7282
1497428396,1004.1333333383,18.0348
1497428400,951.3333333383,16.4322
1497428404,992.1333333383,17.858
1497428408,992.1333333383,17.2666
1497428412,953.7333333383,17.1403
1497428416,975.3333333383,17.5293
1497428420,982.5333333383,17.4658
1497428424,956.1333333383,17.4667
1497428428,999.3333333383,16.3781
1497428432,920.1333333383,14.6
1497428436,1020.9333333383,16.5196
1497428440,946.5333333383,16.5747
1497428444,960.9333333383,17.0636
1497428448,980.1333333383,16.2817
1497428452,968.1333333383,17.446
1497428456,958.5333333383,16.8941
1497428460,953.7333333383,18.3209
1497428464,963.3333333383,16.9899
1497428468,924.9333333383,16.9884
1497428472,941.7333333383,16.5847
1497428476,960.9333333383,17.919
1497428480,970.5333333383,16.7113
1497428484,910.5333333383,16.7067
1497428488,972.9333333383,17.1694
1497428492,912.9333333383,18.8347
1497428496,915.3333333383,17.2558
1497428500,922.5333333383,16.6534
1497428504,941.7333333383,16.684
1497428508,970.5333333383,16.3669
1497428512,905.7333333383,17.8754
1497428516,958.5333333383,18.4493
1497428520,994.5333333383,18.4468
1497428524,994.5333333383,19.0551
1497428528,1006.5333333383,18.8849
1497428532,1030.5333333383,18.1427
1497428536,1023.3333333383,16.3532
1497428540,992.1333333383,16.2984
1497428544,1030.5333333383,17.1991
1497428548,996.9333333383,16.1335
1497428552,1023.3333333383,15.7595
1497428556,1018.5333333383,16.4408
1497428560,1052.1333333383,16.7365
1497428564,1030.5333333383,16.6211
1497428568,1040.1333333383,15.4863
1497428572,956.1333333383,16.2145
1497428576,1047.3333333383,16.3219
1497428580,972.9333333383,16.151
1497428584,951.3333333383,16.7674
1497428588,984.9333333383,16.076
1497428592,992.1333333383,17.3828
1497428596,982.5333333383,15.184
1497428600,977.7333333383,15.9455
1497428604,1006.5333333383,16.4042
1497428608,951.3333333383,17.0325
1497428612,929.7333333383,16.8719
1497428616,970.5333333383,16.6492
1497428620,996.9333333383,17.6308
1497428624,936.9333333383,16.0825
1497428628,982.5333333383,17.1948
1497428632,948.9333333383,15.6405
1497428636,999.3333333383,15.5519
1497428640,982.5333333383,16.7863
1497428644,936.9333333383,16.3518
1497428648,941.7333333383,16.8016
1497428652,939.3333333383,16.1697
1497428656,951.3333333383,17.0133
1497428660,994.5333333383,15.2483
1497428664,941.7333333383,16.7683
1497428668,963.3333333383,16.4986
1497428672,956.1333333383,16.1877
1497428676,1001.7333333383,17.0511
1497428680,972.9333333383,16.6029
1497428684,984.9333333383,14.7313
1497428688,980.1333333383,16.4566
1497428692,1008.9333333383,16.1417
1497428696,1006.5333333383,15.9073
1497428700,946.5333333383,15.0853
1497428704,987.3333333383,16.2243
1497428708,965.7333333383,16.3238
1497428712,948.9333333383,15.3847
1497428716,1001.7333333383,15.413
1497428720,910.5333333383,16.2718
1497428724,922.5333333383,15.1889
1497428728,910.5333333383,15.3075
1497428732,879.3333333383,16.0473
1497428736,872.1333333383,14.7059
1497428740,908.1333333383,15.9119
1497428744,944.1333333383,16.9016
1497428748,891.3333333383,16.3696
1497428752,864.9333333383,14.9589
1497428756,915.3333333383,15.7712
1497428760,898.5333333383,17.7074
1497428764,893.7333333383,16.935
1497428768,946.5333333383,16.7874
1497428772,963.3333333383,16.1152
1497428776,956.1333333383,16.9906
1497428780,924.9333333383,15.5588
1497428784,953.7333333383,16.778
1497428788,932.1333333383,17.1094
1497428792,939.3333333383,17.4903
1497428796,905.7333333383,16.4655
1497428800,917.7333333383,16.2608
1497428804,920.1333333383,16.7799
1497428808,905.7333333383,17.9619
1497428812,939.3333333383,16.8615
1497428816,917.7333333383,17.5664
1497428820,984.9333333383,17.3264
1497428824,886.5333333383,17.3947
1497428828,941.7333333383,16.2511
1497428832,917.7333333383,16.1527
1497428836,886.5333333383,16.3768
1497428840,980.1333333383,16.3911
1497428844,944.1333333383,16.6516
1497428848,968.1333333383,16.9438
1497428852,934.5333333383,16.8442
1497428856,893.7333333383,17.5666
1497428860,939.3333333383,16.1562
1497428864,896.1333333383,16.6146
1497428868,891.3333333383,17.9297
1497428872,900.9333333383,16.0862
1497428876,934.5333333383,16.3692
1497428880,891.3333333383,17.267
1497428884,898.5333333383,16.8405
1497428888,867.3333333383,16.3034
1497428892,884.1333333383,15.8452
1497428896,869.7333333383,16.9607
1497428900,860.1333333383,17.6204
1497428904,886.5333333383,16.5012
1497428908,850.5333333383,15.9245
1497428912,860.1333333383,15.0315
1497428916,843.3333333383,17.5599
1497428920,843.3333333383,16.842
1497428924,845.7333333383,16.4312
1497428928,826.5333333383,18.8496
1497428932,879.3333333383,17.626
1497428936,840.9333333383,16.4022
1497428940,821.7333333383,17.443
1497428944,814.5333333383,18.0622
1497428948,843.3333333383,18.1853
1497428952,814.5333333383,17.5351
1497428956,879.3333333383,17.4856
1497428960,852.9333333383,17.5771
1497428964,876.9333333383,18.0359
1497428968,876.9333333383,16.8847
1497428972,855.3333333383,17.5373
1497428976,886.5333333383,17.0371
1497428980,944.1333333383,16.5582
1497428984,876.9333333383,17.2123
1497428988,898.5333333383,17.8659
1497428992,881.7333333383,15.9978
1497428996,905.7333333383,15.6659
1497429000,920.1333333383,16.1272
1497429004,879.3333333383,16.8911
1497429008,879.3333333383,18.1056
1497429012,888.9333333383,16.1995
1497429016,908.1333333383,16.499
1497429020,924.9333333383,17.2674
1497429024,876.9333333383,16.0857
1497429028,920.1333333383,15.9502
1497429032,867.3333333383,15.5931
1497429036,900.9333333383,16.0003
1497429040,898.5333333383,16.1896
1497429044,915.3333333383,17.43
1497429048,855.3333333383,16.9508
1497429052,888.9333333383,16.637
1497429056,888.9333333383,15.3039
1497429060,888.9333333383,17.7661
1497429064,934.5333333383,17.4572
1497429068,888.9333333383,16.7359
1497429072,934.5333333383,17.3677
1497429076,886.5333333383,17.7459
1497429080,903.3333333383,17.2454
1497429084,845.7333333383,17.0296
1497429088,872.1333333383,17.0127
1497429092,876.9333333383,16.5808
1497429096,872.1333333383,17.3341
1497429100,932.1333333383,17.676
1497429104,862.5333333383,18.5848
1497429108,876.9333333383,17.3365
1497429112,915.3333333383,18.1693
1497429116,912.9333333383,17.4146
1497429120,927.3333333383,16.8397
1497429124,860.1333333383,16.8292
1497429128,905.7333333383,17.1987
1497429132,876.9333333383,16.1837
1497429136,850.5333333383,16.4255
1497429140,912.9333333383,16.1918
1497429144,860.1333333383,15.9292
1497429148,932.1333333383,16.7598
1497429152,881.7333333383,16.9867
1497429156,910.5333333383,16.6825
1497429160,886.5333333383,17.8381
1497429164,891.3333333383,16.5804
1497429168,879.3333333383,17.5519
1497429172,879.3333333383,15.7407
1497429176,896.1333333383,17.1531
1497429180,896.1333333383,16.2787
1497429184,896.1333333383,17.4024
1497429188,881.7333333383,16.4912
1497429192,915.3333333383,16.4504
1497429196,900.9333333383,16.898
1497429200,915.3333333383,17.1353
1497429204,891.3333333383,17.4708
1497429208,884.1333333383,18.6799
1497429212,881.7333333383,17.6646
1497429216,888.9333333383,17.2813
1497429220,903.3333333383,16.9257
1497429224,896.1333333383,16.5064
1497429228,886.5333333383,17.0214
1497429232,934.5333333383,16.8466
1497429236,888.9333333383,17.388
1497429240,963.3333333383,17.6901
1497429244,893.7333333383,17.5825
1497429248,867.3333333383,16.935
1497429252,893.7333333383,18.2585
1497429256,903.3333333383,17.1387
1497429260,891.3333333383,17.5841
1497429264,908.1333333383,17.6671
1497429268,898.5333333383,17.4292
1497429272,908.1333333383,17.561
1497429276,929.7333333383,16.6733
1497429280,946.5333333383,18.0053
1497429284,917.7333333383,17.5771
1497429288,891.3333333383,17.4423
1497429292,924.9333333383,16.5863
1497429296,905.7333333383,16.2254
1497429300,929.7333333383,16.2202
1497429304,884.1333333383,16.7495
1497429308,912.9333333383,16.2394
1497429312,905.7333333383,16.2515
1497429316,905.7333333383,16.084
1497429320,908.1333333383,16.2315
1497429324,922.5333333383,17.0565
1497429328,960.9333333383,17.489
1497429332,920.1333333383,16.24
1497429336,905.7333333383,17.348
1497429340,898.5333333383,17.2388
1497429344,984.9333333383,17.5631
1497429348,932.1333333383,17.0493
1497429352,956.1333333383,16.6732
1497429356,982.5333333383,17.0786
1497429360,936.9333333383,17.9694
1497429364,898.5333333383,17.2775
1497429368,908.1333333383,17.8652
1497429372,968.1333333383,17.1695
1497429376,944.1333333383,18.0805
1497429380,953.7333333383,18.1398
1497429384,941.7333333383,18.0211
1497429388,946.5333333383,18.3639
1497429392,1011.3333333383,17.2446
1497429396,996.9333333383,18.2066
1497429400,999.3333333383,16.7626
1497429404,968.1333333383,17.8723
1497429408,905.7333333383,17.0565
1497429412,1004.1333333383,17.4101
1497429416,984.9333333383,17.8952
1497429420,1032.9333333383,17.8402
1497429424,970.5333333383,17.7451
1497429428,992.1333333383,18.529
1497429432,987.3333333383,17.8507
1497429436,968.1333333383,16.7026
1497429440,994.5333333383,18.9375
1497429444,1013.7333333383,18.5862
1497429448,975.3333333383,18.5931
1497429452,970.5333333383,18.0317
1497429456,982.5333333383,18.2997
1497429460,946.5333333383,17.8714
1497429464,972.9333333383,19.2419
1497429468,963.3333333383,16.9701
1497429472,912.9333333383,17.4127
1497429476,992.1333333383,17.7755
1497429480,948.9333333383,17.8273
1497429484,977.7333333383,17.1596
1497429488,917.7333333383,14.6163
1497429492,968.1333333383,15.3312
1497429496,980.1333333383,17.7704
1497429500,929.7333333383,16.2433
1497429504,1018.5333333383,16.1221
1497429512,1025.7333333383,18.0307
1497429516,975.3333333383,15.8216
1497429520,977.7333333383,16.5641
1497429524,996.9333333383,17.0992
1497429528,1011.3333333383,17.8405
1497429532,953.7333333383,17.0788
1497429536,996.9333333383,18.1643
1497429540,970.5333333383,16.9079
1497429544,975.3333333383,18.4119
1497429548,982.5333333383,18.282
1497429552,927.3333333383,17.4363
1497429556,960.9333333383,16.1485
1497429560,886.5333333383,17.4351
1497429564,929.7333333383,18.0777
1497429568,927.3333333383,17.5079
1497429572,893.7333333383,18.9763
1497429576,939.3333333383,17.1503
1497429580,920.1333333383,17.8231
1497429584,941.7333333383,17.6098
1497429588,862.5333333383,17.412
1497429592,953.7333333383,18.5935
1497429596,898.5333333383,17.3915
1497429600,917.7333333383,17.1564
1497429604,891.3333333383,18.5897
1497429608,920.1333333383,18.242
1497429612,939.3333333383,18.4511
1497429616,891.3333333383,17.4666
1497429620,960.9333333383,16.4261
1497429624,908.1333333383,17.8386
1497429628,903.3333333383,17.327
1497429632,908.1333333383,18.3157
1497429636,941.7333333383,18.7148
1497429640,896.1333333383,17.7401
1497429644,879.3333333383,17.3254
1497429648,946.5333333383,18.1361
1497429652,917.7333333383,16.9955
1497429656,876.9333333383,16.3597
1497429660,886.5333333383,15.6135
1497429664,884.1333333383,17.1601
1497429668,862.5333333383,16.3618
1497429672,910.5333333383,15.513
1497429676,944.1333333383,16.2566
1497429680,903.3333333383,16.8482
1497429684,968.1333333383,16.2567
1497429688,915.3333333383,16.7699
1497429692,953.7333333383,16.7772
1497429696,908.1333333383,16.7383
1497429700,872.1333333383,16.4672
1497429704,915.3333333383,17.3306
1497429708,915.3333333383,17.0571
1497429712,956.1333333383,16.8008
1497429716,896.1333333383,16.6457
1497429720,910.5333333383,17.2688
1497429724,905.7333333383,17.1853
1497429728,905.7333333383,18.3572
1497429732,867.3333333383,17.3055
1497429736,929.7333333383,18.7048
1497429740,929.7333333383,17.6655
1497429744,922.5333333383,18.2192
1497429748,956.1333333383,17.9024
1497429752,922.5333333383,18.2443
1497429756,917.7333333383,17.284
1497429760,975.3333333383,16.6099
1497429764,908.1333333383,15.8401
1497429768,975.3333333383,16.0497
1497429772,915.3333333383,16.6071
1497429776,886.5333333383,15.7334
1497429780,958.5333333383,17.4544
1497429784,980.1333333383,17.7257
1497429788,939.3333333383,16.4194
1497429792,924.9333333383,16.9332
1497429796,965.7333333383,16.4375
1497429800,953.7333333383,16.4663
1497429804,956.1333333383,16.1026
1497429808,920.1333333383,16.6668
1497429812,905.7333333383,17.0997
1497429816,920.1333333383,18.0164
1497429820,924.9333333383,16.5302
1497429824,968.1333333383,17.8301
1497429828,922.5333333383,17.886
1497429832,917.7333333383,18.9143
1497429836,1032.9333333383,16.4042
1497429840,951.3333333383,17.8977
1497429844,965.7333333383,18.1033
1497429848,903.3333333383,16.8154
1497429852,929.7333333383,16.6729
1497429856,934.5333333383,16.352
1497429860,948.9333333383,16.4835
1497429864,896.1333333383,16.9352
1497429868,908.1333333383,18.1419
1497429872,900.9333333383,17.2784
1497429876,912.9333333383,17.6646
1497429880,939.3333333383,17.0369
1497429884,934.5333333383,17.3588
1497429888,970.5333333383,16.6333
1497429892,915.3333333383,16.5116
1497429896,912.9333333383,16.9748
1497429900,927.3333333383,16.7575
1497429904,939.3333333383,16.5361
1497429908,944.1333333383,17.1419
1497429912,917.7333333383,16.4793
1497429916,1004.1333333383,16.7948
1497429920,884.1333333383,17.9073
1497429924,936.9333333383,18.4117
1497429928,917.7333333383,17.4838
1497429932,915.3333333383,17.1076
1497429936,958.5333333383,16.4405
1497429940,908.1333333383,17.9022
1497429944,980.1333333383,17.3888
1497429948,908.1333333383,18.1963
1497429952,982.5333333383,18.8106
1497429956,898.5333333383,18.8034
1497429960,903.3333333383,17.2701
1497429964,932.1333333383,17.633
1497429968,927.3333333383,16.4892
1497429972,953.7333333383,17.0162
1497429976,951.3333333383,18.1298
1497429984,960.9333333383,18.1929
1497429988,905.7333333383,17.3334
1497429992,896.1333333383,17.3399
1497429996,941.7333333383,16.5024
1497430000,977.7333333383,17.596
1497430004,929.7333333383,17.4935
1497430008,941.7333333383,18.2566
1497430012,944.1333333383,18.3818
1497430016,939.3333333383,16.5995
1497430020,968.1333333383,17.1917
1497430024,944.1333333383,19.0706
1497430028,946.5333333383,17.9047
1497430032,898.5333333383,18.4889
1497430036,910.5333333383,17.8045
1497430040,953.7333333383,17.9761
1497430044,939.3333333383,17.1982
1497430048,956.1333333383,17.57
1497430052,972.9333333383,18.1033
1497430056,864.9333333383,17.7437
1497430060,932.1333333383,17.6894
1497430064,888.9333333383,18.3385
1497430068,989.7333333383,18.5709
1497430072,903.3333333383,18.1449
1497430076,898.5333333383,17.3319
1497430080,1011.3333333383,17.3967
1497430084,915.3333333383,18.145
1497430088,874.5333333383,16.8457
1497430092,922.5333333383,16.1226
1497430096,915.3333333383,17.458
1497430100,905.7333333383,16.311
1497430104,884.1333333383,17.3154
1497430108,963.3333333383,16.8829
1497430112,956.1333333383,18.238
1497430116,958.5333333383,17.4198
1497430120,1023.3333333383,17.0892
1497430124,999.3333333383,17.5927
1497430128,987.3333333383,17.2954
1497430132,1004.1333333383,15.7242
1497430136,946.5333333383,16.9733
1497430140,869.7333333383,17.7796
1497430144,939.3333333383,18.1422
1497430148,951.3333333383,18.3492
1497430152,941.7333333383,16.863
1497430156,936.9333333383,17.8609
1497430160,958.5333333383,16.2913
1497430164,932.1333333383,17.2033
1497430168,1011.3333333383,16.8799
1497430172,987.3333333383,16.2775
1497430176,980.1333333383,18.5745
1497430180,960.9333333383,16.9163
1497430184,968.1333333383,17.7322
1497430188,1032.9333333383,16.247
1497430192,972.9333333383,17.0532
1497430196,1032.9333333383,17.552
1497430200,1056.9333333383,17.7099
1497430204,1107.3333333383,17.0464
1497430208,1066.5333333383,16.8281
1497430212,1032.9333333383,16.7261
1497430216,1119.3333333383,17.1128
1497430220,1092.9333333383,17.4774
1497430224,1088.1333333383,19.3365
1497430228,1116.9333333383,17.346
1497430232,1064.1333333383,17.0129
1497430236,1102.5333333383,18.5327
1497430240,1054.5333333383,17.9694
1497430244,1131.3333333383,17.8405
1497430248,1085.7333333383,16.1625
1497430252,1044.9333333383,17.4804
1497430256,1064.1333333383,16.4038
1497430260,1056.9333333383,16.9647
1497430264,1052.1333333383,18.6843
1497430268,977.7333333383,17.1594
1497430272,972.9333333383,16.4511
1497430276,1011.3333333383,17.1779
1497430280,992.1333333383,16.8905
1497430284,1008.9333333383,15.8962
1497430288,1044.9333333383,15.8786
1497430292,1001.7333333383,16.6763
1497430296,970.5333333383,16.2467
1497430300,953.7333333383,15.4509
1497430304,980.1333333383,16.2467
1497430308,1011.3333333383,16.678
1497430312,1040.1333333383,16.4702
1497430316,1088.1333333383,16.9277
1497430320,1037.7333333383,17.4549
1497430324,1071.3333333383,16.9817
1497430328,1042.5333333383,17.1335
1497430332,1025.7333333383,16.6891
1497430336,1032.9333333383,16.3898
1497430340,970.5333333383,16.3223
1497430344,1028.1333333383,16.9619
1497430348,970.5333333383,18.7344
1497430352,1018.5333333383,17.636
1497430356,1032.9333333383,17.4684
1497430360,1076.1333333383,16.6302
1497430364,1037.7333333383,17.8538
1497430368,1064.1333333383,16.4113
1497430372,1016.1333333383,18.4695
1497430376,1042.5333333383,15.5526
1497430380,1044.9333333383,17.9623
1497430384,1040.1333333383,17.6196
1497430388,1030.5333333383,17.2271
1497430392,1028.1333333383,18.1999
1497430396,1097.7333333383,17.9074
1497430400,1037.7333333383,17.4734
1497430404,987.3333333383,17.9165
1497430408,1020.9333333383,17.1162
1497430412,956.1333333383,15.7799
1497430416,953.7333333383,16.3647
1497430420,929.7333333383,16.5833
1497430424,984.9333333383,16.6629
1497430428,917.7333333383,17.3868
1497430432,910.5333333383,16.5075
1497430436,905.7333333383,15.8927
1497430440,905.7333333383,16.2709
1497430444,888.9333333383,17.6057
1497430448,970.5333333383,17.036
1497430452,999.3333333383,17.7158
1497430460,953.7333333383,16.3107
1497430464,1013.7333333383,16.5112
1497430468,1035.3333333383,17.4191
1497430472,934.5333333383,16.5422
1497430476,1032.9333333383,16.8591
1497430480,896.1333333383,17.0795
1497430484,989.7333333383,18.0445
1497430488,1028.1333333383,17.6706
1497430492,944.1333333383,17.648
1497430496,1011.3333333383,17.3617
1497430500,984.9333333383,16.9226
1497430504,1011.3333333383,16.7324
1497430512,936.9333333383,17.229
1497430516,956.1333333383,18.6155
1497430520,968.1333333383,16.9015
1497430524,982.5333333383,16.0855
1497430528,1032.9333333383,17.3771
1497430532,1028.1333333383,17.1689
1497430536,941.7333333383,17.3739
1497430540,922.5333333383,16.6846
1497430544,948.9333333383,17.0555
1497430548,898.5333333383,16.6359
1497430552,992.1333333383,16.0622
1497430556,932.1333333383,16.5946
1497430560,956.1333333383,16.818
1497430564,924.9333333383,17.4347
1497430568,939.3333333383,16.928
1497430572,987.3333333383,16.9078
1497430576,920.1333333383,17.1203
1497430580,917.7333333383,17.1078
1497430584,908.1333333383,16.425
1497430588,920.1333333383,15.9903
1497430592,927.3333333383,17.4035
1497430596,915.3333333383,18.835
1497430600,975.3333333383,17.2823
1497430604,924.9333333383,16.9007
1497430608,915.3333333383,17.758
1497430612,924.9333333383,17.2986
1497430616,932.1333333383,18.0734
1497430620,963.3333333383,16.3797
1497430624,977.7333333383,17.0237
1497430628,970.5333333383,17.3688
1497430632,956.1333333383,17.2937
1497430636,1028.1333333383,17.6816
1497430640,984.9333333383,16.5237
1497430644,1006.5333333383,16.6569
1497430648,987.3333333383,18.3072
1497430652,1006.5333333383,17.5614
1497430656,999.3333333383,18.0413
1497430660,1001.7333333383,17.1214
1497430664,994.5333333383,18.0486
1497430668,1028.1333333383,17.6716
1497430672,996.9333333383,17.631
1497430676,1097.7333333383,16.9916
1497430680,1025.7333333383,17.8378
1497430684,1064.1333333383,17.6028
1497430688,1006.5333333383,17.9615
1497430692,1035.3333333383,16.0901
1497430696,946.5333333383,17.6858
1497430700,968.1333333383,17.2052
1497430704,984.9333333383,17.3409
1497430708,994.5333333383,16.2659
1497430712,996.9333333383,16.1689
1497430716,994.5333333383,16.3178
1497430720,1018.5333333383,16.9367
1497430724,1049.7333333383,16.1164
1497430728,1049.7333333383,15.4993
1497430732,1018.5333333383,18.4449
1497430736,1090.5333333383,16.9635
1497430740,1040.1333333383,16.7255
1497430744,1068.9333333383,17.5446
1497430748,1054.5333333383,16.6231
1497430752,1071.3333333383,16.3437
1497430756,1049.7333333383,16.1838
1497430760,1030.5333333383,16.2103
1497430764,1076.1333333383,16.6795
1497430768,1073.7333333383,16.6298
1497430772,1083.3333333383,17.3285
1497430776,1028.1333333383,17.2885
1497430780,1066.5333333383,17.0524
1497430784,1052.1333333383,17.1491
1497430788,1119.3333333383,18.341
1497430792,1037.7333333383,17.753
1497430796,1066.5333333383,17.5278
1497430800,1097.7333333383,16.7989
1497430804,1028.1333333383,16.8944
1497430808,1076.1333333383,16.8462
1497430812,996.9333333383,17.9846
1497430816,1037.7333333383,18.1133
1497430820,1073.7333333383,16.6052
1497430824,1052.1333333383,18.0845
1497430828,1020.9333333383,17.253
1497430832,1025.7333333383,17.7166
1497430836,1061.7333333383,18.3259
1497430840,992.1333333383,18.8048
1497430844,1004.1333333383,16.9389
1497430848,1023.3333333383,17.7574
1497430852,1011.3333333383,17.5875
1497430856,980.1333333383,16.7066
1497430860,994.5333333383,16.8183
1497430864,1073.7333333383,16.4621
1497430868,1037.7333333383,17.2084
1497430872,1040.1333333383,17.46
1497430876,1001.7333333383,17.1767
1497430880,1037.7333333383,18.3715
1497430884,1013.7333333383,16.8285
1497430888,1040.1333333383,17.3577
1497430892,1001.7333333383,17.5455
1497430896,1018.5333333383,17.8971
1497430900,968.1333333383,17.3101
1497430904,1008.9333333383,16.6222
1497430908,1066.5333333383,17.0843
1497430912,1044.9333333383,17.566
1497430916,1080.9333333383,17.5234
1497430920,1080.9333333383,17.5545
1497430924,1119.3333333383,17.1315
1497430928,1104.9333333383,17.836
1497430932,1088.1333333383,17.3655
1497430936,1107.3333333383,18.205
1497430940,1049.7333333383,16.0452
1497430944,1102.5333333383,17.8362
1497430948,1030.5333333383,19.1319
1497430952,1064.1333333383,17.1136
1497430956,1054.5333333383,17.624
1497430960,1044.9333333383,16.97
1497430964,1023.3333333383,18.5916
1497430968,1042.5333333383,17.8656
1497430972,1032.9333333383,17.6239
1497430976,1042.5333333383,17.0449
1497430980,1044.9333333383,15.3576
1497430984,1006.5333333383,16.8139
1497430988,1030.5333333383,15.9339
1497430992,968.1333333383,16.8624
1497430996,992.1333333383,16.7808
1497431000,958.5333333383,17.0117
1497431004,948.9333333383,16.8786
1497431008,948.9333333383,15.4184
1497431012,941.7333333383,17.1622
1497431016,946.5333333383,18.0103
1497431020,917.7333333383,16.4023
1497431024,934.5333333383,18.1147
1497431028,879.3333333383,17.9311
1497431032,896.1333333383,17.6963
1497431036,881.7333333383,17.1448
1497431040,891.3333333383,16.2319
1497431044,915.3333333383,17.889
1497431048,896.1333333383,15.7973
1497431052,910.5333333383,17.2807
1497431056,896.1333333383,17.3746
1497431060,922.5333333383,18.0353
1497431064,951.3333333383,16.6761
1497431068,900.9333333383,17.4375
1497431072,915.3333333383,17.3981
1497431076,977.7333333383,18.2435
1497431080,929.7333333383,18.0337
1497431084,898.5333333383,16.9968
1497431088,958.5333333383,17.9794
1497431092,927.3333333383,17.7925
1497431096,934.5333333383,16.2256
1497431100,900.9333333383,16.4481
1497431104,876.9333333383,18.3684
1497431108,958.5333333383,17.5484
1497431112,891.3333333383,16.9663
1497431116,963.3333333383,16.8857
1497431120,912.9333333383,17.3751
1497431124,941.7333333383,18.3634
1497431128,910.5333333383,17.0671
1497431132,941.7333333383,17.0956
1497431136,905.7333333383,17.5234
1497431140,910.5333333383,16.4553
1497431144,960.9333333383,18.1773
1497431148,920.1333333383,17.1166
1497431152,992.1333333383,18.0498
1497431156,903.3333333383,17.2485
1497431160,934.5333333383,17.1842
1497431164,944.1333333383,17.3191
1497431168,912.9333333383,17.965
1497431172,958.5333333383,18.0306
1497431176,908.1333333383,18.011
1497431180,946.5333333383,18.0519
1497431184,929.7333333383,18.4902
1497431188,956.1333333383,17.5399
1497431192,910.5333333383,17.4766
1497431196,886.5333333383,17.41
1497431200,963.3333333383,16.8342
1497431204,893.7333333383,17.8788
1497431208,941.7333333383,17.6238
1497431212,908.1333333383,17.6147
1497431216,910.5333333383,17.8663
1497431220,874.5333333383,16.4636
1497431224,936.9333333383,16.7249
1497431228,927.3333333383,17.3361
1497431232,1018.5333333383,17.6279
1497431236,953.7333333383,16.9108
1497431240,1030.5333333383,16.6455
1497431244,982.5333333383,16.0663
1497431248,1001.7333333383,16.0247
1497431252,1044.9333333383,17.2004
1497431256,1044.9333333383,16.8746
1497431260,1056.9333333383,17.8539
1497431264,1030.5333333383,17.763
1497431268,1004.1333333383,16.8684
1497431272,1016.1333333383,19.1154
1497431276,1008.9333333383,16.7093
1497431280,968.1333333383,17.6796
1497431284,1028.1333333383,16.956
1497431288,1030.5333333383,16.9137
1497431292,953.7333333383,17.1269
1497431296,1025.7333333383,16.7733
1497431300,1001.7333333383,15.9176
1497431304,1008.9333333383,16.3907
1497431308,944.1333333383,16.1862
1497431312,1008.9333333383,17.3726
1497431316,1023.3333333383,17.0029
1497431320,996.9333333383,16.6376
1497431324,1023.3333333383,17.2132
1497431328,968.1333333383,17.2206
1497431332,1004.1333333383,17.3865
1497431336,975.3333333383,16.8237
1497431340,1004.1333333383,17.0895
1497431344,982.5333333383,17.1555
1497431348,968.1333333383,16.8968
1497431352,992.1333333383,17.0593
1497431356,989.7333333383,16.4149
1497431360,965.7333333383,17.9842
1497431364,987.3333333383,17.4114
1497431368,963.3333333383,17.1602
1497431372,915.3333333383,17.8226
1497431376,944.1333333383,17.8615
1497431380,927.3333333383,17.616
1497431384,893.7333333383,17.9917
1497431388,896.1333333383,16.4008
1497431392,936.9333333383,17.0537
1497431396,924.9333333383,17.3631
1497431400,910.5333333383,17.1679
1497431404,910.5333333383,16.9818
1497431408,903.3333333383,16.8437
1497431412,852.9333333383,16.9836
1497431416,905.7333333383,17.6875
1497431420,920.1333333383,16.6648
1497431424,951.3333333383,16.716
1497431428,934.5333333383,16.9578
1497431432,888.9333333383,17.8049
1497431436,924.9333333383,16.5376
1497431440,893.7333333383,16.7757
1497431444,903.3333333383,17.4823
1497431448,912.9333333383,16.8726
1497431452,886.5333333383,16.3025
1497431456,891.3333333383,15.1928
1497431460,893.7333333383,16.981
1497431464,840.9333333383,15.1426
1497431468,917.7333333383,16.4227
1497431472,910.5333333383,16.3966
1497431476,843.3333333383,16.1577
1497431480,872.1333333383,17.1368
1497431484,881.7333333383,17.1148
1497431488,886.5333333383,16.2037
1497431492,821.7333333383,17.329
1497431496,814.5333333383,15.2274
1497431500,886.5333333383,17.3116
1497431504,908.1333333383,17.8962
1497431508,888.9333333383,17.372
1497431512,896.1333333383,17.229
1497431516,874.5333333383,16.0439
1497431520,927.3333333383,17.7072
1497431524,857.7333333383,17.4666
1497431528,860.1333333383,16.134
1497431532,908.1333333383,17.5055
1497431536,874.5333333383,18.1691
1497431540,900.9333333383,16.7895
1497431544,900.9333333383,16.7325
1497431548,903.3333333383,16.6257
1497431552,910.5333333383,16.7801
1497431556,908.1333333383,16.1858
1497431560,927.3333333383,17.9337
1497431564,898.5333333383,17.1474
1497431568,896.1333333383,18.0664
1497431572,886.5333333383,18.2388
1497431576,922.5333333383,17.5638
1497431580,884.1333333383,16.6298
1497431584,903.3333333383,17.0424
1497431588,908.1333333383,16.8435
1497431592,900.9333333383,16.966
1497431596,917.7333333383,16.4547
1497431600,924.9333333383,17.2591
1497431604,922.5333333383,16.9478
1497431612,888.9333333383,15.8876
1497431616,881.7333333383,16.7515
1497431620,944.1333333383,16.9055
1497431624,908.1333333383,16.6957
1497431628,932.1333333383,16.3695
1497431632,900.9333333383,16.8472
1497431636,898.5333333383,17.4359
1497431640,944.1333333383,17.4277
1497431644,876.9333333383,16.6906
1497431648,888.9333333383,16.6412
1497431652,869.7333333383,17.4622
1497431656,989.7333333383,17.6966
1497431660,900.9333333383,16.6686
1497431664,900.9333333383,16.9604
1497431668,912.9333333383,17.0704
1497431672,896.1333333383,17.4938
1497431676,876.9333333383,18.6611
1497431680,821.7333333383,17.3934
1497431684,888.9333333383,17.5863
1497431688,850.5333333383,17.4757
1497431692,876.9333333383,16.0583
1497431696,910.5333333383,17.7081
1497431700,924.9333333383,17.4746
1497431704,908.1333333383,16.8347
1497431708,927.3333333383,16.9759
1497431712,939.3333333383,18.0257
1497431716,896.1333333383,16.4285
1497431720,948.9333333383,16.4484
1497431724,908.1333333383,16.8433
1497431728,963.3333333383,16.4076
1497431732,975.3333333383,16.3309
1497431736,908.1333333383,16.4906
1497431740,929.7333333383,17.2598
1497431744,989.7333333383,17.4206
1497431748,989.7333333383,17.0765
1497431752,946.5333333383,16.8071
1497431756,1001.7333333383,17.1084
1497431760,1020.9333333383,17.7128
1497431764,946.5333333383,17.0985
1497431768,1030.5333333383,16.707
1497431772,1049.7333333383,16.7138
1497431776,1013.7333333383,16.3772
1497431780,1049.7333333383,16.2429
1497431784,1102.5333333383,17.6012
1497431788,1059.3333333383,16.1508
1497431792,1064.1333333383,17.0201
1497431796,1102.5333333383,16.6416
1497431800,1049.7333333383,18.7858
1497431804,1092.9333333383,17.2387
1497431808,1044.9333333383,17.2456
1497431812,1008.9333333383,15.7826
1497431816,987.3333333383,16.6776
1497431820,1044.9333333383,16.935
1497431824,982.5333333383,17.8734
1497431828,1028.1333333383,15.7052
1497431832,939.3333333383,17.3946
1497431836,996.9333333383,16.628
1497431840,965.7333333383,16.4956
1497431844,972.9333333383,16.0616
1497431848,939.3333333383,16.6281
1497431852,948.9333333383,18.3192
1497431856,987.3333333383,17.0341
1497431860,934.5333333383,17.3076
1497431864,934.5333333383,16.7041
1497431868,905.7333333383,17.6707
1497431872,1028.1333333383,17.2283
1497431876,898.5333333383,17.1069
1497431880,948.9333333383,17.0172
1497431884,896.1333333383,17.6596
1497431888,884.1333333383,16.7245
1497431892,922.5333333383,17.9494
1497431896,920.1333333383,16.7833
1497431900,886.5333333383,17.0723
1497431904,910.5333333383,17.6784
1497431908,905.7333333383,16.4682
1497431912,905.7333333383,16.8961
1497431916,869.7333333383,16.511
1497431920,965.7333333383,16.8182
1497431924,994.5333333383,16.6147
1497431928,900.9333333383,18.3381
1497431932,929.7333333383,16.5024
1497431936,929.7333333383,16.0429
1497431940,900.9333333383,15.9162
1497431944,1008.9333333383,16.645
1497431948,898.5333333383,15.3789
1497431952,920.1333333383,17.4274
1497431956,896.1333333383,16.4712
1497431960,1023.3333333383,16.3222
1497431964,886.5333333383,16.416
1497431968,951.3333333383,15.5773
1497431972,905.7333333383,16.8953
1497431976,1001.7333333383,17.3107
1497431980,912.9333333383,17.0818
1497431984,970.5333333383,18.0742
1497431988,972.9333333383,17.3924
1497431992,989.7333333383,17.0534
1497431996,984.9333333383,17.252
1497432000,912.9333333383,16.8242
1497432004,1006.5333333383,16.5102
1497432008,1025.7333333383,16.9446
1497432012,1064.1333333383,16.7625
1497432016,968.1333333383,16.9643
1497432020,1023.3333333383,16.8454
1497432024,1018.5333333383,17.4587
1497432028,1011.3333333383,17.922
1497432032,994.5333333383,16.0317
1497432036,1008.9333333383,17.1482
1497432040,936.9333333383,16.1745
1497432044,970.5333333383,17.2873
1497432048,939.3333333383,16.0817
1497432052,1001.7333333383,16.2514
1497432056,1013.7333333383,17.5059
1497432060,989.7333333383,17.3507
1497432064,1028.1333333383,17.0228
1497432068,1023.3333333383,17.7042
1497432072,1102.5333333383,15.889
1497432076,1061.7333333383,16.9745
1497432080,1068.9333333383,17.0299
1497432084,1071.3333333383,16.5299
1497432088,1030.5333333383,16.0387
1497432092,1097.7333333383,15.8408
1497432096,1035.3333333383,16.5768
1497432100,1028.1333333383,17.1881
1497432104,1059.3333333383,17.5991
1497432108,1114.5333333383,17.3723
1497432112,1112.1333333383,17.2885
1497432116,1140.9333333383,16.7984
1497432120,1205.7333333383,16.0273
1497432124,1188.9333333383,16.949
1497432128,1160.1333333383,17.5649
1497432132,1133.7333333383,16.481
1497432136,1140.9333333383,16.1079
1497432140,1056.9333333383,16.3069
1497432144,1119.3333333383,16.921
1497432148,1047.3333333383,17.1562
1497432152,1104.9333333383,16.9906
1497432156,1052.1333333383,16.0283
1497432160,1112.1333333383,17.2283
1497432164,1126.5333333383,17.1582
1497432168,1044.9333333383,16.0068
1497432172,1064.1333333383,16.0217
1497432176,1145.7333333383,16.6313
1497432180,1140.9333333383,16.87
1497432184,1097.7333333383,16.6446
1497432188,1085.7333333383,17.8953
1497432192,1119.3333333383,17.1014
1497432196,1112.1333333383,16.3909
1497432200,1116.9333333383,16.4002
1497432204,1133.7333333383,17.1773
1497432208,1112.1333333383,16.5392
1497432212,1109.7333333383,17.96
1497432216,1097.7333333383,17.539
1497432220,1121.7333333383,17.7439
1497432224,1128.9333333383,17.4757
1497432228,1095.3333333383,17.0554
1497432232,1116.9333333383,16.2982
1497432236,1121.7333333383,16.5718
1497432240,1145.7333333383,17.3894
1497432244,1133.7333333383,17.3694
1497432248,1128.9333333383,17.0468
1497432252,1107.3333333383,17.618
1497432256,1116.9333333383,17.8993
1497432260,1076.1333333383,17.6138
1497432264,1114.5333333383,18.4253
1497432268,1073.7333333383,18.2006
1497432272,1090.5333333383,18.4145
1497432276,1124.1333333383,17.7028
1497432280,1078.5333333383,16.6335
1497432284,1100.1333333383,18.0708
1497432288,1138.5333333383,17.217
1497432292,1133.7333333383,18.0462
1497432296,1109.7333333383,17.1275
1497432300,1150.5333333383,16.8112
1497432304,1131.3333333383,17.4515
1497432308,1133.7333333383,16.6691
1497432312,1136.1333333383,17.4341
1497432316,1109.7333333383,15.9382
1497432320,1116.9333333383,18.2049
