tag_number,delay,power_est
1497264872,953.7333333383,16.5383
1497264876,987.3333333383,16.2255
1497264880,994.5333333383,15.9768
1497264884,965.7333333383,16.0771
1497264888,1013.7333333383,17.9241
1497264892,989.7333333383,16.4709
1497264896,946.5333333383,17.3805
1497264900,917.7333333383,16.3136
1497264904,891.3333333383,16.3333
1497264908,891.3333333383,15.6441
1497264912,881.7333333383,15.4169
1497264916,879.3333333383,15.7749
1497264920,893.7333333383,15.8181
1497264924,869.7333333383,17.3246
1497264928,891.3333333383,17.5259
1497264932,867.3333333383,17.586
1497264936,908.1333333383,17.375
1497264940,896.1333333383,18.9813
1497264944,893.7333333383,17.9141
1497264948,879.3333333383,17.6435
1497264952,886.5333333383,17.4125
1497264956,874.5333333383,18.2197
1497264960,891.3333333383,16.128
1497264964,862.5333333383,17.0799
1497264968,891.3333333383,16.7564
1497264972,840.9333333383,16.5732
1497264976,891.3333333383,16.7319
1497264980,864.9333333383,16.5975
1497264984,869.7333333383,17.0567
1497264988,886.5333333383,15.9006
1497264992,828.9333333383,17.4563
1497264996,876.9333333383,17.5201
1497265000,891.3333333383,17.0638
1497265004,879.3333333383,16.4379
1497265008,884.1333333383,16.242
1497265012,886.5333333383,17.1974
1497265016,920.1333333383,17.4907
1497265020,963.3333333383,16.7753
1497265024,984.9333333383,17.2898
1497265028,1008.9333333383,17.573
1497265032,915.3333333383,16.4201
1497265036,1008.9333333383,16.5741
1497265040,936.9333333383,17.3338
1497265044,965.7333333383,16.5963
1497265048,956.1333333383,16.6206
1497265052,912.9333333383,17.3315
1497265056,994.5333333383,17.4115
1497265060,946.5333333383,17.307
1497265064,912.9333333383,17.5769
1497265068,893.7333333383,18.0568
1497265072,920.1333333383,17.2528
1497265076,936.9333333383,18.1079
1497265080,917.7333333383,17.2466
1497265084,917.7333333383,18.9134
1497265088,876.9333333383,18.0437
1497265092,891.3333333383,16.8784
1497265096,879.3333333383,16.9988
1497265100,869.7333333383,17.675
1497265104,881.7333333383,18.7173
1497265108,881.7333333383,17.2521
1497265112,879.3333333383,17.8608
1497265116,917.7333333383,17.3246
1497265120,922.5333333383,18.0713
1497265124,900.9333333383,17.3316
1497265128,900.9333333383,17.9917
1497265132,915.3333333383,15.8458
1497265136,886.5333333383,17.4822
1497265140,881.7333333383,16.94
1497265144,905.7333333383,16.4682
1497265148,872.1333333383,17.022
1497265152,972.9333333383,16.8961
1497265156,891.3333333383,17.1366
1497265160,888.9333333383,15.9084
1497265164,891.3333333383,16.7049
1497265168,896.1333333383,15.8021
1497265172,898.5333333383,16.0953
1497265176,910.5333333383,16.5204
1497265180,903.3333333383,16.3074
1497265184,912.9333333383,18.8395
1497265188,953.7333333383,16.4847
1497265192,970.5333333383,17.0321
1497265196,1006.5333333383,16.5032
1497265200,946.5333333383,15.6475
1497265204,994.5333333383,17.4999
1497265208,912.9333333383,16.71
1497265212,1061.7333333383,15.9538
1497265216,1006.5333333383,17.8426
1497265220,1054.5333333383,16.9556
1497265224,977.7333333383,17.3012
1497265228,1047.3333333383,15.8573
1497265232,1066.5333333383,16.8126
1497265236,1049.7333333383,17.4988
1497265240,1071.3333333383,20.4419
1497265244,1047.3333333383,17.5902
1497265248,1080.9333333383,17.8476
1497265252,1049.7333333383,17.3313
1497265256,1121.7333333383,16.3718
1497265260,1164.9333333383,16.0996
1497265264,1212.9333333383,17.4801
1497265268,1224.9333333383,17.9191
1497265272,1124.1333333383,18.2856
1497265276,1114.5333333383,16.7688
1497265280,1064.1333333383,18.2534
1497265284,1044.9333333383,15.5097
1497265288,1102.5333333383,17.4983
1497265292,1052.1333333383,17.2307
1497265296,1085.7333333383,16.4185
1497265300,1056.9333333383,15.8335
1497265304,1047.3333333383,17.689
1497265308,1059.3333333383,16.2081
1497265312,1085.7333333383,16.9772
1497265316,1064.1333333383,16.4533
1497265320,1006.5333333383,17.7913
1497265324,1085.7333333383,18.0742
1497265328,1126.5333333383,16.997
1497265332,1200.9333333383,17.8449
1497265336,1234.5333333383,16.3336
1497265340,1258.5333333383,17.167
1497265344,1256.1333333383,17.4746
1497265348,1200.9333333383,17.237
1497265352,1222.5333333383,17.3422
1497265356,1220.1333333383,17.5453
1497265360,1152.9333333383,17.249
1497265364,1167.3333333383,18.7206
1497265368,1128.9333333383,17.1046
1497265372,1128.9333333383,17.6994
1497265376,1064.1333333383,18.3352
1497265380,1124.1333333383,16.9848
1497265384,1114.5333333383,17.0466
1497265388,1061.7333333383,17.6748
1497265392,1097.7333333383,16.883
1497265396,1040.1333333383,16.4919
1497265400,1078.5333333383,17.6093
1497265404,1061.7333333383,17.6198
1497265408,1083.3333333383,17.2367
1497265412,1052.1333333383,17.0052
1497265416,1042.5333333383,17.5469
1497265420,1061.7333333383,17.7019
1497265424,1037.7333333383,18.1935
1497265428,1040.1333333383,16.9193
1497265432,1040.1333333383,16.4727
1497265436,1037.7333333383,17.0199
1497265440,1042.5333333383,17.7591
1497265444,1042.5333333383,17.3033
1497265448,1100.1333333383,16.7408
1497265452,1054.5333333383,17.8381
1497265456,1080.9333333383,18.1523
1497265460,1155.3333333383,19.2799
1497265464,1124.1333333383,16.9323
1497265472,1208.1333333383,16.8676
1497265476,1131.3333333383,17.7073
1497265480,1155.3333333383,17.6921
1497265484,1095.3333333383,17.7912
1497265488,1172.1333333383,16.7356
1497265492,1114.5333333383,16.7082
1497265496,1107.3333333383,16.7576
1497265500,1107.3333333383,17.034
1497265504,1121.7333333383,16.568
1497265508,1112.1333333383,16.4963
1497265512,1140.9333333383,17.1651
1497265516,1114.5333333383,17.1579
1497265520,1136.1333333383,16.7848
1497265524,1112.1333333383,17.4773
1497265528,1112.1333333383,15.3419
1497265532,1145.7333333383,17.5698
1497265536,1054.5333333383,16.6208
1497265540,1140.9333333383,16.8347
1497265544,1119.3333333383,15.0976
1497265548,1126.5333333383,16.5268
1497265552,1119.3333333383,15.9439
1497265556,1126.5333333383,16.8573
1497265560,1124.1333333383,16.6944
1497265564,1124.1333333383,16.4658
1497265568,1138.5333333383,17.2126
1497265572,1179.3333333383,16.9983
1497265576,1145.7333333383,16.4464
1497265580,1193.7333333383,16.5792
1497265584,1131.3333333383,18.6057
1497265588,1188.9333333383,17.8252
1497265592,1145.7333333383,18.3098
1497265596,1102.5333333383,17.7522
1497265600,1116.9333333383,16.6669
1497265604,1131.3333333383,17.3306
1497265608,1152.9333333383,18.1681
1497265612,1172.1333333383,17.1784
1497265616,1203.3333333383,18.0209
1497265620,1148.1333333383,17.9939
1497265624,1205.7333333383,17.0103
1497265628,1234.5333333383,17.2338
1497265632,1143.3333333383,17.358
1497265636,1131.3333333383,16.1531
1497265640,1150.5333333383,17.1129
1497265644,1140.9333333383,18.461
1497265648,1097.7333333383,16.5817
1497265652,1126.5333333383,17.7028
1497265656,1128.9333333383,16.8142
1497265660,1083.3333333383,16.5966
1497265664,1116.9333333383,17.654
1497265668,1114.5333333383,18.1242
1497265672,1121.7333333383,18.0256
1497265676,1138.5333333383,15.6879
1497265680,1150.5333333383,16.4596
1497265684,1188.9333333383,17.2052
1497265688,1164.9333333383,17.1354
1497265692,1174.5333333383,15.4709
1497265696,1248.9333333383,16.2753
1497265700,1152.9333333383,17.0922
1497265704,1256.1333333383,17.7085
1497265708,1143.3333333383,16.599
1497265712,1191.3333333383,17.3334
1497265716,1107.3333333383,17.3608
1497265720,1124.1333333383,16.6308
1497265724,1179.3333333383,17.5124
1497265728,1066.5333333383,16.4404
1497265732,1138.5333333383,18.0367
1497265736,1107.3333333383,17.1936
1497265740,1097.7333333383,16.9688
1497265744,1143.3333333383,16.0955
1497265748,1080.9333333383,17.1571
1497265752,1092.9333333383,16.4175
1497265756,1090.5333333383,16.2754
1497265760,1040.1333333383,17.4691
1497265764,1044.9333333383,17.8379
1497265768,980.1333333383,17.0731
1497265772,1028.1333333383,17.774
1497265776,1090.5333333383,17.7485
1497265780,1008.9333333383,17.4262
1497265784,1035.3333333383,16.0121
1497265788,1037.7333333383,17.3185
1497265792,1052.1333333383,16.9332
1497265796,1042.5333333383,17.3123
1497265800,1083.3333333383,16.7839
1497265804,1133.7333333383,16.5833
1497265808,1200.9333333383,15.8364
1497265812,1128.9333333383,16.5872
1497265816,1196.1333333383,16.2076
1497265820,1126.5333333383,16.995
1497265824,1095.3333333383,17.3879
1497265828,1095.3333333383,17.2339
1497265832,1116.9333333383,17.81
1497265836,1112.1333333383,16.8462
1497265840,1056.9333333383,17.5038
1497265844,1059.3333333383,18.1722
1497265848,1044.9333333383,17.373
1497265852,1028.1333333383,16.7712
1497265856,970.5333333383,16.4563
1497265860,1008.9333333383,17.6885
1497265864,1042.5333333383,16.8991
1497265868,1006.5333333383,18.2154
1497265872,996.9333333383,16.4051
1497265876,1001.7333333383,16.6172
1497265880,1006.5333333383,16.5096
1497265884,996.9333333383,18.8673
1497265888,1023.3333333383,16.5845
1497265892,1028.1333333383,17.8679
1497265896,1011.3333333383,17.055
1497265900,1047.3333333383,16.9434
1497265904,1042.5333333383,17.4513
1497265908,1025.7333333383,17.9619
1497265912,1040.1333333383,16.0498
1497265916,1049.7333333383,15.838
1497265920,1052.1333333383,16.4418
1497265924,1042.5333333383,16.9996
1497265928,1083.3333333383,15.872
1497265932,1076.1333333383,16.9775
1497265936,1073.7333333383,16.6569
1497265940,1131.3333333383,16.8711
1497265944,1109.7333333383,16.7419
1497265948,1080.9333333383,16.0657
1497265952,1056.9333333383,17.4723
1497265956,1136.1333333383,16.5212
1497265960,1167.3333333383,16.8098
1497265964,1088.1333333383,16.8055
1497265968,1128.9333333383,17.0511
1497265972,1083.3333333383,16.493
1497265976,1044.9333333383,16.7032
1497265980,1107.3333333383,17.0022
1497265984,1049.7333333383,15.2119
1497265988,1080.9333333383,16.2426
1497265992,1066.5333333383,16.2334
1497265996,1020.9333333383,17.5569
1497266000,1061.7333333383,17.2589
1497266004,1030.5333333383,17.9908
1497266008,1042.5333333383,16.3372
1497266012,1047.3333333383,17.4029
1497266016,1064.1333333383,18.5639
1497266020,1064.1333333383,18.02
1497266024,1035.3333333383,17.9191
1497266028,1068.9333333383,18.7332
1497266032,1008.9333333383,17.1878
1497266036,1025.7333333383,16.7741
1497266040,1059.3333333383,16.5596
1497266044,1064.1333333383,18.0211
1497266048,1061.7333333383,16.8365
1497266052,1016.1333333383,15.9112
1497266056,1066.5333333383,16.8706
1497266060,1018.5333333383,17.3002
1497266064,1035.3333333383,16.9944
1497266068,1124.1333333383,17.5361
1497266072,1040.1333333383,16.5786
1497266076,1042.5333333383,18.2837
1497266080,1037.7333333383,17.3447
1497266084,1109.7333333383,15.969
1497266088,1059.3333333383,15.7649
1497266092,1047.3333333383,15.9955
1497266096,1042.5333333383,16.0799
1497266100,1037.7333333383,16.509
1497266104,1056.9333333383,17.1433
1497266108,1052.1333333383,17.3397
1497266112,1052.1333333383,16.4591
1497266116,1025.7333333383,16.3487
1497266120,1032.9333333383,16.0404
1497266124,999.3333333383,17.2079
1497266128,996.9333333383,16.7967
1497266132,1011.3333333383,16.8983
1497266136,1013.7333333383,16.0272
1497266140,1049.7333333383,17.305
1497266144,984.9333333383,16.9962
1497266148,1061.7333333383,17.9083
1497266152,960.9333333383,17.4871
1497266156,1028.1333333383,17.6205
1497266160,970.5333333383,18.2391
1497266164,982.5333333383,17.5512
1497266168,994.5333333383,18.8125
1497266172,951.3333333383,17.6389
1497266176,996.9333333383,17.6488
1497266180,946.5333333383,17.5516
1497266184,975.3333333383,18.6411
1497266188,1028.1333333383,16.964
1497266192,912.9333333383,17.6755
1497266196,996.9333333383,16.9672
1497266200,953.7333333383,17.6127
1497266204,934.5333333383,17.3998
1497266208,956.1333333383,17.1372
1497266212,900.9333333383,16.5587
1497266216,900.9333333383,17.0381
1497266220,896.1333333383,16.9485
1497266224,917.7333333383,17.306
1497266228,898.5333333383,15.2708
1497266232,896.1333333383,15.7821
1497266236,879.3333333383,16.1442
1497266240,912.9333333383,17.7028
1497266244,881.7333333383,16.505
1497266248,917.7333333383,16.7472
1497266252,900.9333333383,16.3324
1497266256,999.3333333383,15.7811
1497266260,1047.3333333383,17.1232
1497266264,1116.9333333383,16.5372
1497266268,1092.9333333383,15.6944
1497266272,1088.1333333383,17.3468
1497266276,1054.5333333383,18.7076
1497266280,1018.5333333383,17.6177
1497266284,1064.1333333383,16.8447
1497266288,1102.5333333383,16.2397
1497266292,1040.1333333383,16.117
1497266296,1107.3333333383,15.9153
1497266300,1054.5333333383,17.6434
1497266304,1037.7333333383,17.3373
1497266308,1056.9333333383,15.5936
1497266312,1042.5333333383,17.034
1497266316,1073.7333333383,17.8513
1497266320,1025.7333333383,18.0899
1497266324,1049.7333333383,17.4533
1497266328,1028.1333333383,16.8121
1497266332,970.5333333383,16.547
1497266336,934.5333333383,16.7853
1497266340,888.9333333383,16.8178
1497266344,927.3333333383,16.7167
1497266348,929.7333333383,16.6474
1497266352,1049.7333333383,18.0905
1497266356,1056.9333333383,16.8921
1497266360,1107.3333333383,16.3716
1497266364,1054.5333333383,17.7285
1497266368,1102.5333333383,16.4343
1497266372,1047.3333333383,16.6359
1497266376,1061.7333333383,17.0422
1497266380,1044.9333333383,16.7282
1497266384,908.1333333383,16.5931
1497266388,905.7333333383,16.7856
1497266392,869.7333333383,16.5498
1497266396,944.1333333383,17.5978
1497266400,891.3333333383,17.6479
1497266404,876.9333333383,17.2331
1497266408,884.1333333383,17.6968
1497266412,905.7333333383,18.5638
1497266416,915.3333333383,17.8428
1497266420,924.9333333383,17.0583
1497266424,987.3333333383,18.1283
1497266428,992.1333333383,17.9771
1497266432,989.7333333383,17.9983
1497266436,989.7333333383,16.2095
1497266440,1001.7333333383,17.1591
1497266444,1049.7333333383,16.8733
1497266448,1023.3333333383,18.3749
1497266452,960.9333333383,18.2456
1497266456,970.5333333383,18.1235
1497266460,941.7333333383,18.2154
1497266464,1016.1333333383,18.1216
1497266468,953.7333333383,17.2216
1497266472,958.5333333383,18.3916
1497266476,946.5333333383,18.2968
1497266480,893.7333333383,18.2638
1497266484,1004.1333333383,17.9407
1497266488,929.7333333383,18.778
1497266492,982.5333333383,18.8572
1497266496,941.7333333383,18.4778
1497266500,927.3333333383,17.5235
1497266504,1042.5333333383,17.7038
1497266508,1030.5333333383,17.2875
1497266512,1047.3333333383,17.1232
1497266516,1042.5333333383,18.6477
1497266520,1047.3333333383,16.476
1497266524,1056.9333333383,16.5509
1497266528,1037.7333333383,18.1995
1497266532,1013.7333333383,18.4617
1497266536,1025.7333333383,17.4263
1497266540,1023.3333333383,18.257
1497266544,1016.1333333383,17.3901
1497266548,1028.1333333383,17.0495
1497266552,994.5333333383,16.718
1497266556,980.1333333383,17.5304
1497266560,996.9333333383,17.5347
1497266564,1004.1333333383,16.8125
1497266568,992.1333333383,16.8859
1497266572,1032.9333333383,16.9565
1497266576,1020.9333333383,17.1139
1497266580,1035.3333333383,17.4513
1497266584,1064.1333333383,17.8161
1497266588,992.1333333383,17.8681
1497266592,1004.1333333383,15.9086
1497266596,941.7333333383,15.1297
1497266600,972.9333333383,18.9601
1497266604,939.3333333383,17.4643
1497266608,917.7333333383,16.8766
1497266612,956.1333333383,17.3952
1497266616,893.7333333383,16.6869
1497266620,893.7333333383,17.7626
1497266624,874.5333333383,17.9468
1497266628,896.1333333383,17.7293
1497266632,905.7333333383,17.2821
1497266636,898.5333333383,17.5034
1497266640,934.5333333383,17.5904
1497266644,924.9333333383,18.5243
1497266648,910.5333333383,17.8951
1497266652,903.3333333383,17.628
1497266656,929.7333333383,16.9071
1497266660,963.3333333383,17.03
1497266664,924.9333333383,17.6852
1497266668,888.9333333383,17.4569
1497266672,872.1333333383,16.8861
1497266676,920.1333333383,17.4442
1497266680,881.7333333383,16.7985
1497266684,891.3333333383,16.604
1497266688,920.1333333383,17.2994
1497266692,900.9333333383,17.6143
1497266696,888.9333333383,17.915
1497266700,876.9333333383,17.4328
1497266704,896.1333333383,16.2897
1497266708,903.3333333383,17.9891
1497266712,939.3333333383,17.3764
1497266716,881.7333333383,18.4528
1497266720,905.7333333383,18.723
1497266724,864.9333333383,17.7868
1497266728,898.5333333383,16.5524
1497266732,869.7333333383,17.4368
1497266736,953.7333333383,17.4199
1497266740,1006.5333333383,17.3421
1497266744,996.9333333383,17.5518
1497266748,1008.9333333383,16.9619
1497266752,1025.7333333383,18.3184
1497266756,1032.9333333383,16.3256
1497266760,1071.3333333383,15.7304
1497266764,1059.3333333383,16.616
1497266768,1023.3333333383,17.374
1497266772,982.5333333383,16.2115
1497266776,963.3333333383,18.2947
1497266780,920.1333333383,17.2106
1497266784,917.7333333383,16.2613
1497266788,948.9333333383,16.7155
1497266792,912.9333333383,16.8035
1497266796,888.9333333383,18.2484
1497266800,886.5333333383,18.4044
1497266804,852.9333333383,16.6357
1497266808,850.5333333383,17.4499
1497266812,898.5333333383,16.7995
1497266816,872.1333333383,16.9068
1497266820,879.3333333383,16.6206
1497266824,891.3333333383,16.713
1497266828,886.5333333383,18.0886
1497266832,893.7333333383,16.4974
1497266836,891.3333333383,17.5419
1497266840,872.1333333383,16.6811
1497266844,864.9333333383,18.0772
1497266848,905.7333333383,16.228
1497266852,910.5333333383,17.9874
1497266856,905.7333333383,17.1559
1497266860,903.3333333383,16.2403
1497266864,960.9333333383,18.0101
1497266868,884.1333333383,17.4613
1497266872,896.1333333383,17.8815
1497266876,860.1333333383,16.7942
1497266880,867.3333333383,15.4976
1497266884,920.1333333383,18.1331
1497266888,864.9333333383,16.7694
1497266892,891.3333333383,19.0082
1497266896,884.1333333383,17.538
1497266900,912.9333333383,17.9395
1497266904,886.5333333383,18.697
1497266908,884.1333333383,18.5481
1497266912,884.1333333383,17.2907
1497266916,867.3333333383,17.7273
1497266920,874.5333333383,16.9815
1497266924,886.5333333383,17.1089
1497266928,860.1333333383,18.3763
1497266932,802.5333333383,17.1048
1497266936,874.5333333383,16.5464
1497266940,872.1333333383,15.9283
1497266944,869.7333333383,16.5044
1497266948,886.5333333383,15.9801
1497266952,876.9333333383,17.7475
1497266956,886.5333333383,16.233
1497266960,860.1333333383,16.3514
1497266964,939.3333333383,15.9203
1497266968,912.9333333383,16.3913
1497266972,884.1333333383,16.4772
1497266976,860.1333333383,17.3458
1497266980,908.1333333383,17.8731
1497266984,881.7333333383,18.9625
1497266988,920.1333333383,17.2864
1497266992,879.3333333383,17.4104
1497266996,893.7333333383,18.1111
1497267000,934.5333333383,17.3876
1497267004,951.3333333383,18.2925
1497267008,1006.5333333383,16.5966
1497267012,1011.3333333383,18.2929
1497267016,994.5333333383,16.9694
1497267020,927.3333333383,18.3047
1497267024,936.9333333383,16.0041
1497267028,912.9333333383,17.8239
1497267032,936.9333333383,17.6412
1497267036,910.5333333383,17.0657
1497267040,915.3333333383,17.8975
1497267044,903.3333333383,17.9354
1497267048,884.1333333383,17.9608
1497267052,946.5333333383,18.8805
1497267056,896.1333333383,17.091
1497267060,879.3333333383,16.7629
1497267064,915.3333333383,17.5427
1497267068,924.9333333383,16.9749
1497267072,884.1333333383,17.5974
1497267076,910.5333333383,16.6507
1497267080,948.9333333383,17.0394
1497267084,900.9333333383,17.372
1497267088,881.7333333383,17.9797
1497267092,905.7333333383,17.6648
1497267096,843.3333333383,17.3793
1497267100,876.9333333383,16.8642
1497267104,800.1333333383,17.0663
1497267108,860.1333333383,16.4976
1497267112,843.3333333383,16.592
1497267116,773.7333333383,16.9391
1497267120,814.5333333383,16.8182
1497267124,788.1333333383,18.8731
1497267128,845.7333333383,16.8064
1497267132,780.9333333383,17.5744
1497267136,872.1333333383,17.5546
1497267140,816.9333333383,16.7158
1497267144,768.9333333383,17.2879
1497267152,809.7333333383,17.3377
1497267156,840.9333333383,16.759
1497267160,812.1333333383,18.0722
1497267164,814.5333333383,17.2578
1497267168,864.9333333383,17.2351
1497267172,867.3333333383,17.1547
1497267176,788.1333333383,13.9438
1497267180,860.1333333383,16.4983
1497267184,788.1333333383,17.0255
1497267188,884.1333333383,17.768
1497267192,862.5333333383,16.7407
1497267196,879.3333333383,16.7463
1497267200,855.3333333383,16.198
1497267204,869.7333333383,18.9545
1497267208,893.7333333383,17.3021
1497267212,862.5333333383,17.5509
1497267216,867.3333333383,15.5858
1497267220,872.1333333383,16.9656
1497267224,905.7333333383,15.5173
1497267228,828.9333333383,17.369
1497267232,869.7333333383,16.6564
1497267236,862.5333333383,16.3235
1497267240,879.3333333383,16.365
1497267244,893.7333333383,17.4423
1497267248,852.9333333383,17.2122
1497267252,826.5333333383,17.4617
1497267256,869.7333333383,17.4145
1497267260,896.1333333383,16.8788
1497267264,864.9333333383,16.5647
1497267268,864.9333333383,16.3048
1497267272,857.7333333383,15.9381
1497267276,886.5333333383,16.7754
1497267280,833.7333333383,16.8174
1497267284,881.7333333383,18.179
1497267288,881.7333333383,15.9345
1497267292,852.9333333383,17.5203
1497267296,872.1333333383,17.1484
1497267300,802.5333333383,17.3153
1497267304,879.3333333383,16.9262
1497267308,857.7333333383,17.3377
1497267312,874.5333333383,16.3506
1497267316,881.7333333383,16.3183
1497267320,891.3333333383,16.5884
1497267324,908.1333333383,16.0176
1497267328,874.5333333383,16.0615
1497267332,912.9333333383,17.5826
1497267336,862.5333333383,16.2492
1497267340,838.5333333383,15.6253
1497267344,828.9333333383,16.4332
1497267348,879.3333333383,16.2399
1497267352,879.3333333383,17.1999
1497267356,896.1333333383,17.0264
1497267360,874.5333333383,18.4276
1497267364,917.7333333383,17.294
1497267368,905.7333333383,16.7713
1497267372,905.7333333383,16.7429
1497267376,917.7333333383,16.952
1497267380,872.1333333383,16.5023
1497267384,910.5333333383,17.2687
1497267388,893.7333333383,16.7314
1497267392,898.5333333383,17.9439
1497267396,903.3333333383,17.7754
1497267400,908.1333333383,18.3892
1497267404,965.7333333383,16.9201
1497267408,879.3333333383,16.6093
1497267412,908.1333333383,16.6323
1497267416,951.3333333383,16.3565
1497267420,869.7333333383,16.9109
1497267424,924.9333333383,17.164
1497267428,857.7333333383,16.2411
1497267432,872.1333333383,16.9236
1497267436,891.3333333383,17.1991
1497267440,872.1333333383,17.874
1497267444,850.5333333383,17.3731
1497267448,855.3333333383,17.0372
1497267452,896.1333333383,17.5111
1497267456,903.3333333383,18.1905
1497267460,932.1333333383,18.5717
1497267464,948.9333333383,16.6444
1497267468,891.3333333383,16.7524
1497267472,845.7333333383,18.8481
1497267476,888.9333333383,17.0432
1497267480,764.1333333383,16.5434
1497267484,879.3333333383,16.5008
1497267488,860.1333333383,17.3242
1497267492,888.9333333383,16.869
1497267496,848.1333333383,17.3358
1497267500,879.3333333383,17.2201
1497267504,831.3333333383,17.4726
1497267508,843.3333333383,16.5159
1497267512,809.7333333383,17.8219
1497267516,855.3333333383,17.5736
1497267520,852.9333333383,17.2449
1497267524,785.7333333383,16.675
1497267528,881.7333333383,17.309
1497267532,824.1333333383,17.74
1497267536,891.3333333383,17.2529
1497267540,881.7333333383,17.2991
1497267544,869.7333333383,16.6911
1497267548,872.1333333383,17.7057
1497267552,884.1333333383,18.2759
1497267556,893.7333333383,17.1369
1497267560,850.5333333383,16.3332
1497267564,867.3333333383,16.7713
1497267568,874.5333333383,16.4124
1497267572,862.5333333383,16.5698
1497267576,867.3333333383,16.3636
1497267580,872.1333333383,17.1383
1497267584,836.1333333383,17.2279
1497267588,860.1333333383,16.8823
1497267592,814.5333333383,16.5331
1497267596,828.9333333383,17.2045
1497267600,886.5333333383,18.3654
1497267604,848.1333333383,16.3511
1497267608,819.3333333383,17.1567
1497267612,884.1333333383,17.6129
1497267616,836.1333333383,18.0886
1497267620,809.7333333383,17.5048
1497267624,857.7333333383,16.5883
1497267628,864.9333333383,17.0382
1497267632,826.5333333383,17.3101
1497267636,869.7333333383,17.1226
1497267640,804.9333333383,17.19
1497267644,826.5333333383,18.5881
1497267648,857.7333333383,17.4989
1497267652,824.1333333383,17.1756
1497267656,845.7333333383,16.3446
1497267660,800.1333333383,18.7855
1497267664,814.5333333383,17.4085
1497267668,869.7333333383,17.7518
1497267672,864.9333333383,17.3681
1497267676,826.5333333383,18.1516
1497267680,862.5333333383,18.3128
1497267684,838.5333333383,17.0318
1497267688,857.7333333383,18.033
1497267692,845.7333333383,18.7379
1497267696,804.9333333383,17.0738
1497267700,845.7333333383,17.1609
1497267704,848.1333333383,17.5185
1497267708,852.9333333383,17.6337
1497267712,816.9333333383,17.1573
1497267716,852.9333333383,16.501
1497267720,838.5333333383,17.428
1497267724,807.3333333383,16.6462
1497267728,845.7333333383,17.2599
1497267732,848.1333333383,17.6533
1497267736,852.9333333383,16.8241
1497267740,855.3333333383,18.3779
1497267744,886.5333333383,16.5055
1497267748,850.5333333383,17.0042
1497267752,838.5333333383,15.8321
1497267756,912.9333333383,16.6417
1497267760,879.3333333383,16.8187
1497267764,872.1333333383,17.1066
1497267768,802.5333333383,16.4849
1497267772,896.1333333383,17.2844
1497267776,872.1333333383,17.6403
1497267780,891.3333333383,16.4687
1497267784,888.9333333383,16.834
1497267788,908.1333333383,17.3896
1497267792,939.3333333383,17.6083
1497267796,879.3333333383,17.2179
1497267800,980.1333333383,16.6046
1497267804,903.3333333383,16.7919
1497267808,934.5333333383,16.5886
1497267812,936.9333333383,17.3792
1497267816,956.1333333383,17.0424
1497267820,965.7333333383,17.0737
1497267824,920.1333333383,16.2903
1497267828,963.3333333383,16.6879
1497267832,932.1333333383,17.16
1497267836,898.5333333383,17.2155
1497267840,912.9333333383,16.0765
1497267844,905.7333333383,17.4327
1497267848,900.9333333383,18.0064
1497267852,896.1333333383,17.5652
1497267856,879.3333333383,17.5075
1497267860,932.1333333383,17.8178
1497267864,893.7333333383,16.9102
1497267868,905.7333333383,17.7461
1497267872,898.5333333383,17.6087
1497267876,915.3333333383,17.2289
1497267880,886.5333333383,17.2375
1497267884,888.9333333383,17.9416
1497267888,896.1333333383,16.4115
1497267892,905.7333333383,16.3003
1497267896,903.3333333383,17.358
1497267900,836.1333333383,18.0186
1497267904,891.3333333383,16.4859
1497267908,934.5333333383,16.9337
1497267912,884.1333333383,15.8734
1497267916,886.5333333383,16.834
1497267920,879.3333333383,15.5367
1497267924,896.1333333383,15.4411
1497267928,888.9333333383,17.4004
1497267932,884.1333333383,16.1727
1497267936,900.9333333383,16.4042
1497267940,920.1333333383,17.7557
1497267944,924.9333333383,17.6402
1497267948,968.1333333383,16.4136
1497267952,977.7333333383,17.0099
1497267956,977.7333333383,17.3821
1497267960,982.5333333383,15.6289
1497267964,1042.5333333383,16.2062
1497267968,968.1333333383,17.1855
1497267972,984.9333333383,17.6748
1497267976,1006.5333333383,17.9651
1497267980,1023.3333333383,17.2068
1497267984,992.1333333383,17.1149
1497267988,934.5333333383,17.2881
1497267992,1016.1333333383,16.8296
1497267996,1030.5333333383,16.8425
1497268000,960.9333333383,16.8723
1497268004,1008.9333333383,16.746
1497268008,956.1333333383,17.0235
1497268012,1001.7333333383,18.6615
1497268016,1004.1333333383,17.096
1497268020,996.9333333383,16.6135
1497268024,982.5333333383,17.8487
1497268028,1016.1333333383,17.1132
1497268032,1037.7333333383,16.2596
1497268036,1018.5333333383,16.1624
1497268040,1025.7333333383,17.734
1497268044,953.7333333383,15.0665
1497268048,939.3333333383,17.4398
1497268052,972.9333333383,16.6777
1497268056,960.9333333383,16.6551
1497268060,936.9333333383,16.8395
1497268064,994.5333333383,16.4791
1497268068,958.5333333383,15.5071
1497268072,944.1333333383,17.1125
1497268076,946.5333333383,16.3674
1497268080,898.5333333383,17.9381
1497268084,912.9333333383,17.324
1497268088,884.1333333383,18.5261
1497268092,958.5333333383,16.8081
1497268096,972.9333333383,16.6848
1497268100,953.7333333383,17.6189
1497268104,903.3333333383,17.1703
1497268108,910.5333333383,17.2933
1497268112,867.3333333383,16.2163
1497268116,896.1333333383,17.7327
1497268120,855.3333333383,17.67
1497268124,920.1333333383,17.7421
1497268128,872.1333333383,15.6813
1497268132,912.9333333383,17.6319
1497268136,852.9333333383,17.7489
1497268140,876.9333333383,17.6044
1497268144,905.7333333383,16.5318
1497268148,893.7333333383,17.4766
1497268152,888.9333333383,17.0544
1497268156,876.9333333383,17.2617
1497268160,970.5333333383,17.0594
1497268164,867.3333333383,16.893
1497268168,905.7333333383,16.5916
1497268172,864.9333333383,16.1581
1497268176,876.9333333383,17.5227
1497268180,884.1333333383,17.5289
1497268184,852.9333333383,18.0385
1497268188,860.1333333383,16.9082
1497268192,831.3333333383,17.121
1497268196,881.7333333383,17.3571
1497268200,891.3333333383,15.9647
1497268204,874.5333333383,18.2745
1497268208,860.1333333383,16.3139
1497268212,886.5333333383,17.2639
1497268216,876.9333333383,17.3502
1497268220,886.5333333383,17.7089
1497268224,826.5333333383,17.8044
1497268228,939.3333333383,17.8522
1497268232,886.5333333383,16.7945
1497268236,864.9333333383,17.5928
1497268240,912.9333333383,18.4252
1497268244,917.7333333383,17.9109
1497268248,876.9333333383,18.3238
1497268252,872.1333333383,16.7274
1497268256,888.9333333383,17.2434
1497268260,912.9333333383,15.9299
1497268264,864.9333333383,15.385
1497268268,876.9333333383,16.2112
1497268272,872.1333333383,16.3173
1497268276,888.9333333383,17.2433
1497268280,792.9333333383,17.9689
1497268284,920.1333333383,17.3198
1497268288,884.1333333383,18.1376
1497268292,869.7333333383,17.4689
1497268296,884.1333333383,16.9242
1497268300,888.9333333383,17.1621
1497268304,888.9333333383,16.5476
1497268308,840.9333333383,17.3332
1497268312,860.1333333383,17.7292
1497268316,881.7333333383,16.5231
1497268320,869.7333333383,15.7651
1497268324,884.1333333383,17.3386
1497268328,872.1333333383,16.826
1497268332,881.7333333383,17.172
1497268336,869.7333333383,18.1903
1497268340,898.5333333383,15.7696
1497268344,874.5333333383,16.3229
1497268348,836.1333333383,17.6105
1497268352,855.3333333383,15.987
1497268356,826.5333333383,17.1456
1497268360,816.9333333383,17.2236
1497268364,828.9333333383,16.6224
1497268368,836.1333333383,16.8984
1497268372,864.9333333383,17.4469
1497268376,730.5333333383,16.4813
1497268380,852.9333333383,16.7487
1497268384,773.7333333383,17.6032
1497268388,802.5333333383,18.0044
1497268392,800.1333333383,16.7966
1497268396,814.5333333383,17.1669
1497268400,809.7333333383,17.6906
1497268404,783.3333333383,18.6125
1497268408,850.5333333383,16.4992
1497268412,831.3333333383,16.8529
1497268416,862.5333333383,17.8887
1497268420,802.5333333383,16.8775
1497268424,836.1333333383,16.7665
1497268428,857.7333333383,17.2623
1497268432,809.7333333383,18.8607
1497268436,848.1333333383,16.5893
1497268440,821.7333333383,17.2757
1497268444,819.3333333383,16.2199
1497268448,783.3333333383,17.825
1497268452,845.7333333383,16.3678
1497268456,852.9333333383,16.7966
1497268460,814.5333333383,18.004
1497268464,802.5333333383,17.521
1497268468,831.3333333383,18.4965
1497268472,840.9333333383,17.0242
1497268476,795.3333333383,17.2654
1497268480,812.1333333383,17.8028
1497268484,840.9333333383,16.8241
1497268488,821.7333333383,16.956
1497268492,788.1333333383,16.2173
1497268496,814.5333333383,16.4686
1497268500,804.9333333383,17.3728
1497268504,833.7333333383,17.759
1497268508,867.3333333383,16.7157
1497268512,852.9333333383,17.2792
1497268516,843.3333333383,18.186
1497268520,812.1333333383,17.1875
1497268524,795.3333333383,15.3448
1497268528,843.3333333383,17.2343
1497268532,792.9333333383,17.8862
1497268536,807.3333333383,16.5308
1497268540,828.9333333383,17.906
1497268544,807.3333333383,17.0265
1497268548,836.1333333383,16.9919
1497268552,809.7333333383,16.4174
1497268556,860.1333333383,16.4847
1497268560,821.7333333383,16.9941
1497268564,802.5333333383,17.7518
1497268568,872.1333333383,17.349
1497268572,833.7333333383,16.9385
1497268576,809.7333333383,17.3636
1497268580,826.5333333383,17.4046
1497268584,828.9333333383,16.9902
1497268588,840.9333333383,17.8249
1497268592,795.3333333383,17.8236
1497268596,857.7333333383,17.2091
1497268600,848.1333333383,16.5977
1497268604,833.7333333383,16.62
1497268608,802.5333333383,17.2475
1497268612,816.9333333383,16.3663
1497268616,824.1333333383,16.4511
1497268620,790.5333333383,16.4511
1497268624,809.7333333383,17.472
1497268628,804.9333333383,18.068
1497268632,838.5333333383,17.0079
1497268636,807.3333333383,17.1133
1497268640,795.3333333383,16.6365
1497268644,828.9333333383,16.6443
1497268648,785.7333333383,17.2951
1497268652,790.5333333383,17.9626
1497268656,792.9333333383,16.4871
1497268660,855.3333333383,17.1323
1497268664,816.9333333383,16.8926
1497268668,836.1333333383,17.1095
1497268672,812.1333333383,16.9301
1497268676,797.7333333383,16.4886
1497268680,802.5333333383,17.0788
1497268684,855.3333333383,16.9509
1497268688,874.5333333383,16.6806
1497268692,819.3333333383,17.732
1497268696,857.7333333383,17.2322
1497268700,843.3333333383,16.2111
1497268704,821.7333333383,17.8827
1497268708,879.3333333383,18.2504
1497268712,886.5333333383,18.5883
1497268716,881.7333333383,18.1109
1497268720,1006.5333333383,15.596
1497268724,1001.7333333383,16.6867
1497268728,1025.7333333383,16.5304
1497268732,1006.5333333383,17.8233
1497268736,1008.9333333383,17.1244
1497268740,920.1333333383,18.0191
1497268744,941.7333333383,17.2708
1497268748,932.1333333383,17.4257
1497268752,953.7333333383,17.4098
1497268756,980.1333333383,16.7974
1497268760,944.1333333383,16.8339
1497268764,951.3333333383,17.1789
1497268768,970.5333333383,15.9541
1497268772,1020.9333333383,16.4499
1497268776,953.7333333383,17.7273
1497268780,924.9333333383,17.1624
1497268784,989.7333333383,16.0074
1497268788,917.7333333383,16.3443
1497268792,941.7333333383,17.8555
1497268796,977.7333333383,17.8089
1497268800,934.5333333383,16.8575
1497268804,1025.7333333383,17.2346
1497268808,912.9333333383,16.5581
1497268812,939.3333333383,16.2279
1497268816,1001.7333333383,17.3537
1497268820,958.5333333383,16.7739
1497268824,953.7333333383,18.3652
1497268828,953.7333333383,16.508
1497268832,920.1333333383,17.0726
1497268836,932.1333333383,17.7096
1497268840,970.5333333383,17.7409
1497268844,939.3333333383,17.5863
1497268848,936.9333333383,17.0953
1497268852,908.1333333383,17.6464
1497268856,958.5333333383,16.0992
1497268860,948.9333333383,16.1695
1497268864,958.5333333383,17.7731
1497268868,922.5333333383,17.3894
1497268872,968.1333333383,17.3635
1497268876,934.5333333383,17.4325
1497268880,941.7333333383,16.8998
1497268884,903.3333333383,18.2605
1497268888,932.1333333383,17.245
1497268892,994.5333333383,16.037
1497268896,927.3333333383,16.8184
1497268900,939.3333333383,17.9897
1497268904,970.5333333383,16.6995
1497268908,977.7333333383,17.9583
1497268912,956.1333333383,17.9453
1497268916,956.1333333383,16.2607
1497268920,965.7333333383,18.5677
1497268924,891.3333333383,17.5588
1497268928,905.7333333383,17.1454
1497268932,896.1333333383,17.7221
1497268936,944.1333333383,19.3524
1497268940,896.1333333383,18.9351
1497268944,900.9333333383,17.2539
1497268948,903.3333333383,17.3041
1497268952,920.1333333383,16.9766
1497268956,972.9333333383,17.0078
1497268960,910.5333333383,16.7644
1497268964,872.1333333383,18.3351
1497268968,910.5333333383,16.1867
1497268972,910.5333333383,17.5767
1497268976,920.1333333383,18.3471
1497268980,920.1333333383,17.9092
1497268984,920.1333333383,16.314
1497268988,941.7333333383,16.6931
1497268992,927.3333333383,18.0656
1497268996,934.5333333383,17.0711
1497269000,908.1333333383,16.7955
1497269004,900.9333333383,17.2688
1497269008,922.5333333383,18.9526
1497269012,920.1333333383,17.4666
1497269016,944.1333333383,17.4183
1497269020,987.3333333383,17.5313
1497269024,900.9333333383,16.8904
1497269028,996.9333333383,16.8956
1497269032,917.7333333383,17.9618
1497269036,929.7333333383,16.0394
1497269040,922.5333333383,17.7077
1497269044,874.5333333383,17.8517
1497269048,956.1333333383,16.2262
1497269052,915.3333333383,16.3653
1497269056,922.5333333383,17.5141
1497269060,893.7333333383,18.0521
1497269064,910.5333333383,18.3025
1497269068,960.9333333383,18.2607
1497269072,915.3333333383,17.1701
1497269076,929.7333333383,17.1072
1497269080,972.9333333383,15.9849
1497269084,970.5333333383,17.1135
1497269088,984.9333333383,16.8068
1497269092,936.9333333383,17.0326
1497269096,1013.7333333383,16.7392
1497269100,908.1333333383,16.5831
1497269104,975.3333333383,16.789
1497269108,970.5333333383,17.4381
1497269112,948.9333333383,17.6796
1497269116,1030.5333333383,17.4137
1497269120,975.3333333383,16.6096
1497269124,972.9333333383,17.7972
1497269132,956.1333333383,16.5313
1497269136,946.5333333383,17.308
1497269140,888.9333333383,15.5986
1497269144,982.5333333383,15.1579
1497269148,917.7333333383,16.0078
1497269152,941.7333333383,16.6358
1497269156,960.9333333383,17.0908
1497269160,999.3333333383,17.7823
1497269164,1008.9333333383,17.4046
1497269168,929.7333333383,17.5807
1497269172,982.5333333383,17.3196
1497269176,984.9333333383,18.9098
1497269180,982.5333333383,17.942
1497269184,977.7333333383,17.9514
1497269188,1006.5333333383,17.0208
1497269192,1076.1333333383,18.0895
1497269196,946.5333333383,16.8492
1497269200,994.5333333383,17.2964
1497269204,1030.5333333383,17.3134
1497269208,984.9333333383,17.4129
1497269212,1001.7333333383,18.2484
1497269216,960.9333333383,16.3708
1497269220,987.3333333383,16.6278
1497269224,1013.7333333383,16.9312
1497269228,1030.5333333383,17.6393
1497269232,1068.9333333383,16.5021
1497269236,1097.7333333383,17.8808
1497269240,1124.1333333383,18.3408
1497269244,1121.7333333383,18.0901
1497269248,1220.1333333383,18.947
1497269252,1232.1333333383,18.2543
1497269256,1157.7333333383,18.4642
1497269260,1203.3333333383,18.4703
1497269264,1176.9333333383,16.3648
1497269268,1215.3333333383,16.354
1497269272,1200.9333333383,16.5103
1497269276,1174.5333333383,17.921
1497269280,1155.3333333383,17.7686
1497269284,1145.7333333383,17.5228
1497269288,1128.9333333383,17.9479
1497269292,1116.9333333383,17.9228
1497269296,1131.3333333383,18.6847
1497269300,1109.7333333383,17.5433
1497269304,1097.7333333383,17.8579
1497269308,1114.5333333383,18.0581
1497269312,1061.7333333383,17.5624
1497269316,1059.3333333383,17.0072
1497269320,1042.5333333383,15.2106
1497269324,1059.3333333383,17.072
1497269328,1042.5333333383,16.1424
1497269332,1035.3333333383,16.6208
1497269336,1061.7333333383,16.5959
1497269340,1064.1333333383,16.4323
1497269344,1059.3333333383,16.6832
1497269348,1059.3333333383,16.8549
1497269352,1095.3333333383,17.0399
1497269356,1071.3333333383,15.9186
1497269360,1064.1333333383,17.4427
1497269364,1073.7333333383,17.1108
1497269368,1006.5333333383,17.1643
1497269372,1112.1333333383,16.5137
1497269376,1100.1333333383,17.8146
1497269380,1104.9333333383,17.6495
1497269384,1076.1333333383,17.0122
1497269388,1100.1333333383,16.7021
1497269392,1090.5333333383,17.4106
1497269396,1056.9333333383,16.7066
1497269400,1085.7333333383,16.5299
1497269404,1109.7333333383,17.5704
1497269408,1088.1333333383,18.0667
1497269412,1066.5333333383,16.95
1497269416,1160.1333333383,17.6687
1497269420,1205.7333333383,16.7561
1497269424,1186.5333333383,16.8548
1497269428,1152.9333333383,18.4972
1497269432,1196.1333333383,16.7188
1497269436,1167.3333333383,16.7919
1497269440,1179.3333333383,16.6824
1497269444,1157.7333333383,17.6254
1497269448,1162.5333333383,17.3351
1497269452,1121.7333333383,17.792
1497269456,1136.1333333383,17.3893
1497269460,1215.3333333383,17.9416
1497269464,1210.5333333383,16.644
1497269468,1227.3333333383,16.5956
1497269472,1227.3333333383,16.7484
1497269476,1181.7333333383,16.9749
1497269480,1162.5333333383,16.5571
1497269484,1145.7333333383,17.1114
1497269488,1193.7333333383,16.4147
1497269492,1145.7333333383,17.7485
1497269496,1119.3333333383,16.4278
1497269500,1176.9333333383,16.4697
1497269504,1088.1333333383,17.2009
1497269508,1102.5333333383,17.4012
1497269512,1116.9333333383,17.6245
1497269516,1133.7333333383,16.7527
1497269520,1071.3333333383,18.055
1497269524,1059.3333333383,15.9812
1497269528,1083.3333333383,17.1832
1497269532,1068.9333333383,15.5238
1497269536,1064.1333333383,17.41
1497269540,1078.5333333383,17.7105
1497269544,1056.9333333383,17.2984
1497269548,1100.1333333383,17.4121
1497269552,1102.5333333383,16.5309
1497269556,1112.1333333383,16.714
1497269560,1145.7333333383,16.3838
1497269564,1143.3333333383,17.319
1497269568,1143.3333333383,16.2798
1497269572,1176.9333333383,17.1647
1497269576,1186.5333333383,16.3881
1497269580,1198.5333333383,16.5978
1497269584,1152.9333333383,17.6165
1497269588,1157.7333333383,16.068
1497269592,1121.7333333383,17.0828
1497269596,1193.7333333383,16.8866
1497269600,1205.7333333383,16.7359
1497269604,1179.3333333383,16.8467
1497269608,1224.9333333383,17.6397
1497269612,1148.1333333383,17.0954
1497269616,1143.3333333383,17.4638
1497269620,1200.9333333383,17.5416
1497269624,1104.9333333383,16.8119
1497269628,1080.9333333383,18.3244
1497269632,1114.5333333383,17.7018
1497269636,1035.3333333383,17.3105
1497269640,1061.7333333383,18.2268
1497269644,1040.1333333383,18.0333
1497269648,1061.7333333383,18.1542
1497269652,1042.5333333383,16.9683
1497269656,1044.9333333383,17.3252
1497269660,1052.1333333383,17.1951
1497269664,1032.9333333383,19.6577
1497269668,1052.1333333383,17.3113
1497269672,1049.7333333383,17.9655
1497269676,1025.7333333383,18.0676
1497269680,1042.5333333383,18.0843
1497269684,1006.5333333383,18.5441
1497269688,989.7333333383,18.1391
1497269692,1040.1333333383,17.1561
1497269696,975.3333333383,18.3811
1497269700,984.9333333383,17.9749
1497269704,960.9333333383,18.1886
1497269708,1028.1333333383,19.1348
1497269712,1054.5333333383,17.9649
1497269716,1008.9333333383,16.464
1497269720,977.7333333383,18.5619
1497269724,1001.7333333383,18.3036
1497269728,1023.3333333383,17.796
1497269732,992.1333333383,17.1576
1497269736,996.9333333383,17.1415
1497269740,1004.1333333383,17.2005
1497269744,1016.1333333383,17.3483
1497269748,1037.7333333383,19.462
1497269752,963.3333333383,18.6681
1497269756,994.5333333383,18.2993
1497269760,927.3333333383,16.6023
1497269764,941.7333333383,17.517
1497269768,1030.5333333383,18.1133
1497269772,1037.7333333383,18.0254
1497269776,1011.3333333383,17.1507
1497269780,1006.5333333383,15.9416
1497269784,958.5333333383,17.6605
1497269788,992.1333333383,17.7698
1497269792,992.1333333383,16.3349
1497269796,1008.9333333383,18.5664
1497269800,984.9333333383,17.8506
1497269804,1037.7333333383,17.4428
1497269808,1016.1333333383,16.7027
1497269812,968.1333333383,15.9193
1497269816,1035.3333333383,18.0363
1497269820,975.3333333383,17.9665
1497269824,1028.1333333383,18.256
1497269828,1037.7333333383,18.7527
1497269832,1047.3333333383,17.8658
1497269836,1004.1333333383,17.7382
1497269840,1032.9333333383,17.9064
1497269844,996.9333333383,17.7131
1497269848,1006.5333333383,18.8587
1497269852,970.5333333383,15.878
1497269856,1020.9333333383,17.8267
1497269860,999.3333333383,16.4329
1497269864,1090.5333333383,18.0629
1497269868,1114.5333333383,17.5957
1497269872,1152.9333333383,16.8255
1497269876,1191.3333333383,16.9991
1497269880,1208.1333333383,18.4896
1497269884,1200.9333333383,17.4598
1497269888,1174.5333333383,17.1871
1497269892,1145.7333333383,18.2294
1497269896,1191.3333333383,18.4566
1497269900,1143.3333333383,17.3774
1497269904,1047.3333333383,18.178
1497269908,1044.9333333383,18.2947
1497269912,1023.3333333383,18.2219
1497269916,965.7333333383,17.0224
1497269920,1025.7333333383,17.9239
1497269924,982.5333333383,18.2561
1497269928,1004.1333333383,17.809
1497269932,1030.5333333383,19.4881
1497269936,992.1333333383,17.5088
1497269940,912.9333333383,18.6175
1497269944,905.7333333383,20.1699
1497269948,920.1333333383,17.7914
1497269952,920.1333333383,17.099
1497269956,968.1333333383,16.9004
1497269960,881.7333333383,16.228
1497269964,924.9333333383,17.928
1497269968,893.7333333383,17.9232
1497269972,860.1333333383,18.1096
1497269976,886.5333333383,18.3838
1497269980,869.7333333383,18.6593
1497269984,857.7333333383,19.4101
1497269988,888.9333333383,17.9427
1497269992,872.1333333383,17.8452
1497269996,944.1333333383,17.457
1497270000,987.3333333383,16.3805
1497270004,965.7333333383,18.0286
1497270008,956.1333333383,17.3112
1497270012,1006.5333333383,16.9288
1497270016,963.3333333383,16.9476
1497270020,917.7333333383,16.872
1497270024,927.3333333383,16.4986
1497270028,905.7333333383,17.0678
1497270032,891.3333333383,15.9476
1497270036,917.7333333383,16.451
1497270040,905.7333333383,17.0934
1497270044,896.1333333383,16.3679
1497270048,886.5333333383,16.4024
1497270052,860.1333333383,16.2697
1497270056,884.1333333383,15.9662
1497270060,879.3333333383,17.2994
1497270064,886.5333333383,16.1913
1497270068,936.9333333383,17.039
1497270072,874.5333333383,16.8149
1497270076,893.7333333383,16.5421
1497270080,874.5333333383,17.878
1497270084,857.7333333383,16.8842
1497270088,884.1333333383,16.0796
1497270092,850.5333333383,16.87
1497270096,876.9333333383,16.1381
1497270100,884.1333333383,16.9949
1497270104,879.3333333383,16.2346
1497270108,903.3333333383,17.1446
1497270112,903.3333333383,16.2849
1497270116,922.5333333383,16.2275
1497270120,922.5333333383,17.6768
1497270124,987.3333333383,17.4475
1497270128,1044.9333333383,16.04
1497270132,980.1333333383,15.8
1497270136,1035.3333333383,14.9049
1497270140,1044.9333333383,16.6982
1497270144,1061.7333333383,16.3927
1497270148,1049.7333333383,17.1589
1497270152,1054.5333333383,16.6411
1497270156,1032.9333333383,17.2705
1497270160,1088.1333333383,16.6668
1497270164,1042.5333333383,17.161
1497270168,1059.3333333383,16.8533
1497270172,1078.5333333383,15.4236
1497270176,1030.5333333383,16.9415
1497270180,1028.1333333383,16.7244
1497270184,1076.1333333383,15.8948
1497270188,1037.7333333383,16.0012
1497270192,1040.1333333383,15.0859
1497270196,1018.5333333383,15.779
1497270200,1064.1333333383,16.467
1497270204,1023.3333333383,17.4931
1497270208,1028.1333333383,16.1109
1497270212,944.1333333383,15.7495
1497270216,965.7333333383,16.7656
1497270220,1008.9333333383,17.6554
1497270224,970.5333333383,15.3399
1497270228,984.9333333383,16.882
1497270232,999.3333333383,18.6057
1497270236,951.3333333383,17.1141
1497270240,939.3333333383,16.4584
1497270244,951.3333333383,16.4652
1497270248,929.7333333383,17.9745
1497270252,968.1333333383,17.0651
1497270256,932.1333333383,17.6179
1497270260,972.9333333383,17.1823
1497270264,963.3333333383,16.7655
1497270268,956.1333333383,16.0678
1497270272,927.3333333383,15.8969
1497270276,917.7333333383,16.2382
1497270280,903.3333333383,16.7391
1497270284,929.7333333383,17.71
1497270288,884.1333333383,17.5425
1497270292,968.1333333383,16.674
1497270296,917.7333333383,16.402
1497270300,912.9333333383,16.8209
1497270304,934.5333333383,16.2999
1497270308,879.3333333383,16.5281
1497270312,893.7333333383,16.2386
1497270316,936.9333333383,16.4907
1497270320,893.7333333383,16.7391
1497270324,922.5333333383,17.2878
1497270328,876.9333333383,17.9775
1497270332,893.7333333383,17.3597
1497270336,893.7333333383,17.3169
1497270340,867.3333333383,17.9997
1497270344,886.5333333383,16.782
1497270348,876.9333333383,16.6278
1497270352,872.1333333383,16.1615
1497270356,905.7333333383,17.1599
1497270360,869.7333333383,16.664
1497270364,884.1333333383,16.2652
1497270368,867.3333333383,16.717
1497270372,869.7333333383,17.9603
1497270376,831.3333333383,17.4174
1497270380,836.1333333383,16.5968
1497270384,898.5333333383,16.946
1497270388,903.3333333383,18.1805
1497270392,860.1333333383,16.9924
1497270396,879.3333333383,18.1682
1497270400,872.1333333383,17.0068
1497270404,824.1333333383,17.5216
1497270408,886.5333333383,16.9615
1497270412,864.9333333383,17.3755
1497270416,893.7333333383,17.3267
1497270420,869.7333333383,18.1998
1497270424,843.3333333383,17.2991
1497270428,838.5333333383,16.8761
1497270432,814.5333333383,18.4546
1497270436,867.3333333383,16.9093
1497270440,862.5333333383,18.3026
1497270444,879.3333333383,18.5239
1497270448,879.3333333383,18.5392
1497270452,886.5333333383,18.5667
1497270456,836.1333333383,17.3371
1497270460,879.3333333383,18.0759
1497270464,879.3333333383,17.4559
1497270472,869.7333333383,18.1458
1497270476,910.5333333383,17.9627
1497270480,872.1333333383,17.3538
1497270484,864.9333333383,17.8666
1497270488,888.9333333383,16.4663
1497270492,888.9333333383,15.6316
1497270496,884.1333333383,16.9351
1497270500,934.5333333383,17.8998
1497270504,924.9333333383,16.7019
1497270508,915.3333333383,17.3496
1497270512,812.1333333383,17.2171
1497270516,908.1333333383,18.9171
1497270520,862.5333333383,17.1946
1497270524,876.9333333383,18.6317
1497270528,910.5333333383,17.6661
1497270532,812.1333333383,18.0257
1497270536,900.9333333383,17.5457
1497270540,900.9333333383,17.9157
1497270544,900.9333333383,16.6843
1497270548,872.1333333383,16.5601
1497270552,843.3333333383,17.7775
1497270556,816.9333333383,17.6045
1497270560,867.3333333383,16.1075
1497270564,850.5333333383,16.2011
1497270568,821.7333333383,17.4436
1497270572,831.3333333383,16.9112
1497270576,831.3333333383,16.9231
1497270580,828.9333333383,17.7478
1497270584,850.5333333383,17.4024
1497270588,857.7333333383,17.2008
1497270592,838.5333333383,15.843
1497270596,836.1333333383,16.9317
1497270600,809.7333333383,16.6755
1497270604,855.3333333383,18.4121
1497270608,819.3333333383,15.6972
1497270612,898.5333333383,16.777
1497270616,850.5333333383,17.1682
1497270620,814.5333333383,16.9461
1497270624,814.5333333383,16.612
1497270628,862.5333333383,16.5681
1497270632,802.5333333383,17.3999
1497270636,828.9333333383,16.7411
1497270640,790.5333333383,18.2611
1497270644,876.9333333383,17.2891
1497270648,872.1333333383,16.3279
1497270652,821.7333333383,16.6745
1497270656,900.9333333383,17.0608
1497270660,886.5333333383,17.8479
1497270664,869.7333333383,18.2071
1497270668,876.9333333383,17.3205
1497270672,869.7333333383,17.2473
1497270676,852.9333333383,16.6069
1497270680,855.3333333383,18.9026
1497270684,838.5333333383,17.8618
1497270688,876.9333333383,17.3908
1497270692,884.1333333383,17.1939
1497270696,864.9333333383,17.7521
1497270700,884.1333333383,18.3367
1497270704,872.1333333383,18.3324
1497270708,886.5333333383,16.9026
1497270712,963.3333333383,17.6229
1497270716,896.1333333383,17.3673
1497270720,886.5333333383,17.186
1497270724,862.5333333383,17.5743
1497270728,843.3333333383,17.3959
1497270732,888.9333333383,17.9976
1497270736,872.1333333383,17.6622
1497270740,896.1333333383,17.0135
1497270744,833.7333333383,17.1486
1497270748,884.1333333383,15.6503
1497270752,891.3333333383,17.0826
1497270756,891.3333333383,17.7292
1497270760,797.7333333383,16.2427
1497270764,876.9333333383,16.9224
1497270768,898.5333333383,16.9854
1497270772,867.3333333383,17.3288
1497270776,888.9333333383,16.9646
1497270780,879.3333333383,16.825
1497270784,814.5333333383,17.7599
1497270788,864.9333333383,18.3138
1497270792,826.5333333383,17.3487
1497270796,862.5333333383,17.6363
1497270800,795.3333333383,17.1156
1497270804,833.7333333383,17.3361
1497270808,814.5333333383,16.6077
1497270812,802.5333333383,16.7902
1497270816,792.9333333383,17.2228
1497270820,836.1333333383,17.2677
1497270824,797.7333333383,16.5817
1497270828,843.3333333383,16.4935
1497270832,809.7333333383,15.7378
1497270836,802.5333333383,16.0656
1497270840,795.3333333383,16.934
1497270844,838.5333333383,16.3284
1497270848,766.5333333383,17.4347
1497270852,828.9333333383,17.4995
1497270856,831.3333333383,17.6392
1497270860,776.1333333383,17.2394
1497270864,754.5333333383,17.6562
1497270868,795.3333333383,16.5074
1497270872,778.5333333383,17.5586
1497270876,780.9333333383,17.3317
1497270880,800.1333333383,16.9989
1497270884,759.3333333383,18.6719
1497270888,740.1333333383,17.1772
1497270892,766.5333333383,17.5919
1497270896,860.1333333383,18.2414
1497270900,814.5333333383,17.3763
1497270904,814.5333333383,16.8864
1497270908,860.1333333383,17.416
1497270912,876.9333333383,18.3876
1497270916,852.9333333383,18.6501
1497270920,900.9333333383,18.145
1497270924,898.5333333383,17.2422
1497270928,886.5333333383,17.5014
1497270932,876.9333333383,16.8815
1497270936,905.7333333383,17.6096
1497270940,828.9333333383,18.0775
1497270944,898.5333333383,17.0275
1497270948,843.3333333383,17.8613
1497270952,852.9333333383,18.0271
1497270956,893.7333333383,19.3865
1497270960,874.5333333383,17.2606
1497270964,869.7333333383,16.4484
1497270968,893.7333333383,16.7283
1497270972,932.1333333383,17.5328
1497270976,896.1333333383,17.6973
1497270980,929.7333333383,18.3292
1497270984,915.3333333383,18.1357
1497270988,900.9333333383,17.906
1497270992,917.7333333383,17.1361
1497270996,922.5333333383,16.371
1497271000,893.7333333383,17.5129
1497271004,924.9333333383,17.02
1497271008,903.3333333383,17.139
1497271012,896.1333333383,16.7406
1497271016,920.1333333383,17.7735
1497271020,898.5333333383,16.7029
1497271024,891.3333333383,15.5281
1497271028,886.5333333383,15.5608
1497271032,862.5333333383,16.3284
1497271036,869.7333333383,14.9314
1497271040,898.5333333383,17.5845
1497271044,900.9333333383,16.3835
1497271052,903.3333333383,17.9835
1497271056,886.5333333383,18.3063
1497271060,886.5333333383,17.4442
1497271064,886.5333333383,17.9917
1497271068,924.9333333383,17.2559
1497271072,864.9333333383,17.98
1497271076,848.1333333383,17.7133
1497271080,893.7333333383,17.3288
1497271084,879.3333333383,17.5418
1497271088,876.9333333383,19.9961
1497271092,879.3333333383,17.6277
1497271096,819.3333333383,16.5522
1497271100,886.5333333383,17.3444
1497271104,812.1333333383,17.7552
1497271108,809.7333333383,17.6639
1497271112,860.1333333383,18.0532
1497271116,876.9333333383,17.0093
1497271120,860.1333333383,17.3288
1497271124,872.1333333383,17.8309
1497271128,879.3333333383,17.5595
1497271132,833.7333333383,17.1641
1497271136,807.3333333383,17.0711
1497271140,776.1333333383,16.6243
1497271144,843.3333333383,17.3608
1497271148,852.9333333383,17.2372
1497271152,869.7333333383,16.9363
1497271156,814.5333333383,17.9318
1497271160,809.7333333383,18.8463
1497271164,864.9333333383,17.7469
1497271168,780.9333333383,17.4096
1497271172,807.3333333383,17.4822
1497271176,869.7333333383,17.5609
1497271180,819.3333333383,18.1312
1497271184,836.1333333383,17.5542
1497271188,857.7333333383,18.5181
1497271192,838.5333333383,17.5995
1497271196,845.7333333383,19.4612
1497271200,809.7333333383,16.7045
1497271204,800.1333333383,17.8965
1497271208,869.7333333383,18.1515
1497271212,879.3333333383,16.3956
1497271216,855.3333333383,17.4266
1497271220,838.5333333383,16.9114
1497271224,869.7333333383,17.3956
1497271228,874.5333333383,15.9415
1497271232,905.7333333383,15.6406
1497271236,891.3333333383,17.9961
1497271240,900.9333333383,17.373
1497271244,924.9333333383,16.5251
1497271248,934.5333333383,16.8984
1497271252,912.9333333383,15.9684
1497271256,977.7333333383,16.1076
1497271260,1042.5333333383,17.3133
1497271264,1006.5333333383,16.2849
1497271268,1023.3333333383,17.3333
1497271272,1006.5333333383,18.1397
1497271276,992.1333333383,17.2311
1497271280,1025.7333333383,17.6266
1497271284,939.3333333383,17.0727
1497271288,987.3333333383,16.8376
1497271292,1006.5333333383,18.0647
1497271296,900.9333333383,18.1066
1497271300,968.1333333383,18.187
1497271304,970.5333333383,18.5268
1497271308,850.5333333383,16.9621
1497271312,912.9333333383,17.1607
1497271316,860.1333333383,17.2182
1497271320,816.9333333383,17.2361
1497271324,867.3333333383,17.1332
1497271328,785.7333333383,17.0337
1497271332,807.3333333383,17.5203
1497271336,845.7333333383,17.3917
1497271340,809.7333333383,18.3564
1497271344,792.9333333383,17.151
1497271348,840.9333333383,17.924
1497271352,828.9333333383,15.9576
1497271356,788.1333333383,17.434
1497271360,876.9333333383,17.354
1497271364,848.1333333383,16.7438
1497271368,792.9333333383,18.0328
1497271372,828.9333333383,17.1668
1497271376,836.1333333383,18.1503
1497271380,862.5333333383,17.6948
1497271384,881.7333333383,17.7183
1497271388,831.3333333383,18.6108
1497271392,809.7333333383,17.5132
1497271396,843.3333333383,17.9911
1497271400,843.3333333383,18.1903
1497271404,876.9333333383,18.7839
1497271408,864.9333333383,17.8729
1497271412,879.3333333383,17.9095
1497271416,845.7333333383,16.1162
1497271420,826.5333333383,17.4944
1497271424,855.3333333383,16.3388
1497271428,840.9333333383,16.5231
1497271432,855.3333333383,17.8331
1497271436,888.9333333383,17.2353
1497271440,864.9333333383,18.1727
1497271444,869.7333333383,17.5955
1497271448,814.5333333383,18.1338
1497271452,845.7333333383,16.6962
1497271456,903.3333333383,19.7858
1497271460,860.1333333383,17.0208
1497271464,864.9333333383,16.382
1497271468,874.5333333383,14.1457
1497271472,879.3333333383,15.7351
1497271476,881.7333333383,15.9512
1497271480,881.7333333383,17.3584
1497271484,845.7333333383,17.2744
1497271488,869.7333333383,16.6382
1497271492,850.5333333383,16.9418
1497271496,879.3333333383,16.9227
1497271500,869.7333333383,18.4579
1497271504,876.9333333383,17.995
1497271508,821.7333333383,17.2431
1497271512,888.9333333383,17.8589
1497271516,879.3333333383,16.9349
1497271520,872.1333333383,18.0548
1497271524,831.3333333383,17.3115
1497271528,845.7333333383,17.246
1497271532,869.7333333383,17.4354
1497271536,881.7333333383,16.6956
1497271540,864.9333333383,17.2145
1497271544,862.5333333383,17.539
1497271548,804.9333333383,17.1983
1497271552,845.7333333383,16.4998
1497271556,872.1333333383,17.7548
1497271560,874.5333333383,17.7748
1497271564,867.3333333383,17.4469
1497271568,819.3333333383,18.2164
1497271572,869.7333333383,18.8229
1497271576,869.7333333383,17.2598
1497271580,821.7333333383,18.7364
1497271584,855.3333333383,17.5732
1497271588,862.5333333383,16.9502
1497271592,850.5333333383,17.292
1497271596,893.7333333383,18.9861
1497271600,864.9333333383,17.7452
1497271604,874.5333333383,17.7773
1497271608,987.3333333383,16.941
1497271612,905.7333333383,16.633
1497271616,898.5333333383,17.7118
1497271620,857.7333333383,17.0894
1497271624,879.3333333383,16.9756
1497271628,912.9333333383,17.5234
1497271632,963.3333333383,18.1548
1497271636,893.7333333383,18.4517
1497271640,869.7333333383,17.1762
1497271644,874.5333333383,18.5559
1497271648,908.1333333383,17.8522
1497271652,903.3333333383,17.2616
1497271656,816.9333333383,17.9569
1497271660,840.9333333383,18.5347
1497271664,879.3333333383,18.599
1497271668,932.1333333383,17.8075
1497271672,891.3333333383,17.4707
1497271676,929.7333333383,16.5197
1497271680,922.5333333383,17.3485
1497271684,869.7333333383,17.3342
1497271688,862.5333333383,17.5142
1497271692,869.7333333383,16.4896
1497271696,891.3333333383,15.2068
1497271700,900.9333333383,18.4637
1497271704,867.3333333383,17.5211
1497271708,855.3333333383,17.8538
1497271712,888.9333333383,16.2658
1497271716,888.9333333383,16.982
1497271720,879.3333333383,16.6797
1497271724,860.1333333383,17.4554
1497271728,802.5333333383,17.3006
1497271732,884.1333333383,17.0501
1497271736,864.9333333383,16.7376
1497271740,857.7333333383,17.0361
1497271744,867.3333333383,18.2914
1497271748,881.7333333383,18.9144
1497271752,855.3333333383,17.8336
1497271756,876.9333333383,17.5965
1497271760,852.9333333383,18.5244
1497271764,860.1333333383,17.9404
1497271768,831.3333333383,16.992
1497271772,862.5333333383,17.1848
1497271776,874.5333333383,17.0271
1497271780,843.3333333383,17.8382
1497271784,855.3333333383,18.4546
1497271788,800.1333333383,17.6829
1497271792,840.9333333383,16.6687
1497271796,826.5333333383,17.6662
1497271800,850.5333333383,18.4564
1497271804,795.3333333383,17.7239
1497271808,814.5333333383,16.9277
1497271812,790.5333333383,16.8703
1497271816,747.3333333383,17.6328
1497271820,773.7333333383,18.5667
1497271824,797.7333333383,17.6142
1497271828,807.3333333383,18.0857
1497271832,903.3333333383,17.6242
1497271836,891.3333333383,16.7721
1497271840,924.9333333383,18.2768
1497271844,927.3333333383,17.5034
1497271848,867.3333333383,18.6841
1497271852,860.1333333383,17.2984
1497271856,929.7333333383,18.0299
1497271860,862.5333333383,17.5731
1497271864,816.9333333383,17.7678
1497271868,862.5333333383,17.0994
1497271872,850.5333333383,18.5028
1497271876,893.7333333383,17.8514
1497271880,869.7333333383,17.7184
1497271884,855.3333333383,16.2361
1497271888,888.9333333383,17.0654
1497271892,884.1333333383,18.083
1497271896,869.7333333383,17.2265
1497271900,876.9333333383,18.7382
1497271904,888.9333333383,17.3017
1497271908,908.1333333383,18.2182
1497271912,891.3333333383,18.1299
1497271916,922.5333333383,18.908
1497271920,900.9333333383,18.3801
1497271924,920.1333333383,16.9666
1497271928,884.1333333383,17.4934
1497271932,886.5333333383,18.3073
1497271936,903.3333333383,17.08
1497271940,936.9333333383,17.5123
1497271944,884.1333333383,17.3354
1497271948,958.5333333383,17.1469
1497271952,941.7333333383,16.8508
1497271956,927.3333333383,18.1616
1497271960,917.7333333383,16.8203
1497271964,934.5333333383,17.1307
1497271968,929.7333333383,17.2399
1497271972,1044.9333333383,17.569
1497271976,996.9333333383,17.2465
1497271980,941.7333333383,16.9926
1497271984,982.5333333383,16.9983
1497271988,1013.7333333383,16.155
1497271992,956.1333333383,17.1806
1497271996,992.1333333383,18.745
1497272000,1001.7333333383,18.1608
1497272004,984.9333333383,17.463
1497272008,975.3333333383,17.6739
1497272012,1008.9333333383,16.8357
1497272016,1018.5333333383,18.2345
1497272020,982.5333333383,15.8246
1497272024,896.1333333383,16.552
1497272028,936.9333333383,16.8942
1497272032,881.7333333383,17.0987
1497272036,879.3333333383,18.0611
1497272040,876.9333333383,18.0022
1497272044,888.9333333383,17.4962
1497272048,821.7333333383,17.2171
1497272052,864.9333333383,16.0353
1497272056,874.5333333383,18.1452
1497272060,884.1333333383,17.1246
1497272064,876.9333333383,16.9135
1497272068,862.5333333383,16.9171
1497272072,802.5333333383,16.0288
1497272076,881.7333333383,17.6627
1497272080,879.3333333383,17.9394
1497272084,884.1333333383,16.4707
1497272088,884.1333333383,17.8257
1497272092,900.9333333383,17.6961
1497272096,900.9333333383,18.9781
1497272100,881.7333333383,16.6861
1497272104,903.3333333383,18.6549
1497272108,946.5333333383,16.7861
1497272112,898.5333333383,17.3821
1497272116,903.3333333383,17.6636
1497272120,984.9333333383,16.7055
1497272124,898.5333333383,16.8161
1497272128,888.9333333383,17.0578
1497272132,939.3333333383,17.5226
1497272136,905.7333333383,17.7767
1497272140,869.7333333383,18.3363
1497272144,920.1333333383,17.9321
1497272148,927.3333333383,17.6812
1497272152,876.9333333383,17.3862
1497272156,884.1333333383,17.5803
1497272160,848.1333333383,17.3333
1497272164,855.3333333383,18.7464
1497272168,833.7333333383,18.5271
1497272172,862.5333333383,18.8729
1497272176,869.7333333383,17.0656
1497272180,867.3333333383,18.2477
1497272184,831.3333333383,18.9239
1497272188,867.3333333383,17.5665
1497272192,857.7333333383,18.9679
1497272196,879.3333333383,18.7941
1497272200,876.9333333383,16.9396
1497272204,843.3333333383,17.0918
1497272208,850.5333333383,17.9143
1497272212,879.3333333383,18.3365
1497272216,819.3333333383,17.1301
1497272220,795.3333333383,17.2081
1497272224,852.9333333383,18.3638
1497272228,864.9333333383,17.8813
1497272232,819.3333333383,17.9913
1497272236,852.9333333383,18.3511
1497272240,790.5333333383,18.8241
1497272244,821.7333333383,18.7539
1497272248,944.1333333383,18.4225
1497272252,936.9333333383,17.7403
1497272256,956.1333333383,17.7149
1497272260,924.9333333383,17.2633
1497272264,939.3333333383,18.5398
1497272268,932.1333333383,18.4795
1497272272,929.7333333383,18.3657
1497272276,1016.1333333383,18.3697
1497272280,929.7333333383,17.041
1497272284,948.9333333383,18.3706
1497272288,965.7333333383,18.9336
1497272292,960.9333333383,17.4579
1497272296,960.9333333383,17.2827
1497272300,994.5333333383,17.6034
1497272304,934.5333333383,17.443
1497272308,970.5333333383,18.4475
1497272312,1028.1333333383,17.7556
1497272316,980.1333333383,17.6488
1497272320,1056.9333333383,16.1054
1497272324,1052.1333333383,16.8821
1497272328,1004.1333333383,17.4915
1497272332,1016.1333333383,18.3435
1497272336,1030.5333333383,17.0954
1497272340,1018.5333333383,18.9765
1497272344,1004.1333333383,18.1256
1497272348,1054.5333333383,19.0587
1497272352,1040.1333333383,19.4148
1497272356,1047.3333333383,17.3345
1497272360,994.5333333383,17.6445
1497272364,996.9333333383,17.5546
1497272368,1004.1333333383,17.0645
1497272372,980.1333333383,17.3005
1497272376,936.9333333383,16.4398
1497272380,1044.9333333383,17.8788
1497272384,970.5333333383,16.7406
1497272388,970.5333333383,17.2708
1497272392,934.5333333383,17.9567
1497272396,898.5333333383,17.2948
1497272400,972.9333333383,17.227
1497272404,927.3333333383,17.8305
1497272408,951.3333333383,17.2695
1497272412,924.9333333383,18.2436
1497272416,929.7333333383,18.0991
1497272420,936.9333333383,18.0441
1497272424,1032.9333333383,17.1102
1497272428,927.3333333383,17.8359
1497272432,1030.5333333383,19.3184
1497272436,996.9333333383,17.6451
1497272440,960.9333333383,18.8868
1497272444,1006.5333333383,19.5463
1497272448,932.1333333383,16.4842
1497272452,958.5333333383,17.3746
1497272456,1004.1333333383,18.713
1497272460,948.9333333383,18.0176
1497272464,951.3333333383,18.1099
1497272468,1035.3333333383,19.0958
1497272472,1025.7333333383,17.1044
1497272476,1025.7333333383,17.2723
1497272480,1020.9333333383,17.0227
1497272484,1020.9333333383,17.6778
1497272488,1018.5333333383,17.8884
1497272492,1052.1333333383,17.6696
1497272496,1035.3333333383,17.2561
1497272500,1037.7333333383,16.4669
1497272504,1054.5333333383,16.675
1497272508,1049.7333333383,18.6829
1497272512,1040.1333333383,17.2568
1497272516,1068.9333333383,17.3732
1497272520,1056.9333333383,17.5197
1497272524,1037.7333333383,17.1218
1497272528,999.3333333383,17.4042
1497272532,1042.5333333383,17.1522
1497272536,1008.9333333383,16.5385
1497272540,944.1333333383,17.5145
1497272544,1054.5333333383,17.9162
1497272548,999.3333333383,16.5761
1497272552,1001.7333333383,16.6811
1497272556,956.1333333383,17.48
1497272560,1018.5333333383,18.1639
1497272564,1025.7333333383,18.1428
1497272568,1011.3333333383,16.6097
1497272572,941.7333333383,16.6161
1497272576,989.7333333383,16.4368
1497272580,951.3333333383,16.7073
1497272584,1042.5333333383,16.4986
1497272588,982.5333333383,17.6263
1497272592,977.7333333383,16.6857
1497272596,977.7333333383,17.3415
1497272600,970.5333333383,17.2962
1497272604,975.3333333383,16.5333
1497272608,977.7333333383,16.5815
1497272612,932.1333333383,17.8178
1497272616,970.5333333383,16.266
1497272620,936.9333333383,17.275
1497272624,956.1333333383,17.3661
1497272628,1013.7333333383,16.9832
1497272632,941.7333333383,17.4258
1497272636,920.1333333383,16.9778
1497272640,903.3333333383,17.0904
1497272644,903.3333333383,17.045
1497272648,1008.9333333383,16.4112
1497272652,953.7333333383,16.5792
1497272656,953.7333333383,17.3504
1497272660,1028.1333333383,15.3607
1497272664,972.9333333383,15.8904
1497272668,999.3333333383,17.0484
1497272672,994.5333333383,15.3747
1497272676,908.1333333383,17.4592
1497272680,968.1333333383,16.5257
1497272684,946.5333333383,17.9966
1497272688,1020.9333333383,17.1763
1497272692,1020.9333333383,16.9156
1497272696,953.7333333383,16.7371
1497272700,1011.3333333383,17.2119
1497272704,1032.9333333383,15.9429
1497272708,1025.7333333383,18.2585
1497272712,992.1333333383,19.0678
1497272716,1032.9333333383,17.0077
1497272720,989.7333333383,17.0043
1497272724,1042.5333333383,16.3519
1497272728,1083.3333333383,16.256
1497272732,1028.1333333383,17.4385
1497272736,1025.7333333383,18.2493
1497272740,1020.9333333383,17.7668
1497272744,992.1333333383,17.075
1497272748,944.1333333383,17.439
1497272752,989.7333333383,17.2677
1497272756,932.1333333383,17.7845
1497272760,893.7333333383,18.0659
1497272764,924.9333333383,18.7538
1497272768,977.7333333383,17.3394
1497272772,891.3333333383,18.2032
1497272776,1025.7333333383,18.2175
1497272780,1035.3333333383,16.4521
1497272784,1020.9333333383,17.7899
1497272792,1032.9333333383,16.8316
1497272796,1032.9333333383,15.9472
1497272800,1080.9333333383,17.3662
1497272804,1037.7333333383,17.4472
1497272808,1145.7333333383,17.7291
1497272812,1061.7333333383,18.0619
1497272816,1133.7333333383,16.861
1497272820,1109.7333333383,16.1633
1497272824,1047.3333333383,17.9155
1497272828,1066.5333333383,17.1878
1497272832,1066.5333333383,15.8608
1497272836,1092.9333333383,17.0281
1497272840,1104.9333333383,15.8651
1497272844,1100.1333333383,16.4167
1497272848,1054.5333333383,16.7354
1497272852,1047.3333333383,16.9093
1497272856,1047.3333333383,17.3089
1497272860,1052.1333333383,17.1337
1497272864,1073.7333333383,17.1247
1497272868,1068.9333333383,17.395
