tag_number,delay,power_est
1495977068,456.1333333358,18.6984
1495977070,511.3333333358,17.2548
1495977072,403.3333333358,20.0369
1495977074,434.5333333358,22.322
1495977076,468.1333333358,22.6962
1495977078,463.3333333358,21.9249
1495977080,468.1333333358,21.467
1495977082,492.1333333358,20.7741
1495977084,492.1333333358,16.4115
1495977086,463.3333333358,15.0915
1495977088,432.1333333358,15.1044
1495977090,477.7333333358,16.8545
1495977092,465.7333333358,16.9432
1495977094,489.7333333358,20.6801
1495977096,448.9333333358,19.6763
1495977098,424.9333333358,19.1921
1495977100,415.3333333358,19.4139
1495977102,446.5333333358,19.1299
1495977104,530.5333333358,18.6375
1495977106,489.7333333358,20.6277
1495977108,427.3333333358,18.5686
1495977110,448.9333333358,16.6581
1495977112,381.7333333358,16.4939
1495977114,472.9333333358,15.4571
1495977116,477.7333333358,22.7178
1495977118,432.1333333358,15.7654
1495977120,434.5333333358,15.88
1495977122,458.5333333358,15.6903
1495977124,484.9333333358,19.6509
1495977126,415.3333333358,20.0395
1495977128,388.9333333358,21.0162
1495977130,451.3333333358,20.323
1495977132,427.3333333358,22.727
1495977134,403.3333333358,21.066
1495977136,398.5333333358,17.0739
1495977138,398.5333333358,19.1648
1495977140,441.7333333358,20.5744
1495977142,429.7333333358,19.6208
1495977144,460.9333333358,16.7161
1495977146,482.5333333358,23.0605
1495977148,441.7333333358,21.1229
1495977150,528.1333333358,17.0786
1495977152,532.9333333358,19.889
1495977156,537.7333333358,18.6871
1495977158,547.3333333358,17.7785
1495977160,549.7333333358,22.056
1495977162,602.5333333358,16.6977
1495977164,568.9333333358,21.9528
1495977166,576.1333333358,20.1406
1495977168,525.7333333358,19.8672
1495977170,568.9333333358,20.693
1495977172,552.1333333358,20.9052
1495977174,516.1333333358,21.7292
1495977176,540.1333333358,23.846
1495977178,499.3333333358,20.9739
1495977180,525.7333333358,20.5979
1495977182,525.7333333358,18.2053
1495977184,518.5333333358,21.5884
1495977186,496.9333333358,18.7406
1495977188,532.9333333358,23.8251
1495977190,424.9333333358,21.9447
1495977192,400.9333333358,21.1258
1495977194,441.7333333358,19.6639
1495977196,408.1333333358,21.0369
1495977198,391.3333333358,21.3898
1495977200,460.9333333358,24.3084
1495977202,451.3333333358,21.0132
1495977204,456.1333333358,24.6877
1495977206,427.3333333358,16.9785
1495977208,460.9333333358,17.6579
1495977210,496.9333333358,17.7758
1495977212,441.7333333358,20.8758
1495977214,451.3333333358,21.6504
1495977216,405.7333333358,17.7424
1495977218,420.1333333358,16.7812
1495977220,436.9333333358,24.2842
1495977222,441.7333333358,20.5307
1495977224,408.1333333358,21.2161
1495977226,434.5333333358,18.9472
1495977228,379.3333333358,20.5186
1495977230,408.1333333358,23.4607
1495977232,444.1333333358,18.7069
1495977234,477.7333333358,14.8103
1495977236,408.1333333358,18.6762
1495977238,427.3333333358,21.7737
1495977240,439.3333333358,17.1081
1495977242,417.7333333358,20.028
1495977244,446.5333333358,18.0293
1495977246,513.7333333358,17.0037
1495977248,518.5333333358,17.2345
1495977250,504.1333333358,19.6308
1495977252,468.1333333358,21.3051
1495977254,422.5333333358,17.4657
1495977256,525.7333333358,19.1294
1495977258,499.3333333358,19.8745
1495977260,530.5333333358,23.6374
1495977262,540.1333333358,19.6217
1495977264,542.5333333358,21.2745
1495977266,496.9333333358,19.7287
1495977268,506.5333333358,17.597
1495977270,465.7333333358,16.6324
1495977272,528.1333333358,16.8704
1495977274,535.3333333358,20.679
1495977276,516.1333333358,18.4269
1495977278,552.1333333358,16.6673
1495977280,547.3333333358,18.8847
1495977282,523.3333333358,15.3257
1495977284,559.3333333358,17.4774
1495977286,535.3333333358,18.1068
1495977288,528.1333333358,20.1627
1495977290,535.3333333358,21.3927
1495977292,465.7333333358,22.1002
1495977294,444.1333333358,22.8458
1495977296,520.9333333358,23.0955
1495977298,511.3333333358,23.0405
1495977300,489.7333333358,19.7687
1495977302,516.1333333358,15.1644
1495977304,532.9333333358,20.0762
1495977306,487.3333333358,20.8144
1495977308,424.9333333358,21.1942
1495977310,499.3333333358,23.0844
1495977312,513.7333333358,19.4571
1495977314,451.3333333358,20.9404
1495977316,484.9333333358,20.0106
1495977318,472.9333333358,13.8091
1495977320,422.5333333358,18.343
1495977322,458.5333333358,18.5539
1495977324,468.1333333358,17.3991
1495977326,434.5333333358,15.3781
1495977328,432.1333333358,17.2823
1495977330,412.9333333358,9.56077
1495977332,379.3333333358,14.5
1495977334,405.7333333358,14.2777
1495977336,403.3333333358,20.6286
1495977338,400.9333333358,19.3862
1495977340,412.9333333358,16.4752
1495977342,508.9333333358,20.3641
1495977344,424.9333333358,18.0832
1495977346,410.5333333358,18.453
1495977348,441.7333333358,13.5781
1495977350,372.1333333358,17.2151
1495977352,388.9333333358,17.8516
1495977354,400.9333333358,15.7344
1495977356,422.5333333358,21.2875
1495977358,367.3333333358,19.1118
1495977360,388.9333333358,16.3218
1495977362,396.1333333358,15.3012
1495977364,396.1333333358,21.3311
1495977366,415.3333333358,17.6099
1495977368,434.5333333358,16.6785
1495977370,415.3333333358,17.4333
1495977372,408.1333333358,14.2842
1495977374,436.9333333358,17.1918
1495977376,417.7333333358,17.4009
1495977378,379.3333333358,21.5726
1495977380,468.1333333358,24.0223
1495977382,434.5333333358,20.0386
1495977384,477.7333333358,21.7103
1495977386,432.1333333358,25.5231
1495977388,448.9333333358,23.2271
1495977390,480.1333333358,21.4272
1495977392,523.3333333358,19.5585
1495977394,525.7333333358,20.2838
1495977396,448.9333333358,16.7418
1495977398,487.3333333358,15.6563
1495977400,511.3333333358,19.6089
1495977402,504.1333333358,16.7868
1495977404,513.7333333358,15.8298
1495977406,540.1333333358,14.811
1495977408,540.1333333358,14.4504
1495977410,544.9333333358,15.9103
1495977412,540.1333333358,18.1834
1495977414,422.5333333358,17.8624
1495977416,458.5333333358,16.9997
1495977418,501.7333333358,17.0014
1495977420,506.5333333358,20.912
1495977422,504.1333333358,20.0526
1495977424,494.5333333358,18.6065
1495977426,470.5333333358,23.4935
1495977428,520.9333333358,23.272
1495977430,487.3333333358,20.317
1495977432,520.9333333358,19.623
1495977434,487.3333333358,18.4974
1495977436,516.1333333358,18.1768
1495977438,477.7333333358,17.4144
1495977440,415.3333333358,15.4571
1495977442,405.7333333358,13.2929
1495977444,446.5333333358,12.9426
1495977446,393.7333333358,11.7259
1495977448,420.1333333358,14.2802
1495977450,456.1333333358,15.3761
1495977452,429.7333333358,16.3665
1495977454,427.3333333358,21.4642
1495977456,432.1333333358,19.0624
1495977458,412.9333333358,20.7516
1495977460,422.5333333358,17.6236
1495977462,400.9333333358,15.7029
1495977464,400.9333333358,18.8004
1495977466,398.5333333358,20.9031
1495977468,405.7333333358,21.0945
1495977470,381.7333333358,17.9518
1495977472,381.7333333358,16.5178
1495977474,453.7333333358,17.9706
1495977476,429.7333333358,16.3953
1495977478,391.3333333358,16.0171
1495977480,436.9333333358,16.7196
1495977482,410.5333333358,15.4169
1495977484,393.7333333358,22.6243
1495977486,434.5333333358,19.9498
1495977488,410.5333333358,18.2168
1495977490,412.9333333358,24.4307
1495977492,417.7333333358,23.2574
1495977494,446.5333333358,24.6412
1495977496,477.7333333358,21.3809
1495977498,451.3333333358,18.1493
1495977500,456.1333333358,14.9237
1495977502,451.3333333358,16.9175
1495977504,446.5333333358,15.0877
1495977506,530.5333333358,21.8673
1495977508,484.9333333358,21.2714
1495977510,494.5333333358,20.1809
1495977512,451.3333333358,22.1638
1495977514,525.7333333358,19.9479
1495977516,489.7333333358,22.7853
1495977518,463.3333333358,19.2922
1495977520,422.5333333358,24.2949
1495977522,472.9333333358,25.2716
1495977524,446.5333333358,21.0776
1495977526,439.3333333358,20.0931
1495977528,477.7333333358,18.9473
1495977530,492.1333333358,19.8095
1495977532,484.9333333358,23.4182
1495977534,482.5333333358,23.7345
1495977536,463.3333333358,24.8738
1495977538,482.5333333358,21.9407
1495977540,528.1333333358,22.089
1495977542,400.9333333358,15.3576
1495977544,436.9333333358,21.2073
1495977546,494.5333333358,20.8506
1495977548,436.9333333358,20.5873
1495977550,432.1333333358,16.9533
1495977552,475.3333333358,20.9523
1495977554,496.9333333358,20.7748
1495977556,489.7333333358,19.4379
1495977558,470.5333333358,19.9395
1495977560,508.9333333358,21.81
1495977562,492.1333333358,20.0076
1495977564,516.1333333358,20.0804
1495977566,482.5333333358,22.1529
1495977568,511.3333333358,23.6139
1495977570,463.3333333358,23.2688
1495977572,444.1333333358,23.5879
1495977574,523.3333333358,27.9538
1495977576,458.5333333358,25.7126
1495977578,482.5333333358,24.5556
1495977580,542.5333333358,20.1794
1495977582,513.7333333358,22.2468
1495977584,520.9333333358,20.7703
1495977586,487.3333333358,16.9801
1495977588,477.7333333358,21.7868
1495977590,448.9333333358,20.8101
1495977592,506.5333333358,15.1172
1495977594,441.7333333358,15.411
1495977596,398.5333333358,17.3324
1495977598,405.7333333358,19.0209
1495977600,463.3333333358,19.9779
1495977602,444.1333333358,16.9472
1495977604,436.9333333358,18.9055
1495977606,506.5333333358,17.9367
1495977608,405.7333333358,15.3606
1495977610,441.7333333358,17.9149
1495977612,475.3333333358,18.1993
1495977614,420.1333333358,20.1423
1495977616,463.3333333358,19.5658
1495977618,453.7333333358,18.786
1495977620,470.5333333358,19.9929
1495977622,374.5333333358,17.8251
1495977624,463.3333333358,21.4655
1495977626,496.9333333358,22.7628
1495977628,429.7333333358,21.9102
1495977630,463.3333333358,22.1068
1495977632,458.5333333358,20.6531
1495977634,405.7333333358,16.2179
1495977636,429.7333333358,19.9076
1495977638,482.5333333358,18.9568
1495977640,427.3333333358,15.7976
1495977642,403.3333333358,16.7526
1495977644,513.7333333358,12.4175
1495977646,463.3333333358,15.0201
1495977648,484.9333333358,18.426
1495977650,429.7333333358,16.0335
1495977652,460.9333333358,18.9985
1495977654,436.9333333358,20.7008
1495977656,477.7333333358,17.5861
1495977658,451.3333333358,14.6376
1495977660,475.3333333358,12.3636
1495977662,463.3333333358,18.1162
1495977664,422.5333333358,20.2614
1495977666,434.5333333358,19.5832
1495977668,408.1333333358,12.4677
1495977670,470.5333333358,16.3291
1495977672,451.3333333358,19.152
1495977674,410.5333333358,12.9707
1495977676,410.5333333358,17.901
1495977678,429.7333333358,19.1457
1495977680,403.3333333358,17.9099
1495977682,415.3333333358,15.1859
1495977684,400.9333333358,19.3213
1495977686,405.7333333358,18.7072
1495977690,453.7333333358,20.0281
1495977692,439.3333333358,22.3164
1495977694,429.7333333358,22.735
1495977696,465.7333333358,23.4012
1495977698,417.7333333358,22.2911
1495977700,398.5333333358,20.864
1495977702,448.9333333358,18.8453
1495977704,434.5333333358,18.1663
1495977706,408.1333333358,19.8608
1495977708,388.9333333358,16.7565
1495977710,384.1333333358,21.8352
1495977712,400.9333333358,20.4533
1495977714,482.5333333358,19.4242
1495977716,381.7333333358,19.8774
1495977718,379.3333333358,19.7684
1495977720,417.7333333358,15.3541
1495977722,410.5333333358,13.0953
1495977724,391.3333333358,9.81321
1495977726,384.1333333358,12.2144
1495977728,384.1333333358,19.445
1495977730,388.9333333358,16.2292
1495977732,374.5333333358,16.1979
1495977734,405.7333333358,22.6587
1495977736,362.5333333358,23.2684
1495977738,393.7333333358,18.9884
1495977740,422.5333333358,18.8586
1495977742,396.1333333358,13.4455
1495977744,343.3333333358,18.2352
1495977746,384.1333333358,21.1381
1495977748,379.3333333358,24.272
1495977750,364.9333333358,18.1451
1495977752,376.9333333358,20.0021
1495977754,388.9333333358,23.136
1495977756,350.5333333358,22.664
1495977758,336.1333333358,26.058
1495977760,364.9333333358,29.0692
1495977762,391.3333333358,24.7374
1495977764,376.9333333358,22.3666
1495977766,388.9333333358,23.109
1495977768,393.7333333358,22.5349
1495977770,398.5333333358,20.5669
1495977772,379.3333333358,21.8038
1495977774,412.9333333358,23.4389
1495977776,381.7333333358,24.2037
1495977778,398.5333333358,13.7857
1495977780,381.7333333358,19.2491
1495977782,412.9333333358,19.0572
1495977784,405.7333333358,21.8995
1495977786,398.5333333358,21.9034
1495977788,439.3333333358,18.9707
1495977790,403.3333333358,22.3569
1495977792,410.5333333358,26.0281
1495977794,444.1333333358,25.1224
1495977796,448.9333333358,22.9108
1495977798,456.1333333358,20.2223
1495977800,393.7333333358,22.5542
1495977802,484.9333333358,21.5992
1495977804,477.7333333358,19.7948
1495977806,475.3333333358,17.1689
1495977808,484.9333333358,18.8136
1495977810,511.3333333358,20.7863
1495977812,520.9333333358,22.9484
1495977814,544.9333333358,20.9469
1495977816,489.7333333358,15.9503
1495977818,441.7333333358,14.8461
1495977820,494.5333333358,17.296
1495977822,525.7333333358,18.3622
1495977824,511.3333333358,19.322
1495977826,460.9333333358,18.9962
1495977828,568.9333333358,15.2985
1495977830,501.7333333358,17.9259
1495977832,463.3333333358,21.494
1495977834,453.7333333358,19.4942
1495977836,496.9333333358,16.3604
1495977838,434.5333333358,16.6467
1495977840,501.7333333358,18.1446
1495977842,518.5333333358,12.7687
1495977844,506.5333333358,16.9462
1495977846,535.3333333358,13.7594
1495977848,504.1333333358,13.0668
1495977850,453.7333333358,13.9493
1495977852,511.3333333358,14.2835
1495977854,489.7333333358,14.1058
1495977856,441.7333333358,17.7604
1495977858,499.3333333358,18.0452
1495977860,508.9333333358,17.1873
1495977862,460.9333333358,18.7643
1495977864,420.1333333358,19.5265
1495977866,542.5333333358,19.9629
1495977868,434.5333333358,15.5053
1495977870,444.1333333358,15.2372
1495977872,475.3333333358,16.1399
1495977874,470.5333333358,19.446
1495977876,446.5333333358,20.8596
1495977878,451.3333333358,16.3295
1495977880,482.5333333358,17.3408
1495977882,439.3333333358,17.6992
1495977884,441.7333333358,17.5747
1495977886,456.1333333358,17.2011
1495977888,427.3333333358,13.8389
1495977890,429.7333333358,17.2331
1495977892,458.5333333358,14.5087
1495977894,482.5333333358,17.4483
1495977896,424.9333333358,14.9455
1495977898,381.7333333358,18.0101
1495977900,398.5333333358,18.6952
1495977902,405.7333333358,18.5411
1495977904,439.3333333358,14.8607
1495977906,403.3333333358,17.1044
1495977908,367.3333333358,19.1944
1495977910,400.9333333358,17.2272
1495977912,460.9333333358,16.044
1495977914,410.5333333358,16.9275
1495977916,446.5333333358,15.9622
1495977918,400.9333333358,14.0257
1495977920,429.7333333358,14.1962
1495977922,386.5333333358,13.4042
1495977924,477.7333333358,18.7222
1495977926,432.1333333358,14.554
1495977928,403.3333333358,20.3695
1495977930,456.1333333358,14.3068
1495977932,405.7333333358,18.4501
1495977934,417.7333333358,12.5558
1495977936,405.7333333358,16.5836
1495977938,451.3333333358,23.2632
1495977940,460.9333333358,17.3355
1495977942,427.3333333358,18.2497
1495977944,427.3333333358,18.1668
1495977946,475.3333333358,17.8297
1495977948,381.7333333358,18.4513
1495977950,396.1333333358,19.4819
1495977952,417.7333333358,15.2731
1495977954,384.1333333358,17.2307
1495977956,386.5333333358,20.0597
1495977958,360.1333333358,17.0549
1495977960,391.3333333358,16.8502
1495977962,393.7333333358,17.0444
1495977964,436.9333333358,18.618
1495977966,379.3333333358,22.2734
1495977968,386.5333333358,21.6843
1495977970,398.5333333358,24.7367
1495977972,400.9333333358,14.3466
1495977974,400.9333333358,13.9771
1495977976,374.5333333358,19.7441
1495977978,403.3333333358,17.491
1495977980,386.5333333358,15.737
1495977982,391.3333333358,21.2725
1495977984,384.1333333358,19.6463
1495977986,338.5333333358,19.7863
1495977988,369.7333333358,15.688
1495977990,379.3333333358,17.4231
1495977992,357.7333333358,18.4373
1495977994,386.5333333358,17.9781
1495977996,384.1333333358,17.9744
1495977998,355.3333333358,20.6714
1495978000,400.9333333358,19.2023
1495978002,468.1333333358,16.531
1495978004,403.3333333358,21.1518
1495978006,384.1333333358,18.832
1495978008,386.5333333358,15.8457
1495978010,405.7333333358,14.6581
1495978012,386.5333333358,18.5194
1495978014,396.1333333358,19.1715
1495978016,381.7333333358,21.7447
1495978018,357.7333333358,17.3614
1495978020,362.5333333358,16.6338
1495978022,372.1333333358,14.6143
1495978024,369.7333333358,14.6009
1495978026,381.7333333358,14.0857
1495978028,384.1333333358,15.8073
1495978030,357.7333333358,20.1092
1495978032,369.7333333358,20.429
1495978034,376.9333333358,20.6899
1495978036,384.1333333358,14.1882
1495978038,386.5333333358,17.9872
1495978040,448.9333333358,15.0946
1495978042,398.5333333358,18.2588
1495978044,408.1333333358,16.4167
1495978046,372.1333333358,21.023
1495978048,369.7333333358,19.7289
1495978050,388.9333333358,19.1744
1495978052,386.5333333358,20.5091
1495978054,393.7333333358,22.0579
1495978056,309.7333333358,17.5022
1495978058,381.7333333358,16.981
1495978060,376.9333333358,17.795
1495978062,362.5333333358,20.1802
1495978064,376.9333333358,18.3365
1495978066,391.3333333358,18.7858
1495978068,381.7333333358,17.9608
1495978070,372.1333333358,22.4507
1495978072,379.3333333358,20.0227
1495978074,338.5333333358,23.2194
1495978076,388.9333333358,19.9589
1495978078,388.9333333358,21.0637
1495978080,408.1333333358,17.583
1495978082,405.7333333358,14.9656
1495978084,400.9333333358,19.0481
1495978086,379.3333333358,18.6511
1495978088,388.9333333358,15.2785
1495978090,369.7333333358,16.9036
1495978092,367.3333333358,19.5233
1495978094,393.7333333358,19.2857
1495978096,446.5333333358,17.3479
1495978098,384.1333333358,19.9236
1495978100,400.9333333358,20.4842
1495978102,405.7333333358,19.0957
1495978104,396.1333333358,21.1771
1495978106,384.1333333358,19.4841
1495978108,391.3333333358,16.4179
1495978110,429.7333333358,21.5074
1495978112,396.1333333358,19.4174
1495978114,422.5333333358,22.7481
1495978116,384.1333333358,20.8228
1495978118,391.3333333358,21.8295
1495978120,410.5333333358,23.2746
1495978122,400.9333333358,25.2144
1495978124,384.1333333358,21.6641
1495978126,415.3333333358,21.1368
1495978128,400.9333333358,18.049
1495978130,448.9333333358,19.7526
1495978132,386.5333333358,20.5092
1495978134,386.5333333358,25.8913
1495978136,369.7333333358,20.042
1495978138,386.5333333358,19.5244
1495978140,465.7333333358,21.0435
1495978142,465.7333333358,19.9292
1495978144,379.3333333358,19.697
1495978146,379.3333333358,23.9872
1495978148,376.9333333358,19.4524
1495978150,396.1333333358,17.373
1495978152,434.5333333358,20.0617
1495978154,391.3333333358,22.7316
1495978156,379.3333333358,18.9252
1495978158,357.7333333358,24.3671
1495978160,398.5333333358,20.8278
1495978162,381.7333333358,20.9481
1495978164,384.1333333358,22.5434
1495978166,429.7333333358,18.4365
1495978168,372.1333333358,21.165
1495978170,384.1333333358,23.6116
1495978172,412.9333333358,19.1709
1495978174,364.9333333358,21.8878
1495978176,388.9333333358,19.4035
1495978178,410.5333333358,21.4664
1495978180,364.9333333358,21.8488
1495978182,400.9333333358,20.1733
1495978184,393.7333333358,15.9717
1495978186,360.1333333358,18.4013
1495978188,379.3333333358,14.5566
1495978190,362.5333333358,21.4915
1495978192,448.9333333358,23.0508
1495978194,386.5333333358,17.2473
1495978196,379.3333333358,24.0663
1495978198,376.9333333358,26.2307
1495978200,357.7333333358,20.0781
1495978202,405.7333333358,22.5948
1495978204,436.9333333358,20.7101
1495978206,408.1333333358,22.7349
1495978208,374.5333333358,26.8554
1495978210,420.1333333358,24.5372
1495978212,381.7333333358,23.6333
1495978214,381.7333333358,17.9042
1495978216,386.5333333358,22.591
1495978218,393.7333333358,17.2232
1495978220,415.3333333358,20.0809
1495978222,439.3333333358,22.5456
1495978224,432.1333333358,22.7932
1495978226,386.5333333358,22.339
1495978228,412.9333333358,24.4051
1495978230,441.7333333358,23.1668
1495978232,398.5333333358,22.905
1495978234,391.3333333358,27.7186
1495978236,482.5333333358,26.3818
1495978238,429.7333333358,24.3545
1495978240,458.5333333358,25.352
1495978242,391.3333333358,25.0474
1495978244,410.5333333358,27.492
1495978246,408.1333333358,25.9341
1495978248,460.9333333358,21.7542
1495978250,441.7333333358,21.746
1495978252,439.3333333358,19.3427
1495978254,410.5333333358,18.9945
1495978256,415.3333333358,12.6147
1495978258,400.9333333358,19.7851
1495978260,396.1333333358,21.4697
1495978262,460.9333333358,25.8867
1495978264,434.5333333358,23.8629
1495978266,396.1333333358,17.9643
1495978268,393.7333333358,22.9424
1495978270,424.9333333358,19.7486
1495978272,396.1333333358,21.5194
1495978274,451.3333333358,20.7795
1495978276,391.3333333358,20.1042
1495978278,403.3333333358,17.1312
1495978280,405.7333333358,18.4172
1495978282,405.7333333358,20.4304
1495978284,396.1333333358,19.5093
1495978286,417.7333333358,19.9973
1495978288,328.9333333358,18.8623
1495978290,388.9333333358,18.7658
1495978292,340.9333333358,20.2206
1495978294,396.1333333358,20.488
1495978296,345.7333333358,22.1521
1495978298,360.1333333358,24.0278
1495978300,384.1333333358,22.7449
1495978302,376.9333333358,22.4597
1495978304,362.5333333358,17.4283
1495978306,393.7333333358,22.5054
1495978308,362.5333333358,20.8271
1495978310,391.3333333358,19.7973
1495978312,372.1333333358,17.4499
1495978314,367.3333333358,21.0514
1495978316,376.9333333358,17.2351
1495978318,403.3333333358,20.0854
1495978320,381.7333333358,22.7466
1495978322,412.9333333358,22.2268
1495978324,398.5333333358,23.9942
1495978326,374.5333333358,19.2016
1495978328,369.7333333358,21.268
1495978330,384.1333333358,18.9996
1495978332,386.5333333358,21.4532
1495978334,396.1333333358,18.7894
1495978336,400.9333333358,17.3942
1495978338,398.5333333358,17.6954
1495978340,355.3333333358,19.3936
1495978342,403.3333333358,19.9711
1495978344,403.3333333358,19.4078
1495978346,403.3333333358,19.1143
1495978348,393.7333333358,22.7001
1495978350,391.3333333358,19.1146
1495978352,376.9333333358,25.5153
1495978354,388.9333333358,19.145
1495978356,410.5333333358,20.146
1495978358,376.9333333358,21.7171
1495978360,400.9333333358,18.7826
1495978362,444.1333333358,22.4662
1495978364,388.9333333358,23.2109
1495978366,391.3333333358,24.5684
1495978368,415.3333333358,16.821
1495978370,369.7333333358,25.2053
1495978372,391.3333333358,24.4852
1495978374,427.3333333358,19.9429
1495978376,379.3333333358,21.7777
1495978378,408.1333333358,19.1339
1495978380,393.7333333358,21.2009
1495978382,420.1333333358,21.1383
1495978384,386.5333333358,19.0054
1495978386,417.7333333358,23.382
1495978388,391.3333333358,16.5703
1495978390,372.1333333358,20.6787
1495978392,405.7333333358,16.9184
1495978394,379.3333333358,19.0357
1495978396,396.1333333358,14.651
1495978398,398.5333333358,15.7566
1495978400,403.3333333358,17.7976
1495978402,410.5333333358,16.5608
1495978404,396.1333333358,17.9352
1495978406,403.3333333358,21.0764
1495978408,391.3333333358,18.4622
1495978410,396.1333333358,13.3957
1495978412,374.5333333358,15.6998
1495978414,381.7333333358,17.7741
1495978416,405.7333333358,13.6878
1495978418,432.1333333358,16.3247
1495978420,376.9333333358,17.2755
1495978422,396.1333333358,17.4977
1495978424,405.7333333358,19.1312
1495978426,362.5333333358,20.2595
1495978428,400.9333333358,19.5557
1495978430,403.3333333358,17.7067
1495978432,398.5333333358,17.7317
1495978434,388.9333333358,20.7444
1495978436,427.3333333358,14.8903
1495978438,412.9333333358,14.5021
1495978440,391.3333333358,13.5101
1495978442,393.7333333358,16.6444
1495978444,372.1333333358,21.2363
1495978446,372.1333333358,16.5476
1495978448,410.5333333358,16.0872
1495978450,393.7333333358,18.2567
1495978452,496.9333333358,14.6062
1495978454,393.7333333358,18.023
1495978456,412.9333333358,17.0374
1495978458,412.9333333358,19.183
1495978460,384.1333333358,15.7636
1495978462,400.9333333358,16.484
1495978464,405.7333333358,22.8596
1495978466,362.5333333358,18.2942
1495978468,362.5333333358,17.6121
1495978470,396.1333333358,19.1354
1495978472,331.3333333358,14.2792
1495978474,379.3333333358,18.7765
1495978476,432.1333333358,20.4676
1495978478,393.7333333358,15.0913
1495978480,379.3333333358,19.9444
1495978482,364.9333333358,15.9391
1495978484,388.9333333358,18.035
1495978486,391.3333333358,16.9412
1495978488,446.5333333358,15.3087
1495978490,424.9333333358,20.4623
1495978492,384.1333333358,22.6327
1495978494,403.3333333358,21.3319
1495978496,374.5333333358,19.7895
1495978498,350.5333333358,21.1334
1495978500,376.9333333358,21.7435
1495978502,386.5333333358,19.8514
1495978504,352.9333333358,17.8922
1495978506,415.3333333358,16.627
1495978508,379.3333333358,20.6438
1495978510,367.3333333358,19.3633
1495978512,405.7333333358,23.8885
1495978514,398.5333333358,22.7594
1495978516,415.3333333358,21.0947
1495978518,396.1333333358,22.4471
1495978520,381.7333333358,20.09
1495978522,384.1333333358,22.8215
1495978524,420.1333333358,26.0035
1495978526,436.9333333358,21.624
1495978528,434.5333333358,24.717
1495978530,403.3333333358,24.716
1495978532,410.5333333358,19.432
1495978534,398.5333333358,19.4703
1495978536,393.7333333358,22.9685
1495978538,372.1333333358,23.2027
1495978540,417.7333333358,23.2261
1495978542,376.9333333358,17.619
1495978544,408.1333333358,19.0456
1495978546,432.1333333358,28.387
1495978548,400.9333333358,21.8438
1495978550,417.7333333358,21.5735
1495978552,412.9333333358,21.6676
1495978554,403.3333333358,22.05
1495978556,408.1333333358,21.5378
1495978558,436.9333333358,18.4485
1495978560,400.9333333358,14.7268
1495978562,376.9333333358,19.0445
1495978564,398.5333333358,20.2672
1495978566,376.9333333358,21.4391
1495978568,393.7333333358,19.7139
1495978570,408.1333333358,21.952
1495978572,427.3333333358,17.3538
1495978574,369.7333333358,22.0986
1495978576,420.1333333358,20.0617
1495978578,405.7333333358,19.7406
1495978580,403.3333333358,19.8534
1495978582,374.5333333358,19.9321
1495978584,434.5333333358,21.4305
1495978586,398.5333333358,19.7498
1495978588,405.7333333358,23.6893
1495978590,444.1333333358,21.2037
1495978592,465.7333333358,24.4359
1495978594,362.5333333358,28.2533
1495978596,400.9333333358,22.8158
1495978598,396.1333333358,22.7019
1495978600,386.5333333358,18.0019
1495978602,376.9333333358,15.159
1495978604,424.9333333358,20.4511
1495978606,357.7333333358,21.0377
1495978608,381.7333333358,16.2867
1495978610,420.1333333358,15.4972
1495978612,393.7333333358,16.0442
1495978614,386.5333333358,16.1506
1495978616,400.9333333358,15.7263
1495978618,420.1333333358,19.9698
1495978620,372.1333333358,18.4643
1495978622,391.3333333358,16.1155
1495978624,427.3333333358,13.3932
1495978626,336.1333333358,20.5855
1495978628,379.3333333358,20.771
1495978630,460.9333333358,19.5946
1495978632,408.1333333358,20.1148
1495978634,410.5333333358,21.9189
1495978636,398.5333333358,22.2024
1495978638,379.3333333358,24.2304
1495978640,384.1333333358,22.9167
1495978642,388.9333333358,18.3127
1495978644,391.3333333358,19.197
1495978646,391.3333333358,19.9142
1495978648,410.5333333358,20.6685
1495978650,345.7333333358,22.6395
1495978652,386.5333333358,22.9334
1495978654,405.7333333358,24.6115
1495978656,408.1333333358,18.235
1495978658,391.3333333358,19.4156
1495978660,415.3333333358,17.8708
1495978662,398.5333333358,21.0695
1495978664,355.3333333358,19.946
1495978666,360.1333333358,20.7155
1495978668,393.7333333358,18.3504
1495978670,367.3333333358,17.2647
1495978672,369.7333333358,14.9406
1495978674,405.7333333358,15.0391
1495978676,376.9333333358,17.7033
1495978678,348.1333333358,18.706
1495978680,386.5333333358,18.4714
1495978682,367.3333333358,19.9646
1495978684,352.9333333358,22.4961
1495978686,396.1333333358,16.516
1495978688,372.1333333358,21.1552
1495978690,374.5333333358,21.3198
1495978692,360.1333333358,18.0931
1495978694,379.3333333358,18.8881
1495978696,338.5333333358,19.719
1495978698,396.1333333358,18.4022
1495978700,364.9333333358,19.3127
1495978702,374.5333333358,20.2533
1495978704,388.9333333358,18.2103
1495978706,376.9333333358,20.6731
1495978708,357.7333333358,20.2613
1495978710,376.9333333358,20.1754
1495978712,391.3333333358,19.8307
1495978714,398.5333333358,18.558
1495978716,388.9333333358,20.2391
1495978718,410.5333333358,24.2616
1495978720,372.1333333358,19.3954
1495978722,429.7333333358,20.1097
1495978724,408.1333333358,18.2573
1495978726,386.5333333358,18.9148
1495978728,388.9333333358,19.0262
1495978730,388.9333333358,21.7526
1495978732,441.7333333358,15.5625
1495978734,420.1333333358,22.05
1495978736,415.3333333358,19.4084
1495978738,386.5333333358,21.6859
1495978740,367.3333333358,18.9533
1495978742,412.9333333358,19.9949
1495978744,393.7333333358,18.9055
1495978746,374.5333333358,20.3021
1495978748,391.3333333358,25.083
1495978750,400.9333333358,19.7728
1495978752,381.7333333358,18.3158
1495978754,379.3333333358,21.5709
1495978756,432.1333333358,22.1412
1495978758,364.9333333358,18.0408
1495978760,415.3333333358,22.2036
1495978762,412.9333333358,20.8456
1495978764,386.5333333358,22.1067
1495978766,403.3333333358,22.2064
1495978768,420.1333333358,21.9692
1495978770,405.7333333358,24.6438
1495978772,398.5333333358,22.2817
1495978774,410.5333333358,22.2702
1495978776,386.5333333358,21.1686
1495978778,381.7333333358,18.7803
1495978780,405.7333333358,26.1451
1495978782,386.5333333358,23.17
1495978784,417.7333333358,21.4563
1495978786,410.5333333358,20.139
1495978788,391.3333333358,20.8234
1495978790,398.5333333358,24.0109
1495978792,484.9333333358,23.8148
1495978794,415.3333333358,25.5572
1495978796,448.9333333358,23.4545
1495978798,456.1333333358,23.7216
1495978800,513.7333333358,22.4227
1495978802,403.3333333358,22.8946
1495978804,427.3333333358,22.3268
1495978806,439.3333333358,22.2091
1495978808,417.7333333358,23.7381
1495978810,465.7333333358,25.6482
1495978812,396.1333333358,23.6034
1495978814,427.3333333358,23.481
1495978816,463.3333333358,25.196
1495978818,487.3333333358,23.9929
1495978820,422.5333333358,22.965
1495978822,412.9333333358,23.4167
1495978824,439.3333333358,24.3385
1495978826,465.7333333358,27.796
1495978828,429.7333333358,25.0632
1495978830,439.3333333358,22.7649
1495978832,444.1333333358,22.3544
1495978834,429.7333333358,17.806
1495978836,496.9333333358,24.8141
1495978838,506.5333333358,21.6199
1495978840,386.5333333358,23.2229
1495978842,453.7333333358,19.5211
1495978844,410.5333333358,16.1273
1495978846,448.9333333358,19.4948
1495978848,364.9333333358,15.8807
1495978850,487.3333333358,20.8887
1495978852,417.7333333358,20.689
1495978854,391.3333333358,25.2014
1495978856,420.1333333358,23.2037
1495978858,405.7333333358,25.2781
1495978860,436.9333333358,24.5554
1495978862,468.1333333358,24.7412
1495978864,439.3333333358,23.2975
1495978866,408.1333333358,22.9398
1495978868,412.9333333358,26.514
1495978870,403.3333333358,26.3504
1495978872,391.3333333358,24.7251
1495978874,400.9333333358,23.7907
1495978876,424.9333333358,24.2662
1495978878,415.3333333358,24.6622
1495978880,381.7333333358,18.1833
1495978882,379.3333333358,21.7438
1495978884,393.7333333358,23.6565
1495978886,381.7333333358,20.758
1495978888,374.5333333358,21.7436
1495978890,429.7333333358,18.4234
1495978892,381.7333333358,29.2169
1495978894,408.1333333358,26.654
1495978896,458.5333333358,29.9187
1495978898,420.1333333358,26.4423
1495978900,412.9333333358,22.2848
1495978902,451.3333333358,22.9384
1495978904,412.9333333358,26.1247
1495978906,415.3333333358,25.6115
1495978908,436.9333333358,25.0813
1495978910,448.9333333358,27.5934
1495978912,410.5333333358,22.2198
1495978914,398.5333333358,27.0179
1495978916,415.3333333358,25.6569
1495978918,434.5333333358,25.7207
1495978920,386.5333333358,24.5205
1495978922,434.5333333358,27.2278
1495978924,460.9333333358,25.6449
1495978926,501.7333333358,26.138
1495978928,530.5333333358,24.3589
1495978930,444.1333333358,21.4038
1495978932,487.3333333358,26.7507
1495978934,499.3333333358,30.8791
1495978936,441.7333333358,27.5246
1495978938,468.1333333358,23.5107
1495978940,403.3333333358,20.8538
1495978942,470.5333333358,22.6468
1495978944,446.5333333358,25.9501
1495978946,420.1333333358,23.7335
1495978948,458.5333333358,24.5993
1495978950,475.3333333358,23.4253
1495978952,444.1333333358,21.7121
1495978954,460.9333333358,15.5865
1495978956,376.9333333358,19.9872
1495978958,412.9333333358,20.3576
1495978960,412.9333333358,20.3991
1495978962,441.7333333358,15.3648
1495978964,436.9333333358,25.1946
1495978966,475.3333333358,20.8565
1495978968,458.5333333358,18.5254
1495978970,429.7333333358,20.6482
1495978972,441.7333333358,20.7066
1495978974,499.3333333358,18.5808
1495978976,434.5333333358,19.9456
1495978978,453.7333333358,14.0421
1495978980,489.7333333358,17.6591
1495978982,465.7333333358,17.9304
1495978984,492.1333333358,17.6433
1495978986,417.7333333358,16.3802
1495978988,451.3333333358,16.0968
1495978990,412.9333333358,22.7942
1495978992,434.5333333358,17.4268
1495978994,412.9333333358,24.4948
1495978996,427.3333333358,22.4684
1495978998,403.3333333358,16.4422
1495979000,451.3333333358,20.8927
1495979002,422.5333333358,21.2025
1495979004,439.3333333358,22.4332
1495979006,396.1333333358,23.2638
1495979008,448.9333333358,20.7321
1495979010,424.9333333358,25.9114
1495979012,496.9333333358,18.0164
1495979014,475.3333333358,21.3275
1495979016,542.5333333358,21.2343
1495979018,571.3333333358,17.9626
1495979020,602.5333333358,18.3696
1495979022,564.1333333358,21.0532
1495979024,573.7333333358,23.7536
1495979026,568.9333333358,20.5705
1495979028,568.9333333358,21.0631
1495979030,532.9333333358,22.6113
1495979032,561.7333333358,19.0342
1495979034,540.1333333358,21.4774
1495979036,547.3333333358,20.3478
1495979038,549.7333333358,18.3594
1495979040,561.7333333358,16.3797
1495979042,554.5333333358,20.4735
1495979044,561.7333333358,24.0166
1495979046,537.7333333358,25.527
1495979048,547.3333333358,18.9742
1495979050,580.9333333358,16.9969
1495979052,552.1333333358,15.2826
1495979054,552.1333333358,18.9996
1495979056,549.7333333358,16.3461
1495979058,530.5333333358,18.2225
1495979060,549.7333333358,22.5898
1495979062,528.1333333358,23.4157
1495979064,547.3333333358,22.1986
1495979066,530.5333333358,22.353
1495979068,540.1333333358,18.749
1495979070,532.9333333358,21.9884
1495979072,537.7333333358,21.2284
1495979074,554.5333333358,18.676
1495979076,566.5333333358,16.518
1495979078,544.9333333358,24.9837
1495979080,528.1333333358,21.0637
1495979082,520.9333333358,25.8964
1495979084,547.3333333358,25.1502
1495979086,516.1333333358,26.5944
1495979088,528.1333333358,28.5979
1495979090,513.7333333358,20.9994
1495979092,472.9333333358,17.2293
1495979094,513.7333333358,24.5277
1495979096,453.7333333358,23.6689
1495979098,528.1333333358,23.746
1495979100,501.7333333358,22.9234
1495979102,549.7333333358,28.5709
1495979104,535.3333333358,24.3651
1495979106,540.1333333358,23.7141
1495979108,499.3333333358,23.6828
1495979110,535.3333333358,23.5239
1495979112,523.3333333358,23.7403
1495979114,525.7333333358,22.1196
1495979116,506.5333333358,24.2258
1495979118,573.7333333358,23.4606
1495979120,535.3333333358,22.0785
1495979122,549.7333333358,18.6073
1495979124,523.3333333358,18.809
1495979126,561.7333333358,15.7215
1495979128,549.7333333358,17.7243
1495979130,537.7333333358,19.5892
1495979132,554.5333333358,22.5346
1495979134,542.5333333358,17.7184
1495979136,544.9333333358,24.503
1495979138,549.7333333358,17.5588
1495979140,547.3333333358,20.8564
1495979142,542.5333333358,17.1279
1495979144,542.5333333358,18.9737
1495979146,537.7333333358,17.3787
1495979148,530.5333333358,21.3474
1495979150,532.9333333358,20.2646
1495979152,492.1333333358,23.437
1495979154,561.7333333358,23.1086
1495979156,571.3333333358,18.3774
1495979158,499.3333333358,16.8491
1495979160,535.3333333358,16.5803
1495979162,518.5333333358,19.1358
1495979164,547.3333333358,19.9613
1495979166,549.7333333358,22.0789
1495979168,544.9333333358,27.2246
1495979170,559.3333333358,19.3693
1495979172,537.7333333358,21.6307
1495979174,530.5333333358,25.6862
1495979176,537.7333333358,21.2813
1495979178,542.5333333358,22.3059
1495979180,559.3333333358,23.4502
1495979182,530.5333333358,22.0154
1495979184,549.7333333358,22.8464
1495979186,542.5333333358,24.7414
1495979188,537.7333333358,21.1458
1495979190,532.9333333358,21.5781
1495979192,532.9333333358,23.2842
1495979194,547.3333333358,22.3214
1495979196,561.7333333358,16.3135
1495979198,542.5333333358,19.1048
1495979200,499.3333333358,16.0425
1495979202,556.9333333358,16.707
1495979204,549.7333333358,16.9417
1495979206,480.1333333358,20.5777
1495979208,520.9333333358,17.3158
1495979210,540.1333333358,20.6836
1495979212,542.5333333358,13.7056
1495979214,525.7333333358,16.7494
1495979216,532.9333333358,16.7629
1495979218,506.5333333358,16.45
1495979220,518.5333333358,15.469
1495979222,568.9333333358,19.0449
1495979224,513.7333333358,20.668
1495979226,540.1333333358,18.9777
1495979228,528.1333333358,17.7646
1495979230,528.1333333358,17.4048
1495979232,508.9333333358,16.7059
1495979234,571.3333333358,19.9879
1495979236,532.9333333358,18.7819
1495979238,535.3333333358,16.1673
1495979240,552.1333333358,19.4542
1495979242,525.7333333358,22.1788
1495979244,566.5333333358,18.143
1495979246,592.9333333358,16.7556
1495979248,540.1333333358,22.7831
1495979250,520.9333333358,19.1366
1495979252,535.3333333358,23.5432
1495979254,559.3333333358,24.3294
1495979256,568.9333333358,26.3838
1495979258,547.3333333358,25.1811
1495979260,530.5333333358,24.3338
1495979262,508.9333333358,19.5202
1495979264,540.1333333358,20.498
1495979266,528.1333333358,24.514
1495979268,542.5333333358,27.8323
1495979270,554.5333333358,25.074
1495979272,537.7333333358,19.999
1495979274,525.7333333358,16.2087
1495979276,480.1333333358,22.3236
1495979278,506.5333333358,24.6956
1495979280,518.5333333358,18.4931
1495979282,532.9333333358,17.0057
1495979284,518.5333333358,18.8131
1495979286,501.7333333358,17.8283
1495979288,540.1333333358,17.7787
1495979290,549.7333333358,18.7886
1495979292,537.7333333358,20.5462
1495979294,566.5333333358,18.8235
1495979296,530.5333333358,21.2759
1495979298,508.9333333358,16.4429
1495979300,520.9333333358,17.1031
1495979302,544.9333333358,20.2619
1495979304,523.3333333358,22.8873
1495979306,499.3333333358,20.5962
1495979308,528.1333333358,21.0803
1495979310,516.1333333358,23.0581
1495979312,532.9333333358,24.825
1495979314,523.3333333358,23.8421
1495979316,523.3333333358,26.897
1495979318,475.3333333358,21.4188
1495979320,496.9333333358,18.4308
1495979322,537.7333333358,22.273
1495979324,516.1333333358,21.0546
1495979326,508.9333333358,22.5128
1495979328,544.9333333358,25.1877
1495979330,544.9333333358,26.7152
1495979332,525.7333333358,21.8203
1495979334,525.7333333358,25.6885
1495979336,549.7333333358,24.4597
1495979338,484.9333333358,21.2474
1495979340,523.3333333358,22.8702
1495979342,540.1333333358,20.7122
1495979344,501.7333333358,23.7123
1495979346,535.3333333358,22.5445
1495979348,525.7333333358,21.2136
1495979350,501.7333333358,15.9622
1495979352,528.1333333358,20.2519
1495979354,489.7333333358,15.0811
1495979356,427.3333333358,16.5169
1495979358,520.9333333358,15.3282
1495979360,513.7333333358,18.6208
1495979362,508.9333333358,16.19
1495979364,516.1333333358,18.5372
1495979366,535.3333333358,19.4592
1495979368,465.7333333358,17.8087
1495979370,484.9333333358,17.192
1495979372,535.3333333358,13.6582
1495979374,520.9333333358,15.6318
1495979376,484.9333333358,18.4193
1495979378,496.9333333358,14.255
1495979380,460.9333333358,19.591
1495979382,470.5333333358,18.3678
1495979384,480.1333333358,18.6042
1495979386,501.7333333358,16.6082
1495979388,487.3333333358,22.0415
1495979390,530.5333333358,21.5329
1495979392,513.7333333358,21.4451
1495979394,484.9333333358,23.6672
1495979396,441.7333333358,21.2841
1495979398,475.3333333358,15.992
1495979400,465.7333333358,21.0565
1495979402,499.3333333358,19.8043
1495979404,429.7333333358,21.0128
1495979406,436.9333333358,17.8607
1495979408,429.7333333358,19.489
1495979410,489.7333333358,17.0474
1495979412,489.7333333358,23.3529
1495979414,482.5333333358,23.0628
1495979416,482.5333333358,23.8482
1495979418,501.7333333358,14.8874
1495979420,506.5333333358,19.6466
1495979422,487.3333333358,21.7301
1495979424,472.9333333358,18.7811
1495979426,480.1333333358,18.4389
1495979428,463.3333333358,19.5777
1495979430,501.7333333358,23.4612
1495979432,434.5333333358,22.9739
1495979434,460.9333333358,20.6133
1495979436,465.7333333358,16.0468
1495979438,484.9333333358,18.5154
1495979440,513.7333333358,19.9357
1495979442,518.5333333358,20.4805
1495979444,523.3333333358,15.5602
1495979446,525.7333333358,18.0594
1495979448,504.1333333358,20.0064
1495979450,506.5333333358,20.1332
1495979452,506.5333333358,21.2094
1495979454,607.3333333358,19.291
1495979456,566.5333333358,20.1341
1495979458,588.1333333358,21.1181
1495979460,585.7333333358,18.9023
1495979462,607.3333333358,20.09
1495979464,588.1333333358,19.7463
1495979466,667.3333333358,16.9238
1495979468,631.3333333358,20.1556
1495979470,607.3333333358,16.1043
1495979472,674.5333333358,20.8011
1495979474,628.9333333358,21.2811
1495979476,700.9333333358,19.1753
1495979478,626.5333333358,22.8053
1495979480,667.3333333358,22.0909
1495979482,626.5333333358,18.147
1495979484,674.5333333358,21.3935
1495979486,619.3333333358,18.6697
1495979490,612.1333333358,20.0865
1495979492,633.7333333358,22.7699
1495979494,573.7333333358,22.3331
1495979496,585.7333333358,23.6465
1495979498,628.9333333358,25.7547
1495979500,554.5333333358,23.848
1495979502,554.5333333358,22.5632
1495979504,554.5333333358,17.974
1495979506,518.5333333358,20.0278
1495979508,530.5333333358,18.8311
1495979510,542.5333333358,24.0183
1495979512,540.1333333358,17.4887
1495979514,564.1333333358,18.2288
1495979516,535.3333333358,15.9607
1495979518,561.7333333358,17.6056
1495979520,542.5333333358,20.9272
1495979522,607.3333333358,21.4144
1495979524,544.9333333358,22.7741
1495979526,566.5333333358,17.2466
1495979528,614.5333333358,19.038
1495979530,554.5333333358,20.2864
1495979532,602.5333333358,24.9142
1495979534,592.9333333358,22.7642
1495979536,554.5333333358,18.8611
1495979538,547.3333333358,20.2248
1495979540,607.3333333358,20.6284
1495979542,602.5333333358,20.6703
1495979544,585.7333333358,20.8041
1495979546,607.3333333358,22.4958
1495979548,561.7333333358,25.2056
1495979550,544.9333333358,22.1332
1495979552,602.5333333358,21.1129
1495979554,561.7333333358,20.1587
1495979556,566.5333333358,26.4293
1495979558,561.7333333358,17.0274
1495979560,578.5333333358,18.4531
1495979562,549.7333333358,17.6951
1495979564,602.5333333358,22.2097
1495979566,561.7333333358,20.2402
1495979568,535.3333333358,21.7868
1495979570,590.5333333358,21.6372
1495979572,544.9333333358,19.8496
1495979574,542.5333333358,18.1984
1495979576,552.1333333358,23.0642
1495979578,602.5333333358,21.2288
1495979580,554.5333333358,21.8737
1495979582,573.7333333358,23.8905
1495979584,535.3333333358,26.3535
1495979586,542.5333333358,24.2215
1495979588,542.5333333358,23.1651
1495979590,547.3333333358,20.6029
1495979592,506.5333333358,19.4644
1495979594,547.3333333358,21.7442
1495979596,561.7333333358,13.8462
1495979598,520.9333333358,15.0948
1495979600,528.1333333358,16.9837
1495979602,549.7333333358,17.9579
1495979604,508.9333333358,17.5518
1495979606,540.1333333358,15.8678
1495979608,528.1333333358,17.133
1495979610,528.1333333358,11.9049
1495979612,547.3333333358,15.1195
1495979614,542.5333333358,15.6184
1495979616,525.7333333358,16.4069
1495979618,540.1333333358,17.8778
1495979620,532.9333333358,18.1233
1495979622,499.3333333358,18.9919
1495979624,528.1333333358,21.06
1495979626,496.9333333358,20.1613
1495979628,439.3333333358,23.5471
1495979630,504.1333333358,13.9991
1495979632,528.1333333358,8.63127
1495979634,532.9333333358,17.265
1495979636,499.3333333358,17.6937
1495979638,508.9333333358,12.6747
1495979640,506.5333333358,18.1964
1495979642,520.9333333358,20.3195
1495979644,504.1333333358,22.4463
1495979646,511.3333333358,22.4585
1495979648,489.7333333358,21.2509
1495979650,458.5333333358,19.0632
1495979652,535.3333333358,18.6764
1495979654,520.9333333358,18.5173
1495979656,523.3333333358,20.7258
1495979658,487.3333333358,22.974
1495979660,460.9333333358,22.1496
1495979662,544.9333333358,18.6419
1495979664,480.1333333358,21.561
1495979666,501.7333333358,24.1591
1495979668,540.1333333358,19.7432
1495979670,496.9333333358,17.7254
1495979672,532.9333333358,16.7783
1495979674,552.1333333358,16.1608
1495979676,537.7333333358,15.5823
1495979678,530.5333333358,21.8501
1495979680,542.5333333358,22.7018
1495979682,494.5333333358,25.2259
1495979684,530.5333333358,20.3275
1495979686,549.7333333358,13.5746
1495979688,508.9333333358,14.7777
1495979690,554.5333333358,16.9671
1495979692,547.3333333358,18.7264
1495979694,528.1333333358,23.7292
1495979696,537.7333333358,20.3897
1495979698,544.9333333358,16.5017
1495979700,590.5333333358,19.324
1495979702,532.9333333358,18.6544
1495979704,561.7333333358,20.004
1495979706,540.1333333358,25.0767
1495979708,532.9333333358,25.2519
1495979710,544.9333333358,23.5472
1495979712,552.1333333358,19.4611
1495979714,540.1333333358,20.683
1495979716,573.7333333358,13.3427
1495979718,578.5333333358,12.23
1495979720,547.3333333358,16.2954
1495979722,592.9333333358,17.8886
1495979724,612.1333333358,18.1057
1495979726,566.5333333358,16.6809
1495979728,554.5333333358,17.3924
1495979730,607.3333333358,19.4498
1495979732,559.3333333358,19.1259
1495979734,604.9333333358,18.2039
1495979736,607.3333333358,14.1327
1495979738,544.9333333358,18.0476
1495979740,609.7333333358,11.2965
1495979742,576.1333333358,14.8458
1495979744,576.1333333358,17.4095
1495979746,585.7333333358,20.2474
1495979748,559.3333333358,25.1407
1495979750,518.5333333358,20.9588
1495979752,540.1333333358,20.8857
1495979754,592.9333333358,19.2121
1495979756,604.9333333358,17.727
1495979758,566.5333333358,15.5912
1495979760,602.5333333358,18.3665
1495979762,595.3333333358,17.4002
1495979764,590.5333333358,15.0742
1495979766,621.7333333358,17.6485
1495979768,628.9333333358,24.748
1495979770,616.9333333358,23.1702
1495979772,628.9333333358,21.6724
1495979774,633.7333333358,19.2183
1495979776,628.9333333358,14.2362
1495979778,597.7333333358,14.2622
1495979780,616.9333333358,16.4037
1495979782,619.3333333358,15.6503
1495979784,604.9333333358,16.1505
1495979786,624.1333333358,17.7547
1495979788,612.1333333358,18.6498
1495979790,612.1333333358,18.8595
1495979792,619.3333333358,21.8949
1495979794,585.7333333358,23.005
1495979796,590.5333333358,27.0753
1495979798,588.1333333358,21.9159
1495979800,612.1333333358,21.2449
1495979802,564.1333333358,21.3904
1495979804,552.1333333358,23.0994
1495979806,590.5333333358,22.2424
1495979808,492.1333333358,22.3619
1495979810,564.1333333358,23.6719
1495979812,530.5333333358,20.8643
1495979814,508.9333333358,19.5682
1495979816,523.3333333358,17.6261
1495979818,540.1333333358,21.1987
1495979820,547.3333333358,22.8691
1495979822,508.9333333358,22.7888
1495979824,592.9333333358,18.971
1495979826,573.7333333358,22.5748
1495979828,576.1333333358,26.789
1495979830,590.5333333358,25.3652
1495979832,559.3333333358,20.2106
1495979834,573.7333333358,25.6988
1495979836,602.5333333358,23.6772
1495979838,559.3333333358,28.1168
1495979840,530.5333333358,20.9892
1495979842,535.3333333358,22.7241
1495979844,597.7333333358,21.3292
1495979846,532.9333333358,21.8697
1495979848,532.9333333358,17.9043
1495979850,547.3333333358,21.6532
1495979852,564.1333333358,24.1563
1495979854,544.9333333358,26.5443
1495979856,609.7333333358,28.024
1495979858,535.3333333358,25.5958
1495979860,552.1333333358,26.0739
1495979862,564.1333333358,25.6193
1495979864,576.1333333358,28.9511
1495979866,528.1333333358,20.3513
1495979868,578.5333333358,19.5292
1495979870,540.1333333358,23.4548
1495979872,549.7333333358,23.3924
1495979874,576.1333333358,20.5995
1495979876,585.7333333358,23.2473
1495979878,542.5333333358,23.9895
1495979880,561.7333333358,24.5395
1495979882,585.7333333358,19.9306
1495979884,552.1333333358,24.2264
1495979886,549.7333333358,23.6283
1495979888,542.5333333358,21.3148
1495979890,556.9333333358,25.5818
1495979892,556.9333333358,22.6843
1495979894,537.7333333358,21.7875
1495979896,530.5333333358,21.6573
1495979898,530.5333333358,25.4815
1495979900,564.1333333358,27.5445
1495979902,552.1333333358,23.4041
1495979904,523.3333333358,25.3075
1495979906,619.3333333358,27.231
1495979908,547.3333333358,25.445
1495979910,537.7333333358,27.2443
1495979912,535.3333333358,23.3959
1495979914,568.9333333358,23.451
1495979916,559.3333333358,21.6422
1495979918,549.7333333358,24.7171
1495979920,561.7333333358,27.3499
1495979922,564.1333333358,26.7873
1495979924,554.5333333358,23.8797
1495979926,576.1333333358,22.1508
1495979928,597.7333333358,27.0003
1495979930,604.9333333358,24.4282
1495979932,655.3333333358,27.2675
1495979934,636.1333333358,22.9718
1495979936,609.7333333358,24.1557
1495979938,638.5333333358,26.4156
1495979940,681.7333333358,23.3507
1495979942,616.9333333358,25.9555
1495979944,686.5333333358,29.3321
1495979946,614.5333333358,23.8816
1495979948,672.1333333358,27.4198
1495979950,633.7333333358,24.1229
1495979952,645.7333333358,25.3006
1495979954,636.1333333358,26.646
1495979956,672.1333333358,25.3906
1495979958,674.5333333358,30.4452
1495979960,667.3333333358,25.5196
1495979962,727.3333333358,23.8039
1495979964,684.1333333358,18.1085
1495979966,662.5333333358,17.7556
1495979968,669.7333333358,16.834
1495979970,696.1333333358,20.4592
1495979972,602.5333333358,18.777
1495979974,609.7333333358,17.1966
1495979976,588.1333333358,18.7678
1495979978,607.3333333358,18.3088
1495979980,624.1333333358,18.9459
1495979982,621.7333333358,18.4134
1495979984,556.9333333358,19.5391
1495979986,645.7333333358,16.931
1495979988,633.7333333358,17.5503
1495979990,600.1333333358,23.808
1495979992,621.7333333358,18.8127
1495979994,616.9333333358,19.8437
1495979996,614.5333333358,21.6579
1495979998,580.9333333358,21.3384
1495980000,660.1333333358,13.4465
1495980002,576.1333333358,16.2374
1495980004,590.5333333358,11.3
1495980006,652.9333333358,16.0315
1495980008,616.9333333358,20.0953
1495980010,648.1333333358,15.6802
1495980012,645.7333333358,16.059
1495980014,650.5333333358,14.8564
1495980016,604.9333333358,10.5439
1495980018,688.9333333358,14.4295
1495980020,614.5333333358,19.2043
1495980022,580.9333333358,18.3876
1495980024,616.9333333358,18.4747
1495980026,616.9333333358,20.0127
1495980028,616.9333333358,19.0133
1495980030,619.3333333358,22.0946
1495980032,612.1333333358,20.8497
1495980034,616.9333333358,19.209
1495980036,612.1333333358,21.3063
1495980038,624.1333333358,23.4683
1495980040,578.5333333358,20.6277
1495980042,602.5333333358,21.3324
1495980044,604.9333333358,21.0653
1495980046,604.9333333358,19.7366
1495980048,638.5333333358,17.2707
1495980050,597.7333333358,17.8569
1495980052,633.7333333358,23.4704
1495980054,645.7333333358,20.7678
1495980056,717.7333333358,21.5316
1495980058,650.5333333358,26.1886
1495980060,604.9333333358,22.5996
1495980062,607.3333333358,24.2059
1495980064,614.5333333358,17.5414
1495980066,619.3333333358,22.3204
1495980068,607.3333333358,18.5045
1495980070,600.1333333358,19.734
1495980072,600.1333333358,20.3205
1495980074,568.9333333358,21.4151
1495980076,616.9333333358,18.1608
1495980078,604.9333333358,14.8461
1495980080,648.1333333358,21.8945
1495980082,609.7333333358,14.2901
1495980084,595.3333333358,13.2691
1495980086,624.1333333358,18.3855
1495980088,583.3333333358,21.9697
1495980090,595.3333333358,20.0153
1495980092,604.9333333358,21.4429
1495980094,602.5333333358,21.6269
1495980096,559.3333333358,22.2017
1495980098,638.5333333358,15.193
1495980100,619.3333333358,23.0322
1495980102,628.9333333358,23.4883
1495980104,626.5333333358,25.7403
1495980106,624.1333333358,24.6565
1495980108,655.3333333358,23.4502
1495980110,631.3333333358,23.7409
1495980112,588.1333333358,20.6228
1495980114,612.1333333358,22.434
1495980116,602.5333333358,17.4352
1495980118,592.9333333358,20.7512
1495980120,590.5333333358,23.6433
1495980122,607.3333333358,23.241
1495980124,607.3333333358,21.4591
1495980126,609.7333333358,23.191
1495980128,619.3333333358,22.8076
1495980130,554.5333333358,18.6519
1495980132,549.7333333358,21.2065
1495980134,600.1333333358,21.1977
1495980136,561.7333333358,19.656
1495980138,573.7333333358,21.4112
1495980140,561.7333333358,25.4193
1495980142,578.5333333358,23.368
1495980144,580.9333333358,19.1117
1495980146,590.5333333358,25.7862
1495980148,564.1333333358,25.7005
1495980150,571.3333333358,21.5734
1495980152,564.1333333358,17.777
1495980154,561.7333333358,18.207
1495980156,564.1333333358,19.9845
1495980158,571.3333333358,23.2005
1495980160,607.3333333358,19.622
1495980162,535.3333333358,22.0404
1495980164,537.7333333358,17.9463
1495980166,576.1333333358,15.0123
1495980168,554.5333333358,19.4618
1495980170,626.5333333358,22.3805
1495980172,602.5333333358,20.421
1495980174,549.7333333358,20.0126
1495980176,561.7333333358,20.172
1495980178,571.3333333358,19.8184
1495980180,549.7333333358,20.7431
1495980182,544.9333333358,24.8827
1495980184,571.3333333358,20.705
1495980186,547.3333333358,22.6669
1495980188,554.5333333358,20.9382
1495980190,465.7333333358,20.9105
1495980192,446.5333333358,19.7698
1495980194,480.1333333358,18.543
1495980196,470.5333333358,17.26
1495980198,410.5333333358,18.0358
1495980200,436.9333333358,16.2129
1495980202,424.9333333358,26.476
1495980204,420.1333333358,24.7467
1495980206,412.9333333358,23.2403
1495980208,460.9333333358,26.5341
1495980210,384.1333333358,19.4767
1495980212,415.3333333358,24.415
1495980214,429.7333333358,17.2221
1495980216,408.1333333358,18.8712
1495980218,429.7333333358,21.2321
1495980220,441.7333333358,19.1644
1495980222,460.9333333358,23.5576
1495980224,396.1333333358,17.6597
1495980226,393.7333333358,19.6064
1495980228,405.7333333358,24.5387
1495980230,388.9333333358,24.7422
1495980232,424.9333333358,20.6437
1495980234,420.1333333358,20.7772
1495980236,388.9333333358,30.4156
1495980238,355.3333333358,27.4838
1495980240,405.7333333358,26.8225
1495980242,403.3333333358,24.2559
1495980244,408.1333333358,17.8593
1495980246,429.7333333358,19.5247
1495980248,398.5333333358,14.0291
1495980250,446.5333333358,17.0804
1495980252,468.1333333358,21.4236
1495980254,381.7333333358,19.9829
1495980256,388.9333333358,18.061
1495980258,484.9333333358,20.1251
1495980260,408.1333333358,23.6355
1495980262,386.5333333358,22.4594
1495980264,417.7333333358,21.4415
1495980266,417.7333333358,20.9854
1495980268,410.5333333358,21.6282
1495980270,398.5333333358,20.9791
1495980272,391.3333333358,19.6266
1495980274,422.5333333358,19.7875
1495980276,400.9333333358,18.0303
1495980278,417.7333333358,18.8508
1495980280,396.1333333358,17.8616
1495980282,470.5333333358,19.3331
1495980284,427.3333333358,21.2848
1495980286,415.3333333358,20.8889
1495980288,408.1333333358,19.3528
1495980290,487.3333333358,20.1592
1495980292,453.7333333358,24.2447
1495980294,412.9333333358,21.4931
1495980296,396.1333333358,21.0055
1495980298,396.1333333358,24.0668
1495980300,391.3333333358,24.4804
1495980302,398.5333333358,22.3151
1495980304,434.5333333358,16.7637
1495980306,446.5333333358,20.2752
1495980308,434.5333333358,16.5705
1495980310,444.1333333358,16.8433
1495980312,446.5333333358,22.2253
1495980314,508.9333333358,15.8947
1495980316,458.5333333358,16.3902
1495980318,432.1333333358,20.7876
1495980320,444.1333333358,18.5527
1495980322,434.5333333358,20.9812
1495980324,396.1333333358,22.1968
1495980326,436.9333333358,21.2822
1495980328,398.5333333358,23.2486
1495980330,417.7333333358,23.3647
1495980332,367.3333333358,18.7228
1495980334,429.7333333358,13.3637
1495980336,429.7333333358,17.8527
1495980338,410.5333333358,14.9155
1495980340,453.7333333358,20.3893
1495980342,379.3333333358,21.2659
1495980344,376.9333333358,17.6335
1495980346,446.5333333358,19.4374
1495980348,434.5333333358,24.9291
1495980350,427.3333333358,22.6958
1495980352,484.9333333358,15.6715
1495980354,405.7333333358,16.7044
1495980356,410.5333333358,20.6577
1495980358,384.1333333358,16.3436
1495980360,468.1333333358,16.9357
1495980362,379.3333333358,16.4239
1495980364,410.5333333358,20.9789
1495980366,436.9333333358,18.7799
1495980368,403.3333333358,17.598
1495980370,403.3333333358,17.8586
1495980372,494.5333333358,20.1217
1495980374,420.1333333358,20.6802
1495980376,475.3333333358,18.2047
1495980378,439.3333333358,18.972
1495980380,415.3333333358,21.1426
1495980382,410.5333333358,19.7335
1495980384,429.7333333358,18.2292
1495980386,436.9333333358,17.1356
1495980388,436.9333333358,23.6033
1495980390,388.9333333358,20.3836
1495980392,405.7333333358,20.9291
1495980394,427.3333333358,20.7332
1495980396,391.3333333358,19.9681
1495980398,400.9333333358,19.9461
1495980400,379.3333333358,22.122
1495980402,400.9333333358,18.8606
1495980404,388.9333333358,18.6162
1495980406,403.3333333358,18.9344
1495980408,439.3333333358,19.9446
1495980410,448.9333333358,13.4911
1495980412,398.5333333358,17.0726
1495980414,405.7333333358,16.5178
1495980416,487.3333333358,15.0821
1495980418,408.1333333358,14.7373
1495980420,376.9333333358,15.9646
1495980422,408.1333333358,19.0854
1495980424,396.1333333358,14.0878
1495980426,427.3333333358,14.3518
1495980428,398.5333333358,19.4937
1495980430,386.5333333358,17.9751
1495980432,424.9333333358,20.8307
1495980434,386.5333333358,21.2664
1495980436,391.3333333358,16.0312
1495980438,396.1333333358,18.8208
1495980440,386.5333333358,21.0999
1495980442,403.3333333358,17.6323
1495980444,412.9333333358,15.6607
1495980446,398.5333333358,24.4061
1495980448,475.3333333358,20.2386
1495980450,400.9333333358,21.0157
1495980452,386.5333333358,14.3887
1495980454,388.9333333358,18.9396
1495980456,410.5333333358,20.7546
1495980458,453.7333333358,16.788
1495980460,391.3333333358,17.0243
1495980462,386.5333333358,16.006
1495980464,403.3333333358,15.1227
1495980466,393.7333333358,20.1096
1495980468,398.5333333358,20.7144
1495980470,381.7333333358,19.5042
1495980472,420.1333333358,20.1116
1495980474,374.5333333358,21.8355
1495980476,381.7333333358,18.4058
1495980478,472.9333333358,19.7869
1495980480,391.3333333358,22.8281
1495980482,424.9333333358,19.6866
1495980484,432.1333333358,17.3455
1495980486,446.5333333358,19.5379
1495980488,482.5333333358,21.8931
1495980490,501.7333333358,21.7191
1495980492,487.3333333358,24.3316
1495980494,532.9333333358,25.4742
1495980496,566.5333333358,25.201
1495980498,549.7333333358,22.8
1495980500,499.3333333358,19.6599
1495980502,508.9333333358,19.9808
1495980504,547.3333333358,19.7632
1495980506,549.7333333358,22.795
1495980508,516.1333333358,22.4843
1495980510,523.3333333358,23.7154
1495980512,542.5333333358,22.8283
1495980514,532.9333333358,23.3826
1495980516,564.1333333358,21.9676
1495980518,513.7333333358,21.1605
1495980520,549.7333333358,19.33
1495980522,542.5333333358,13.7029
1495980524,544.9333333358,18.3323
1495980526,537.7333333358,20.5018
1495980528,501.7333333358,22.0391
1495980530,463.3333333358,21.2109
1495980532,518.5333333358,25.7333
1495980534,482.5333333358,25.4338
1495980536,468.1333333358,22.6913
1495980538,492.1333333358,24.1554
1495980540,501.7333333358,27.0669
1495980542,516.1333333358,22.7475
1495980544,528.1333333358,22.971
1495980546,528.1333333358,22.6653
1495980548,427.3333333358,18.2813
1495980550,482.5333333358,11.0088
1495980552,504.1333333358,18.1256
1495980554,487.3333333358,21.0698
1495980556,441.7333333358,21.8703
1495980558,492.1333333358,20.8244
1495980560,446.5333333358,21.6222
1495980562,434.5333333358,22.1665
1495980564,482.5333333358,18.821
1495980566,518.5333333358,19.1798
1495980568,472.9333333358,19.8776
1495980570,504.1333333358,19.929
1495980572,494.5333333358,18.9433
1495980574,489.7333333358,23.2307
1495980576,484.9333333358,22.4786
1495980578,453.7333333358,20.1127
1495980580,456.1333333358,18.1505
1495980582,501.7333333358,20.1756
1495980584,518.5333333358,19.82
1495980586,453.7333333358,21.2153
1495980588,432.1333333358,17.4574
1495980590,463.3333333358,21.3082
1495980592,482.5333333358,19.464
1495980594,463.3333333358,21.1913
1495980596,482.5333333358,21.2848
1495980598,453.7333333358,20.7538
1495980600,429.7333333358,21.6264
1495980602,415.3333333358,21.1722
1495980604,410.5333333358,18.0698
1495980606,429.7333333358,23.1396
1495980608,496.9333333358,20.9491
1495980610,434.5333333358,25.6819
1495980612,417.7333333358,20.9618
1495980614,422.5333333358,23.1673
1495980616,458.5333333358,23.3754
1495980618,453.7333333358,24.0255
1495980620,424.9333333358,23.9829
1495980622,463.3333333358,24.4343
1495980624,422.5333333358,20.7214
1495980626,439.3333333358,22.7505
1495980628,472.9333333358,20.063
1495980630,444.1333333358,25.5004
1495980632,434.5333333358,23.257
1495980634,439.3333333358,22.7379
1495980636,408.1333333358,23.0655
1495980638,374.5333333358,24.6802
1495980640,427.3333333358,23.494
1495980642,427.3333333358,23.3734
1495980644,484.9333333358,21.9127
1495980646,444.1333333358,24.3417
1495980648,405.7333333358,20.1538
1495980650,446.5333333358,20.8019
1495980652,415.3333333358,20.746
1495980654,448.9333333358,20.9976
1495980656,415.3333333358,20.7597
1495980658,444.1333333358,20.1349
1495980660,362.5333333358,20.947
1495980662,400.9333333358,18.4708
1495980664,405.7333333358,18.9507
1495980666,444.1333333358,17.7881
1495980668,396.1333333358,20.136
1495980670,429.7333333358,19.049
1495980672,381.7333333358,19.662
1495980674,374.5333333358,19.7523
1495980676,396.1333333358,16.305
1495980678,386.5333333358,19.4759
1495980680,350.5333333358,12.1956
1495980682,391.3333333358,17.191
1495980684,424.9333333358,15.6909
1495980686,384.1333333358,22.401
1495980688,348.1333333358,26.7273
1495980690,429.7333333358,23.1363
1495980692,396.1333333358,20.6191
1495980694,432.1333333358,22.2194
1495980696,403.3333333358,24.851
1495980698,410.5333333358,22.7294
1495980700,391.3333333358,22.7135
1495980702,451.3333333358,22.7154
1495980704,400.9333333358,22.1602
1495980706,400.9333333358,23.2294
1495980708,364.9333333358,21.8016
1495980710,367.3333333358,19.641
1495980712,348.1333333358,20.9253
1495980714,374.5333333358,22.8105
1495980716,350.5333333358,22.9764
1495980718,384.1333333358,23.0252
1495980720,374.5333333358,18.7429
1495980722,398.5333333358,22.8927
1495980724,386.5333333358,22.9365
1495980726,388.9333333358,22.562
1495980728,412.9333333358,19.5741
1495980730,410.5333333358,23.1227
1495980732,374.5333333358,17.7654
1495980734,453.7333333358,19.7907
1495980736,357.7333333358,19.7155
1495980738,367.3333333358,19.9876
1495980740,396.1333333358,21.9845
1495980742,384.1333333358,18.3509
1495980744,372.1333333358,19.6897
1495980746,388.9333333358,16.5772
1495980748,340.9333333358,21.2537
1495980750,355.3333333358,17.6948
1495980752,374.5333333358,19.6277
1495980754,372.1333333358,18.0454
1495980756,372.1333333358,22.5777
1495980758,400.9333333358,22.5855
1495980760,400.9333333358,19.6263
1495980762,333.7333333358,20.8834
1495980764,369.7333333358,18.2211
1495980766,379.3333333358,21.8416
1495980768,405.7333333358,18.7252
1495980770,405.7333333358,18.833
1495980772,417.7333333358,20.8714
1495980774,398.5333333358,20.8459
1495980776,410.5333333358,17.6112
1495980778,386.5333333358,22.3632
1495980780,436.9333333358,19.7354
1495980782,393.7333333358,16.9125
1495980784,396.1333333358,16.5512
1495980786,376.9333333358,16.1004
1495980788,388.9333333358,11.9533
1495980790,376.9333333358,15.8738
1495980792,396.1333333358,14.8971
1495980794,427.3333333358,13.555
1495980796,379.3333333358,15.7701
1495980798,376.9333333358,13.6338
1495980800,386.5333333358,16.6687
1495980802,441.7333333358,11.4482
1495980804,393.7333333358,11.5834
1495980806,398.5333333358,10.8908
1495980808,424.9333333358,15.1096
1495980810,448.9333333358,15.5588
1495980812,412.9333333358,10.192
1495980814,427.3333333358,22.274
1495980816,429.7333333358,16.9353
1495980818,436.9333333358,16.1886
1495980820,482.5333333358,19.4209
1495980822,439.3333333358,14.0818
1495980824,405.7333333358,17.3757
1495980826,496.9333333358,17.8521
1495980828,518.5333333358,17.0641
1495980830,506.5333333358,15.8383
1495980832,523.3333333358,15.1861
1495980834,463.3333333358,17.8167
1495980836,492.1333333358,25.178
1495980838,436.9333333358,25.1645
1495980840,465.7333333358,24.0759
1495980842,480.1333333358,17.8815
1495980844,444.1333333358,17.3517
1495980846,441.7333333358,18.7785
1495980848,405.7333333358,14.7743
1495980850,403.3333333358,17.6798
1495980852,475.3333333358,16.8501
1495980854,441.7333333358,18.1538
1495980856,508.9333333358,17.5244
1495980858,422.5333333358,16.8542
1495980860,424.9333333358,18.4489
1495980862,477.7333333358,16.1737
1495980864,456.1333333358,18.0349
1495980866,400.9333333358,23.1949
1495980868,468.1333333358,19.3741
1495980870,379.3333333358,17.3355
1495980872,463.3333333358,20.9116
1495980874,391.3333333358,20.3855
1495980876,439.3333333358,23.1749
1495980878,420.1333333358,16.2348
1495980880,429.7333333358,21.1681
1495980882,415.3333333358,13.8478
1495980884,458.5333333358,23.4126
1495980886,408.1333333358,23.3618
1495980888,398.5333333358,23.341
1495980890,542.5333333358,24.3804
1495980892,410.5333333358,22.9808
1495980894,487.3333333358,19.9821
1495980896,412.9333333358,21.0753
1495980898,439.3333333358,21.3982
1495980900,446.5333333358,21.1471
1495980902,465.7333333358,21.0168
1495980904,439.3333333358,20.8891
1495980906,408.1333333358,16.3579
1495980908,446.5333333358,20.8081
1495980910,422.5333333358,15.0702
1495980912,427.3333333358,17.6087
1495980914,422.5333333358,17.4268
1495980916,410.5333333358,17.6452
1495980918,456.1333333358,19.8816
1495980920,465.7333333358,20.9221
1495980922,492.1333333358,21.7781
1495980924,458.5333333358,19.2457
1495980926,439.3333333358,20.7796
1495980928,523.3333333358,21.587
1495980930,518.5333333358,22.613
1495980932,480.1333333358,21.6848
1495980934,540.1333333358,21.1118
1495980936,537.7333333358,22.6744
1495980938,484.9333333358,17.0764
1495980940,523.3333333358,22.7838
1495980942,475.3333333358,17.6752
1495980944,465.7333333358,23.6052
1495980946,465.7333333358,18.7555
1495980948,477.7333333358,16.8164
1495980950,458.5333333358,21.7415
1495980952,465.7333333358,22.1244
1495980954,508.9333333358,22.8387
1495980956,520.9333333358,23.8139
1495980958,540.1333333358,23.7878
1495980960,501.7333333358,23.2823
1495980962,518.5333333358,24.6124
1495980964,511.3333333358,24.9523
1495980966,530.5333333358,24.9557
1495980968,542.5333333358,27.5434
1495980970,460.9333333358,18.0757
1495980972,492.1333333358,23.7312
1495980974,453.7333333358,22.2288
1495980976,537.7333333358,21.9644
1495980978,460.9333333358,20.8557
1495980980,475.3333333358,21.9047
1495980982,492.1333333358,15.7546
1495980984,499.3333333358,19.6372
1495980986,506.5333333358,21.1683
1495980988,405.7333333358,22.7567
1495980990,475.3333333358,28.2323
1495980992,487.3333333358,25.3817
1495980994,525.7333333358,20.0464
1495980996,547.3333333358,23.8904
1495980998,564.1333333358,26.2838
1495981000,592.9333333358,18.9649
1495981002,580.9333333358,17.4221
1495981004,624.1333333358,17.6431
1495981006,602.5333333358,20.7474
1495981008,559.3333333358,20.0803
1495981010,561.7333333358,20.0607
1495981012,513.7333333358,22.6925
1495981014,516.1333333358,19.8421
1495981016,504.1333333358,21.6209
1495981018,511.3333333358,21.1527
1495981020,463.3333333358,17.5614
1495981022,496.9333333358,20.4022
1495981024,494.5333333358,19.936
1495981026,412.9333333358,19.2001
1495981028,487.3333333358,15.2992
1495981030,441.7333333358,15.9478
1495981032,412.9333333358,17.814
1495981034,468.1333333358,23.0215
1495981036,460.9333333358,21.3637
1495981038,475.3333333358,19.285
1495981040,465.7333333358,17.3968
1495981042,460.9333333358,20.5616
1495981044,453.7333333358,15.5209
1495981046,492.1333333358,17.1002
1495981048,484.9333333358,19.0109
1495981050,472.9333333358,18.4937
1495981052,424.9333333358,17.2104
1495981054,537.7333333358,19.6744
1495981056,556.9333333358,22.8742
1495981058,544.9333333358,19.9582
1495981060,609.7333333358,24.8619
1495981062,597.7333333358,20.875
1495981064,542.5333333358,24.5152
1495981066,556.9333333358,17.4857
