tag_number,delay,power_est
1497973902,439.3333333358,117.104
1497973904,446.5333333358,118.308
1497973906,458.5333333358,116.605
1497973908,475.3333333358,108.449
1497973910,439.3333333358,115.165
1497973912,480.1333333358,118.139
1497973914,523.3333333358,122.074
1497973916,429.7333333358,115.787
1497973918,410.5333333358,105.425
1497973920,480.1333333358,110.83
1497973922,465.7333333358,112.61
1497973924,422.5333333358,108.458
1497973926,477.7333333358,109.71
1497973928,420.1333333358,102.034
1497973930,412.9333333358,112.621
1497973932,429.7333333358,112.175
1497973934,477.7333333358,116.703
1497973936,465.7333333358,114.863
1497973938,427.3333333358,120.786
1497973940,516.1333333358,112.262
1497973942,439.3333333358,116.084
1497973944,463.3333333358,114.897
1497973946,456.1333333358,114.668
1497973948,451.3333333358,111.313
1497973950,506.5333333358,110.599
1497973952,420.1333333358,116.524
1497973954,480.1333333358,109.598
1497973956,460.9333333358,118.753
1497973958,463.3333333358,112.618
1497973960,487.3333333358,114.896
1497973962,441.7333333358,121.787
1497973964,472.9333333358,116.506
1497973966,470.5333333358,113.596
1497973968,489.7333333358,114.405
1497973970,420.1333333358,114.514
1497973972,453.7333333358,122.871
1497973974,470.5333333358,113.011
1497973976,441.7333333358,111.637
1497973978,417.7333333358,112.473
1497973980,460.9333333358,121.046
1497973982,482.5333333358,116.381
1497973984,439.3333333358,125.981
1497973986,403.3333333358,124.803
1497973988,408.1333333358,123.36
1497973990,420.1333333358,113.029
1497973992,379.3333333358,115.76
1497973994,436.9333333358,116.404
1497973996,458.5333333358,115.524
1497973998,436.9333333358,123.482
1497974000,432.1333333358,107.496
1497974002,448.9333333358,113.603
1497974004,386.5333333358,110.643
1497974006,403.3333333358,116.013
1497974008,482.5333333358,120.517
1497974010,441.7333333358,109.298
1497974012,393.7333333358,106.164
1497974014,408.1333333358,108.622
1497974016,381.7333333358,110.633
1497974018,410.5333333358,124.538
1497974020,408.1333333358,120.314
1497974022,446.5333333358,120.026
1497974024,388.9333333358,117.31
1497974026,451.3333333358,118.046
1497974028,396.1333333358,119.042
1497974030,432.1333333358,118.252
1497974032,400.9333333358,121.225
1497974034,424.9333333358,125.69
1497974036,436.9333333358,122.947
1497974038,403.3333333358,122.447
1497974040,412.9333333358,113.341
1497974042,415.3333333358,132.468
1497974044,465.7333333358,126.412
1497974046,398.5333333358,117.375
1497974048,415.3333333358,120.408
1497974050,432.1333333358,129.951
1497974052,460.9333333358,125.129
1497974054,434.5333333358,121.814
1497974056,444.1333333358,114.063
1497974058,499.3333333358,119.527
1497974060,427.3333333358,112.935
1497974062,477.7333333358,114.792
1497974064,444.1333333358,119.091
1497974066,460.9333333358,118.413
1497974068,480.1333333358,116.449
1497974070,436.9333333358,111.311
1497974072,489.7333333358,114.754
1497974074,511.3333333358,117.172
1497974076,480.1333333358,121.921
1497974078,475.3333333358,125.805
1497974080,451.3333333358,120.605
1497974082,477.7333333358,115.324
1497974084,523.3333333358,111.365
1497974086,542.5333333358,111.44
1497974088,528.1333333358,113.15
1497974090,523.3333333358,108.898
1497974092,499.3333333358,117.285
1497974094,446.5333333358,113.084
1497974096,501.7333333358,108.388
1497974098,475.3333333358,106.811
1497974100,451.3333333358,105.641
1497974102,444.1333333358,106.636
1497974104,501.7333333358,105.671
1497974106,417.7333333358,100.351
1497974108,436.9333333358,112.674
1497974110,444.1333333358,111.01
1497974112,444.1333333358,108.719
1497974114,434.5333333358,104.569
1497974116,417.7333333358,102.999
1497974118,458.5333333358,114.812
1497974120,436.9333333358,114.466
1497974122,412.9333333358,106.755
1497974124,494.5333333358,111.253
1497974126,453.7333333358,118.151
1497974128,427.3333333358,115.548
1497974130,446.5333333358,118.689
1497974132,448.9333333358,122.215
1497974134,398.5333333358,117.626
1497974136,496.9333333358,118.036
1497974138,448.9333333358,111.22
1497974140,398.5333333358,115.55
1497974142,417.7333333358,104.995
1497974144,439.3333333358,113.59
1497974146,403.3333333358,106.24
1497974148,393.7333333358,113.233
1497974150,410.5333333358,114.192
1497974152,403.3333333358,111.667
1497974154,393.7333333358,112.742
1497974156,429.7333333358,111.986
1497974158,424.9333333358,109.65
1497974160,429.7333333358,107.992
1497974162,415.3333333358,117.699
1497974164,408.1333333358,117.707
1497974166,398.5333333358,115.934
1497974168,400.9333333358,118.664
1497974170,429.7333333358,116.838
1497974172,448.9333333358,113.203
1497974174,391.3333333358,117.053
1497974176,369.7333333358,114.019
1497974178,376.9333333358,112.279
1497974180,381.7333333358,115.295
1497974182,427.3333333358,115.967
1497974184,376.9333333358,116.881
1497974186,400.9333333358,114.637
1497974188,360.1333333358,116.217
1497974190,393.7333333358,113.104
1497974192,420.1333333358,115.103
1497974194,391.3333333358,113.419
1497974196,388.9333333358,114.043
1497974198,367.3333333358,106.221
1497974200,398.5333333358,106.769
1497974202,415.3333333358,111.479
1497974204,408.1333333358,115.811
1497974206,429.7333333358,105.623
1497974208,444.1333333358,105.744
1497974210,408.1333333358,111.191
1497974212,468.1333333358,111.935
1497974214,444.1333333358,116.342
1497974216,403.3333333358,111.584
1497974218,475.3333333358,105.298
1497974220,384.1333333358,114.885
1497974222,400.9333333358,115.344
1497974224,403.3333333358,114.622
1497974226,453.7333333358,113.427
1497974228,398.5333333358,119.668
1497974230,456.1333333358,121.509
1497974232,475.3333333358,112.283
1497974234,412.9333333358,114.115
1497974236,417.7333333358,105.339
1497974238,408.1333333358,112.739
1497974240,432.1333333358,109.247
1497974242,456.1333333358,109.48
1497974244,465.7333333358,102.857
1497974246,465.7333333358,111.193
1497974248,424.9333333358,111.224
1497974250,511.3333333358,113.639
1497974252,417.7333333358,110.273
1497974254,388.9333333358,115.118
1497974256,410.5333333358,115.126
1497974258,427.3333333358,108.546
1497974260,492.1333333358,111.472
1497974262,420.1333333358,103.995
1497974264,482.5333333358,105.932
1497974266,460.9333333358,109.015
1497974268,487.3333333358,108.94
1497974270,496.9333333358,106.497
1497974272,520.9333333358,102.105
1497974274,499.3333333358,112.658
1497974276,477.7333333358,105.994
1497974278,559.3333333358,109.755
1497974280,542.5333333358,109.41
1497974282,518.5333333358,105.283
1497974284,552.1333333358,112.797
1497974286,547.3333333358,115.892
1497974288,516.1333333358,109.329
1497974290,530.5333333358,106.197
1497974292,540.1333333358,107.409
1497974294,516.1333333358,110.902
1497974296,523.3333333358,110.008
1497974298,547.3333333358,105.31
1497974300,542.5333333358,108.094
1497974302,532.9333333358,113.682
1497974304,508.9333333358,104.306
1497974306,532.9333333358,107.587
1497974308,504.1333333358,110.235
1497974310,556.9333333358,107.706
1497974312,523.3333333358,108.86
1497974314,506.5333333358,112.973
1497974316,516.1333333358,119.831
1497974318,501.7333333358,121.463
1497974320,453.7333333358,112.756
1497974322,506.5333333358,114.975
1497974324,480.1333333358,105.216
1497974326,487.3333333358,106.582
1497974328,506.5333333358,112.621
1497974330,525.7333333358,109.774
1497974332,511.3333333358,112.667
1497974334,516.1333333358,110.486
1497974336,535.3333333358,113.158
1497974338,547.3333333358,116.231
1497974340,468.1333333358,108.394
1497974342,482.5333333358,110.107
1497974344,451.3333333358,113.578
1497974346,465.7333333358,112.484
1497974348,501.7333333358,114.336
1497974350,508.9333333358,110.001
1497974352,472.9333333358,119.442
1497974354,460.9333333358,105.279
1497974356,518.5333333358,110.886
1497974358,530.5333333358,113.925
1497974360,480.1333333358,118.041
1497974362,511.3333333358,106.835
1497974364,528.1333333358,106.123
1497974366,489.7333333358,108.74
1497974370,525.7333333358,115.625
1497974372,460.9333333358,109.932
1497974374,470.5333333358,103.599
1497974376,456.1333333358,106.128
1497974378,480.1333333358,110.279
1497974380,470.5333333358,106.147
1497974382,487.3333333358,111.749
1497974384,542.5333333358,106.851
1497974386,547.3333333358,102.322
1497974388,525.7333333358,104.687
1497974390,513.7333333358,111.996
1497974392,484.9333333358,111.061
1497974394,501.7333333358,106.657
1497974396,523.3333333358,108.656
1497974398,494.5333333358,105.015
1497974400,451.3333333358,107.426
1497974402,475.3333333358,116.489
1497974404,453.7333333358,106.639
1497974406,506.5333333358,113.685
1497974408,427.3333333358,101.155
1497974410,475.3333333358,113.132
1497974412,487.3333333358,106.83
1497974414,451.3333333358,103.709
1497974416,434.5333333358,107.34
1497974418,441.7333333358,111.594
1497974420,427.3333333358,109.431
1497974422,451.3333333358,115.95
1497974424,499.3333333358,107.453
1497974426,453.7333333358,107.044
1497974428,436.9333333358,109.92
1497974430,434.5333333358,104.173
1497974432,530.5333333358,110.685
1497974434,516.1333333358,110.987
1497974436,516.1333333358,111.896
1497974438,501.7333333358,115.458
1497974440,453.7333333358,111.023
1497974442,436.9333333358,108.467
1497974444,410.5333333358,108.689
1497974446,446.5333333358,119.848
1497974448,511.3333333358,116.799
1497974450,525.7333333358,107.746
1497974452,463.3333333358,114.07
1497974454,441.7333333358,113.542
1497974456,528.1333333358,110.212
1497974458,499.3333333358,105.769
1497974460,513.7333333358,111.921
1497974462,463.3333333358,108.356
1497974464,453.7333333358,110.264
1497974466,487.3333333358,112.193
1497974468,482.5333333358,121.542
1497974470,434.5333333358,121.009
1497974472,456.1333333358,117.853
1497974474,480.1333333358,111.173
1497974476,427.3333333358,111.057
1497974478,511.3333333358,116.504
1497974480,506.5333333358,120.977
1497974482,427.3333333358,116.414
1497974484,463.3333333358,116.537
1497974486,496.9333333358,114.508
1497974488,458.5333333358,107.811
1497974490,456.1333333358,107.578
1497974492,511.3333333358,121.65
1497974494,434.5333333358,117.383
1497974496,439.3333333358,115.883
1497974498,472.9333333358,109.205
1497974500,427.3333333358,113.778
1497974502,408.1333333358,110.299
1497974504,451.3333333358,109.784
1497974506,448.9333333358,110.229
1497974508,405.7333333358,105.623
1497974510,405.7333333358,109.715
1497974512,448.9333333358,113.085
1497974514,492.1333333358,106.605
1497974516,432.1333333358,106.367
1497974518,393.7333333358,113.041
1497974520,484.9333333358,110.125
1497974522,494.5333333358,103.367
1497974524,460.9333333358,101.848
1497974526,458.5333333358,101.508
1497974528,472.9333333358,101.324
1497974530,410.5333333358,103.285
1497974532,422.5333333358,107.616
1497974534,501.7333333358,111.718
1497974536,499.3333333358,109.523
1497974538,444.1333333358,106.141
1497974540,487.3333333358,114.021
1497974542,472.9333333358,113.325
1497974544,470.5333333358,105.818
1497974546,439.3333333358,102.247
1497974548,470.5333333358,105.85
1497974550,477.7333333358,114.808
1497974552,439.3333333358,119.297
1497974554,444.1333333358,112.753
1497974556,432.1333333358,112.049
1497974558,439.3333333358,120.965
1497974560,434.5333333358,114.185
1497974562,480.1333333358,118.097
1497974564,456.1333333358,114.391
1497974566,446.5333333358,114.021
1497974568,451.3333333358,111.86
1497974570,506.5333333358,115.978
1497974572,434.5333333358,110.374
1497974574,451.3333333358,115.377
1497974576,480.1333333358,112.962
1497974578,444.1333333358,115.328
1497974580,451.3333333358,106.793
1497974582,480.1333333358,119.182
1497974584,403.3333333358,115.398
1497974586,441.7333333358,118.688
1497974588,482.5333333358,113.964
1497974590,465.7333333358,105.561
1497974592,415.3333333358,116.994
1497974594,480.1333333358,112.609
1497974596,494.5333333358,113.168
1497974598,403.3333333358,118.806
1497974600,415.3333333358,119.928
1497974602,441.7333333358,118.441
1497974604,424.9333333358,113.923
1497974606,446.5333333358,122.675
1497974608,415.3333333358,119.174
1497974610,458.5333333358,125.322
1497974612,453.7333333358,129.036
1497974614,458.5333333358,107.482
1497974616,429.7333333358,111.837
1497974618,456.1333333358,108.842
1497974620,441.7333333358,113.491
1497974622,422.5333333358,120.402
1497974624,470.5333333358,123.68
1497974626,492.1333333358,123.915
1497974628,480.1333333358,104.837
1497974630,506.5333333358,113.331
1497974632,434.5333333358,118.114
1497974634,422.5333333358,114.556
1497974636,463.3333333358,114.989
1497974638,520.9333333358,110.368
1497974640,489.7333333358,113.171
1497974642,470.5333333358,117.108
1497974644,542.5333333358,109.211
1497974646,472.9333333358,113.742
1497974648,472.9333333358,109.204
1497974650,513.7333333358,114.75
1497974652,504.1333333358,109.81
1497974654,465.7333333358,102.144
1497974656,513.7333333358,108.503
1497974658,468.1333333358,112.378
1497974660,480.1333333358,109.386
1497974662,436.9333333358,110.67
1497974664,494.5333333358,120.529
1497974666,516.1333333358,108.667
1497974668,492.1333333358,110.885
1497974670,496.9333333358,111.679
1497974672,468.1333333358,103.018
1497974674,537.7333333358,105.882
1497974676,487.3333333358,110.021
1497974678,487.3333333358,108.41
1497974680,448.9333333358,109.744
1497974682,482.5333333358,110.859
1497974684,542.5333333358,110.151
1497974686,460.9333333358,111.264
1497974688,504.1333333358,110.265
1497974690,463.3333333358,113.441
1497974692,516.1333333358,114.765
1497974694,475.3333333358,108.843
1497974696,463.3333333358,110.536
1497974698,470.5333333358,111.787
1497974700,540.1333333358,109.077
1497974702,477.7333333358,109.231
1497974704,506.5333333358,114.478
1497974706,496.9333333358,118.054
1497974708,494.5333333358,120.379
1497974710,511.3333333358,108.369
1497974712,525.7333333358,104.304
1497974714,484.9333333358,103.11
1497974716,441.7333333358,98.7314
1497974718,465.7333333358,110.86
1497974720,513.7333333358,121.183
1497974722,501.7333333358,116.509
1497974724,472.9333333358,112.085
1497974726,530.5333333358,119.546
1497974728,448.9333333358,119.191
1497974730,504.1333333358,112.285
1497974732,504.1333333358,121.188
1497974734,532.9333333358,109.677
1497974736,508.9333333358,109.675
1497974738,511.3333333358,106.292
1497974740,475.3333333358,110.863
1497974742,475.3333333358,113.563
1497974744,468.1333333358,109.211
1497974746,499.3333333358,109.133
1497974748,496.9333333358,107.894
1497974750,530.5333333358,104.474
1497974752,446.5333333358,113.165
1497974754,523.3333333358,108.579
1497974756,480.1333333358,102.456
1497974758,487.3333333358,100.18
1497974760,516.1333333358,102.977
1497974762,523.3333333358,107.114
1497974764,520.9333333358,104.769
1497974766,475.3333333358,104.565
1497974768,535.3333333358,108.295
1497974770,480.1333333358,115.988
1497974772,439.3333333358,113.289
1497974774,544.9333333358,111.321
1497974776,504.1333333358,114.923
1497974778,472.9333333358,115.431
1497974780,542.5333333358,110.933
1497974782,552.1333333358,117.112
1497974784,504.1333333358,107.651
1497974786,501.7333333358,123.244
1497974788,525.7333333358,114.978
1497974790,489.7333333358,112.288
1497974792,492.1333333358,108.747
1497974794,525.7333333358,115.194
1497974796,463.3333333358,118.431
1497974798,439.3333333358,116.398
1497974800,460.9333333358,120.755
1497974802,528.1333333358,108.949
1497974804,417.7333333358,117.804
1497974806,434.5333333358,115.407
1497974808,434.5333333358,123.177
1497974810,513.7333333358,116.393
1497974812,446.5333333358,113.982
1497974814,415.3333333358,108.232
1497974816,470.5333333358,107.267
1497974818,422.5333333358,112.589
1497974820,424.9333333358,109.408
1497974822,432.1333333358,109.258
1497974824,441.7333333358,108.458
1497974826,439.3333333358,107.252
1497974828,412.9333333358,109.395
1497974830,434.5333333358,103.774
1497974832,398.5333333358,101.682
1497974834,415.3333333358,104.208
1497974836,444.1333333358,110.922
1497974838,415.3333333358,117.905
1497974840,410.5333333358,106.239
1497974842,364.9333333358,106.804
1497974844,424.9333333358,112.897
1497974846,410.5333333358,112.121
1497974848,393.7333333358,111.609
1497974850,448.9333333358,99.7433
1497974852,415.3333333358,122.237
1497974854,391.3333333358,118.372
1497974856,372.1333333358,107.748
1497974858,386.5333333358,108.412
1497974860,405.7333333358,101.929
1497974862,400.9333333358,111.719
1497974864,422.5333333358,98.7061
1497974866,439.3333333358,104.111
1497974868,412.9333333358,107.899
1497974870,436.9333333358,111.12
1497974872,492.1333333358,117.637
1497974874,496.9333333358,112.137
1497974876,403.3333333358,110.887
1497974878,487.3333333358,111.642
1497974880,482.5333333358,114.968
1497974882,516.1333333358,112.93
1497974884,475.3333333358,108.518
1497974886,463.3333333358,113.721
1497974888,484.9333333358,111.718
1497974890,484.9333333358,116.547
1497974892,460.9333333358,109.458
1497974894,429.7333333358,111.598
1497974896,530.5333333358,109.845
1497974898,504.1333333358,114.866
1497974900,463.3333333358,110.383
1497974902,523.3333333358,116.954
1497974904,453.7333333358,122.776
1497974906,470.5333333358,112.708
1497974908,436.9333333358,116.786
1497974910,408.1333333358,108.064
1497974912,432.1333333358,107.38
1497974914,444.1333333358,108.476
1497974916,513.7333333358,114.069
1497974918,408.1333333358,108.346
1497974920,429.7333333358,112.931
1497974922,403.3333333358,118.037
1497974924,386.5333333358,110.955
1497974926,403.3333333358,114.642
1497974928,427.3333333358,105.317
1497974930,405.7333333358,111.209
1497974932,376.9333333358,106.819
1497974934,388.9333333358,109.862
1497974936,434.5333333358,105.869
1497974938,396.1333333358,107.476
1497974940,372.1333333358,104.095
1497974942,391.3333333358,103.533
1497974944,408.1333333358,110.477
1497974946,374.5333333358,108.859
1497974948,357.7333333358,106.673
1497974950,374.5333333358,109.604
1497974952,400.9333333358,125.246
1497974954,393.7333333358,111.517
1497974956,369.7333333358,113.817
1497974958,429.7333333358,120.361
1497974960,343.3333333358,113.804
1497974962,393.7333333358,109.985
1497974964,388.9333333358,115.961
1497974966,451.3333333358,110.764
1497974968,415.3333333358,115.963
1497974970,439.3333333358,108.223
1497974972,453.7333333358,110.499
1497974974,482.5333333358,110.056
1497974976,477.7333333358,109.739
1497974978,460.9333333358,106.595
1497974980,542.5333333358,115.02
1497974982,518.5333333358,118.311
1497974984,504.1333333358,121.501
1497974986,520.9333333358,123.39
1497974988,540.1333333358,111.252
1497974990,465.7333333358,110.66
1497974992,525.7333333358,111.539
1497974994,518.5333333358,107.008
1497974996,516.1333333358,107.031
1497974998,559.3333333358,113.392
1497975000,530.5333333358,113.438
1497975002,480.1333333358,105.587
1497975004,477.7333333358,109.426
1497975006,523.3333333358,110.707
1497975008,530.5333333358,109.77
1497975010,480.1333333358,115.79
1497975012,520.9333333358,113.655
1497975014,544.9333333358,105.313
1497975016,532.9333333358,104.288
1497975018,523.3333333358,114.444
1497975020,516.1333333358,120.228
1497975022,492.1333333358,107.336
1497975024,487.3333333358,105.061
1497975026,508.9333333358,116.63
1497975028,532.9333333358,115.087
1497975030,532.9333333358,112.867
1497975032,477.7333333358,111.988
1497975034,537.7333333358,117.175
1497975036,516.1333333358,115.91
1497975038,542.5333333358,110.559
1497975040,487.3333333358,112.912
1497975042,504.1333333358,109.536
1497975044,506.5333333358,110.988
1497975046,504.1333333358,110.972
1497975048,561.7333333358,111.472
1497975050,566.5333333358,116.992
1497975052,494.5333333358,118.609
1497975054,525.7333333358,115.24
1497975056,552.1333333358,115.891
1497975058,537.7333333358,112.88
1497975060,518.5333333358,122.875
1497975062,537.7333333358,123.545
1497975064,489.7333333358,114.672
1497975066,506.5333333358,117.538
1497975068,516.1333333358,113.886
1497975070,518.5333333358,111.937
1497975072,499.3333333358,110.387
1497975074,484.9333333358,116.495
1497975076,494.5333333358,108.665
1497975078,535.3333333358,116.462
1497975080,525.7333333358,111.789
1497975082,482.5333333358,119.84
1497975084,508.9333333358,118.723
1497975086,525.7333333358,116.187
1497975088,523.3333333358,117.431
1497975090,513.7333333358,114.727
1497975092,532.9333333358,115.645
1497975094,480.1333333358,112.649
1497975096,484.9333333358,108.166
1497975098,525.7333333358,116.161
1497975100,496.9333333358,107.297
1497975102,422.5333333358,97.4998
1497975104,448.9333333358,105.444
1497975106,494.5333333358,96.6457
1497975108,496.9333333358,95.0332
1497975110,484.9333333358,102.41
1497975112,523.3333333358,106.943
1497975114,463.3333333358,103.914
1497975116,487.3333333358,119.463
1497975118,432.1333333358,107.539
1497975120,513.7333333358,114.564
1497975122,468.1333333358,120.592
1497975124,496.9333333358,113.291
1497975126,472.9333333358,122.149
1497975128,446.5333333358,122.468
1497975130,379.3333333358,113.745
1497975132,434.5333333358,117.892
1497975134,513.7333333358,118.543
1497975136,444.1333333358,110.994
1497975138,480.1333333358,121.593
1497975140,528.1333333358,118.115
1497975142,492.1333333358,118.092
1497975144,504.1333333358,117.497
1497975146,528.1333333358,119.275
1497975148,540.1333333358,116.407
1497975150,564.1333333358,112.352
1497975152,542.5333333358,119.28
1497975154,542.5333333358,108.506
1497975156,554.5333333358,107.298
1497975158,561.7333333358,107.855
1497975160,597.7333333358,113.845
1497975162,547.3333333358,105.821
1497975164,542.5333333358,104.557
1497975166,552.1333333358,111.196
1497975168,573.7333333358,115.276
1497975170,588.1333333358,108.09
1497975172,583.3333333358,114.745
1497975174,614.5333333358,106.017
1497975176,600.1333333358,111.961
1497975178,537.7333333358,111.481
1497975180,590.5333333358,116.791
1497975182,602.5333333358,106.126
1497975184,609.7333333358,111.041
1497975186,554.5333333358,115.84
1497975188,566.5333333358,112.672
1497975190,559.3333333358,106.423
1497975192,542.5333333358,112.768
1497975194,547.3333333358,103.847
1497975196,578.5333333358,102.569
1497975198,528.1333333358,115.512
1497975200,556.9333333358,113.997
1497975202,530.5333333358,110.979
1497975204,595.3333333358,106.493
1497975206,604.9333333358,110.088
1497975208,626.5333333358,112.401
1497975210,616.9333333358,113.456
1497975212,612.1333333358,110.923
1497975214,576.1333333358,112.173
1497975216,619.3333333358,112.933
1497975218,612.1333333358,111.485
1497975220,564.1333333358,113.8
1497975222,544.9333333358,121.891
1497975224,561.7333333358,125.053
1497975226,552.1333333358,125.267
1497975228,568.9333333358,116.924
1497975230,573.7333333358,113.554
1497975232,597.7333333358,116.806
1497975234,588.1333333358,112.528
1497975236,561.7333333358,117.082
1497975238,578.5333333358,114.04
1497975240,588.1333333358,112.901
1497975242,597.7333333358,112.339
1497975244,544.9333333358,107.796
1497975246,607.3333333358,114.236
1497975248,614.5333333358,111.909
1497975250,607.3333333358,113.924
1497975252,633.7333333358,108.038
1497975254,616.9333333358,113.587
1497975256,614.5333333358,110.718
1497975258,616.9333333358,113.32
1497975260,631.3333333358,114.708
1497975262,597.7333333358,116.736
1497975264,609.7333333358,106.437
1497975266,631.3333333358,107.175
1497975268,619.3333333358,114.106
1497975270,626.5333333358,107.436
1497975272,604.9333333358,114.377
1497975274,612.1333333358,106.372
1497975276,578.5333333358,110.682
1497975278,604.9333333358,112.816
1497975280,638.5333333358,105.237
1497975282,652.9333333358,99.6849
1497975284,628.9333333358,111.499
1497975286,626.5333333358,113.137
1497975288,628.9333333358,111.239
1497975290,621.7333333358,118.348
1497975292,614.5333333358,115.112
1497975294,640.9333333358,111.894
1497975296,645.7333333358,114.324
1497975298,631.3333333358,115.736
1497975300,636.1333333358,113.319
1497975302,640.9333333358,115.802
1497975304,604.9333333358,111.832
1497975306,571.3333333358,116.467
1497975308,648.1333333358,115.513
1497975310,650.5333333358,115.302
1497975312,602.5333333358,107.678
1497975314,597.7333333358,116.641
1497975316,595.3333333358,113.163
1497975318,580.9333333358,107.504
1497975320,597.7333333358,107.571
1497975322,585.7333333358,105.868
1497975324,604.9333333358,112.522
1497975326,602.5333333358,117.321
1497975328,607.3333333358,112.907
1497975330,607.3333333358,109.698
1497975332,559.3333333358,115.429
1497975334,588.1333333358,106.991
1497975336,568.9333333358,113.461
1497975338,554.5333333358,113.443
1497975340,530.5333333358,108.73
1497975342,576.1333333358,106.294
1497975344,556.9333333358,107.206
1497975346,544.9333333358,98.3643
1497975348,585.7333333358,110.36
1497975350,561.7333333358,108.09
1497975352,583.3333333358,113.79
1497975354,556.9333333358,107.802
1497975356,595.3333333358,109.799
1497975358,616.9333333358,112.828
1497975360,614.5333333358,105.163
1497975362,595.3333333358,107.167
1497975364,564.1333333358,109.503
1497975366,556.9333333358,108.121
1497975368,528.1333333358,113.39
1497975370,583.3333333358,115.447
1497975372,561.7333333358,112.738
1497975374,528.1333333358,105.489
1497975376,537.7333333358,107.994
1497975378,511.3333333358,114.585
1497975380,576.1333333358,114.23
1497975382,540.1333333358,105.552
1497975384,520.9333333358,117.408
1497975386,566.5333333358,110.221
1497975388,530.5333333358,113.931
1497975390,549.7333333358,106.817
1497975392,544.9333333358,104.141
1497975394,535.3333333358,107.319
1497975396,494.5333333358,112.412
1497975398,499.3333333358,110.944
1497975400,540.1333333358,108.312
1497975402,518.5333333358,110.537
1497975404,499.3333333358,119.069
1497975406,477.7333333358,110.433
1497975408,544.9333333358,108.739
1497975410,511.3333333358,114.006
1497975412,501.7333333358,116.884
1497975414,540.1333333358,100.045
1497975416,535.3333333358,105.977
1497975418,537.7333333358,113.891
1497975420,573.7333333358,118.272
1497975422,564.1333333358,114.261
1497975424,540.1333333358,110.693
1497975426,540.1333333358,111.381
1497975428,549.7333333358,112.228
1497975430,561.7333333358,111.727
1497975432,566.5333333358,117.137
1497975434,549.7333333358,113.315
1497975436,559.3333333358,112.725
1497975438,556.9333333358,111.333
1497975440,547.3333333358,105.959
1497975442,576.1333333358,104.459
1497975444,540.1333333358,107.009
1497975446,544.9333333358,115.96
1497975448,544.9333333358,109.362
1497975450,564.1333333358,111.127
1497975452,566.5333333358,111.262
1497975454,542.5333333358,119.89
1497975456,559.3333333358,118.634
1497975458,561.7333333358,109.374
1497975460,556.9333333358,110.202
1497975462,537.7333333358,116.558
1497975464,604.9333333358,117.874
1497975466,602.5333333358,117.522
1497975468,556.9333333358,109.957
1497975470,595.3333333358,114.05
1497975472,616.9333333358,116.113
1497975474,564.1333333358,119.84
1497975476,607.3333333358,111.662
1497975478,609.7333333358,118.069
1497975480,597.7333333358,114.846
1497975482,561.7333333358,116.357
1497975484,554.5333333358,109.099
1497975486,607.3333333358,111.709
1497975488,544.9333333358,132.393
1497975490,535.3333333358,123.097
1497975492,549.7333333358,117.808
1497975494,554.5333333358,114.994
1497975496,537.7333333358,116.338
1497975498,532.9333333358,114.555
1497975500,523.3333333358,108.634
1497975502,568.9333333358,116.705
1497975504,549.7333333358,115.255
1497975506,530.5333333358,115.594
1497975508,554.5333333358,113.914
1497975510,571.3333333358,118.093
1497975512,568.9333333358,105.636
1497975514,588.1333333358,112.634
1497975516,609.7333333358,106.307
1497975518,554.5333333358,106.357
1497975520,552.1333333358,110.43
1497975522,590.5333333358,112.312
1497975524,556.9333333358,109.302
1497975526,592.9333333358,111.281
1497975528,592.9333333358,107.51
1497975530,556.9333333358,112.277
1497975532,559.3333333358,103.48
1497975534,544.9333333358,108.528
1497975536,609.7333333358,103.233
1497975538,600.1333333358,109.277
1497975540,588.1333333358,120.762
1497975542,612.1333333358,112.373
1497975544,614.5333333358,117.568
1497975546,595.3333333358,115.974
1497975548,616.9333333358,119.563
1497975550,664.9333333358,114.903
1497975552,640.9333333358,103.455
1497975554,628.9333333358,113.183
1497975556,616.9333333358,114.669
1497975558,602.5333333358,110.536
1497975560,657.7333333358,126.237
1497975562,619.3333333358,114.316
1497975564,607.3333333358,112.05
1497975566,631.3333333358,106.071
1497975568,628.9333333358,114.693
1497975570,621.7333333358,112.489
1497975572,645.7333333358,114.483
1497975574,650.5333333358,120.468
1497975576,638.5333333358,113.923
1497975578,636.1333333358,116.621
1497975580,662.5333333358,118.96
1497975582,672.1333333358,115.065
1497975584,664.9333333358,115.278
1497975586,621.7333333358,108.814
1497975588,708.1333333358,103.781
1497975590,720.1333333358,120.053
1497975592,650.5333333358,110.435
1497975594,628.9333333358,128.311
1497975596,636.1333333358,124.119
1497975598,602.5333333358,126.479
1497975600,566.5333333358,119.342
1497975602,580.9333333358,119.427
1497975604,549.7333333358,117.857
1497975606,451.3333333358,120.678
1497975608,463.3333333358,122.39
1497975610,456.1333333358,117.052
1497975612,439.3333333358,111.762
1497975614,432.1333333358,112.737
1497975616,434.5333333358,109.941
1497975618,453.7333333358,124.352
1497975620,376.9333333358,110.463
1497975622,412.9333333358,114.479
1497975624,379.3333333358,113.665
1497975626,398.5333333358,107.501
1497975628,364.9333333358,116.782
1497975630,374.5333333358,116.238
1497975632,398.5333333358,116.146
1497975634,345.7333333358,117.331
1497975636,348.1333333358,126.434
1497975638,376.9333333358,116.17
1497975640,398.5333333358,108.331
1497975642,398.5333333358,113.243
1497975644,391.3333333358,112.745
1497975646,400.9333333358,115.876
1497975648,427.3333333358,107.72
1497975650,465.7333333358,112.949
1497975652,544.9333333358,108.221
1497975654,544.9333333358,114.419
1497975656,544.9333333358,107.744
1497975658,585.7333333358,104.678
1497975660,619.3333333358,107.057
1497975662,621.7333333358,109.633
1497975664,604.9333333358,114.058
1497975666,645.7333333358,118.203
1497975668,688.9333333358,113.616
1497975670,672.1333333358,112.988
1497975672,612.1333333358,111.762
1497975674,612.1333333358,109.878
1497975676,609.7333333358,117.414
1497975678,612.1333333358,114.965
1497975680,592.9333333358,120.051
1497975682,612.1333333358,124.232
1497975684,600.1333333358,116.18
1497975686,549.7333333358,119.061
1497975688,580.9333333358,115.728
1497975690,525.7333333358,121.218
1497975692,537.7333333358,113.695
1497975694,552.1333333358,121.355
1497975696,554.5333333358,115.537
1497975698,552.1333333358,117.268
1497975700,453.7333333358,117.864
1497975702,530.5333333358,112.961
1497975704,523.3333333358,115.485
1497975706,499.3333333358,121.694
1497975708,520.9333333358,115.417
1497975710,535.3333333358,113.647
1497975712,508.9333333358,115.207
1497975714,492.1333333358,112.309
1497975716,480.1333333358,109.365
1497975718,487.3333333358,108.993
1497975720,463.3333333358,114.539
1497975722,417.7333333358,116.792
1497975724,499.3333333358,117.364
1497975726,432.1333333358,116.173
1497975728,417.7333333358,116.434
1497975730,429.7333333358,122.151
1497975732,456.1333333358,111.329
1497975734,436.9333333358,114.709
1497975736,506.5333333358,104.955
1497975738,487.3333333358,118.592
1497975740,513.7333333358,116.538
1497975742,535.3333333358,114.021
1497975744,472.9333333358,114.787
1497975746,520.9333333358,121.166
1497975748,561.7333333358,117.525
1497975750,518.5333333358,109.705
1497975752,487.3333333358,109.012
1497975754,542.5333333358,109.425
1497975756,542.5333333358,113.225
1497975758,542.5333333358,109.798
1497975760,540.1333333358,111.29
1497975762,518.5333333358,111.571
1497975764,530.5333333358,111.208
1497975766,537.7333333358,105.979
1497975768,530.5333333358,101.438
1497975770,568.9333333358,102.346
1497975772,552.1333333358,104.507
1497975774,554.5333333358,110.247
1497975776,544.9333333358,102.483
1497975778,463.3333333358,105.16
1497975780,568.9333333358,102.394
1497975782,532.9333333358,106.337
1497975784,556.9333333358,111.957
1497975786,494.5333333358,104.047
1497975788,516.1333333358,114.066
1497975790,542.5333333358,115.349
1497975792,549.7333333358,109.368
1497975794,525.7333333358,113.668
1497975796,513.7333333358,115.881
1497975798,424.9333333358,112.205
1497975800,482.5333333358,116.387
1497975802,475.3333333358,106.11
1497975804,489.7333333358,109.222
1497975806,487.3333333358,110.506
1497975808,516.1333333358,109.301
1497975810,489.7333333358,104.779
1497975812,518.5333333358,108.315
1497975814,492.1333333358,117.165
1497975816,523.3333333358,118.073
1497975818,528.1333333358,104.602
1497975820,460.9333333358,114.802
1497975822,475.3333333358,114.724
1497975824,489.7333333358,109.052
1497975826,540.1333333358,112.561
1497975828,540.1333333358,115.813
1497975830,523.3333333358,118.982
1497975832,477.7333333358,111.299
1497975834,559.3333333358,114.129
1497975836,537.7333333358,113.183
1497975838,535.3333333358,112.561
1497975840,547.3333333358,114.533
1497975842,588.1333333358,116.221
1497975844,547.3333333358,111.216
1497975846,540.1333333358,114.837
1497975848,523.3333333358,106.004
1497975850,588.1333333358,104.871
1497975852,542.5333333358,100.239
1497975854,556.9333333358,107.491
1497975856,540.1333333358,105.809
1497975858,547.3333333358,112.46
1497975860,513.7333333358,107.854
1497975862,542.5333333358,111.357
1497975864,554.5333333358,111.045
1497975866,513.7333333358,104.527
1497975868,518.5333333358,104.449
1497975870,552.1333333358,118.13
1497975872,568.9333333358,111.318
1497975874,549.7333333358,113.921
1497975876,588.1333333358,107.392
1497975878,544.9333333358,116.864
1497975880,600.1333333358,114.989
1497975882,549.7333333358,111.433
1497975884,580.9333333358,116.392
1497975886,595.3333333358,116.39
1497975888,516.1333333358,114.153
1497975890,554.5333333358,118.282
1497975892,554.5333333358,125.037
1497975894,518.5333333358,124.265
1497975896,489.7333333358,124.518
1497975898,552.1333333358,117.975
1497975900,580.9333333358,121.533
1497975902,542.5333333358,118.486
1497975904,520.9333333358,115.655
1497975906,573.7333333358,116.438
1497975908,523.3333333358,115.118
1497975910,528.1333333358,120.199
1497975912,547.3333333358,117.956
1497975914,523.3333333358,120.573
1497975916,532.9333333358,118.452
1497975918,523.3333333358,115.861
1497975920,508.9333333358,119.464
1497975922,544.9333333358,121.019
1497975924,508.9333333358,115.338
1497975926,540.1333333358,113.542
1497975928,520.9333333358,123.549
1497975930,446.5333333358,116.035
1497975932,427.3333333358,121.935
1497975934,405.7333333358,118.917
1497975936,446.5333333358,114.169
1497975938,417.7333333358,120.5
1497975940,468.1333333358,119.177
1497975942,448.9333333358,118.541
1497975944,410.5333333358,121.141
1497975946,396.1333333358,113.759
1497975948,444.1333333358,110.721
1497975950,480.1333333358,116.367
1497975952,417.7333333358,113.224
1497975954,417.7333333358,111.848
1497975956,410.5333333358,114.853
1497975958,424.9333333358,108.882
1497975960,480.1333333358,105.544
1497975962,506.5333333358,117.261
1497975964,511.3333333358,115.324
1497975966,465.7333333358,115.401
1497975968,532.9333333358,120.62
1497975970,554.5333333358,114.671
1497975972,506.5333333358,116.193
1497975974,528.1333333358,112.803
1497975976,552.1333333358,121.428
1497975978,552.1333333358,121.215
1497975980,516.1333333358,120.637
1497975982,552.1333333358,113.151
1497975984,556.9333333358,118.86
1497975986,552.1333333358,114.687
1497975988,556.9333333358,117.829
1497975990,537.7333333358,119.35
1497975992,465.7333333358,110.474
1497975994,506.5333333358,113.228
1497975996,540.1333333358,118.176
1497975998,525.7333333358,111.03
1497976000,532.9333333358,109.184
1497976002,535.3333333358,109.114
1497976004,571.3333333358,109.841
1497976006,537.7333333358,114.526
1497976008,542.5333333358,113.361
1497976010,602.5333333358,111.901
1497976012,597.7333333358,111.109
1497976014,609.7333333358,114.623
1497976016,614.5333333358,122.12
1497976018,643.3333333358,111.208
1497976020,597.7333333358,113.151
1497976022,576.1333333358,112.318
1497976024,604.9333333358,116.277
1497976026,583.3333333358,118.865
1497976028,592.9333333358,119.426
1497976030,592.9333333358,116.832
1497976032,621.7333333358,114.529
1497976034,578.5333333358,120.547
1497976036,614.5333333358,126.466
1497976038,628.9333333358,125.357
1497976040,597.7333333358,122.915
1497976042,648.1333333358,121.945
1497976044,590.5333333358,112.206
1497976046,628.9333333358,116.127
1497976048,631.3333333358,112.142
1497976050,626.5333333358,119.956
1497976052,631.3333333358,115.241
1497976054,631.3333333358,124.466
1497976056,588.1333333358,115.373
1497976058,631.3333333358,116.454
1497976060,636.1333333358,114.115
1497976062,619.3333333358,113.175
1497976064,669.7333333358,115.706
1497976066,660.1333333358,114.376
1497976068,688.9333333358,115.918
1497976070,607.3333333358,113.434
1497976072,624.1333333358,110.287
1497976074,616.9333333358,116.403
1497976076,580.9333333358,118.72
1497976078,576.1333333358,116.388
1497976080,619.3333333358,115.376
1497976082,549.7333333358,109.557
1497976084,590.5333333358,114.816
1497976086,691.3333333358,116.81
1497976088,607.3333333358,120.706
1497976090,592.9333333358,111.933
1497976092,624.1333333358,116.391
1497976094,590.5333333358,114.449
1497976096,600.1333333358,114.042
1497976098,573.7333333358,118.654
1497976100,592.9333333358,118.367
1497976102,614.5333333358,115.221
1497976104,590.5333333358,116.113
1497976106,556.9333333358,119.406
1497976108,607.3333333358,111.203
1497976110,544.9333333358,109.417
1497976112,532.9333333358,113.245
1497976114,554.5333333358,112.646
1497976116,588.1333333358,105.362
1497976118,573.7333333358,113.294
1497976120,612.1333333358,99.9272
1497976122,595.3333333358,112.451
1497976124,530.5333333358,119.91
1497976126,590.5333333358,112.09
1497976128,607.3333333358,114.858
1497976130,631.3333333358,106.646
1497976132,585.7333333358,112.33
1497976134,607.3333333358,118.244
1497976136,554.5333333358,119.254
1497976138,595.3333333358,126.118
1497976140,578.5333333358,124.764
1497976142,580.9333333358,121.638
1497976144,556.9333333358,118.816
1497976146,595.3333333358,124.063
1497976148,607.3333333358,120.37
1497976150,564.1333333358,114.762
1497976152,576.1333333358,114.424
1497976154,619.3333333358,117.357
1497976156,554.5333333358,113.599
1497976158,556.9333333358,113.274
1497976160,580.9333333358,113.605
1497976162,616.9333333358,109.624
1497976164,595.3333333358,103.037
1497976166,564.1333333358,107.902
1497976168,561.7333333358,112.482
1497976170,556.9333333358,110.298
1497976172,585.7333333358,111.272
1497976174,532.9333333358,116.432
1497976176,530.5333333358,113.982
1497976178,549.7333333358,112.104
1497976180,537.7333333358,107.114
1497976182,559.3333333358,110.509
1497976184,508.9333333358,113.132
1497976186,516.1333333358,112.322
1497976188,554.5333333358,107.481
1497976190,477.7333333358,112.466
1497976192,518.5333333358,117.7
1497976194,506.5333333358,105.357
1497976196,547.3333333358,113.491
1497976198,516.1333333358,118.808
1497976200,499.3333333358,118.235
1497976202,501.7333333358,118.181
1497976204,480.1333333358,119.664
1497976206,441.7333333358,116.289
1497976208,477.7333333358,115.499
1497976210,453.7333333358,112.716
1497976212,532.9333333358,113.751
1497976214,451.3333333358,109.211
1497976216,444.1333333358,110.531
1497976218,429.7333333358,118.97
1497976220,477.7333333358,108.214
1497976222,472.9333333358,103.07
1497976224,494.5333333358,108.868
1497976226,463.3333333358,109.772
1497976230,456.1333333358,113.773
1497976232,482.5333333358,112.528
1497976234,458.5333333358,118.5
1497976236,463.3333333358,110.962
1497976238,492.1333333358,120.133
1497976240,446.5333333358,112.822
1497976242,424.9333333358,119.342
1497976244,453.7333333358,117.925
1497976246,499.3333333358,118.108
1497976248,472.9333333358,114.166
1497976250,444.1333333358,121.774
1497976252,468.1333333358,112.905
1497976254,470.5333333358,117.617
1497976256,458.5333333358,114.069
1497976258,475.3333333358,115.807
1497976260,480.1333333358,117.529
1497976262,432.1333333358,120.237
1497976264,410.5333333358,119.73
1497976266,470.5333333358,115.156
1497976268,458.5333333358,112.39
1497976270,396.1333333358,110.351
1497976272,429.7333333358,112.973
1497976274,429.7333333358,111.271
1497976276,379.3333333358,102.429
1497976278,439.3333333358,117.801
1497976280,439.3333333358,118.533
1497976282,465.7333333358,113.228
1497976284,410.5333333358,116.07
1497976286,436.9333333358,113.516
1497976288,463.3333333358,111.861
1497976290,446.5333333358,110.721
1497976292,465.7333333358,118.726
1497976294,487.3333333358,106.931
1497976296,458.5333333358,107.167
1497976298,487.3333333358,108.173
1497976300,441.7333333358,116.863
1497976302,482.5333333358,111.749
1497976304,422.5333333358,110.49
1497976306,451.3333333358,116.809
1497976308,528.1333333358,109.297
1497976310,516.1333333358,107.293
1497976312,477.7333333358,107.592
1497976314,537.7333333358,114.064
1497976316,532.9333333358,112.44
1497976318,530.5333333358,114.136
1497976320,540.1333333358,111.29
1497976322,516.1333333358,120.917
1497976324,480.1333333358,117.945
1497976326,530.5333333358,124.662
1497976328,547.3333333358,118.389
1497976330,499.3333333358,117.681
1497976332,535.3333333358,119.278
1497976334,518.5333333358,117.56
1497976336,513.7333333358,112.753
1497976338,501.7333333358,112.793
1497976340,468.1333333358,114.656
1497976342,518.5333333358,105.315
1497976344,600.1333333358,110.473
1497976346,520.9333333358,116.977
1497976348,501.7333333358,110.035
1497976350,511.3333333358,118.308
1497976352,520.9333333358,109.344
1497976354,489.7333333358,109.113
1497976356,518.5333333358,117.107
1497976358,528.1333333358,104.495
1497976360,535.3333333358,108.565
1497976362,528.1333333358,106.092
1497976364,501.7333333358,106.275
1497976366,518.5333333358,104.734
1497976368,475.3333333358,110.468
1497976370,448.9333333358,107.59
1497976372,468.1333333358,107.411
1497976374,528.1333333358,107.222
1497976376,484.9333333358,120.093
1497976378,542.5333333358,106.369
1497976380,496.9333333358,105.006
1497976382,422.5333333358,108.973
1497976384,453.7333333358,104.491
1497976386,441.7333333358,104.275
1497976388,460.9333333358,109.897
1497976390,422.5333333358,105.991
1497976392,417.7333333358,120.242
1497976394,489.7333333358,118.757
1497976396,427.3333333358,116.28
1497976398,448.9333333358,110.56
1497976400,417.7333333358,118.019
1497976402,508.9333333358,114.177
1497976404,429.7333333358,109.751
1497976406,508.9333333358,108.062
1497976408,523.3333333358,111.945
1497976410,484.9333333358,109.99
1497976412,412.9333333358,121.229
1497976414,475.3333333358,117.253
1497976416,453.7333333358,114.723
1497976418,456.1333333358,119.314
1497976420,408.1333333358,115.297
1497976422,439.3333333358,114.372
1497976424,444.1333333358,115.367
1497976426,410.5333333358,114.087
1497976428,499.3333333358,118.691
1497976430,436.9333333358,115.402
1497976432,453.7333333358,114.647
1497976434,362.5333333358,119.496
1497976436,444.1333333358,112.563
1497976438,448.9333333358,120.319
1497976440,420.1333333358,112.807
1497976442,369.7333333358,119.325
1497976444,424.9333333358,123.084
1497976446,396.1333333358,120.044
1497976448,434.5333333358,117.221
1497976450,434.5333333358,112.764
1497976452,475.3333333358,110.736
1497976454,470.5333333358,117.028
1497976456,484.9333333358,115.085
1497976458,532.9333333358,112.578
1497976460,542.5333333358,128.378
1497976462,547.3333333358,113.665
1497976464,576.1333333358,123.812
1497976466,614.5333333358,118.77
1497976468,600.1333333358,112.98
1497976470,595.3333333358,116.789
1497976472,643.3333333358,109.667
1497976474,688.9333333358,115.075
1497976476,638.5333333358,117.446
1497976478,648.1333333358,110.238
1497976480,688.9333333358,109.215
1497976482,720.1333333358,115.133
1497976484,628.9333333358,119.805
1497976486,616.9333333358,112.656
1497976488,648.1333333358,113.931
1497976490,636.1333333358,117.919
1497976492,614.5333333358,111.83
1497976494,616.9333333358,115.62
1497976496,645.7333333358,111.713
1497976498,636.1333333358,115.413
1497976500,648.1333333358,114.863
1497976502,667.3333333358,118.309
1497976504,628.9333333358,111.623
1497976506,631.3333333358,114.457
1497976508,688.9333333358,119.685
1497976510,720.1333333358,118.377
1497976512,691.3333333358,122.094
1497976514,640.9333333358,112.876
1497976516,648.1333333358,111.609
1497976518,669.7333333358,113.426
1497976520,624.1333333358,116.132
1497976522,650.5333333358,113.42
1497976524,643.3333333358,119.17
1497976526,624.1333333358,122.664
1497976528,614.5333333358,128.97
1497976530,595.3333333358,120.896
1497976532,604.9333333358,125.973
1497976534,614.5333333358,126.273
1497976536,616.9333333358,117.389
1497976538,585.7333333358,121.232
1497976540,612.1333333358,127.907
1497976542,576.1333333358,120.601
1497976544,588.1333333358,118.116
1497976546,619.3333333358,118.189
1497976548,602.5333333358,113.753
1497976550,592.9333333358,116.63
1497976552,631.3333333358,118.745
1497976554,561.7333333358,114.136
1497976556,556.9333333358,114.458
1497976558,583.3333333358,114.35
1497976560,614.5333333358,108.538
1497976562,547.3333333358,107.707
1497976564,540.1333333358,110.516
1497976566,592.9333333358,107.985
1497976568,568.9333333358,104.725
1497976570,542.5333333358,114.586
1497976572,566.5333333358,109.127
1497976574,566.5333333358,119.723
1497976576,571.3333333358,109.486
1497976578,532.9333333358,115.23
1497976580,602.5333333358,109.285
1497976582,547.3333333358,108.019
1497976584,561.7333333358,105.265
1497976586,544.9333333358,110.253
1497976588,590.5333333358,106.979
1497976590,578.5333333358,106.203
1497976592,552.1333333358,117.728
1497976594,592.9333333358,114.705
1497976596,578.5333333358,120.035
1497976598,544.9333333358,113.205
1497976600,580.9333333358,115.687
1497976602,571.3333333358,111.033
1497976604,585.7333333358,116.426
1497976606,576.1333333358,113.279
1497976608,571.3333333358,110.665
1497976610,561.7333333358,116.245
1497976612,607.3333333358,112.35
1497976614,590.5333333358,112.777
1497976616,607.3333333358,114.409
1497976618,624.1333333358,107.576
1497976620,614.5333333358,116.489
1497976622,564.1333333358,104.675
1497976624,609.7333333358,108.618
1497976626,612.1333333358,109.063
1497976628,597.7333333358,105.232
1497976630,578.5333333358,115.855
1497976632,614.5333333358,108.73
1497976634,626.5333333358,113.993
1497976636,585.7333333358,112.632
1497976638,600.1333333358,110.035
1497976640,564.1333333358,108.448
1497976642,595.3333333358,109.791
1497976644,607.3333333358,104.892
1497976646,600.1333333358,115.34
1497976648,619.3333333358,116.606
1497976650,559.3333333358,110.903
1497976652,573.7333333358,110.766
1497976654,609.7333333358,109.803
1497976656,597.7333333358,109.025
1497976658,588.1333333358,113.045
1497976660,556.9333333358,113.68
1497976662,595.3333333358,111.696
1497976664,597.7333333358,105.836
1497976666,607.3333333358,110.729
1497976668,628.9333333358,110.77
1497976670,633.7333333358,112.402
1497976672,614.5333333358,115.507
1497976674,607.3333333358,120.413
1497976676,614.5333333358,118.21
1497976678,631.3333333358,118.76
1497976680,616.9333333358,108.795
1497976682,612.1333333358,112.581
1497976684,597.7333333358,107.472
1497976686,561.7333333358,115.087
1497976688,559.3333333358,116.694
1497976690,585.7333333358,109.003
1497976692,588.1333333358,116.64
1497976694,525.7333333358,106.504
1497976696,590.5333333358,104.866
1497976698,568.9333333358,113.359
1497976700,540.1333333358,104.874
1497976702,568.9333333358,116.961
1497976704,626.5333333358,122.155
1497976706,564.1333333358,114.484
1497976708,597.7333333358,100.152
1497976710,614.5333333358,98.5049
1497976712,540.1333333358,98.7813
1497976714,597.7333333358,99.764
1497976716,559.3333333358,110.694
1497976718,595.3333333358,105.541
1497976720,554.5333333358,117.49
1497976722,604.9333333358,114.188
1497976724,590.5333333358,113.134
1497976726,607.3333333358,116.807
1497976728,578.5333333358,115.744
1497976730,556.9333333358,111.459
1497976732,607.3333333358,113.524
1497976734,636.1333333358,110.57
1497976736,624.1333333358,108.288
1497976738,633.7333333358,120.406
1497976740,604.9333333358,101.477
1497976742,614.5333333358,106.649
1497976744,624.1333333358,112.359
1497976746,650.5333333358,111.058
1497976748,626.5333333358,98.4828
1497976750,624.1333333358,107.012
1497976752,645.7333333358,110.168
1497976754,650.5333333358,107.986
1497976756,614.5333333358,116.984
1497976758,597.7333333358,111.757
1497976760,640.9333333358,112.676
1497976762,664.9333333358,114.965
1497976764,633.7333333358,112.587
1497976766,643.3333333358,112.923
1497976768,626.5333333358,116.258
1497976770,612.1333333358,113.612
1497976772,602.5333333358,120.63
1497976774,614.5333333358,117.637
1497976776,585.7333333358,112.051
1497976778,619.3333333358,110.407
1497976780,583.3333333358,114.888
1497976782,588.1333333358,114.094
1497976784,600.1333333358,110.612
1497976786,564.1333333358,111.923
1497976788,578.5333333358,110.022
1497976790,616.9333333358,105.051
1497976792,616.9333333358,112.934
1497976794,595.3333333358,109.238
1497976796,655.3333333358,109.598
1497976798,638.5333333358,103.383
1497976800,660.1333333358,110.097
1497976802,662.5333333358,111.51
1497976804,667.3333333358,100.526
1497976806,643.3333333358,100.599
1497976808,655.3333333358,99.828
1497976810,660.1333333358,105.231
1497976812,660.1333333358,112.164
1497976814,631.3333333358,102.381
1497976816,621.7333333358,104.482
1497976818,684.1333333358,103.313
1497976820,674.5333333358,104.81
1497976822,676.9333333358,106.887
1497976824,624.1333333358,100.954
1497976826,657.7333333358,107.618
1497976828,676.9333333358,111.205
1497976830,700.9333333358,108.6
1497976832,720.1333333358,108.371
1497976834,748.9333333358,110.6
1497976836,672.1333333358,114.302
1497976838,705.7333333358,105.276
1497976840,712.9333333358,111.136
1497976842,708.1333333358,112.329
1497976844,698.5333333358,108.351
1497976846,669.7333333358,106.719
1497976848,708.1333333358,110.267
1497976850,664.9333333358,109.439
1497976852,688.9333333358,112.613
1497976854,643.3333333358,120.806
1497976856,628.9333333358,118.321
1497976858,619.3333333358,114.288
1497976860,650.5333333358,107.877
1497976862,619.3333333358,105.69
1497976864,616.9333333358,104.107
1497976866,621.7333333358,110.259
1497976868,580.9333333358,112.695
1497976870,614.5333333358,115.229
1497976872,554.5333333358,110.264
1497976874,554.5333333358,113.83
1497976876,537.7333333358,102.382
1497976878,616.9333333358,110.863
1497976880,568.9333333358,113.963
1497976882,540.1333333358,110.848
1497976884,559.3333333358,105.215
1497976886,530.5333333358,107.244
1497976888,496.9333333358,106.521
1497976890,511.3333333358,103.353
1497976892,544.9333333358,104.909
1497976894,540.1333333358,110.998
1497976896,499.3333333358,110.033
1497976898,511.3333333358,105.805
1497976900,528.1333333358,108.234
1497976902,489.7333333358,116.046
1497976904,451.3333333358,113.569
1497976906,542.5333333358,112.199
1497976908,542.5333333358,111.537
1497976910,516.1333333358,110.251
1497976912,511.3333333358,111.937
1497976914,556.9333333358,109.883
1497976916,532.9333333358,109.562
1497976918,592.9333333358,105.874
1497976920,616.9333333358,105.63
1497976922,609.7333333358,111.779
1497976924,640.9333333358,104.82
1497976926,619.3333333358,109.933
1497976928,650.5333333358,104.313
1497976930,640.9333333358,106.481
1497976932,561.7333333358,113.044
1497976934,592.9333333358,103.249
1497976936,547.3333333358,116.133
1497976938,499.3333333358,111.567
1497976940,535.3333333358,106.973
1497976942,547.3333333358,108.29
1497976944,540.1333333358,107.029
1497976946,470.5333333358,105.718
1497976948,537.7333333358,108.516
1497976950,501.7333333358,110.557
1497976952,472.9333333358,113.02
1497976954,496.9333333358,110.153
1497976956,501.7333333358,109.302
1497976958,532.9333333358,112.909
1497976960,456.1333333358,106.388
1497976962,470.5333333358,110.427
1497976964,463.3333333358,106.543
1497976966,525.7333333358,118.38
1497976968,456.1333333358,108.1
1497976970,530.5333333358,109.173
1497976972,532.9333333358,110.731
1497976974,506.5333333358,117.643
1497976976,511.3333333358,111.182
1497976978,511.3333333358,114.113
1497976980,518.5333333358,110.53
1497976982,506.5333333358,105.659
1497976984,523.3333333358,104.024
1497976986,530.5333333358,102.283
1497976988,460.9333333358,106.552
1497976990,508.9333333358,106.059
1497976992,542.5333333358,102.646
1497976994,506.5333333358,109.399
1497976996,520.9333333358,106.86
1497976998,537.7333333358,110.557
1497977000,559.3333333358,106.972
1497977002,492.1333333358,112.987
1497977004,523.3333333358,104.631
1497977006,535.3333333358,110.652
1497977008,540.1333333358,105.789
1497977010,535.3333333358,97.7681
1497977012,542.5333333358,111.375
1497977014,549.7333333358,112.53
1497977016,528.1333333358,105.632
1497977018,492.1333333358,106.817
1497977020,547.3333333358,116.461
1497977022,511.3333333358,108.977
1497977024,537.7333333358,106.72
1497977026,537.7333333358,103.839
1497977028,537.7333333358,105.974
1497977030,537.7333333358,107.931
1497977032,544.9333333358,106.59
1497977034,544.9333333358,107.551
1497977036,552.1333333358,105.269
1497977038,559.3333333358,111.257
1497977040,549.7333333358,107.423
1497977042,537.7333333358,109.172
1497977044,573.7333333358,111.904
1497977046,583.3333333358,110.202
1497977048,600.1333333358,114.04
1497977050,652.9333333358,110.316
1497977052,621.7333333358,115.351
1497977054,607.3333333358,116.486
1497977056,614.5333333358,111.875
1497977058,612.1333333358,115.153
1497977060,602.5333333358,112.214
1497977062,607.3333333358,108.616
1497977064,604.9333333358,114.526
1497977066,554.5333333358,115.707
1497977068,547.3333333358,109.515
1497977070,612.1333333358,112.598
1497977072,628.9333333358,115.403
1497977074,583.3333333358,120.647
1497977076,640.9333333358,113.368
1497977078,624.1333333358,118.134
1497977080,590.5333333358,118.148
1497977082,561.7333333358,121.071
1497977084,592.9333333358,109.994
1497977086,597.7333333358,106.867
1497977088,604.9333333358,110.927
1497977090,590.5333333358,104.154
1497977092,580.9333333358,106.23
1497977094,554.5333333358,103.488
1497977096,616.9333333358,104.74
1497977098,597.7333333358,107.602
1497977100,592.9333333358,108.884
1497977102,571.3333333358,111.292
1497977104,614.5333333358,115.216
1497977106,559.3333333358,113.226
1497977108,578.5333333358,108.32
1497977110,607.3333333358,116.714
1497977112,602.5333333358,109.997
1497977114,552.1333333358,106.363
1497977116,580.9333333358,101.118
1497977118,602.5333333358,110.125
1497977120,578.5333333358,105.867
1497977122,535.3333333358,108.907
1497977124,552.1333333358,111.601
1497977126,532.9333333358,106.383
1497977128,549.7333333358,120.27
1497977130,547.3333333358,116.692
1497977132,609.7333333358,107.185
1497977134,552.1333333358,111.853
1497977136,554.5333333358,114.003
1497977138,556.9333333358,108.597
1497977140,537.7333333358,108.276
1497977142,547.3333333358,104.649
1497977144,559.3333333358,107.729
1497977146,544.9333333358,110.265
1497977148,528.1333333358,109.573
1497977150,542.5333333358,108.342
1497977152,525.7333333358,107.895
1497977154,482.5333333358,100.552
1497977156,513.7333333358,105.715
1497977158,482.5333333358,113.026
1497977160,518.5333333358,102.27
1497977162,506.5333333358,117.497
1497977164,487.3333333358,106.679
1497977166,535.3333333358,106.218
1497977168,516.1333333358,104.581
1497977170,547.3333333358,107.038
1497977172,540.1333333358,102.497
1497977174,537.7333333358,104.414
1497977176,518.5333333358,104.047
1497977178,506.5333333358,104.71
1497977180,508.9333333358,110.856
1497977182,556.9333333358,110.929
1497977184,516.1333333358,112.743
1497977186,530.5333333358,110.653
1497977188,530.5333333358,107.345
1497977190,525.7333333358,103.312
1497977192,480.1333333358,109.574
1497977194,482.5333333358,110.295
1497977196,508.9333333358,110.888
1497977198,501.7333333358,107.524
1497977200,480.1333333358,108.982
1497977202,513.7333333358,121.949
1497977204,496.9333333358,110.914
1497977206,528.1333333358,108.811
1497977208,465.7333333358,108.698
1497977210,523.3333333358,111.219
1497977212,487.3333333358,117.234
1497977214,477.7333333358,116.429
1497977216,475.3333333358,109.71
1497977218,544.9333333358,113.779
1497977220,429.7333333358,107.469
1497977222,427.3333333358,113.765
1497977224,415.3333333358,111.286
1497977226,501.7333333358,106.927
1497977228,410.5333333358,116.916
1497977230,429.7333333358,120.199
1497977232,415.3333333358,112.748
1497977234,410.5333333358,119.786
1497977236,396.1333333358,103.626
1497977238,434.5333333358,109.193
1497977240,492.1333333358,106.702
1497977242,465.7333333358,111.759
1497977244,439.3333333358,106.672
1497977246,499.3333333358,111.06
1497977248,513.7333333358,114.941
1497977250,453.7333333358,110.657
1497977252,480.1333333358,104.498
1497977254,513.7333333358,111.837
1497977256,494.5333333358,116.274
1497977258,470.5333333358,112.914
1497977260,542.5333333358,115.062
1497977262,535.3333333358,109.867
1497977264,439.3333333358,109.077
1497977266,458.5333333358,111.474
1497977268,451.3333333358,112.197
1497977270,448.9333333358,110.647
1497977272,412.9333333358,120.912
1497977274,408.1333333358,113.527
1497977276,432.1333333358,109.802
1497977278,417.7333333358,109.434
1497977280,446.5333333358,111.7
1497977282,451.3333333358,110.541
1497977284,403.3333333358,104.346
1497977286,432.1333333358,97.5482
1497977288,420.1333333358,111.5
1497977290,496.9333333358,112.176
1497977292,453.7333333358,122.243
1497977294,472.9333333358,128.811
1497977296,489.7333333358,120.389
1497977298,441.7333333358,114.62
1497977300,420.1333333358,117.561
1497977302,448.9333333358,117.826
1497977304,470.5333333358,116.285
1497977306,451.3333333358,114.758
1497977308,408.1333333358,112.837
1497977310,460.9333333358,115.685
1497977312,499.3333333358,117.484
1497977314,520.9333333358,121.483
1497977316,444.1333333358,113.371
1497977318,511.3333333358,110.382
1497977320,422.5333333358,111.233
1497977322,528.1333333358,117.775
1497977324,408.1333333358,110.524
1497977326,516.1333333358,110.693
1497977328,492.1333333358,116.028
1497977330,444.1333333358,116.024
1497977332,441.7333333358,117.066
1497977334,427.3333333358,111.23
1497977336,513.7333333358,110.087
1497977338,525.7333333358,112.987
1497977340,501.7333333358,111.399
1497977342,530.5333333358,110.75
1497977344,436.9333333358,108.76
1497977346,475.3333333358,108.971
1497977348,487.3333333358,113.122
1497977350,528.1333333358,117.169
1497977352,530.5333333358,113.848
1497977354,456.1333333358,116.804
1497977356,446.5333333358,121.222
1497977358,396.1333333358,114.283
1497977360,480.1333333358,113.847
1497977362,482.5333333358,112.072
1497977364,477.7333333358,124.401
1497977366,472.9333333358,116.717
1497977368,494.5333333358,106.12
1497977370,484.9333333358,106.43
1497977372,439.3333333358,115.738
1497977374,537.7333333358,116.994
1497977376,453.7333333358,111.463
1497977378,496.9333333358,122.667
1497977380,436.9333333358,118.321
1497977382,496.9333333358,110.663
1497977384,439.3333333358,105.243
1497977386,434.5333333358,109.5
1497977388,513.7333333358,114.817
1497977390,535.3333333358,109.949
1497977392,525.7333333358,117.136
1497977394,520.9333333358,113.274
1497977396,516.1333333358,110.463
1497977398,537.7333333358,118.037
1497977400,475.3333333358,108.122
1497977402,496.9333333358,105.453
1497977404,487.3333333358,111.002
1497977406,470.5333333358,107.319
1497977408,523.3333333358,111.192
1497977410,525.7333333358,113.222
1497977412,487.3333333358,102.953
1497977414,494.5333333358,113.655
1497977416,472.9333333358,107.151
1497977418,535.3333333358,114.857
1497977420,506.5333333358,111.162
1497977422,518.5333333358,116.882
1497977424,520.9333333358,108.151
1497977426,463.3333333358,112.385
1497977428,501.7333333358,114.853
1497977430,516.1333333358,115.081
1497977432,523.3333333358,111.093
1497977434,441.7333333358,112.848
1497977436,523.3333333358,113.354
1497977438,525.7333333358,114.723
1497977440,496.9333333358,119.478
1497977442,484.9333333358,111.937
1497977444,501.7333333358,115.598
1497977446,525.7333333358,107.104
1497977448,489.7333333358,115.843
1497977450,504.1333333358,105.784
1497977452,446.5333333358,107.335
1497977454,501.7333333358,105.269
1497977456,432.1333333358,106.324
1497977458,446.5333333358,109.983
1497977460,456.1333333358,119.187
1497977462,460.9333333358,110.62
1497977464,436.9333333358,110.329
1497977466,480.1333333358,104.172
1497977468,448.9333333358,106.977
1497977470,501.7333333358,111.238
1497977472,444.1333333358,112.829
1497977474,444.1333333358,119.393
1497977476,424.9333333358,112.297
1497977478,408.1333333358,108.163
1497977480,482.5333333358,112.581
1497977482,492.1333333358,107.685
1497977484,439.3333333358,105.048
1497977486,484.9333333358,115.037
1497977488,446.5333333358,114.791
1497977490,482.5333333358,111.423
1497977492,432.1333333358,112.854
1497977494,475.3333333358,110.033
1497977496,453.7333333358,106.304
1497977498,381.7333333358,111.76
1497977500,439.3333333358,107.184
1497977502,480.1333333358,111.263
1497977504,436.9333333358,105.813
1497977506,415.3333333358,107.6
1497977508,460.9333333358,102.041
1497977510,432.1333333358,105.001
1497977512,444.1333333358,108.066
1497977514,441.7333333358,110.926
1497977516,453.7333333358,107.196
1497977518,439.3333333358,114.091
1497977520,420.1333333358,108.471
1497977522,468.1333333358,112.983
1497977524,506.5333333358,113.688
1497977526,489.7333333358,107.579
1497977528,465.7333333358,104.317
1497977530,420.1333333358,111.792
1497977532,446.5333333358,108.137
1497977534,417.7333333358,104.012
1497977536,420.1333333358,104.49
1497977538,446.5333333358,108.431
1497977540,422.5333333358,105.949
1497977542,403.3333333358,102.674
1497977544,400.9333333358,105.36
1497977546,372.1333333358,107.092
1497977548,393.7333333358,113.687
1497977550,398.5333333358,112.494
1497977552,429.7333333358,108.4
1497977554,400.9333333358,108.393
1497977556,427.3333333358,108.446
1497977558,427.3333333358,109.297
1497977560,420.1333333358,111.757
1497977562,456.1333333358,120.529
1497977564,439.3333333358,111
1497977566,412.9333333358,113.676
1497977568,429.7333333358,112.722
1497977570,417.7333333358,113.181
1497977572,496.9333333358,111.616
1497977574,424.9333333358,114.756
1497977576,448.9333333358,113.15
1497977578,384.1333333358,113.042
1497977580,386.5333333358,111.052
1497977582,400.9333333358,109.578
1497977584,480.1333333358,112.878
1497977586,518.5333333358,106.808
1497977588,494.5333333358,106.461
1497977590,475.3333333358,115.596
1497977592,468.1333333358,116.917
1497977594,487.3333333358,115.221
1497977596,547.3333333358,115.737
1497977598,499.3333333358,113.793
1497977600,552.1333333358,110.561
1497977602,573.7333333358,113.879
1497977604,561.7333333358,114.254
1497977606,576.1333333358,118.332
1497977608,604.9333333358,118.734
1497977610,561.7333333358,110.38
1497977612,554.5333333358,117.275
1497977614,616.9333333358,108.303
1497977616,583.3333333358,110.623
1497977618,590.5333333358,115.461
1497977620,621.7333333358,108.396
1497977622,528.1333333358,111.424
1497977624,573.7333333358,112.756
1497977626,547.3333333358,107.831
1497977628,566.5333333358,107.281
1497977630,547.3333333358,103.561
1497977632,600.1333333358,109.4
1497977634,549.7333333358,106.239
1497977636,523.3333333358,112.466
1497977638,532.9333333358,110.573
1497977640,554.5333333358,115.53
1497977642,511.3333333358,109.433
1497977644,501.7333333358,114.531
1497977646,506.5333333358,117.586
1497977648,480.1333333358,117.06
1497977650,506.5333333358,120.636
1497977652,516.1333333358,115.145
1497977654,523.3333333358,115.954
1497977656,448.9333333358,117.511
1497977658,516.1333333358,114.824
1497977660,516.1333333358,113.125
1497977662,463.3333333358,105.356
1497977664,441.7333333358,108.168
1497977666,504.1333333358,106.536
1497977668,508.9333333358,113.581
1497977670,477.7333333358,105.814
1497977672,432.1333333358,107.768
1497977674,427.3333333358,102.125
1497977676,453.7333333358,120.903
1497977678,444.1333333358,112.519
1497977680,436.9333333358,117.517
1497977682,460.9333333358,111.781
1497977684,472.9333333358,111.724
1497977686,518.5333333358,119.428
1497977688,540.1333333358,113.606
1497977690,535.3333333358,108.623
1497977692,588.1333333358,112.305
1497977694,626.5333333358,112.373
1497977696,607.3333333358,120.719
1497977698,552.1333333358,112.051
1497977700,626.5333333358,108.534
1497977702,556.9333333358,109.709
1497977704,607.3333333358,111.433
1497977706,559.3333333358,106.96
1497977708,559.3333333358,109.312
1497977710,549.7333333358,119.072
1497977712,535.3333333358,115.573
1497977714,549.7333333358,109.23
1497977716,564.1333333358,114.116
1497977718,499.3333333358,108.257
1497977720,528.1333333358,114.931
1497977722,489.7333333358,112.987
1497977724,465.7333333358,106.175
1497977726,477.7333333358,110.772
1497977728,540.1333333358,105.016
1497977730,484.9333333358,111.602
1497977732,535.3333333358,110.475
1497977734,532.9333333358,119.23
1497977736,542.5333333358,110.102
1497977738,520.9333333358,113.513
1497977740,554.5333333358,105.38
1497977742,520.9333333358,108.387
1497977744,530.5333333358,115.863
1497977746,525.7333333358,119.07
1497977748,542.5333333358,117.476
1497977750,506.5333333358,108.681
1497977752,537.7333333358,112.987
1497977754,528.1333333358,112.1
1497977756,501.7333333358,112.326
1497977758,504.1333333358,112.736
1497977760,544.9333333358,111.966
1497977762,556.9333333358,110.84
1497977764,516.1333333358,110.431
1497977766,520.9333333358,115.334
1497977768,544.9333333358,116.185
1497977770,506.5333333358,107.905
1497977772,520.9333333358,109.202
1497977774,506.5333333358,115.93
1497977776,549.7333333358,114.457
1497977778,540.1333333358,116.741
1497977780,530.5333333358,105.895
1497977782,508.9333333358,111.1
1497977784,525.7333333358,104.643
1497977786,480.1333333358,108.021
1497977788,542.5333333358,109.609
1497977790,412.9333333358,109.173
1497977792,477.7333333358,107.325
1497977794,547.3333333358,105.146
1497977796,513.7333333358,114.36
1497977798,444.1333333358,107.747
1497977800,477.7333333358,108.435
1497977802,525.7333333358,106.709
1497977804,472.9333333358,113.857
1497977806,535.3333333358,108.302
1497977808,499.3333333358,113.254
1497977810,528.1333333358,118.577
1497977812,554.5333333358,119.287
1497977814,532.9333333358,129.007
1497977816,528.1333333358,124.449
1497977818,444.1333333358,123.85
1497977820,484.9333333358,115.424
1497977822,501.7333333358,107.361
1497977824,523.3333333358,119.284
1497977826,528.1333333358,110.389
1497977828,489.7333333358,122.105
1497977830,453.7333333358,122.022
1497977832,513.7333333358,119.268
1497977834,468.1333333358,112.258
1497977836,496.9333333358,121.549
1497977838,506.5333333358,117.659
1497977840,508.9333333358,112.058
1497977842,516.1333333358,112.337
1497977844,487.3333333358,119.041
1497977846,475.3333333358,112.81
1497977848,520.9333333358,107.581
1497977850,482.5333333358,110.981
1497977852,492.1333333358,113.477
1497977854,494.5333333358,109.729
1497977856,516.1333333358,113.415
1497977858,499.3333333358,108.385
1497977860,518.5333333358,111.839
1497977862,530.5333333358,111.283
1497977864,477.7333333358,114.693
1497977866,496.9333333358,122.038
1497977868,484.9333333358,126.373
1497977870,528.1333333358,117.678
1497977872,458.5333333358,114.476
1497977874,465.7333333358,120.403
1497977876,456.1333333358,114.522
1497977878,468.1333333358,122.147
1497977880,511.3333333358,123.65
1497977882,484.9333333358,118.929
1497977884,516.1333333358,118.281
1497977886,420.1333333358,112.581
1497977888,453.7333333358,112.283
1497977890,489.7333333358,123.377
1497977892,470.5333333358,125.477
1497977894,441.7333333358,119.345
1497977896,456.1333333358,111.792
1497977898,458.5333333358,119.65
1497977900,422.5333333358,117.004
