tag_number,delay,power_est
1497132456,3049.200000015,113.7
1497132458,3104.400000015,103.807
1497132460,3063.600000015,107.157
1497132462,3034.800000015,105.435
1497132464,3058.800000015,106.426
1497132466,3068.400000015,112.167
1497132468,3116.400000015,119.743
1497132470,3102.000000015,111.6
1497132472,3046.800000015,113.714
1497132474,3075.600000015,109.937
1497132476,3061.200000015,112.325
1497132478,3080.400000015,115.853
1497132480,3075.600000015,118.057
1497132482,3063.600000015,118.875
1497132484,3018.000000015,112.354
1497132486,3025.200000015,107.769
1497132488,3030.000000015,117.271
1497132490,2979.600000015,119.793
1497132492,2972.400000015,113.238
1497132494,2931.600000015,115.29
1497132496,2982.000000015,105.503
1497132498,2929.200000015,118.545
1497132500,2960.400000015,112.467
1497132502,2967.600000015,113.103
1497132504,2950.800000015,112.005
1497132506,2941.200000015,109.686
1497132508,2948.400000015,120.041
1497132510,2972.400000015,114.802
1497132512,2965.200000015,113.972
1497132514,2900.400000015,119.492
1497132516,2924.400000015,122.261
1497132518,2970.000000015,117.839
1497132520,2910.000000015,127.134
1497132522,2938.800000015,114.748
1497132524,2919.600000015,122.693
1497132526,2926.800000015,120.214
1497132528,2919.600000015,124.898
1497132530,2943.600000015,124.622
1497132532,2936.400000015,122.627
1497132534,2986.800000015,120.128
1497132536,2907.600000015,115.104
1497132538,2998.800000015,110.832
1497132540,2950.800000015,113.334
1497132542,2898.000000015,123.548
1497132544,2919.600000015,117.718
1497132546,2982.000000015,113.725
1497132548,2893.200000015,117.563
1497132550,2934.000000015,112.285
1497132552,2960.400000015,121.393
1497132554,3018.000000015,117.513
1497132556,3010.800000015,104.415
1497132558,2958.000000015,113.215
1497132560,2989.200000015,109.398
1497132562,3003.600000015,114.176
1497132564,2955.600000015,121.62
1497132566,2972.400000015,118.919
1497132568,3030.000000015,123.673
1497132570,3030.000000015,111.389
1497132572,2994.000000015,113.734
1497132574,3001.200000015,117.056
1497132576,3039.600000015,113.118
1497132578,3025.200000015,113.396
1497132580,3034.800000015,111.256
1497132582,2994.000000015,104.544
1497132584,3015.600000015,113.11
1497132586,2950.800000015,114.5
1497132588,2948.400000015,119.771
1497132590,3008.400000015,124.023
1497132592,2967.600000015,111.364
1497132594,3044.400000015,116.767
1497132596,2991.600000015,119.772
1497132598,3037.200000015,123.147
1497132600,3027.600000015,117.072
1497132602,3073.200000015,114.073
1497132604,3061.200000015,118.156
1497132606,3046.800000015,114.444
1497132608,3070.800000015,112.63
1497132610,3102.000000015,120.181
1497132612,3063.600000015,118.713
1497132614,3075.600000015,115.772
1497132616,3003.600000015,118.525
1497132618,3025.200000015,110.815
1497132620,3034.800000015,114.622
1497132622,3034.800000015,116.765
1497132624,3030.000000015,117.957
1497132626,3003.600000015,122.817
1497132628,3025.200000015,119.775
1497132630,3025.200000015,120.462
1497132632,3092.400000015,117.942
1497132634,3037.200000015,115.923
1497132636,3037.200000015,117.48
1497132638,3049.200000015,121.96
1497132640,3061.200000015,117.194
1497132642,3044.400000015,118.738
1497132644,3027.600000015,113.713
1497132646,3061.200000015,117.697
1497132648,3018.000000015,121.733
1497132650,2989.200000015,129.62
1497132652,3044.400000015,120.451
1497132654,3039.600000015,124.89
1497132656,2950.800000015,119.848
1497132658,2989.200000015,117.529
1497132660,2984.400000015,116.619
1497132662,3003.600000015,119.194
1497132664,2922.000000015,122.311
1497132666,2984.400000015,108.453
1497132668,3015.600000015,114.655
1497132670,2967.600000015,111.283
1497132672,2953.200000015,110.816
1497132674,3082.800000015,118.081
1497132676,2934.000000015,114.354
1497132678,2982.000000015,112.178
1497132680,2977.200000015,117.004
1497132682,3030.000000015,120.17
1497132684,3032.400000015,119.13
1497132686,3032.400000015,118.729
1497132688,3018.000000015,120.268
1497132690,2965.200000015,113.025
1497132692,3013.200000015,114.765
1497132694,3010.800000015,124.492
1497132696,3015.600000015,110.658
1497132698,2982.000000015,115.924
1497132700,2982.000000015,125.011
1497132702,2984.400000015,116.569
1497132704,2948.400000015,112.14
1497132706,2967.600000015,110.672
1497132708,2979.600000015,119.918
1497132710,3003.600000015,116.451
1497132712,2962.800000015,120.434
1497132714,2982.000000015,124.23
1497132716,3013.200000015,115.32
1497132718,2977.200000015,109.744
1497132720,2943.600000015,109.286
1497132722,2948.400000015,107.919
1497132724,2996.400000015,112.269
1497132726,3010.800000015,111.089
1497132728,3039.600000015,120.636
1497132730,3006.000000015,111.14
1497132732,3018.000000015,115.416
1497132734,3027.600000015,118.152
1497132736,3061.200000015,110.042
1497132738,3046.800000015,115.182
1497132740,3020.400000015,113.551
1497132742,3068.400000015,112.117
1497132744,3078.000000015,116.63
1497132746,3025.200000015,119.849
1497132748,3056.400000015,111.103
1497132750,3061.200000015,125.437
1497132752,2972.400000015,120.252
1497132754,3032.400000015,109.873
1497132756,3044.400000015,121.311
1497132758,3044.400000015,114.903
1497132760,2994.000000015,117.401
1497132762,3030.000000015,111.95
1497132764,3020.400000015,121.225
1497132766,3001.200000015,120.128
1497132768,3030.000000015,104.207
1497132770,3003.600000015,111.621
1497132772,2991.600000015,118.114
1497132774,2970.000000015,120.729
1497132776,3030.000000015,109.601
1497132778,2977.200000015,119.885
1497132780,2953.200000015,107.6
1497132782,2958.000000015,118.933
1497132784,2914.800000015,116.968
1497132786,2970.000000015,119.727
1497132788,2955.600000015,111.574
1497132790,2866.800000015,107.737
1497132792,2871.600000015,111.067
1497132794,2890.800000015,111.641
1497132796,2883.600000015,114.969
1497132798,2907.600000015,119.006
1497132800,2881.200000015,114.21
1497132802,2890.800000015,112.179
1497132804,2823.600000015,119.102
1497132806,2929.200000015,117.633
1497132808,2912.400000015,118.175
1497132810,2948.400000015,114.802
1497132812,2953.200000015,116.573
1497132814,2912.400000015,108.679
1497132816,2919.600000015,103.764
1497132818,2907.600000015,109.002
1497132820,3006.000000015,109.184
1497132822,2979.600000015,104.072
1497132824,3032.400000015,101.529
1497132826,2972.400000015,103.363
1497132828,3037.200000015,106.365
1497132830,3058.800000015,113.488
1497132832,3044.400000015,109.696
1497132834,3013.200000015,106.622
1497132836,3020.400000015,113.818
1497132838,3054.000000015,104.981
1497132840,3070.800000015,99.4003
1497132842,3044.400000015,106.981
1497132844,3039.600000015,104.257
1497132846,3063.600000015,105.493
1497132848,3013.200000015,116.492
1497132850,3032.400000015,102.608
1497132852,3058.800000015,106.224
1497132854,3001.200000015,106.843
1497132856,3030.000000015,104.528
1497132858,3020.400000015,116.531
1497132860,2943.600000015,113.524
1497132862,2934.000000015,119.472
1497132864,2955.600000015,112.71
1497132866,3010.800000015,122.565
1497132868,2931.600000015,103.308
1497132870,2914.800000015,104.089
1497132872,2977.200000015,110.113
1497132874,2929.200000015,105.504
1497132876,2900.400000015,104.352
1497132878,2934.000000015,111.172
1497132880,2934.000000015,108.295
1497132882,2905.200000015,118.281
1497132884,2938.800000015,108.135
1497132886,2967.600000015,119.298
1497132888,2914.800000015,115.496
1497132890,2910.000000015,113.021
1497132892,2898.000000015,115.365
1497132894,2924.400000015,120.052
1497132896,2907.600000015,112.841
1497132898,2910.000000015,125.417
1497132900,2893.200000015,115.071
1497132902,2910.000000015,112.556
1497132904,2895.600000015,116.016
1497132906,2922.000000015,117.099
1497132908,2886.000000015,118.14
1497132910,2941.200000015,114.939
1497132912,2895.600000015,118.659
1497132914,2895.600000015,117.602
1497132916,2888.400000015,117.14
1497132918,2910.000000015,115.62
1497132920,2914.800000015,109.676
1497132922,2895.600000015,120.195
1497132924,2826.000000015,108.605
1497132926,2883.600000015,101.104
1497132928,2898.000000015,107.005
1497132930,2888.400000015,105.321
1497132932,2941.200000015,115.781
1497132934,2958.000000015,107.137
1497132936,3046.800000015,105.776
1497132938,3022.800000015,105.774
1497132940,3092.400000015,110.096
1497132942,3118.800000015,108.895
1497132944,3073.200000015,112.142
1497132946,3094.800000015,107.482
1497132948,3121.200000015,110.265
1497132950,3104.400000015,113.26
1497132952,3082.800000015,103.621
1497132954,3102.000000015,105.314
1497132956,3104.400000015,104.84
1497132958,3080.400000015,104.896
1497132960,3114.000000015,112.062
1497132962,3109.200000015,110.023
1497132964,3061.200000015,104.96
1497132966,3118.800000015,106.617
1497132968,3118.800000015,105.202
1497132970,3150.000000015,108.215
1497132972,3080.400000015,118.168
1497132974,3147.600000015,109.625
1497132976,3133.200000015,109.62
1497132978,3135.600000015,114.987
1497132980,3142.800000015,114.608
1497132982,3186.000000015,111.168
1497132984,3178.800000015,103.355
1497132986,3207.600000015,113.772
1497132988,3243.600000015,116.657
1497132990,3169.200000015,113.349
1497132992,3200.400000015,104.629
1497132994,3166.800000015,104.475
1497132996,3207.600000015,108.444
1497132998,3128.400000015,102.365
1497133000,3133.200000015,102.911
1497133002,3174.000000015,107.609
1497133004,3114.000000015,113.225
1497133006,3123.600000015,114.486
1497133008,3085.200000015,96.6102
1497133010,3063.600000015,104.613
1497133012,3051.600000015,111.815
1497133014,3061.200000015,110.309
1497133016,3054.000000015,100.055
1497133018,3046.800000015,110.394
1497133020,3022.800000015,107.006
1497133022,3013.200000015,109.778
1497133024,3058.800000015,107.837
1497133026,3015.600000015,118.405
1497133028,3042.000000015,111.862
1497133030,3044.400000015,109.613
1497133032,3085.200000015,106.174
1497133034,3056.400000015,106.969
1497133036,3056.400000015,101.686
1497133038,3001.200000015,110.307
1497133040,3030.000000015,103.962
1497133042,2912.400000015,108.931
1497133044,2979.600000015,101.811
1497133046,2900.400000015,96.2824
1497133048,2905.200000015,108.122
1497133050,2938.800000015,106.942
1497133052,2902.800000015,107.583
1497133054,2893.200000015,98.1954
1497133056,2912.400000015,105.413
1497133058,2907.600000015,104.687
1497133060,2866.800000015,106.766
1497133062,2898.000000015,107.957
1497133064,2881.200000015,108.852
1497133066,2878.800000015,111.88
1497133068,2852.400000015,108.635
1497133070,2871.600000015,110.672
1497133072,2886.000000015,114.815
1497133074,2823.600000015,113.145
1497133076,2876.400000015,115.53
1497133078,2888.400000015,115.394
1497133080,2881.200000015,109.154
1497133082,2838.000000015,113.052
1497133084,2838.000000015,110.589
1497133086,2866.800000015,106.514
1497133088,2814.000000015,107.402
1497133090,2797.200000015,109.39
1497133092,2883.600000015,100.955
1497133094,2857.200000015,111.369
1497133096,2845.200000015,109.377
1497133098,2912.400000015,111.195
1497133100,2845.200000015,109.038
1497133102,2869.200000015,109.448
1497133104,2866.800000015,103.56
1497133106,2907.600000015,107.895
1497133108,2907.600000015,113.607
1497133110,2910.000000015,102.946
1497133112,2965.200000015,101.321
1497133114,2938.800000015,104.128
1497133116,2994.000000015,104.632
1497133118,2931.600000015,110.873
1497133120,2996.400000015,114.926
1497133122,2936.400000015,111.137
1497133124,2905.200000015,109.296
1497133126,2994.000000015,106.14
1497133128,2965.200000015,99.0876
1497133130,2962.800000015,113.926
1497133132,2934.000000015,108.567
1497133134,2922.000000015,111.982
1497133136,2900.400000015,115.244
1497133138,2948.400000015,111.694
1497133140,2922.000000015,112.565
1497133142,2943.600000015,106.184
1497133144,2950.800000015,113.773
1497133146,3022.800000015,110.145
1497133148,2924.400000015,122.48
1497133150,2962.800000015,109.788
1497133152,3030.000000015,109.509
1497133154,3046.800000015,118.704
1497133156,3003.600000015,115.692
1497133158,2984.400000015,111.773
1497133160,3042.000000015,109.84
1497133162,3046.800000015,103.025
1497133164,3039.600000015,109.583
1497133166,3094.800000015,104.858
1497133168,3049.200000015,106.881
1497133170,3085.200000015,109.506
1497133172,3118.800000015,107.751
1497133174,3130.800000015,110.273
1497133176,3114.000000015,107.275
1497133178,3109.200000015,106.514
1497133180,3135.600000015,108.418
1497133182,3082.800000015,104.121
1497133184,3087.600000015,112.962
1497133186,3106.800000015,108.694
1497133188,3133.200000015,107.749
1497133190,3078.000000015,109.927
1497133192,3104.400000015,105.89
1497133194,3073.200000015,104.63
1497133196,3099.600000015,108.038
1497133198,3056.400000015,103.067
1497133200,3104.400000015,112.194
1497133202,3073.200000015,109.478
1497133204,3051.600000015,104.72
1497133206,3068.400000015,107.005
1497133208,3090.000000015,112.557
1497133210,3073.200000015,113.033
1497133212,3039.600000015,112.181
1497133214,3051.600000015,103.498
1497133216,3066.000000015,106.211
1497133218,3082.800000015,109.503
1497133220,3104.400000015,108.244
1497133222,3090.000000015,110.118
1497133224,3075.600000015,123.136
1497133226,3094.800000015,109.006
1497133228,3068.400000015,106.073
1497133230,3128.400000015,109.483
1497133232,3092.400000015,120.621
1497133234,3121.200000015,115.171
1497133236,3121.200000015,112.601
1497133238,3097.200000015,110.555
1497133240,3066.000000015,106.051
1497133242,3121.200000015,111.146
1497133244,3097.200000015,107.26
1497133246,3094.800000015,107.831
1497133248,3128.400000015,114.98
1497133250,3082.800000015,114.35
1497133252,3097.200000015,121.549
1497133254,3116.400000015,117.376
1497133256,3063.600000015,115.242
1497133258,3114.000000015,119.261
1497133260,3109.200000015,120.992
1497133262,3116.400000015,120.315
1497133264,3104.400000015,115.035
1497133266,3070.800000015,110.362
1497133268,3073.200000015,111.505
1497133270,3063.600000015,113.143
1497133272,3070.800000015,108.062
1497133274,3039.600000015,110.144
1497133276,3056.400000015,102.628
1497133278,3058.800000015,111.379
1497133280,3054.000000015,109.27
1497133282,3075.600000015,103.731
1497133284,3068.400000015,99.6055
1497133286,3070.800000015,116.264
1497133288,3042.000000015,109.297
1497133290,3118.800000015,104.546
1497133292,3073.200000015,113.099
1497133294,3027.600000015,114.182
1497133296,3087.600000015,109.916
1497133298,3085.200000015,106.032
1497133300,3087.600000015,114.869
1497133302,3061.200000015,112.439
1497133304,3070.800000015,113.951
1497133306,3063.600000015,118.387
1497133308,3056.400000015,110.835
1497133310,3049.200000015,110.373
1497133312,3049.200000015,110.473
1497133314,3044.400000015,108.768
1497133316,3030.000000015,106.5
1497133318,3030.000000015,114.422
1497133320,2989.200000015,114.447
1497133322,2962.800000015,109.34
1497133324,2989.200000015,110.907
1497133326,3013.200000015,108.532
1497133328,3006.000000015,105.611
1497133330,2953.200000015,112.248
1497133332,2919.600000015,110.67
1497133334,2970.000000015,124.667
1497133336,2926.800000015,120.935
1497133338,2948.400000015,106.78
1497133340,2910.000000015,113.513
1497133342,2953.200000015,113.238
1497133344,2948.400000015,105.578
1497133346,2912.400000015,110.507
1497133348,2888.400000015,106.562
1497133350,2926.800000015,117.981
1497133352,2914.800000015,113.186
1497133354,2955.600000015,110.853
1497133356,2905.200000015,103.938
1497133358,2948.400000015,102.364
1497133360,2902.800000015,106.546
1497133362,2922.000000015,109.152
1497133364,2979.600000015,112.753
1497133366,2907.600000015,112.064
1497133368,2929.200000015,106.779
1497133370,2955.600000015,109.572
1497133372,2941.200000015,106.018
1497133374,2910.000000015,110.845
1497133376,2962.800000015,113.49
1497133378,2943.600000015,117.199
1497133380,2917.200000015,109.898
1497133382,2938.800000015,114.679
1497133384,3008.400000015,112.211
1497133386,2934.000000015,116.557
1497133388,2893.200000015,115.842
1497133390,2907.600000015,119.687
1497133392,2914.800000015,120.122
1497133394,2938.800000015,114.79
1497133396,2967.600000015,109.296
1497133398,2982.000000015,112.07
1497133400,2946.000000015,117.08
1497133402,2895.600000015,110.026
1497133404,2922.000000015,107.454
1497133406,2960.400000015,111.203
1497133408,2946.000000015,108.076
1497133410,2982.000000015,119.766
1497133412,2941.200000015,120.73
1497133414,2900.400000015,115.164
1497133416,2914.800000015,116.799
1497133418,2902.800000015,119.074
1497133420,2919.600000015,115.278
1497133422,2922.000000015,117.126
1497133424,2924.400000015,118.998
1497133426,2902.800000015,122.054
1497133428,2922.000000015,125.707
1497133430,2900.400000015,118.145
1497133432,2929.200000015,122.999
1497133434,2890.800000015,111.986
1497133436,2907.600000015,112.182
1497133438,2907.600000015,116.286
1497133440,2907.600000015,109.267
1497133442,2888.400000015,113.562
1497133444,2893.200000015,109.914
1497133446,2905.200000015,113.541
1497133448,3003.600000015,113.269
1497133450,2907.600000015,119.542
1497133452,2946.000000015,113.518
1497133454,2907.600000015,123.593
1497133456,2984.400000015,118.458
1497133458,2907.600000015,112.069
1497133460,2914.800000015,119.933
1497133462,2967.600000015,108.213
1497133464,2941.200000015,119.371
1497133466,2953.200000015,104.299
1497133470,2912.400000015,110.36
1497133472,2936.400000015,110.257
1497133474,3008.400000015,119.427
1497133476,2977.200000015,114.309
1497133478,2938.800000015,117.353
1497133480,2946.000000015,115.819
1497133482,2996.400000015,109.955
1497133484,2922.000000015,117.282
1497133486,2907.600000015,118.008
1497133488,2955.600000015,124.191
1497133490,2958.000000015,117.438
1497133492,2936.400000015,117.712
1497133494,3001.200000015,113.229
1497133496,3010.800000015,113.527
1497133498,3010.800000015,118.261
1497133500,2979.600000015,118.829
1497133502,2934.000000015,113.178
1497133504,3025.200000015,114.649
1497133506,3027.600000015,123.822
1497133508,3020.400000015,107.687
1497133510,2977.200000015,115.028
1497133512,3022.800000015,105.19
1497133514,2946.000000015,111.571
1497133516,3025.200000015,112.214
1497133518,2962.800000015,111.059
1497133520,2982.000000015,113.355
1497133522,2991.600000015,111.811
1497133524,3010.800000015,125.325
1497133526,2950.800000015,127.002
1497133528,2958.000000015,121.201
1497133530,3003.600000015,125.61
1497133532,2938.800000015,121.419
1497133534,2970.000000015,119.238
1497133536,2979.600000015,110.784
1497133538,2991.600000015,111.218
1497133540,2962.800000015,112.306
1497133542,2943.600000015,108.634
1497133544,2938.800000015,112.366
1497133546,2979.600000015,116.969
1497133548,2907.600000015,106.544
1497133550,2946.000000015,105.067
1497133552,2934.000000015,110.933
1497133554,2941.200000015,106.109
1497133556,2929.200000015,110.67
1497133558,2924.400000015,104.448
1497133560,2905.200000015,107.958
1497133562,2950.800000015,110.035
1497133564,2931.600000015,108.412
1497133566,2919.600000015,119.018
1497133568,2914.800000015,106.531
1497133570,2907.600000015,103.5
1497133572,2970.000000015,115.015
1497133574,2910.000000015,115.091
1497133576,2881.200000015,111.737
1497133578,2926.800000015,123.616
1497133580,2919.600000015,107.147
1497133582,2888.400000015,113.316
1497133584,2919.600000015,114.762
1497133586,2905.200000015,107.972
1497133588,2910.000000015,114.743
1497133590,2910.000000015,98.6184
1497133592,2929.200000015,98.844
1497133594,2907.600000015,104.175
1497133596,2905.200000015,104.324
1497133598,2890.800000015,100.408
1497133600,2898.000000015,105.685
1497133602,2970.000000015,104.789
1497133604,2905.200000015,97.6924
1497133606,2893.200000015,105.293
1497133608,2914.800000015,98.3857
1497133610,2926.800000015,102.665
1497133612,2907.600000015,106.265
1497133614,2888.400000015,104.933
1497133616,2874.000000015,107.228
1497133618,2955.600000015,99.8148
1497133620,2924.400000015,101.651
1497133622,2905.200000015,100.055
1497133624,2893.200000015,96.8186
1497133626,2888.400000015,95.313
1497133628,2898.000000015,104.629
1497133630,2910.000000015,104.791
1497133632,2926.800000015,92.7283
1497133634,2902.800000015,109.645
1497133636,2876.400000015,109.665
1497133638,2878.800000015,111.149
1497133640,2900.400000015,100.598
1497133642,2950.800000015,113.204
1497133644,2900.400000015,107.887
1497133646,2898.000000015,105.482
1497133648,2905.200000015,105.932
1497133650,2914.800000015,108.478
1497133652,2881.200000015,108.571
1497133654,2905.200000015,110.296
1497133656,2910.000000015,112.869
1497133658,2926.800000015,111.513
1497133660,2898.000000015,111.358
1497133662,2926.800000015,105.643
1497133664,2914.800000015,114.373
1497133666,2895.600000015,112.655
1497133668,2902.800000015,112.919
1497133670,2912.400000015,109.172
1497133672,2893.200000015,114.971
1497133674,2914.800000015,111.568
1497133676,2919.600000015,126.296
1497133678,2907.600000015,111.803
1497133680,2895.600000015,109.905
1497133682,2917.200000015,114.692
1497133684,2917.200000015,110.944
1497133686,2888.400000015,114.07
1497133688,2929.200000015,117.422
1497133690,2874.000000015,112.624
1497133692,2914.800000015,119.51
1497133696,2886.000000015,112.843
1497133698,2886.000000015,113.943
1497133700,2874.000000015,116.067
1497133702,2900.400000015,110.452
1497133704,2876.400000015,108.502
1497133706,2878.800000015,113.927
1497133708,2859.600000015,116.783
1497133710,2898.000000015,117.396
1497133712,2871.600000015,117.294
1497133714,2910.000000015,127.114
1497133716,2912.400000015,118.613
1497133718,2871.600000015,115.47
1497133720,2895.600000015,116.951
1497133722,2946.000000015,112.703
1497133724,2900.400000015,116.346
1497133726,2874.000000015,119.175
1497133728,2886.000000015,112.816
1497133730,2970.000000015,119.022
1497133732,2914.800000015,117.486
1497133734,2888.400000015,119.736
1497133736,2883.600000015,113.995
1497133738,2917.200000015,114.96
1497133740,2886.000000015,118.19
1497133742,2907.600000015,121.36
1497133744,2934.000000015,122.229
1497133746,2895.600000015,120.93
1497133748,2888.400000015,112.745
1497133750,2941.200000015,116.393
1497133752,2914.800000015,116.734
1497133754,2926.800000015,110.943
1497133756,2886.000000015,111.446
1497133758,2922.000000015,110.802
1497133760,2924.400000015,108.504
1497133762,2919.600000015,112.897
1497133764,2907.600000015,116.002
1497133766,2905.200000015,117.743
1497133768,2862.000000015,122.741
1497133770,2878.800000015,117.991
1497133772,2917.200000015,108.815
1497133774,2886.000000015,116.781
1497133776,2934.000000015,113.152
1497133778,2953.200000015,117.608
1497133780,2888.400000015,115.842
1497133782,2917.200000015,114.28
1497133784,2970.000000015,121.658
1497133786,2953.200000015,118.216
1497133788,2938.800000015,117.47
1497133790,2972.400000015,120.603
1497133792,2965.200000015,119.534
1497133794,2986.800000015,119.629
1497133796,2924.400000015,125.964
1497133798,2977.200000015,120.58
1497133800,2953.200000015,116.479
1497133802,2922.000000015,118.249
1497133804,2953.200000015,118.036
1497133806,2948.400000015,111.519
1497133808,2926.800000015,118.192
1497133810,2912.400000015,115.877
1497133812,2910.000000015,116.515
1497133814,3008.400000015,117.869
1497133816,2926.800000015,116.021
1497133818,2934.000000015,120.058
1497133820,2943.600000015,126.113
1497133822,2912.400000015,115.539
1497133824,2914.800000015,116.852
1497133826,2926.800000015,118.091
1497133828,2890.800000015,121.318
1497133830,2900.400000015,120.134
1497133832,2878.800000015,101.658
1497133834,2883.600000015,115.554
1497133836,2857.200000015,115.516
1497133838,2886.000000015,114.009
1497133840,2900.400000015,117.031
1497133842,2864.400000015,112.424
1497133844,2835.600000015,122.662
1497133846,2874.000000015,126.044
1497133848,2905.200000015,119.491
1497133850,2874.000000015,116.717
1497133852,2864.400000015,115.548
1497133854,2890.800000015,116.558
1497133856,2881.200000015,118.78
1497133858,2842.800000015,118.388
1497133860,2881.200000015,124.492
1497133862,2869.200000015,124.654
1497133864,2857.200000015,113.928
1497133866,2883.600000015,110.629
1497133868,2888.400000015,117.779
1497133870,2888.400000015,124.885
1497133872,2866.800000015,118.339
1497133874,2898.000000015,124.031
1497133876,2878.800000015,116.197
1497133878,2886.000000015,118.499
1497133880,2888.400000015,120.66
1497133882,2922.000000015,115.924
1497133884,2787.600000015,112.922
1497133886,2814.000000015,107.3
1497133888,2938.800000015,107.136
1497133890,2890.800000015,111.883
1497133892,2878.800000015,108.76
1497133894,2926.800000015,114.567
1497133896,2883.600000015,109.839
1497133898,2907.600000015,113.563
1497133900,2914.800000015,113.84
1497133902,2902.800000015,105.641
1497133904,2862.000000015,111.341
1497133906,2926.800000015,107.194
1497133908,2943.600000015,115.212
1497133910,2900.400000015,112.491
1497133912,2912.400000015,107.607
1497133914,2898.000000015,107.223
1497133916,2912.400000015,110.113
1497133918,2878.800000015,111.215
1497133920,2905.200000015,112.961
1497133922,2886.000000015,105.511
1497133924,2900.400000015,100.334
1497133926,2871.600000015,102.256
1497133928,2907.600000015,115.474
1497133930,2888.400000015,107.296
1497133932,2893.200000015,110.64
1497133934,2895.600000015,110.678
1497133936,2917.200000015,107.527
1497133938,2912.400000015,115.132
1497133940,2914.800000015,110.752
1497133942,2895.600000015,108.445
1497133944,2924.400000015,103.123
1497133946,2917.200000015,103.661
1497133948,2991.600000015,105.151
1497133950,2914.800000015,105.85
1497133952,2936.400000015,104.385
1497133954,2979.600000015,107.68
1497133956,2972.400000015,114.276
1497133958,2902.800000015,111.825
1497133960,2900.400000015,113.457
1497133962,2924.400000015,113.285
1497133964,2881.200000015,120.341
1497133966,2881.200000015,118.195
1497133968,2934.000000015,115.609
1497133970,2934.000000015,122.308
1497133972,2900.400000015,106.102
1497133974,2919.600000015,109.755
1497133976,2907.600000015,113.585
1497133978,2907.600000015,111.684
1497133980,2946.000000015,119.405
1497133982,2907.600000015,119.394
1497133984,2917.200000015,120.954
1497133986,2898.000000015,111.831
1497133988,2953.200000015,119.721
1497133990,2938.800000015,108.924
1497133992,2965.200000015,116.479
1497133994,2926.800000015,112.951
1497133996,2970.000000015,113.071
1497133998,2926.800000015,116.482
1497134000,2941.200000015,112.913
1497134002,2919.600000015,113.7
1497134004,2941.200000015,117.076
1497134006,2893.200000015,113.488
1497134008,2902.800000015,108.703
1497134010,2902.800000015,109.565
1497134012,2900.400000015,109.655
1497134014,2917.200000015,106.509
1497134016,2926.800000015,109.031
1497134018,2919.600000015,106.545
1497134020,2917.200000015,113.745
1497134022,2943.600000015,112.916
1497134024,2934.000000015,116.986
1497134026,2893.200000015,119.817
1497134028,2936.400000015,111.31
1497134030,2878.800000015,113.836
1497134032,2881.200000015,113.008
1497134034,2895.600000015,116.24
1497134036,2924.400000015,112.376
1497134038,2919.600000015,110.187
1497134040,2946.000000015,122.062
1497134042,2888.400000015,117.879
1497134044,2883.600000015,121.607
1497134046,2898.000000015,120.031
1497134048,2898.000000015,124.353
1497134050,2943.600000015,120.73
1497134052,2912.400000015,124.801
1497134054,2924.400000015,113.668
1497134056,2900.400000015,108.618
1497134058,2874.000000015,116.702
1497134060,2917.200000015,109.111
1497134062,2917.200000015,110.94
1497134064,2902.800000015,115.16
1497134066,2917.200000015,109.85
1497134068,2919.600000015,112.948
1497134070,3003.600000015,109.828
1497134072,2869.200000015,113.478
1497134074,2907.600000015,114.542
1497134076,2943.600000015,120.078
1497134078,2931.600000015,115.729
1497134080,2948.400000015,123.036
1497134082,2950.800000015,119.777
1497134084,2922.000000015,120.36
1497134086,2972.400000015,114.47
1497134088,2902.800000015,122.837
1497134090,2946.000000015,118.797
1497134092,2902.800000015,115.484
1497134094,2886.000000015,112.842
1497134096,2917.200000015,112.056
1497134098,2890.800000015,111.178
1497134100,2912.400000015,112.342
1497134102,2905.200000015,114.816
1497134104,2876.400000015,111.263
1497134106,2907.600000015,111.262
1497134108,2934.000000015,114.352
1497134110,2905.200000015,109.535
1497134112,2900.400000015,111.916
1497134114,2924.400000015,119.506
1497134116,2917.200000015,106.855
1497134118,2902.800000015,114.871
1497134120,2912.400000015,103.079
1497134122,2938.800000015,103.538
1497134124,2965.200000015,105.772
1497134126,2890.800000015,115.869
1497134128,2934.000000015,112.403
1497134130,2962.800000015,112.121
1497134132,2910.000000015,106.253
1497134134,2924.400000015,111.488
1497134136,2941.200000015,103.976
1497134138,2943.600000015,108.863
1497134140,2965.200000015,109.392
1497134142,2914.800000015,121.16
1497134144,2917.200000015,114.551
1497134146,2878.800000015,118.713
1497134148,2910.000000015,114.194
1497134150,2907.600000015,116.509
1497134152,2924.400000015,117.125
1497134154,2876.400000015,114.22
1497134156,2900.400000015,111.46
1497134158,2946.000000015,116.861
1497134160,2924.400000015,117.13
1497134162,2910.000000015,115.699
1497134164,2910.000000015,113.803
1497134166,2922.000000015,117.587
1497134168,2871.600000015,126.379
1497134170,2890.800000015,120.942
1497134172,2866.800000015,120.648
1497134174,2881.200000015,110.396
1497134176,2876.400000015,108.229
1497134178,2972.400000015,115.516
1497134180,2888.400000015,112.641
1497134182,2922.000000015,114.879
1497134184,2922.000000015,112.657
1497134186,2883.600000015,114.718
1497134188,2874.000000015,116.955
1497134190,2902.800000015,111.843
1497134192,2919.600000015,114.947
1497134194,2893.200000015,113.24
1497134196,2905.200000015,120.448
1497134198,2886.000000015,122.235
1497134200,2893.200000015,115.979
1497134202,2898.000000015,123.775
1497134204,2905.200000015,115.192
1497134206,2929.200000015,115.226
1497134208,2907.600000015,109.503
1497134210,2977.200000015,110.384
1497134212,2905.200000015,110.709
1497134214,2922.000000015,114.477
1497134216,2986.800000015,114.663
1497134218,3001.200000015,111.485
1497134220,2984.400000015,114.877
1497134222,3046.800000015,114.707
1497134224,2998.800000015,114.84
1497134226,2998.800000015,116.576
1497134228,3056.400000015,112.807
1497134230,3063.600000015,112.138
1497134232,3070.800000015,107.967
1497134234,3054.000000015,105.264
1497134236,3070.800000015,106.955
1497134238,3022.800000015,104.072
1497134240,2994.000000015,109.616
1497134242,3034.800000015,117.699
1497134244,3049.200000015,111.949
1497134246,3018.000000015,108.767
1497134248,3020.400000015,97.5628
1497134250,2979.600000015,113.617
1497134252,2967.600000015,107.989
1497134254,2977.200000015,106.153
1497134256,2914.800000015,107.126
1497134258,2946.000000015,107.087
1497134260,2965.200000015,107.358
1497134262,2941.200000015,115.875
1497134264,2924.400000015,122.754
1497134266,2917.200000015,119.684
1497134268,2950.800000015,117.066
1497134270,2895.600000015,119.904
1497134272,2955.600000015,112.864
1497134274,3006.000000015,111.961
1497134276,2895.600000015,118.981
1497134278,2895.600000015,123.068
1497134280,2936.400000015,121.665
1497134282,2941.200000015,111.612
1497134284,2936.400000015,111.614
1497134286,2986.800000015,109.99
1497134288,3003.600000015,116.455
1497134290,2984.400000015,118.628
1497134292,2974.800000015,118.257
1497134294,3049.200000015,121.191
1497134296,3042.000000015,120.441
1497134298,3058.800000015,110.816
1497134300,3078.000000015,121.909
1497134302,3070.800000015,117.888
1497134304,3078.000000015,118.599
1497134306,3104.400000015,117.067
1497134308,3097.200000015,110.745
1497134310,3106.800000015,113.885
1497134312,3092.400000015,120.279
1497134314,3094.800000015,114.941
1497134316,3070.800000015,118.509
1497134318,3104.400000015,116.398
1497134320,3085.200000015,118.835
1497134322,3104.400000015,113.152
1497134324,3049.200000015,112.489
1497134326,3034.800000015,113.153
1497134328,3037.200000015,119.131
1497134330,2996.400000015,115.935
1497134332,3066.000000015,117.192
1497134334,3061.200000015,110.848
1497134336,2970.000000015,116.782
1497134338,3044.400000015,117.063
1497134340,3001.200000015,113.995
1497134342,2998.800000015,112.872
1497134344,2955.600000015,110.936
1497134346,2998.800000015,108.453
1497134348,2917.200000015,105.151
1497134350,2974.800000015,116.77
1497134352,2972.400000015,112.184
1497134354,2962.800000015,109.336
1497134356,2960.400000015,105.32
1497134358,2936.400000015,111.453
1497134360,2991.600000015,115.652
1497134362,2934.000000015,115.599
1497134364,2888.400000015,121.967
1497134366,2979.600000015,116.932
1497134368,2934.000000015,114.685
1497134370,2991.600000015,107.732
1497134372,2998.800000015,116.95
1497134374,2934.000000015,109.258
1497134376,2931.600000015,110.011
1497134378,2984.400000015,106.566
1497134380,2953.200000015,110.227
1497134382,2953.200000015,111.872
1497134384,3008.400000015,114.511
1497134386,3001.200000015,109.081
1497134388,3015.600000015,107.669
1497134390,2941.200000015,104.836
1497134392,3008.400000015,106.266
1497134394,3037.200000015,109.753
1497134396,3042.000000015,115.607
1497134398,3030.000000015,116.715
1497134400,3032.400000015,116.713
1497134402,3003.600000015,126.343
1497134404,3042.000000015,115.897
1497134406,3020.400000015,110.014
1497134408,2996.400000015,110.394
1497134410,3001.200000015,108.464
1497134412,3042.000000015,114.673
1497134414,2960.400000015,113.451
1497134416,2984.400000015,107.541
1497134418,3018.000000015,103.253
1497134420,2960.400000015,112.385
1497134422,2984.400000015,107.674
1497134424,3046.800000015,99.1685
1497134426,2967.600000015,108.59
1497134428,2982.000000015,102.213
1497134430,3001.200000015,106.661
1497134432,2996.400000015,118.462
1497134434,2984.400000015,113.063
1497134436,2982.000000015,114.763
1497134438,3008.400000015,116.869
1497134440,2979.600000015,112.984
1497134442,2917.200000015,109.778
1497134444,2950.800000015,120.696
1497134446,2955.600000015,121.07
1497134448,2912.400000015,116.852
1497134450,3010.800000015,118.826
1497134452,2912.400000015,111.76
1497134454,2895.600000015,126.559
1497134456,2919.600000015,127.453
1497134458,2907.600000015,119.382
1497134460,2893.200000015,123.017
1497134462,2900.400000015,121.857
1497134464,2874.000000015,123.299
1497134466,2886.000000015,121.097
1497134468,2922.000000015,122.742
1497134470,2912.400000015,122.162
1497134472,2919.600000015,111.774
1497134474,2902.800000015,124.173
1497134476,2938.800000015,112.503
1497134478,2922.000000015,111.981
1497134480,2912.400000015,123.396
1497134482,2953.200000015,125.13
1497134484,2886.000000015,114.635
1497134486,2895.600000015,119.542
1497134488,2907.600000015,118.075
1497134490,2907.600000015,121.736
1497134492,2898.000000015,118.764
1497134494,2881.200000015,117.52
1497134496,2926.800000015,114.989
1497134498,2893.200000015,124.233
1497134500,2922.000000015,111.042
1497134502,2898.000000015,112.768
1497134504,2929.200000015,114.843
1497134506,2914.800000015,114.55
1497134508,2917.200000015,110.909
1497134510,2919.600000015,104.935
1497134512,2888.400000015,111.34
1497134514,2900.400000015,117.121
1497134516,2926.800000015,111.637
1497134518,2869.200000015,117.567
1497134520,2890.800000015,112.113
1497134522,2900.400000015,115.903
1497134524,2852.400000015,107.225
1497134526,2876.400000015,114.194
1497134528,2931.600000015,114.915
1497134530,2878.800000015,118.15
1497134532,2905.200000015,118.786
1497134534,2900.400000015,113.013
1497134536,2883.600000015,115.715
1497134538,2866.800000015,113.108
1497134540,2890.800000015,107.537
1497134542,2902.800000015,105.072
1497134544,2912.400000015,113.94
1497134546,2910.000000015,115.635
1497134548,2922.000000015,113.592
1497134550,2869.200000015,107.143
1497134552,2893.200000015,114.788
1497134554,2917.200000015,112.648
1497134556,2890.800000015,111.219
1497134558,2893.200000015,106.056
1497134560,2881.200000015,113.511
1497134562,2881.200000015,106.164
1497134564,2883.600000015,114.952
1497134566,2905.200000015,107.584
1497134568,2907.600000015,115.984
1497134570,2912.400000015,117.507
1497134572,2919.600000015,113.889
1497134574,2874.000000015,114.54
1497134576,2886.000000015,115.143
1497134578,2926.800000015,115.712
1497134580,2871.600000015,112.139
1497134582,2936.400000015,107.463
1497134584,2890.800000015,120.347
1497134586,2917.200000015,120.044
1497134588,2871.600000015,108.293
1497134590,2854.800000015,118.433
1497134592,2926.800000015,107.123
1497134594,2890.800000015,116.042
1497134596,2881.200000015,109.26
1497134598,2914.800000015,113.141
1497134600,2874.000000015,117.315
1497134602,2902.800000015,112.465
1497134604,2912.400000015,113.521
1497134606,2866.800000015,111.424
1497134608,2898.000000015,113.437
1497134610,2926.800000015,117.096
1497134612,2967.600000015,111.484
1497134614,2883.600000015,114.816
1497134616,2902.800000015,114.216
1497134618,2874.000000015,109.005
1497134620,2888.400000015,116.548
1497134622,2929.200000015,119.899
1497134624,2910.000000015,111.692
1497134626,2931.600000015,105.232
1497134628,2886.000000015,107.33
1497134630,2900.400000015,113.54
1497134632,2883.600000015,113.814
1497134634,2893.200000015,112.899
1497134636,2890.800000015,111.317
1497134638,2948.400000015,112.682
1497134640,2888.400000015,105.76
1497134642,2902.800000015,112.932
1497134644,2905.200000015,111.173
1497134646,2881.200000015,117.418
1497134648,2883.600000015,113.916
1497134650,2902.800000015,107.923
1497134652,2883.600000015,112.707
1497134654,2893.200000015,106.698
1497134656,2907.600000015,118.036
1497134658,2893.200000015,122.047
1497134660,2902.800000015,108.419
1497134662,2917.200000015,108.088
1497134664,2886.000000015,110.323
1497134666,2898.000000015,113.978
1497134668,2914.800000015,109.011
1497134670,2922.000000015,113.432
1497134672,2866.800000015,113.034
1497134674,2878.800000015,112.852
1497134676,2926.800000015,114.058
1497134678,2883.600000015,111.517
1497134680,2919.600000015,114.944
1497134682,2881.200000015,117.132
1497134684,2893.200000015,120.961
1497134686,2902.800000015,117.057
1497134688,2902.800000015,116.743
1497134690,2922.000000015,112.056
1497134692,2878.800000015,118.41
1497134694,2914.800000015,117.912
1497134696,2907.600000015,114.444
1497134698,2907.600000015,104.019
1497134700,2907.600000015,107.92
1497134702,2931.600000015,118.159
1497134704,2878.800000015,121.082
1497134706,2905.200000015,118.841
1497134708,2938.800000015,112.039
1497134710,2905.200000015,113.878
1497134712,2886.000000015,110.686
1497134714,2996.400000015,112.72
1497134716,2895.600000015,112.308
1497134718,2886.000000015,116.337
1497134720,2919.600000015,112.54
1497134722,2888.400000015,110.886
1497134724,2890.800000015,120.041
1497134726,2893.200000015,120.294
1497134728,2890.800000015,117.735
1497134730,2874.000000015,113.151
1497134732,2833.200000015,111.374
1497134734,2898.000000015,108.218
1497134736,2893.200000015,113.698
1497134738,2950.800000015,114.138
1497134740,2950.800000015,120.917
1497134742,2914.800000015,118.521
1497134744,2902.800000015,111.921
1497134746,2910.000000015,120.32
1497134748,2910.000000015,117.303
1497134750,2890.800000015,114.556
1497134752,2917.200000015,121.608
1497134754,2929.200000015,112.499
1497134756,2893.200000015,117.42
1497134758,2900.400000015,116.016
1497134760,2893.200000015,107.887
1497134762,2871.600000015,114.294
1497134764,2883.600000015,112.333
1497134766,2893.200000015,109.485
1497134768,2864.400000015,108.312
1497134770,2898.000000015,112.086
1497134772,2912.400000015,114.826
1497134774,2902.800000015,115.553
1497134776,2910.000000015,109.441
1497134778,2898.000000015,108.294
1497134780,2900.400000015,114.926
1497134782,2914.800000015,111.932
1497134784,2917.200000015,109.965
1497134786,2878.800000015,111.435
1497134788,2883.600000015,110.724
1497134790,2878.800000015,113.024
1497134792,2905.200000015,112.978
1497134794,2862.000000015,110.711
1497134796,2900.400000015,111.21
1497134798,2866.800000015,114.658
1497134800,2876.400000015,112.4
1497134802,2859.600000015,125.422
1497134804,2857.200000015,119.174
1497134806,2830.800000015,118.56
1497134808,2842.800000015,110.773
1497134810,2907.600000015,111.565
1497134812,2847.600000015,110.936
1497134814,2864.400000015,118.24
1497134816,2878.800000015,116.252
1497134818,2859.600000015,113.033
1497134820,2818.800000015,120.124
1497134822,2857.200000015,111.348
1497134824,2878.800000015,113.174
1497134826,2857.200000015,114.302
1497134828,2818.800000015,117.397
1497134830,2888.400000015,117.339
1497134832,2830.800000015,118.971
1497134834,2876.400000015,124.316
1497134836,2816.400000015,116.007
1497134838,2881.200000015,120.739
1497134840,2886.000000015,116.488
1497134842,2893.200000015,119.58
1497134844,2890.800000015,119.58
1497134846,2869.200000015,119.913
1497134848,2902.800000015,115.64
1497134850,2878.800000015,122.019
1497134852,2876.400000015,120.743
1497134854,2895.600000015,114.232
1497134856,2888.400000015,112.312
1497134858,2857.200000015,115.595
1497134860,2850.000000015,115.991
1497134862,2876.400000015,113.713
1497134864,2871.600000015,113.626
1497134866,2874.000000015,116.208
1497134868,2919.600000015,113.165
1497134870,2895.600000015,111.511
1497134872,2809.200000015,110.117
1497134874,2893.200000015,113.017
1497134876,2910.000000015,109.637
1497134878,2895.600000015,111.128
1497134880,2864.400000015,115.717
1497134882,2910.000000015,119.935
1497134884,2934.000000015,116.98
1497134886,2881.200000015,110.116
1497134888,2862.000000015,113.465
1497134890,2912.400000015,115.842
1497134892,2888.400000015,118.412
1497134894,2960.400000015,117.986
1497134896,2938.800000015,119.246
1497134898,2929.200000015,111.634
1497134900,2869.200000015,111.852
1497134902,2912.400000015,111.251
1497134904,2895.600000015,118.495
1497134906,2876.400000015,120.491
1497134908,2924.400000015,122.896
1497134910,2924.400000015,112.967
1497134912,2888.400000015,112.601
1497134914,2871.600000015,103.107
1497134916,2917.200000015,109.076
1497134918,2910.000000015,112.423
1497134920,2886.000000015,117.318
1497134922,2893.200000015,108.237
1497134924,2886.000000015,111.121
1497134926,2881.200000015,121.467
1497134928,2883.600000015,112.055
1497134930,2917.200000015,118.602
1497134932,2905.200000015,111.021
1497134934,2869.200000015,111.878
1497134936,2917.200000015,112.825
1497134938,2878.800000015,107.071
1497134940,2874.000000015,115.306
1497134942,2888.400000015,101.208
1497134944,2898.000000015,98.8435
1497134946,2878.800000015,106.98
1497134948,2895.600000015,117.9
1497134950,2895.600000015,118.014
1497134952,2929.200000015,112.826
1497134954,2902.800000015,121.497
1497134956,2890.800000015,118.882
1497134958,2938.800000015,108.724
1497134960,2917.200000015,123.405
1497134962,2938.800000015,123.669
1497134964,2936.400000015,128.521
1497134966,2905.200000015,122.774
1497134968,2905.200000015,110.56
1497134970,2958.000000015,110.821
1497134972,2943.600000015,106.83
1497134974,2907.600000015,104.048
1497134976,2938.800000015,106.336
1497134978,2972.400000015,112.241
1497134980,2941.200000015,110.595
1497134982,2869.200000015,110.672
1497134984,2960.400000015,109.285
1497134986,2970.000000015,109.64
1497134988,2953.200000015,105.561
1497134990,2905.200000015,109.216
1497134992,2953.200000015,108.482
1497134994,2943.600000015,108.721
1497134996,2946.000000015,105.293
1497134998,2917.200000015,106.803
1497135000,2962.800000015,109.526
1497135002,2929.200000015,109.837
1497135004,2914.800000015,113.981
1497135006,2972.400000015,107.619
1497135008,2878.800000015,111.735
1497135010,2994.000000015,109.374
1497135012,2934.000000015,121.26
1497135014,2936.400000015,109.518
1497135016,2917.200000015,113.314
1497135018,2922.000000015,119.728
1497135020,2902.800000015,118.157
1497135022,2876.400000015,108.68
1497135024,2912.400000015,112.247
1497135026,2902.800000015,113.343
1497135028,2869.200000015,109.044
1497135030,2890.800000015,122.181
1497135032,2881.200000015,113.273
1497135034,2866.800000015,120.148
1497135036,2910.000000015,111.754
1497135038,2914.800000015,108.935
1497135040,2876.400000015,107.921
1497135042,2914.800000015,104.865
1497135044,2898.000000015,110.221
1497135046,2919.600000015,105.563
1497135048,2919.600000015,112.235
1497135050,2890.800000015,112.992
1497135052,2929.200000015,105.481
1497135054,2905.200000015,109.351
1497135056,2929.200000015,103.928
1497135058,2907.600000015,107.129
1497135060,2902.800000015,112.237
1497135062,2890.800000015,113.493
1497135064,2895.600000015,110.364
1497135066,2874.000000015,106.32
1497135068,2838.000000015,103.99
1497135070,2833.200000015,109.248
1497135072,2869.200000015,114.635
1497135074,2806.800000015,110.383
1497135076,2902.800000015,113.463
1497135078,2888.400000015,111.22
1497135080,2907.600000015,113.801
1497135082,2905.200000015,111.709
1497135084,2886.000000015,115.686
1497135086,2874.000000015,110.423
1497135088,2878.800000015,109.607
1497135090,2900.400000015,108.648
1497135092,2874.000000015,110.038
1497135094,2888.400000015,110.768
1497135096,2878.800000015,113.537
1497135098,2890.800000015,103.458
1497135100,2912.400000015,110.017
1497135102,2936.400000015,112.96
1497135104,2905.200000015,108.813
1497135106,2919.600000015,115.068
1497135108,2924.400000015,111.303
1497135110,2941.200000015,115.092
1497135112,2934.000000015,113.574
1497135114,2972.400000015,117.786
1497135116,2958.000000015,115.682
1497135118,3046.800000015,109.485
1497135120,2974.800000015,113.895
1497135122,3003.600000015,110.467
1497135124,3032.400000015,122.425
1497135126,3034.800000015,119.448
1497135128,3008.400000015,117.025
1497135130,3001.200000015,100.808
1497135132,3018.000000015,109.168
1497135134,2974.800000015,108.31
1497135136,2989.200000015,109.195
1497135138,2953.200000015,118.866
1497135140,3010.800000015,117.934
1497135142,2946.000000015,112.9
1497135144,2943.600000015,115.535
1497135146,2912.400000015,117.444
1497135148,2948.400000015,113.006
1497135150,2960.400000015,117.192
1497135152,2986.800000015,110.179
1497135154,2950.800000015,113.966
1497135156,2958.000000015,111.357
1497135158,2922.000000015,110.888
1497135160,2934.000000015,117.209
1497135162,2924.400000015,115.499
1497135164,2922.000000015,108.188
1497135166,2941.200000015,111.755
1497135168,2893.200000015,109.828
1497135170,2881.200000015,111.516
1497135172,2914.800000015,115.289
1497135174,2914.800000015,110.51
1497135176,2898.000000015,110.481
1497135178,2934.000000015,107.061
1497135180,2878.800000015,125.956
1497135182,2902.800000015,112.078
1497135184,2994.000000015,117.497
1497135186,2922.000000015,120.649
1497135188,2914.800000015,120.943
1497135190,2955.600000015,119.922
1497135192,2905.200000015,113.116
1497135194,2934.000000015,114.236
1497135196,2943.600000015,101.696
1497135198,2943.600000015,105.395
1497135200,2912.400000015,109.082
1497135202,2936.400000015,109.319
1497135204,2914.800000015,114.087
1497135206,2898.000000015,111.047
1497135208,2914.800000015,111.016
1497135210,2926.800000015,115.939
1497135212,2902.800000015,111.816
1497135214,2994.000000015,110.19
1497135216,2974.800000015,108.433
1497135218,2977.200000015,114.078
1497135220,2914.800000015,102.589
1497135222,2994.000000015,110.021
1497135224,3003.600000015,111.694
1497135226,2979.600000015,111.57
1497135228,3022.800000015,110.963
1497135230,3018.000000015,106.682
1497135232,3001.200000015,116.195
1497135234,3054.000000015,113.641
1497135236,3126.000000015,116.747
1497135238,3123.600000015,112.434
1497135240,3102.000000015,109.702
1497135242,3121.200000015,112.246
1497135244,3135.600000015,110.351
1497135246,3169.200000015,111.008
1497135248,3126.000000015,116.399
1497135250,3133.200000015,109.097
1497135252,3058.800000015,114.809
1497135254,3068.400000015,106.874
1497135256,3027.600000015,109.156
1497135258,3025.200000015,107.679
1497135260,3022.800000015,110.414
1497135262,2998.800000015,115.117
1497135264,2919.600000015,106.697
1497135266,2972.400000015,117.77
1497135270,2907.600000015,114.373
1497135272,2965.200000015,120.276
1497135274,3003.600000015,121.065
1497135276,2986.800000015,116.568
1497135278,3003.600000015,108.209
1497135280,3020.400000015,116.502
1497135282,3063.600000015,106.635
1497135284,3022.800000015,106.921
1497135286,3018.000000015,109.581
1497135288,3068.400000015,114.139
1497135290,3049.200000015,104.084
1497135292,3018.000000015,109.083
1497135294,3022.800000015,113.537
1497135296,2953.200000015,109.804
1497135298,2958.000000015,108.276
1497135300,3006.000000015,107.618
1497135302,2948.400000015,112.825
1497135304,2917.200000015,112.947
1497135306,2967.600000015,111.072
1497135308,2907.600000015,107.664
1497135310,2905.200000015,115.477
1497135312,2943.600000015,111.439
1497135314,2929.200000015,116.02
1497135316,2900.400000015,119.856
1497135318,2934.000000015,115.484
1497135320,2907.600000015,110.095
1497135322,2922.000000015,105.666
1497135324,2982.000000015,105.62
1497135326,2982.000000015,101.04
1497135328,2991.600000015,115.248
1497135330,2986.800000015,107.272
1497135332,3061.200000015,106.285
1497135334,3046.800000015,111.55
1497135336,2979.600000015,113.084
1497135338,2984.400000015,109.356
1497135340,3008.400000015,113.22
1497135342,3046.800000015,115.281
1497135344,3051.600000015,115.692
1497135346,3056.400000015,110.08
1497135348,2998.800000015,115.394
1497135350,3008.400000015,104.897
1497135352,2996.400000015,108.786
1497135354,3010.800000015,111.873
1497135356,3025.200000015,117.135
1497135358,3008.400000015,112.532
1497135360,2998.800000015,109.892
1497135362,2984.400000015,115.511
1497135364,3010.800000015,112.046
1497135366,3037.200000015,112.234
1497135368,2924.400000015,112.594
1497135370,2998.800000015,110.765
1497135372,3022.800000015,117.825
1497135374,2984.400000015,102.773
1497135376,2943.600000015,103.143
1497135378,2946.000000015,109.559
1497135380,2895.600000015,118.181
1497135382,2895.600000015,115.313
1497135384,2890.800000015,118.804
1497135386,2931.600000015,118.568
1497135388,2905.200000015,108.649
1497135390,2883.600000015,115.948
1497135392,2924.400000015,111.077
1497135394,2914.800000015,114.025
1497135396,2895.600000015,120.394
1497135398,2898.000000015,114.9
1497135400,2936.400000015,111.686
1497135402,2905.200000015,110.554
1497135404,2912.400000015,106.764
1497135406,2888.400000015,109.555
1497135408,2900.400000015,113.723
1497135410,2898.000000015,116.773
1497135412,2886.000000015,120.508
1497135414,2900.400000015,115.071
1497135416,2890.800000015,111.613
1497135418,2907.600000015,106.002
1497135420,2919.600000015,107.411
1497135422,2895.600000015,109.341
1497135424,2857.200000015,112.052
1497135426,2910.000000015,110.088
1497135428,2888.400000015,110.067
1497135430,2893.200000015,114.294
1497135432,2917.200000015,115.792
1497135434,2919.600000015,113.835
1497135436,2876.400000015,110.995
1497135438,2874.000000015,114.331
1497135440,2907.600000015,111.694
1497135442,2871.600000015,115.327
1497135444,2914.800000015,112.356
1497135446,2946.000000015,109.535
1497135448,2893.200000015,112.244
1497135450,2936.400000015,113.176
1497135452,2878.800000015,111.451
1497135454,2907.600000015,117.666
1497135456,2830.800000015,117.543
1497135458,2878.800000015,114.476
1497135460,2936.400000015,113.171
1497135462,2898.000000015,113.262
1497135464,2910.000000015,113.738
1497135466,2996.400000015,110.531
1497135468,2972.400000015,110.859
1497135470,2941.200000015,112.936
1497135472,3020.400000015,109.205
1497135474,2972.400000015,107.472
1497135476,3010.800000015,109.096
1497135478,2984.400000015,110.639
1497135480,2955.600000015,103.019
1497135482,2926.800000015,112.61
1497135484,2977.200000015,108.122
1497135486,2931.600000015,112.966
1497135488,3022.800000015,113.247
1497135490,3034.800000015,109.368
1497135492,3006.000000015,116.027
1497135494,2967.600000015,113.4
1497135496,2982.000000015,109.992
1497135498,3001.200000015,104.31
1497135500,3037.200000015,101.83
1497135502,2965.200000015,104.533
1497135504,3044.400000015,107.945
1497135506,3025.200000015,103.514
1497135508,2974.800000015,111.734
1497135510,2984.400000015,109.103
1497135512,3001.200000015,109.409
1497135514,3034.800000015,112.773
1497135516,3037.200000015,114.081
1497135518,3022.800000015,111.02
1497135520,2967.600000015,111.391
1497135522,3020.400000015,106.44
1497135524,3042.000000015,112.821
1497135526,3018.000000015,105.885
1497135528,3022.800000015,111.672
1497135530,3042.000000015,117.146
1497135532,2984.400000015,121.001
1497135534,2991.600000015,116.476
1497135536,3027.600000015,107.008
1497135538,3051.600000015,110.246
1497135540,2979.600000015,111.148
1497135542,2948.400000015,113.45
1497135544,3049.200000015,116.984
1497135546,2970.000000015,118.014
1497135548,3020.400000015,108.56
1497135550,3013.200000015,121.128
1497135552,2953.200000015,119.19
1497135554,2998.800000015,116.84
1497135556,2974.800000015,118.296
1497135558,2972.400000015,127.816
1497135560,2936.400000015,128.051
1497135562,2970.000000015,120.667
1497135564,2958.000000015,122.658
1497135566,2936.400000015,119.202
1497135568,2977.200000015,116.776
1497135570,2907.600000015,113.264
1497135572,2917.200000015,114.515
1497135574,2883.600000015,110.29
1497135576,2938.800000015,112.653
1497135578,2886.000000015,112.06
1497135580,2895.600000015,121.34
1497135582,2953.200000015,119.732
1497135584,2943.600000015,112.785
1497135586,2905.200000015,115.331
1497135588,2943.600000015,114.776
1497135590,2946.000000015,116.728
1497135592,2938.800000015,124.091
1497135594,2965.200000015,120.996
1497135596,2977.200000015,112.159
1497135598,3027.600000015,103.658
1497135600,2991.600000015,105.62
1497135602,3054.000000015,116.609
1497135604,3068.400000015,111.641
1497135606,3046.800000015,99.0369
1497135608,3073.200000015,100.152
1497135610,3094.800000015,99.6311
1497135612,3097.200000015,98.4945
1497135614,3080.400000015,101.639
1497135616,3114.000000015,97.2274
1497135618,3032.400000015,105.916
1497135620,3109.200000015,101.321
1497135622,3102.000000015,101.702
1497135624,3097.200000015,107.192
1497135626,3044.400000015,104.029
1497135628,3034.800000015,104.458
1497135630,3075.600000015,112.322
1497135632,3068.400000015,103.919
1497135634,3049.200000015,103.66
1497135636,3066.000000015,106.813
1497135638,3080.400000015,109.603
1497135640,2996.400000015,107.349
1497135642,3010.800000015,113.752
1497135644,3039.600000015,112.546
1497135646,2991.600000015,118.198
1497135648,3032.400000015,118.934
1497135650,3049.200000015,106.865
1497135652,3030.000000015,111.182
1497135654,2967.600000015,110.445
1497135656,3022.800000015,109.772
1497135658,2970.000000015,100.207
1497135660,2986.800000015,107.168
1497135662,2998.800000015,107.962
1497135664,2979.600000015,107.045
1497135666,2948.400000015,110.616
1497135668,3027.600000015,119.578
1497135670,2998.800000015,115.393
1497135672,3034.800000015,113.296
1497135674,3013.200000015,118.017
1497135676,3015.600000015,111.332
1497135678,3027.600000015,108.716
1497135680,3056.400000015,115.769
1497135682,2998.800000015,116.494
1497135684,3003.600000015,121.838
1497135686,2982.000000015,122.111
1497135688,3046.800000015,108.135
1497135690,2967.600000015,120.612
1497135692,2943.600000015,118.449
1497135694,2946.000000015,114.332
1497135696,3018.000000015,110.252
1497135698,3034.800000015,114.807
1497135700,2924.400000015,116.87
1497135702,2998.800000015,107.954
1497135704,2996.400000015,110.914
1497135706,2965.200000015,115.262
1497135708,2989.200000015,118.591
1497135710,3039.600000015,113.774
1497135712,2953.200000015,113.709
1497135714,3030.000000015,122.92
1497135716,2974.800000015,109.574
1497135718,2948.400000015,112.862
1497135720,3018.000000015,114.927
1497135722,2938.800000015,105.969
1497135724,3018.000000015,116.974
1497135726,2989.200000015,109.002
1497135728,2955.600000015,112.724
1497135730,3027.600000015,109.081
1497135732,3018.000000015,112.681
1497135734,3061.200000015,106.679
1497135736,3056.400000015,115.703
1497135738,3114.000000015,115.369
1497135740,3075.600000015,105.017
1497135742,3099.600000015,106.115
1497135744,3118.800000015,110.331
1497135746,3056.400000015,109.888
1497135748,3070.800000015,104.965
1497135750,3097.200000015,105.368
1497135752,3025.200000015,108.614
1497135754,3034.800000015,108.004
1497135756,3030.000000015,109.385
1497135758,3066.000000015,109.206
1497135760,3051.600000015,110.313
1497135762,3061.200000015,105.521
1497135764,3049.200000015,107.496
1497135766,3068.400000015,121.507
1497135768,3003.600000015,116.599
1497135770,3037.200000015,108.443
1497135772,3003.600000015,105.883
1497135774,3001.200000015,109.884
1497135776,3008.400000015,111.847
1497135778,2994.000000015,110.604
1497135780,2984.400000015,105.759
1497135782,3027.600000015,111.71
1497135784,3030.000000015,110.873
1497135786,2984.400000015,119.632
1497135788,3022.800000015,106.804
1497135790,2967.600000015,107.597
1497135792,2960.400000015,104.138
1497135794,2974.800000015,102.577
1497135796,3006.000000015,111.856
1497135798,3013.200000015,106.084
1497135800,2965.200000015,111.141
1497135802,3032.400000015,106.699
1497135804,3010.800000015,109.799
1497135806,2960.400000015,112.017
1497135808,2962.800000015,109.615
1497135810,3022.800000015,108.485
1497135812,3008.400000015,114.129
1497135814,2972.400000015,113.717
1497135816,2991.600000015,116.301
1497135818,2929.200000015,109.163
1497135820,2984.400000015,107.438
1497135822,3020.400000015,111.214
1497135824,2994.000000015,119.38
1497135826,3037.200000015,113.02
1497135828,3022.800000015,113.621
1497135830,3094.800000015,112.54
1497135832,3061.200000015,105.149
1497135834,3078.000000015,107.702
1497135836,3063.600000015,107.972
1497135838,3058.800000015,105.309
1497135840,3037.200000015,115.765
1497135842,3054.000000015,102.71
1497135844,3018.000000015,107.015
1497135846,3056.400000015,109.945
1497135848,3039.600000015,109.247
1497135850,3044.400000015,112.846
1497135852,3037.200000015,104.768
1497135854,2986.800000015,105.119
1497135856,2938.800000015,108.939
1497135858,3042.000000015,107.323
1497135860,2950.800000015,102.779
1497135862,3027.600000015,101.151
1497135864,2948.400000015,104.139
1497135866,2967.600000015,104.186
1497135868,2943.600000015,112.286
1497135870,3001.200000015,117.619
1497135872,2991.600000015,113.564
1497135874,3034.800000015,110.386
1497135876,2960.400000015,119.408
1497135878,3046.800000015,118.036
1497135880,2960.400000015,114.642
1497135882,2994.000000015,116.151
1497135884,3030.000000015,108.23
1497135886,3056.400000015,114.509
1497135888,2984.400000015,107.567
1497135890,2977.200000015,112.106
1497135892,3044.400000015,107.416
1497135894,3003.600000015,114.738
1497135896,3015.600000015,124.149
1497135898,2998.800000015,140.207
1497135900,2958.000000015,124.423
1497135902,2998.800000015,113.41
1497135904,3046.800000015,122.7
1497135906,2991.600000015,114.162
1497135908,3001.200000015,109.552
1497135910,3051.600000015,106.684
1497135912,3039.600000015,110.774
1497135914,2950.800000015,115.459
1497135916,2946.000000015,114.886
1497135918,3006.000000015,112.7
1497135920,3044.400000015,121.786
1497135922,2991.600000015,120.102
1497135924,3022.800000015,122.49
1497135926,2982.000000015,116.374
1497135928,2974.800000015,113.855
1497135930,3037.200000015,100.878
1497135932,3030.000000015,100.598
1497135934,2953.200000015,110.146
1497135936,2972.400000015,109.993
1497135938,2931.600000015,108.183
1497135940,3032.400000015,109.383
1497135942,2994.000000015,107.146
1497135944,2974.800000015,109.809
1497135946,3042.000000015,116.867
1497135948,2996.400000015,108.807
1497135950,2998.800000015,112.356
1497135952,3046.800000015,118.111
1497135954,2982.000000015,115.723
1497135956,2986.800000015,123.685
1497135958,3015.600000015,112.296
1497135960,2989.200000015,107.487
1497135962,2912.400000015,110.485
1497135964,2986.800000015,105.966
1497135966,3022.800000015,104.245
1497135968,2977.200000015,115.84
1497135970,2929.200000015,114.809
1497135972,2960.400000015,106.914
1497135974,2943.600000015,107.21
1497135976,2898.000000015,116.364
1497135978,2936.400000015,119.138
1497135980,2965.200000015,121.89
1497135982,2982.000000015,110.656
1497135984,2996.400000015,110.892
1497135986,2953.200000015,109.051
1497135988,2948.400000015,114.182
1497135990,2931.600000015,119.076
1497135992,3018.000000015,111.012
1497135994,2950.800000015,114.949
1497135996,2888.400000015,103.637
1497135998,2917.200000015,111.69
1497136000,2948.400000015,109.969
1497136002,2912.400000015,114.28
1497136004,2914.800000015,123.292
1497136006,2912.400000015,107.516
1497136008,2895.600000015,114.083
1497136010,2883.600000015,111.961
1497136012,2943.600000015,112.285
1497136014,2902.800000015,109.764
1497136016,2874.000000015,108.266
1497136018,2902.800000015,119.746
1497136020,2900.400000015,106.854
1497136022,2958.000000015,112.146
1497136024,2917.200000015,116.754
1497136026,2941.200000015,117.22
1497136028,2912.400000015,116.101
1497136030,2907.600000015,123.307
1497136032,2912.400000015,105.111
1497136034,2888.400000015,104.656
1497136036,2878.800000015,122.85
1497136038,2936.400000015,117.056
1497136040,2907.600000015,106.237
1497136042,2926.800000015,108.684
1497136044,2895.600000015,122.424
1497136046,2902.800000015,124.392
1497136048,2881.200000015,116.282
1497136050,2890.800000015,117.22
1497136052,2922.000000015,109.462
1497136056,2912.400000015,105.579
1497136058,2917.200000015,114.179
1497136060,2943.600000015,116.116
1497136062,2941.200000015,112.844
1497136064,2934.000000015,116.808
1497136066,2943.600000015,118.889
1497136068,2936.400000015,116.762
1497136070,2907.600000015,113.984
1497136072,2943.600000015,116.139
1497136074,2938.800000015,121.214
1497136076,2912.400000015,126.529
1497136078,2938.800000015,119.982
1497136080,2931.600000015,109.439
1497136082,2931.600000015,105.631
1497136084,2962.800000015,112.834
1497136086,2902.800000015,107.606
1497136088,2912.400000015,110.292
1497136090,2924.400000015,107.635
1497136092,3025.200000015,114.304
1497136094,3008.400000015,103.689
1497136096,2902.800000015,105.45
1497136098,2929.200000015,110.532
1497136100,2955.600000015,110.579
1497136102,3001.200000015,108.771
1497136104,2996.400000015,103.689
1497136106,2910.000000015,97.8129
1497136108,2910.000000015,106.791
1497136110,2910.000000015,116.464
1497136112,2953.200000015,118.014
1497136114,2986.800000015,117.298
1497136116,2986.800000015,122.186
1497136118,3003.600000015,115.393
1497136120,3046.800000015,115.758
1497136122,3020.400000015,125.982
1497136124,3044.400000015,117.245
1497136126,3106.800000015,107.094
1497136128,3104.400000015,105.68
1497136130,3061.200000015,111.402
1497136132,3111.600000015,112.506
1497136134,3099.600000015,104.45
1497136136,3042.000000015,106.03
1497136138,3080.400000015,110.483
1497136140,3027.600000015,110.339
1497136142,3099.600000015,109.918
1497136144,3068.400000015,114.255
1497136146,3013.200000015,113.8
1497136148,3058.800000015,112.052
1497136150,3025.200000015,116.553
1497136152,3078.000000015,113.963
1497136154,3042.000000015,113.892
1497136156,3037.200000015,115.476
1497136158,3027.600000015,114.537
1497136160,3039.600000015,114.623
1497136162,3049.200000015,105.528
1497136164,3044.400000015,104.22
1497136166,3051.600000015,108.926
1497136168,3056.400000015,114.887
1497136170,3042.000000015,114.841
1497136172,3051.600000015,106.528
1497136174,2962.800000015,114.345
1497136176,3049.200000015,113.881
1497136178,3034.800000015,109.946
1497136180,3032.400000015,122.154
1497136182,3061.200000015,109.727
1497136184,3032.400000015,107.976
1497136186,3054.000000015,113.396
1497136188,3078.000000015,113.16
1497136190,3037.200000015,108.39
1497136192,3049.200000015,110.106
1497136194,3094.800000015,110.766
1497136196,3073.200000015,109.855
1497136198,3070.800000015,105.195
1497136200,3030.000000015,109.314
1497136202,3044.400000015,105.452
1497136204,3039.600000015,116.087
1497136206,3075.600000015,116.26
1497136208,3082.800000015,115.19
1497136210,3046.800000015,117.022
1497136212,3051.600000015,114.576
1497136214,3090.000000015,111.482
1497136216,3075.600000015,112.399
1497136218,3073.200000015,107.794
1497136220,3142.800000015,117.303
1497136222,3063.600000015,109.721
1497136224,2970.000000015,107.831
1497136226,3030.000000015,104.893
1497136228,3051.600000015,108.647
1497136230,3030.000000015,109.995
1497136232,3082.800000015,118.682
1497136234,3058.800000015,114.771
1497136236,3094.800000015,112.604
1497136238,3044.400000015,115.95
1497136240,3058.800000015,113.826
1497136242,3092.400000015,108.433
1497136244,3075.600000015,108.666
1497136246,3056.400000015,114.123
1497136248,3106.800000015,114.212
1497136250,3058.800000015,109.136
1497136252,3034.800000015,115.803
1497136254,3068.400000015,115.312
1497136256,3042.000000015,110.022
1497136258,3013.200000015,117.245
1497136260,3066.000000015,112.824
1497136262,3097.200000015,118.744
1497136264,3066.000000015,117.396
1497136266,3078.000000015,111.909
1497136268,3066.000000015,115.228
1497136270,3082.800000015,122.475
1497136272,3070.800000015,116.784
1497136274,3106.800000015,115.281
1497136276,3123.600000015,123.486
1497136278,3087.600000015,125.348
1497136280,3056.400000015,122.304
1497136282,3078.000000015,118.2
1497136284,3056.400000015,121.767
1497136286,3051.600000015,124.771
1497136288,3111.600000015,120.723
1497136290,3073.200000015,114.737
1497136292,3046.800000015,110.261
1497136294,3104.400000015,106.811
1497136296,3085.200000015,116.157
1497136298,3090.000000015,112.152
1497136300,3068.400000015,120.404
1497136302,3116.400000015,114.351
1497136304,3054.000000015,110.719
1497136306,3054.000000015,112.369
1497136308,3097.200000015,114.064
1497136310,3056.400000015,105.524
1497136312,3046.800000015,112.677
1497136314,3044.400000015,108.152
1497136316,3070.800000015,104.387
1497136318,3039.600000015,109.879
1497136320,3066.000000015,95.5032
1497136322,3066.000000015,104.027
1497136324,3054.000000015,102.499
1497136326,3025.200000015,105.674
1497136328,3032.400000015,114.74
1497136330,3030.000000015,109.923
1497136332,2962.800000015,111.618
1497136334,2996.400000015,113.402
1497136336,3039.600000015,117.897
1497136338,2991.600000015,114.189
1497136340,2974.800000015,104.589
1497136342,3039.600000015,112.856
1497136344,2965.200000015,108.886
1497136346,2953.200000015,112.965
1497136348,2926.800000015,113.598
1497136350,2946.000000015,111.088
1497136352,2922.000000015,115.848
1497136356,2917.200000015,115.116
1497136358,2950.800000015,116.976
1497136360,2907.600000015,114.673
1497136362,2953.200000015,116.474
1497136364,2938.800000015,108.439
1497136366,2893.200000015,109.812
1497136368,2934.000000015,113.492
1497136370,3010.800000015,111.529
1497136372,2979.600000015,115.386
1497136374,2924.400000015,117.032
1497136376,2910.000000015,122.226
1497136378,2900.400000015,109.935
1497136380,2883.600000015,105.305
1497136382,2938.800000015,113.509
1497136384,2917.200000015,110.46
1497136386,2907.600000015,109.685
1497136388,2936.400000015,112.61
1497136390,2898.000000015,104.736
1497136392,2895.600000015,104.227
1497136394,2888.400000015,105.837
1497136396,2958.000000015,116.623
1497136398,2914.800000015,122.027
1497136400,2910.000000015,112.424
1497136402,2953.200000015,116.761
1497136404,2982.000000015,114.376
1497136406,2977.200000015,109.7
1497136408,2986.800000015,113.751
1497136410,3032.400000015,107.003
1497136412,3037.200000015,106.09
1497136414,3020.400000015,104.147
1497136416,3008.400000015,109.432
1497136418,3006.000000015,109.082
1497136420,2996.400000015,115.797
1497136422,3025.200000015,104.829
1497136424,3022.800000015,107.826
1497136426,3049.200000015,116.986
1497136428,3013.200000015,114.791
1497136430,3020.400000015,113.081
1497136432,2991.600000015,120.098
1497136434,2960.400000015,117.536
1497136436,3054.000000015,115.318
1497136438,3008.400000015,126.639
1497136440,2974.800000015,117.494
1497136442,3013.200000015,118.937
1497136444,2998.800000015,124.268
1497136446,2953.200000015,121.253
1497136448,2965.200000015,114.479
1497136450,3013.200000015,124.21
1497136452,2970.000000015,121.734
1497136454,2955.600000015,127.028
