tag_number,delay,power_est
1492523962,-22.8,8.89972
1492523966,46.8,12.3702
1492523970,-68.4,11.6726
1492523974,-92.4,10.6977
1492523978,15.6,11.1646
1492523982,-22.8,8.15552
1492523986,-70.8,8.15199
1492523990,34.8,10.5755
1492523994,-37.2,9.37152
1492523998,-58.8,9.55743
1492524002,-6,9.37124
1492524006,1.20000000000005,7.78113
1492524010,-56.4,8.68369
1492524014,-10.8,7.76715
1492524018,-25.2,7.30961
1492524022,-68.4,7.73821
1492524026,123.6,9.266
1492524030,-34.8,8.73555
1492524034,-18,7.95045
1492524038,44.4,10.3035
1492524042,70.8,9.66253
1492524046,42,8.34932
1492524050,92.4,8.83867
1492524054,111.6,8.32144
1492524058,63.6,8.37894
1492524062,135.6,9.45643
1492524066,111.6,8.09267
1492524070,51.6,10.2426
1492524074,92.4,10.149
1492524078,44.4,10.7554
1492524082,58.8,9.64665
1492524086,39.6,9.22341
1492524090,22.8,9.9405
1492524094,49.2,8.47156
1492524098,22.8,9.77637
1492524102,46.8,8.60893
1492524106,111.6,6.9086
1492524110,195.6,10.1936
1492524114,181.2,4.56265
1492524118,152.4,9.99292
1492524122,92.4,8.24463
1492524126,135.6,9.44149
1492524130,142.8,8.70759
1492524134,130.8,9.89974
1492524138,138,8.74518
1492524142,200.4,7.31936
1492524146,126,8.31989
1492524150,138,9.01984
1492524154,130.8,8.57301
1492524158,147.6,8.69084
1492524162,126,10.2014
1492524166,135.6,8.70555
1492524170,97.2,8.9342
1492524174,111.6,9.61761
1492524178,162,8.59116
1492524182,106.8,8.49505
1492524186,111.6,7.83598
1492524190,49.2,9.46099
1492524194,44.4,10.5525
1492524198,118.8,7.92879
1492524202,-8.39999999999998,9.04106
1492524206,-8.39999999999998,10.3706
1492524210,54,10.6374
1492524214,-20.4,9.46772
1492524218,42,8.98267
1492524222,-32.4,9.29732
1492524226,25.2,9.99572
1492524230,30,8.77476
1492524234,34.8,7.93822
1492524238,61.2,7.74679
1492524242,37.2,8.99483
1492524246,42,9.48826
1492524250,102,7.68299
1492524254,51.6,7.94878
1492524258,27.6,10.768
1492524262,-58.8,11.2876
1492524266,-27.6,9.85211
1492524270,-15.6,11.5835
1492524274,-68.4,10.3913
1492524278,-51.6,12.7128
1492524282,-73.2,11.8348
1492524286,27.6,11.4239
1492524290,-56.4,11.3015
1492524294,-25.2,8.48997
1492524298,-10.8,10.5339
1492524302,-92.4,10.644
1492524306,-32.4,9.44679
1492524310,-54,8.83344
1492524314,3.60000000000002,9.36866
1492524318,-1.20000000000005,6.94073
1492524322,-51.6,9.74748
1492524326,-39.6,7.55428
1492524330,-80.4,7.62958
1492524334,-104.4,7.83435
1492524338,-51.6,7.18478
1492524342,-78,7.54813
1492524346,-73.2,8.19906
1492524350,30,8.89664
1492524354,-30,9.08275
1492524358,-73.2,8.53837
1492524362,-82.8,7.68543
1492524366,-30,5.8562
1492524370,-1.20000000000005,8.43528
1492524374,-87.6,7.13482
1492524378,-80.4,9.05651
1492524382,-39.6,9.43416
1492524386,-66,8.22076
1492524390,13.2,9.76143
1492524394,20.4,8.95662
1492524398,42,9.51154
1492524402,37.2,7.1573
1492524406,63.6,9.41804
1492524410,82.8,7.7241
1492524414,39.6,9.3577
1492524418,58.8,4.35122
1492524422,54,6.87879
1492524426,85.2,8.35957
1492524430,73.2,6.78779
1492524434,102,6.83825
1492524438,63.6,6.04862
1492524442,82.8,8.62107
1492524446,111.6,9.4619
1492524450,70.8,8.00744
1492524454,56.4,8.17734
1492524458,49.2,10.4897
1492524462,20.4,6.90261
1492524466,66,6.9765
1492524470,-18,9.09235
1492524474,-44.4,9.64435
1492524478,27.6,6.33056
1492524482,-18,7.70668
1492524486,-66,10.7944
1492524490,-51.6,6.64319
1492524494,-54,7.0045
1492524498,-82.8,9.99602
1492524502,-18,8.54477
1492524506,-58.8,6.48057
1492524510,-32.4,7.01066
1492524514,70.8,4.05265
1492524518,140.4,8.52746
1492524522,128.4,6.98804
1492524526,142.8,6.70546
1492524530,210,6.54848
1492524534,207.6,7.40797
1492524538,282,9.08688
1492524542,246,8.35475
1492524546,207.6,6.45578
1492524550,138,5.75053
1492524554,90,9.71633
1492524558,116.4,9.32805
1492524562,106.8,9.03969
1492524566,66,9.73076
1492524570,46.8,6.07512
1492524574,106.8,9.00973
1492524578,61.2,7.89042
1492524582,49.2,7.48013
1492524586,-54,9.6343
1492524590,-39.6,9.45387
1492524594,-99.6,9.22818
1492524598,-92.4,10.0196
1492524602,-51.6,9.53698
1492524606,-61.2,8.48081
1492524610,-25.2,9.51082
1492524614,-42,10.7873
1492524618,-97.2,9.91294
1492524622,-27.6,8.88708
1492524626,-68.4,8.71855
1492524630,-104.4,7.27392
1492524634,-61.2,8.15169
1492524638,-142.8,9.70012
1492524642,-116.4,9.44809
1492524646,-82.8,9.8332
1492524650,-123.6,8.84592
1492524654,-61.2,7.92616
1492524658,-80.4,6.29654
1492524662,-75.6,8.50981
1492524666,-70.8,7.1592
1492524670,-80.4,5.41164
1492524674,-58.8,6.44951
1492524678,-54,4.98555
1492524682,-80.4,3.5626
1492524686,-15.6,4.1672
1492524690,-82.8,6.54034
1492524694,-85.2,5.61582
1492524698,1.20000000000005,5.9812
1492524702,-70.8,5.96779
1492524706,-106.8,8.29518
1492524710,-99.6,6.89563
1492524714,-42,7.57742
1492524718,54,6.59095
1492524722,-13.2,8.33588
1492524726,-68.4,8.48795
1492524730,-34.8,9.72009
1492524734,-25.2,10.0266
1492524738,-6,8.06074
1492524742,-37.2,8.24783
1492524746,-8.39999999999998,9.69253
1492524750,-49.2,7.98946
1492524754,-92.4,6.93452
1492524758,-87.6,5.80393
1492524762,-34.8,9.03394
1492524766,-90,8.81736
1492524770,-6,8.62958
1492524774,-46.8,8.51518
1492524778,-30,9.27811
1492524782,-85.2,9.72866
1492524786,-39.6,9.97269
1492524790,-51.6,5.4382
1492524794,-8.39999999999998,9.02549
1492524798,-56.4,9.12444
1492524802,-25.2,7.15407
1492524806,-70.8,7.44865
1492524810,-63.6,8.55756
1492524814,-46.8,8.18451
1492524818,-20.4,9.36909
1492524822,10.8,7.95899
1492524826,-66,9.8164
1492524830,3.60000000000002,7.5328
1492524834,-82.8,8.04826
1492524838,-68.4,8.08137
1492524842,-1.20000000000005,9.98765
1492524846,-39.6,8.89587
1492524850,-46.8,8.67986
1492524854,-58.8,8.03901
1492524858,-34.8,8.04302
1492524862,-82.8,7.5647
1492524866,25.2,9.37739
1492524870,-78,10.6695
1492524874,-8.39999999999998,8.09389
1492524878,-51.6,10.6441
1492524882,-58.8,10.8806
1492524886,-82.8,8.89418
1492524890,-78,12.754
1492524894,-114,7.24894
1492524898,-39.6,8.25052
1492524902,-126,9.37349
1492524906,-130.8,10.259
1492524910,-111.6,10.9587
1492524914,-114,10.415
1492524918,-171.6,10.5791
1492524922,-111.6,10.6525
1492524938,-147.6,11.1435
1492524942,-205.2,8.1963
1492524946,-147.6,9.41156
1492524950,-164.4,9.44004
1492524958,-111.6,10.7935
1492524962,-186,9.58567
1492524966,-128.4,9.60342
1492524970,-138,9.35594
1492524974,-135.6,9.08688
1492524978,-205.2,9.19734
1492524982,-176.4,8.84322
1492524986,-178.8,9.88863
1492524990,-243.6,10.483
1492524994,-236.4,9.06442
1492524998,-255.6,6.55498
1492525002,-171.6,7.53224
1492525006,-121.2,10.6793
1492525010,-142.8,10.7116
1492525014,-111.6,10.7914
1492525018,-116.4,12.8117
1492525022,-109.2,9.08135
1492525026,-102,10.3564
1492525030,10.8,9.85433
1492525034,-42,9.52221
1492525038,-94.8,8.77148
1492525042,46.8,11.7464
1492525046,39.6,9.01906
1492525050,27.6,8.00854
1492525054,37.2,8.70403
1492525058,42,8.04242
1492525062,-1.20000000000005,7.60836
1492525066,15.6,8.2446
1492525070,51.6,8.20983
1492525074,-25.2,8.05686
1492525078,27.6,8.6284
1492525082,49.2,4.49976
1492525086,51.6,6.73699
1492525090,-20.4,9.36845
1492525094,-32.4,7.86137
1492525098,-6,8.22362
1492525102,-27.6,10.1828
1492525106,-66,8.06861
1492525110,-87.6,8.73735
1492525114,-118.8,6.40916
1492525118,-70.8,10.9863
1492525122,-106.8,10.6336
1492525126,-94.8,10.6147
1492525130,-123.6,9.00714
1492525134,-42,9.91472
1492525138,-130.8,9.64281
1492525142,-118.8,9.93313
1492525146,-133.2,10.739
1492525150,-73.2,11.4834
1492525154,-183.6,12.5523
1492525158,-154.8,8.44002
1492525162,-121.2,7.573
1492525166,-133.2,6.57456
1492525170,-130.8,7.4335
1492525174,-138,8.97379
1492525178,-135.6,9.04962
1492525182,-181.2,7.73307
1492525186,-171.6,7.54836
1492525190,-157.2,8.97406
1492525194,-118.8,9.54838
1492525198,-135.6,7.13743
1492525202,-106.8,9.6659
1492525206,-128.4,8.37197
1492525210,-135.6,8.5132
1492525214,-123.6,7.09983
1492525218,-135.6,9.30347
1492525222,-150,11.0174
1492525226,-171.6,9.45018
1492525230,-171.6,10.6303
1492525234,-128.4,10.0536
1492525238,-114,10.4988
1492525242,-207.6,10.907
1492525246,-166.8,10.2228
1492525250,-106.8,12.5878
1492525254,-190.8,10.3892
1492525258,-205.2,8.76715
1492525262,-135.6,11.1888
1492525266,-171.6,7.65539
1492525270,-169.2,12.037
1492525274,-231.6,10.6299
1492525278,-174,11.8712
1492525282,-183.6,10.4102
1492525286,-195.6,8.74872
1492525290,-202.8,7.94989
1492525294,-164.4,10.9466
1492525298,-140.4,10.0151
1492525302,-224.4,11.6471
1492525306,-145.2,11.498
1492525310,-176.4,9.88085
1492525314,-188.4,10.5615
1492525318,-169.2,8.64827
1492525322,-181.2,9.06167
1492525326,-181.2,8.64882
1492525330,-126,8.37344
1492525334,-188.4,6.00815
1492525338,-171.6,8.52878
1492525342,-236.4,8.23001
1492525346,-130.8,9.25286
1492525350,-99.6,9.22147
1492525354,-109.2,8.03443
1492525358,-130.8,10.0828
1492525362,-190.8,8.77165
1492525366,-109.2,8.15952
1492525370,-181.2,11.7098
1492525374,-202.8,6.6591
1492525378,-104.4,10.53
1492525382,-123.6,12.4166
1492525386,-111.6,11.8764
1492525390,-154.8,8.0381
1492525394,-73.2,8.49978
1492525398,-111.6,10.9795
1492525402,-92.4,8.12852
1492525406,-82.8,8.31419
1492525410,-104.4,11.2847
1492525414,-109.2,10.2309
1492525418,-106.8,7.68239
1492525422,-94.8,9.42976
1492525426,-99.6,8.83753
1492525430,-130.8,9.46861
1492525434,-133.2,8.54234
1492525438,-85.2,13.5043
1492525442,-128.4,8.45423
1492525446,-130.8,8.66112
1492525450,-102,9.48158
1492525454,-140.4,5.82371
1492525458,-104.4,10.9348
1492525462,-111.6,9.9873
1492525466,-171.6,11.4101
1492525470,-147.6,9.87472
1492525474,-157.2,9.7766
1492525478,-123.6,7.29486
1492525482,-140.4,8.2262
1492525486,-178.8,8.36785
1492525490,-157.2,10.3462
1492525494,-229.2,10.2323
1492525498,-154.8,6.58972
1492525502,-205.2,10.8157
1492525506,-193.2,7.14161
1492525510,-157.2,8.33256
1492525514,-140.4,11.2283
1492525518,-150,10.4827
1492525522,-186,7.64389
1492525526,-130.8,7.38833
1492525530,-104.4,8.4553
1492525534,-123.6,7.36681
1492525538,-102,7.23856
1492525542,-126,8.21273
1492525546,-106.8,7.46137
1492525550,-94.8,9.22605
1492525554,-116.4,7.15443
1492525558,-135.6,9.41549
1492525562,-56.4,9.50539
1492525566,-114,9.01021
1492525570,-121.2,8.40446
1492525574,-73.2,10.1366
1492525578,-138,9.99294
1492525582,-85.2,10.8864
1492525586,-58.8,11.7019
1492525590,-106.8,9.76173
1492525594,-102,8.2702
1492525598,-135.6,8.99723
1492525602,-128.4,8.41041
1492525606,-27.6,10.0758
1492525610,-126,10.6566
1492525614,-116.4,8.60391
1492525618,-188.4,11.4985
1492525622,-138,12.1711
1492525626,-92.4,12.8686
1492525630,-138,8.96224
1492525634,-104.4,9.68225
1492525638,-66,9.22921
1492525642,-90,9.52715
1492525646,-114,10.9071
1492525650,-116.4,12.2178
1492525654,-126,12.4681
1492525658,-145.2,9.88312
1492525662,-123.6,10.011
1492525666,-157.2,10.2681
1492525670,-99.6,13.6472
1492525674,-138,10.533
1492525678,-128.4,11.0283
1492525682,-123.6,11.4545
1492525686,-85.2,12.7647
1492525690,-150,8.94017
1492525694,-85.2,10.79
1492525698,-138,9.71156
1492525702,-126,11.6266
1492525706,-102,11.0492
1492525710,-157.2,10.9755
1492525714,-102,8.40917
1492525718,-130.8,9.07303
1492525722,-109.2,9.32841
1492525726,-109.2,11.6018
1492525730,-147.6,10.1475
1492525734,-152.4,9.26327
1492525738,-145.2,8.18219
1492525742,-133.2,10.5939
1492525746,-109.2,6.93171
1492525750,-138,10.7729
1492525754,-6,12.108
1492525758,-1.20000000000005,7.59352
1492525762,39.6,8.30832
1492525766,1.20000000000005,9.86226
1492525770,-49.2,6.39089
1492525774,27.6,9.31741
1492525778,-13.2,5.91662
1492525782,-22.8,10.9384
1492525786,-15.6,7.93588
1492525790,-20.4,9.40899
1492525794,-8.39999999999998,10.0774
1492525798,-58.8,10.8094
1492525802,-30,10.1508
1492525806,-114,10.1098
1492525810,-30,10.3191
1492525814,-61.2,10.2172
1492525818,-82.8,9.36717
1492525822,13.2,11.4044
1492525826,-6,10.752
1492525830,-97.2,9.6352
1492525834,-51.6,7.93025
1492525838,-150,8.78066
1492525842,-99.6,9.83793
1492525846,-102,9.04686
1492525850,-42,6.92335
1492525854,58.8,8.94174
1492525858,49.2,9.21639
1492525862,80.4,9.48763
1492525866,56.4,8.27732
1492525870,78,9.30174
1492525874,87.6,11.0208
1492525878,111.6,12.2349
1492525882,114,7.79914
1492525886,130.8,8.75053
1492525890,85.2,9.17541
1492525894,142.8,8.35366
1492525898,138,9.94766
1492525902,138,8.54667
1492525906,85.2,4.79733
1492525910,121.2,6.39171
1492525914,102,8.2983
1492525918,97.2,8.57396
1492525922,37.2,10.2346
1492525926,80.4,9.34581
1492525930,63.6,11.0762
1492525934,87.6,9.73619
1492525938,58.8,4.60335
1492525942,8.39999999999998,9.23447
1492525946,49.2,9.11354
1492525950,54,9.44888
1492525954,85.2,7.44052
1492525958,66,10.2757
1492525962,75.6,7.04712
1492525966,116.4,5.63843
1492525970,111.6,8.28761
1492525974,68.4,6.02802
1492525978,140.4,8.76584
1492525982,133.2,6.62242
1492525986,109.2,7.87077
1492525990,126,7.69849
1492525994,63.6,7.01406
1492525998,135.6,6.57476
1492526002,126,5.64046
1492526006,58.8,6.71371
1492526010,123.6,7.82105
1492526014,114,8.91603
1492526018,68.4,6.31284
1492526022,121.2,8.6022
1492526026,94.8,8.43234
1492526030,66,9.27067
1492526034,58.8,10.5113
1492526038,51.6,6.66132
1492526042,94.8,6.30625
1492526046,32.4,5.11836
1492526050,22.8,5.74565
1492526054,42,7.95528
1492526058,15.6,8.49
1492526062,-10.8,5.80362
1492526066,-32.4,9.92644
1492526070,-63.6,7.92855
1492526074,-92.4,8.95479
1492526078,-32.4,8.4492
1492526082,-68.4,6.1172
1492526086,-3.60000000000002,8.92568
1492526090,-75.6,8.02749
1492526094,-42,9.27807
1492526098,-25.2,8.73556
1492526102,8.39999999999998,8.81765
1492526106,-34.8,8.66734
1492526110,-8.39999999999998,7.44677
1492526114,-87.6,8.28844
1492526118,-90,5.64202
1492526122,46.8,9.59215
1492526126,-68.4,7.67939
1492526130,-97.2,7.9497
1492526134,-73.2,8.10525
1492526138,-118.8,10.0257
1492526142,-97.2,9.44518
1492526146,-97.2,10.0174
1492526150,-114,9.08569
1492526154,-66,9.25078
1492526158,-94.8,10.0349
1492526162,-51.6,8.39555
1492526166,-104.4,8.64652
1492526170,-63.6,8.29421
1492526174,-44.4,7.34156
1492526178,-30,10.4751
1492526182,-82.8,6.0358
1492526186,-54,9.14351
1492526190,-102,6.4697
1492526194,-44.4,9.23495
1492526198,-32.4,9.27347
1492526202,-32.4,10.1
1492526206,15.6,9.77739
1492526210,-68.4,9.46084
1492526214,-128.4,6.52973
1492526218,-27.6,8.43011
1492526222,-73.2,6.36644
1492526226,-49.2,8.79033
1492526230,-22.8,9.56593
1492526234,-51.6,9.46716
1492526238,15.6,10.2552
1492526242,-22.8,11.015
1492526246,-37.2,11.2332
1492526250,-30,10.2347
1492526254,-37.2,8.91741
1492526258,20.4,8.18844
1492526262,15.6,8.48875
1492526266,-44.4,8.08459
1492526270,-10.8,7.76466
1492526274,123.6,7.09
1492526278,-66,8.94494
1492526282,-10.8,7.21199
1492526286,-13.2,9.03224
1492526290,-3.60000000000002,8.28656
1492526294,42,8.09963
1492526298,6,7.01552
1492526302,56.4,6.49097
1492526306,22.8,3.57753
1492526310,-22.8,8.06231
1492526314,-61.2,6.44452
1492526318,-13.2,5.35226
1492526322,-34.8,8.44747
1492526326,8.39999999999998,6.69046
1492526330,46.8,9.15729
1492526334,27.6,9.4586
1492526338,102,6.47107
1492526342,-13.2,8.35683
1492526346,51.6,6.26569
1492526350,39.6,6.79443
1492526354,6,6.39809
1492526358,27.6,6.64175
1492526362,-18,4.9024
1492526366,-10.8,6.68949
1492526370,-8.39999999999998,9.94405
1492526374,-87.6,11.5366
1492526378,-25.2,8.14594
1492526382,-51.6,7.98005
1492526386,-85.2,9.2158
1492526390,-44.4,8.97279
1492526394,-32.4,9.08962
1492526398,-44.4,8.80887
1492526402,-18,9.54914
1492526406,-51.6,7.99717
1492526410,-6,8.80495
1492526414,-126,9.10601
1492526418,-61.2,9.3925
1492526422,-8.39999999999998,8.82008
1492526426,-61.2,8.10074
1492526430,-39.6,10.4789
1492526434,-18,7.79515
1492526438,-39.6,8.88025
1492526442,8.39999999999998,8.192
1492526446,42,9.47772
1492526450,-10.8,9.02067
1492526454,-42,11.2205
1492526458,25.2,10.2624
1492526462,-8.39999999999998,8.28466
1492526466,18,7.58305
1492526470,-20.4,11.3825
1492526474,6,8.99479
1492526478,34.8,9.61944
1492526482,-15.6,9.66699
1492526486,18,9.98654
1492526490,30,9.49734
1492526494,6,9.11234
1492526498,68.4,8.30905
1492526502,-3.60000000000002,8.69618
1492526506,94.8,8.64616
1492526510,123.6,8.62837
1492526514,-10.8,7.388
1492526518,56.4,7.76311
1492526522,18,10.199
1492526526,92.4,8.11345
1492526530,104.4,7.34915
1492526534,133.2,8.29226
1492526538,116.4,9.19726
1492526542,56.4,8.11153
1492526546,123.6,7.16322
1492526550,123.6,8.76911
1492526554,68.4,7.46656
1492526558,97.2,7.11924
1492526562,75.6,9.43848
1492526566,126,9.6053
1492526570,102,9.8658
1492526574,56.4,7.45639
1492526578,152.4,6.65317
1492526582,114,8.43118
1492526586,150,10.5303
1492526590,135.6,8.29166
1492526594,152.4,7.53489
1492526598,133.2,7.04434
1492526602,138,7.09294
1492526606,140.4,9.63891
1492526610,118.8,10.2395
1492526614,147.6,9.54008
1492526618,66,9.12161
1492526622,130.8,8.2985
1492526626,104.4,8.49365
1492526630,118.8,7.07397
1492526634,44.4,8.13601
1492526638,58.8,7.44458
1492526642,51.6,7.93226
1492526646,39.6,7.99886
1492526650,39.6,11.4064
1492526654,114,10.07
1492526658,135.6,11.705
1492526662,99.6,8.38255
1492526666,56.4,7.57613
1492526670,66,11.6792
1492526674,20.4,8.71315
1492526678,-10.8,9.28126
1492526682,78,10.4956
1492526686,130.8,9.38408
1492526690,68.4,10.2727
1492526694,111.6,8.82055
1492526698,109.2,7.39149
1492526702,73.2,8.85615
1492526706,106.8,7.94702
1492526710,142.8,7.81895
1492526714,106.8,7.94744
1492526718,126,10.4926
1492526722,114,9.30664
1492526726,128.4,10.1117
1492526730,75.6,9.23276
1492526734,106.8,9.70211
1492526738,92.4,9.4585
1492526742,27.6,10.6035
1492526746,-3.60000000000002,10.4102
1492526750,-10.8,12.7808
1492526754,15.6,7.85591
1492526758,30,11.9056
1492526762,-18,9.68838
1492526766,-44.4,10.4197
1492526770,-42,8.84725
1492526774,-27.6,8.82899
1492526778,18,11.4821
1492526782,18,11.0603
1492526786,20.4,8.60501
1492526790,32.4,9.63813
1492526794,49.2,7.55322
1492526798,114,8.99046
1492526802,80.4,11.4248
1492526806,56.4,10.0461
1492526810,22.8,9.36931
1492526814,121.2,11.0986
1492526818,51.6,9.23174
1492526822,30,11.6659
1492526826,80.4,6.75032
1492526830,25.2,8.27313
1492526834,46.8,11.4038
1492526838,87.6,9.44177
1492526842,49.2,10.7516
1492526846,54,8.15555
1492526850,106.8,8.48073
1492526854,37.2,9.69317
1492526858,90,7.6465
1492526862,97.2,8.76313
1492526866,61.2,7.16115
1492526870,25.2,10.2922
1492526874,3.60000000000002,9.89453
1492526878,39.6,7.5935
1492526882,-15.6,7.93426
1492526886,37.2,10.6527
1492526890,8.39999999999998,10.6114
1492526894,27.6,9.69118
1492526898,51.6,7.97857
1492526902,37.2,10.6846
1492526906,42,8.96754
1492526910,-25.2,10.5702
1492526914,-46.8,10.3977
1492526918,-54,8.44662
1492526922,-73.2,10.7065
1492526926,-80.4,9.64345
1492526930,25.2,10.0411
1492526934,-25.2,9.49145
1492526938,-25.2,9.27725
1492526942,-34.8,9.31446
1492526946,-34.8,10.5811
1492526950,30,9.67617
1492526954,-37.2,7.12546
1492526958,20.4,9.82532
1492526962,-51.6,9.40453
1492526966,-102,8.98582
1492526970,-22.8,10.4283
1492526974,-99.6,9.89657
1492526978,-15.6,9.82283
1492526982,-85.2,7.42988
1492526986,-61.2,9.27951
1492526990,-87.6,9.2809
1492526994,-90,9.28381
1492526998,-39.6,11.01
1492527002,-114,11.3862
1492527006,-90,7.8818
1492527010,-61.2,8.95325
1492527014,-94.8,9.34935
1492527018,-97.2,7.16102
1492527022,-97.2,9.02833
1492527026,-92.4,8.23275
1492527030,-114,8.22015
1492527034,-111.6,8.36691
1492527038,-104.4,10.0874
1492527042,-25.2,7.3036
1492527046,-106.8,9.02454
1492527050,-116.4,8.81212
1492527054,-68.4,10.0714
1492527058,-56.4,8.50986
1492527062,-25.2,7.3259
1492527066,-1.20000000000005,5.71186
1492527070,6,8.1222
1492527074,37.2,8.80622
1492527078,-37.2,9.6941
1492527082,-54,10.1221
1492527086,94.8,10.4836
1492527090,10.8,9.7082
1492527094,58.8,10.514
1492527098,39.6,9.72903
1492527102,10.8,11.2606
1492527106,-8.39999999999998,9.66928
1492527110,39.6,5.90796
1492527114,-34.8,8.31169
1492527118,8.39999999999998,9.13857
1492527122,85.2,8.15678
1492527126,37.2,4.69561
1492527130,-18,8.13878
1492527134,-54,9.2767
1492527138,56.4,8.47904
1492527142,70.8,5.02737
1492527146,18,7.6952
1492527150,44.4,9.8094
1492527154,15.6,10.1099
1492527158,-10.8,9.24258
1492527162,27.6,10.738
1492527166,-54,13.018
1492527170,-10.8,12.1165
1492527174,-30,9.78307
1492527178,-25.2,9.28519
1492527182,-34.8,8.57225
1492527186,-1.20000000000005,9.42655
1492527190,-106.8,9.73054
1492527194,-3.60000000000002,9.82065
1492527198,-32.4,11.208
1492527202,-30,8.84849
1492527206,-1.20000000000005,10.1957
1492527210,-46.8,7.88753
1492527214,-27.6,10.2844
1492527218,-20.4,10.6284
1492527222,30,10.0052
1492527226,54,7.16936
1492527230,37.2,12.4038
1492527234,6,9.23399
1492527238,1.20000000000005,10.9879
1492527242,-32.4,11.303
1492527246,-30,10.4167
1492527250,20.4,12.9473
1492527254,30,10.7603
1492527258,-22.8,10.3085
1492527262,46.8,10.9662
1492527266,18,10.9385
1492527270,49.2,10.3928
1492527274,6,9.7073
1492527278,44.4,9.93404
1492527282,46.8,10.3866
1492527286,-46.8,11.2644
1492527290,-32.4,8.23625
1492527294,44.4,13.6191
1492527298,-99.6,12.5973
1492527302,-39.6,10.916
1492527306,27.6,9.39593
1492527310,-30,10.6714
1492527314,-44.4,11.533
1492527318,15.6,9.8544
1492527322,44.4,9.24195
1492527326,32.4,11.4939
1492527330,-51.6,11.3204
1492527334,-18,10.6032
1492527338,-27.6,10.0235
1492527342,-42,8.71002
1492527346,-63.6,7.98886
1492527350,6,7.33084
1492527354,-27.6,7.88715
1492527358,-13.2,10.1118
1492527362,-54,9.09006
1492527366,-1.20000000000005,10.7706
1492527370,-22.8,9.52429
1492527374,-32.4,10.4871
1492527378,-30,8.57768
1492527382,-49.2,10.5563
1492527386,-10.8,11.5182
1492527390,-34.8,12.4269
1492527394,-78,12.6026
1492527398,3.60000000000002,11.4018
1492527402,-37.2,11.1401
1492527406,-56.4,10.5468
1492527410,-85.2,10.3246
1492527414,30,6.40882
1492527418,-58.8,8.48333
1492527422,39.6,8.37163
1492527426,-8.39999999999998,10.8154
1492527430,-78,9.10626
1492527434,-18,9.49432
1492527438,-46.8,7.87717
1492527442,-75.6,8.63155
1492527446,-32.4,7.60331
1492527450,-56.4,9.15246
1492527454,-22.8,6.94298
1492527458,-27.6,6.0814
1492527462,3.60000000000002,8.32438
1492527466,-80.4,7.40595
1492527470,-70.8,7.12622
1492527474,-30,6.69237
1492527478,27.6,7.29336
1492527482,39.6,9.59548
1492527486,49.2,5.69844
1492527490,-18,10.1586
1492527494,-13.2,10.3018
1492527498,37.2,9.95515
1492527502,-32.4,12.6204
1492527506,-10.8,9.5741
1492527510,-8.39999999999998,7.58654
1492527514,3.60000000000002,6.90442
1492527518,-66,8.73633
1492527522,1.20000000000005,8.66708
1492527526,-87.6,10.4416
1492527530,-104.4,8.59313
1492527534,42,8.27474
1492527538,-99.6,8.08788
1492527542,-32.4,7.89218
1492527546,-18,6.56869
1492527550,-18,8.03351
1492527554,-30,8.84575
1492527558,-13.2,6.19623
1492527562,-8.39999999999998,7.04047
1492527566,-80.4,7.78382
1492527570,-39.6,8.26501
1492527574,-51.6,8.76776
1492527578,-34.8,9.88992
1492527582,-282,9.63771
1492527586,-27.6,9.92914
1492527590,-114,9.30623
1492527594,-56.4,9.67185
1492527598,-46.8,6.17344
1492527602,-109.2,7.49713
1492527606,123.6,9.83931
1492527610,-13.2,9.43311
1492527614,-90,10.1132
1492527618,-44.4,8.37751
1492527622,-99.6,8.41585
1492527626,-22.8,8.63759
1492527630,-73.2,8.36099
1492527634,-97.2,6.35748
1492527638,-87.6,10.0363
1492527642,-27.6,8.54839
1492527646,-90,9.89691
1492527650,-63.6,4.52868
1492527654,-97.2,6.64191
1492527658,-94.8,8.86979
1492527662,-87.6,5.2154
1492527666,-126,7.50827
1492527670,-73.2,7.41164
1492527674,-97.2,7.56663
1492527678,-80.4,6.92065
1492527682,-34.8,7.49897
1492527686,-32.4,6.43211
1492527690,-75.6,7.90106
1492527694,-32.4,7.14513
1492527698,-63.6,7.49891
1492527702,-22.8,6.80807
1492527706,-73.2,7.40211
1492527710,-49.2,7.81781
1492527714,-54,8.12927
1492527718,-44.4,5.40069
1492527722,-78,8.36716
1492527726,-27.6,7.86787
1492527730,-32.4,8.51313
1492527734,-58.8,5.30496
1492527738,-90,7.20367
1492527742,-1.20000000000005,7.71526
1492527746,-8.39999999999998,8.45323
1492527750,-25.2,7.54699
1492527754,-44.4,7.93088
1492527758,-70.8,10.3428
1492527762,3.60000000000002,9.02861
1492527766,-44.4,10.1571
1492527770,-68.4,6.85431
1492527774,46.8,8.42003
1492527778,-51.6,8.19745
1492527782,-49.2,8.42022
1492527786,6,5.40531
1492527790,-73.2,9.52141
1492527794,-3.60000000000002,9.91164
1492527798,-3.60000000000002,11.3681
1492527802,-63.6,9.49672
1492527806,20.4,9.82965
1492527810,1.20000000000005,9.04821
1492527814,-15.6,7.77813
1492527818,-25.2,6.99709
1492527822,-66,9.93209
1492527826,-56.4,10.2521
1492527830,-58.8,8.10462
1492527834,13.2,8.76974
1492527838,-34.8,8.06845
1492527842,-63.6,6.69388
1492527846,-3.60000000000002,7.81812
1492527850,1.20000000000005,7.88652
1492527854,-80.4,7.75055
1492527858,-51.6,4.87373
1492527862,15.6,9.76655
1492527866,34.8,8.43126
1492527870,37.2,9.49735
1492527874,61.2,6.94746
1492527878,34.8,9.15496
1492527882,70.8,7.88678
1492527886,118.8,7.86621
1492527890,188.4,7.29137
1492527894,111.6,7.66021
1492527898,135.6,7.92817
1492527902,99.6,7.37723
1492527906,116.4,8.13395
1492527910,56.4,5.59053
1492527914,63.6,9.31789
1492527918,121.2,9.72425
1492527922,34.8,6.83068
1492527926,104.4,10.675
1492527930,94.8,8.63289
1492527934,97.2,9.27868
1492527938,73.2,9.22974
1492527942,25.2,10.8808
1492527946,121.2,10.5511
1492527950,63.6,10.3201
1492527954,106.8,7.07333
1492527958,97.2,8.36743
1492527962,56.4,9.07213
1492527966,66,10.8975
1492527970,51.6,9.95042
1492527974,-34.8,14.0625
1492527978,-8.39999999999998,8.22468
1492527982,-3.60000000000002,11.1302
1492527986,-27.6,13.8059
1492527990,-87.6,11.6807
1492527994,-58.8,11.8659
1492527998,-22.8,11.3738
1492528002,-104.4,9.47531
1492528006,-78,8.25312
1492528010,-106.8,9.99219
1492528014,-49.2,9.64667
1492528018,-54,5.76186
1492528022,-37.2,7.12604
1492528026,-27.6,10.378
1492528030,27.6,11.4312
1492528034,3.60000000000002,8.51825
1492528038,15.6,9.67204
1492528042,42,10.1993
1492528046,27.6,9.35716
1492528050,34.8,9.35953
1492528054,39.6,8.50404
1492528058,-51.6,10.3172
1492528062,10.8,10.0484
1492528066,-90,9.74572
1492528070,-27.6,9.40097
1492528074,-22.8,8.1855
1492528078,10.8,10.0932
1492528082,1.20000000000005,9.81553
1492528086,-78,8.63999
1492528090,20.4,8.47216
1492528094,-3.60000000000002,7.85039
1492528098,51.6,6.30675
1492528102,51.6,6.1936
1492528106,-27.6,7.85123
1492528110,-66,9.14693
1492528114,-63.6,9.84227
1492528118,-68.4,9.36879
1492528122,-37.2,8.2538
1492528126,-70.8,9.61376
1492528130,-34.8,7.77091
1492528134,39.6,9.11475
1492528138,-44.4,8.38151
1492528142,-46.8,8.18547
1492528146,22.8,10.6334
1492528150,-85.2,7.41929
1492528154,-56.4,8.84337
1492528158,-58.8,8.61177
1492528162,-32.4,10.4356
1492528166,10.8,12.337
1492528170,-37.2,9.99854
1492528174,51.6,11.0837
1492528178,58.8,8.92267
1492528182,111.6,8.97092
1492528186,25.2,9.20044
1492528190,-6,7.49371
1492528194,37.2,9.39066
1492528198,92.4,11.7132
1492528202,56.4,9.52593
1492528206,54,8.80929
1492528210,20.4,10.9283
1492528214,42,11.2331
1492528218,130.8,9.77861
1492528222,63.6,10.0851
1492528226,54,11.2254
1492528230,102,11.2555
1492528234,34.8,13.0661
1492528238,109.2,11.5529
1492528242,126,8.62979
1492528246,49.2,8.50674
1492528250,87.6,9.0092
1492528254,49.2,7.67998
1492528258,126,11.075
1492528262,42,10.8098
1492528266,30,9.79187
1492528270,46.8,9.11316
1492528274,68.4,11.364
1492528278,32.4,8.38115
1492528282,92.4,9.1179
1492528286,46.8,9.40514
1492528290,44.4,8.8297
1492528294,-6,7.51638
1492528298,-32.4,9.17684
1492528302,-10.8,9.01028
1492528306,-20.4,7.39668
1492528310,61.2,10.0412
1492528314,46.8,10.5712
1492528318,39.6,8.25004
1492528322,30,9.25799
1492528326,25.2,8.4527
1492528330,10.8,10.231
1492528334,-13.2,10.4202
1492528338,27.6,11.1696
1492528342,25.2,10.7538
1492528346,51.6,8.95943
1492528350,44.4,10.7701
1492528354,133.2,7.22678
1492528358,56.4,12.7295
1492528362,42,10.032
1492528366,34.8,8.56552
1492528370,13.2,8.5119
1492528374,8.39999999999998,10.5426
1492528378,42,8.09625
1492528382,10.8,9.19624
1492528386,-61.2,9.53119
1492528390,-73.2,7.358
1492528394,-90,6.78802
1492528398,-97.2,10.7081
1492528402,-20.4,9.24689
1492528406,-1.20000000000005,10.1708
1492528410,-34.8,7.65813
1492528414,-20.4,10.8278
1492528418,-51.6,8.23879
1492528422,-18,7.67047
1492528426,-102,4.97435
1492528430,-32.4,6.12867
1492528434,-27.6,8.37795
1492528438,22.8,5.0589
1492528442,-56.4,7.33568
1492528446,20.4,7.11991
1492528450,66,8.99609
1492528454,-56.4,9.21018
1492528458,-25.2,8.96583
1492528462,13.2,9.04841
1492528466,22.8,10.2165
1492528470,-25.2,10.3229
1492528474,61.2,9.81912
1492528478,34.8,7.92357
1492528482,56.4,7.92468
1492528486,37.2,8.43648
1492528490,46.8,10.5259
1492528494,51.6,9.27006
1492528498,-56.4,10.23
1492528502,18,10.7224
1492528506,42,8.04023
1492528510,44.4,7.20385
1492528514,58.8,6.91789
1492528518,-20.4,8.08999
1492528522,15.6,7.88503
1492528526,30,8.61056
1492528530,-18,7.67477
1492528534,27.6,8.28215
1492528538,-30,8.36013
1492528542,44.4,9.59896
1492528546,-10.8,8.64306
1492528550,-87.6,7.83198
1492528554,-104.4,8.07227
1492528558,-104.4,9.8433
1492528562,-73.2,11.178
1492528566,-102,8.78099
1492528570,-46.8,9.18997
1492528574,-34.8,7.11845
1492528578,-56.4,9.27206
1492528582,-13.2,8.58164
1492528586,-68.4,6.42004
1492528590,-58.8,8.73604
1492528594,-34.8,8.86283
1492528598,-32.4,10.4898
1492528602,-49.2,7.49301
1492528606,-32.4,7.97787
1492528610,-27.6,8.75787
1492528614,-30,9.66435
1492528618,-46.8,9.89592
1492528622,-32.4,8.15098
1492528626,-15.6,8.852
1492528630,-30,7.49569
1492528634,-49.2,5.56798
1492528638,-39.6,10.9792
1492528642,61.2,7.5865
1492528646,27.6,9.51352
1492528650,46.8,8.94077
1492528654,39.6,8.02664
1492528658,10.8,8.49203
1492528662,8.39999999999998,9.98301
1492528666,-49.2,8.02858
1492528670,99.6,9.88814
1492528674,34.8,11.0669
1492528678,58.8,10.4635
1492528682,61.2,10.221
1492528686,-1.20000000000005,9.62552
1492528690,32.4,7.73571
1492528694,-20.4,9.49824
1492528698,-13.2,9.28726
1492528702,22.8,11.5038
1492528706,32.4,8.5307
1492528710,56.4,9.24403
1492528714,58.8,9.17962
1492528718,56.4,8.11387
1492528722,58.8,7.10968
1492528726,56.4,9.44303
1492528730,68.4,7.9745
1492528734,99.6,8.51851
1492528738,109.2,8.14408
1492528742,178.8,9.72797
1492528746,126,8.88344
1492528750,123.6,5.14191
1492528754,190.8,5.72056
1492528758,102,9.24918
1492528762,145.2,6.83922
1492528766,142.8,8.1138
1492528770,123.6,8.06138
1492528774,154.8,8.08623
1492528778,111.6,9.99485
1492528782,109.2,10.1178
1492528786,61.2,8.09278
1492528790,106.8,4.29022
1492528794,80.4,7.38254
1492528798,114,10.5432
1492528802,49.2,8.33275
1492528806,63.6,9.84366
1492528810,34.8,9.68266
1492528814,61.2,7.39293
1492528818,104.4,6.06654
1492528822,70.8,10.424
1492528826,140.4,8.83494
1492528830,104.4,7.49176
1492528834,63.6,7.8606
1492528838,121.2,8.44262
1492528846,150,8.57945
1492528850,130.8,9.1078
1492528854,106.8,7.91962
1492528858,159.6,8.35815
1492528862,140.4,10.2994
1492528866,116.4,9.95899
1492528870,114,7.79759
1492528874,133.2,8.38048
1492528878,212.4,8.19676
1492528882,97.2,8.30503
1492528886,135.6,7.33328
1492528890,97.2,7.6767
1492528894,123.6,9.45347
1492528898,80.4,9.6172
1492528902,116.4,8.82612
1492528906,118.8,10.3105
1492528910,90,10.121
1492528914,51.6,9.12649
1492528918,34.8,9.24473
1492528922,-8.39999999999998,9.85565
1492528926,25.2,9.76278
1492528930,-25.2,8.87053
1492528934,-37.2,8.25168
1492528938,-78,8.62974
1492528942,-66,8.26866
1492528946,34.8,10.8644
1492528950,-49.2,10.7851
1492528954,-46.8,8.6678
1492528958,-46.8,11.5057
1492528962,-32.4,6.99872
1492528966,-58.8,7.93304
1492528970,18,8.66473
1492528974,-66,9.90286
1492528978,-54,7.7072
1492528982,-102,8.70935
1492528986,-128.4,10.27
1492528990,-102,6.86029
1492528994,13.2,8.77175
1492528998,-18,8.48698
1492529002,-44.4,8.07541
1492529006,-27.6,10.4811
1492529010,-42,11.1074
1492529014,-68.4,9.90853
1492529018,-54,10.6926
1492529022,-3.60000000000002,10.3181
1492529026,25.2,9.45789
1492529030,-61.2,9.34501
1492529034,37.2,9.31331
1492529038,-34.8,10.7977
1492529042,-61.2,7.9871
1492529046,13.2,8.54216
1492529050,27.6,9.12568
1492529054,-13.2,9.13949
1492529058,15.6,11.0427
1492529062,61.2,9.4724
1492529066,99.6,6.56209
1492529070,111.6,9.88078
1492529074,42,9.45507
1492529078,42,10.5517
1492529082,8.39999999999998,10.772
1492529086,-13.2,10.0025
1492529090,18,9.01917
1492529094,37.2,8.84041
1492529098,-18,8.42197
1492529102,-20.4,9.91613
1492529106,-58.8,10.8896
1492529110,51.6,9.25677
1492529114,-15.6,9.75254
1492529118,-32.4,10.1426
1492529122,-25.2,8.95205
1492529126,-37.2,11.1362
1492529130,118.8,10.3925
1492529134,20.4,10.0889
1492529138,63.6,9.68769
1492529142,3.60000000000002,10.4306
1492529146,-3.60000000000002,9.4331
1492529150,1.20000000000005,8.49885
1492529154,39.6,9.66819
1492529158,-20.4,9.3666
1492529162,1.20000000000005,8.48363
1492529166,-58.8,7.85713
1492529170,-15.6,9.81827
1492529174,-34.8,8.96063
1492529178,-8.39999999999998,7.1835
1492529182,27.6,7.4877
1492529186,46.8,8.164
1492529190,54,10.4267
1492529194,39.6,7.5806
1492529198,6,9.22619
1492529202,54,6.79472
1492529206,-3.60000000000002,8.25292
1492529210,54,6.9382
1492529214,42,8.98639
1492529218,34.8,5.19539
1492529222,42,8.94119
1492529226,3.60000000000002,8.47959
1492529230,27.6,9.11307
1492529234,80.4,9.7225
1492529238,30,9.63762
1492529242,32.4,8.55339
1492529246,56.4,11.2702
1492529250,3.60000000000002,7.13865
1492529254,32.4,8.79916
1492529258,20.4,8.98419
1492529262,10.8,8.23445
1492529266,37.2,9.86214
1492529270,27.6,8.40354
1492529274,30,8.95634
1492529278,54,11.2096
1492529282,63.6,7.21215
1492529286,8.39999999999998,8.39036
1492529290,-8.39999999999998,9.4811
1492529294,30,9.13838
1492529298,18,8.71648
1492529302,63.6,8.94958
1492529306,56.4,7.95387
1492529310,116.4,9.84656
1492529314,66,8.99903
1492529318,73.2,10.1953
1492529322,104.4,12.2574
1492529326,66,13.2948
1492529330,109.2,7.9565
1492529334,56.4,12.4238
1492529338,94.8,9.76429
1492529342,39.6,11.1972
1492529346,20.4,8.89573
1492529350,34.8,7.42366
1492529354,-30,9.83143
1492529358,-10.8,5.65923
1492529362,-10.8,8.27531
1492529366,3.60000000000002,8.91823
1492529370,-39.6,9.04438
1492529374,-22.8,9.41797
1492529378,-42,10.7405
1492529382,-68.4,10.6242
1492529386,-20.4,9.39879
1492529390,-6,11.6722
1492529394,-34.8,11.5272
1492529398,-61.2,7.43788
1492529402,-13.2,10.5077
1492529406,3.60000000000002,8.21828
1492529410,27.6,9.74549
1492529414,8.39999999999998,8.33262
1492529418,54,11.2497
1492529422,37.2,10.7751
1492529426,34.8,8.56128
1492529430,22.8,8.39214
1492529434,78,5.40417
1492529438,82.8,10.0156
1492529442,80.4,9.11401
1492529446,46.8,10.4989
1492529450,111.6,4.0675
1492529454,51.6,6.31507
1492529458,90,9.72241
1492529462,123.6,9.71152
1492529466,51.6,9.89884
1492529470,111.6,9.58447
1492529474,99.6,7.05942
1492529478,75.6,9.33144
1492529482,111.6,7.70246
1492529486,97.2,8.46949
1492529490,73.2,7.26931
1492529494,126,8.31021
1492529498,32.4,8.91972
1492529502,61.2,10.9421
1492529506,66,7.554
1492529510,37.2,8.65512
1492529514,73.2,9.24263
1492529518,90,7.39714
1492529522,51.6,8.48222
1492529526,126,8.4163
1492529530,56.4,8.85478
1492529534,104.4,8.61753
1492529538,66,8.02671
1492529542,44.4,10.715
1492529546,70.8,10.1413
1492529550,68.4,10.9857
1492529554,82.8,9.34332
1492529558,66,8.99444
1492529562,70.8,7.9835
1492529566,94.8,8.47516
1492529570,66,8.74339
1492529574,66,7.01141
1492529578,66,9.98886
1492529582,68.4,11.3007
1492529586,44.4,9.24033
1492529590,63.6,10.6403
1492529594,51.6,10.456
1492529598,61.2,10.194
1492529602,42,9.15479
1492529606,-37.2,8.82884
1492529610,6,10.783
1492529614,32.4,12.2216
1492529618,15.6,10.1471
1492529622,18,8.76027
1492529626,15.6,9.30202
1492529630,-75.6,10.1167
1492529634,20.4,7.50148
1492529638,-44.4,11.6058
1492529642,-90,9.42388
1492529646,-46.8,10.4742
1492529650,37.2,9.7307
1492529654,-13.2,10.3195
1492529658,-42,9.97929
1492529662,-85.2,8.2677
1492529666,-13.2,9.42723
1492529670,-25.2,8.86365
1492529674,-37.2,8.81645
1492529678,10.8,8.66298
1492529682,-42,10.9589
1492529686,-34.8,10.1137
1492529690,-49.2,8.54756
1492529694,-27.6,8.81928
1492529698,-46.8,8.25185
1492529702,-20.4,8.65849
1492529706,-18,9.37833
1492529710,-27.6,10.6564
1492529714,39.6,9.11711
1492529718,-22.8,10.9428
1492529722,-34.8,9.54772
1492529726,15.6,8.36085
1492529730,-92.4,7.33681
1492529734,-54,10.8961
1492529738,-37.2,10.1157
1492529742,-92.4,10.8276
1492529746,39.6,9.83788
1492529750,-6,9.04226
1492529754,-61.2,8.08559
1492529758,-44.4,10.121
1492529762,6,10.5228
1492529766,-58.8,7.85426
1492529770,-82.8,8.63237
1492529774,-58.8,11.4637
1492529778,-22.8,11.551
1492529782,-32.4,11.6652
1492529786,-73.2,9.22801
1492529790,-44.4,11.7664
1492529794,-56.4,11.8472
1492529798,-106.8,12.7702
1492529802,-90,10.9845
1492529806,-58.8,9.68771
1492529810,-34.8,11.2998
1492529814,-42,9.95893
1492529818,-27.6,9.924
1492529822,-37.2,10.3048
1492529826,-34.8,10.715
1492529830,6,11.254
1492529834,-87.6,13.198
1492529838,-42,8.61929
1492529842,-68.4,7.96701
1492529846,-92.4,10.0774
1492529850,-42,10.1483
1492529854,-42,9.96054
1492529858,-92.4,7.74951
1492529862,-51.6,8.94693
1492529866,-46.8,11.1393
1492529870,-90,9.91465
1492529874,-27.6,9.31328
1492529878,-75.6,9.13907
1492529882,39.6,9.36115
1492529886,27.6,10.0102
1492529890,-8.39999999999998,10.4052
1492529894,-87.6,10.1002
1492529898,-37.2,11.5162
1492529902,-99.6,9.6256
1492529906,-90,11.5249
1492529910,20.4,12.1839
1492529914,30,10.5563
1492529918,-51.6,10.4083
1492529922,13.2,6.84848
1492529926,-25.2,9.62344
1492529930,1.20000000000005,9.83386
1492529934,-39.6,9.4568
1492529938,-39.6,12.4239
1492529942,-13.2,11.5508
1492529946,-68.4,10.9565
1492529950,-97.2,12.2124
1492529954,-51.6,9.13962
1492529958,-13.2,8.61535
1492529962,-109.2,12.5672
1492529966,-80.4,9.63705
1492529970,-82.8,9.44867
1492529974,-123.6,9.96322
1492529978,-97.2,10.8853
1492529982,-94.8,9.22789
1492529986,-118.8,11.7815
1492529990,-157.2,9.16921
1492529994,-123.6,8.36462
1492529998,-102,8.84161
1492530002,-61.2,10.385
1492530006,-97.2,7.03271
1492530010,-154.8,8.35449
1492530014,-104.4,5.62408
1492530018,-99.6,8.14952
1492530022,-111.6,8.83898
1492530026,-99.6,9.66784
1492530030,-37.2,10.4876
1492530034,-78,10.6487
1492530038,-68.4,9.07848
1492530042,-18,10.3985
1492530046,-104.4,9.21901
1492530050,-87.6,8.90794
1492530054,-80.4,8.66705
1492530058,-34.8,11.3287
1492530062,-32.4,8.20577
1492530066,-25.2,8.29123
1492530070,-56.4,8.28244
1492530074,-27.6,10.7171
1492530078,22.8,9.1373
1492530082,-99.6,8.42043
1492530086,-58.8,11.616
1492530090,-30,9.99744
1492530094,34.8,12.054
1492530098,32.4,8.14394
1492530102,102,12.4613
1492530106,42,10.1647
1492530110,63.6,11.4078
1492530114,85.2,10.8713
1492530118,58.8,11.053
1492530122,-44.4,9.1801
1492530126,37.2,8.46308
1492530130,-3.60000000000002,9.1651
1492530134,-32.4,8.67191
1492530138,18,7.60287
1492530142,-10.8,8.76484
1492530146,-13.2,8.39063
1492530150,34.8,10.0381
1492530154,32.4,10.2453
1492530158,54,11.0809
1492530162,20.4,8.92898
1492530166,51.6,9.46846
1492530170,106.8,7.37757
1492530174,97.2,9.81313
1492530178,32.4,8.42911
1492530182,44.4,9.8789
1492530186,-1.20000000000005,10.4369
1492530190,25.2,9.38947
1492530194,-44.4,8.69751
1492530198,6,7.99997
1492530202,42,10.9292
1492530206,30,8.20287
1492530210,27.6,8.59418
1492530214,-10.8,8.93035
1492530218,-25.2,6.29054
1492530222,25.2,10.8591
1492530226,68.4,8.95342
1492530230,44.4,9.46352
1492530234,51.6,11.3492
1492530238,3.60000000000002,9.6901
1492530242,90,9.05642
1492530246,75.6,11.8975
1492530250,118.8,10.535
1492530254,135.6,9.14583
1492530258,162,8.16082
1492530262,123.6,9.97945
1492530266,224.4,8.758
1492530270,142.8,7.24298
1492530274,99.6,8.64117
1492530278,169.2,10.0556
1492530282,152.4,12.2356
1492530286,109.2,10.3548
1492530290,114,9.24577
1492530294,126,9.14927
1492530298,99.6,9.58634
1492530302,126,9.89263
1492530306,118.8,10.7202
1492530310,68.4,10.8142
1492530314,169.2,7.66641
1492530318,116.4,8.51883
1492530322,138,9.16167
1492530326,109.2,8.09822
1492530330,135.6,8.89536
1492530334,133.2,10.535
1492530338,126,6.82365
1492530342,46.8,6.97849
1492530346,80.4,8.94316
1492530350,87.6,9.55917
1492530354,27.6,9.94239
1492530358,39.6,9.01983
1492530362,-10.8,8.6868
1492530366,-66,9.81439
1492530370,22.8,9.79519
1492530374,15.6,9.1508
1492530378,-22.8,9.98304
1492530382,61.2,9.22307
1492530386,-54,9.94076
1492530390,-6,10.1012
1492530394,30,10.6977
1492530398,13.2,10.7358
1492530402,49.2,11.085
1492530406,42,9.35474
1492530410,15.6,10.3049
1492530414,27.6,10.3776
1492530418,-13.2,9.59261
1492530422,-92.4,10.1256
1492530426,-54,10.9405
1492530430,-49.2,9.92547
1492530434,3.60000000000002,9.60497
1492530438,-10.8,13.1596
1492530442,-73.2,8.69459
1492530446,-97.2,10.5663
1492530450,10.8,10.7127
1492530454,-34.8,9.03822
1492530458,-39.6,9.51097
1492530462,-20.4,9.17548
1492530466,-27.6,10.2128
1492530470,-49.2,10.3765
1492530474,1.20000000000005,8.90855
1492530478,-1.20000000000005,10.3455
1492530482,-54,8.55012
1492530486,18,11.7411
1492530490,-27.6,8.44044
1492530494,-15.6,9.08725
1492530498,-3.60000000000002,7.36679
1492530502,-3.60000000000002,10.4449
1492530506,-46.8,10.5229
1492530510,-34.8,10.6621
1492530514,-10.8,9.94043
1492530518,13.2,8.73379
1492530522,-32.4,8.47926
1492530526,-80.4,10.2449
1492530530,-56.4,9.00037
1492530534,-32.4,10.157
1492530538,-87.6,8.43302
1492530542,1.20000000000005,8.62676
1492530546,-56.4,8.81461
1492530550,-99.6,8.85285
1492530554,-34.8,11.188
1492530558,-6,8.31602
1492530562,-106.8,10.9198
1492530566,-49.2,9.0136
1492530570,-30,10.7599
1492530574,-61.2,10.744
1492530578,-30,10.7867
1492530582,-44.4,9.48891
1492530586,25.2,12.5534
1492530590,-34.8,11.6283
1492530594,-18,9.19577
1492530598,-44.4,10.5685
1492530602,-18,10.4299
1492530606,-30,9.16492
1492530610,6,9.23973
1492530614,6,10.4243
1492530618,-99.6,9.14336
1492530622,30,9.59212
1492530626,-54,10.1953
1492530630,-6,11.1618
1492530634,-13.2,8.95003
1492530638,-34.8,8.59083
1492530642,1.20000000000005,11.4114
1492530646,-8.39999999999998,8.45806
1492530650,-56.4,5.25613
1492530654,-30,9.30003
1492530658,-18,9.2644
1492530662,-92.4,10.4493
1492530666,-15.6,6.76146
1492530670,-56.4,12.3023
1492530674,-99.6,12.0337
1492530678,-94.8,10.1154
1492530682,-104.4,10.4338
1492530686,8.39999999999998,8.4496
1492530690,1.20000000000005,9.98645
1492530694,-34.8,9.71479
1492530698,-85.2,7.53973
1492530702,-34.8,8.52981
1492530706,-44.4,8.9925
1492530710,-25.2,7.11569
1492530714,-51.6,8.97577
1492530718,-56.4,9.97262
1492530722,-97.2,9.65608
1492530726,-13.2,9.04361
1492530730,-68.4,10.6836
1492530734,-75.6,12.0801
1492530738,-54,12.9464
1492530742,-49.2,8.65782
1492530746,-85.2,10.75
1492530750,-94.8,8.65611
1492530754,-99.6,10.2344
1492530758,-73.2,9.50631
1492530762,-25.2,11.1293
1492530766,-111.6,8.45452
1492530770,-82.8,8.34687
1492530774,-66,7.17562
1492530778,-78,7.78599
1492530782,-116.4,9.07958
1492530786,-109.2,7.81687
1492530790,-18,8.87131
1492530794,-85.2,9.82477
1492530798,-97.2,10.5016
1492530802,-111.6,9.30502
1492530806,-114,10.7377
1492530810,-90,9.50588
1492530814,-123.6,11.5045
1492530818,-133.2,9.56037
1492530822,-92.4,6.34319
1492530826,-73.2,9.67003
1492530830,-78,10.9002
1492530834,-87.6,9.14513
1492530838,-109.2,8.77077
1492530842,-99.6,7.29394
1492530846,-37.2,6.26699
1492530850,-61.2,8.08963
1492530854,-42,8.05955
1492530858,-15.6,7.7031
1492530862,-27.6,10.703
1492530866,-78,9.18116
1492530870,-15.6,9.15547
1492530874,-49.2,6.78513
1492530878,-94.8,6.8398
1492530882,-87.6,8.63806
1492530886,-51.6,7.23367
1492530890,-27.6,6.91549
1492530894,-87.6,9.05352
1492530898,-85.2,5.91485
1492530902,-94.8,9.43868
1492530906,-32.4,9.94741
1492530910,-123.6,10.5375
1492530914,-54,3.87505
1492530918,-32.4,7.80924
1492530922,-111.6,6.11465
1492530926,-78,7.08384
1492530930,-32.4,9.15314
1492530934,-51.6,10.4097
1492530938,-68.4,8.47567
1492530942,-10.8,7.73261
1492530946,-61.2,8.67453
1492530950,-51.6,8.2898
1492530954,-27.6,7.26208
1492530958,-75.6,7.97088
1492530962,-63.6,6.85896
1492530966,-46.8,10.5574
1492530970,-44.4,10.082
1492530974,-27.6,6.55528
1492530978,15.6,9.02148
1492530982,-46.8,8.31089
1492530986,-54,9.38647
1492530990,13.2,7.93938
1492530994,3.60000000000002,6.69092
1492530998,-39.6,8.85568
1492531002,-44.4,6.44628
1492531006,-22.8,9.13949
1492531010,-22.8,7.5681
1492531014,13.2,11.0086
1492531018,-3.60000000000002,11.0483
1492531022,-8.39999999999998,9.58687
1492531026,-58.8,9.8651
1492531030,-27.6,9.18776
1492531034,-37.2,6.4516
1492531038,-49.2,9.56986
1492531042,-37.2,8.41041
1492531046,-49.2,8.84706
1492531050,-63.6,11.1065
1492531054,-32.4,10.4032
1492531058,37.2,8.93073
1492531062,-32.4,8.77072
1492531066,-44.4,7.0875
1492531070,3.60000000000002,11.6137
1492531074,-39.6,5.37469
1492531078,-66,7.18322
1492531082,-46.8,7.16618
1492531086,-13.2,7.87856
1492531090,-70.8,6.98914
1492531094,-54,7.03493
1492531098,-73.2,4.83584
1492531102,-104.4,6.6068
1492531106,-63.6,8.44062
1492531110,-46.8,8.22022
1492531114,-94.8,6.87688
1492531118,-34.8,6.31951
1492531122,-56.4,6.00269
1492531126,-25.2,6.14967
1492531130,49.2,6.45812
1492531134,27.6,6.76762
1492531138,-1.20000000000005,9.56801
1492531142,-6,10.0427
1492531146,3.60000000000002,8.05791
1492531150,-54,7.94132
1492531154,-51.6,9.33678
1492531158,-18,8.96528
1492531162,-85.2,11.7266
1492531166,-78,9.09879
1492531170,-10.8,9.57154
1492531174,-97.2,9.18421
1492531178,-39.6,11.9789
1492531182,15.6,8.03522
1492531186,-66,8.37703
1492531190,-13.2,9.74966
1492531194,-61.2,9.8996
1492531198,-13.2,8.59619
1492531202,-8.39999999999998,8.79694
1492531206,-70.8,8.59933
1492531210,-49.2,10.304
1492531214,-37.2,10.0192
1492531218,-6,9.59791
1492531222,-104.4,10.2196
1492531226,-6,8.27732
1492531230,-22.8,8.36104
1492531234,-39.6,9.65607
1492531238,-34.8,10.5343
1492531242,-44.4,8.12098
1492531246,-56.4,9.64267
1492531250,56.4,8.77141
1492531254,-46.8,10.0659
1492531258,-78,8.17766
1492531262,-22.8,7.95351
1492531266,-104.4,8.03828
1492531270,-99.6,8.2239
1492531274,-10.8,7.3417
1492531278,-92.4,8.77104
1492531282,-92.4,7.79943
1492531286,-99.6,9.3629
1492531290,-70.8,9.89045
1492531294,-32.4,6.08311
1492531298,20.4,8.52206
1492531302,46.8,10.0101
1492531306,10.8,9.43487
1492531310,56.4,9.06476
1492531314,25.2,8.92369
1492531318,-8.39999999999998,6.52778
1492531322,-20.4,6.90075
1492531326,8.39999999999998,6.62584
1492531330,-10.8,9.98439
1492531334,32.4,8.84122
1492531338,22.8,8.67552
1492531342,61.2,7.87506
1492531346,-25.2,8.66451
1492531350,-18,5.98576
1492531354,-22.8,7.97424
1492531358,10.8,8.50013
1492531362,-87.6,7.15707
1492531366,54,8.27075
1492531370,10.8,12.3042
1492531374,-61.2,7.57409
1492531378,-20.4,8.41502
1492531382,-10.8,8.64732
1492531386,-44.4,8.45948
1492531390,18,7.34704
1492531394,-46.8,9.9089
1492531398,20.4,10.5075
1492531402,15.6,9.80231
1492531406,34.8,9.8592
1492531410,49.2,9.1341
1492531414,109.2,8.54821
1492531418,49.2,5.99658
1492531422,37.2,6.82957
1492531426,109.2,8.22668
1492531430,46.8,7.76244
1492531434,61.2,10.0542
1492531438,70.8,7.10032
1492531442,114,8.79539
1492531446,66,9.14226
1492531450,116.4,9.06599
1492531454,49.2,7.75302
1492531458,54,9.22352
1492531462,128.4,11.6239
1492531466,49.2,6.17249
1492531470,58.8,4.29982
1492531474,22.8,5.91165
1492531478,34.8,10.0928
1492531482,-3.60000000000002,9.19025
1492531486,63.6,8.79623
1492531490,32.4,9.40852
1492531494,116.4,10.22
1492531498,90,8.45028
1492531502,116.4,9.6219
1492531506,126,8.74605
1492531510,116.4,9.43703
1492531514,133.2,9.16797
1492531518,166.8,8.22211
1492531522,94.8,6.82384
1492531526,118.8,9.61336
1492531530,133.2,6.96191
1492531534,87.6,8.88165
1492531542,73.2,9.10953
1492531546,99.6,10.1615
1492531550,37.2,7.16309
1492531554,20.4,11.1607
1492531558,51.6,10.0263
1492531562,80.4,8.53727
1492531566,63.6,8.22849
1492531570,51.6,6.61069
1492531574,106.8,8.01923
1492531578,68.4,8.07348
1492531582,51.6,8.02839
1492531586,123.6,9.23571
1492531590,-8.39999999999998,8.11082
1492531594,46.8,8.72081
1492531598,44.4,8.6116
1492531602,27.6,9.79041
1492531606,22.8,7.16408
1492531610,-15.6,9.16769
1492531614,-13.2,9.74915
1492531618,13.2,9.02447
1492531622,34.8,9.54247
1492531626,-15.6,9.55106
1492531630,-37.2,11.5702
1492531634,15.6,12.5183
1492531638,-13.2,12.3994
1492531642,-94.8,7.74543
1492531646,-42,10.8589
1492531650,-22.8,8.1285
1492531654,-109.2,6.00257
1492531658,-18,8.54173
1492531662,-49.2,9.90949
1492531666,-99.6,8.06056
1492531670,1.20000000000005,10.8538
1492531674,-42,7.03271
1492531678,-54,10.0813
1492531682,-82.8,9.26971
1492531686,42,8.7432
1492531690,-34.8,8.91735
1492531694,-99.6,6.7357
1492531698,-20.4,6.57649
1492531702,-49.2,6.73111
1492531706,-102,6.02085
1492531710,-54,6.74416
1492531714,-49.2,7.36055
1492531718,-85.2,9.23547
1492531722,-80.4,10.4795
1492531726,-75.6,10.8564
1492531730,-6,6.51142
1492531734,-61.2,6.83221
1492531738,-34.8,10.0868
1492531742,-8.39999999999998,8.04041
1492531746,-73.2,10.313
1492531750,39.6,11.4219
1492531754,-8.39999999999998,9.13557
1492531758,-90,10.9161
1492531762,-44.4,10.4881
1492531766,-102,9.78481
1492531770,-73.2,9.89629
1492531774,-80.4,9.11484
1492531778,-63.6,11.9123
1492531782,-78,10.755
1492531786,-114,7.99727
1492531790,-70.8,11.0448
1492531794,-92.4,7.66956
1492531798,-130.8,10.446
1492531802,-97.2,8.30297
1492531806,-32.4,11.0116
1492531810,46.8,6.40377
1492531814,130.8,6.11967
1492531818,118.8,9.2619
1492531822,66,9.3473
1492531826,68.4,8.81717
1492531830,104.4,11.0923
1492531834,75.6,10.2903
1492531838,32.4,11.7139
1492531842,54,9.58835
1492531846,61.2,10.82
1492531850,37.2,9.07549
1492531854,10.8,12.182
1492531858,34.8,11.4744
1492531862,22.8,11.8884
1492531866,-15.6,7.87606
1492531870,42,10.5831
1492531874,42,11.1823
1492531878,-46.8,11.0654
1492531882,-32.4,10.9123
1492531886,-13.2,9.15987
1492531890,-42,9.20542
1492531894,-34.8,11.419
1492531898,3.60000000000002,9.14271
1492531902,-22.8,9.84842
1492531906,-13.2,9.42006
1492531910,39.6,9.15974
1492531914,44.4,9.34673
1492531918,44.4,9.9859
1492531922,20.4,11.6163
1492531926,22.8,8.89388
1492531930,78,6.23813
1492531934,46.8,8.80555
1492531938,-49.2,9.58114
1492531942,25.2,8.17228
1492531946,25.2,7.00553
1492531950,18,6.67715
1492531954,20.4,7.15286
1492531958,1.20000000000005,10.5893
