tag_number,delay,power_est
1498323818,64.6666666669,109.508
1498323820,91.0666666669,104.042
1498323822,83.8666666669001,117.451
1498323824,95.8666666669001,116.935
1498323826,16.6666666669,110.378
1498323828,52.6666666669,116.249
1498323830,67.0666666669,104.081
1498323832,52.6666666669,105.915
1498323834,57.4666666669,104.407
1498323836,79.0666666669,107.305
1498323838,28.6666666669,110.261
1498323840,47.8666666669001,104.709
1498323842,45.4666666669,112.598
1498323844,59.8666666669001,108.02
1498323846,55.0666666669,97.1227
1498323848,16.6666666669,111.745
1498323850,79.0666666669,109.91
1498323852,107.8666666669,115.29
1498323854,129.4666666669,114.752
1498323856,91.0666666669,116.807
1498323858,127.0666666669,110.57
1498323860,119.8666666669,111.983
1498323862,50.2666666669001,118.676
1498323864,100.6666666669,116.593
1498323866,93.4666666669,120.072
1498323868,91.0666666669,116.099
1498323870,76.6666666669,108.795
1498323872,43.0666666669,114.363
1498323874,59.8666666669001,110.247
1498323876,33.4666666669,109.499
1498323878,81.4666666669,110.374
1498323880,50.2666666669001,116.665
1498323882,16.6666666669,127.797
1498323884,-7.33333333309997,117.913
1498323886,83.8666666669001,115.038
1498323888,81.4666666669,115.077
1498323890,52.6666666669,114.389
1498323892,43.0666666669,123.967
1498323894,91.0666666669,122.529
1498323896,95.8666666669001,113.438
1498323898,98.2666666669001,115.254
1498323900,107.8666666669,111.155
1498323902,83.8666666669001,111.159
1498323904,57.4666666669,109.972
1498323906,91.0666666669,116.05
1498323908,146.2666666669,98.8555
1498323910,100.6666666669,105.687
1498323912,167.8666666669,118.226
1498323914,141.4666666669,117.654
1498323916,134.2666666669,116.417
1498323918,83.8666666669001,114.698
1498323920,119.8666666669,112.724
1498323922,95.8666666669001,109.897
1498323924,93.4666666669,110.122
1498323926,81.4666666669,111.437
1498323928,71.8666666669001,110.277
1498323930,-36.1333333330999,111.25
1498323932,-16.9333333331,121.953
1498323934,9.46666666689998,127.354
1498323936,-50.5333333331,119.435
1498323938,-45.7333333330999,122.259
1498323940,-50.5333333331,128.687
1498323942,-19.3333333331,108.506
1498323944,-88.9333333331,106.916
1498323946,-50.5333333331,103.583
1498323948,-55.3333333331,110.613
1498323950,-45.7333333330999,99.5502
1498323952,-7.33333333309997,103.613
1498323954,2.26666666690005,105.616
1498323956,-14.5333333331,113.633
1498323958,-2.53333333310002,120.004
1498323960,-33.7333333330999,115.629
1498323962,91.0666666669,116.616
1498323964,-4.93333333309999,118.424
1498323966,33.4666666669,116.131
1498323968,31.0666666669,111.199
1498323970,47.8666666669001,112.741
1498323972,-9.73333333309995,108.26
1498323974,35.8666666669001,94.42
1498323976,9.46666666689998,106.413
1498323978,105.4666666669,104.377
1498323980,52.6666666669,100.713
1498323982,38.2666666669001,105.105
1498323984,45.4666666669,100.454
1498323986,38.2666666669001,106.541
1498323988,33.4666666669,108.935
1498323990,83.8666666669001,112.896
1498323992,38.2666666669001,104.336
1498323994,59.8666666669001,115.822
1498323996,16.6666666669,117.642
1498323998,14.2666666669001,119.563
1498324000,67.0666666669,109.584
1498324002,55.0666666669,115.787
1498324004,105.4666666669,114.47
1498324006,67.0666666669,108.957
1498324008,23.8666666669001,120.899
1498324010,67.0666666669,113.619
1498324012,-19.3333333331,116.348
1498324014,-48.1333333330999,116.525
1498324016,45.4666666669,109.249
1498324018,-12.1333333330999,116.684
1498324020,-4.93333333309999,113.128
1498324022,26.2666666669001,117.629
1498324024,43.0666666669,118.576
1498324026,-12.1333333330999,117.942
1498324028,-0.133333333099927,116.059
1498324030,-14.5333333331,117.771
1498324032,38.2666666669001,120.719
1498324034,14.2666666669001,122.377
1498324036,-64.9333333331,116.194
1498324038,-16.9333333331,111.882
1498324040,76.6666666669,109.048
1498324042,-0.133333333099927,100.435
1498324044,28.6666666669,110.601
1498324046,7.06666666690001,108.803
1498324048,38.2666666669001,113.834
1498324050,-2.53333333310002,110.847
1498324052,71.8666666669001,112.891
1498324054,88.6666666669,104.66
1498324056,100.6666666669,105.181
1498324058,131.8666666669,106.643
1498324060,122.2666666669,108.227
1498324062,124.6666666669,115.94
1498324064,165.4666666669,108.066
1498324066,115.0666666669,104.999
1498324068,143.8666666669,101.298
1498324070,134.2666666669,114.92
1498324072,155.8666666669,101.064
1498324074,153.4666666669,113.743
1498324076,167.8666666669,110.675
1498324078,148.6666666669,108.644
1498324080,107.8666666669,107.7
1498324082,95.8666666669001,105.562
1498324084,98.2666666669001,104.915
1498324086,28.6666666669,109.337
1498324088,79.0666666669,110.655
1498324090,79.0666666669,113.563
1498324092,83.8666666669001,112.456
1498324094,117.4666666669,119.454
1498324096,50.2666666669001,116.418
1498324098,86.2666666669001,117.199
1498324100,-14.5333333331,116.894
1498324102,7.06666666690001,116.311
1498324104,-24.1333333330999,108.301
1498324106,23.8666666669001,116.425
1498324108,-12.1333333330999,112.548
1498324110,-7.33333333309997,106.953
1498324112,9.46666666689998,105.341
1498324114,35.8666666669001,115
1498324116,45.4666666669,108.128
1498324118,7.06666666690001,106.016
1498324120,26.2666666669001,107.539
1498324122,67.0666666669,104.125
1498324124,-0.133333333099927,102.226
1498324126,-21.7333333330999,107.698
1498324128,21.4666666669,118.551
1498324130,21.4666666669,114.261
1498324132,-21.7333333330999,113.282
1498324134,-4.93333333309999,111.935
1498324136,-19.3333333331,111.347
1498324138,14.2666666669001,120.984
1498324140,-50.5333333331,109.989
1498324142,23.8666666669001,110.774
1498324144,31.0666666669,116.889
1498324146,-9.73333333309995,116.844
1498324148,-36.1333333330999,122.337
1498324150,-43.3333333331,125.582
1498324152,-16.9333333331,110.369
1498324154,-26.5333333331,111.437
1498324156,-24.1333333330999,115.677
1498324158,2.26666666690005,120.834
1498324160,-40.9333333331,116.946
1498324162,-57.7333333330999,121.138
1498324164,-50.5333333331,125.125
1498324166,9.46666666689998,115.651
1498324168,59.8666666669001,113.035
1498324170,33.4666666669,107.591
1498324172,76.6666666669,114.929
1498324174,31.0666666669,112.796
1498324176,23.8666666669001,117.774
1498324178,-2.53333333310002,107.169
1498324180,81.4666666669,111.689
1498324182,67.0666666669,109.8
1498324184,43.0666666669,102.606
1498324186,-0.133333333099927,112.095
1498324188,11.8666666669001,116.068
1498324190,-50.5333333331,111.162
1498324192,-21.7333333330999,114.121
1498324194,40.6666666669,111.813
1498324196,59.8666666669001,108.457
1498324198,-9.73333333309995,115.872
1498324200,-19.3333333331,109.089
1498324202,-9.73333333309995,112.165
1498324204,-16.9333333331,107.475
1498324206,-28.9333333331,113.128
1498324208,11.8666666669001,116.609
1498324210,52.6666666669,125.356
1498324212,-26.5333333331,115.466
1498324214,45.4666666669,124.04
1498324216,-31.3333333331,118.116
1498324218,-7.33333333309997,110.492
1498324220,23.8666666669001,115.742
1498324222,-31.3333333331,120.422
1498324224,-33.7333333330999,121.568
1498324226,71.8666666669001,119.019
1498324228,64.6666666669,112.966
1498324230,28.6666666669,122.792
1498324232,21.4666666669,115.139
1498324234,62.2666666669001,106.198
1498324236,71.8666666669001,106.453
1498324238,103.0666666669,112.809
1498324240,139.0666666669,112.061
1498324242,79.0666666669,110.89
1498324244,88.6666666669,113.881
1498324246,74.2666666669001,109.602
1498324248,110.2666666669,107.019
1498324250,100.6666666669,109.536
1498324252,136.6666666669,105.51
1498324254,103.0666666669,115.029
1498324256,86.2666666669001,110.129
1498324258,88.6666666669,111.932
1498324260,112.6666666669,106.576
1498324262,146.2666666669,116.12
1498324264,136.6666666669,108.553
1498324266,134.2666666669,113.967
1498324268,136.6666666669,107.676
1498324270,59.8666666669001,106.868
1498324272,95.8666666669001,107.431
1498324274,127.0666666669,104.048
1498324276,160.6666666669,106.674
1498324278,100.6666666669,108.104
1498324280,88.6666666669,106.409
1498324282,134.2666666669,100.462
1498324284,71.8666666669001,98.4875
1498324286,69.4666666669,108.763
1498324288,95.8666666669001,100.141
1498324290,131.8666666669,103.727
1498324292,86.2666666669001,110.119
1498324294,47.8666666669001,110.449
1498324296,98.2666666669001,106.438
1498324298,95.8666666669001,106.989
1498324300,57.4666666669,114.099
1498324302,86.2666666669001,109.481
1498324304,110.2666666669,109.618
1498324306,103.0666666669,103.833
1498324308,93.4666666669,103.644
1498324310,91.0666666669,99.8441
1498324312,64.6666666669,101.559
1498324314,62.2666666669001,103.481
1498324316,47.8666666669001,98.5779
1498324318,95.8666666669001,104.482
1498324320,81.4666666669,108.455
1498324322,69.4666666669,110.631
1498324324,91.0666666669,109.454
1498324326,23.8666666669001,114.765
1498324328,71.8666666669001,116.147
1498324330,35.8666666669001,118.831
1498324332,88.6666666669,118.93
1498324334,69.4666666669,110.852
1498324336,71.8666666669001,109.042
1498324338,79.0666666669,111.354
1498324340,62.2666666669001,107.021
1498324342,21.4666666669,110.355
1498324344,64.6666666669,114.842
1498324346,76.6666666669,113.384
1498324348,81.4666666669,108.319
1498324350,103.0666666669,118.2
1498324352,45.4666666669,116.453
1498324354,122.2666666669,114.378
1498324356,148.6666666669,109.82
1498324358,146.2666666669,106.676
1498324360,194.2666666669,115.29
1498324362,179.8666666669,114.245
1498324364,196.6666666669,108.929
1498324366,175.0666666669,115.391
1498324368,165.4666666669,112.222
1498324370,115.0666666669,105.54
1498324372,115.0666666669,102.797
1498324374,167.8666666669,107.664
1498324376,143.8666666669,109.543
1498324378,110.2666666669,112.893
1498324380,124.6666666669,109.711
1498324382,88.6666666669,114.755
1498324384,117.4666666669,109.749
1498324386,93.4666666669,110.721
1498324388,122.2666666669,113.456
1498324390,95.8666666669001,114.13
1498324392,98.2666666669001,117.523
1498324394,91.0666666669,106.03
1498324396,98.2666666669001,112.514
1498324398,93.4666666669,103.609
1498324400,107.8666666669,120.669
1498324402,43.0666666669,106.088
1498324404,88.6666666669,107.945
1498324406,81.4666666669,107.186
1498324408,91.0666666669,106.228
1498324410,81.4666666669,115.046
1498324412,83.8666666669001,112.608
1498324414,115.0666666669,108.022
1498324416,57.4666666669,113.104
1498324418,76.6666666669,116.97
1498324420,95.8666666669001,116.93
1498324422,93.4666666669,121.408
1498324424,103.0666666669,111.787
1498324426,67.0666666669,115.482
1498324428,52.6666666669,107.536
1498324430,76.6666666669,117.83
1498324432,67.0666666669,107.691
1498324434,91.0666666669,108.752
1498324436,86.2666666669001,109.573
1498324438,76.6666666669,117.768
1498324440,9.46666666689998,118.45
1498324442,79.0666666669,106.43
1498324444,40.6666666669,111.903
1498324446,67.0666666669,108.696
1498324448,88.6666666669,111.232
1498324450,52.6666666669,117.692
1498324452,59.8666666669001,106.06
1498324454,52.6666666669,112.514
1498324456,50.2666666669001,113.235
1498324458,62.2666666669001,106.781
1498324460,62.2666666669001,117.405
1498324462,100.6666666669,121.441
1498324464,88.6666666669,110.247
1498324466,83.8666666669001,113.575
1498324468,83.8666666669001,108.903
1498324470,16.6666666669,105.354
1498324472,-21.7333333330999,110.777
1498324474,11.8666666669001,115.394
1498324476,11.8666666669001,112.403
1498324478,-0.133333333099927,114.371
1498324480,26.2666666669001,108.415
1498324482,-2.53333333310002,109.016
1498324484,-16.9333333331,108.971
1498324486,-45.7333333330999,112.518
1498324488,-24.1333333330999,116.558
1498324490,-2.53333333310002,113.611
1498324492,-28.9333333331,118.856
1498324494,11.8666666669001,124.306
1498324496,7.06666666690001,116.633
1498324498,-43.3333333331,120.194
1498324500,-60.1333333330999,119.67
1498324502,4.66666666690003,115.877
1498324504,14.2666666669001,123.133
1498324506,16.6666666669,114.012
1498324508,-31.3333333331,111.71
1498324510,-52.9333333331,108.747
1498324512,-79.3333333331,107.753
1498324514,-43.3333333331,112.514
1498324516,-55.3333333331,111.795
1498324518,-72.1333333331,106.951
1498324520,-93.7333333330999,102.83
1498324522,-31.3333333331,103.041
1498324524,-52.9333333331,119.516
1498324526,-105.7333333331,111.054
1498324528,-93.7333333330999,120.779
1498324530,-52.9333333331,111.015
1498324532,-64.9333333331,109.489
1498324534,-79.3333333331,109.193
1498324536,-38.5333333331,107.601
1498324538,-62.5333333331,107.652
1498324540,-45.7333333330999,110.193
1498324542,-74.5333333331,110.357
1498324544,-48.1333333330999,115.227
1498324546,-57.7333333330999,117.756
1498324548,-67.3333333331,112.877
1498324550,-43.3333333331,112.318
1498324552,-84.1333333330999,116.015
1498324554,-88.9333333331,120.104
1498324556,-52.9333333331,109.895
1498324558,-36.1333333330999,112.601
1498324560,-76.9333333331,120.292
1498324562,-40.9333333331,116.081
1498324564,-45.7333333330999,121.017
1498324566,-52.9333333331,118.767
1498324568,-76.9333333331,114.035
1498324570,-81.7333333330999,109.533
1498324572,-43.3333333331,105.651
1498324574,-43.3333333331,104.744
1498324576,-33.7333333330999,121.503
1498324578,-55.3333333331,113.9
1498324580,-12.1333333330999,112.173
1498324582,-45.7333333330999,108.732
1498324584,-36.1333333330999,114.131
1498324586,-36.1333333330999,115.563
1498324588,-60.1333333330999,117.601
1498324590,19.0666666669,114.422
1498324592,-52.9333333331,113.77
1498324594,-57.7333333330999,119.814
1498324596,-76.9333333331,115.444
1498324598,-79.3333333331,120.077
1498324600,-52.9333333331,111.876
1498324602,-69.7333333330999,114.795
1498324604,-36.1333333330999,114.801
1498324606,-7.33333333309997,130.483
1498324608,-60.1333333330999,121.965
1498324610,-21.7333333330999,125.502
1498324612,-40.9333333331,117.792
1498324614,-24.1333333330999,116.215
1498324616,21.4666666669,118.739
1498324618,-19.3333333331,117.347
1498324620,-55.3333333331,120.778
1498324622,-2.53333333310002,119.242
1498324624,-40.9333333331,116.189
1498324626,-19.3333333331,112.467
1498324628,-12.1333333330999,112.309
1498324630,-26.5333333331,109.704
1498324632,19.0666666669,117.892
1498324634,-0.133333333099927,114.717
1498324636,-36.1333333330999,113.507
1498324638,-7.33333333309997,105.06
1498324640,-62.5333333331,105.412
1498324642,-38.5333333331,107.816
1498324644,-55.3333333331,118.718
1498324646,-2.53333333310002,112.583
1498324648,-86.5333333331,105.732
1498324650,-62.5333333331,102.71
1498324652,-57.7333333330999,112.567
1498324654,-24.1333333330999,111.786
1498324656,-26.5333333331,111.882
1498324658,-36.1333333330999,118.643
1498324660,-57.7333333330999,120.929
1498324662,-74.5333333331,120.35
1498324664,-91.3333333331,113.631
1498324666,-43.3333333331,109.017
1498324668,-33.7333333330999,115.032
1498324670,-14.5333333331,117.772
1498324672,-64.9333333331,112.913
1498324674,-16.9333333331,102.818
1498324676,-60.1333333330999,111.656
1498324678,-93.7333333330999,104.957
1498324680,-67.3333333331,106.588
1498324682,-52.9333333331,104.273
1498324684,-86.5333333331,99.2169
1498324686,-105.7333333331,103.447
1498324688,-36.1333333330999,105.191
1498324690,-55.3333333331,110.275
1498324692,-148.9333333331,105.669
1498324694,-84.1333333330999,106.025
1498324696,-57.7333333330999,107.571
1498324698,-88.9333333331,111.279
1498324700,-108.1333333331,117.05
1498324702,-79.3333333331,111.205
1498324704,-84.1333333330999,118.388
1498324706,-112.9333333331,105.818
1498324708,-100.9333333331,101.894
1498324710,-96.1333333330999,104.143
1498324712,-86.5333333331,110.8
1498324714,-91.3333333331,106.84
1498324716,-88.9333333331,109.286
1498324718,-79.3333333331,114.107
1498324720,-122.5333333331,117.733
1498324722,-76.9333333331,102.232
1498324724,-64.9333333331,111.287
1498324726,-105.7333333331,111.168
1498324728,-86.5333333331,123.178
1498324730,-79.3333333331,120.827
1498324732,-158.5333333331,111.626
1498324734,-117.7333333331,104.608
1498324736,-103.3333333331,107.326
1498324738,-96.1333333330999,111.67
1498324740,-132.1333333331,108.816
1498324742,-165.7333333331,108.561
1498324744,-67.3333333331,114.055
1498324746,-69.7333333330999,107.377
1498324748,-79.3333333331,103.532
1498324750,-64.9333333331,114.809
1498324752,-84.1333333330999,104.54
1498324754,-127.3333333331,109.28
1498324756,-117.7333333331,115.194
1498324758,-64.9333333331,109.768
1498324760,-86.5333333331,114.298
1498324762,-55.3333333331,109.729
1498324764,-21.7333333330999,114.41
1498324766,-48.1333333330999,112.795
1498324768,-98.5333333331,113.052
1498324770,-112.9333333331,106.38
1498324772,-74.5333333331,102.44
1498324774,-103.3333333331,104.909
1498324776,-45.7333333330999,99.5182
1498324778,-108.1333333331,102.859
1498324780,-84.1333333330999,100.587
1498324782,-84.1333333330999,103.014
1498324784,-93.7333333330999,103.786
1498324786,-69.7333333330999,107.274
1498324788,-57.7333333330999,107.848
1498324790,-84.1333333330999,109.119
1498324792,-57.7333333330999,99.3121
1498324794,-76.9333333331,114.852
1498324796,-79.3333333331,102.792
1498324798,-72.1333333331,102.774
1498324800,-60.1333333330999,104.36
1498324802,-98.5333333331,110.653
1498324804,-14.5333333331,110.739
1498324806,-84.1333333330999,111.87
1498324808,-38.5333333331,113.096
1498324810,-64.9333333331,120.151
1498324812,-69.7333333330999,109.193
1498324814,-2.53333333310002,106.129
1498324816,-28.9333333331,110.872
1498324818,-57.7333333330999,104.008
1498324820,19.0666666669,104.214
1498324822,-19.3333333331,102.548
1498324824,-2.53333333310002,105.434
1498324826,-40.9333333331,106.713
1498324828,50.2666666669001,106.439
1498324830,21.4666666669,109.098
1498324832,47.8666666669001,115.291
1498324834,74.2666666669001,92.0285
1498324836,26.2666666669001,110.645
1498324838,45.4666666669,107.079
1498324840,52.6666666669,106.987
1498324842,35.8666666669001,115.943
1498324844,14.2666666669001,118.668
1498324846,50.2666666669001,106.933
1498324848,52.6666666669,110.442
1498324850,23.8666666669001,114.04
1498324852,-4.93333333309999,109.232
1498324854,43.0666666669,110.657
1498324856,4.66666666690003,107.338
1498324858,2.26666666690005,108.491
1498324860,21.4666666669,116.183
1498324862,14.2666666669001,113.301
1498324864,31.0666666669,103.516
1498324866,16.6666666669,117.786
1498324868,-14.5333333331,104.417
1498324870,14.2666666669001,111.67
1498324872,-45.7333333330999,116.708
1498324874,-16.9333333331,110.702
1498324876,26.2666666669001,115.933
1498324878,-26.5333333331,112.936
1498324880,-50.5333333331,108.701
1498324882,-50.5333333331,109.034
1498324884,-43.3333333331,108.627
1498324886,-2.53333333310002,111.024
1498324890,-52.9333333331,113.305
1498324892,-21.7333333330999,113.429
1498324894,-33.7333333330999,107.591
1498324896,-24.1333333330999,120.999
1498324898,-45.7333333330999,119.237
1498324900,-79.3333333331,124.658
1498324902,-31.3333333331,112.564
1498324904,-52.9333333331,117.312
1498324906,-40.9333333331,117.083
1498324908,-55.3333333331,113.803
1498324910,-12.1333333330999,122.406
1498324912,-67.3333333331,120.164
1498324914,-91.3333333331,113.03
1498324916,9.46666666689998,130.124
1498324918,-52.9333333331,119.93
1498324920,-60.1333333330999,128.313
1498324922,-7.33333333309997,123.742
1498324924,-4.93333333309999,117.009
1498324926,-120.1333333331,112.099
1498324928,-36.1333333330999,109.686
1498324930,-60.1333333330999,107.644
1498324932,-33.7333333330999,114.058
1498324934,-88.9333333331,113.016
1498324936,-74.5333333331,110.002
1498324938,-55.3333333331,109.566
1498324940,-103.3333333331,112.813
1498324942,-57.7333333330999,102.67
1498324944,-55.3333333331,105.76
1498324946,-64.9333333331,113.367
1498324948,-60.1333333330999,125.345
1498324950,-26.5333333331,117.721
1498324952,-38.5333333331,115.551
1498324954,-88.9333333331,110.686
1498324956,-28.9333333331,115.945
1498324958,-76.9333333331,115.558
1498324960,-69.7333333330999,109.53
1498324962,-74.5333333331,111.831
1498324964,-9.73333333309995,111.171
1498324966,-88.9333333331,113.318
1498324968,-79.3333333331,111.457
1498324970,-57.7333333330999,118.769
1498324972,-52.9333333331,120.408
1498324974,-67.3333333331,116.064
1498324976,-60.1333333330999,108.737
1498324978,-64.9333333331,108.68
1498324980,-36.1333333330999,107.863
1498324982,-12.1333333330999,110.169
1498324984,-40.9333333331,108.27
1498324986,-86.5333333331,108.289
1498324988,-88.9333333331,116.18
1498324990,-40.9333333331,110.861
1498324992,-12.1333333330999,112.822
1498324994,-45.7333333330999,125.774
1498324996,-52.9333333331,116.292
1498324998,-50.5333333331,120.769
1498325000,-55.3333333331,115.013
1498325002,-84.1333333330999,114.43
1498325004,-38.5333333331,112.858
1498325006,-60.1333333330999,108.385
1498325008,-36.1333333330999,112.553
1498325010,-28.9333333331,107.909
1498325012,-64.9333333331,105.276
1498325014,-64.9333333331,109.292
1498325016,-57.7333333330999,109.894
1498325018,-7.33333333309997,111.43
1498325020,-45.7333333330999,108.735
1498325022,-45.7333333330999,107.577
1498325024,-57.7333333330999,112.871
1498325026,-50.5333333331,120.698
1498325028,-14.5333333331,103.403
1498325030,-72.1333333331,111.8
1498325032,-72.1333333331,110.673
1498325034,-31.3333333331,112.241
1498325036,-81.7333333330999,113.806
1498325038,-74.5333333331,119.999
1498325040,-64.9333333331,121.108
1498325042,-28.9333333331,115.555
1498325044,-50.5333333331,121.989
1498325046,-48.1333333330999,114.787
1498325048,-57.7333333330999,121.4
1498325050,-31.3333333331,119.855
1498325052,-57.7333333330999,121.315
1498325054,-36.1333333330999,108.6
1498325056,-48.1333333330999,112.392
1498325058,-31.3333333331,110.595
1498325060,-40.9333333331,109.17
1498325062,21.4666666669,106.712
1498325064,-21.7333333330999,110.725
1498325066,-48.1333333330999,115.09
1498325068,-4.93333333309999,126.934
1498325070,2.26666666690005,120.56
1498325072,-45.7333333330999,118.126
1498325074,-16.9333333331,108.059
1498325076,-14.5333333331,115.719
1498325078,-2.53333333310002,107.52
1498325080,-36.1333333330999,108.545
1498325082,43.0666666669,112.012
1498325084,2.26666666690005,111.273
1498325086,-16.9333333331,116.073
1498325088,2.26666666690005,117.776
1498325090,93.4666666669,111.83
1498325092,91.0666666669,107.363
1498325094,57.4666666669,107.291
1498325096,69.4666666669,98.7586
1498325098,117.4666666669,95.0109
1498325100,86.2666666669001,100.865
1498325102,55.0666666669,107.201
1498325104,45.4666666669,108.348
1498325106,19.0666666669,106.745
1498325108,33.4666666669,112.898
1498325110,2.26666666690005,111.154
1498325112,31.0666666669,108.927
1498325114,-2.53333333310002,108.298
1498325116,21.4666666669,106.541
1498325118,38.2666666669001,112.154
1498325120,2.26666666690005,113.037
1498325122,2.26666666690005,106.551
1498325124,-43.3333333331,105.529
1498325126,-36.1333333330999,107.535
1498325128,-33.7333333330999,117.069
1498325130,11.8666666669001,114.296
1498325132,-2.53333333310002,103.686
1498325134,107.8666666669,102.928
1498325136,4.66666666690003,99.2289
1498325138,-26.5333333331,104.029
1498325140,38.2666666669001,103.792
1498325142,43.0666666669,104.65
1498325144,-36.1333333330999,110.436
1498325146,-36.1333333330999,103.47
1498325148,-52.9333333331,113.098
1498325150,9.46666666689998,104.675
1498325152,-48.1333333330999,99.8051
1498325154,23.8666666669001,100.537
1498325156,-0.133333333099927,102.416
1498325158,-55.3333333331,99.7542
1498325160,11.8666666669001,102.734
1498325162,-12.1333333330999,106.135
1498325164,-45.7333333330999,107.948
1498325166,-88.9333333331,109.468
1498325168,-52.9333333331,109.716
1498325170,-33.7333333330999,103.772
1498325172,-64.9333333331,108.68
1498325174,-38.5333333331,111.507
1498325176,-43.3333333331,112.838
1498325178,-40.9333333331,109.712
1498325180,-60.1333333330999,111.764
1498325182,33.4666666669,115.795
1498325184,-43.3333333331,111.503
1498325186,-72.1333333331,113.295
1498325188,-60.1333333330999,108.998
1498325190,23.8666666669001,108.541
1498325192,-67.3333333331,99.5882
1498325194,-12.1333333330999,101.878
1498325196,38.2666666669001,110.886
1498325198,-45.7333333330999,106.467
1498325200,-45.7333333330999,103.765
1498325202,2.26666666690005,103.847
1498325204,-57.7333333330999,103.014
1498325206,-43.3333333331,105.061
1498325208,-50.5333333331,109.843
1498325210,-19.3333333331,108.537
1498325212,-21.7333333330999,115.265
1498325214,-9.73333333309995,105.82
1498325216,-2.53333333310002,105.425
1498325218,-36.1333333330999,105.003
1498325220,-45.7333333330999,108.144
1498325222,-48.1333333330999,110.632
1498325224,-12.1333333330999,119.186
1498325226,-40.9333333331,114.004
1498325228,-43.3333333331,107.025
1498325230,-21.7333333330999,112.507
1498325232,40.6666666669,103.842
1498325234,-48.1333333330999,107.617
1498325236,-33.7333333330999,105.028
1498325238,-19.3333333331,103.987
1498325240,-36.1333333330999,100.639
1498325242,-7.33333333309997,101.443
1498325244,-36.1333333330999,103.707
1498325246,-14.5333333331,104.17
1498325248,-52.9333333331,97.226
1498325250,-33.7333333330999,102.231
1498325252,-38.5333333331,98.0835
1498325254,35.8666666669001,109.669
1498325256,38.2666666669001,108.488
1498325258,21.4666666669,107.717
1498325260,40.6666666669,111.395
1498325262,-26.5333333331,114.663
1498325264,-9.73333333309995,116.162
1498325266,7.06666666690001,110.328
1498325268,-0.133333333099927,107.618
1498325270,33.4666666669,112.241
1498325272,88.6666666669,113.706
1498325274,-36.1333333330999,101.918
1498325276,7.06666666690001,109.039
1498325278,-12.1333333330999,107.651
1498325280,7.06666666690001,105.366
1498325282,-9.73333333309995,98.7162
1498325284,31.0666666669,100.57
1498325286,-45.7333333330999,96.1774
1498325288,-33.7333333330999,99.2958
1498325290,43.0666666669,94.6346
1498325292,74.2666666669001,106.341
1498325294,-4.93333333309999,101.254
1498325296,47.8666666669001,107.331
1498325298,-16.9333333331,100.764
1498325300,-43.3333333331,86.4937
1498325302,-57.7333333330999,103.077
1498325304,-43.3333333331,104.576
1498325306,-38.5333333331,106.705
1498325308,-48.1333333330999,102.55
1498325310,-84.1333333330999,102.741
1498325312,-24.1333333330999,105.076
1498325314,-48.1333333330999,105.621
1498325316,-28.9333333331,104.177
1498325318,-4.93333333309999,114.331
1498325320,-40.9333333331,108.453
1498325322,-43.3333333331,107.387
1498325324,-67.3333333331,105.344
1498325326,-74.5333333331,104.988
1498325328,-88.9333333331,105.299
1498325330,-81.7333333330999,106.247
1498325332,-48.1333333330999,101.438
1498325334,-108.1333333331,106.563
1498325336,-38.5333333331,109.637
1498325338,-50.5333333331,103.755
1498325340,-69.7333333330999,110.487
1498325342,-76.9333333331,111.079
1498325344,-64.9333333331,107.651
1498325346,-52.9333333331,108.104
1498325348,-74.5333333331,109.656
1498325350,-98.5333333331,108.378
1498325352,-52.9333333331,114.68
1498325354,-57.7333333330999,99.5708
1498325356,-69.7333333330999,105.928
1498325358,-93.7333333330999,106.326
1498325360,-31.3333333331,104.272
1498325362,-64.9333333331,108.833
1498325364,-74.5333333331,110.686
1498325366,-62.5333333331,103.531
1498325368,-45.7333333330999,108.814
1498325370,-40.9333333331,111.952
1498325372,-79.3333333331,104.945
1498325374,-45.7333333330999,106.782
1498325376,-31.3333333331,104.917
1498325378,-48.1333333330999,106.291
1498325380,-19.3333333331,107.414
1498325382,-60.1333333330999,102.181
1498325384,-57.7333333330999,113.072
1498325386,-67.3333333331,108.013
1498325388,-62.5333333331,116.697
1498325390,-84.1333333330999,117.647
1498325392,-72.1333333331,104.019
1498325394,-91.3333333331,104.833
1498325396,-76.9333333331,100.284
1498325398,-103.3333333331,104.962
1498325400,-16.9333333331,111.256
1498325402,-45.7333333330999,111.672
1498325404,-67.3333333331,115.277
1498325406,-55.3333333331,114.315
1498325408,-19.3333333331,112.235
1498325410,-55.3333333331,116.102
1498325412,-67.3333333331,108.153
1498325414,-16.9333333331,109.553
1498325416,-16.9333333331,106.336
1498325418,-86.5333333331,103.422
1498325420,-117.7333333331,102.642
1498325422,-40.9333333331,99.1856
1498325424,-50.5333333331,100.65
1498325426,-50.5333333331,104.368
1498325428,-48.1333333330999,101.173
1498325430,-103.3333333331,100.912
1498325432,-98.5333333331,109.67
1498325434,-86.5333333331,110.392
1498325436,-67.3333333331,108.206
1498325438,-110.5333333331,97.275
1498325440,-86.5333333331,105.791
1498325442,-96.1333333330999,105.551
1498325444,-96.1333333330999,105.619
1498325446,-108.1333333331,102.043
1498325448,-91.3333333331,104.79
1498325450,-62.5333333331,106.789
1498325452,-38.5333333331,102.232
1498325454,-76.9333333331,104.278
1498325456,-67.3333333331,100.333
1498325458,-64.9333333331,105.395
1498325460,-93.7333333330999,104.894
1498325462,-84.1333333330999,99.6486
1498325464,-43.3333333331,103.748
1498325466,-79.3333333331,109.135
1498325468,-127.3333333331,116.006
1498325470,-69.7333333330999,113.409
1498325472,-43.3333333331,114.416
1498325474,-96.1333333330999,110.935
1498325476,-122.5333333331,112.379
1498325478,-45.7333333330999,117.732
1498325480,-88.9333333331,103.342
1498325482,-81.7333333330999,108.232
1498325484,-69.7333333330999,103.796
1498325486,-79.3333333331,100.438
1498325488,-74.5333333331,105.864
1498325490,-62.5333333331,99.7201
1498325492,-74.5333333331,100.99
1498325494,-93.7333333330999,104.224
1498325496,-88.9333333331,106.19
1498325498,-64.9333333331,100.116
1498325500,-36.1333333330999,95.3737
1498325502,-120.1333333331,103.736
1498325504,-79.3333333331,94.5239
1498325506,-57.7333333330999,103.336
1498325508,-64.9333333331,105.619
1498325510,-110.5333333331,109.027
1498325512,-120.1333333331,111.047
1498325514,-108.1333333331,101.586
1498325516,-86.5333333331,104.13
1498325518,-105.7333333331,109.447
1498325520,-50.5333333331,107.048
1498325522,-115.3333333331,107.677
1498325524,-122.5333333331,110.309
1498325526,-74.5333333331,114.506
1498325528,-67.3333333331,114.754
1498325530,-62.5333333331,113.664
1498325532,-79.3333333331,110.537
1498325534,-57.7333333330999,106.209
1498325536,-31.3333333331,113.512
1498325538,-45.7333333330999,113.675
1498325540,-40.9333333331,104.821
1498325542,-38.5333333331,106.151
1498325544,-50.5333333331,110.009
1498325546,-14.5333333331,106.261
1498325548,-74.5333333331,115.927
1498325550,-52.9333333331,109.023
1498325552,-67.3333333331,112.461
1498325554,-67.3333333331,113.089
1498325556,-110.5333333331,111.014
1498325558,-69.7333333330999,110.782
1498325560,-81.7333333330999,113.266
1498325562,-84.1333333330999,108.194
1498325564,-81.7333333330999,111.762
1498325566,-19.3333333331,111.058
1498325568,-40.9333333331,106.185
1498325570,-45.7333333330999,99.3464
1498325572,-40.9333333331,114.232
1498325574,-50.5333333331,112.937
1498325576,-81.7333333330999,108.201
1498325578,-64.9333333331,117.153
1498325580,-64.9333333331,109.565
1498325582,-67.3333333331,109.545
1498325584,-93.7333333330999,113.464
1498325586,-55.3333333331,110.292
1498325588,-88.9333333331,104.902
1498325590,-72.1333333331,106.338
1498325592,-52.9333333331,110.48
1498325594,-40.9333333331,109.825
1498325596,-76.9333333331,118.156
1498325598,-74.5333333331,109.7
1498325600,-16.9333333331,118.294
1498325602,-57.7333333330999,115.363
1498325604,-76.9333333331,117.598
1498325606,-110.5333333331,113.208
1498325608,-74.5333333331,109.951
1498325610,-84.1333333330999,117.45
1498325612,-72.1333333331,113.005
1498325614,-60.1333333330999,116.967
1498325616,-52.9333333331,115.19
1498325618,-74.5333333331,114.481
1498325620,-19.3333333331,113.392
1498325622,-45.7333333330999,110.791
1498325624,-79.3333333331,115.445
1498325626,-69.7333333330999,110.65
1498325628,-48.1333333330999,119.607
1498325630,-55.3333333331,115.791
1498325632,-60.1333333330999,108.627
1498325634,-120.1333333331,116.987
1498325636,-112.9333333331,108.742
1498325638,-117.7333333331,106.491
1498325640,-50.5333333331,107.666
1498325642,-50.5333333331,114.895
1498325644,-76.9333333331,105.256
1498325646,-57.7333333330999,114.599
1498325648,-127.3333333331,115.005
1498325650,-93.7333333330999,103.732
1498325652,-84.1333333330999,109.326
1498325654,-64.9333333331,110.031
1498325656,-72.1333333331,115.955
1498325658,-108.1333333331,106.741
1498325660,-129.7333333331,107.587
1498325662,-81.7333333330999,106.832
1498325664,-74.5333333331,104.272
1498325666,-76.9333333331,109.928
1498325668,-14.5333333331,106.692
1498325670,-28.9333333331,111.033
1498325672,-67.3333333331,114.152
1498325674,-50.5333333331,107.729
1498325676,-48.1333333330999,114.121
1498325678,-76.9333333331,108.711
1498325680,-100.9333333331,112.195
1498325682,-72.1333333331,104.952
1498325684,-64.9333333331,110.786
1498325686,-112.9333333331,114.683
1498325688,-117.7333333331,109.757
1498325690,-81.7333333330999,115.697
1498325692,-69.7333333330999,113.789
1498325694,-127.3333333331,114.149
1498325696,-74.5333333331,110.469
1498325698,-117.7333333331,109.914
1498325700,-86.5333333331,114.602
1498325702,-57.7333333330999,115.342
1498325704,-43.3333333331,106.977
1498325706,-88.9333333331,109.93
1498325708,-120.1333333331,110.529
1498325710,-120.1333333331,112.459
1498325712,-55.3333333331,114.36
1498325714,-112.9333333331,99.4155
1498325716,-91.3333333331,101.856
1498325718,-79.3333333331,108.054
1498325720,-91.3333333331,106.795
1498325722,-100.9333333331,112.867
1498325724,-122.5333333331,118.699
1498325726,-60.1333333330999,118.082
1498325728,-156.1333333331,119.263
1498325730,-67.3333333331,113.837
1498325732,-67.3333333331,120.277
1498325734,-69.7333333330999,117.177
1498325736,-86.5333333331,122.94
1498325738,-52.9333333331,118.609
1498325740,-91.3333333331,115.352
1498325742,-60.1333333330999,106.054
1498325744,-69.7333333330999,119.473
1498325746,-48.1333333330999,117.247
1498325748,-134.5333333331,107.441
1498325750,-36.1333333330999,103.138
1498325752,-74.5333333331,108.683
1498325754,-64.9333333331,108.951
1498325756,-79.3333333331,109.688
1498325758,-64.9333333331,119.076
1498325760,-45.7333333330999,116.205
1498325762,-67.3333333331,115.897
1498325764,-40.9333333331,106.39
1498325766,-74.5333333331,112.337
1498325768,-48.1333333330999,105.646
1498325770,-52.9333333331,111.384
1498325772,-69.7333333330999,105.407
1498325774,-69.7333333330999,111.012
1498325776,-52.9333333331,116.938
1498325778,-74.5333333331,115.968
1498325780,-67.3333333331,113.706
1498325782,-91.3333333331,115.488
1498325784,-72.1333333331,113.423
1498325786,-100.9333333331,113.861
1498325788,-93.7333333330999,128.658
1498325790,-69.7333333330999,117.11
1498325792,-79.3333333331,116.721
1498325794,-76.9333333331,111.92
1498325796,-69.7333333330999,108.008
1498325798,-91.3333333331,116.689
1498325800,-79.3333333331,107.767
1498325802,-55.3333333331,112.1
1498325804,-45.7333333330999,113.075
1498325806,-52.9333333331,107.538
1498325808,-57.7333333330999,101.508
1498325810,-91.3333333331,102.251
1498325812,-64.9333333331,113.306
1498325814,-60.1333333330999,113.577
1498325816,-69.7333333330999,107.017
1498325818,-50.5333333331,108.942
1498325820,-52.9333333331,111.035
1498325822,-2.53333333310002,109.49
1498325824,7.06666666690001,101.605
1498325826,-24.1333333330999,106.139
1498325828,-36.1333333330999,108.003
1498325830,-84.1333333330999,117.568
1498325832,-57.7333333330999,114.105
1498325834,-69.7333333330999,98.7392
1498325836,-48.1333333330999,108.054
1498325838,-62.5333333331,113.084
1498325840,-45.7333333330999,101.519
1498325842,-62.5333333331,100.878
1498325844,-0.133333333099927,109.311
1498325846,-7.33333333309997,114.661
1498325848,21.4666666669,115.259
1498325850,-14.5333333331,110.707
1498325852,-24.1333333330999,125.274
1498325854,-33.7333333330999,115.465
1498325856,-28.9333333331,112.849
1498325858,-12.1333333330999,113.814
1498325860,-43.3333333331,114.536
1498325862,-50.5333333331,110.983
1498325864,28.6666666669,113.338
1498325866,-55.3333333331,115.681
1498325868,-84.1333333330999,107.099
1498325870,-64.9333333331,119.98
1498325872,-43.3333333331,121.652
1498325874,-93.7333333330999,121.318
1498325876,-96.1333333330999,102.062
1498325878,-81.7333333330999,102.239
1498325880,-127.3333333331,109.214
1498325882,-38.5333333331,106.039
1498325884,-69.7333333330999,106.891
1498325886,-69.7333333330999,113.13
1498325888,-100.9333333331,120.963
1498325890,-62.5333333331,115.556
1498325892,-98.5333333331,108.672
1498325894,-115.3333333331,118.987
1498325896,-110.5333333331,121.354
1498325898,-127.3333333331,115.198
1498325900,-165.7333333331,118.56
1498325902,-74.5333333331,115.067
1498325904,-88.9333333331,111.938
1498325906,-86.5333333331,111.806
1498325908,-115.3333333331,113.115
1498325910,-74.5333333331,114.541
1498325912,-120.1333333331,106.172
1498325914,-86.5333333331,113.394
1498325916,-38.5333333331,119.7
1498325918,-93.7333333330999,124.783
1498325920,-132.1333333331,117.253
1498325922,-50.5333333331,122.012
1498325924,-98.5333333331,125.06
1498325926,-132.1333333331,124.791
1498325928,-79.3333333331,119.091
1498325930,-98.5333333331,121.166
1498325932,-122.5333333331,122.885
1498325934,-100.9333333331,122.599
1498325936,-62.5333333331,115.669
1498325938,-100.9333333331,116.747
1498325940,-76.9333333331,119.729
1498325942,-57.7333333330999,119.377
1498325944,-74.5333333331,128.462
1498325946,-62.5333333331,122.014
1498325948,-79.3333333331,118.447
1498325950,-72.1333333331,123.283
1498325952,-91.3333333331,112.192
1498325954,-124.9333333331,108.945
1498325956,-72.1333333331,112.009
1498325958,-57.7333333330999,123.215
1498325960,-96.1333333330999,113.873
1498325962,-45.7333333330999,113.914
1498325964,-62.5333333331,108.229
1498325966,-88.9333333331,114.584
1498325968,-84.1333333330999,113.236
1498325970,-67.3333333331,116.032
1498325972,-86.5333333331,117.251
1498325974,-84.1333333330999,113.513
1498325976,-57.7333333330999,111.726
1498325978,-84.1333333330999,110.296
1498325980,-72.1333333331,117.465
1498325982,-52.9333333331,107.108
1498325984,-48.1333333330999,115.438
1498325986,-88.9333333331,126.282
1498325988,-96.1333333330999,118.566
1498325990,-50.5333333331,115.573
1498325992,-67.3333333331,119.947
1498325994,-60.1333333330999,118.773
1498325996,-88.9333333331,111.987
1498325998,-84.1333333330999,122.163
1498326000,-76.9333333331,118.414
1498326002,-86.5333333331,108.257
1498326004,-48.1333333330999,113.998
1498326006,-48.1333333330999,107.102
1498326008,-86.5333333331,109.216
1498326010,-40.9333333331,109.711
1498326012,-74.5333333331,124.251
1498326014,-105.7333333331,129.439
1498326016,-72.1333333331,121.856
1498326018,-79.3333333331,118.88
1498326020,-127.3333333331,113.116
1498326022,-84.1333333330999,120.669
1498326024,-60.1333333330999,114.205
1498326026,-72.1333333331,111.377
1498326028,-52.9333333331,113.775
1498326030,-62.5333333331,116.982
1498326032,-105.7333333331,116.57
1498326034,-134.5333333331,112.344
1498326036,-127.3333333331,112.907
1498326038,-79.3333333331,106.609
1498326040,-72.1333333331,104.563
1498326042,-110.5333333331,113.877
1498326044,-74.5333333331,106.737
1498326046,-124.9333333331,108.915
1498326048,-134.5333333331,109.53
1498326050,-86.5333333331,105.672
1498326052,-91.3333333331,110.713
1498326054,-79.3333333331,110.626
1498326056,-64.9333333331,117.22
1498326058,-122.5333333331,113.506
1498326060,-91.3333333331,113.561
1498326062,-88.9333333331,112.724
1498326064,-88.9333333331,113.203
1498326066,-81.7333333330999,119.76
1498326068,-172.9333333331,110.567
1498326070,-91.3333333331,99.55
1498326072,-105.7333333331,103.109
1498326074,-74.5333333331,110.755
1498326076,-69.7333333330999,114.097
1498326078,-69.7333333330999,108.521
1498326080,-79.3333333331,116.732
1498326082,-144.1333333331,113.808
1498326084,-105.7333333331,108.327
1498326086,-76.9333333331,104.586
1498326088,-117.7333333331,112.558
1498326090,-93.7333333330999,111.385
1498326092,-55.3333333331,100.012
1498326094,-74.5333333331,106.651
1498326096,-45.7333333330999,105.366
1498326098,-64.9333333331,109.898
1498326100,-88.9333333331,103.227
1498326102,-103.3333333331,108.702
1498326104,-105.7333333331,108.459
1498326106,-96.1333333330999,117.477
1498326108,-144.1333333331,121.442
1498326110,-64.9333333331,119.123
1498326112,-88.9333333331,110.152
1498326114,-100.9333333331,112.911
1498326116,-112.9333333331,115.256
1498326118,-105.7333333331,104.758
1498326120,-76.9333333331,106.97
1498326122,-69.7333333330999,115.534
1498326124,-117.7333333331,110.726
1498326126,-36.1333333330999,112.548
1498326128,-76.9333333331,106.498
1498326130,-103.3333333331,109.968
1498326132,-103.3333333331,114.513
1498326134,-122.5333333331,114.894
1498326136,-98.5333333331,118.205
1498326138,-79.3333333331,120.6
1498326140,-134.5333333331,118.593
1498326142,-93.7333333330999,118.12
1498326144,-134.5333333331,114.967
1498326146,-52.9333333331,123.437
1498326148,-115.3333333331,111.861
1498326150,-57.7333333330999,107.804
1498326152,-67.3333333331,117.356
1498326154,-117.7333333331,118.576
1498326156,-76.9333333331,113.84
1498326158,31.0666666669,123.247
1498326160,23.8666666669001,119.905
1498326162,-21.7333333330999,121.869
1498326164,-12.1333333330999,119.978
1498326166,-2.53333333310002,118.815
1498326168,-38.5333333331,116.347
1498326170,50.2666666669001,109.607
1498326172,38.2666666669001,114.681
1498326174,33.4666666669,113.918
1498326176,9.46666666689998,121.431
1498326178,-16.9333333331,120.271
1498326180,19.0666666669,116.249
1498326182,-16.9333333331,110.729
1498326184,69.4666666669,106.877
1498326186,38.2666666669001,111.089
1498326188,-26.5333333331,117.496
1498326190,-57.7333333330999,112.922
1498326192,47.8666666669001,112.745
1498326194,33.4666666669,114.692
1498326196,-24.1333333330999,107.924
1498326198,21.4666666669,109.497
1498326200,52.6666666669,110.469
1498326202,-16.9333333331,107.63
1498326204,-9.73333333309995,112.359
1498326206,-31.3333333331,110.491
1498326208,-24.1333333330999,115.904
1498326210,16.6666666669,106.663
1498326212,40.6666666669,112.265
1498326214,-12.1333333330999,108.548
1498326216,-33.7333333330999,101.189
1498326218,-12.1333333330999,105.411
1498326220,76.6666666669,106.784
1498326222,-55.3333333331,115.152
1498326224,14.2666666669001,111.358
1498326226,9.46666666689998,105.977
1498326228,-12.1333333330999,108.938
1498326230,-33.7333333330999,106.614
1498326232,4.66666666690003,108.795
1498326234,64.6666666669,114.267
1498326236,62.2666666669001,111.861
1498326238,57.4666666669,108.147
1498326240,91.0666666669,113.987
1498326242,52.6666666669,112.959
1498326244,88.6666666669,109.478
1498326246,88.6666666669,111.532
1498326248,83.8666666669001,117.227
1498326250,59.8666666669001,107.343
1498326252,52.6666666669,111.21
1498326254,100.6666666669,105.337
1498326256,83.8666666669001,114.323
1498326258,86.2666666669001,114.602
1498326260,141.4666666669,117.136
1498326262,122.2666666669,117.568
1498326264,81.4666666669,119.999
1498326266,86.2666666669001,113.741
1498326268,74.2666666669001,109.443
1498326270,69.4666666669,118.817
1498326272,69.4666666669,110.994
1498326274,62.2666666669001,113.985
1498326276,88.6666666669,118.689
1498326278,86.2666666669001,118.234
1498326280,86.2666666669001,112.177
1498326282,28.6666666669,114.586
1498326284,31.0666666669,110.548
1498326286,64.6666666669,111.241
1498326288,79.0666666669,111.639
1498326290,45.4666666669,107.131
1498326292,2.26666666690005,111.594
1498326294,83.8666666669001,120.616
1498326296,-31.3333333331,118.667
1498326298,7.06666666690001,126.412
1498326300,-0.133333333099927,118.604
1498326302,-14.5333333331,119.59
1498326304,-26.5333333331,115.785
1498326306,40.6666666669,114.644
1498326308,11.8666666669001,110.185
1498326310,-0.133333333099927,114.927
1498326312,50.2666666669001,114.436
1498326314,43.0666666669,110.496
1498326316,23.8666666669001,111.409
1498326318,64.6666666669,109.058
1498326320,83.8666666669001,109.06
1498326322,43.0666666669,100.855
1498326324,21.4666666669,108.396
1498326326,86.2666666669001,111.548
1498326328,38.2666666669001,113.535
1498326330,4.66666666690003,111.031
1498326332,67.0666666669,112.926
1498326334,33.4666666669,111.056
1498326336,-7.33333333309997,109.973
1498326338,-9.73333333309995,113.932
1498326340,21.4666666669,106.955
1498326342,-38.5333333331,116.616
1498326344,23.8666666669001,113.016
1498326346,67.0666666669,110.969
1498326348,83.8666666669001,107.782
1498326350,23.8666666669001,104.197
1498326352,57.4666666669,108.49
1498326354,35.8666666669001,111.716
1498326356,23.8666666669001,107.941
1498326358,40.6666666669,112.646
1498326360,81.4666666669,118.374
1498326362,38.2666666669001,109.953
1498326364,76.6666666669,113.496
1498326366,71.8666666669001,106.821
1498326368,79.0666666669,102.809
1498326370,59.8666666669001,100.936
1498326372,86.2666666669001,111.099
1498326374,110.2666666669,105.087
1498326376,88.6666666669,109.901
1498326378,43.0666666669,110.534
1498326380,31.0666666669,105.297
1498326382,11.8666666669001,104.113
1498326384,14.2666666669001,107.516
1498326386,55.0666666669,112.315
1498326388,81.4666666669,116.89
1498326390,98.2666666669001,112.043
1498326392,19.0666666669,109.583
1498326394,4.66666666690003,108.255
1498326396,67.0666666669,114.055
1498326398,55.0666666669,110.381
1498326400,107.8666666669,107.496
1498326402,67.0666666669,110.932
1498326404,100.6666666669,104.548
1498326406,93.4666666669,109.727
1498326408,69.4666666669,111.171
1498326410,26.2666666669001,114.853
1498326412,33.4666666669,114.941
1498326414,64.6666666669,115.935
1498326416,64.6666666669,111.672
1498326418,38.2666666669001,115.874
1498326420,67.0666666669,114.233
1498326422,40.6666666669,110.58
1498326424,14.2666666669001,117.43
1498326426,11.8666666669001,109.353
1498326428,98.2666666669001,110.282
1498326430,11.8666666669001,105.382
1498326432,23.8666666669001,109.137
1498326434,11.8666666669001,112.71
1498326436,-0.133333333099927,116.156
1498326438,35.8666666669001,114.576
1498326440,23.8666666669001,121.315
1498326442,7.06666666690001,118.596
1498326444,23.8666666669001,110.832
1498326446,7.06666666690001,119.272
1498326448,-2.53333333310002,107.906
1498326450,-14.5333333331,110.634
1498326452,-4.93333333309999,124.522
1498326454,14.2666666669001,118.468
1498326456,-50.5333333331,115.114
1498326458,4.66666666690003,115.512
1498326460,-0.133333333099927,113.678
1498326462,50.2666666669001,108.657
1498326464,-4.93333333309999,113.958
1498326466,50.2666666669001,117.131
1498326468,43.0666666669,120.782
1498326470,-14.5333333331,117.918
1498326472,50.2666666669001,119.138
1498326474,23.8666666669001,116.379
1498326476,11.8666666669001,122.281
1498326478,7.06666666690001,119.366
1498326480,7.06666666690001,115.504
1498326482,-4.93333333309999,124.554
1498326484,11.8666666669001,124.708
1498326486,-7.33333333309997,115.838
1498326488,14.2666666669001,112.253
1498326490,35.8666666669001,112.947
1498326492,11.8666666669001,117.554
1498326494,38.2666666669001,118.014
1498326496,-0.133333333099927,102.985
1498326498,64.6666666669,114.897
1498326500,57.4666666669,111.839
1498326502,4.66666666690003,111.656
1498326504,-31.3333333331,114.83
1498326506,-38.5333333331,108.721
1498326508,9.46666666689998,117.611
1498326510,9.46666666689998,109.84
1498326512,40.6666666669,110.284
1498326514,62.2666666669001,112.027
1498326516,-9.73333333309995,111.607
1498326518,28.6666666669,119.399
1498326520,50.2666666669001,110.988
1498326522,2.26666666690005,111.245
1498326524,26.2666666669001,108.934
1498326526,16.6666666669,108.983
1498326528,11.8666666669001,97.5141
1498326530,55.0666666669,105.589
1498326532,62.2666666669001,105.64
1498326534,57.4666666669,115.248
1498326536,64.6666666669,120.536
1498326538,14.2666666669001,116.632
1498326540,-50.5333333331,122.448
1498326542,88.6666666669,110.946
1498326544,9.46666666689998,113.748
1498326546,4.66666666690003,110.1
1498326548,26.2666666669001,110.422
1498326550,43.0666666669,107.258
1498326552,-12.1333333330999,113.268
1498326554,2.26666666690005,111.136
1498326556,19.0666666669,114.084
1498326558,7.06666666690001,106.794
1498326560,11.8666666669001,105.973
1498326562,9.46666666689998,107.437
1498326564,88.6666666669,120.95
1498326566,31.0666666669,109.25
1498326568,35.8666666669001,108.038
1498326570,9.46666666689998,104.326
1498326572,33.4666666669,110.163
1498326574,26.2666666669001,105.545
1498326576,19.0666666669,114.189
1498326578,45.4666666669,109.287
1498326580,-0.133333333099927,109.412
1498326582,55.0666666669,120.67
1498326584,62.2666666669001,109.049
1498326586,62.2666666669001,108.401
1498326588,2.26666666690005,106.239
1498326590,45.4666666669,109.246
1498326592,38.2666666669001,106.449
1498326594,7.06666666690001,108.512
1498326596,103.0666666669,118.927
1498326598,74.2666666669001,115.836
1498326600,16.6666666669,117.943
1498326602,43.0666666669,107.649
1498326604,112.6666666669,115.487
1498326606,55.0666666669,117.453
1498326608,86.2666666669001,109.602
1498326610,115.0666666669,107.517
1498326612,170.2666666669,110.75
1498326614,163.0666666669,103.826
1498326616,146.2666666669,110.82
1498326618,160.6666666669,106.905
1498326620,163.0666666669,106.209
1498326622,148.6666666669,106.216
1498326624,187.0666666669,103.776
1498326626,139.0666666669,108.164
1498326628,122.2666666669,103.124
1498326630,146.2666666669,108.722
1498326632,165.4666666669,112.891
1498326634,122.2666666669,105.755
1498326636,98.2666666669001,109.408
1498326638,119.8666666669,111.802
1498326640,124.6666666669,111.123
1498326642,179.8666666669,106.907
1498326644,100.6666666669,113.523
1498326646,170.2666666669,116.163
1498326648,64.6666666669,117.512
1498326650,136.6666666669,125.014
1498326652,110.2666666669,107.836
1498326654,95.8666666669001,112.725
1498326656,103.0666666669,116.973
1498326658,151.0666666669,117.243
1498326660,127.0666666669,119.731
1498326662,83.8666666669001,120.827
1498326664,143.8666666669,124.898
1498326666,103.0666666669,115.2
1498326668,79.0666666669,116.236
1498326670,129.4666666669,115.127
1498326672,124.6666666669,115.738
1498326674,81.4666666669,116.76
1498326676,83.8666666669001,118.158
1498326678,98.2666666669001,116.814
1498326680,158.2666666669,111.145
1498326682,112.6666666669,112.006
1498326684,112.6666666669,106.515
1498326686,112.6666666669,118.441
1498326688,112.6666666669,116.946
1498326690,91.0666666669,110.718
1498326692,91.0666666669,116.495
1498326694,105.4666666669,116.919
1498326696,59.8666666669001,117.355
1498326698,153.4666666669,113.83
1498326700,107.8666666669,116.87
1498326702,93.4666666669,114.26
1498326704,74.2666666669001,113.946
1498326706,79.0666666669,118.418
1498326708,98.2666666669001,108.113
1498326710,83.8666666669001,117.201
1498326712,103.0666666669,113.836
1498326714,83.8666666669001,102.67
1498326716,55.0666666669,108.981
1498326718,57.4666666669,110.714
1498326720,91.0666666669,116.317
1498326722,28.6666666669,108.597
1498326724,119.8666666669,111.669
1498326726,105.4666666669,110.464
1498326728,95.8666666669001,105.151
1498326730,112.6666666669,108.361
1498326732,139.0666666669,106.138
1498326734,115.0666666669,108.255
1498326736,148.6666666669,107.728
1498326738,151.0666666669,115.226
1498326740,148.6666666669,122.685
1498326742,107.8666666669,111.84
1498326744,115.0666666669,114.077
1498326746,134.2666666669,117.68
1498326750,95.8666666669001,121.834
1498326752,153.4666666669,114.636
1498326754,122.2666666669,112.935
1498326756,95.8666666669001,107.987
1498326758,83.8666666669001,107.63
1498326760,107.8666666669,100.86
1498326762,86.2666666669001,109.259
1498326764,57.4666666669,105.704
1498326766,64.6666666669,106.334
1498326768,45.4666666669,108.87
1498326770,81.4666666669,109.701
1498326772,98.2666666669001,110.315
1498326774,139.0666666669,113.513
1498326776,83.8666666669001,104.551
1498326778,91.0666666669,114.589
1498326780,67.0666666669,120.712
1498326782,64.6666666669,118.442
1498326784,35.8666666669001,111.58
1498326786,110.2666666669,117.371
1498326788,79.0666666669,115.727
1498326790,57.4666666669,107.247
1498326792,81.4666666669,106.889
1498326794,76.6666666669,103.722
1498326796,69.4666666669,108.113
1498326798,71.8666666669001,106.238
1498326800,93.4666666669,102.957
1498326802,86.2666666669001,108.981
1498326804,57.4666666669,114.536
1498326806,69.4666666669,112.224
1498326808,40.6666666669,117.903
1498326810,69.4666666669,114.598
1498326812,98.2666666669001,115.885
1498326814,57.4666666669,113.765
1498326816,52.6666666669,121.183
1498326818,-14.5333333331,115.085
1498326820,71.8666666669001,113.533
1498326822,9.46666666689998,113.737
1498326824,81.4666666669,109.606
1498326826,52.6666666669,107.157
1498326828,160.6666666669,99.0314
1498326830,151.0666666669,108.402
1498326832,167.8666666669,105.506
1498326834,158.2666666669,105.784
1498326836,179.8666666669,109.72
1498326838,220.6666666669,113.586
1498326840,239.8666666669,114.892
1498326842,189.4666666669,106.281
1498326844,151.0666666669,114.832
1498326846,167.8666666669,115.279
1498326848,151.0666666669,121.104
1498326850,115.0666666669,115.146
1498326852,119.8666666669,111.564
1498326854,153.4666666669,111.916
1498326856,179.8666666669,112.899
1498326858,139.0666666669,106.356
1498326860,146.2666666669,115.152
1498326862,153.4666666669,113.128
1498326864,160.6666666669,113.102
1498326866,95.8666666669001,113.476
1498326868,100.6666666669,112.404
1498326870,100.6666666669,105.662
1498326872,98.2666666669001,109.832
1498326874,88.6666666669,120.512
1498326876,163.0666666669,117.176
1498326878,122.2666666669,116.796
1498326880,81.4666666669,117.374
1498326882,100.6666666669,100.725
1498326884,62.2666666669001,108.609
1498326886,83.8666666669001,112.399
1498326888,83.8666666669001,109.992
1498326890,146.2666666669,105.815
1498326892,134.2666666669,114.513
1498326894,110.2666666669,112.15
1498326896,115.0666666669,116.378
1498326898,117.4666666669,116.783
1498326900,103.0666666669,105.573
1498326902,107.8666666669,107.176
1498326904,105.4666666669,115.747
1498326906,86.2666666669001,116.854
1498326908,143.8666666669,112.012
1498326910,107.8666666669,109.438
1498326912,103.0666666669,109.903
1498326914,71.8666666669001,109.845
1498326916,100.6666666669,106.192
1498326918,179.8666666669,109.592
1498326920,115.0666666669,123.041
1498326922,119.8666666669,125.717
1498326924,100.6666666669,119.709
1498326926,117.4666666669,115.155
1498326928,155.8666666669,114.723
1498326930,127.0666666669,119.393
1498326932,91.0666666669,116.815
1498326934,71.8666666669001,112.507
1498326936,110.2666666669,121.675
1498326938,62.2666666669001,123.221
1498326940,98.2666666669001,126.552
1498326942,122.2666666669,112.131
1498326944,136.6666666669,114.341
1498326946,115.0666666669,120.174
1498326948,105.4666666669,114.938
1498326950,88.6666666669,111.376
1498326952,76.6666666669,105.851
1498326954,55.0666666669,112.003
1498326956,83.8666666669001,106.846
1498326958,151.0666666669,109.403
1498326960,131.8666666669,107.684
1498326962,112.6666666669,106.179
1498326964,110.2666666669,115.247
1498326966,100.6666666669,118.197
1498326968,110.2666666669,117.575
1498326970,91.0666666669,115.946
1498326972,119.8666666669,112.408
1498326974,76.6666666669,105.936
1498326976,115.0666666669,106.946
1498326978,134.2666666669,100.346
1498326980,134.2666666669,106.152
1498326982,112.6666666669,97.7383
1498326984,100.6666666669,105.831
1498326986,124.6666666669,106.668
1498326988,105.4666666669,106.268
1498326990,127.0666666669,111.27
1498326992,119.8666666669,114.918
1498326994,170.2666666669,111.916
1498326996,122.2666666669,110.338
1498326998,127.0666666669,110.18
1498327000,160.6666666669,120.759
1498327002,110.2666666669,121.817
1498327004,134.2666666669,119.765
1498327006,122.2666666669,122.653
1498327008,91.0666666669,112.553
1498327010,153.4666666669,104.288
1498327012,146.2666666669,101.935
1498327014,76.6666666669,106.912
1498327016,139.0666666669,114.963
1498327018,146.2666666669,110.626
1498327020,112.6666666669,115.751
1498327022,117.4666666669,114.216
1498327024,107.8666666669,111.494
1498327026,139.0666666669,110.849
1498327028,83.8666666669001,102.001
1498327030,86.2666666669001,111.418
1498327032,40.6666666669,114.072
1498327034,28.6666666669,103.44
1498327036,93.4666666669,108.289
1498327038,74.2666666669001,98.5492
1498327040,57.4666666669,99.1983
1498327042,74.2666666669001,110.284
1498327044,76.6666666669,109.662
1498327046,141.4666666669,115.8
1498327048,95.8666666669001,121.388
1498327050,88.6666666669,111.983
1498327052,62.2666666669001,112.827
1498327054,9.46666666689998,106.356
1498327056,28.6666666669,113.695
1498327058,35.8666666669001,107.318
1498327060,35.8666666669001,107.032
1498327062,91.0666666669,106.951
1498327064,31.0666666669,107.735
1498327066,103.0666666669,108.609
1498327068,71.8666666669001,106.834
1498327070,16.6666666669,111.303
1498327072,62.2666666669001,108.183
1498327074,88.6666666669,110.946
1498327076,7.06666666690001,110.447
1498327078,52.6666666669,113.145
1498327080,64.6666666669,107.419
1498327082,59.8666666669001,111.729
1498327084,88.6666666669,103.127
1498327086,59.8666666669001,109.021
1498327088,-24.1333333330999,108.059
1498327090,2.26666666690005,103.347
1498327092,33.4666666669,104.717
1498327094,4.66666666690003,103.209
1498327096,19.0666666669,106.643
1498327098,43.0666666669,106.284
1498327100,14.2666666669001,109.675
1498327102,23.8666666669001,110.205
1498327104,2.26666666690005,112.536
1498327106,21.4666666669,108.785
1498327108,28.6666666669,117.001
1498327110,64.6666666669,112.163
1498327112,88.6666666669,109.374
1498327114,76.6666666669,112.094
1498327116,93.4666666669,113.59
1498327118,107.8666666669,111.39
1498327120,67.0666666669,111.765
1498327122,19.0666666669,107.336
1498327124,52.6666666669,109.518
1498327126,105.4666666669,111.105
1498327128,119.8666666669,110.701
1498327130,79.0666666669,103.7
1498327132,57.4666666669,104.279
1498327134,88.6666666669,103.455
1498327136,83.8666666669001,107
1498327138,79.0666666669,105.381
1498327140,95.8666666669001,105.691
1498327142,91.0666666669,110.857
1498327144,23.8666666669001,99.7489
1498327146,86.2666666669001,108.096
1498327148,43.0666666669,105.257
1498327150,105.4666666669,104.118
1498327152,71.8666666669001,105.445
1498327154,76.6666666669,104.141
1498327156,9.46666666689998,103.857
1498327158,67.0666666669,111.344
1498327160,23.8666666669001,109.54
1498327162,38.2666666669001,111.861
1498327164,2.26666666690005,104.158
1498327166,-2.53333333310002,107.364
1498327168,-43.3333333331,102.98
1498327170,-12.1333333330999,109.593
1498327172,45.4666666669,110.144
1498327174,50.2666666669001,115.589
1498327176,4.66666666690003,116.274
1498327178,9.46666666689998,114.687
1498327180,7.06666666690001,116.79
1498327182,-36.1333333330999,120.167
1498327184,26.2666666669001,109.437
1498327186,26.2666666669001,105.453
1498327188,-16.9333333331,104.917
1498327190,-7.33333333309997,103.501
1498327192,-0.133333333099927,96.6324
1498327194,43.0666666669,101.71
1498327196,45.4666666669,118.349
1498327198,59.8666666669001,107.915
1498327200,47.8666666669001,106.637
1498327202,35.8666666669001,108.414
1498327204,19.0666666669,105.421
1498327206,9.46666666689998,103.306
1498327208,-7.33333333309997,112.373
1498327210,-12.1333333330999,106.672
1498327212,67.0666666669,109.212
1498327214,93.4666666669,112.816
1498327216,-7.33333333309997,109.77
1498327218,-14.5333333331,111.959
1498327220,33.4666666669,114.842
1498327222,-19.3333333331,114.869
1498327224,-0.133333333099927,118.289
1498327226,74.2666666669001,121.3
1498327228,91.0666666669,119.088
1498327230,47.8666666669001,116.834
1498327232,31.0666666669,116.643
1498327234,35.8666666669001,118.002
1498327236,14.2666666669001,111.093
1498327238,-7.33333333309997,96.1027
1498327240,95.8666666669001,100.867
1498327242,95.8666666669001,110.359
1498327244,-0.133333333099927,113.954
1498327246,-2.53333333310002,117.5
1498327248,-0.133333333099927,117.821
1498327250,38.2666666669001,115.838
1498327252,47.8666666669001,109.113
1498327254,31.0666666669,112.777
1498327256,50.2666666669001,117.144
1498327258,14.2666666669001,116.449
1498327260,81.4666666669,110.554
1498327262,110.2666666669,112.367
1498327264,76.6666666669,122.445
1498327266,83.8666666669001,121.607
1498327268,83.8666666669001,117.706
1498327270,79.0666666669,118.573
1498327272,74.2666666669001,115.697
1498327274,55.0666666669,116.758
1498327276,50.2666666669001,111.101
1498327278,91.0666666669,112.634
1498327280,88.6666666669,116.113
1498327282,122.2666666669,113.052
1498327284,79.0666666669,118.139
1498327286,79.0666666669,109.926
1498327288,105.4666666669,115.318
1498327290,79.0666666669,113.781
1498327292,91.0666666669,107.383
1498327294,64.6666666669,117.483
1498327296,59.8666666669001,122.846
1498327298,76.6666666669,114.263
1498327300,76.6666666669,114.55
1498327302,100.6666666669,105.202
1498327304,57.4666666669,110.455
1498327306,50.2666666669001,114.061
1498327308,76.6666666669,107.246
1498327310,45.4666666669,109.004
1498327312,71.8666666669001,110.369
1498327314,88.6666666669,111.308
1498327316,100.6666666669,117.314
1498327318,69.4666666669,114.324
1498327320,31.0666666669,109.347
1498327322,98.2666666669001,109.67
1498327324,91.0666666669,109.397
1498327326,76.6666666669,112.754
1498327328,91.0666666669,113.726
1498327330,74.2666666669001,116.317
1498327332,67.0666666669,109.141
1498327334,91.0666666669,107.122
1498327336,110.2666666669,103.143
1498327338,91.0666666669,100.212
1498327340,4.66666666690003,110.398
1498327342,112.6666666669,109.366
1498327344,110.2666666669,106.976
1498327346,100.6666666669,112.679
1498327348,91.0666666669,107.671
1498327350,76.6666666669,112.076
1498327352,74.2666666669001,114.088
1498327354,76.6666666669,109.646
1498327356,88.6666666669,114.475
1498327358,107.8666666669,113.59
1498327360,103.0666666669,110.949
1498327362,91.0666666669,110.19
1498327364,115.0666666669,112.503
1498327366,55.0666666669,120.539
1498327368,76.6666666669,106.279
1498327370,134.2666666669,113.668
1498327372,131.8666666669,99.3629
1498327374,115.0666666669,102.183
1498327376,146.2666666669,106.623
1498327378,189.4666666669,113.461
1498327380,107.8666666669,118.736
1498327382,107.8666666669,113.61
1498327384,141.4666666669,125.081
1498327386,148.6666666669,124.759
1498327388,148.6666666669,122.206
1498327390,167.8666666669,112.098
1498327392,93.4666666669,119.742
1498327394,141.4666666669,120.823
1498327396,155.8666666669,118.677
1498327398,122.2666666669,112.601
1498327400,107.8666666669,117.164
1498327402,129.4666666669,117.17
1498327404,167.8666666669,112.264
1498327406,179.8666666669,114.727
1498327408,170.2666666669,113.871
1498327410,201.4666666669,117.74
1498327412,170.2666666669,112.791
1498327414,105.4666666669,120.804
1498327416,160.6666666669,110.558
1498327418,160.6666666669,107.166
1498327420,203.8666666669,111.266
1498327422,155.8666666669,122.543
1498327424,143.8666666669,104.757
1498327426,151.0666666669,113.815
1498327428,167.8666666669,110.335
1498327430,206.2666666669,110.497
1498327432,153.4666666669,117.322
1498327434,151.0666666669,109.984
1498327436,163.0666666669,113.766
1498327438,115.0666666669,116.842
1498327440,158.2666666669,116.555
1498327442,167.8666666669,111.173
1498327444,179.8666666669,109.119
1498327446,160.6666666669,119.208
1498327448,172.6666666669,110.79
1498327450,175.0666666669,109.077
1498327452,189.4666666669,114.698
1498327454,175.0666666669,104.798
1498327456,206.2666666669,116.427
1498327458,201.4666666669,111.858
1498327460,203.8666666669,112.101
1498327462,244.6666666669,120.68
1498327464,244.6666666669,117.316
1498327466,189.4666666669,117.984
1498327468,239.8666666669,113.334
1498327470,285.4666666669,122.58
1498327472,223.0666666669,114.681
1498327474,235.0666666669,128.221
1498327476,167.8666666669,113.699
1498327478,196.6666666669,108.57
1498327480,170.2666666669,106.094
1498327482,175.0666666669,116.428
1498327484,167.8666666669,113.832
1498327486,196.6666666669,114.168
1498327488,170.2666666669,111.61
1498327490,184.6666666669,112.838
1498327492,177.4666666669,111.107
1498327494,194.2666666669,105.565
1498327496,184.6666666669,106.96
1498327498,172.6666666669,126.956
1498327500,199.0666666669,111.8
1498327502,179.8666666669,112.042
1498327504,165.4666666669,107.501
1498327506,199.0666666669,108.278
1498327508,225.4666666669,118.227
1498327510,143.8666666669,113.021
1498327512,167.8666666669,114.132
1498327514,213.4666666669,113.197
1498327516,163.0666666669,112.632
1498327518,151.0666666669,119.225
1498327520,155.8666666669,123.307
1498327522,103.0666666669,113.245
1498327524,134.2666666669,116.411
1498327526,134.2666666669,114.14
1498327528,105.4666666669,121.349
1498327530,163.0666666669,119.549
1498327532,165.4666666669,110.42
1498327534,98.2666666669001,111.186
1498327536,71.8666666669001,116.066
1498327538,105.4666666669,112.516
1498327540,105.4666666669,118.88
1498327542,124.6666666669,115.01
1498327544,110.2666666669,118.764
1498327546,103.0666666669,118.73
1498327548,110.2666666669,106.188
1498327550,88.6666666669,104.235
1498327552,100.6666666669,107.797
1498327554,88.6666666669,120.188
1498327556,93.4666666669,122.603
1498327558,158.2666666669,119.022
1498327560,52.6666666669,121.497
1498327562,86.2666666669001,116.288
1498327564,88.6666666669,118.172
1498327566,74.2666666669001,121.851
1498327568,69.4666666669,117.645
1498327570,139.0666666669,119.076
1498327572,105.4666666669,114.663
1498327574,59.8666666669001,109.833
1498327576,107.8666666669,109.974
1498327578,115.0666666669,106.876
1498327580,81.4666666669,108.79
1498327582,105.4666666669,112.934
1498327584,95.8666666669001,112.379
1498327586,95.8666666669001,105.993
1498327588,62.2666666669001,102.913
1498327590,100.6666666669,108.881
1498327592,52.6666666669,103.03
1498327594,59.8666666669001,117.486
1498327596,62.2666666669001,118.919
1498327598,71.8666666669001,124.534
1498327600,98.2666666669001,123.861
1498327602,83.8666666669001,125.376
1498327604,91.0666666669,116.922
1498327606,45.4666666669,116.737
1498327608,71.8666666669001,112.879
1498327610,158.2666666669,114.191
1498327612,115.0666666669,117.102
1498327614,134.2666666669,113.614
1498327616,136.6666666669,116.299
1498327618,64.6666666669,121.128
1498327620,64.6666666669,122.968
1498327622,117.4666666669,125.39
1498327624,112.6666666669,123.016
1498327626,86.2666666669001,119.474
1498327628,69.4666666669,114.08
1498327630,127.0666666669,118.697
1498327632,74.2666666669001,122.006
1498327634,141.4666666669,117.536
1498327636,136.6666666669,121.166
1498327638,105.4666666669,116.578
1498327640,141.4666666669,120.072
1498327642,112.6666666669,121.011
1498327644,124.6666666669,115.726
1498327646,88.6666666669,119.179
1498327648,93.4666666669,119.014
1498327650,122.2666666669,112.919
1498327652,88.6666666669,116.396
1498327654,105.4666666669,115.324
1498327656,158.2666666669,104.043
1498327658,115.0666666669,105.502
1498327660,107.8666666669,107.257
1498327662,175.0666666669,116.127
1498327664,117.4666666669,114.768
1498327666,110.2666666669,111.444
1498327668,148.6666666669,112.182
1498327670,148.6666666669,114.048
1498327672,134.2666666669,112.339
1498327674,167.8666666669,112.79
1498327676,184.6666666669,115.782
1498327678,182.2666666669,116.542
1498327680,203.8666666669,125.699
1498327682,189.4666666669,114.322
1498327684,194.2666666669,116.21
1498327686,172.6666666669,117.564
1498327688,203.8666666669,112.944
1498327690,182.2666666669,110.571
1498327692,196.6666666669,115.676
1498327694,177.4666666669,105.428
1498327696,187.0666666669,109.088
1498327698,175.0666666669,112.347
1498327700,201.4666666669,103.504
1498327702,201.4666666669,105.766
1498327704,170.2666666669,106.437
1498327706,177.4666666669,108.975
1498327708,182.2666666669,119.898
1498327710,163.0666666669,107.959
1498327712,143.8666666669,108.478
1498327714,179.8666666669,110.746
1498327716,141.4666666669,114.886
1498327718,179.8666666669,115.72
1498327720,148.6666666669,123.649
1498327722,131.8666666669,116.606
1498327724,158.2666666669,122.033
1498327726,95.8666666669001,116.737
1498327728,165.4666666669,121.902
1498327730,175.0666666669,121.301
1498327732,155.8666666669,113.277
1498327734,160.6666666669,122.797
1498327736,167.8666666669,123.388
1498327738,177.4666666669,104.23
1498327740,163.0666666669,109.871
1498327742,208.6666666669,115.988
1498327744,167.8666666669,116.231
1498327746,177.4666666669,114.362
1498327748,175.0666666669,112.49
1498327750,189.4666666669,114.515
1498327752,218.2666666669,107.763
1498327754,184.6666666669,103.544
1498327756,189.4666666669,105.886
1498327758,167.8666666669,104.376
1498327760,182.2666666669,106.724
1498327762,237.4666666669,106.852
1498327764,153.4666666669,107.389
1498327766,158.2666666669,111.556
1498327768,182.2666666669,114.037
1498327770,172.6666666669,109.674
1498327772,163.0666666669,100.108
1498327774,151.0666666669,111.56
1498327776,189.4666666669,106.471
1498327778,167.8666666669,108.74
1498327780,160.6666666669,119.692
1498327782,196.6666666669,109.082
1498327784,194.2666666669,110.354
1498327786,143.8666666669,109.759
1498327788,182.2666666669,112.641
1498327790,155.8666666669,121.435
1498327792,146.2666666669,108.801
1498327794,146.2666666669,110.375
1498327796,139.0666666669,115.127
1498327798,165.4666666669,96.7326
1498327800,187.0666666669,109.433
1498327802,199.0666666669,113.468
1498327804,143.8666666669,120.53
1498327806,196.6666666669,114.116
1498327808,175.0666666669,120.208
1498327810,175.0666666669,124.178
1498327812,203.8666666669,123.983
1498327814,251.8666666669,127.47
1498327816,223.0666666669,117.311
