tag_number,delay,power_est
1498135556,98.2666666669001,111.756
1498135558,127.0666666669,109.3
1498135560,76.6666666669,109.201
1498135562,88.6666666669,111.336
1498135564,110.2666666669,107.499
1498135566,79.0666666669,111.277
1498135568,88.6666666669,117.607
1498135570,28.6666666669,119.97
1498135572,67.0666666669,120.804
1498135574,-7.33333333309997,114.73
1498135576,59.8666666669001,118.24
1498135578,50.2666666669001,120.161
1498135580,57.4666666669,109.229
1498135582,62.2666666669001,110.121
1498135584,83.8666666669001,111.257
1498135586,40.6666666669,112.27
1498135588,76.6666666669,121.548
1498135590,110.2666666669,114.044
1498135592,119.8666666669,116.699
1498135594,59.8666666669001,112.42
1498135596,62.2666666669001,120.095
1498135598,127.0666666669,105.67
1498135600,117.4666666669,111.455
1498135602,112.6666666669,109.929
1498135604,105.4666666669,122.966
1498135606,107.8666666669,120.693
1498135608,100.6666666669,121.508
1498135610,86.2666666669001,115.681
1498135612,83.8666666669001,114.628
1498135614,155.8666666669,111.66
1498135616,163.0666666669,118.548
1498135618,151.0666666669,109.695
1498135620,117.4666666669,117.619
1498135622,95.8666666669001,118.653
1498135624,107.8666666669,115.836
1498135626,88.6666666669,121.473
1498135628,93.4666666669,119.811
1498135630,93.4666666669,113.192
1498135632,93.4666666669,114.305
1498135634,98.2666666669001,113.764
1498135636,83.8666666669001,109.67
1498135638,81.4666666669,108.838
1498135640,91.0666666669,119.831
1498135642,88.6666666669,109.085
1498135644,50.2666666669001,120.582
1498135646,55.0666666669,114.152
1498135648,79.0666666669,114.524
1498135650,83.8666666669001,120.266
1498135652,14.2666666669001,112.687
1498135654,74.2666666669001,119.153
1498135656,55.0666666669,115.436
1498135658,4.66666666690003,111.603
1498135660,7.06666666690001,111.561
1498135662,47.8666666669001,111.481
1498135664,86.2666666669001,116.784
1498135666,103.0666666669,113.405
1498135668,50.2666666669001,101.608
1498135670,107.8666666669,103.329
1498135672,76.6666666669,93.1871
1498135674,107.8666666669,101.655
1498135676,170.2666666669,112.969
1498135678,177.4666666669,118.377
1498135680,184.6666666669,113.567
1498135682,163.0666666669,116.759
1498135684,177.4666666669,112.388
1498135686,115.0666666669,106.67
1498135688,115.0666666669,117.716
1498135690,148.6666666669,110.629
1498135692,100.6666666669,108.956
1498135694,93.4666666669,107.489
1498135696,83.8666666669001,110.782
1498135698,100.6666666669,113.201
1498135700,88.6666666669,112.345
1498135702,93.4666666669,107.849
1498135704,86.2666666669001,102.787
1498135706,38.2666666669001,104.977
1498135708,93.4666666669,106.456
1498135710,55.0666666669,111.902
1498135712,98.2666666669001,113.642
1498135714,83.8666666669001,115.117
1498135716,7.06666666690001,108.742
1498135718,88.6666666669,112.874
1498135720,52.6666666669,115.76
1498135722,-31.3333333331,111.715
1498135724,19.0666666669,110.564
1498135726,16.6666666669,105.344
1498135728,50.2666666669001,109.612
1498135730,52.6666666669,107.248
1498135732,-12.1333333330999,106.861
1498135734,-7.33333333309997,102.293
1498135736,19.0666666669,106.99
1498135738,-31.3333333331,118.197
1498135740,28.6666666669,107.902
1498135742,21.4666666669,111.151
1498135744,16.6666666669,109.983
1498135746,-0.133333333099927,110.892
1498135748,26.2666666669001,109.947
1498135750,35.8666666669001,108.708
1498135752,38.2666666669001,109.083
1498135754,62.2666666669001,109.024
1498135756,57.4666666669,105.946
1498135758,-43.3333333331,104.635
1498135760,-43.3333333331,100.739
1498135762,21.4666666669,101.442
1498135764,-4.93333333309999,113.966
1498135766,-84.1333333330999,111.261
1498135768,-26.5333333331,97.4015
1498135770,-40.9333333331,104.081
1498135772,-60.1333333330999,102.23
1498135774,-31.3333333331,107.289
1498135776,-72.1333333331,110.498
1498135778,-72.1333333331,113.283
1498135780,-19.3333333331,112.553
1498135782,-38.5333333331,102.307
1498135784,-21.7333333330999,101.038
1498135786,14.2666666669001,105.697
1498135788,-24.1333333330999,105.608
1498135790,-31.3333333331,105.048
1498135792,21.4666666669,105.172
1498135794,-4.93333333309999,103.238
1498135796,-21.7333333330999,103.096
1498135798,-4.93333333309999,99.0112
1498135800,35.8666666669001,105.668
1498135802,-0.133333333099927,110.492
1498135804,-2.53333333310002,107.047
1498135806,86.2666666669001,112.017
1498135808,93.4666666669,107.674
1498135810,105.4666666669,99.234
1498135812,81.4666666669,103.899
1498135814,155.8666666669,102.962
1498135816,110.2666666669,106.05
1498135818,127.0666666669,105.698
1498135820,139.0666666669,108.21
1498135822,151.0666666669,109.052
1498135824,98.2666666669001,102.341
1498135826,110.2666666669,107.843
1498135828,93.4666666669,105.194
1498135830,95.8666666669001,111.079
1498135832,62.2666666669001,107.567
1498135834,81.4666666669,114.5
1498135836,47.8666666669001,109.351
1498135838,4.66666666690003,116.429
1498135840,28.6666666669,109.837
1498135842,74.2666666669001,115.854
1498135844,86.2666666669001,122.82
1498135846,52.6666666669,120.515
1498135848,55.0666666669,111.835
1498135850,76.6666666669,119.445
1498135852,47.8666666669001,116.84
1498135854,4.66666666690003,109.023
1498135856,67.0666666669,120.84
1498135858,31.0666666669,113.916
1498135860,-43.3333333331,118.477
1498135862,-62.5333333331,122.9
1498135864,16.6666666669,105.606
1498135866,-40.9333333331,111.545
1498135868,-26.5333333331,110.346
1498135870,38.2666666669001,113.644
1498135872,2.26666666690005,113.5
1498135874,-36.1333333330999,105.182
1498135876,-36.1333333330999,97.6697
1498135878,-28.9333333331,107.301
1498135880,2.26666666690005,105.578
1498135882,-64.9333333331,115.861
1498135884,7.06666666690001,117.89
1498135886,-0.133333333099927,115.058
1498135888,16.6666666669,119.72
1498135890,28.6666666669,111.727
1498135892,-2.53333333310002,109.475
1498135894,43.0666666669,115.068
1498135896,-50.5333333331,107.248
1498135898,-24.1333333330999,109.66
1498135900,-16.9333333331,114.88
1498135902,-16.9333333331,108.991
1498135904,-69.7333333330999,117.943
1498135906,-2.53333333310002,125.423
1498135908,-84.1333333330999,119.162
1498135910,-74.5333333331,118.23
1498135912,-93.7333333330999,121.337
1498135914,-103.3333333331,120.385
1498135916,-91.3333333331,112.777
1498135918,-153.7333333331,112.07
1498135920,-96.1333333330999,115.089
1498135922,-81.7333333330999,120.249
1498135924,-141.7333333331,112.736
1498135926,-91.3333333331,115.073
1498135928,-69.7333333330999,115.158
1498135930,-115.3333333331,114.801
1498135932,-86.5333333331,117.585
1498135934,-132.1333333331,115.948
1498135936,-120.1333333331,111.372
1498135938,-74.5333333331,112.673
1498135940,-132.1333333331,117.943
1498135942,-129.7333333331,106.638
1498135944,-72.1333333331,117.994
1498135946,-69.7333333330999,107.513
1498135948,-84.1333333330999,106.932
1498135950,-52.9333333331,112.785
1498135952,7.06666666690001,103.869
1498135954,43.0666666669,112.578
1498135956,98.2666666669001,109.717
1498135958,103.0666666669,103.97
1498135960,151.0666666669,111.788
1498135962,131.8666666669,105.765
1498135964,124.6666666669,111.461
1498135966,93.4666666669,110.729
1498135968,47.8666666669001,107.448
1498135970,74.2666666669001,104.858
1498135972,83.8666666669001,113.043
1498135974,35.8666666669001,112.085
1498135976,38.2666666669001,108.933
1498135978,47.8666666669001,114.756
1498135980,35.8666666669001,105.414
1498135982,55.0666666669,107.133
1498135984,95.8666666669001,108.713
1498135986,74.2666666669001,110.862
1498135988,112.6666666669,108.504
1498135990,76.6666666669,113.196
1498135992,86.2666666669001,113.325
1498135994,86.2666666669001,112.25
1498135996,81.4666666669,120.09
1498135998,38.2666666669001,106.116
1498136000,83.8666666669001,114.594
1498136002,79.0666666669,100.84
1498136004,79.0666666669,107.394
1498136006,57.4666666669,106.348
1498136008,26.2666666669001,113.281
1498136010,86.2666666669001,111.629
1498136012,43.0666666669,109.854
1498136014,57.4666666669,108.651
1498136016,81.4666666669,109.216
1498136018,74.2666666669001,112.494
1498136020,95.8666666669001,116.064
1498136022,83.8666666669001,108.573
1498136024,81.4666666669,105.771
1498136026,98.2666666669001,96.5856
1498136028,50.2666666669001,101.984
1498136030,76.6666666669,103.823
1498136032,-9.73333333309995,102.666
1498136034,28.6666666669,103.923
1498136036,-21.7333333330999,103.973
1498136038,62.2666666669001,107.937
1498136040,9.46666666689998,104.044
1498136042,9.46666666689998,104.811
1498136044,-36.1333333330999,110.418
1498136046,-40.9333333331,97.4301
1498136048,43.0666666669,105.306
1498136050,-48.1333333330999,108.575
1498136052,31.0666666669,117.853
1498136054,-48.1333333330999,111.432
1498136056,45.4666666669,99.6541
1498136058,-14.5333333331,104.505
1498136060,-19.3333333331,105.125
1498136062,-14.5333333331,110.979
1498136064,-24.1333333330999,108.144
1498136066,-38.5333333331,122.621
1498136070,-7.33333333309997,109.268
1498136072,-7.33333333309997,113.684
1498136074,-4.93333333309999,117.797
1498136076,-31.3333333331,119.483
1498136078,31.0666666669,120.191
1498136080,33.4666666669,113.788
1498136082,-24.1333333330999,117.437
1498136084,-31.3333333331,115.929
1498136086,-19.3333333331,110.845
1498136088,19.0666666669,108.262
1498136090,-4.93333333309999,112.544
1498136092,28.6666666669,102.767
1498136094,-14.5333333331,110.144
1498136096,-40.9333333331,107.709
1498136098,-40.9333333331,111.426
1498136100,21.4666666669,110.902
1498136102,16.6666666669,106.773
1498136104,-26.5333333331,112.325
1498136106,-21.7333333330999,113.806
1498136108,-2.53333333310002,110.254
1498136110,-21.7333333330999,109.894
1498136112,-57.7333333330999,114.709
1498136114,-40.9333333331,102.577
1498136116,-50.5333333331,114.125
1498136118,-33.7333333330999,113.761
1498136120,-62.5333333331,117.544
1498136122,-21.7333333330999,117.593
1498136124,-45.7333333330999,107.427
1498136126,7.06666666690001,107.016
1498136128,45.4666666669,111.982
1498136130,47.8666666669001,114.934
1498136132,83.8666666669001,120.465
1498136134,98.2666666669001,111.069
1498136136,141.4666666669,108.169
1498136138,131.8666666669,119.619
1498136140,177.4666666669,112.445
1498136142,122.2666666669,113.751
1498136144,127.0666666669,117.197
1498136146,127.0666666669,115.244
1498136148,88.6666666669,111.093
1498136150,103.0666666669,123.286
1498136152,100.6666666669,117.037
1498136154,100.6666666669,119.709
1498136156,91.0666666669,117.106
1498136158,47.8666666669001,112.499
1498136160,110.2666666669,116.358
1498136162,131.8666666669,114.723
1498136164,91.0666666669,119.515
1498136166,67.0666666669,118.257
1498136168,110.2666666669,121.668
1498136170,110.2666666669,118.997
1498136172,74.2666666669001,116.706
1498136174,88.6666666669,118.783
1498136176,160.6666666669,113.203
1498136178,115.0666666669,101.23
1498136180,95.8666666669001,109.023
1498136182,117.4666666669,112.937
1498136184,148.6666666669,114.446
1498136186,69.4666666669,110.447
1498136188,69.4666666669,113.708
1498136190,76.6666666669,115.171
1498136192,76.6666666669,116.952
1498136194,47.8666666669001,114.948
1498136196,71.8666666669001,113.274
1498136198,38.2666666669001,117.727
1498136200,35.8666666669001,113.327
1498136202,-12.1333333330999,119.598
1498136204,4.66666666690003,122.253
1498136206,-12.1333333330999,117.675
1498136208,-36.1333333330999,119.179
1498136210,-50.5333333331,109.944
1498136212,-9.73333333309995,107.439
1498136214,-28.9333333331,120.869
1498136216,-55.3333333331,117.181
1498136218,-26.5333333331,114.099
1498136220,11.8666666669001,109.961
1498136222,-4.93333333309999,115.536
1498136224,-36.1333333330999,117.651
1498136226,-45.7333333330999,118.804
1498136228,4.66666666690003,123.062
1498136230,14.2666666669001,121.263
1498136232,-2.53333333310002,121.67
1498136234,14.2666666669001,122.848
1498136236,67.0666666669,125.59
1498136238,-16.9333333331,123.876
1498136240,-50.5333333331,120.356
1498136242,-16.9333333331,109.698
1498136244,95.8666666669001,114.073
1498136246,-4.93333333309999,109.293
1498136248,-7.33333333309997,114.98
1498136250,93.4666666669,116.924
1498136252,69.4666666669,119.912
1498136254,57.4666666669,115.185
1498136256,93.4666666669,116.692
1498136258,95.8666666669001,110.717
1498136260,105.4666666669,112.616
1498136262,103.0666666669,102.906
1498136264,98.2666666669001,114.338
1498136266,103.0666666669,114.382
1498136268,122.2666666669,109.836
1498136270,122.2666666669,113.584
1498136272,100.6666666669,112.613
1498136274,103.0666666669,113.465
1498136276,131.8666666669,116.143
1498136278,112.6666666669,114.391
1498136280,127.0666666669,123.343
1498136282,81.4666666669,115.396
1498136284,71.8666666669001,109.69
1498136286,62.2666666669001,111.548
1498136288,98.2666666669001,116.245
1498136290,103.0666666669,115.931
1498136292,115.0666666669,110.422
1498136294,105.4666666669,117.485
1498136296,124.6666666669,113.908
1498136298,74.2666666669001,115.745
1498136300,33.4666666669,107.5
1498136302,57.4666666669,111.116
1498136304,91.0666666669,118.821
1498136306,69.4666666669,116.067
1498136308,59.8666666669001,110.854
1498136310,81.4666666669,117.016
1498136312,-0.133333333099927,113.403
1498136314,-16.9333333331,114.149
1498136316,2.26666666690005,108.271
1498136318,-4.93333333309999,105.548
1498136320,-7.33333333309997,105.121
1498136322,35.8666666669001,110.49
1498136324,45.4666666669,121.768
1498136326,14.2666666669001,110.849
1498136328,-48.1333333330999,119.311
1498136330,-9.73333333309995,116.087
1498136332,33.4666666669,117.6
1498136334,57.4666666669,113.279
1498136336,4.66666666690003,110.666
1498136338,-0.133333333099927,108.437
1498136340,7.06666666690001,109.985
1498136342,-52.9333333331,114.173
1498136344,-31.3333333331,111.967
1498136346,45.4666666669,105.599
1498136348,38.2666666669001,116.613
1498136350,38.2666666669001,110.786
1498136352,16.6666666669,113.924
1498136354,-12.1333333330999,111.326
1498136356,62.2666666669001,108.975
1498136358,47.8666666669001,112.874
1498136360,-4.93333333309999,111.682
1498136362,74.2666666669001,112.791
1498136364,71.8666666669001,116.791
1498136366,74.2666666669001,105.584
1498136368,31.0666666669,105.475
1498136370,122.2666666669,111.267
1498136372,67.0666666669,113.584
1498136374,21.4666666669,118.321
1498136376,55.0666666669,116.245
1498136378,81.4666666669,120.196
1498136380,88.6666666669,104.846
1498136382,91.0666666669,107.675
1498136384,57.4666666669,117.05
1498136386,26.2666666669001,113.502
1498136388,33.4666666669,112.529
1498136390,43.0666666669,113.931
1498136392,83.8666666669001,111.134
1498136394,4.66666666690003,105.879
1498136396,35.8666666669001,106.067
1498136398,23.8666666669001,107.376
1498136400,64.6666666669,102.249
1498136402,28.6666666669,103.314
1498136404,31.0666666669,114.918
1498136406,81.4666666669,112.584
1498136408,67.0666666669,109.123
1498136410,67.0666666669,120.65
1498136412,95.8666666669001,112.64
1498136414,122.2666666669,117.119
1498136416,100.6666666669,115.905
1498136418,83.8666666669001,115.372
1498136420,117.4666666669,111.688
1498136422,107.8666666669,119.159
1498136424,112.6666666669,119.297
1498136426,131.8666666669,114.407
1498136428,117.4666666669,110.087
1498136430,98.2666666669001,118.448
1498136432,45.4666666669,115.628
1498136434,105.4666666669,116.238
1498136436,64.6666666669,119.528
1498136438,9.46666666689998,109.574
1498136440,47.8666666669001,119.021
1498136442,67.0666666669,121.949
1498136444,64.6666666669,118.122
1498136446,69.4666666669,111.043
1498136448,7.06666666690001,114.085
1498136450,69.4666666669,111.295
1498136452,-14.5333333331,114.931
1498136454,26.2666666669001,105.787
1498136456,-16.9333333331,106.101
1498136458,4.66666666690003,107.995
1498136460,-0.133333333099927,113.889
1498136462,-24.1333333330999,117.328
1498136464,28.6666666669,113.01
1498136466,59.8666666669001,108.514
1498136468,-21.7333333330999,110.574
1498136470,-0.133333333099927,106.67
1498136472,35.8666666669001,111.644
1498136474,-31.3333333331,113.429
1498136476,19.0666666669,109.36
1498136478,19.0666666669,110.996
1498136480,-45.7333333330999,105.22
1498136482,-43.3333333331,108.189
1498136484,-26.5333333331,112.058
1498136486,19.0666666669,105.208
1498136488,2.26666666690005,99.0664
1498136490,23.8666666669001,105.758
1498136492,9.46666666689998,110.061
1498136494,-2.53333333310002,115.936
1498136496,40.6666666669,112.233
1498136498,-33.7333333330999,111.05
1498136500,4.66666666690003,106.615
1498136502,-28.9333333331,109.14
1498136504,16.6666666669,111.066
1498136506,4.66666666690003,109.22
1498136508,-24.1333333330999,106.512
1498136510,-16.9333333331,107.927
1498136512,-31.3333333331,118.02
1498136514,-26.5333333331,105.25
1498136516,-14.5333333331,108.564
1498136518,-4.93333333309999,113.423
1498136520,-28.9333333331,111.84
1498136522,-52.9333333331,113.883
1498136524,-40.9333333331,110.458
1498136526,-14.5333333331,113.806
1498136528,-60.1333333330999,115.504
1498136530,-69.7333333330999,115.04
1498136532,-19.3333333331,109.874
1498136534,-60.1333333330999,114.453
1498136536,-31.3333333331,115.775
1498136538,-60.1333333330999,110.721
1498136540,-57.7333333330999,108.877
1498136542,-9.73333333309995,105.406
1498136544,-62.5333333331,110.694
1498136546,-38.5333333331,108.182
1498136548,-16.9333333331,108.045
1498136550,35.8666666669001,116.536
1498136552,11.8666666669001,117.457
1498136554,2.26666666690005,111.05
1498136556,76.6666666669,115.028
1498136558,81.4666666669,110.305
1498136560,50.2666666669001,108.943
1498136562,7.06666666690001,108.478
1498136564,67.0666666669,108.949
1498136566,21.4666666669,115.576
1498136568,9.46666666689998,112.157
1498136570,21.4666666669,99.7414
1498136572,-12.1333333330999,101.754
1498136574,-19.3333333331,100.493
1498136576,-64.9333333331,111.514
1498136578,4.66666666690003,113.279
1498136580,16.6666666669,118.67
1498136582,57.4666666669,113.318
1498136584,43.0666666669,115.188
1498136586,-0.133333333099927,107.617
1498136588,74.2666666669001,109.133
1498136590,59.8666666669001,116.805
1498136592,69.4666666669,120.075
1498136594,81.4666666669,109.421
1498136596,105.4666666669,108.33
1498136598,110.2666666669,102.906
1498136600,76.6666666669,109.32
1498136602,95.8666666669001,104.466
1498136604,115.0666666669,100.68
1498136606,86.2666666669001,107.794
1498136608,117.4666666669,122.875
1498136610,148.6666666669,116.794
1498136612,127.0666666669,113.334
1498136614,98.2666666669001,114.442
1498136616,71.8666666669001,111.762
1498136618,117.4666666669,114.979
1498136620,103.0666666669,117.3
1498136622,107.8666666669,117.534
1498136624,71.8666666669001,116.444
1498136626,64.6666666669,113.174
1498136628,91.0666666669,116.199
1498136630,91.0666666669,126.451
1498136632,105.4666666669,116.625
1498136634,112.6666666669,115.77
1498136636,64.6666666669,117.468
1498136638,141.4666666669,123.273
1498136640,103.0666666669,110.67
1498136642,93.4666666669,118.86
1498136644,64.6666666669,103.934
1498136646,105.4666666669,110.395
1498136648,79.0666666669,107.834
1498136650,124.6666666669,107.46
1498136652,33.4666666669,112.418
1498136654,40.6666666669,108.726
1498136656,81.4666666669,103.348
1498136658,38.2666666669001,111.91
1498136660,81.4666666669,117.864
1498136662,59.8666666669001,118.71
1498136664,33.4666666669,116.776
1498136666,43.0666666669,108.062
1498136668,64.6666666669,110.287
1498136670,55.0666666669,106.943
1498136672,100.6666666669,111.223
1498136674,105.4666666669,108.924
1498136676,52.6666666669,116.282
1498136678,71.8666666669001,116.621
1498136680,103.0666666669,113.894
1498136682,91.0666666669,114.019
1498136684,74.2666666669001,118.765
1498136686,86.2666666669001,117.532
1498136688,100.6666666669,119.604
1498136690,103.0666666669,119.891
1498136692,76.6666666669,117.261
1498136694,59.8666666669001,115.396
1498136696,35.8666666669001,116.353
1498136698,47.8666666669001,110.947
1498136700,21.4666666669,100.058
1498136702,88.6666666669,106.746
1498136704,81.4666666669,110.787
1498136706,62.2666666669001,100.186
1498136708,28.6666666669,103.171
1498136710,23.8666666669001,113.093
1498136712,55.0666666669,113.906
1498136714,2.26666666690005,111.424
1498136716,83.8666666669001,112.255
1498136718,33.4666666669,108.646
1498136720,50.2666666669001,108.706
1498136722,2.26666666690005,111.156
1498136724,64.6666666669,110.885
1498136726,14.2666666669001,107.161
1498136728,-40.9333333331,114.919
1498136730,9.46666666689998,110.193
1498136732,38.2666666669001,110.836
1498136734,-14.5333333331,110.964
1498136736,-57.7333333330999,111.839
1498136738,-43.3333333331,108.064
1498136740,-16.9333333331,111.991
1498136742,-40.9333333331,111.672
1498136744,-52.9333333331,104.79
1498136746,-69.7333333330999,112.927
1498136748,-38.5333333331,114.22
1498136750,-45.7333333330999,111.669
1498136752,-31.3333333331,108.338
1498136754,-45.7333333330999,110.406
1498136756,-12.1333333330999,107.045
1498136758,-40.9333333331,111.636
1498136760,-7.33333333309997,114.597
1498136762,-7.33333333309997,104.974
1498136764,-48.1333333330999,103.495
1498136766,-88.9333333331,113.11
1498136768,-38.5333333331,115.308
1498136770,-28.9333333331,112.837
1498136772,-26.5333333331,113.337
1498136774,-14.5333333331,116.136
1498136776,11.8666666669001,111.047
1498136778,45.4666666669,118.491
1498136780,-9.73333333309995,112.921
1498136782,31.0666666669,103.421
1498136784,14.2666666669001,118.231
1498136786,74.2666666669001,121.794
1498136788,14.2666666669001,112.281
1498136790,26.2666666669001,119.819
1498136792,-2.53333333310002,110.127
1498136794,31.0666666669,117.698
1498136796,52.6666666669,121.797
1498136798,64.6666666669,119.801
1498136800,69.4666666669,114.952
1498136802,93.4666666669,110.43
1498136804,57.4666666669,107.057
1498136806,47.8666666669001,109.533
1498136808,74.2666666669001,112.638
1498136810,62.2666666669001,117.43
1498136812,31.0666666669,111.292
1498136814,14.2666666669001,109.957
1498136816,71.8666666669001,113.735
1498136818,71.8666666669001,116.87
1498136820,52.6666666669,115.656
1498136822,86.2666666669001,114.169
1498136824,103.0666666669,109.804
1498136826,81.4666666669,110.379
1498136828,50.2666666669001,100.131
1498136830,55.0666666669,106.933
1498136832,71.8666666669001,115.742
1498136834,35.8666666669001,122.3
1498136836,74.2666666669001,110.708
1498136838,45.4666666669,115.399
1498136840,74.2666666669001,118.631
1498136842,91.0666666669,108.266
1498136844,95.8666666669001,108.555
1498136846,64.6666666669,120.798
1498136848,131.8666666669,113.749
1498136850,115.0666666669,112.226
1498136852,117.4666666669,114.915
1498136854,143.8666666669,112.353
1498136856,167.8666666669,112.608
1498136858,165.4666666669,114.739
1498136860,175.0666666669,107.116
1498136862,177.4666666669,111.446
1498136864,151.0666666669,110.165
1498136868,172.6666666669,109.462
1498136870,196.6666666669,114.083
1498136872,182.2666666669,113.301
1498136874,177.4666666669,118.933
1498136876,122.2666666669,116.194
1498136878,151.0666666669,115.348
1498136880,127.0666666669,112.426
1498136882,146.2666666669,101.596
1498136884,129.4666666669,108.639
1498136886,158.2666666669,113.448
1498136888,110.2666666669,114.947
1498136890,83.8666666669001,119.503
1498136892,95.8666666669001,115.551
1498136894,107.8666666669,114.669
1498136896,93.4666666669,108.688
1498136898,91.0666666669,113.648
1498136900,91.0666666669,119.719
1498136902,105.4666666669,121.208
1498136904,67.0666666669,121.364
1498136906,50.2666666669001,113.526
1498136908,64.6666666669,110.287
1498136910,52.6666666669,107.346
1498136912,100.6666666669,107.723
1498136914,55.0666666669,104.692
1498136916,35.8666666669001,112.6
1498136918,33.4666666669,106.302
1498136920,26.2666666669001,112.557
1498136922,45.4666666669,113.132
1498136924,50.2666666669001,111.326
1498136926,83.8666666669001,98.2456
1498136928,-2.53333333310002,109.748
1498136930,21.4666666669,119.899
1498136932,26.2666666669001,115.446
1498136934,16.6666666669,116.95
1498136936,-57.7333333330999,115.206
1498136938,-21.7333333330999,112.049
1498136940,-2.53333333310002,114.275
1498136942,-50.5333333331,117.173
1498136944,-36.1333333330999,103.78
1498136946,-7.33333333309997,119.349
1498136948,-7.33333333309997,98.9664
1498136950,-52.9333333331,110.953
1498136952,-16.9333333331,106.388
1498136954,47.8666666669001,106.453
1498136956,55.0666666669,110.324
1498136958,11.8666666669001,119.722
1498136960,-38.5333333331,116.162
1498136962,16.6666666669,111.081
1498136964,19.0666666669,110.347
1498136966,-45.7333333330999,102.728
1498136968,-19.3333333331,106.92
1498136970,26.2666666669001,104.503
1498136972,31.0666666669,107.709
1498136974,11.8666666669001,106.275
1498136976,55.0666666669,116.53
1498136978,26.2666666669001,108.701
1498136980,67.0666666669,109.207
1498136982,59.8666666669001,104.794
1498136984,74.2666666669001,106.708
1498136986,64.6666666669,110.295
1498136988,38.2666666669001,105.604
1498136990,67.0666666669,103.223
1498136992,59.8666666669001,109.734
1498136994,98.2666666669001,107.63
1498136996,100.6666666669,111.508
1498136998,74.2666666669001,109.936
1498137000,23.8666666669001,112.489
1498137002,33.4666666669,120.373
1498137004,11.8666666669001,111.876
1498137006,40.6666666669,120.675
1498137008,26.2666666669001,121.991
1498137010,59.8666666669001,116.463
1498137012,-12.1333333330999,115.482
1498137014,59.8666666669001,113.17
1498137016,79.0666666669,113.083
1498137018,71.8666666669001,110.168
1498137020,55.0666666669,116.362
1498137022,38.2666666669001,117.896
1498137024,40.6666666669,120.49
1498137026,40.6666666669,118.464
1498137028,26.2666666669001,114.644
1498137030,62.2666666669001,106.391
1498137032,71.8666666669001,106.717
1498137034,-12.1333333330999,105.011
1498137036,52.6666666669,105.669
1498137038,69.4666666669,109.48
1498137040,88.6666666669,106.26
1498137042,21.4666666669,115.867
1498137044,57.4666666669,104.503
1498137046,14.2666666669001,105.869
1498137048,19.0666666669,111.983
1498137050,7.06666666690001,115.806
1498137052,-14.5333333331,115.213
1498137054,81.4666666669,108.133
1498137056,31.0666666669,107.48
1498137058,-2.53333333310002,119.259
1498137060,64.6666666669,115.876
1498137062,11.8666666669001,121.153
1498137064,-28.9333333331,120.251
1498137066,-21.7333333330999,110.934
1498137068,88.6666666669,116.3
1498137070,43.0666666669,116.323
1498137072,31.0666666669,111.456
1498137074,2.26666666690005,124.563
1498137076,4.66666666690003,120.213
1498137078,-19.3333333331,111.829
1498137080,-9.73333333309995,108.078
1498137082,-33.7333333330999,112.715
1498137084,45.4666666669,116.12
1498137086,-14.5333333331,112.582
1498137088,40.6666666669,105.987
1498137090,4.66666666690003,105.081
1498137092,19.0666666669,103.044
1498137094,-12.1333333330999,115.194
1498137096,-26.5333333331,113.238
1498137098,-38.5333333331,123.652
1498137100,23.8666666669001,122.708
1498137102,-7.33333333309997,118.568
1498137104,-64.9333333331,111.906
1498137106,-31.3333333331,113.977
1498137108,23.8666666669001,111.938
1498137110,-19.3333333331,119.953
1498137112,-86.5333333331,117.094
1498137114,-36.1333333330999,113.634
1498137116,-24.1333333330999,113.026
1498137118,-43.3333333331,122.703
1498137120,9.46666666689998,121.16
1498137122,-21.7333333330999,108.764
1498137124,-0.133333333099927,104.056
1498137126,7.06666666690001,109.28
1498137128,-9.73333333309995,104.098
1498137130,45.4666666669,97.1909
1498137132,81.4666666669,101.947
1498137134,-9.73333333309995,105.534
1498137136,-12.1333333330999,107.023
1498137138,-36.1333333330999,106.667
1498137140,-21.7333333330999,104.053
1498137142,9.46666666689998,115.113
1498137144,79.0666666669,105.802
1498137146,9.46666666689998,111.847
1498137148,57.4666666669,112.717
1498137150,2.26666666690005,111.964
1498137152,64.6666666669,114.394
1498137154,79.0666666669,122.585
1498137156,35.8666666669001,116.207
1498137158,16.6666666669,115.269
1498137160,2.26666666690005,113.969
1498137162,33.4666666669,109.432
1498137164,43.0666666669,111.685
1498137166,33.4666666669,110.738
1498137168,7.06666666690001,108.656
1498137170,31.0666666669,103.204
1498137172,64.6666666669,115.382
1498137174,35.8666666669001,104.574
1498137176,33.4666666669,105.854
1498137178,52.6666666669,110.785
1498137180,45.4666666669,111.706
1498137182,52.6666666669,96.9962
1498137184,55.0666666669,96.3925
1498137186,2.26666666690005,93.712
1498137188,-16.9333333331,101.746
1498137190,-0.133333333099927,105.053
1498137192,74.2666666669001,104.142
1498137194,45.4666666669,112.493
1498137196,19.0666666669,114.535
1498137198,26.2666666669001,110.462
1498137200,7.06666666690001,106.271
1498137202,16.6666666669,107.529
1498137204,55.0666666669,112.274
1498137206,31.0666666669,118.368
1498137208,23.8666666669001,111.839
1498137210,-40.9333333331,109.811
1498137212,-48.1333333330999,115.187
1498137214,9.46666666689998,116.529
1498137216,-21.7333333330999,118.175
1498137218,-9.73333333309995,111.815
1498137220,-36.1333333330999,124.404
1498137222,-43.3333333331,119.308
1498137224,31.0666666669,115.579
1498137226,-26.5333333331,105.846
1498137228,-50.5333333331,116.692
1498137230,-50.5333333331,110.047
1498137232,16.6666666669,105.077
1498137234,-7.33333333309997,109.019
1498137236,-7.33333333309997,111.393
1498137238,-7.33333333309997,110.334
1498137240,26.2666666669001,105.641
1498137242,7.06666666690001,108.317
1498137244,-60.1333333330999,105.801
1498137246,-36.1333333330999,108.764
1498137248,-0.133333333099927,111.618
1498137250,-9.73333333309995,105.056
1498137252,43.0666666669,111.811
1498137254,-2.53333333310002,109.157
1498137256,-2.53333333310002,110.058
1498137258,-38.5333333331,114.316
1498137260,55.0666666669,117.724
1498137262,103.0666666669,107.169
1498137264,-31.3333333331,110.21
1498137266,2.26666666690005,100.531
1498137268,43.0666666669,109.218
1498137270,79.0666666669,120.197
1498137272,-76.9333333331,119.109
1498137274,-16.9333333331,111.04
1498137276,-7.33333333309997,110.157
1498137278,26.2666666669001,109.885
1498137280,-21.7333333330999,113.899
1498137282,14.2666666669001,108.401
1498137284,-43.3333333331,106.711
1498137286,-12.1333333330999,105.4
1498137288,-9.73333333309995,109.247
1498137290,-4.93333333309999,106.119
1498137292,-38.5333333331,111.967
1498137294,-7.33333333309997,113.573
1498137296,-48.1333333330999,111.674
1498137298,-43.3333333331,118.828
1498137300,-38.5333333331,109.896
1498137302,-9.73333333309995,109.363
1498137304,-60.1333333330999,110.503
1498137306,-43.3333333331,106.129
1498137308,-26.5333333331,105.629
1498137310,-50.5333333331,92.9356
1498137312,-69.7333333330999,105.764
1498137314,-36.1333333330999,101.51
1498137316,-38.5333333331,106.202
1498137318,-48.1333333330999,108.196
1498137320,-40.9333333331,108.185
1498137322,-16.9333333331,121.397
1498137324,-50.5333333331,120.268
1498137326,-52.9333333331,118.855
1498137328,-9.73333333309995,114.801
1498137330,-2.53333333310002,115.559
1498137332,-14.5333333331,122.44
1498137334,-52.9333333331,117.806
1498137336,-60.1333333330999,112.507
1498137338,-57.7333333330999,116.923
1498137340,-69.7333333330999,116.701
1498137342,-69.7333333330999,109.496
1498137344,-45.7333333330999,104.727
1498137346,-7.33333333309997,110.717
1498137348,-48.1333333330999,110.741
1498137350,-31.3333333331,111.553
1498137352,-50.5333333331,112.726
1498137354,-84.1333333330999,106.202
1498137356,-50.5333333331,113.734
1498137358,-48.1333333330999,113.802
1498137360,-19.3333333331,119.542
1498137362,-28.9333333331,108.225
1498137364,-60.1333333330999,108.946
1498137366,-105.7333333331,112.051
1498137368,-38.5333333331,102.189
1498137370,-62.5333333331,112.754
1498137372,-57.7333333330999,115.423
1498137374,-36.1333333330999,110.818
1498137376,9.46666666689998,106.771
1498137378,-57.7333333330999,113.461
1498137380,-57.7333333330999,114.419
1498137382,-52.9333333331,105.853
1498137384,-43.3333333331,115.686
1498137386,-79.3333333331,114.724
1498137388,-50.5333333331,114.221
1498137390,-64.9333333331,116.04
1498137392,-115.3333333331,109.651
1498137394,-72.1333333331,118.309
1498137396,-60.1333333330999,113.582
1498137398,-28.9333333331,113.372
1498137400,-26.5333333331,116.292
1498137402,-81.7333333330999,109.58
1498137404,-19.3333333331,106.573
1498137406,-84.1333333330999,111.616
1498137408,-124.9333333331,108.684
1498137410,-91.3333333331,109.463
1498137412,-50.5333333331,106.055
1498137414,-60.1333333330999,108.558
1498137416,-36.1333333330999,105.24
1498137418,-33.7333333330999,106.206
1498137420,-72.1333333331,113.256
1498137422,-55.3333333331,107.972
1498137424,-33.7333333330999,114.606
1498137426,-84.1333333330999,117.274
1498137428,-40.9333333331,113.915
1498137430,-62.5333333331,116.143
1498137432,-76.9333333331,113.773
1498137434,-67.3333333331,110.154
1498137436,-115.3333333331,113.43
1498137438,-60.1333333330999,103.582
1498137440,-100.9333333331,112.58
1498137442,-62.5333333331,107.606
1498137444,-4.93333333309999,110.219
1498137446,-40.9333333331,110.618
1498137448,-45.7333333330999,113.983
1498137450,-50.5333333331,113.612
1498137452,-62.5333333331,109.78
1498137454,-98.5333333331,116.993
1498137456,-31.3333333331,109.974
1498137458,-16.9333333331,108.075
1498137460,-16.9333333331,106.086
1498137462,-36.1333333330999,110.83
1498137464,-50.5333333331,114.718
1498137466,-33.7333333330999,108.761
1498137468,-26.5333333331,109.88
1498137470,4.66666666690003,106.539
1498137472,35.8666666669001,116.225
1498137474,-38.5333333331,118.615
1498137476,-52.9333333331,104.584
1498137478,-38.5333333331,109.681
1498137480,21.4666666669,103.639
1498137482,-12.1333333330999,107.954
1498137484,-43.3333333331,113.818
1498137486,-48.1333333330999,110.39
1498137488,33.4666666669,117.862
1498137490,-33.7333333330999,117.648
1498137492,-57.7333333330999,110.676
1498137494,-7.33333333309997,114.062
1498137496,-43.3333333331,107.243
1498137498,26.2666666669001,100.23
1498137500,9.46666666689998,115.287
1498137502,-0.133333333099927,109.495
1498137504,-36.1333333330999,110.992
1498137506,-21.7333333330999,113.389
1498137508,-2.53333333310002,111.123
1498137510,14.2666666669001,120.749
1498137512,64.6666666669,116.25
1498137514,2.26666666690005,119.86
1498137516,11.8666666669001,114.348
1498137518,69.4666666669,116.114
1498137520,2.26666666690005,111.406
1498137522,38.2666666669001,117.633
1498137524,67.0666666669,117.205
1498137526,59.8666666669001,112.407
1498137528,2.26666666690005,109.449
1498137530,33.4666666669,115.147
1498137532,33.4666666669,114.019
1498137534,52.6666666669,115.351
1498137536,33.4666666669,107.494
1498137538,4.66666666690003,113.695
1498137540,43.0666666669,122.243
1498137542,14.2666666669001,118.995
1498137544,-26.5333333331,114.952
1498137546,14.2666666669001,119.265
1498137548,-0.133333333099927,112.984
1498137550,-26.5333333331,118.976
1498137552,31.0666666669,112.074
1498137554,-4.93333333309999,105.872
1498137556,-21.7333333330999,107.522
1498137558,-0.133333333099927,104.457
1498137560,-40.9333333331,107.27
1498137562,26.2666666669001,106.745
1498137564,16.6666666669,108.139
1498137566,-31.3333333331,109.93
1498137568,-43.3333333331,100.851
1498137570,-52.9333333331,95.8504
1498137572,-0.133333333099927,106.412
1498137574,-40.9333333331,107.665
1498137576,2.26666666690005,116.541
1498137578,-43.3333333331,124.104
1498137580,-38.5333333331,126.61
1498137582,-67.3333333331,124.949
1498137584,-0.133333333099927,117.256
1498137586,-50.5333333331,111.057
1498137588,-48.1333333330999,110.177
1498137590,-9.73333333309995,108.47
1498137592,-0.133333333099927,113.205
1498137594,-2.53333333310002,120.859
1498137596,-52.9333333331,125.733
1498137598,-33.7333333330999,118.091
1498137600,11.8666666669001,122.829
1498137602,11.8666666669001,117.296
1498137604,-9.73333333309995,115.834
1498137606,-14.5333333331,117.537
1498137608,14.2666666669001,113.24
1498137610,-24.1333333330999,117.99
1498137612,-36.1333333330999,125.273
1498137614,-12.1333333330999,115.019
1498137616,-0.133333333099927,112.927
1498137618,-16.9333333331,112.094
1498137620,-36.1333333330999,110.484
1498137622,-28.9333333331,115.805
1498137624,-31.3333333331,110.707
1498137626,-38.5333333331,111.313
1498137628,-36.1333333330999,110.868
1498137630,-38.5333333331,114.755
1498137632,-43.3333333331,113.43
1498137634,-57.7333333330999,116.194
1498137636,-88.9333333331,116.638
1498137638,-57.7333333330999,108.888
1498137640,-0.133333333099927,104.572
1498137642,-33.7333333330999,111.156
1498137644,2.26666666690005,120.545
1498137646,7.06666666690001,119.332
1498137648,40.6666666669,112.887
1498137650,-24.1333333330999,121.488
1498137652,67.0666666669,115.598
1498137654,40.6666666669,111.186
1498137656,-21.7333333330999,107.049
1498137658,16.6666666669,118.501
1498137660,-2.53333333310002,117.96
1498137662,4.66666666690003,113.75
1498137664,-40.9333333331,111.977
1498137666,26.2666666669001,117.636
1498137668,64.6666666669,117.468
1498137670,9.46666666689998,121.22
1498137672,31.0666666669,120.186
1498137674,38.2666666669001,122.801
1498137676,76.6666666669,123.057
1498137678,4.66666666690003,110.225
1498137680,28.6666666669,118.013
1498137682,59.8666666669001,115.402
1498137684,50.2666666669001,119.701
1498137686,43.0666666669,117.519
1498137688,79.0666666669,110.189
1498137690,38.2666666669001,111.362
1498137692,88.6666666669,106.352
1498137694,45.4666666669,99.8758
1498137696,74.2666666669001,108.628
1498137698,83.8666666669001,104.379
1498137700,69.4666666669,115.135
1498137702,33.4666666669,120.563
1498137704,93.4666666669,127.355
1498137706,110.2666666669,112.722
1498137708,98.2666666669001,115.125
1498137710,76.6666666669,113.278
1498137712,71.8666666669001,103.291
1498137714,79.0666666669,108.86
1498137716,35.8666666669001,106.362
1498137718,55.0666666669,115.382
1498137720,95.8666666669001,114.432
1498137722,40.6666666669,116.528
1498137724,-4.93333333309999,115.274
1498137726,23.8666666669001,116.57
1498137728,-7.33333333309997,111.481
1498137730,-24.1333333330999,111.431
1498137732,-40.9333333331,114.478
1498137734,64.6666666669,108.627
1498137736,-0.133333333099927,112.249
1498137738,-12.1333333330999,110.014
1498137740,-38.5333333331,107.938
1498137742,-40.9333333331,115.411
1498137744,-24.1333333330999,112.429
1498137746,-9.73333333309995,109.759
1498137748,-43.3333333331,113.021
1498137750,-12.1333333330999,109.269
1498137752,-93.7333333330999,104.955
1498137754,-43.3333333331,116.127
1498137756,28.6666666669,113.061
1498137758,-36.1333333330999,108.263
1498137760,-28.9333333331,113.924
1498137762,-16.9333333331,111.074
1498137764,7.06666666690001,115.787
1498137766,11.8666666669001,124.297
1498137768,-26.5333333331,120.952
1498137770,47.8666666669001,118.673
1498137772,31.0666666669,118.061
1498137774,-0.133333333099927,114.326
1498137776,-16.9333333331,113.353
1498137778,11.8666666669001,109.915
1498137780,26.2666666669001,109.677
1498137782,4.66666666690003,112.541
1498137784,9.46666666689998,106.482
1498137786,-9.73333333309995,109.894
1498137788,-19.3333333331,115.561
1498137790,-62.5333333331,109.84
1498137792,-2.53333333310002,105.242
1498137794,35.8666666669001,110.691
1498137796,-52.9333333331,111.49
1498137798,-14.5333333331,108.23
1498137800,4.66666666690003,117.793
1498137802,-24.1333333330999,123.727
1498137804,-24.1333333330999,120.351
1498137806,-19.3333333331,108.655
1498137808,50.2666666669001,106.434
1498137810,21.4666666669,103.95
1498137812,4.66666666690003,118.7
1498137814,52.6666666669,115.325
1498137816,-2.53333333310002,111.276
1498137818,93.4666666669,107.022
1498137820,79.0666666669,111.612
1498137822,40.6666666669,110.369
1498137824,-0.133333333099927,112.235
1498137826,50.2666666669001,105.737
1498137828,64.6666666669,111.047
1498137830,-2.53333333310002,110.101
1498137832,9.46666666689998,106.67
1498137834,71.8666666669001,99.5546
1498137836,16.6666666669,109.414
1498137838,-14.5333333331,106.68
1498137840,26.2666666669001,107.699
1498137842,91.0666666669,106.628
1498137844,-14.5333333331,113.588
1498137846,35.8666666669001,115.545
1498137848,55.0666666669,110.921
1498137850,71.8666666669001,105.315
1498137852,4.66666666690003,116.061
1498137854,59.8666666669001,114.311
1498137856,79.0666666669,113.373
1498137858,76.6666666669,108.616
1498137860,16.6666666669,107.48
1498137862,95.8666666669001,109.145
1498137864,69.4666666669,114.792
1498137866,7.06666666690001,116.456
1498137868,26.2666666669001,113.572
1498137870,112.6666666669,122.106
1498137872,79.0666666669,114.951
1498137874,91.0666666669,114.224
1498137876,119.8666666669,115.866
1498137878,129.4666666669,111.742
1498137880,71.8666666669001,113.036
1498137882,110.2666666669,115.513
1498137884,103.0666666669,113.481
1498137886,93.4666666669,125.213
1498137888,35.8666666669001,121.032
1498137890,91.0666666669,118.666
1498137892,86.2666666669001,114.705
1498137894,100.6666666669,110.42
1498137896,127.0666666669,105.537
1498137898,91.0666666669,107.336
1498137900,158.2666666669,108.259
1498137902,107.8666666669,115.744
1498137904,115.0666666669,108.103
1498137906,100.6666666669,114.66
1498137908,74.2666666669001,114.061
1498137910,88.6666666669,111.263
1498137912,112.6666666669,113.272
1498137914,98.2666666669001,109.704
1498137916,93.4666666669,112.044
1498137918,105.4666666669,114.31
1498137920,117.4666666669,107.851
1498137922,117.4666666669,116.465
1498137924,131.8666666669,107.087
1498137926,151.0666666669,111.527
1498137928,119.8666666669,105.078
1498137930,139.0666666669,105.107
1498137932,79.0666666669,112.697
1498137934,103.0666666669,113.373
1498137936,124.6666666669,112.431
1498137938,79.0666666669,119.431
1498137940,103.0666666669,119.38
1498137942,112.6666666669,116.463
1498137944,74.2666666669001,123.412
1498137946,88.6666666669,115.572
1498137948,81.4666666669,116.772
1498137950,62.2666666669001,112.369
1498137952,95.8666666669001,107.523
1498137954,100.6666666669,110.183
1498137956,98.2666666669001,112.136
1498137958,38.2666666669001,112.929
1498137960,71.8666666669001,113.078
1498137962,81.4666666669,116.632
1498137964,81.4666666669,115.092
1498137966,64.6666666669,118.949
1498137968,57.4666666669,117.09
1498137970,67.0666666669,116.029
1498137972,64.6666666669,116.586
1498137974,14.2666666669001,110.739
1498137976,76.6666666669,116.702
1498137978,21.4666666669,111.579
1498137980,26.2666666669001,106.559
1498137982,40.6666666669,105.744
1498137984,52.6666666669,108.649
1498137986,-7.33333333309997,112.157
1498137990,-16.9333333331,101.934
1498137992,33.4666666669,113.843
1498137994,-24.1333333330999,107.956
1498137996,64.6666666669,111.748
1498137998,50.2666666669001,109.019
1498138000,57.4666666669,116.049
1498138002,28.6666666669,111.859
1498138004,86.2666666669001,111.566
1498138006,57.4666666669,117.655
1498138008,71.8666666669001,115.838
1498138010,52.6666666669,115.758
1498138012,79.0666666669,125.107
1498138014,74.2666666669001,109.648
1498138016,62.2666666669001,112.163
1498138018,69.4666666669,114.165
1498138020,141.4666666669,116.217
1498138022,23.8666666669001,101.499
1498138024,64.6666666669,102.652
1498138026,76.6666666669,102.515
1498138028,105.4666666669,111.004
1498138030,64.6666666669,106.486
1498138032,98.2666666669001,110.185
1498138034,95.8666666669001,114.016
1498138036,93.4666666669,111.123
1498138038,47.8666666669001,111.397
1498138040,69.4666666669,113.632
1498138042,86.2666666669001,114.062
1498138044,103.0666666669,112.996
1498138046,119.8666666669,113.684
1498138048,163.0666666669,119.746
1498138050,136.6666666669,116.046
1498138052,88.6666666669,111.51
1498138054,139.0666666669,114.375
1498138056,189.4666666669,116.789
1498138058,158.2666666669,121.71
1498138060,136.6666666669,112.258
1498138062,134.2666666669,113.124
1498138064,158.2666666669,124.909
1498138066,143.8666666669,113.769
1498138068,136.6666666669,113.75
1498138070,179.8666666669,113.341
1498138072,167.8666666669,107.397
1498138074,187.0666666669,105.206
1498138076,191.8666666669,105.547
1498138078,158.2666666669,109.6
1498138080,119.8666666669,107.92
1498138082,167.8666666669,99.4747
1498138084,175.0666666669,111.643
1498138086,167.8666666669,106.173
1498138088,136.6666666669,109.859
1498138090,179.8666666669,112.381
1498138092,175.0666666669,108.334
1498138094,148.6666666669,104.836
1498138096,88.6666666669,108.02
1498138098,136.6666666669,108.692
1498138100,71.8666666669001,101.923
1498138102,103.0666666669,112.121
1498138104,110.2666666669,109.461
1498138106,95.8666666669001,107.188
1498138108,107.8666666669,115.185
1498138110,83.8666666669001,101.497
1498138112,86.2666666669001,112.779
1498138114,103.0666666669,108.2
1498138116,91.0666666669,103.99
1498138118,160.6666666669,94.118
1498138120,172.6666666669,101.109
1498138122,105.4666666669,107.077
1498138124,155.8666666669,105.245
1498138126,136.6666666669,109.448
1498138128,139.0666666669,112.126
1498138130,134.2666666669,112.567
1498138132,129.4666666669,107.938
1498138134,112.6666666669,107.239
1498138136,105.4666666669,103.302
1498138138,141.4666666669,108.629
1498138140,115.0666666669,111.364
1498138142,107.8666666669,113.932
1498138144,191.8666666669,116.923
1498138146,167.8666666669,108.111
1498138148,167.8666666669,105.986
1498138150,105.4666666669,109.878
1498138152,153.4666666669,109.381
1498138154,117.4666666669,109.757
1498138156,143.8666666669,109.814
1498138158,153.4666666669,109.037
1498138160,143.8666666669,115.813
1498138162,131.8666666669,109.394
1498138164,129.4666666669,107.157
1498138166,172.6666666669,111.624
1498138168,170.2666666669,111.172
1498138170,131.8666666669,113.588
1498138172,167.8666666669,100.676
1498138174,170.2666666669,116.125
1498138176,151.0666666669,110.927
1498138178,167.8666666669,108.575
1498138180,184.6666666669,117.24
1498138182,165.4666666669,106.464
1498138184,172.6666666669,112.11
1498138186,165.4666666669,106.534
1498138188,146.2666666669,105.677
1498138190,163.0666666669,106.595
1498138192,194.2666666669,102.24
1498138194,167.8666666669,103.179
1498138196,160.6666666669,106.515
1498138198,103.0666666669,104.247
1498138200,151.0666666669,103.51
1498138202,163.0666666669,96.8857
1498138204,151.0666666669,103.657
1498138206,105.4666666669,114.723
1498138208,141.4666666669,114.167
1498138210,117.4666666669,111.899
1498138212,122.2666666669,111.187
1498138214,127.0666666669,116.031
1498138216,110.2666666669,111.554
1498138218,119.8666666669,109.955
1498138220,136.6666666669,112.919
1498138222,165.4666666669,116.064
1498138224,124.6666666669,108.938
1498138226,141.4666666669,107.293
1498138228,139.0666666669,99.7714
1498138230,160.6666666669,100.637
1498138232,112.6666666669,115.223
1498138234,127.0666666669,103.195
1498138236,167.8666666669,105.523
1498138238,124.6666666669,101.677
1498138240,117.4666666669,112.696
1498138242,194.2666666669,109.164
1498138244,95.8666666669001,103.449
1498138246,107.8666666669,104.261
1498138248,124.6666666669,100.87
1498138250,184.6666666669,103.137
1498138252,105.4666666669,106.729
1498138254,146.2666666669,110.571
1498138256,148.6666666669,111.099
1498138258,141.4666666669,117.927
1498138260,86.2666666669001,114.466
1498138262,112.6666666669,112.355
1498138264,112.6666666669,110.255
1498138266,122.2666666669,118.952
1498138268,115.0666666669,115.178
1498138270,103.0666666669,116.248
1498138272,79.0666666669,102.414
1498138274,105.4666666669,105.627
1498138276,107.8666666669,112.795
1498138278,52.6666666669,106.543
1498138280,50.2666666669001,113.086
1498138282,74.2666666669001,113.174
1498138284,93.4666666669,114.37
1498138286,107.8666666669,116.911
1498138288,57.4666666669,104.959
1498138290,40.6666666669,101.817
1498138292,64.6666666669,101.528
1498138294,95.8666666669001,110.175
1498138296,74.2666666669001,99.1282
1498138298,112.6666666669,108.951
1498138300,105.4666666669,108.722
1498138302,103.0666666669,113.62
1498138304,62.2666666669001,114.147
1498138306,107.8666666669,113.517
1498138308,88.6666666669,111.605
1498138310,115.0666666669,110.693
1498138312,100.6666666669,104.009
1498138314,86.2666666669001,105.954
1498138316,62.2666666669001,107.803
1498138318,98.2666666669001,106.314
1498138320,69.4666666669,110.173
1498138322,52.6666666669,111.796
1498138324,88.6666666669,112.539
1498138326,93.4666666669,111.547
1498138328,62.2666666669001,113.911
1498138330,74.2666666669001,105.976
1498138332,103.0666666669,103.924
1498138334,35.8666666669001,106.339
1498138336,62.2666666669001,118.95
1498138338,79.0666666669,115.081
1498138340,83.8666666669001,113.791
1498138342,76.6666666669,109.979
1498138344,-4.93333333309999,112.413
1498138346,52.6666666669,114.014
1498138348,52.6666666669,107.52
1498138350,62.2666666669001,106.502
1498138352,59.8666666669001,111.919
1498138354,71.8666666669001,115.792
1498138356,79.0666666669,112.434
1498138358,38.2666666669001,117.228
1498138360,35.8666666669001,113.559
1498138362,81.4666666669,107.291
1498138364,26.2666666669001,113.237
1498138366,67.0666666669,120.421
1498138368,28.6666666669,121.44
1498138370,-2.53333333310002,116.166
1498138372,57.4666666669,118.841
1498138374,43.0666666669,112.704
1498138376,91.0666666669,113.548
1498138378,19.0666666669,109.812
1498138380,-2.53333333310002,111.561
1498138382,-28.9333333331,108.968
1498138384,64.6666666669,111.299
1498138386,-2.53333333310002,120.303
1498138388,-57.7333333330999,119.758
1498138390,47.8666666669001,110.692
1498138392,11.8666666669001,110.773
1498138394,-9.73333333309995,110.307
1498138396,-12.1333333330999,102.832
1498138398,26.2666666669001,103.239
1498138400,-33.7333333330999,109.526
1498138402,19.0666666669,110.826
1498138404,-4.93333333309999,113.902
1498138406,43.0666666669,111.985
1498138408,26.2666666669001,109.536
1498138410,21.4666666669,113.422
1498138412,-9.73333333309995,108.609
1498138414,-52.9333333331,111.268
1498138416,-19.3333333331,112.552
1498138418,-24.1333333330999,110.564
1498138420,35.8666666669001,107.588
1498138422,-43.3333333331,108.248
1498138424,7.06666666690001,108.349
1498138426,-12.1333333330999,105.404
1498138428,-40.9333333331,110.659
1498138430,33.4666666669,109.846
1498138432,21.4666666669,109.833
1498138434,-40.9333333331,108.55
1498138436,-26.5333333331,110.179
1498138438,14.2666666669001,102.006
1498138440,-12.1333333330999,108.787
1498138442,-24.1333333330999,103.999
1498138444,-21.7333333330999,114.787
1498138446,7.06666666690001,118.482
1498138448,-24.1333333330999,115.229
1498138450,-50.5333333331,112.864
1498138452,-9.73333333309995,109.927
1498138454,9.46666666689998,114.413
1498138456,-43.3333333331,109.642
1498138458,-2.53333333310002,117.874
1498138460,69.4666666669,120.651
1498138462,9.46666666689998,123.198
1498138464,-45.7333333330999,119.792
1498138466,35.8666666669001,119.516
1498138468,-33.7333333330999,112.83
1498138470,-45.7333333330999,119.236
1498138472,31.0666666669,115.354
1498138474,26.2666666669001,116.951
1498138476,7.06666666690001,120.401
1498138478,-26.5333333331,118.059
1498138480,-9.73333333309995,115.304
1498138482,-0.133333333099927,120.833
1498138484,-31.3333333331,121.776
1498138486,21.4666666669,115.145
1498138488,-4.93333333309999,114.915
1498138490,-36.1333333330999,115.585
1498138492,-19.3333333331,118.585
1498138494,64.6666666669,117.257
1498138496,11.8666666669001,114.767
1498138498,-9.73333333309995,115.308
1498138500,-43.3333333331,106.762
1498138502,-2.53333333310002,107.339
1498138504,-43.3333333331,108.461
1498138506,-36.1333333330999,110.196
1498138508,-2.53333333310002,111.713
1498138510,43.0666666669,110.785
1498138512,-43.3333333331,112.129
1498138514,35.8666666669001,107.084
1498138516,-48.1333333330999,110.855
1498138518,-36.1333333330999,112.829
1498138520,-50.5333333331,108.262
1498138522,2.26666666690005,109.248
1498138524,-33.7333333330999,109.347
1498138526,-7.33333333309997,114.121
1498138528,21.4666666669,118.171
1498138530,-38.5333333331,114.392
1498138532,-48.1333333330999,116.857
1498138534,-7.33333333309997,114.149
1498138536,4.66666666690003,114.582
1498138538,11.8666666669001,111.739
1498138540,11.8666666669001,112.1
1498138542,16.6666666669,114.528
1498138544,26.2666666669001,106.073
1498138546,-9.73333333309995,109.716
1498138548,76.6666666669,116.782
1498138550,26.2666666669001,114.704
1498138552,4.66666666690003,115.722
1498138554,-36.1333333330999,112.589
1498138556,2.26666666690005,118.653
1498138558,55.0666666669,115.876
1498138560,-57.7333333330999,121.279
1498138562,-43.3333333331,116.516
1498138564,19.0666666669,114.674
1498138566,-62.5333333331,123.068
1498138568,-2.53333333310002,119.01
1498138570,-14.5333333331,114.685
1498138572,28.6666666669,118.513
1498138574,-12.1333333330999,121.272
1498138576,-2.53333333310002,124.845
1498138578,-24.1333333330999,125.463
1498138580,-40.9333333331,124.285
1498138582,-0.133333333099927,112.32
1498138584,-21.7333333330999,116.961
1498138586,-26.5333333331,116.377
1498138588,-26.5333333331,110.481
1498138590,-4.93333333309999,122.295
1498138592,11.8666666669001,119.669
1498138594,-33.7333333330999,116.435
1498138596,-48.1333333330999,123.949
1498138598,-7.33333333309997,114.672
1498138600,11.8666666669001,109.564
1498138602,2.26666666690005,107.503
1498138604,52.6666666669,110.114
1498138606,-48.1333333330999,108.409
1498138608,-50.5333333331,116.182
1498138610,-19.3333333331,119.839
1498138612,-0.133333333099927,115.361
1498138614,-31.3333333331,112.97
1498138616,-0.133333333099927,115.912
1498138618,45.4666666669,106.252
1498138620,-40.9333333331,101.034
1498138622,-48.1333333330999,113.55
1498138624,-21.7333333330999,114.671
1498138626,-4.93333333309999,122.523
1498138628,-36.1333333330999,124.244
1498138630,-16.9333333331,111.617
1498138632,43.0666666669,110.464
1498138634,-40.9333333331,116.959
1498138636,-2.53333333310002,118.448
1498138638,33.4666666669,114.315
1498138640,-2.53333333310002,109.845
1498138642,-36.1333333330999,105.167
1498138644,-40.9333333331,114.277
1498138646,-40.9333333331,106.183
1498138648,-45.7333333330999,108.168
1498138650,-52.9333333331,107.393
1498138652,-50.5333333331,111.776
1498138654,33.4666666669,116.691
1498138656,9.46666666689998,112.603
1498138658,-48.1333333330999,120.401
1498138660,4.66666666690003,114.527
1498138662,-16.9333333331,113.593
1498138664,-84.1333333330999,107.109
1498138666,-2.53333333310002,111.802
1498138668,-52.9333333331,110.732
1498138670,-62.5333333331,104.806
1498138672,-43.3333333331,120.414
1498138674,-14.5333333331,109.286
1498138676,-55.3333333331,106.667
1498138678,-76.9333333331,112.105
1498138680,-24.1333333330999,113.85
1498138682,-12.1333333330999,103.194
1498138684,-45.7333333330999,113.781
1498138686,-38.5333333331,112.147
1498138688,-48.1333333330999,108.225
1498138690,-62.5333333331,116.277
1498138692,-21.7333333330999,114.866
1498138694,9.46666666689998,121.536
1498138696,-21.7333333330999,120.139
1498138698,-67.3333333331,118.394
1498138700,-36.1333333330999,116.324
1498138702,9.46666666689998,112.074
1498138704,-16.9333333331,110.263
1498138706,-57.7333333330999,113.068
1498138708,-12.1333333330999,116.222
1498138710,-0.133333333099927,119.359
1498138712,-67.3333333331,116.815
1498138714,11.8666666669001,116.859
1498138716,14.2666666669001,108.714
1498138718,-9.73333333309995,112.943
1498138720,-33.7333333330999,115.418
1498138722,-48.1333333330999,112.026
1498138724,-19.3333333331,118.979
1498138726,-21.7333333330999,110.783
1498138728,-31.3333333331,117.826
1498138730,-19.3333333331,114.5
1498138732,-4.93333333309999,118.973
1498138734,-0.133333333099927,115.375
1498138736,-2.53333333310002,118.842
1498138738,-16.9333333331,120.966
1498138740,-55.3333333331,124.344
1498138742,-33.7333333330999,120.709
1498138744,-74.5333333331,122.119
1498138746,-36.1333333330999,118.767
1498138748,-86.5333333331,126.653
1498138750,-16.9333333331,120.657
1498138752,-64.9333333331,117.662
1498138754,-50.5333333331,116.187
1498138756,-31.3333333331,117.045
1498138758,-19.3333333331,117.284
1498138760,-52.9333333331,118.058
1498138762,-19.3333333331,118.226
1498138764,7.06666666690001,112.572
1498138766,-33.7333333330999,124.377
1498138768,-55.3333333331,110.172
1498138770,-45.7333333330999,115.311
1498138772,-40.9333333331,104.824
1498138774,-24.1333333330999,121.357
1498138776,7.06666666690001,124.287
1498138778,19.0666666669,120.067
1498138780,-24.1333333330999,110.832
1498138782,-19.3333333331,111.538
1498138784,-48.1333333330999,120.703
1498138786,26.2666666669001,115
1498138788,-50.5333333331,114.824
1498138790,2.26666666690005,116.094
1498138792,-31.3333333331,117.478
1498138794,-28.9333333331,110.972
1498138796,-62.5333333331,113.122
1498138798,-24.1333333330999,110.001
1498138800,11.8666666669001,114.254
1498138802,-60.1333333330999,110.542
1498138804,-40.9333333331,118.473
1498138806,-33.7333333330999,113.333
1498138808,-33.7333333330999,108.999
1498138810,-64.9333333331,114.76
1498138812,-24.1333333330999,108.391
1498138814,-4.93333333309999,113.723
1498138816,-38.5333333331,108.179
1498138818,-45.7333333330999,119.307
1498138820,-69.7333333330999,116.611
1498138822,-79.3333333331,116.217
1498138824,-36.1333333330999,112.446
1498138826,-40.9333333331,116.103
1498138828,-76.9333333331,116.076
1498138830,-69.7333333330999,118.062
1498138832,-31.3333333331,118.995
1498138834,-45.7333333330999,119.195
1498138836,-81.7333333330999,108.524
1498138838,-55.3333333331,120.014
1498138840,-62.5333333331,117.197
1498138842,-55.3333333331,117.186
1498138844,-69.7333333330999,120.453
1498138846,-26.5333333331,124.921
1498138848,-50.5333333331,121.095
1498138850,-4.93333333309999,124.914
1498138852,-76.9333333331,107.716
1498138854,-76.9333333331,110.113
1498138856,-112.9333333331,111.318
1498138858,-62.5333333331,105.897
1498138860,-43.3333333331,117.142
1498138862,-88.9333333331,113.605
1498138864,-31.3333333331,111.611
1498138866,-55.3333333331,113.903
1498138868,-12.1333333330999,117.66
1498138870,-57.7333333330999,116.872
1498138872,-50.5333333331,118.816
1498138874,-55.3333333331,112.205
1498138876,-28.9333333331,113.604
1498138878,-33.7333333330999,112.831
1498138880,14.2666666669001,111.576
1498138882,-28.9333333331,106.948
1498138884,-74.5333333331,117.454
1498138886,-60.1333333330999,114.951
1498138888,59.8666666669001,116.952
1498138890,-26.5333333331,114.859
1498138892,40.6666666669,117.451
1498138894,7.06666666690001,113.896
1498138896,16.6666666669,112.869
1498138898,-40.9333333331,118.554
1498138900,-45.7333333330999,113.268
1498138902,-33.7333333330999,117.961
1498138904,-2.53333333310002,120.897
1498138906,-55.3333333331,117.785
1498138908,-33.7333333330999,122.667
1498138910,-19.3333333331,106.139
1498138912,31.0666666669,120.145
1498138914,-2.53333333310002,115.454
1498138916,-40.9333333331,108.027
1498138918,9.46666666689998,107.124
1498138920,-48.1333333330999,105.985
1498138922,-16.9333333331,117.803
1498138924,-24.1333333330999,116.912
1498138926,-60.1333333330999,115.107
1498138928,-26.5333333331,109.871
1498138930,-19.3333333331,116.478
1498138932,-4.93333333309999,116.901
1498138934,-45.7333333330999,115.258
1498138936,-62.5333333331,116.907
1498138938,-7.33333333309997,111.002
1498138940,-14.5333333331,116.006
1498138942,-43.3333333331,114.269
1498138944,-64.9333333331,115.514
1498138946,-36.1333333330999,115.806
1498138948,-38.5333333331,118.185
1498138950,-26.5333333331,121.7
1498138952,-31.3333333331,120.171
1498138954,-45.7333333330999,120.046
1498138956,-45.7333333330999,114.594
1498138958,-33.7333333330999,113.85
1498138960,-19.3333333331,119.377
1498138962,-28.9333333331,123.879
1498138964,-19.3333333331,116.827
1498138966,-31.3333333331,117.032
1498138968,-33.7333333330999,121.009
1498138970,35.8666666669001,122.738
1498138972,-9.73333333309995,119.936
1498138974,-50.5333333331,114.417
1498138976,-7.33333333309997,118.495
1498138978,26.2666666669001,117.255
1498138980,67.0666666669,116.512
1498138982,-48.1333333330999,120.542
1498138984,26.2666666669001,113.351
1498138986,-55.3333333331,122.674
1498138988,-21.7333333330999,113.002
1498138990,-31.3333333331,108.646
1498138992,19.0666666669,111.488
1498138994,-40.9333333331,112.063
1498138996,-36.1333333330999,108.371
1498138998,7.06666666690001,106.956
1498139000,21.4666666669,109.576
1498139002,-48.1333333330999,114.344
1498139004,-21.7333333330999,114.225
1498139006,-88.9333333331,109.589
1498139008,23.8666666669001,116.071
1498139010,-33.7333333330999,110.644
1498139012,-28.9333333331,109.949
1498139014,-19.3333333331,112.088
1498139016,-28.9333333331,115.504
1498139018,-31.3333333331,113.995
1498139020,38.2666666669001,105.17
1498139022,-2.53333333310002,105.56
1498139024,23.8666666669001,106.697
1498139026,-2.53333333310002,113.217
1498139028,35.8666666669001,108.066
1498139030,57.4666666669,109.231
1498139032,-21.7333333330999,97.959
1498139034,2.26666666690005,109.41
1498139036,-21.7333333330999,101.23
1498139038,-0.133333333099927,112.95
1498139040,-26.5333333331,111.548
1498139042,43.0666666669,101.699
1498139044,64.6666666669,123.3
1498139046,28.6666666669,110.042
1498139048,23.8666666669001,114.583
1498139050,35.8666666669001,100.998
1498139052,9.46666666689998,113.822
1498139054,43.0666666669,109.392
1498139056,-36.1333333330999,105.908
1498139058,50.2666666669001,110.926
1498139060,9.46666666689998,111.505
1498139062,-0.133333333099927,110.814
1498139064,-4.93333333309999,116.483
1498139066,-19.3333333331,110.981
1498139068,-38.5333333331,111.629
1498139070,-26.5333333331,117.133
1498139072,-36.1333333330999,111.181
1498139074,-55.3333333331,113.124
1498139076,-36.1333333330999,108.769
1498139078,-38.5333333331,116.074
1498139080,-2.53333333310002,110.329
1498139082,-16.9333333331,111.68
1498139084,-9.73333333309995,112.243
1498139086,-28.9333333331,115.165
1498139088,-31.3333333331,109.874
1498139090,-43.3333333331,115.822
1498139092,-45.7333333330999,111.311
1498139094,-24.1333333330999,118.204
1498139096,-43.3333333331,109.036
1498139098,-38.5333333331,108.035
1498139100,-24.1333333330999,112.695
1498139102,-31.3333333331,114.21
1498139104,-21.7333333330999,108.951
1498139106,-24.1333333330999,120.926
1498139108,-26.5333333331,118.847
1498139110,-26.5333333331,116.055
1498139112,28.6666666669,115.37
1498139114,11.8666666669001,111.052
1498139116,-43.3333333331,106.258
1498139118,-24.1333333330999,115.926
1498139120,-64.9333333331,115.632
1498139122,23.8666666669001,115.146
1498139124,-0.133333333099927,108.984
1498139126,-38.5333333331,113.417
1498139128,14.2666666669001,119.018
1498139130,31.0666666669,119.403
1498139132,-24.1333333330999,113.144
1498139134,-40.9333333331,127.154
1498139136,-21.7333333330999,106.873
1498139138,-28.9333333331,105.443
1498139140,-43.3333333331,101.597
1498139142,2.26666666690005,105.904
1498139144,-48.1333333330999,107.138
1498139146,-26.5333333331,107.008
1498139148,-28.9333333331,117.283
1498139150,-0.133333333099927,120.714
1498139152,-48.1333333330999,119.638
1498139154,-67.3333333331,118.195
1498139156,-26.5333333331,126.8
1498139158,-112.9333333331,120.36
1498139160,-43.3333333331,110.43
1498139162,-57.7333333330999,112.562
1498139164,-48.1333333330999,108.398
1498139166,-45.7333333330999,111.668
1498139168,-55.3333333331,114.032
1498139170,-40.9333333331,112.423
1498139172,-45.7333333330999,115.12
1498139174,-60.1333333330999,115.337
1498139176,16.6666666669,115
1498139178,-67.3333333331,116.977
1498139180,-57.7333333330999,113.524
1498139182,-21.7333333330999,111.131
1498139184,-36.1333333330999,121.251
1498139186,-50.5333333331,112.247
1498139188,-64.9333333331,118.261
1498139190,-43.3333333331,127.46
1498139192,-19.3333333331,124.498
1498139194,16.6666666669,120.73
1498139196,26.2666666669001,121.4
1498139198,-19.3333333331,123.609
1498139200,-28.9333333331,117.075
1498139202,-43.3333333331,124.204
1498139204,-9.73333333309995,125.153
1498139206,-12.1333333330999,127.453
1498139208,4.66666666690003,119.303
1498139210,19.0666666669,129.628
1498139212,-28.9333333331,117.725
1498139214,31.0666666669,113.934
1498139216,-24.1333333330999,111.26
1498139218,-19.3333333331,109.946
1498139220,-2.53333333310002,103.776
1498139222,9.46666666689998,109.352
1498139224,7.06666666690001,108.231
1498139226,-48.1333333330999,112.913
1498139228,-0.133333333099927,108.83
1498139230,2.26666666690005,113.2
1498139232,2.26666666690005,112.365
1498139234,-2.53333333310002,116.43
1498139236,43.0666666669,119.8
1498139238,-26.5333333331,119.003
1498139240,-40.9333333331,117.379
1498139242,-33.7333333330999,110.842
1498139244,-19.3333333331,119.049
1498139246,-48.1333333330999,106.071
1498139248,7.06666666690001,113.116
1498139250,40.6666666669,100.946
1498139252,-33.7333333330999,110.775
1498139254,-21.7333333330999,108.282
1498139256,4.66666666690003,107.565
1498139258,16.6666666669,111.225
1498139260,7.06666666690001,113.171
1498139262,33.4666666669,122.145
1498139264,-43.3333333331,111.105
1498139266,-0.133333333099927,124.789
1498139268,-26.5333333331,123.663
1498139270,-16.9333333331,127.383
1498139272,2.26666666690005,115.438
1498139274,55.0666666669,121.953
1498139276,57.4666666669,114.319
1498139278,-7.33333333309997,106.078
1498139280,11.8666666669001,104.121
1498139282,4.66666666690003,108.785
1498139284,-40.9333333331,111.702
1498139286,11.8666666669001,117.295
1498139288,19.0666666669,116.036
1498139290,83.8666666669001,116.661
1498139292,-43.3333333331,112.823
1498139294,7.06666666690001,117.235
1498139296,40.6666666669,121.321
1498139298,-0.133333333099927,115.929
1498139300,-4.93333333309999,116.835
1498139302,38.2666666669001,118.285
1498139304,43.0666666669,115.96
1498139306,26.2666666669001,115.352
1498139308,16.6666666669,119.003
1498139310,14.2666666669001,114.085
1498139312,-0.133333333099927,121.811
1498139314,-60.1333333330999,117.009
1498139316,23.8666666669001,107.835
1498139318,45.4666666669,110.258
1498139320,-7.33333333309997,112.419
1498139322,-14.5333333331,110.106
1498139324,86.2666666669001,117.555
1498139326,38.2666666669001,118.686
1498139328,26.2666666669001,120.985
1498139330,35.8666666669001,116.972
1498139332,71.8666666669001,111.056
1498139334,23.8666666669001,117.308
1498139336,45.4666666669,118.485
1498139338,40.6666666669,120.306
1498139340,9.46666666689998,122.721
1498139342,19.0666666669,112.608
1498139344,31.0666666669,115.078
1498139346,28.6666666669,112.622
1498139348,26.2666666669001,111.724
1498139350,43.0666666669,112.225
1498139352,33.4666666669,111.827
1498139354,16.6666666669,107.167
1498139356,9.46666666689998,108.429
1498139358,35.8666666669001,104.157
1498139360,19.0666666669,107.362
1498139362,59.8666666669001,108.565
1498139364,4.66666666690003,106.874
1498139366,38.2666666669001,119.384
1498139368,62.2666666669001,117.121
1498139370,50.2666666669001,112.616
1498139372,-0.133333333099927,108.872
1498139374,9.46666666689998,118.031
1498139376,11.8666666669001,119.523
1498139378,43.0666666669,119.426
1498139380,9.46666666689998,122.415
1498139382,21.4666666669,121.659
1498139384,38.2666666669001,119.947
1498139386,55.0666666669,125.545
1498139388,-2.53333333310002,113.565
1498139390,55.0666666669,119.259
1498139392,57.4666666669,117.418
1498139394,76.6666666669,115.555
1498139396,38.2666666669001,128.069
1498139398,43.0666666669,116.802
1498139400,52.6666666669,116.272
1498139402,-4.93333333309999,116.852
1498139404,21.4666666669,113.062
1498139406,31.0666666669,115.117
1498139408,81.4666666669,117.791
1498139410,21.4666666669,114.023
1498139412,76.6666666669,111.716
1498139414,38.2666666669001,112.501
1498139416,11.8666666669001,122.17
1498139418,59.8666666669001,121.901
1498139420,55.0666666669,125.229
1498139422,47.8666666669001,114.927
1498139424,-9.73333333309995,120.834
1498139426,74.2666666669001,122.33
1498139428,16.6666666669,117.599
1498139430,76.6666666669,111.083
1498139432,86.2666666669001,115.305
1498139434,103.0666666669,103.598
1498139436,45.4666666669,110.668
1498139438,-4.93333333309999,108.594
1498139440,76.6666666669,110.501
1498139442,26.2666666669001,116.06
1498139444,-2.53333333310002,112.091
1498139446,50.2666666669001,116.224
1498139448,38.2666666669001,108.743
1498139450,-12.1333333330999,112.427
1498139452,26.2666666669001,116.365
1498139454,23.8666666669001,122.055
1498139456,-9.73333333309995,124.872
1498139458,7.06666666690001,117.273
1498139460,45.4666666669,104.322
1498139462,11.8666666669001,118.133
1498139464,23.8666666669001,111.593
1498139466,23.8666666669001,107.656
1498139468,-9.73333333309995,115.215
1498139470,-12.1333333330999,107.779
1498139472,9.46666666689998,111.695
1498139474,14.2666666669001,111.951
1498139476,14.2666666669001,114.785
1498139478,-16.9333333331,117.035
1498139480,9.46666666689998,108.943
1498139482,71.8666666669001,120.417
1498139484,7.06666666690001,120.751
1498139486,14.2666666669001,116.275
1498139488,14.2666666669001,124.556
1498139490,52.6666666669,110.319
1498139492,7.06666666690001,113.84
1498139494,-52.9333333331,114.374
1498139496,19.0666666669,115.584
1498139498,100.6666666669,119.371
1498139500,43.0666666669,115.151
1498139502,4.66666666690003,111.515
1498139504,-48.1333333330999,104.499
1498139506,7.06666666690001,106.492
1498139508,79.0666666669,105.22
1498139510,50.2666666669001,102.107
1498139512,-26.5333333331,112.139
1498139514,7.06666666690001,106.197
1498139516,-4.93333333309999,104.041
1498139518,79.0666666669,100.595
1498139520,23.8666666669001,114.57
1498139522,28.6666666669,104.258
1498139524,52.6666666669,104.392
1498139526,-7.33333333309997,108.772
1498139528,40.6666666669,105.652
1498139530,52.6666666669,112.182
1498139532,79.0666666669,109.746
1498139534,35.8666666669001,107.729
1498139536,21.4666666669,110.509
1498139538,45.4666666669,106.112
1498139540,28.6666666669,108.216
1498139542,-0.133333333099927,108.984
1498139544,33.4666666669,121.514
1498139546,-0.133333333099927,123.065
1498139548,-7.33333333309997,117.003
1498139550,38.2666666669001,117.38
1498139552,28.6666666669,116.342
1498139554,35.8666666669001,117.129
