tag_number,delay,power_est
1495954222,446.5333333358,22.0178
1495954224,441.7333333358,23.3533
1495954226,403.3333333358,23.3456
1495954228,417.7333333358,25.7468
1495954230,434.5333333358,23.6922
1495954232,403.3333333358,24.4349
1495954234,424.9333333358,19.8322
1495954236,434.5333333358,22.15
1495954238,422.5333333358,22.3088
1495954240,379.3333333358,19.0824
1495954242,405.7333333358,17.3058
1495954244,453.7333333358,27.1531
1495954246,386.5333333358,26.1739
1495954248,398.5333333358,23.4741
1495954250,412.9333333358,21.2375
1495954252,415.3333333358,21.6728
1495954254,403.3333333358,23.932
1495954256,410.5333333358,25.5439
1495954258,446.5333333358,27.8431
1495954260,369.7333333358,26.4124
1495954262,410.5333333358,24.243
1495954264,424.9333333358,22.5559
1495954266,405.7333333358,20.0322
1495954268,422.5333333358,20.4969
1495954270,400.9333333358,22.755
1495954272,436.9333333358,23.8854
1495954274,376.9333333358,26.7713
1495954276,420.1333333358,25.5616
1495954278,420.1333333358,23.3816
1495954280,391.3333333358,21.5543
1495954282,429.7333333358,23.5494
1495954284,372.1333333358,25.6159
1495954286,398.5333333358,22.0445
1495954288,376.9333333358,24.7409
1495954290,408.1333333358,28.1437
1495954292,376.9333333358,28.6932
1495954294,374.5333333358,28.6294
1495954296,374.5333333358,21.7954
1495954298,360.1333333358,22.1936
1495954300,376.9333333358,23.6441
1495954302,391.3333333358,23.4453
1495954304,403.3333333358,23.295
1495954306,412.9333333358,22.1387
1495954308,357.7333333358,19.5608
1495954310,396.1333333358,21.1715
1495954312,398.5333333358,24.8404
1495954314,412.9333333358,20.9204
1495954316,400.9333333358,21.9905
1495954318,441.7333333358,17.4861
1495954320,398.5333333358,18.0325
1495954322,400.9333333358,19.6441
1495954324,415.3333333358,17.5053
1495954326,369.7333333358,21.2824
1495954328,398.5333333358,22.4945
1495954330,393.7333333358,20.2259
1495954332,405.7333333358,20.351
1495954334,362.5333333358,19.4135
1495954336,422.5333333358,18.0721
1495954338,446.5333333358,16.5626
1495954340,417.7333333358,15.68
1495954342,441.7333333358,19.6755
1495954344,384.1333333358,14.9798
1495954346,405.7333333358,13.6551
1495954348,376.9333333358,13.6877
1495954350,396.1333333358,13.6988
1495954352,420.1333333358,18.1249
1495954354,396.1333333358,16.9756
1495954356,400.9333333358,19.5414
1495954358,429.7333333358,19.0632
1495954360,417.7333333358,20.0431
1495954362,446.5333333358,16.9651
1495954364,499.3333333358,16.5753
1495954366,436.9333333358,16.2292
1495954368,422.5333333358,13.1485
1495954370,415.3333333358,17.313
1495954372,487.3333333358,16.7422
1495954374,468.1333333358,15.3358
1495954376,513.7333333358,16.9899
1495954378,480.1333333358,17.6903
1495954380,484.9333333358,19.7719
1495954382,544.9333333358,16.3372
1495954384,516.1333333358,17.5371
1495954386,518.5333333358,21.4602
1495954388,499.3333333358,12.7104
1495954390,549.7333333358,14.4128
1495954392,571.3333333358,17.561
1495954394,566.5333333358,15.1747
1495954396,578.5333333358,15.7672
1495954398,564.1333333358,18.4278
1495954400,556.9333333358,16.3543
1495954402,604.9333333358,20.055
1495954404,607.3333333358,20.5188
1495954406,602.5333333358,22.4633
1495954408,564.1333333358,17.1482
1495954410,597.7333333358,13.3436
1495954412,564.1333333358,14.4594
1495954414,556.9333333358,21.1819
1495954416,609.7333333358,18.8651
1495954418,547.3333333358,19.7152
1495954420,532.9333333358,22.3617
1495954422,537.7333333358,22.748
1495954424,554.5333333358,19.617
1495954426,525.7333333358,18.1987
1495954428,542.5333333358,14.4769
1495954430,523.3333333358,16.3826
1495954432,487.3333333358,14.3644
1495954434,561.7333333358,20.9867
1495954436,530.5333333358,22.4498
1495954438,532.9333333358,25.3464
1495954440,506.5333333358,23.7349
1495954442,532.9333333358,26.1574
1495954444,554.5333333358,25.026
1495954446,530.5333333358,26.0127
1495954448,508.9333333358,25.7085
1495954450,513.7333333358,24.4996
1495954452,547.3333333358,21.9885
1495954454,516.1333333358,25.5025
1495954456,552.1333333358,25.8892
1495954458,564.1333333358,24.9967
1495954460,578.5333333358,22.9212
1495954462,549.7333333358,23.124
1495954464,576.1333333358,20.7218
1495954466,525.7333333358,17.8109
1495954468,576.1333333358,19.6292
1495954470,549.7333333358,20.8015
1495954472,573.7333333358,15.6691
1495954474,583.3333333358,19.5764
1495954476,616.9333333358,14.9629
1495954478,542.5333333358,18.6799
1495954480,552.1333333358,19.8112
1495954482,559.3333333358,18.7221
1495954484,552.1333333358,18.5919
1495954486,547.3333333358,15.4191
1495954488,552.1333333358,17.5256
1495954490,535.3333333358,14.7813
1495954492,508.9333333358,19.4058
1495954494,470.5333333358,26.9809
1495954496,544.9333333358,20.0774
1495954498,552.1333333358,20.7122
1495954500,496.9333333358,21.3529
1495954502,544.9333333358,16.1392
1495954504,508.9333333358,20.932
1495954506,501.7333333358,17.299
1495954508,552.1333333358,21.1431
1495954510,549.7333333358,19.6883
1495954512,540.1333333358,19.1016
1495954514,499.3333333358,15.3981
1495954516,564.1333333358,19.2258
1495954518,542.5333333358,18.4041
1495954520,542.5333333358,18.0545
1495954522,590.5333333358,21.0225
1495954524,561.7333333358,21.891
1495954526,549.7333333358,19.8861
1495954530,566.5333333358,21.103
1495954532,511.3333333358,23.86
1495954534,607.3333333358,25.0869
1495954536,616.9333333358,25.5562
1495954538,578.5333333358,22.7979
1495954540,542.5333333358,21.0017
1495954542,561.7333333358,21.7145
1495954544,552.1333333358,19.2665
1495954546,552.1333333358,15.1812
1495954548,549.7333333358,16.1875
1495954550,559.3333333358,18.2105
1495954552,561.7333333358,25.4455
1495954554,549.7333333358,22.8319
1495954556,556.9333333358,20.3652
1495954558,518.5333333358,20.488
1495954560,535.3333333358,17.6338
1495954562,523.3333333358,17.5317
1495954564,530.5333333358,19.7602
1495954566,499.3333333358,18.5748
1495954568,518.5333333358,16.0372
1495954570,532.9333333358,17.8089
1495954572,494.5333333358,21.566
1495954574,530.5333333358,22.6226
1495954576,530.5333333358,17.6005
1495954578,487.3333333358,19.243
1495954580,506.5333333358,19.1644
1495954582,516.1333333358,20.4342
1495954584,518.5333333358,20.4093
1495954586,465.7333333358,20.6967
1495954588,523.3333333358,17.9647
1495954590,477.7333333358,20.1682
1495954592,458.5333333358,21.2752
1495954594,422.5333333358,19.557
1495954596,463.3333333358,20.5988
1495954598,417.7333333358,22.9403
1495954600,446.5333333358,23.0468
1495954602,441.7333333358,22.5601
1495954604,408.1333333358,21.0968
1495954606,494.5333333358,19.8763
1495954608,489.7333333358,21.4476
1495954610,535.3333333358,21.2814
1495954612,532.9333333358,21.659
1495954614,530.5333333358,15.2657
1495954616,564.1333333358,20.7776
1495954618,506.5333333358,16.7307
1495954620,566.5333333358,22.5347
1495954622,554.5333333358,20.7458
1495954624,540.1333333358,21.4727
1495954626,576.1333333358,19.1106
1495954628,528.1333333358,20.2912
1495954630,525.7333333358,24.0823
1495954632,549.7333333358,20.4616
1495954634,595.3333333358,21.1122
1495954636,549.7333333358,22.1775
1495954638,552.1333333358,22.4274
1495954640,535.3333333358,22.9778
1495954642,535.3333333358,23.036
1495954644,506.5333333358,23.1818
1495954646,499.3333333358,25.3763
1495954648,528.1333333358,16.081
1495954650,492.1333333358,22.1442
1495954652,451.3333333358,20.6231
1495954654,525.7333333358,17.7644
1495954656,417.7333333358,20.4412
1495954658,460.9333333358,17.1071
1495954660,468.1333333358,18.2567
1495954662,489.7333333358,19.1704
1495954664,420.1333333358,10.2268
1495954666,451.3333333358,12.9192
1495954668,542.5333333358,13.6921
1495954670,456.1333333358,10.6543
1495954672,492.1333333358,18.0722
1495954674,520.9333333358,20.3395
1495954676,535.3333333358,21.1978
1495954678,511.3333333358,18.2647
1495954680,540.1333333358,18.7773
1495954682,535.3333333358,23.331
1495954684,484.9333333358,23.2199
1495954686,530.5333333358,22.7668
1495954688,518.5333333358,23.3004
1495954690,532.9333333358,22.9423
1495954692,535.3333333358,20.3186
1495954694,520.9333333358,23.2439
1495954696,535.3333333358,19.1744
1495954698,544.9333333358,18.4367
1495954700,508.9333333358,17.1915
1495954702,547.3333333358,20.4017
1495954704,532.9333333358,18.3748
1495954706,566.5333333358,20.9368
1495954708,552.1333333358,24.5856
1495954710,568.9333333358,22.166
1495954712,547.3333333358,19.6886
1495954714,576.1333333358,21.5634
1495954716,561.7333333358,18.6351
1495954718,544.9333333358,20.5631
1495954720,513.7333333358,22.4423
1495954722,590.5333333358,18.3132
1495954724,523.3333333358,23.1049
1495954726,530.5333333358,22.3642
1495954728,528.1333333358,18.035
1495954730,597.7333333358,23.6154
1495954732,542.5333333358,18.8044
1495954734,525.7333333358,20.3845
1495954736,552.1333333358,23.4361
1495954738,532.9333333358,20.9727
1495954740,537.7333333358,20.5937
1495954742,520.9333333358,23.7441
1495954744,537.7333333358,20.1099
1495954746,520.9333333358,21.565
1495954748,487.3333333358,22.9136
1495954750,468.1333333358,21.9177
1495954752,484.9333333358,18.9162
1495954754,513.7333333358,21.4399
1495954756,444.1333333358,22.8876
1495954758,499.3333333358,21.997
1495954760,475.3333333358,21.2684
1495954762,494.5333333358,19.8794
1495954764,460.9333333358,19.599
1495954766,424.9333333358,14.7812
1495954768,436.9333333358,17.0698
1495954770,523.3333333358,13.8276
1495954772,477.7333333358,20.8154
1495954774,453.7333333358,21.8553
1495954776,468.1333333358,21.4616
1495954778,506.5333333358,22.1712
1495954780,482.5333333358,20.0551
1495954782,537.7333333358,16.2072
1495954784,566.5333333358,23.5695
1495954786,552.1333333358,22.909
1495954788,528.1333333358,18.2951
1495954790,590.5333333358,17.7849
1495954792,568.9333333358,17.2877
1495954794,547.3333333358,17.8288
1495954796,602.5333333358,24.7895
1495954798,604.9333333358,23.9053
1495954800,532.9333333358,19.7042
1495954802,530.5333333358,22.8414
1495954804,566.5333333358,24.1202
1495954806,532.9333333358,19.0273
1495954808,530.5333333358,20.8727
1495954810,552.1333333358,24.4639
1495954812,556.9333333358,25.0948
1495954814,544.9333333358,19.9251
1495954816,544.9333333358,18.6201
1495954818,580.9333333358,21.0937
1495954820,554.5333333358,23.9597
1495954822,552.1333333358,22.1545
1495954824,559.3333333358,24.1171
1495954826,602.5333333358,20.0631
1495954828,547.3333333358,20.4657
1495954830,516.1333333358,23.814
1495954832,552.1333333358,21.98
1495954834,583.3333333358,22.9917
1495954836,547.3333333358,24.0886
1495954838,547.3333333358,20.674
1495954840,542.5333333358,19.7099
1495954842,532.9333333358,22.297
1495954844,559.3333333358,25.1967
1495954846,576.1333333358,22.0781
1495954848,513.7333333358,23.7587
1495954850,561.7333333358,23.2963
1495954852,576.1333333358,22.2281
1495954854,604.9333333358,26.8756
1495954856,554.5333333358,24.2949
1495954858,554.5333333358,25.0252
1495954860,595.3333333358,24.9073
1495954862,597.7333333358,23.3695
1495954864,583.3333333358,21.5413
1495954866,592.9333333358,17.0241
1495954868,636.1333333358,19.3391
1495954870,602.5333333358,18.9772
1495954872,614.5333333358,23.8365
1495954874,564.1333333358,18.8649
1495954876,576.1333333358,21.0461
1495954878,609.7333333358,19.4622
1495954880,614.5333333358,20.4838
1495954882,585.7333333358,17.1671
1495954884,597.7333333358,19.7683
1495954886,614.5333333358,17.6335
1495954888,636.1333333358,18.0529
1495954890,559.3333333358,20.3335
1495954892,590.5333333358,21.4244
1495954894,585.7333333358,22.8387
1495954896,576.1333333358,20.8255
1495954898,561.7333333358,22.5149
1495954900,547.3333333358,20.5445
1495954902,535.3333333358,19.6129
1495954904,542.5333333358,16.9689
1495954906,552.1333333358,16.2404
1495954908,564.1333333358,11.9193
1495954910,561.7333333358,15.8517
1495954912,535.3333333358,17.2446
1495954914,573.7333333358,17.4585
1495954916,580.9333333358,16.5275
1495954918,600.1333333358,18.355
1495954920,564.1333333358,20.8179
1495954922,578.5333333358,15.6281
1495954924,588.1333333358,13.4921
1495954926,614.5333333358,14.761
1495954928,595.3333333358,16.6135
1495954930,612.1333333358,17.8676
1495954932,609.7333333358,16.3495
1495954934,552.1333333358,17.3354
1495954936,583.3333333358,16.2574
1495954938,609.7333333358,16.7348
1495954940,552.1333333358,21.4237
1495954942,592.9333333358,19.4181
1495954944,573.7333333358,20.9943
1495954946,564.1333333358,22.2095
1495954948,592.9333333358,21.6781
1495954950,595.3333333358,19.9187
1495954952,597.7333333358,15.0029
1495954954,607.3333333358,20.5183
1495954956,590.5333333358,23.8858
1495954958,590.5333333358,25.5934
1495954960,552.1333333358,17.7663
1495954962,559.3333333358,21.3431
1495954964,621.7333333358,22.3611
1495954968,595.3333333358,22.3811
1495954970,604.9333333358,21.4043
1495954972,640.9333333358,23.5602
1495954974,614.5333333358,19.4982
1495954976,604.9333333358,19.4951
1495954978,564.1333333358,16.5724
1495954980,600.1333333358,18.0247
1495954982,604.9333333358,20.2119
1495954984,561.7333333358,21.6969
1495954986,576.1333333358,17.958
1495954988,624.1333333358,20.3186
1495954990,624.1333333358,18.9638
1495954992,604.9333333358,20.1092
1495954994,552.1333333358,18.1321
1495954996,576.1333333358,17.8127
1495954998,540.1333333358,22.3761
1495955000,559.3333333358,16.9378
1495955002,583.3333333358,15.2739
1495955004,566.5333333358,15.267
1495955006,559.3333333358,15.9668
1495955008,576.1333333358,20.3628
1495955010,549.7333333358,24.1569
1495955012,554.5333333358,19.7714
1495955014,549.7333333358,21.5794
1495955016,556.9333333358,22.8262
1495955018,549.7333333358,22.0101
1495955020,547.3333333358,18.5236
1495955022,518.5333333358,21.0078
1495955024,556.9333333358,18.8112
1495955026,537.7333333358,16.5978
1495955028,580.9333333358,21.1479
1495955030,619.3333333358,18.7229
1495955032,614.5333333358,19.0604
1495955034,564.1333333358,15.7648
1495955036,535.3333333358,18.7027
1495955038,602.5333333358,18.4805
1495955040,602.5333333358,19.147
1495955042,597.7333333358,21.7034
1495955044,626.5333333358,18.9581
1495955046,592.9333333358,12.3772
1495955048,571.3333333358,16.6832
1495955050,612.1333333358,15.4365
1495955052,636.1333333358,16.6332
1495955054,604.9333333358,14.514
1495955056,636.1333333358,15.3043
1495955058,624.1333333358,16.4092
1495955060,636.1333333358,18.3879
1495955062,614.5333333358,18.6523
1495955064,624.1333333358,15.6388
1495955066,616.9333333358,18.0448
1495955068,624.1333333358,16.0613
1495955070,597.7333333358,20.8552
1495955072,609.7333333358,18.7093
1495955074,602.5333333358,13.7242
1495955076,549.7333333358,15.3428
1495955078,600.1333333358,18.5288
1495955080,607.3333333358,14.1938
1495955082,552.1333333358,16.1881
1495955084,528.1333333358,14.1305
1495955086,540.1333333358,22.8571
1495955088,525.7333333358,18.8268
1495955090,547.3333333358,17.2946
1495955092,528.1333333358,16.7184
1495955094,499.3333333358,18.0383
1495955096,530.5333333358,20.2748
1495955098,537.7333333358,20.7958
1495955100,508.9333333358,19.7258
1495955102,542.5333333358,16.1393
1495955104,528.1333333358,19.3567
1495955106,544.9333333358,18.9812
1495955108,559.3333333358,16.1635
1495955110,523.3333333358,16.5575
1495955112,535.3333333358,16.3667
1495955114,532.9333333358,13.9387
1495955116,559.3333333358,15.4671
1495955118,561.7333333358,21.2009
1495955120,528.1333333358,17.7579
1495955122,520.9333333358,15.428
1495955124,506.5333333358,18.5391
1495955126,511.3333333358,13.3466
1495955128,422.5333333358,10.8891
1495955130,456.1333333358,12.961
1495955132,480.1333333358,18.222
1495955134,446.5333333358,21.4589
1495955136,410.5333333358,17.0795
1495955138,460.9333333358,18.1015
1495955140,412.9333333358,17.2529
1495955142,393.7333333358,21.8535
1495955144,386.5333333358,15.8152
1495955146,386.5333333358,19.2038
1495955148,374.5333333358,20.2327
1495955150,345.7333333358,24.8299
1495955152,367.3333333358,21.2277
1495955154,367.3333333358,21.7607
1495955156,386.5333333358,21.4396
1495955158,391.3333333358,20.2638
1495955160,372.1333333358,20.1232
1495955162,362.5333333358,16.5841
1495955164,379.3333333358,23.1374
1495955166,427.3333333358,18.0144
1495955168,376.9333333358,13.4915
1495955170,396.1333333358,16.4101
1495955172,410.5333333358,25.8569
1495955174,410.5333333358,22.6449
1495955176,410.5333333358,16.5333
1495955178,417.7333333358,16.998
1495955180,398.5333333358,17.6676
1495955182,420.1333333358,16.8532
1495955184,444.1333333358,21.6132
1495955186,501.7333333358,19.4133
1495955188,448.9333333358,22.3564
1495955190,532.9333333358,19.0538
1495955192,564.1333333358,23.4402
1495955194,592.9333333358,24.0949
1495955196,559.3333333358,17.3785
1495955198,556.9333333358,21.0387
1495955200,590.5333333358,18.5186
1495955202,597.7333333358,20.6915
1495955204,576.1333333358,21.4367
1495955206,628.9333333358,19.2643
1495955208,612.1333333358,16.5676
1495955210,619.3333333358,16.0006
1495955212,645.7333333358,17.2582
1495955214,609.7333333358,16.947
1495955216,631.3333333358,22.4266
1495955218,595.3333333358,19.0596
1495955220,628.9333333358,19.7513
1495955222,636.1333333358,19.7105
1495955224,612.1333333358,20.8459
1495955226,602.5333333358,20.1419
1495955228,600.1333333358,21.4474
1495955230,614.5333333358,18.0565
1495955232,612.1333333358,20.2296
1495955234,640.9333333358,18.477
1495955236,621.7333333358,19.1404
1495955238,616.9333333358,14.3374
1495955240,609.7333333358,18.1574
1495955242,568.9333333358,18.697
1495955244,530.5333333358,17.3707
1495955246,554.5333333358,18.254
1495955248,580.9333333358,20.8734
1495955250,537.7333333358,23.7798
1495955252,499.3333333358,22.1723
1495955254,513.7333333358,21.4113
1495955256,525.7333333358,23.7097
1495955258,520.9333333358,23.3478
1495955260,456.1333333358,24.2538
1495955262,470.5333333358,20.712
1495955264,453.7333333358,22.0378
1495955266,436.9333333358,19.3465
1495955268,396.1333333358,21.4767
1495955270,465.7333333358,20.8886
1495955272,396.1333333358,23.634
1495955274,444.1333333358,21.3029
1495955276,441.7333333358,21.9327
1495955278,494.5333333358,23.785
1495955280,475.3333333358,20.3676
1495955282,458.5333333358,18.0152
1495955284,523.3333333358,14.1312
1495955286,436.9333333358,17.4674
1495955288,432.1333333358,16.2216
1495955290,480.1333333358,22.4061
1495955292,458.5333333358,16.5787
1495955294,434.5333333358,22.6293
1495955296,444.1333333358,20.1024
1495955298,446.5333333358,22.2823
1495955300,444.1333333358,22.5714
1495955302,408.1333333358,19.4852
1495955304,448.9333333358,22.6847
1495955306,427.3333333358,21.489
1495955308,400.9333333358,19.8336
1495955310,477.7333333358,21.1848
1495955312,463.3333333358,22.3895
1495955314,492.1333333358,23.0644
1495955316,444.1333333358,23.3662
1495955318,504.1333333358,19.5088
1495955320,456.1333333358,22.975
1495955322,441.7333333358,17.3219
1495955324,446.5333333358,23.194
1495955326,506.5333333358,24.0769
1495955328,453.7333333358,19.9401
1495955330,518.5333333358,20.1036
1495955332,513.7333333358,24.287
1495955334,513.7333333358,21.2107
1495955336,508.9333333358,18.4368
1495955338,535.3333333358,18.5646
1495955340,619.3333333358,20.8193
1495955342,530.5333333358,20.9813
1495955344,544.9333333358,20.5673
1495955346,528.1333333358,20.2517
1495955348,523.3333333358,21.6212
1495955350,511.3333333358,21.671
1495955352,508.9333333358,21.058
1495955354,489.7333333358,21.4393
1495955356,484.9333333358,22.266
1495955358,523.3333333358,18.7246
1495955360,516.1333333358,21.436
1495955362,513.7333333358,21.9244
1495955364,494.5333333358,20.3082
1495955366,520.9333333358,23.8284
1495955368,566.5333333358,22.0543
1495955370,549.7333333358,15.3229
1495955372,578.5333333358,19.2679
1495955374,609.7333333358,14.4535
1495955376,595.3333333358,24.0372
1495955378,624.1333333358,20.1249
1495955380,643.3333333358,16.2465
1495955382,573.7333333358,19.1345
1495955384,552.1333333358,20.2791
1495955386,602.5333333358,18.8572
1495955388,537.7333333358,17.6837
1495955390,528.1333333358,18.2677
1495955392,518.5333333358,20.3463
1495955394,540.1333333358,19.52
1495955396,523.3333333358,19.6862
1495955398,484.9333333358,20.0617
1495955400,439.3333333358,21.1127
1495955402,518.5333333358,21.0864
1495955404,523.3333333358,17.766
1495955406,451.3333333358,17.7352
1495955408,494.5333333358,17.5919
1495955410,470.5333333358,19.5906
1495955412,456.1333333358,20.0214
1495955414,420.1333333358,20.3077
1495955416,441.7333333358,18.6071
1495955418,410.5333333358,19.9133
1495955420,420.1333333358,18.1642
1495955422,458.5333333358,22.1375
1495955424,446.5333333358,18.6153
1495955426,391.3333333358,17.3844
1495955428,396.1333333358,19.3085
1495955430,384.1333333358,20.4608
1495955432,374.5333333358,23.0131
1495955434,398.5333333358,19.5749
1495955436,420.1333333358,18.92
1495955438,396.1333333358,17.5122
1495955440,417.7333333358,21.1514
1495955442,492.1333333358,18.7581
1495955444,494.5333333358,17.2393
1495955446,477.7333333358,17.4469
1495955448,456.1333333358,18.2649
1495955450,532.9333333358,17.7714
1495955452,516.1333333358,17.2647
1495955454,487.3333333358,19.0457
1495955456,585.7333333358,17.2326
1495955458,602.5333333358,18.1437
1495955460,621.7333333358,19.8316
1495955462,573.7333333358,18.1093
1495955464,561.7333333358,19.9745
1495955466,595.3333333358,19.4969
1495955468,566.5333333358,17.6755
1495955470,552.1333333358,19.2706
1495955472,561.7333333358,14.8932
1495955474,532.9333333358,18.5431
1495955476,427.3333333358,20.3249
1495955478,520.9333333358,21.1551
1495955480,523.3333333358,17.5744
1495955482,513.7333333358,17.9639
1495955484,547.3333333358,18.4311
1495955486,456.1333333358,18.966
1495955488,530.5333333358,14.6395
1495955490,489.7333333358,13.4852
1495955492,537.7333333358,15.2978
1495955494,561.7333333358,15.0055
1495955496,561.7333333358,15.7983
1495955498,556.9333333358,14.3178
1495955500,532.9333333358,14.8249
1495955502,573.7333333358,12.7445
1495955504,542.5333333358,14.8827
1495955506,568.9333333358,13.1777
1495955508,547.3333333358,16.7014
1495955510,552.1333333358,14.8062
1495955512,568.9333333358,19.3295
1495955514,604.9333333358,14.2448
1495955516,650.5333333358,17.834
1495955518,633.7333333358,18.5563
1495955520,626.5333333358,15.6099
1495955522,628.9333333358,16.4285
1495955524,631.3333333358,10.677
1495955526,600.1333333358,5.57873
1495955528,621.7333333358,16.4681
1495955530,597.7333333358,13.7869
1495955532,556.9333333358,15.8177
1495955534,547.3333333358,15.9364
1495955536,612.1333333358,14.8103
1495955538,549.7333333358,14.8748
1495955540,547.3333333358,11.6171
1495955542,535.3333333358,16.3531
1495955544,547.3333333358,17.3687
1495955546,532.9333333358,17.5024
1495955548,487.3333333358,18.066
1495955550,484.9333333358,18.8171
1495955552,542.5333333358,20.3267
1495955554,530.5333333358,21.9937
1495955556,518.5333333358,20.6141
1495955558,525.7333333358,23.0781
1495955560,511.3333333358,26.4784
1495955562,525.7333333358,22.1252
1495955564,439.3333333358,14.8244
1495955566,487.3333333358,21.2502
1495955568,458.5333333358,20.4511
1495955570,405.7333333358,20.9727
1495955572,472.9333333358,17.561
1495955574,408.1333333358,18.4178
1495955576,448.9333333358,15.4281
1495955578,283.3333333358,17.8872
1495955580,360.1333333358,19.5176
1495955582,283.3333333358,18.7245
1495955584,352.9333333358,16.3224
1495955586,304.9333333358,16.5878
1495955588,360.1333333358,16.4701
1495955590,372.1333333358,14.7128
1495955592,372.1333333358,7.44557
1495955594,352.9333333358,13.4632
1495955596,345.7333333358,19.4069
1495955598,309.7333333358,19.4904
1495955600,372.1333333358,21.5098
1495955602,362.5333333358,18.0239
1495955604,369.7333333358,15.748
1495955606,331.3333333358,12.34
1495955608,369.7333333358,18.8378
1495955610,374.5333333358,14.39
1495955612,369.7333333358,20.9902
1495955614,345.7333333358,20.9424
1495955616,379.3333333358,17.3539
1495955618,350.5333333358,18.1289
1495955620,338.5333333358,18.4565
1495955622,364.9333333358,18.0221
1495955624,384.1333333358,19.3218
1495955626,374.5333333358,21.9162
1495955628,463.3333333358,19.0645
1495955630,463.3333333358,14.2214
1495955632,436.9333333358,14.9821
1495955634,408.1333333358,15.5084
1495955636,451.3333333358,12.457
1495955638,403.3333333358,17.7908
1495955640,415.3333333358,20.966
1495955642,403.3333333358,18.4316
1495955644,412.9333333358,18.6611
1495955646,374.5333333358,18.9664
1495955648,456.1333333358,18.8643
1495955650,420.1333333358,17.1784
1495955652,496.9333333358,20.8796
1495955654,369.7333333358,22.5404
1495955656,511.3333333358,19.2665
1495955658,465.7333333358,15.6456
1495955660,528.1333333358,16.4547
1495955662,501.7333333358,17.2313
1495955664,504.1333333358,17.5854
1495955666,472.9333333358,18.0277
1495955668,506.5333333358,19.1624
1495955670,504.1333333358,20.0618
1495955672,441.7333333358,17.2212
1495955674,475.3333333358,21.594
1495955676,410.5333333358,25.6508
1495955678,405.7333333358,21.6823
1495955680,393.7333333358,22.5216
1495955682,345.7333333358,24.3969
1495955684,372.1333333358,24.2727
1495955686,424.9333333358,22.5439
1495955688,422.5333333358,20.0082
1495955690,388.9333333358,22.4277
1495955692,381.7333333358,20.5315
1495955694,360.1333333358,20.0603
1495955696,355.3333333358,17.4898
1495955698,381.7333333358,18.6907
1495955700,376.9333333358,22.3772
1495955702,388.9333333358,17.7574
1495955704,393.7333333358,22.4803
1495955706,400.9333333358,21.0575
1495955708,417.7333333358,21.8451
1495955710,417.7333333358,22.4777
1495955712,405.7333333358,22.7478
1495955714,436.9333333358,25.1578
1495955716,506.5333333358,24.6808
1495955718,511.3333333358,19.9935
1495955720,554.5333333358,21.5871
1495955722,523.3333333358,21.0459
1495955724,532.9333333358,18.1503
1495955726,496.9333333358,24.1923
1495955728,537.7333333358,25.3858
1495955730,537.7333333358,27.8459
1495955732,523.3333333358,26.6246
1495955734,446.5333333358,23.0384
1495955736,504.1333333358,20.6209
1495955738,477.7333333358,20.1874
1495955740,441.7333333358,22.1434
1495955742,482.5333333358,25.3154
1495955744,520.9333333358,24.2021
1495955746,532.9333333358,22.1365
1495955748,453.7333333358,23.5838
1495955750,465.7333333358,27.3407
1495955752,511.3333333358,27.5495
1495955754,441.7333333358,26.7463
1495955756,403.3333333358,24.5607
1495955758,463.3333333358,23.339
1495955760,458.5333333358,22.5672
1495955762,434.5333333358,23.5622
1495955764,427.3333333358,21.6798
1495955766,415.3333333358,21.3215
1495955768,456.1333333358,24.1946
1495955770,429.7333333358,20.0521
1495955772,420.1333333358,22.265
1495955774,396.1333333358,22.0892
1495955776,412.9333333358,19.6544
1495955778,388.9333333358,21.139
1495955780,398.5333333358,24.254
1495955782,417.7333333358,19.75
1495955784,396.1333333358,23.1618
1495955786,396.1333333358,20.475
1495955788,403.3333333358,21.9464
1495955790,381.7333333358,17.1362
1495955792,369.7333333358,19.626
1495955794,304.9333333358,18.0685
1495955796,352.9333333358,18.684
1495955798,386.5333333358,19.8569
1495955800,367.3333333358,16.1939
1495955802,297.7333333358,19.3794
1495955804,338.5333333358,18.2545
1495955806,360.1333333358,17.5943
1495955808,340.9333333358,20.7073
1495955810,295.3333333358,23.8611
1495955812,316.9333333358,20.9903
1495955814,309.7333333358,17.9468
1495955816,280.9333333358,20.1894
1495955818,290.5333333358,22.5807
1495955820,302.5333333358,23.973
1495955822,307.3333333358,22.2229
1495955824,292.9333333358,20.6151
1495955826,355.3333333358,21.7765
1495955828,326.5333333358,23.9396
1495955830,295.3333333358,23.594
1495955832,285.7333333358,22.5187
1495955834,268.9333333358,21.5783
1495955836,285.7333333358,23.2012
1495955838,230.5333333358,24.3033
1495955840,290.5333333358,21.3373
1495955842,285.7333333358,24.4792
1495955844,300.1333333358,24.9493
1495955846,237.7333333358,23.9225
1495955848,309.7333333358,23.1121
1495955850,364.9333333358,28.0535
1495955852,357.7333333358,23.6027
1495955854,295.3333333358,25.0538
1495955856,364.9333333358,25.7939
1495955858,280.9333333358,24.9438
1495955860,355.3333333358,23.1584
1495955862,352.9333333358,27.3801
1495955864,324.1333333358,21.1072
1495955866,331.3333333358,15.7331
1495955868,312.1333333358,21.1108
1495955870,319.3333333358,19.7464
1495955872,324.1333333358,21.8972
1495955874,352.9333333358,21.7565
1495955876,324.1333333358,21.0578
1495955878,367.3333333358,26.6954
1495955880,345.7333333358,21.7913
1495955882,307.3333333358,25.1814
1495955884,319.3333333358,25.6139
1495955886,266.5333333358,25.1192
1495955888,312.1333333358,28.0202
1495955890,295.3333333358,20.1177
1495955892,297.7333333358,20.2347
1495955894,278.5333333358,21.6967
1495955896,259.3333333358,21.7952
1495955898,300.1333333358,21.8516
1495955900,295.3333333358,21.9144
1495955902,292.9333333358,22.9935
1495955904,297.7333333358,25.1327
1495955906,321.7333333358,18.8543
1495955908,268.9333333358,19.5074
1495955910,220.9333333358,22.5833
1495955912,283.3333333358,23.8594
1495955914,290.5333333358,24.8177
1495955916,244.9333333358,26.9428
1495955918,278.5333333358,26.2971
1495955920,319.3333333358,26.7893
1495955922,244.9333333358,25.3758
1495955924,278.5333333358,22.4506
1495955926,295.3333333358,17.1779
1495955928,333.7333333358,24.8704
1495955930,290.5333333358,23.7801
1495955932,264.1333333358,19.398
1495955934,285.7333333358,22.3141
1495955936,254.5333333358,24.9186
1495955938,223.3333333358,18.5661
1495955940,266.5333333358,22.6984
1495955942,261.7333333358,18.8925
1495955944,259.3333333358,17.9773
1495955946,271.3333333358,19.4797
1495955948,220.9333333358,21.0271
1495955950,213.7333333358,22.7178
1495955952,213.7333333358,20.9915
1495955954,288.1333333358,22.5049
1495955956,297.7333333358,22.2472
1495955958,247.3333333358,22.3449
1495955960,276.1333333358,22.8128
1495955962,283.3333333358,21.4781
1495955964,292.9333333358,22.0259
1495955966,271.3333333358,20.3807
1495955968,273.7333333358,23.2749
1495955970,242.5333333358,18.5892
1495955972,266.5333333358,18.6365
1495955974,237.7333333358,22.7556
1495955976,271.3333333358,20.3443
1495955978,216.1333333358,24.4361
1495955980,312.1333333358,20.4447
1495955982,297.7333333358,22.1059
1495955984,271.3333333358,21.0292
1495955986,328.9333333358,21.2522
1495955988,316.9333333358,22.0108
1495955990,319.3333333358,20.9253
1495955992,345.7333333358,20.1045
1495955994,314.5333333358,20.4944
1495955996,302.5333333358,21.968
1495955998,288.1333333358,18.2479
1495956000,278.5333333358,23.3787
1495956002,280.9333333358,24.0524
1495956004,295.3333333358,23.0293
1495956006,285.7333333358,25.1249
1495956008,331.3333333358,25.079
1495956010,280.9333333358,21.0836
1495956012,283.3333333358,24.365
1495956014,348.1333333358,26.259
1495956016,352.9333333358,24.5799
1495956018,309.7333333358,25.2936
1495956020,367.3333333358,25.0912
1495956022,374.5333333358,25.4154
1495956024,357.7333333358,27.1115
1495956026,357.7333333358,27.4975
1495956028,304.9333333358,26.7829
1495956030,336.1333333358,25.6728
1495956032,355.3333333358,26.7149
1495956034,350.5333333358,21.6751
1495956036,355.3333333358,24.2282
1495956038,360.1333333358,22.6424
1495956040,309.7333333358,25.8411
1495956042,343.3333333358,23.1164
1495956044,304.9333333358,26.1014
1495956046,331.3333333358,20.8925
1495956048,352.9333333358,22.6786
1495956050,307.3333333358,20.2277
1495956052,326.5333333358,17.8854
1495956054,328.9333333358,19.4736
1495956056,355.3333333358,24.0474
1495956058,362.5333333358,28.0645
1495956060,324.1333333358,20.29
1495956062,352.9333333358,19.9177
1495956064,367.3333333358,25.4416
1495956066,348.1333333358,23.0083
1495956068,326.5333333358,24.0599
1495956070,350.5333333358,20.8848
1495956072,328.9333333358,19.519
1495956074,288.1333333358,22.9766
1495956076,345.7333333358,25.9802
1495956078,288.1333333358,26.9142
1495956080,292.9333333358,26.3019
1495956082,324.1333333358,23.8021
1495956084,290.5333333358,26.9524
1495956086,240.1333333358,21.1913
1495956088,247.3333333358,18.222
1495956090,280.9333333358,22.4193
1495956092,261.7333333358,20.2967
1495956094,252.1333333358,17.9338
1495956096,300.1333333358,21.3654
1495956098,283.3333333358,21.0066
1495956100,266.5333333358,26.6113
1495956102,295.3333333358,22.9431
1495956104,312.1333333358,21.1688
1495956106,288.1333333358,20.0801
1495956108,278.5333333358,21.0872
1495956110,223.3333333358,22.3439
1495956112,276.1333333358,22.3049
1495956114,261.7333333358,19.4958
1495956116,304.9333333358,18.809
1495956118,307.3333333358,20.0521
1495956120,280.9333333358,22.1657
1495956122,278.5333333358,18.2592
1495956124,292.9333333358,23.0643
1495956126,259.3333333358,23.2238
1495956128,283.3333333358,23.19
1495956130,285.7333333358,23.4876
1495956132,300.1333333358,23.101
1495956134,235.3333333358,22.6012
1495956136,278.5333333358,23.6305
1495956138,357.7333333358,22.8484
1495956140,304.9333333358,22.2134
1495956142,256.9333333358,25.4402
1495956144,316.9333333358,22.4135
1495956146,278.5333333358,25.8661
1495956148,273.7333333358,24.8619
1495956150,302.5333333358,22.8721
1495956152,316.9333333358,20.9793
1495956154,314.5333333358,24.3038
1495956156,336.1333333358,25.3971
1495956158,288.1333333358,22.265
1495956160,220.9333333358,26.386
1495956162,283.3333333358,25.4043
1495956164,292.9333333358,23.8025
1495956166,290.5333333358,23.7891
1495956168,290.5333333358,25.9478
1495956170,312.1333333358,28.7597
1495956172,302.5333333358,26.6926
1495956174,304.9333333358,24.5426
1495956176,249.7333333358,22.8022
1495956178,297.7333333358,21.3139
1495956180,292.9333333358,22.0759
1495956182,283.3333333358,16.9512
1495956184,304.9333333358,22.0548
1495956186,309.7333333358,17.8867
1495956188,292.9333333358,18.2507
1495956190,273.7333333358,17.9183
1495956192,307.3333333358,21.0161
1495956194,266.5333333358,23.9852
1495956196,290.5333333358,20.923
1495956198,307.3333333358,21.5773
1495956200,314.5333333358,16.7052
1495956202,276.1333333358,21.6267
1495956204,273.7333333358,20.9639
1495956206,355.3333333358,23.956
1495956208,278.5333333358,15.0495
1495956210,271.3333333358,17.3572
1495956212,300.1333333358,21.105
1495956214,295.3333333358,19.4605
1495956216,237.7333333358,19.5916
1495956218,280.9333333358,20.284
1495956220,288.1333333358,20.4385
1495956222,259.3333333358,18.7131
1495956224,218.5333333358,18.2969
1495956226,338.5333333358,19.9609
1495956228,309.7333333358,22.4497
1495956230,237.7333333358,24.1144
1495956232,237.7333333358,22.7722
1495956234,235.3333333358,21.8671
1495956236,297.7333333358,24.264
1495956238,290.5333333358,21.4416
1495956240,300.1333333358,20.2001
1495956242,290.5333333358,24.5843
1495956244,230.5333333358,24.5278
1495956246,261.7333333358,21.9965
1495956248,316.9333333358,17.3614
1495956250,268.9333333358,16.1893
1495956252,292.9333333358,21.5164
1495956254,321.7333333358,22.5317
1495956256,271.3333333358,23.8738
1495956258,266.5333333358,23.4838
1495956260,259.3333333358,23.6232
1495956262,228.1333333358,18.3411
1495956264,196.9333333358,20.1922
1495956266,276.1333333358,19.104
1495956268,292.9333333358,21.9241
1495956270,273.7333333358,23.7102
1495956272,240.1333333358,25.5409
1495956274,247.3333333358,22.4418
1495956276,242.5333333358,22.1426
1495956278,273.7333333358,20.0672
1495956280,271.3333333358,19.8198
1495956282,220.9333333358,14.2122
1495956284,273.7333333358,17.4012
1495956286,302.5333333358,14.949
1495956288,300.1333333358,18.6671
1495956290,326.5333333358,16.3237
1495956292,381.7333333358,19.8342
1495956294,340.9333333358,18.0015
1495956296,307.3333333358,19.23
1495956298,357.7333333358,18.2461
1495956300,372.1333333358,18.2017
1495956302,362.5333333358,18.4799
1495956304,360.1333333358,20.2497
1495956306,326.5333333358,19.619
1495956308,283.3333333358,15.4761
1495956310,280.9333333358,19.7858
1495956312,350.5333333358,18.8739
1495956314,307.3333333358,19.1921
1495956316,295.3333333358,18.6389
1495956318,336.1333333358,17.1624
1495956320,295.3333333358,16.6913
1495956322,268.9333333358,18.474
1495956324,304.9333333358,16.2354
1495956326,309.7333333358,14.3553
1495956328,350.5333333358,18.6807
1495956330,324.1333333358,21.7194
1495956332,316.9333333358,19.2998
1495956334,273.7333333358,22.7828
1495956336,254.5333333358,20.7838
1495956338,314.5333333358,21.0884
1495956340,307.3333333358,21.5798
1495956342,314.5333333358,22.7249
1495956344,302.5333333358,22.4144
1495956346,297.7333333358,19.0994
1495956348,343.3333333358,20.1619
1495956350,304.9333333358,17.3005
1495956352,331.3333333358,19.0697
1495956354,312.1333333358,20.2897
1495956356,338.5333333358,23.2124
1495956358,288.1333333358,15.7153
1495956360,333.7333333358,17.2893
1495956362,290.5333333358,17.8742
1495956364,304.9333333358,15.1222
1495956366,312.1333333358,13.3624
1495956368,247.3333333358,14.3688
1495956370,300.1333333358,17.9477
1495956372,268.9333333358,16.3336
1495956374,309.7333333358,19.9347
1495956376,247.3333333358,19.8472
1495956378,285.7333333358,20.8575
1495956380,309.7333333358,19.7211
1495956382,300.1333333358,25.0772
1495956384,295.3333333358,17.0874
1495956386,295.3333333358,13.6812
1495956390,290.5333333358,18.2977
1495956392,357.7333333358,21.0515
1495956394,333.7333333358,19.1699
1495956396,230.5333333358,18.3665
1495956398,280.9333333358,17.8519
1495956400,364.9333333358,14.3047
1495956402,312.1333333358,17.8468
1495956404,307.3333333358,19.0609
1495956406,302.5333333358,18.0436
1495956408,343.3333333358,22.0698
1495956410,261.7333333358,22.0431
1495956412,288.1333333358,19.4699
1495956414,280.9333333358,21.9887
1495956416,271.3333333358,20.0884
1495956418,292.9333333358,20.2782
1495956420,283.3333333358,22.5404
1495956422,312.1333333358,20.3666
1495956424,312.1333333358,21.5376
1495956426,307.3333333358,23.107
1495956428,271.3333333358,21.0685
1495956430,247.3333333358,17.5083
1495956432,266.5333333358,19.8123
1495956434,266.5333333358,18.2077
1495956436,278.5333333358,21.04
1495956438,271.3333333358,20.2268
1495956440,290.5333333358,20.2739
1495956442,237.7333333358,21.7302
1495956444,302.5333333358,22.7849
1495956446,374.5333333358,19.5635
1495956448,273.7333333358,17.8688
1495956450,273.7333333358,17.5327
1495956452,307.3333333358,18.7334
1495956454,247.3333333358,16.7705
1495956456,273.7333333358,17.0835
1495956458,271.3333333358,20.4851
1495956460,285.7333333358,21.2125
1495956462,271.3333333358,21.3707
1495956464,295.3333333358,16.9413
1495956466,285.7333333358,20.2757
1495956468,280.9333333358,19.2385
1495956470,295.3333333358,18.9677
1495956472,345.7333333358,17.7873
1495956474,297.7333333358,18.7499
1495956476,285.7333333358,18.4647
1495956478,319.3333333358,22.7928
1495956480,357.7333333358,21.1125
1495956482,278.5333333358,17.8904
1495956484,374.5333333358,22.6616
1495956486,343.3333333358,23.9888
1495956488,280.9333333358,21.731
1495956490,319.3333333358,21.2289
1495956492,348.1333333358,20.2246
1495956494,292.9333333358,18.908
1495956496,285.7333333358,23.2066
1495956498,336.1333333358,21.036
1495956500,331.3333333358,26.4845
1495956502,297.7333333358,24.9721
1495956504,321.7333333358,21.9045
1495956506,304.9333333358,24.1559
1495956508,302.5333333358,24.3232
1495956510,345.7333333358,20.3142
1495956512,352.9333333358,26.0685
1495956514,307.3333333358,21.1559
1495956516,340.9333333358,24.9456
1495956518,357.7333333358,19.6462
1495956520,348.1333333358,25.4106
1495956522,304.9333333358,22.1706
1495956524,343.3333333358,19.566
1495956526,381.7333333358,20.3202
1495956528,314.5333333358,21.8909
1495956530,340.9333333358,21.9803
1495956532,307.3333333358,21.3457
1495956534,324.1333333358,23.0614
1495956536,309.7333333358,26.502
1495956538,324.1333333358,19.5468
1495956540,372.1333333358,22.9771
1495956542,350.5333333358,21.0327
1495956544,331.3333333358,21.5762
1495956546,348.1333333358,24.4353
1495956548,364.9333333358,19.4194
1495956550,288.1333333358,28.0108
1495956552,319.3333333358,24.3216
1495956554,321.7333333358,22.6114
1495956556,379.3333333358,25.199
1495956558,357.7333333358,23.9345
1495956560,340.9333333358,20.4144
1495956562,326.5333333358,21.1337
1495956564,343.3333333358,25.8947
1495956566,312.1333333358,18.6715
1495956568,369.7333333358,19.8122
1495956570,350.5333333358,23.2366
1495956572,331.3333333358,23.9928
1495956574,338.5333333358,20.0946
1495956576,307.3333333358,21.2869
1495956578,369.7333333358,21.6808
1495956580,360.1333333358,18.0004
1495956582,304.9333333358,22.0616
1495956584,345.7333333358,19.7177
1495956586,331.3333333358,20.8813
1495956588,360.1333333358,24.1769
1495956590,326.5333333358,25.531
1495956592,316.9333333358,20.2645
1495956594,319.3333333358,18.0349
1495956596,336.1333333358,20.3192
1495956598,316.9333333358,21.2606
1495956600,355.3333333358,19.1785
1495956602,292.9333333358,15.6034
1495956604,259.3333333358,17.7079
1495956606,357.7333333358,19.1826
1495956608,338.5333333358,14.0091
1495956610,302.5333333358,14.2406
1495956612,316.9333333358,15.0557
1495956614,326.5333333358,17.2087
1495956616,343.3333333358,18.9723
1495956618,304.9333333358,18.2145
1495956620,295.3333333358,20.037
1495956622,400.9333333358,18.8034
1495956624,355.3333333358,21.1874
1495956626,300.1333333358,19.2873
1495956628,360.1333333358,18.9628
1495956630,352.9333333358,19.9212
1495956632,290.5333333358,20.0925
1495956634,321.7333333358,19.1606
1495956636,321.7333333358,21.1153
1495956638,302.5333333358,21.2386
1495956640,292.9333333358,19.9871
1495956642,300.1333333358,14.4132
1495956644,357.7333333358,13.9782
1495956646,357.7333333358,16.1256
1495956648,304.9333333358,18.948
1495956650,316.9333333358,17.294
1495956652,333.7333333358,18.8242
1495956654,285.7333333358,20.3096
1495956656,302.5333333358,22.0793
1495956658,300.1333333358,19.1088
1495956660,307.3333333358,19.0883
1495956662,331.3333333358,23.6318
1495956664,336.1333333358,19.7172
1495956666,324.1333333358,20.8766
1495956668,309.7333333358,21.5032
1495956670,369.7333333358,22.5864
1495956672,348.1333333358,16.5634
1495956674,324.1333333358,19.0792
1495956676,348.1333333358,23.0586
1495956678,367.3333333358,18.0042
1495956680,357.7333333358,19.572
1495956682,290.5333333358,24.4947
1495956684,324.1333333358,14.6521
1495956686,278.5333333358,18.6176
1495956688,340.9333333358,21.0599
1495956690,312.1333333358,24.1406
1495956692,321.7333333358,22.6937
1495956694,328.9333333358,19.5989
1495956696,280.9333333358,21.3733
1495956698,280.9333333358,22.9145
1495956700,285.7333333358,18.2196
1495956702,280.9333333358,19.38
1495956704,268.9333333358,22.7377
1495956706,297.7333333358,19.7152
1495956708,273.7333333358,27.177
1495956710,295.3333333358,25.3508
1495956712,290.5333333358,23.7917
1495956714,242.5333333358,21.607
1495956716,276.1333333358,22.629
1495956718,319.3333333358,23.7949
1495956720,271.3333333358,21.0141
1495956722,276.1333333358,23.5747
1495956724,244.9333333358,19.0473
1495956726,292.9333333358,20.8636
1495956728,271.3333333358,21.6176
1495956730,276.1333333358,23.1879
1495956732,276.1333333358,19.0556
1495956734,235.3333333358,15.0039
1495956736,276.1333333358,18.2503
1495956738,273.7333333358,20.3382
1495956740,300.1333333358,21.7554
1495956742,273.7333333358,24.3294
1495956744,393.7333333358,18.0844
1495956746,391.3333333358,19.8205
1495956748,338.5333333358,18.1632
1495956750,393.7333333358,19.8339
1495956752,429.7333333358,18.9776
1495956754,381.7333333358,20.6662
1495956756,379.3333333358,23.0887
1495956758,403.3333333358,22.1702
1495956760,424.9333333358,23.8099
1495956762,441.7333333358,22.065
1495956764,396.1333333358,23.2489
1495956766,420.1333333358,23.5597
1495956768,391.3333333358,20.9376
1495956770,372.1333333358,21.62
1495956772,381.7333333358,24.6294
1495956774,357.7333333358,24.5972
1495956776,396.1333333358,25.278
1495956778,448.9333333358,26.1611
1495956780,412.9333333358,22.5471
1495956782,391.3333333358,24.1396
1495956784,388.9333333358,23.9785
1495956786,393.7333333358,22.9538
1495956788,386.5333333358,21.5528
1495956790,436.9333333358,20.4555
1495956792,475.3333333358,17.0101
1495956794,372.1333333358,17.5379
1495956796,348.1333333358,20.452
1495956798,391.3333333358,20.8114
1495956800,417.7333333358,16.1599
1495956802,379.3333333358,22.0569
1495956804,393.7333333358,19.5362
1495956806,391.3333333358,22.5064
1495956808,412.9333333358,17.4887
1495956810,384.1333333358,18.6059
1495956812,412.9333333358,18.9587
1495956814,400.9333333358,20.5616
1495956816,470.5333333358,20.5214
1495956818,525.7333333358,18.2573
1495956820,436.9333333358,19.0082
1495956822,501.7333333358,24.5316
1495956824,470.5333333358,23.597
1495956826,549.7333333358,19.1444
1495956828,520.9333333358,16.1993
1495956830,530.5333333358,17.4662
1495956832,427.3333333358,16.7916
1495956834,494.5333333358,18.2549
1495956836,400.9333333358,19.0596
1495956838,465.7333333358,18.0472
1495956840,520.9333333358,19.8469
1495956842,475.3333333358,14.1034
1495956844,487.3333333358,19.9097
1495956846,420.1333333358,20.5512
1495956848,408.1333333358,19.0837
1495956850,391.3333333358,13.5177
1495956852,379.3333333358,15.2697
1495956854,388.9333333358,16.9822
1495956856,410.5333333358,18.4703
1495956858,391.3333333358,22.4874
1495956860,436.9333333358,18.3142
1495956862,410.5333333358,19.6287
1495956864,427.3333333358,22.3731
1495956866,408.1333333358,19.0174
1495956868,376.9333333358,17.8467
1495956870,398.5333333358,23.2584
1495956872,360.1333333358,22.6443
1495956874,398.5333333358,18.806
1495956876,367.3333333358,23.4355
1495956878,379.3333333358,20.3099
1495956880,405.7333333358,18.6862
1495956882,398.5333333358,17.9236
1495956884,386.5333333358,18.317
1495956886,420.1333333358,18.3645
1495956888,398.5333333358,18.8938
1495956890,396.1333333358,18.789
1495956892,386.5333333358,22.7091
1495956894,405.7333333358,17.8003
1495956896,384.1333333358,18.2727
1495956898,405.7333333358,24.361
1495956900,381.7333333358,24.1011
1495956902,372.1333333358,19.5893
1495956904,367.3333333358,21.4786
1495956906,381.7333333358,22.7324
1495956908,384.1333333358,25.1101
1495956910,362.5333333358,26.522
1495956912,381.7333333358,24.9379
1495956914,379.3333333358,21.5938
1495956916,391.3333333358,20.9278
1495956918,350.5333333358,20.3099
1495956920,403.3333333358,24.1289
1495956922,396.1333333358,22.253
1495956924,415.3333333358,21.9007
1495956926,429.7333333358,21.8049
1495956928,446.5333333358,18.264
1495956930,504.1333333358,13.0135
1495956932,468.1333333358,17.8083
1495956934,525.7333333358,12.0589
1495956936,446.5333333358,13.7102
1495956938,518.5333333358,16.2766
1495956940,530.5333333358,21.0251
1495956942,516.1333333358,23.2285
1495956944,530.5333333358,21.099
1495956946,520.9333333358,25.0318
1495956948,441.7333333358,23.811
1495956950,523.3333333358,19.1065
1495956952,480.1333333358,18.3227
1495956954,472.9333333358,17.1494
1495956956,422.5333333358,14.8373
1495956958,412.9333333358,15.9906
1495956960,446.5333333358,13.7117
1495956962,403.3333333358,18.04
1495956964,427.3333333358,17.242
1495956966,489.7333333358,24.545
1495956968,448.9333333358,18.4633
1495956970,412.9333333358,18.153
1495956972,415.3333333358,16.589
1495956974,384.1333333358,18.203
1495956976,410.5333333358,21.3155
1495956978,434.5333333358,17.7864
1495956980,429.7333333358,18.3308
1495956982,420.1333333358,16.789
1495956984,396.1333333358,20.4857
1495956986,441.7333333358,9.86086
1495956988,381.7333333358,18.2739
1495956990,429.7333333358,19.7571
1495956992,446.5333333358,22.2162
1495956994,424.9333333358,23.6327
1495956996,434.5333333358,18.9738
1495956998,417.7333333358,18.5163
1495957000,388.9333333358,16.6229
1495957002,422.5333333358,22.2068
1495957004,463.3333333358,21.2674
1495957006,410.5333333358,20.2568
1495957008,405.7333333358,20.8562
1495957010,422.5333333358,20.7487
1495957012,400.9333333358,18.5044
1495957014,398.5333333358,21.2437
1495957016,453.7333333358,18.3499
1495957018,444.1333333358,21.539
1495957020,417.7333333358,20.3342
1495957022,444.1333333358,24.6506
1495957024,472.9333333358,22.5449
1495957026,468.1333333358,16.2112
1495957028,424.9333333358,24.4673
1495957030,470.5333333358,24.3187
1495957032,494.5333333358,25.0124
1495957034,427.3333333358,19.9928
1495957036,475.3333333358,22.0087
1495957038,504.1333333358,20.1367
1495957040,477.7333333358,23.0187
1495957042,499.3333333358,22.0359
1495957044,506.5333333358,24.7821
1495957046,511.3333333358,24.6158
1495957048,458.5333333358,25.7421
1495957050,475.3333333358,24.222
1495957052,480.1333333358,21.2589
1495957054,424.9333333358,22.1922
1495957056,453.7333333358,24.5333
1495957058,518.5333333358,21.794
1495957060,494.5333333358,25.2624
1495957062,468.1333333358,20.7411
1495957064,468.1333333358,18.3669
1495957066,513.7333333358,16.1088
1495957068,477.7333333358,20.1438
1495957070,458.5333333358,21.4951
1495957072,506.5333333358,22.8373
1495957074,468.1333333358,23.9627
1495957076,475.3333333358,21.9201
1495957078,487.3333333358,21.6549
1495957080,460.9333333358,22.4361
1495957082,422.5333333358,21.3476
1495957084,436.9333333358,20.5999
1495957086,420.1333333358,20.301
1495957088,446.5333333358,21.7012
1495957090,453.7333333358,26.9431
1495957092,501.7333333358,22.165
1495957094,441.7333333358,26.6767
1495957096,420.1333333358,23.5247
1495957098,439.3333333358,25.176
1495957100,422.5333333358,21.8348
1495957102,451.3333333358,23.1758
1495957104,484.9333333358,20.2471
1495957106,408.1333333358,21.3267
1495957108,441.7333333358,20.5948
1495957110,477.7333333358,19.9482
1495957112,434.5333333358,21.3832
1495957114,429.7333333358,17.1406
1495957116,456.1333333358,16.6421
1495957118,456.1333333358,14.6688
1495957120,420.1333333358,23.7254
1495957122,405.7333333358,19.156
1495957124,436.9333333358,20.2661
1495957126,417.7333333358,23.373
1495957128,434.5333333358,17.5347
1495957130,412.9333333358,19.4475
1495957132,453.7333333358,19.7296
1495957134,391.3333333358,20.5663
1495957136,434.5333333358,20.3219
1495957138,408.1333333358,20.2918
1495957140,391.3333333358,16.6644
1495957142,403.3333333358,23.1111
1495957144,422.5333333358,25.2883
1495957146,396.1333333358,24.2496
1495957148,417.7333333358,24.1444
1495957150,432.1333333358,25.8576
1495957152,393.7333333358,19.2621
1495957154,405.7333333358,25.3594
1495957156,441.7333333358,20.4672
1495957158,410.5333333358,26.855
1495957160,448.9333333358,23.5199
1495957162,456.1333333358,27.7389
1495957164,482.5333333358,24.694
1495957166,446.5333333358,20.8347
1495957168,451.3333333358,26.9185
1495957170,398.5333333358,24.5436
1495957172,400.9333333358,26.257
1495957174,456.1333333358,21.6344
1495957176,408.1333333358,17.3785
1495957178,393.7333333358,17.8252
1495957180,405.7333333358,24.1968
1495957182,417.7333333358,25.5399
1495957184,398.5333333358,17.84
1495957186,415.3333333358,21.3352
1495957188,408.1333333358,21.5706
1495957190,453.7333333358,21.0918
1495957192,482.5333333358,21.5643
1495957194,468.1333333358,22.4336
1495957196,398.5333333358,24.6499
1495957198,420.1333333358,25.0737
1495957200,451.3333333358,23.6378
1495957202,422.5333333358,24.218
1495957204,424.9333333358,26.8626
1495957206,532.9333333358,26.1307
1495957208,501.7333333358,25.1808
1495957210,470.5333333358,25.1975
1495957212,463.3333333358,21.1358
1495957214,472.9333333358,18.3893
1495957216,432.1333333358,22.1302
1495957218,520.9333333358,19.8107
1495957220,472.9333333358,23.9895
1495957222,504.1333333358,20.2096
1495957224,506.5333333358,27.4586
1495957226,508.9333333358,22.9089
1495957228,511.3333333358,24.485
1495957230,460.9333333358,24.1494
1495957232,511.3333333358,26.3749
1495957234,480.1333333358,24.9927
1495957236,480.1333333358,22.4234
1495957238,504.1333333358,22.5854
1495957240,453.7333333358,23.9603
1495957242,472.9333333358,19.8872
1495957244,446.5333333358,18.8729
1495957246,516.1333333358,18.652
1495957248,475.3333333358,17.4677
1495957250,535.3333333358,17.4772
1495957252,453.7333333358,17.0711
1495957254,520.9333333358,18.5011
1495957256,496.9333333358,21.2125
1495957258,465.7333333358,26.5281
1495957260,468.1333333358,24.7242
1495957262,460.9333333358,24.8888
1495957264,501.7333333358,24.4478
1495957266,489.7333333358,22.2832
1495957268,427.3333333358,20.1216
1495957270,468.1333333358,17.6717
1495957272,535.3333333358,24.7408
1495957274,472.9333333358,25.3163
1495957276,463.3333333358,22.8374
1495957278,470.5333333358,21.9528
1495957280,446.5333333358,21.0157
1495957282,499.3333333358,22.995
1495957284,513.7333333358,21.8247
1495957286,513.7333333358,20.5791
1495957288,508.9333333358,17.0033
1495957290,532.9333333358,16.353
1495957292,549.7333333358,20.0446
1495957294,549.7333333358,21.95
1495957296,525.7333333358,14.8148
1495957298,530.5333333358,17.4818
1495957300,513.7333333358,13.795
1495957302,542.5333333358,20.1083
1495957304,602.5333333358,20.3896
1495957306,554.5333333358,15.9386
1495957308,544.9333333358,17.4869
1495957310,525.7333333358,17.624
1495957312,556.9333333358,23.5773
1495957314,549.7333333358,16.3507
1495957316,506.5333333358,22.77
1495957318,516.1333333358,24.8303
1495957320,489.7333333358,27.9648
1495957322,535.3333333358,24.2597
1495957324,528.1333333358,25.1239
1495957326,489.7333333358,24.8805
1495957328,501.7333333358,28.2924
1495957330,499.3333333358,22.9916
1495957332,417.7333333358,26.3725
1495957334,470.5333333358,26.2296
1495957336,506.5333333358,24.4312
1495957338,410.5333333358,24.568
1495957340,446.5333333358,27.1519
1495957342,492.1333333358,23.8592
1495957344,405.7333333358,23.7206
1495957346,508.9333333358,21.2618
1495957348,501.7333333358,21.2157
1495957350,465.7333333358,21.8743
1495957352,460.9333333358,23.9259
1495957354,535.3333333358,26.1259
1495957356,477.7333333358,22.273
1495957358,482.5333333358,19.8902
1495957360,520.9333333358,20.5764
1495957362,424.9333333358,25.662
1495957364,511.3333333358,25.2581
1495957366,501.7333333358,23.7612
1495957368,494.5333333358,21.6747
1495957370,460.9333333358,19.1786
1495957372,520.9333333358,20.1772
1495957374,506.5333333358,17.748
1495957376,468.1333333358,23.2286
1495957378,520.9333333358,13.0595
1495957380,465.7333333358,17.3663
1495957382,432.1333333358,14.6808
1495957384,506.5333333358,18.8075
1495957386,501.7333333358,19.3083
1495957388,446.5333333358,19.4378
1495957390,501.7333333358,26.0674
1495957392,487.3333333358,21.8976
1495957394,489.7333333358,24.4785
1495957396,477.7333333358,24.7992
1495957398,513.7333333358,16.4635
1495957400,436.9333333358,17.4999
1495957402,468.1333333358,16.2965
1495957404,484.9333333358,16.2363
1495957406,448.9333333358,16.4863
1495957408,412.9333333358,18.3175
1495957410,456.1333333358,17.6824
1495957412,415.3333333358,21.1143
1495957414,405.7333333358,21.0023
1495957416,434.5333333358,18.754
1495957418,499.3333333358,18.8542
1495957420,422.5333333358,20.5859
1495957422,446.5333333358,19.3752
1495957424,458.5333333358,20.3026
1495957426,434.5333333358,18.5026
1495957428,458.5333333358,21.3638
1495957430,458.5333333358,22.5481
1495957432,403.3333333358,19.8996
1495957434,434.5333333358,21.0337
1495957436,458.5333333358,18.6177
1495957438,441.7333333358,23.5519
1495957440,434.5333333358,21.0917
1495957442,492.1333333358,18.882
1495957444,446.5333333358,18.3939
1495957446,434.5333333358,21.9773
1495957448,516.1333333358,23.8809
1495957450,537.7333333358,20.0214
1495957452,520.9333333358,24.6641
1495957454,480.1333333358,24.6495
1495957456,468.1333333358,25.2003
1495957458,489.7333333358,22.2132
1495957460,504.1333333358,21.5351
1495957462,537.7333333358,19.8724
1495957464,520.9333333358,22.0186
1495957466,451.3333333358,26.3136
1495957468,446.5333333358,27.5403
1495957470,465.7333333358,30.9802
1495957472,441.7333333358,25.2018
1495957474,444.1333333358,28.8309
1495957476,504.1333333358,25.4771
1495957478,496.9333333358,26.6154
1495957480,434.5333333358,26.5595
1495957482,429.7333333358,25.4449
1495957484,487.3333333358,23.9281
1495957486,456.1333333358,23.7127
1495957488,446.5333333358,18.1654
1495957490,513.7333333358,23.8697
1495957492,492.1333333358,24.7276
1495957494,520.9333333358,22.923
1495957496,525.7333333358,24.6781
1495957498,448.9333333358,26.1337
1495957500,499.3333333358,20.7309
1495957502,511.3333333358,25.42
1495957504,477.7333333358,24.263
1495957506,492.1333333358,22.8944
1495957508,484.9333333358,19.0954
1495957510,518.5333333358,17.8382
1495957512,559.3333333358,19.5453
1495957514,532.9333333358,19.6221
1495957516,518.5333333358,19.5455
1495957520,525.7333333358,21.2506
1495957522,516.1333333358,20.7679
1495957524,535.3333333358,22.4402
1495957526,528.1333333358,19.3166
1495957528,559.3333333358,15.3607
1495957530,576.1333333358,14.9682
1495957532,532.9333333358,18.4708
1495957534,535.3333333358,17.1065
1495957536,556.9333333358,18.3055
1495957538,600.1333333358,16.8853
1495957540,561.7333333358,18.9278
1495957542,561.7333333358,18.6226
1495957544,528.1333333358,19.9354
1495957546,520.9333333358,23.7606
1495957548,525.7333333358,20.2674
1495957550,496.9333333358,15.1987
1495957552,477.7333333358,10.8576
1495957554,444.1333333358,20.5165
1495957556,424.9333333358,18.0647
1495957558,424.9333333358,19.911
1495957560,504.1333333358,19.5925
1495957562,549.7333333358,18.9243
1495957564,504.1333333358,17.5598
1495957566,460.9333333358,18.8391
1495957568,434.5333333358,19.1575
1495957570,472.9333333358,21.0559
1495957572,410.5333333358,15.7685
1495957574,458.5333333358,15.924
1495957576,496.9333333358,20.1093
1495957578,424.9333333358,16.5779
1495957580,410.5333333358,21.7116
1495957582,444.1333333358,18.4442
1495957584,412.9333333358,21.0246
1495957586,448.9333333358,19.5341
1495957588,463.3333333358,19.9918
1495957590,432.1333333358,22.819
1495957592,379.3333333358,17.2535
1495957594,415.3333333358,18.5085
1495957596,412.9333333358,23.5053
1495957598,451.3333333358,22.2053
1495957600,393.7333333358,22.9699
1495957602,415.3333333358,21.8961
1495957604,372.1333333358,26.8398
1495957606,410.5333333358,23.5072
1495957608,429.7333333358,23.0926
1495957610,400.9333333358,22.8404
1495957612,427.3333333358,23.062
1495957614,434.5333333358,19.542
1495957616,405.7333333358,20.2428
1495957618,441.7333333358,23.494
1495957620,484.9333333358,18.0575
1495957622,415.3333333358,18.1211
1495957624,465.7333333358,22.5029
1495957626,403.3333333358,19.548
1495957628,400.9333333358,18.6498
1495957630,444.1333333358,21.6342
1495957632,403.3333333358,20.1447
1495957634,444.1333333358,21.8238
1495957636,460.9333333358,15.5232
1495957638,410.5333333358,18.4186
1495957640,427.3333333358,22.1269
1495957642,480.1333333358,20.9247
1495957644,444.1333333358,19.3999
1495957646,396.1333333358,23.038
1495957648,494.5333333358,21.7351
1495957650,475.3333333358,23.1166
1495957652,417.7333333358,20.7155
1495957654,463.3333333358,21.1687
1495957656,441.7333333358,21.0601
1495957658,444.1333333358,19.8799
1495957660,417.7333333358,19.076
1495957662,417.7333333358,23.1759
1495957664,412.9333333358,19.9238
1495957666,444.1333333358,20.6664
1495957668,511.3333333358,16.1722
1495957670,444.1333333358,20.689
1495957672,436.9333333358,20.1082
1495957674,422.5333333358,19.4315
1495957676,436.9333333358,19.3115
1495957678,453.7333333358,22.2122
1495957680,436.9333333358,21.9065
1495957682,412.9333333358,21.3738
1495957684,448.9333333358,20.2637
1495957686,468.1333333358,16.0464
1495957688,388.9333333358,20.5911
1495957690,420.1333333358,21.6505
1495957692,393.7333333358,21.5982
1495957694,396.1333333358,24.0373
1495957696,391.3333333358,20.5752
1495957698,436.9333333358,20.7433
1495957700,420.1333333358,14.3441
1495957702,410.5333333358,18.897
1495957704,376.9333333358,12.4466
1495957706,386.5333333358,21.1975
1495957708,369.7333333358,16.8071
1495957710,415.3333333358,20.4709
1495957712,398.5333333358,17.9287
1495957714,398.5333333358,22.1112
1495957716,424.9333333358,19.9862
1495957718,417.7333333358,17.4846
1495957720,381.7333333358,21.0588
1495957722,386.5333333358,22.3715
1495957724,386.5333333358,25.2886
1495957726,372.1333333358,24.5122
1495957728,367.3333333358,22.1191
1495957730,381.7333333358,20.8612
1495957732,400.9333333358,24.8003
1495957734,403.3333333358,21.543
1495957736,427.3333333358,20.2748
1495957738,393.7333333358,23.5003
1495957740,403.3333333358,20.6493
1495957742,379.3333333358,20.0252
1495957744,410.5333333358,21.1588
1495957746,400.9333333358,16.563
1495957748,405.7333333358,17.2849
1495957750,441.7333333358,14.0954
1495957752,482.5333333358,17.2235
1495957754,482.5333333358,16.8229
1495957756,427.3333333358,22.6321
1495957758,439.3333333358,18.075
1495957760,472.9333333358,20.9794
1495957762,475.3333333358,20.963
1495957764,451.3333333358,18.3526
1495957766,494.5333333358,22.1676
1495957768,477.7333333358,17.6208
1495957770,436.9333333358,18.9743
1495957772,506.5333333358,16.9131
1495957774,453.7333333358,21.3231
1495957776,480.1333333358,19.0934
1495957778,532.9333333358,16.623
1495957780,552.1333333358,17.6701
1495957782,501.7333333358,17.9713
1495957784,516.1333333358,15.4939
1495957786,542.5333333358,14.4768
1495957788,489.7333333358,17.0025
1495957790,506.5333333358,13.6857
1495957792,559.3333333358,13.7484
1495957794,496.9333333358,17.1955
1495957796,532.9333333358,20.22
1495957798,556.9333333358,19.1605
1495957800,520.9333333358,18.7425
1495957802,504.1333333358,21.4131
1495957804,544.9333333358,20.3188
1495957806,528.1333333358,21.4768
1495957808,530.5333333358,16.2509
1495957810,504.1333333358,17.1796
1495957812,547.3333333358,16.2321
1495957814,520.9333333358,19.1447
1495957816,544.9333333358,19.6791
1495957818,511.3333333358,22.7664
1495957820,556.9333333358,23.6029
1495957822,501.7333333358,25.5665
1495957824,516.1333333358,23.7263
1495957826,530.5333333358,20.0063
1495957828,532.9333333358,19.8367
1495957830,547.3333333358,19.2887
1495957832,542.5333333358,19.8384
1495957834,487.3333333358,16.258
1495957836,528.1333333358,16.8003
1495957838,480.1333333358,16.9745
1495957840,516.1333333358,19.4828
1495957842,480.1333333358,21.2801
1495957844,475.3333333358,17.187
1495957846,511.3333333358,19.3195
1495957848,470.5333333358,16.1117
1495957850,477.7333333358,17.4868
1495957852,475.3333333358,20.603
1495957854,501.7333333358,20.6914
1495957856,446.5333333358,17.7597
1495957858,475.3333333358,17.2088
1495957860,482.5333333358,19.5575
1495957862,482.5333333358,18.5586
1495957864,468.1333333358,18.4731
1495957866,417.7333333358,16.5182
1495957868,458.5333333358,18.4631
1495957870,451.3333333358,14.9726
1495957872,422.5333333358,17.2916
1495957874,400.9333333358,17.4652
1495957876,436.9333333358,17.1291
1495957878,477.7333333358,16.3279
1495957880,458.5333333358,18.5977
1495957882,408.1333333358,18.2786
1495957884,422.5333333358,19.1762
1495957886,446.5333333358,19.1713
1495957888,453.7333333358,17.2957
1495957890,410.5333333358,17.553
1495957892,472.9333333358,15.8249
1495957894,436.9333333358,18.5094
1495957896,432.1333333358,22.2004
1495957898,405.7333333358,19.1276
1495957900,456.1333333358,19.1867
1495957902,504.1333333358,19.616
1495957904,403.3333333358,21.7879
1495957906,444.1333333358,19.5693
1495957908,434.5333333358,20.0769
1495957910,386.5333333358,21.4067
1495957912,451.3333333358,18.1214
1495957914,408.1333333358,23.1495
1495957916,405.7333333358,20.5058
1495957918,415.3333333358,21.037
1495957920,520.9333333358,22.5098
1495957922,480.1333333358,20.7262
1495957924,453.7333333358,21.706
1495957926,415.3333333358,21.8556
1495957928,446.5333333358,20.0857
1495957930,427.3333333358,23.5035
1495957932,451.3333333358,19.3138
1495957934,412.9333333358,19.9596
1495957936,405.7333333358,21.4159
1495957938,386.5333333358,19.9372
1495957940,403.3333333358,19.0965
1495957942,386.5333333358,19.9535
1495957944,398.5333333358,21.1516
1495957946,379.3333333358,16.8037
1495957948,376.9333333358,17.4403
1495957950,369.7333333358,19.1021
1495957952,410.5333333358,16.9553
1495957954,439.3333333358,17.548
1495957956,355.3333333358,18.1952
1495957958,427.3333333358,20.3947
1495957960,436.9333333358,18.1157
1495957962,384.1333333358,19.2073
1495957964,379.3333333358,18.4465
1495957966,376.9333333358,14.0856
1495957968,355.3333333358,19.9158
1495957970,384.1333333358,17.0514
1495957972,417.7333333358,18.4757
1495957974,403.3333333358,19.2671
1495957976,372.1333333358,21.1478
1495957978,400.9333333358,18.1391
1495957980,384.1333333358,17.6913
1495957982,345.7333333358,20.0987
1495957984,381.7333333358,19.2192
1495957986,386.5333333358,21.4068
1495957988,420.1333333358,16.502
1495957990,379.3333333358,15.3706
1495957992,357.7333333358,14.3533
1495957994,436.9333333358,14.5425
1495957996,381.7333333358,16.4807
1495957998,429.7333333358,18.0792
1495958000,480.1333333358,16.9957
1495958002,408.1333333358,17.0737
1495958004,388.9333333358,19.1394
1495958006,405.7333333358,16.3822
1495958008,420.1333333358,17.3524
1495958010,403.3333333358,16.7743
1495958012,403.3333333358,17.5847
1495958014,470.5333333358,23.6151
1495958016,412.9333333358,19.9579
1495958018,417.7333333358,16.7889
1495958020,446.5333333358,17.6447
1495958022,408.1333333358,18.6129
1495958024,470.5333333358,20.7098
1495958026,422.5333333358,18.4953
1495958028,470.5333333358,19.7742
1495958030,396.1333333358,20.8696
1495958032,460.9333333358,23.7802
1495958034,470.5333333358,22.9896
1495958036,444.1333333358,20.4628
1495958038,465.7333333358,20.5412
1495958040,492.1333333358,22.7866
1495958042,446.5333333358,25.2955
1495958044,460.9333333358,24.2806
1495958046,451.3333333358,19.6297
1495958048,472.9333333358,22.0449
1495958050,475.3333333358,23.3207
1495958052,487.3333333358,23.2617
1495958054,499.3333333358,26.0127
1495958056,501.7333333358,22.1334
1495958058,525.7333333358,20.6759
1495958060,518.5333333358,24.5763
1495958062,508.9333333358,21.6643
1495958064,552.1333333358,21.7416
1495958066,535.3333333358,21.044
1495958068,513.7333333358,19.3872
1495958070,511.3333333358,24.5542
1495958072,518.5333333358,17.6833
1495958074,547.3333333358,21.9324
1495958076,492.1333333358,24.1716
1495958078,532.9333333358,17.1538
1495958080,520.9333333358,22.2204
1495958082,513.7333333358,23.1254
1495958084,482.5333333358,21.5993
1495958086,525.7333333358,26.0474
1495958088,523.3333333358,23.4678
1495958090,496.9333333358,25.5655
1495958092,458.5333333358,21.5105
1495958094,511.3333333358,21.7133
1495958096,518.5333333358,24.7453
1495958098,439.3333333358,24.947
1495958100,496.9333333358,20.9847
1495958102,508.9333333358,18.9145
1495958104,420.1333333358,21.8727
1495958106,489.7333333358,19.2076
1495958108,504.1333333358,15.7297
1495958110,444.1333333358,20.79
1495958112,468.1333333358,20.9147
1495958114,501.7333333358,22.2742
1495958116,468.1333333358,23.3765
1495958118,460.9333333358,19.5791
1495958120,412.9333333358,16.5219
1495958122,460.9333333358,17.4139
1495958124,434.5333333358,23.1287
1495958126,434.5333333358,21.7843
1495958128,501.7333333358,18.6193
1495958130,482.5333333358,19.2259
1495958132,424.9333333358,22.3167
1495958134,451.3333333358,18.6909
1495958136,501.7333333358,19.5252
1495958138,463.3333333358,19.2996
1495958140,451.3333333358,19.0645
1495958142,453.7333333358,20.2862
1495958144,460.9333333358,19.3753
1495958146,429.7333333358,16.3257
1495958148,480.1333333358,21.1934
1495958150,463.3333333358,20.6615
1495958152,420.1333333358,26.4911
1495958154,451.3333333358,24.9131
1495958156,477.7333333358,20.4879
1495958158,460.9333333358,19.0917
1495958160,496.9333333358,18.1388
1495958162,460.9333333358,17.2772
1495958164,441.7333333358,18.4315
1495958166,398.5333333358,18.8546
1495958168,470.5333333358,19.8785
1495958170,422.5333333358,17.7528
1495958172,511.3333333358,18.9058
1495958174,422.5333333358,18.5735
1495958176,417.7333333358,18.1937
1495958178,444.1333333358,22.7861
1495958180,420.1333333358,19.4368
1495958182,458.5333333358,23.7637
1495958184,477.7333333358,20.6295
1495958186,453.7333333358,20.8439
1495958188,477.7333333358,20.9439
1495958190,477.7333333358,20.091
1495958192,482.5333333358,22.1026
1495958194,456.1333333358,19.3567
1495958196,489.7333333358,17.8613
1495958198,511.3333333358,16.2568
1495958200,460.9333333358,19.0069
1495958202,489.7333333358,18.3605
1495958204,434.5333333358,18.2963
1495958206,518.5333333358,18.173
1495958208,444.1333333358,21.1148
1495958210,499.3333333358,21.6115
1495958212,468.1333333358,18.888
1495958214,427.3333333358,14.3731
1495958216,472.9333333358,18.4734
1495958218,446.5333333358,19.3268
1495958220,465.7333333358,16.7786
