tag_number,delay,power_est
1496583212,921.200000004,21.8996
1496583216,933.200000004,20.3114
1496583220,940.400000004,20.1869
1496583224,930.800000004,21.6071
1496583228,909.200000004,22.214
1496583232,885.200000004,22.8199
1496583236,861.200000004,20.3657
1496583240,921.200000004,19.343
1496583244,863.600000004,18.3401
1496583248,892.400000004,22.0427
1496583252,851.600000004,24.2068
1496583256,875.600000004,22.134
1496583260,839.600000004,21.5111
1496583264,813.200000004,24.7531
1496583268,839.600000004,23.8392
1496583272,839.600000004,22.0113
1496583276,779.600000004,20.6987
1496583280,854.000000004,23.4633
1496583284,786.800000004,19.978
1496583288,806.000000004,17.5295
1496583292,813.200000004,17.3777
1496583296,774.800000004,18.7678
1496583300,784.400000004,21.5791
1496583304,820.400000004,17.3981
1496583308,806.000000004,15.7609
1496583312,755.600000004,19.8316
1496583316,789.200000004,20.3666
1496583320,798.800000004,23.7862
1496583324,794.000000004,21.8179
1496583328,767.600000004,24.3669
1496583332,806.000000004,22.2091
1496583336,842.000000004,22.4482
1496583340,784.400000004,24.2794
1496583344,786.800000004,19.5239
1496583348,861.200000004,22.921
1496583352,748.400000004,24.8961
1496583356,767.600000004,18.675
1496583360,822.800000004,21.8738
1496583364,832.400000004,20.7115
1496583368,798.800000004,19.8946
1496583372,794.000000004,21.4021
1496583376,750.800000004,19.7113
1496583380,777.200000004,20.0317
1496583384,767.600000004,19.9256
1496583388,801.200000004,21.5332
1496583392,774.800000004,22.947
1496583396,734.000000004,17.3482
1496583400,822.800000004,16.5306
1496583404,810.800000004,20.5875
1496583408,803.600000004,16.9158
1496583412,834.800000004,18.2733
1496583416,863.600000004,13.3538
1496583420,801.200000004,17.7649
1496583424,820.400000004,19.4286
1496583428,909.200000004,19.3043
1496583432,868.400000004,23.2472
1496583436,868.400000004,21.5157
1496583440,856.400000004,18.336
1496583444,849.200000004,25.2101
1496583448,861.200000004,17.8309
1496583452,854.000000004,20.2922
1496583456,868.400000004,21.9391
1496583460,894.800000004,23.095
1496583464,844.400000004,24.5629
1496583468,887.600000004,19.9435
1496583472,873.200000004,22.9676
1496583476,861.200000004,21.3963
1496583480,863.600000004,20.8281
1496583484,844.400000004,25.2669
1496583488,851.600000004,18.5683
1496583492,856.400000004,20.9435
1496583496,897.200000004,20.4762
1496583500,856.400000004,20.5768
1496583504,894.800000004,17.015
1496583508,846.800000004,19.6077
1496583512,856.400000004,20.697
1496583516,906.800000004,19.8865
1496583520,866.000000004,21.4568
1496583524,880.400000004,23.5673
1496583528,844.400000004,23.2185
1496583532,846.800000004,23.5404
1496583536,832.400000004,18.9566
1496583540,846.800000004,16.7574
1496583544,839.600000004,24.2482
1496583548,866.000000004,21.3141
1496583552,849.200000004,21.762
1496583556,842.000000004,22.5095
1496583560,870.800000004,20.4185
1496583564,822.800000004,23.5931
1496583568,873.200000004,22.0961
1496583572,861.200000004,17.3226
1496583576,849.200000004,21.3195
1496583580,849.200000004,21.1149
1496583584,856.400000004,21.7583
1496583588,837.200000004,19.2308
1496583592,870.800000004,16.7502
1496583596,851.600000004,19.98
1496583600,818.000000004,22.9044
1496583604,858.800000004,21.7788
1496583608,832.400000004,22.6294
1496583612,863.600000004,22.1419
1496583616,909.200000004,21.6086
1496583620,878.000000004,19.9162
1496583624,878.000000004,25.6536
1496583628,851.600000004,20.3977
1496583632,861.200000004,26.2016
1496583636,887.600000004,16.866
1496583640,878.000000004,19.3812
1496583644,906.800000004,25.0652
1496583648,904.400000004,20.8896
1496583652,854.000000004,22.2515
1496583656,878.000000004,22.1267
1496583660,866.000000004,22.5977
1496583664,873.200000004,21.8287
1496583668,918.800000004,20.9243
1496583672,921.200000004,19.4331
1496583676,911.600000004,21.0358
1496583680,904.400000004,19.2081
1496583684,959.600000004,19.8997
1496583688,916.400000004,18.3042
1496583692,873.200000004,20.6624
1496583696,870.800000004,17.3139
1496583700,856.400000004,22.4322
1496583704,914.000000004,19.6471
1496583708,873.200000004,24.6008
1496583712,897.200000004,20.3376
1496583716,918.800000004,23.6764
1496583720,866.000000004,21.5159
1496583724,916.400000004,19.0099
1496583728,846.800000004,18.8223
1496583732,875.600000004,18.1285
1496583736,921.200000004,18.0064
1496583740,938.000000004,18.7353
1496583744,933.200000004,16.638
1496583748,921.200000004,14.5101
1496583752,1000.400000004,19.7263
1496583756,964.400000004,17.4802
1496583760,1029.200000004,19.6832
1496583764,1017.200000004,14.2917
1496583768,950.000000004,18.2097
1496583772,998.000000004,17.4425
1496583776,966.800000004,16.883
1496583780,978.800000004,18.6452
1496583784,964.400000004,15.6544
1496583788,959.600000004,19.5588
1496583792,950.000000004,16.1123
1496583796,962.000000004,16.6766
1496583800,971.600000004,15.8527
1496583804,998.000000004,16.8161
1496583808,964.400000004,12.0125
1496583812,1007.600000004,17.0418
1496583816,916.400000004,16.7833
1496583820,950.000000004,21.3894
1496583824,983.600000004,16.7216
1496583828,1007.600000004,16.512
1496583832,933.200000004,19.1933
1496583836,911.600000004,15.7591
1496583840,935.600000004,15.8762
1496583844,914.000000004,21.4377
1496583848,938.000000004,11.7599
1496583852,933.200000004,17.6926
1496583856,957.200000004,18.1869
1496583860,957.200000004,22.3632
1496583864,966.800000004,15.7375
1496583868,1022.000000004,20.1909
1496583872,957.200000004,22.0132
1496583876,1007.600000004,16.7479
1496583880,1067.600000004,19.8394
1496583884,1012.400000004,20.6425
1496583888,1007.600000004,17.1963
1496583892,1050.800000004,15.3078
1496583896,1058.000000004,12.5095
1496583900,1036.400000004,15.8187
1496583904,1010.000000004,6.96457
1496583908,1038.800000004,15.661
1496583912,950.000000004,19.1555
1496583916,971.600000004,21.2179
1496583920,990.800000004,21.6625
1496583924,928.400000004,25.2864
1496583928,921.200000004,18.3062
1496583932,897.200000004,23.2191
1496583936,911.600000004,24.367
1496583940,894.800000004,23.3658
1496583944,909.200000004,19.8442
1496583948,866.000000004,23.3544
1496583952,866.000000004,24.4565
1496583956,858.800000004,18.2109
1496583960,880.400000004,24.8447
1496583964,916.400000004,23.7354
1496583968,878.000000004,21.0275
1496583972,892.400000004,22.1622
1496583976,885.200000004,19.7683
1496583980,858.800000004,18.8596
1496583984,928.400000004,19.509
1496583988,940.400000004,23.2328
1496583992,870.800000004,17.8184
1496583996,916.400000004,19.4671
1496584000,918.800000004,22.9976
1496584004,930.800000004,20.9286
1496584008,911.600000004,23.4941
1496584012,897.200000004,17.0047
1496584016,957.200000004,19.7138
1496584020,878.000000004,22.2639
1496584024,911.600000004,20.8633
1496584028,904.400000004,24.6574
1496584032,993.200000004,21.4604
1496584036,928.400000004,25.7043
1496584040,914.000000004,22.1284
1496584044,861.200000004,22.3936
1496584052,923.600000004,23.2936
1496584056,856.400000004,20.4858
1496584060,863.600000004,24.0999
1496584064,837.200000004,23.1105
1496584068,914.000000004,24.4961
1496584072,882.800000004,22.0841
1496584076,921.200000004,21.109
1496584080,890.000000004,22.9365
1496584084,928.400000004,22.551
1496584088,969.200000004,21.6218
1496584092,894.800000004,20.759
1496584096,914.000000004,18.0438
1496584100,887.600000004,20.1293
1496584104,962.000000004,23.1619
1496584108,921.200000004,22.8798
1496584112,851.600000004,18.4401
1496584116,875.600000004,20.4184
1496584120,837.200000004,16.8324
1496584124,897.200000004,16.5901
1496584128,851.600000004,14.8999
1496584132,914.000000004,19.5028
1496584136,854.000000004,22.0592
1496584140,849.200000004,17.1734
1496584144,870.800000004,22.0852
1496584148,906.800000004,22.4654
1496584152,916.400000004,24.4203
1496584156,882.800000004,20.6844
1496584160,882.800000004,22.5473
1496584164,930.800000004,25.0656
1496584168,868.400000004,23.46
1496584172,882.800000004,25.354
1496584176,916.400000004,20.0757
1496584180,914.000000004,24.4152
1496584184,844.400000004,15.5208
1496584188,890.000000004,22.9579
1496584192,868.400000004,21.1947
1496584196,911.600000004,18.9112
1496584200,856.400000004,16.8805
1496584204,866.000000004,14.3507
1496584208,926.000000004,19.1038
1496584212,909.200000004,20.4317
1496584216,904.400000004,20.1924
1496584220,885.200000004,22.0681
1496584224,918.800000004,21.8141
1496584228,868.400000004,17.5918
1496584232,861.200000004,19.1279
1496584236,918.800000004,14.2755
1496584240,856.400000004,15.2072
1496584244,885.200000004,14.5754
1496584248,909.200000004,18.073
1496584252,904.400000004,15.9759
1496584256,873.200000004,17.3542
1496584260,909.200000004,21.7982
1496584264,933.200000004,14.0972
1496584268,916.400000004,17.2501
1496584272,921.200000004,14.8025
1496584276,938.000000004,20.2388
1496584280,935.600000004,23.1226
1496584284,981.200000004,22.1778
1496584288,966.800000004,20.274
1496584292,1034.000000004,18.9996
1496584296,1046.000000004,20.7089
1496584300,1098.800000004,21.0942
1496584304,1062.800000004,22.406
1496584308,1007.600000004,17.9385
1496584312,1038.800000004,20.9915
1496584316,983.600000004,22.5185
1496584320,986.000000004,21.5462
1496584324,978.800000004,18.8232
1496584328,950.000000004,20.8587
1496584332,904.400000004,17.8583
1496584336,894.800000004,20.8945
1496584340,918.800000004,16.6701
1496584344,854.000000004,20.0168
1496584348,849.200000004,20.22
1496584352,842.000000004,24.5611
1496584356,806.000000004,19.4305
1496584360,774.800000004,22.3801
1496584364,822.800000004,21.4444
1496584368,842.000000004,22.5392
1496584372,846.800000004,20.8527
1496584376,849.200000004,19.2862
1496584380,839.600000004,19.6173
1496584384,844.400000004,19.8049
1496584388,827.600000004,23.025
1496584392,770.000000004,22.0346
1496584396,820.400000004,21.9534
1496584400,909.200000004,19.8257
1496584404,926.000000004,23.1865
1496584408,897.200000004,23.1419
1496584412,918.800000004,21.7335
1496584416,861.200000004,23.899
1496584420,863.600000004,21.1646
1496584424,918.800000004,22.6347
1496584428,918.800000004,21.3366
1496584432,964.400000004,21.334
1496584436,918.800000004,20.8003
1496584440,909.200000004,17.699
1496584444,868.400000004,19.6074
1496584448,906.800000004,19.8476
1496584452,918.800000004,19.1648
1496584456,923.600000004,16.5081
1496584460,918.800000004,20.9145
1496584464,856.400000004,23.389
1496584468,885.200000004,18.4636
1496584472,880.400000004,18.9923
1496584476,870.800000004,19.7358
1496584480,861.200000004,14.7348
1496584484,906.800000004,17.5576
1496584488,858.800000004,22.0589
1496584492,863.600000004,19.9212
1496584496,863.600000004,20.718
1496584500,866.000000004,19.4733
1496584504,892.400000004,18.1889
1496584508,887.600000004,18.7029
1496584512,861.200000004,22.9712
1496584516,863.600000004,18.3046
1496584520,861.200000004,14.6489
1496584524,858.800000004,19.4442
1496584528,868.400000004,21.8881
1496584532,904.400000004,18.6426
1496584536,880.400000004,18.0671
1496584540,846.800000004,18.0227
1496584544,875.600000004,22.3691
1496584548,854.000000004,13.9687
1496584552,878.000000004,22.0739
1496584556,854.000000004,15.9075
1496584560,868.400000004,19.0572
1496584564,909.200000004,17.0741
1496584568,926.000000004,20.0662
1496584572,942.800000004,18.0795
1496584576,945.200000004,21.6407
1496584580,1000.400000004,21.9716
1496584584,1007.600000004,23.7638
1496584588,1007.600000004,20.0081
1496584592,990.800000004,19.7085
1496584596,957.200000004,15.9643
1496584600,952.400000004,19.5186
1496584604,962.000000004,18.6075
1496584608,923.600000004,15.4615
1496584612,878.000000004,17.5905
1496584616,981.200000004,19.1136
1496584620,851.600000004,17.5778
1496584624,863.600000004,16.4362
1496584628,875.600000004,20.4795
1496584632,911.600000004,19.1422
1496584636,894.800000004,20.4281
1496584640,945.200000004,20.9548
1496584644,940.400000004,22.35
1496584648,947.600000004,24.237
1496584652,1031.600000004,26.3178
1496584656,1019.600000004,22.2101
1496584660,1079.600000004,19.9072
1496584664,938.000000004,24.6639
1496584668,986.000000004,21.6219
1496584672,952.400000004,22.3817
1496584676,926.000000004,21.1833
1496584680,921.200000004,20.6197
1496584684,906.800000004,20.6524
1496584688,923.600000004,17.837
1496584692,856.400000004,14.8963
1496584696,878.000000004,16.2615
1496584700,911.600000004,17.8797
1496584704,902.000000004,23.3718
1496584708,892.400000004,17.6931
1496584712,942.800000004,17.083
1496584716,933.200000004,17.0862
1496584720,938.000000004,22.6837
1496584724,904.400000004,16.0788
1496584728,945.200000004,18.4829
1496584732,916.400000004,24.7655
1496584736,909.200000004,18.3469
1496584740,928.400000004,15.7971
1496584744,904.400000004,17.5002
1496584748,906.800000004,19.4563
1496584752,906.800000004,17.1492
1496584756,899.600000004,21.8697
1496584760,868.400000004,22.5999
1496584764,842.000000004,19.2244
1496584768,866.000000004,21.1933
1496584772,880.400000004,24.6258
1496584776,890.000000004,24.7831
1496584780,916.400000004,18.679
1496584784,902.000000004,18.2842
1496584788,875.600000004,20.0474
1496584792,863.600000004,18.6208
1496584796,916.400000004,24.2834
1496584800,894.800000004,18.0318
1496584804,882.800000004,19.6545
1496584808,945.200000004,19.0936
1496584812,945.200000004,20.3727
1496584816,978.800000004,20.3168
1496584820,952.400000004,21.005
1496584824,974.000000004,20.3649
1496584828,964.400000004,17.1873
1496584832,940.400000004,20.3951
1496584836,1005.200000004,21.3023
1496584840,969.200000004,14.0275
1496584844,990.800000004,17.5709
1496584848,962.000000004,16.554
1496584852,962.000000004,14.3756
1496584856,947.600000004,16.5258
1496584860,964.400000004,20.4
1496584864,947.600000004,20.1783
1496584868,928.400000004,14.985
1496584872,926.000000004,16.6517
1496584876,918.800000004,21.4032
1496584880,926.000000004,15.3828
1496584884,899.600000004,14.4858
1496584888,930.800000004,25.1612
1496584892,866.000000004,17.5666
1496584896,964.400000004,23.0608
1496584900,918.800000004,18.0395
1496584904,918.800000004,13.3046
1496584908,926.000000004,19.8218
1496584912,916.400000004,15.1477
1496584916,926.000000004,14.666
1496584920,957.200000004,17.1851
1496584924,923.600000004,17.1099
1496584928,916.400000004,19.4096
1496584932,1050.800000004,18.5995
1496584936,966.800000004,20.3006
1496584940,981.200000004,15.453
1496584944,923.600000004,14.6278
1496584948,969.200000004,19.8487
1496584952,930.800000004,19.1993
1496584956,933.200000004,16.8
1496584960,904.400000004,18.379
1496584964,921.200000004,18.1256
1496584968,878.000000004,22.3033
1496584972,918.800000004,19.5273
1496584976,892.400000004,18.9787
1496584980,918.800000004,16.3112
1496584984,897.200000004,18.6867
1496584988,938.000000004,21.1428
1496584992,945.200000004,19.7197
1496584996,916.400000004,15.3517
1496585000,933.200000004,22.5338
1496585004,950.000000004,21.6514
1496585008,983.600000004,22.6026
1496585012,986.000000004,20.2099
1496585016,993.200000004,19.4743
1496585020,1024.400000004,19.7394
1496585024,976.400000004,23.8396
1496585028,1043.600000004,21.1972
1496585032,976.400000004,17.8849
1496585036,1041.200000004,22.2269
1496585040,986.000000004,19.8022
1496585044,1048.400000004,15.5449
1496585048,923.600000004,22.878
1496585052,981.200000004,17.687
1496585056,911.600000004,19.1701
1496585060,983.600000004,23.1083
1496585064,1005.200000004,23.0648
1496585068,986.000000004,22.6343
1496585072,1034.000000004,23.8121
1496585076,978.800000004,21.9111
1496585080,1048.400000004,25.2204
1496585084,1048.400000004,18.4827
1496585088,1012.400000004,21.3618
1496585092,1019.600000004,23.3667
1496585096,1012.400000004,20.0065
1496585100,916.400000004,21.6771
1496585104,990.800000004,22.6794
1496585108,995.600000004,23.2197
1496585112,938.000000004,22.3158
1496585116,894.800000004,21.5732
1496585120,916.400000004,18.0742
1496585124,897.200000004,19.8069
1496585128,873.200000004,25.0952
1496585132,885.200000004,21.3864
1496585136,868.400000004,19.752
1496585140,878.000000004,16.4945
1496585144,822.800000004,20.6757
1496585148,854.000000004,24.9725
1496585152,806.000000004,26.2695
1496585156,798.800000004,24.2765
1496585160,758.000000004,25.9643
1496585164,806.000000004,22.7986
1496585168,666.800000004,17.2734
1496585172,647.600000004,19.692
1496585176,698.000000004,23.1407
1496585180,640.400000004,20.8632
1496585184,676.400000004,19.8304
1496585188,606.800000004,16.1797
1496585192,640.400000004,17.708
1496585196,635.600000004,19.1066
1496585200,671.600000004,21.4208
1496585204,683.600000004,21.4509
1496585208,642.800000004,20.0435
1496585212,690.800000004,16.6356
1496585216,606.800000004,22.4463
1496585220,686.000000004,17.3626
1496585224,669.200000004,18.3711
1496585228,645.200000004,21.008
1496585232,662.000000004,18.3449
1496585236,614.000000004,20.7694
1496585240,690.800000004,21.7911
1496585244,621.200000004,23.2387
1496585248,666.800000004,14.4492
1496585252,606.800000004,21.1216
1496585256,654.800000004,21.2858
1496585260,669.200000004,8.18876
1496585264,621.200000004,12.4649
1496585268,678.800000004,12.0917
1496585272,659.600000004,15.3976
1496585276,671.600000004,15.095
1496585280,592.400000004,13.3626
1496585284,633.200000004,8.26623
1496585288,578.000000004,16.312
1496585292,594.800000004,12.1793
1496585296,611.600000004,18.132
1496585300,645.200000004,19.2576
1496585304,678.800000004,19.7584
1496585308,659.600000004,22.684
1496585312,638.000000004,17.805
1496585316,662.000000004,21.1512
1496585320,654.800000004,24.064
1496585324,630.800000004,23.2063
1496585328,659.600000004,22.8692
1496585332,695.600000004,20.0598
1496585336,671.600000004,16.711
1496585340,717.200000004,23.9705
1496585344,678.800000004,22.7469
1496585348,683.600000004,22.0994
1496585352,628.400000004,20.2606
1496585356,695.600000004,16.4928
1496585360,700.400000004,21.4469
1496585364,698.000000004,20.4621
1496585368,707.600000004,23.8251
1496585372,693.200000004,23.3369
1496585376,705.200000004,24.7311
1496585380,688.400000004,23.5432
1496585384,760.400000004,22.3389
1496585388,772.400000004,17.9975
1496585392,810.800000004,14.9992
1496585396,758.000000004,20.7787
1496585400,755.600000004,19.8753
1496585404,750.800000004,18.2982
1496585408,760.400000004,19.2715
1496585412,758.000000004,19.6221
1496585416,796.400000004,23.0334
1496585420,827.600000004,22.2907
1496585424,803.600000004,19.5072
1496585428,731.600000004,17.1085
1496585432,815.600000004,19.7597
1496585436,822.800000004,17.9356
1496585440,729.200000004,17.9782
1496585444,738.800000004,16.4524
1496585448,762.800000004,21.138
1496585452,705.200000004,18.8458
1496585456,736.400000004,20.2182
1496585460,714.800000004,11.824
1496585464,671.600000004,15.7976
1496585468,690.800000004,19.0025
1496585472,659.600000004,17.4109
1496585476,750.800000004,17.9483
1496585480,705.200000004,19.2111
1496585484,748.400000004,20.5493
1496585488,719.600000004,18.6756
1496585492,714.800000004,20.6885
1496585496,724.400000004,25.0574
1496585500,710.000000004,18.4813
1496585504,705.200000004,17.8534
1496585508,700.400000004,19.9859
1496585512,707.600000004,19.0783
1496585516,729.200000004,23.3794
1496585520,707.600000004,19.2377
1496585524,717.200000004,19.987
1496585528,700.400000004,19.9185
1496585532,681.200000004,23.5021
1496585536,707.600000004,22.4914
1496585540,674.000000004,18.6249
1496585544,695.600000004,19.4863
1496585548,678.800000004,18.3181
1496585552,690.800000004,20.493
1496585556,671.600000004,17.9945
1496585560,688.400000004,19.8572
1496585564,688.400000004,16.1129
1496585568,669.200000004,19.844
1496585572,674.000000004,21.2613
1496585576,678.800000004,21.9697
1496585580,695.600000004,19.4025
1496585584,659.600000004,22.8255
1496585588,683.600000004,20.4639
1496585592,633.200000004,17.4161
1496585596,695.600000004,19.4142
1496585600,700.400000004,18.1038
1496585604,717.200000004,19.6642
1496585608,693.200000004,19.3777
1496585612,695.600000004,17.1866
1496585616,690.800000004,17.6291
1496585620,618.800000004,18.6354
1496585624,693.200000004,19.1279
1496585628,671.600000004,22.2613
1496585632,693.200000004,20.4266
1496585636,678.800000004,20.057
1496585640,710.000000004,17.5244
1496585644,729.200000004,15.624
1496585648,712.400000004,14.0126
1496585652,736.400000004,20.1145
1496585656,705.200000004,18.8588
1496585660,714.800000004,20.9994
1496585664,700.400000004,20.7083
1496585668,755.600000004,20.0193
1496585672,674.000000004,19.7789
1496585676,683.600000004,18.9905
1496585680,681.200000004,22.3886
1496585684,722.000000004,19.3739
1496585688,688.400000004,18.5822
1496585692,700.400000004,15.6099
1496585696,686.000000004,18.5902
1496585700,758.000000004,19.3431
1496585704,676.400000004,19.7143
1496585708,748.400000004,16.1622
1496585712,779.600000004,21.1354
1496585716,789.200000004,20.9605
1496585720,789.200000004,18.6371
1496585724,791.600000004,19.8413
1496585728,784.400000004,21.9835
1496585732,760.400000004,22.6324
1496585736,702.800000004,20.2985
1496585740,755.600000004,23.0271
1496585744,700.400000004,24.2432
1496585748,722.000000004,23.5827
1496585752,724.400000004,22.1848
1496585756,758.000000004,22.6228
1496585760,688.400000004,20.7764
1496585764,671.600000004,26.2705
1496585768,686.000000004,23.0185
1496585772,719.600000004,18.937
1496585776,676.400000004,20.0176
1496585780,686.000000004,20.142
1496585784,652.400000004,16.6022
1496585788,633.200000004,21.1022
1496585792,702.800000004,18.8037
1496585796,669.200000004,16.9309
1496585800,683.600000004,16.6427
1496585804,746.000000004,21.2118
1496585808,695.600000004,18.631
1496585812,719.600000004,22.5184
1496585816,729.200000004,20.4835
1496585820,731.600000004,17.6822
1496585824,700.400000004,19.0771
1496585828,734.000000004,21.7428
1496585832,734.000000004,20.4162
1496585836,760.400000004,19.0842
1496585840,693.200000004,20.0002
1496585844,714.800000004,19.8201
1496585848,750.800000004,20.1359
1496585852,765.200000004,18.4772
1496585856,782.000000004,18.418
1496585860,760.400000004,15.7816
1496585864,851.600000004,20.7929
1496585868,839.600000004,21.5089
1496585872,887.600000004,19.9616
1496585876,885.200000004,21.2693
1496585880,897.200000004,22.5783
1496585884,926.000000004,18.0243
1496585888,899.600000004,18.9758
1496585892,882.800000004,23.1615
1496585896,854.000000004,16.9173
1496585900,878.000000004,21.603
1496585904,870.800000004,20.8425
1496585908,830.000000004,19.0672
1496585912,834.800000004,15.7997
1496585916,813.200000004,27.7863
1496585920,837.200000004,24.4107
1496585924,839.600000004,24.7932
1496585928,851.600000004,22.1074
1496585932,825.200000004,20.9605
1496585936,777.200000004,24.4576
1496585940,782.000000004,20.9496
1496585944,854.000000004,21.3611
1496585948,844.400000004,18.1872
1496585952,842.000000004,18.0709
1496585956,842.000000004,20.5955
1496585960,854.000000004,15.7482
1496585964,885.200000004,15.0864
1496585972,914.000000004,21.5615
1496585976,897.200000004,22.1761
1496585980,935.600000004,21.7389
1496585984,904.400000004,22.1429
1496585988,933.200000004,17.0496
1496585992,890.000000004,20.6465
1496585996,856.400000004,23.2168
1496586000,854.000000004,22.9621
1496586004,858.800000004,18.5842
1496586008,899.600000004,19.0418
1496586012,832.400000004,19.8199
1496586016,827.600000004,13.0107
1496586020,856.400000004,17.4692
1496586024,894.800000004,14.8351
1496586028,846.800000004,19.146
1496586032,916.400000004,19.2612
1496586036,909.200000004,17.6593
1496586040,897.200000004,18.5978
1496586044,892.400000004,18.6057
1496586048,849.200000004,22.3633
1496586052,856.400000004,17.5185
1496586056,861.200000004,16.599
1496586060,844.400000004,20.1473
1496586064,894.800000004,18.3178
1496586068,911.600000004,16.3655
1496586072,880.400000004,23.277
1496586076,892.400000004,18.0053
1496586080,858.800000004,15.5988
1496586084,858.800000004,17.3534
1496586088,854.000000004,21.3949
1496586092,846.800000004,24.9206
1496586096,806.000000004,19.101
1496586100,858.800000004,21.0052
1496586104,878.000000004,21.7592
1496586108,916.400000004,18.68
1496586112,870.800000004,19.3326
1496586116,909.200000004,20.8812
1496586120,909.200000004,19.4114
1496586124,878.000000004,22.3843
1496586128,858.800000004,21.6491
1496586132,851.600000004,23.8679
1496586136,928.400000004,18.2124
1496586140,863.600000004,20.0577
1496586144,875.600000004,19.6154
1496586148,890.000000004,20.557
1496586152,914.000000004,12.655
1496586156,892.400000004,19.1197
1496586160,921.200000004,18.3109
1496586164,911.600000004,18.5864
1496586168,866.000000004,21.4565
1496586172,911.600000004,20.3348
1496586176,885.200000004,20.4544
1496586180,928.400000004,20.912
1496586184,897.200000004,22.1051
1496586188,911.600000004,20.2219
1496586192,868.400000004,22.6064
1496586196,935.600000004,19.3833
1496586200,880.400000004,16.2765
1496586204,882.800000004,20.475
1496586208,885.200000004,17.2422
1496586212,909.200000004,18.0581
1496586216,928.400000004,22.6387
1496586220,902.000000004,21.5255
1496586224,952.400000004,23.632
1496586228,945.200000004,20.6951
1496586232,933.200000004,23.7243
1496586236,904.400000004,18.7921
1496586240,933.200000004,18.1402
1496586244,914.000000004,14.9967
1496586248,911.600000004,20.4799
1496586252,863.600000004,24.0437
1496586256,849.200000004,21.6603
1496586260,868.400000004,21.0511
1496586264,830.000000004,23.4288
1496586268,846.800000004,26.7523
1496586272,854.000000004,20.8129
1496586276,875.600000004,20.918
1496586280,875.600000004,22.2553
1496586284,842.000000004,22.1454
1496586288,844.400000004,22.6369
1496586292,868.400000004,19.4353
1496586296,870.800000004,18.6307
1496586300,866.000000004,16.8724
1496586304,856.400000004,21.41
1496586308,827.600000004,18.3484
1496586312,849.200000004,16.5685
1496586316,834.800000004,20.1051
1496586320,810.800000004,20.506
1496586324,837.200000004,18.5041
1496586328,875.600000004,15.1481
1496586332,854.000000004,19.0441
1496586336,820.400000004,17.0745
1496586340,813.200000004,12.4499
1496586344,813.200000004,16.4405
1496586348,880.400000004,17.762
1496586352,839.600000004,21.0214
1496586356,846.800000004,21.803
1496586360,827.600000004,19.3833
1496586364,786.800000004,20.2987
1496586368,806.000000004,19.6061
1496586372,830.000000004,22.4566
1496586376,784.400000004,14.9543
1496586380,724.400000004,20.4594
1496586384,818.000000004,21.8083
1496586388,779.600000004,18.732
1496586392,801.200000004,23.86
1496586396,760.400000004,21.1629
1496586400,810.800000004,20.0586
1496586404,808.400000004,23.0453
1496586408,832.400000004,22.6701
1496586412,724.400000004,21.7599
1496586416,762.800000004,18.8465
1496586420,748.400000004,13.9842
1496586424,726.800000004,17.9873
1496586428,681.200000004,21.7782
1496586432,714.800000004,21.5759
1496586436,714.800000004,19.3546
1496586440,746.000000004,19.7095
1496586444,683.600000004,23.7611
1496586448,736.400000004,24.0825
1496586452,729.200000004,20.8403
1496586456,726.800000004,15.7804
1496586460,726.800000004,18.1302
1496586464,755.600000004,17.5577
1496586468,777.200000004,21.0411
1496586472,693.200000004,23.9525
1496586476,746.000000004,23.1304
1496586480,746.000000004,26.5617
1496586484,794.000000004,29.54
1496586488,726.800000004,25.1767
1496586492,743.600000004,25.003
1496586496,758.000000004,25.1359
1496586500,798.800000004,22.94
1496586504,832.400000004,24.6297
1496586508,815.600000004,22.315
1496586512,798.800000004,21.7319
1496586516,813.200000004,16.3804
1496586520,858.800000004,24.4377
1496586524,851.600000004,25.7797
1496586528,832.400000004,23.6633
1496586532,772.400000004,21.941
1496586536,834.800000004,21.2258
1496586540,827.600000004,17.0106
1496586544,837.200000004,19.6518
1496586548,866.000000004,17.4998
1496586552,863.600000004,23.5912
1496586556,887.600000004,23.3095
1496586560,899.600000004,17.9148
1496586564,866.000000004,20.4165
1496586568,892.400000004,18.0414
1496586572,914.000000004,20.3201
1496586576,830.000000004,18.4613
1496586580,856.400000004,15.968
1496586584,846.800000004,19.0929
1496586588,849.200000004,18.6015
1496586592,784.400000004,19.7219
1496586596,830.000000004,25.0452
1496586600,789.200000004,14.8326
1496586604,786.800000004,23.0644
1496586608,758.000000004,21.3559
1496586612,794.000000004,22.5528
1496586616,736.400000004,22.8359
1496586620,731.600000004,23.5505
1496586624,724.400000004,24.6055
1496586628,762.800000004,21.8446
1496586632,758.000000004,22.9786
1496586636,700.400000004,23.5526
1496586640,782.000000004,20.9745
1496586644,724.400000004,22.4236
1496586648,717.200000004,21.9109
1496586652,683.600000004,21.5765
1496586656,714.800000004,24.922
1496586660,686.000000004,19.0973
1496586664,669.200000004,16.5734
1496586668,748.400000004,19.0882
1496586672,698.000000004,17.7795
1496586676,688.400000004,19.3226
1496586680,686.000000004,16.0545
1496586684,702.800000004,20.7464
1496586688,662.000000004,21.9966
1496586692,707.600000004,23.8974
1496586696,690.800000004,23.2822
1496586700,772.400000004,20.859
1496586704,700.400000004,23.7589
1496586708,719.600000004,22.2227
1496586712,690.800000004,27.1282
1496586716,719.600000004,25.7053
1496586720,758.000000004,22.3045
1496586724,712.400000004,22.8633
1496586728,750.800000004,23.7846
1496586732,717.200000004,22.5377
1496586736,753.200000004,28.0307
1496586740,803.600000004,24.2543
1496586744,820.400000004,19.0326
1496586748,731.600000004,21.1201
1496586752,750.800000004,24.5518
1496586756,731.600000004,22.6987
1496586760,707.600000004,18.0541
1496586764,714.800000004,22.1819
1496586768,770.000000004,23.3497
1496586772,760.400000004,20.7768
1496586776,678.800000004,21.9197
1496586780,678.800000004,20.471
1496586784,700.400000004,23.3812
1496586788,678.800000004,22.2959
1496586792,690.800000004,20.5925
1496586796,700.400000004,16.6244
1496586800,678.800000004,17.1542
1496586804,717.200000004,20.5194
1496586808,674.000000004,23.3718
1496586812,702.800000004,21.856
1496586816,618.800000004,26.1148
1496586820,683.600000004,25.0968
1496586824,662.000000004,20.843
1496586828,621.200000004,20.5479
1496586832,628.400000004,21.9187
1496586836,623.600000004,23.1079
1496586840,611.600000004,21.5899
1496586844,642.800000004,23.3084
1496586848,654.800000004,21.0495
1496586852,614.000000004,24.6136
1496586856,686.000000004,21.4817
1496586860,693.200000004,22.792
1496586864,746.000000004,22.249
1496586868,710.000000004,22.7692
1496586872,712.400000004,24.5518
1496586876,722.000000004,23.4906
1496586880,798.800000004,20.0229
1496586884,760.400000004,21.7098
1496586888,750.800000004,17.8901
1496586892,724.400000004,19.3138
1496586896,717.200000004,23.0687
1496586900,726.800000004,23.0528
1496586904,755.600000004,21.5138
1496586908,719.600000004,20.7953
1496586912,743.600000004,25.5869
1496586916,705.200000004,19.1958
1496586920,750.800000004,20.8912
1496586924,726.800000004,21.2216
1496586928,719.600000004,18.1295
1496586932,690.800000004,17.7533
1496586936,748.400000004,21.3117
1496586940,705.200000004,21.3559
1496586944,729.200000004,24.845
1496586948,722.000000004,19.4932
1496586952,712.400000004,24.1246
1496586956,664.400000004,26.2065
1496586960,676.400000004,22.2104
1496586964,695.600000004,21.1104
1496586968,695.600000004,17.7285
1496586972,669.200000004,15.9834
1496586976,693.200000004,19.7969
1496586980,693.200000004,18.2924
1496586984,652.400000004,15.4855
1496586988,681.200000004,16.4143
1496586992,635.600000004,18.2204
1496586996,686.000000004,15.2753
1496587000,678.800000004,19.6477
1496587004,717.200000004,14.3898
1496587008,700.400000004,19.6126
1496587012,707.600000004,19.7218
1496587016,748.400000004,20.8768
1496587020,717.200000004,16.8806
1496587024,702.800000004,17.9789
1496587028,698.000000004,23.6101
1496587032,710.000000004,20.7044
1496587036,710.000000004,18.3022
1496587040,743.600000004,18.1189
1496587044,695.600000004,17.12
1496587048,748.400000004,14.8134
1496587052,722.000000004,13.5389
1496587056,712.400000004,16.836
1496587060,743.600000004,19.9603
1496587064,765.200000004,19.1322
1496587068,678.800000004,25.5125
1496587072,700.400000004,23.0861
1496587076,702.800000004,18.7239
1496587080,710.000000004,18.8543
1496587084,714.800000004,18.0091
1496587088,710.000000004,19.9571
1496587092,688.400000004,18.9007
1496587096,705.200000004,20.3081
1496587100,738.800000004,23.5165
1496587104,674.000000004,16.1999
1496587108,712.400000004,16.3696
1496587112,690.800000004,15.0764
1496587116,717.200000004,20.0735
1496587120,678.800000004,16.8613
1496587124,734.000000004,21.5083
1496587128,772.400000004,19.9748
1496587132,767.600000004,20.4486
1496587136,693.200000004,24.4668
1496587140,712.400000004,22.8484
1496587144,729.200000004,17.0035
1496587148,681.200000004,20.4622
1496587152,688.400000004,21.0117
1496587156,717.200000004,20.9741
1496587160,688.400000004,22.9529
1496587164,698.000000004,17.6619
1496587168,719.600000004,20.8238
1496587172,712.400000004,22.6207
1496587176,724.400000004,21.6686
1496587180,688.400000004,21.8137
1496587184,693.200000004,21.0515
1496587188,710.000000004,18.9272
1496587192,719.600000004,18.0367
1496587196,748.400000004,18.2907
1496587200,712.400000004,13.4353
1496587204,765.200000004,16.3481
1496587208,755.600000004,21.854
1496587212,815.600000004,17.1551
1496587216,719.600000004,20.3292
1496587220,820.400000004,21.3099
1496587224,758.000000004,19.5957
1496587228,786.800000004,18.0388
1496587232,806.000000004,14.3317
1496587236,801.200000004,17.0459
1496587240,861.200000004,18.1844
1496587244,796.400000004,15.4673
1496587248,815.600000004,21.257
1496587252,844.400000004,16.1938
1496587256,806.000000004,23.2194
1496587260,827.600000004,21.0091
1496587264,774.800000004,21.8739
1496587268,842.000000004,21.6168
1496587272,712.400000004,20.4114
1496587276,707.600000004,20.4785
1496587280,777.200000004,22.961
1496587284,779.600000004,19.8415
1496587288,736.400000004,15.964
1496587292,726.800000004,14.9467
1496587296,750.800000004,22.0742
1496587300,702.800000004,19.6815
1496587304,746.000000004,21.1469
1496587308,724.400000004,20.8139
1496587312,741.200000004,21.0316
1496587316,767.600000004,19.872
1496587320,791.600000004,22.4208
1496587324,722.000000004,18.183
1496587328,710.000000004,22.8476
1496587332,736.400000004,23.1644
1496587336,767.600000004,19.671
1496587340,774.800000004,18.4811
1496587344,767.600000004,18.2932
1496587348,810.800000004,21.8036
1496587352,794.000000004,16.6982
1496587356,825.200000004,19.0386
1496587360,786.800000004,17.5256
1496587364,830.000000004,16.2742
1496587368,748.400000004,21.8031
1496587372,818.000000004,19.3511
1496587376,834.800000004,18.7369
1496587380,825.200000004,21.0941
1496587384,861.200000004,21.7366
1496587388,786.800000004,21.1954
1496587392,798.800000004,21.9101
1496587396,770.000000004,25.7698
1496587400,686.000000004,19.1245
1496587404,786.800000004,20.1573
1496587408,765.200000004,16.975
1496587412,700.400000004,21.0692
1496587416,712.400000004,20.9116
1496587420,695.600000004,20.4075
1496587424,758.000000004,21.6168
1496587428,765.200000004,21.1986
1496587432,712.400000004,22.9492
1496587436,705.200000004,20.8969
1496587440,736.400000004,23.5364
1496587444,782.000000004,19.8986
1496587448,726.800000004,28.4177
1496587452,743.600000004,25.2096
1496587456,726.800000004,24.0157
1496587460,753.200000004,21.453
1496587464,786.800000004,23.913
1496587468,760.400000004,26.0486
1496587472,772.400000004,16.6367
1496587476,743.600000004,24.2593
1496587480,794.000000004,21.2869
1496587484,734.000000004,23.8944
1496587488,726.800000004,21.1016
1496587492,755.600000004,20.1438
1496587496,750.800000004,21.8928
1496587500,741.200000004,21.4858
1496587504,758.000000004,22.1134
1496587508,724.400000004,23.9608
1496587512,736.400000004,23.3124
1496587520,707.600000004,21.4649
1496587524,753.200000004,21.8691
1496587528,717.200000004,21.7381
1496587532,772.400000004,22.9025
1496587536,731.600000004,20.8338
1496587540,762.800000004,19.2751
1496587544,750.800000004,19.2033
1496587548,782.000000004,19.1072
1496587552,736.400000004,19.735
1496587556,827.600000004,19.8811
1496587560,762.800000004,24.9142
1496587564,690.800000004,20.5881
1496587568,746.000000004,19.6558
1496587572,707.600000004,18.7852
1496587576,705.200000004,19.2622
1496587580,731.600000004,18.5957
1496587584,710.000000004,14.3192
1496587588,678.800000004,21.7131
1496587592,738.800000004,20.7379
1496587596,674.000000004,23.7143
1496587600,710.000000004,25.667
1496587604,717.200000004,20.6472
1496587608,719.600000004,20.9355
1496587612,712.400000004,22.1534
1496587616,722.000000004,19.5646
1496587620,700.400000004,22.3889
1496587624,714.800000004,20.8292
1496587628,750.800000004,18.426
1496587632,705.200000004,22.3226
1496587636,700.400000004,20.9195
1496587640,669.200000004,22.9306
1496587644,736.400000004,21.3326
1496587648,695.600000004,22.1252
1496587652,707.600000004,23.7007
1496587656,707.600000004,22.0939
1496587660,707.600000004,26.1917
1496587664,676.400000004,22.4076
1496587668,705.200000004,22.9429
1496587672,671.600000004,20.9122
1496587676,712.400000004,20.029
1496587680,710.000000004,20.833
1496587684,741.200000004,19.2332
1496587688,738.800000004,18.8562
1496587692,707.600000004,15.3585
1496587696,734.000000004,17.6914
1496587700,731.600000004,18.8644
1496587704,762.800000004,19.8448
1496587708,820.400000004,24.6556
1496587712,846.800000004,23.5107
1496587716,803.600000004,21.2754
1496587720,844.400000004,21.178
1496587724,832.400000004,20.286
1496587728,794.000000004,20.464
1496587732,760.400000004,21.169
1496587736,772.400000004,19.7606
1496587740,772.400000004,24.1252
1496587744,777.200000004,20.7918
1496587748,750.800000004,21.9803
1496587752,830.000000004,21.4505
1496587756,765.200000004,21.8357
1496587760,779.600000004,18.8257
1496587764,755.600000004,19.8372
1496587768,712.400000004,20.2406
1496587772,743.600000004,19.2148
1496587776,782.000000004,24.651
1496587780,770.000000004,20.609
1496587784,765.200000004,21.9636
1496587788,748.400000004,21.6254
1496587792,777.200000004,20.9091
1496587796,798.800000004,20.2405
1496587800,758.000000004,21.9082
1496587804,748.400000004,20.4442
1496587808,750.800000004,22.0835
1496587812,736.400000004,19.9702
1496587816,784.400000004,19.266
1496587820,772.400000004,22.3441
1496587824,806.000000004,22.9276
1496587828,717.200000004,20.0429
1496587832,820.400000004,23.5115
1496587836,796.400000004,21.7516
1496587840,791.600000004,19.3587
1496587844,707.600000004,18.6883
1496587848,806.000000004,23.1888
1496587852,748.400000004,22.7178
1496587856,791.600000004,20.1779
1496587860,717.200000004,22.7055
1496587864,734.000000004,25.1311
1496587868,755.600000004,23.0978
1496587872,719.600000004,23.2079
1496587876,724.400000004,19.7248
1496587880,722.000000004,16.2723
1496587884,758.000000004,17.6052
1496587888,726.800000004,19.1471
1496587892,719.600000004,19.6428
1496587896,734.000000004,22.1769
1496587900,767.600000004,20.6518
1496587904,717.200000004,20.6383
1496587908,760.400000004,20.1521
1496587912,760.400000004,17.7052
1496587916,731.600000004,19.2905
1496587920,712.400000004,20.9002
1496587924,724.400000004,26.1326
1496587928,714.800000004,23.5057
1496587932,705.200000004,17.9158
1496587936,712.400000004,23.3054
1496587940,743.600000004,21.9705
1496587944,750.800000004,22.129
1496587952,717.200000004,20.6341
1496587956,681.200000004,21.7511
1496587960,760.400000004,16.6806
1496587964,705.200000004,17.5772
1496587968,726.800000004,20.3203
1496587972,750.800000004,22.0776
1496587976,731.600000004,22.2493
1496587980,705.200000004,19.185
1496587984,741.200000004,16.7002
1496587988,674.000000004,21.8018
1496587992,690.800000004,22.363
1496587996,674.000000004,18.1689
1496588000,702.800000004,20.8365
1496588004,676.400000004,19.3855
1496588008,719.600000004,21.1269
1496588012,640.400000004,24.933
1496588016,736.400000004,23.5817
1496588020,736.400000004,21.5811
1496588024,719.600000004,21.6932
1496588028,707.600000004,23.5204
1496588032,736.400000004,18.6789
1496588036,741.200000004,20.1976
1496588040,688.400000004,16.3722
1496588044,729.200000004,19.6847
1496588048,731.600000004,20.3908
1496588052,734.000000004,17.0907
1496588056,741.200000004,17.9185
1496588060,700.400000004,22.2911
1496588064,698.000000004,20.4077
1496588068,702.800000004,20.6079
1496588072,743.600000004,26.6373
1496588076,681.200000004,26.2789
1496588080,789.200000004,22.199
1496588084,726.800000004,19.5161
1496588088,818.000000004,19.7255
1496588092,813.200000004,21.6084
1496588096,842.000000004,16.6352
1496588100,794.000000004,17.6725
1496588104,837.200000004,21.1169
1496588108,820.400000004,20.8329
1496588112,801.200000004,19.8592
1496588116,798.800000004,18.4787
1496588120,820.400000004,21.0262
1496588124,762.800000004,19.1002
1496588128,803.600000004,19.6747
1496588132,772.400000004,21.1776
1496588136,746.000000004,21.0011
1496588140,736.400000004,23.9995
1496588144,770.000000004,23.2238
1496588148,779.600000004,19.2144
1496588152,719.600000004,20.5271
1496588156,741.200000004,23.8637
1496588160,700.400000004,22.24
1496588164,690.800000004,22.1776
1496588168,676.400000004,26.5448
1496588172,693.200000004,22.3919
1496588176,710.000000004,23.0403
1496588180,741.200000004,21.9361
1496588184,698.000000004,17.5453
1496588188,724.400000004,20.1548
1496588192,698.000000004,21.895
1496588200,652.400000004,21.6228
1496588204,700.400000004,21.1826
1496588208,762.800000004,22.1791
1496588212,736.400000004,26.1243
1496588216,700.400000004,23.5071
1496588220,719.600000004,20.2287
1496588224,784.400000004,20.3945
1496588228,714.800000004,19.524
1496588232,710.000000004,25.3997
1496588236,702.800000004,24.5563
1496588240,695.600000004,23.3508
1496588244,705.200000004,22.482
1496588248,700.400000004,20.6223
1496588252,702.800000004,21.6251
1496588256,695.600000004,18.438
1496588260,722.000000004,22.5697
1496588264,698.000000004,23.8552
1496588268,698.000000004,22.3685
1496588272,693.200000004,19.8842
1496588276,712.400000004,20.9166
1496588280,707.600000004,23.4857
1496588284,686.000000004,25.3318
1496588288,681.200000004,16.7623
1496588292,714.800000004,17.3809
1496588296,717.200000004,17.5509
1496588300,712.400000004,15.2737
1496588304,710.000000004,18.745
1496588308,688.400000004,16.0636
1496588312,693.200000004,18.1856
1496588316,690.800000004,17.0117
1496588320,676.400000004,12.8284
1496588324,688.400000004,16.2239
1496588328,743.600000004,16.5815
1496588332,748.400000004,23.1656
1496588336,743.600000004,20.2803
1496588340,743.600000004,20.1529
1496588344,738.800000004,20.0537
1496588348,702.800000004,21.6517
1496588352,705.200000004,21.8042
1496588356,690.800000004,21.0748
1496588360,714.800000004,23.9165
1496588364,736.400000004,17.9547
1496588368,683.600000004,21.2893
1496588372,726.800000004,19.4337
1496588376,722.000000004,23.2185
1496588380,772.400000004,17.0272
1496588384,702.800000004,13.223
1496588388,741.200000004,14.6095
1496588392,662.000000004,20.1786
1496588396,719.600000004,22.9806
1496588400,722.000000004,21.3252
1496588404,698.000000004,19.7919
1496588408,707.600000004,19.767
1496588412,719.600000004,22.5777
1496588416,683.600000004,22.1608
1496588420,683.600000004,24.932
1496588424,690.800000004,21.1911
1496588428,717.200000004,18.9849
1496588432,746.000000004,24.8683
1496588436,705.200000004,22.4291
1496588440,707.600000004,20.1549
1496588444,707.600000004,20.8249
1496588448,702.800000004,15.0893
1496588452,662.000000004,20.2301
1496588456,719.600000004,14.3352
1496588460,683.600000004,19.1891
1496588464,669.200000004,17.8778
1496588468,659.600000004,21.8401
1496588472,623.600000004,21.6819
1496588476,623.600000004,21.3351
1496588480,666.800000004,19.0009
1496588484,688.400000004,23.0949
1496588488,676.400000004,20.3045
1496588492,683.600000004,21.7532
1496588496,714.800000004,22.2393
1496588500,712.400000004,19.967
1496588504,693.200000004,16.6315
1496588508,681.200000004,20.8411
1496588512,700.400000004,25.4923
1496588516,674.000000004,21.6414
1496588520,674.000000004,21.8446
1496588524,681.200000004,19.3377
1496588528,705.200000004,19.5788
1496588532,638.000000004,18.5322
1496588536,702.800000004,20.9034
1496588540,645.200000004,24.851
1496588544,693.200000004,18.6676
1496588548,662.000000004,20.3859
1496588552,707.600000004,21.1694
1496588556,719.600000004,21.0564
1496588560,705.200000004,20.9757
1496588564,686.000000004,16.0561
1496588568,700.400000004,15.3243
1496588572,722.000000004,23.9545
1496588576,702.800000004,18.5204
1496588580,695.600000004,19.2336
1496588584,642.800000004,15.0705
1496588588,678.800000004,20.3217
1496588592,705.200000004,19.2722
1496588596,666.800000004,18.1764
1496588600,707.600000004,22.0095
1496588604,683.600000004,20.2775
1496588608,760.400000004,19.6165
1496588612,746.000000004,16.4972
1496588616,777.200000004,15.4798
1496588620,786.800000004,13.3971
1496588624,750.800000004,21.1579
1496588628,822.800000004,16.8465
1496588632,753.200000004,14.2296
1496588636,779.600000004,20.2917
1496588640,822.800000004,18.7781
1496588644,842.000000004,18.147
1496588648,827.600000004,17.7883
1496588652,741.200000004,17.3573
1496588656,830.000000004,17.1595
1496588660,818.000000004,19.0867
1496588664,834.800000004,20.286
1496588668,794.000000004,20.426
1496588672,738.800000004,16.6447
1496588676,796.400000004,21.3147
1496588680,825.200000004,17.5702
1496588684,820.400000004,22.8785
1496588688,760.400000004,22.325
1496588692,827.600000004,24.0712
1496588696,779.600000004,20.4968
1496588700,758.000000004,17.2869
1496588704,832.400000004,24.3778
1496588708,822.800000004,24.0457
1496588712,774.800000004,22.3404
1496588716,772.400000004,20.4794
1496588720,851.600000004,17.6805
1496588724,885.200000004,19.7744
1496588728,863.600000004,15.1026
1496588732,842.000000004,14.0807
1496588736,839.600000004,19.215
1496588740,863.600000004,16.5473
1496588744,815.600000004,17.3582
1496588748,870.800000004,21.0313
1496588752,818.000000004,23.8666
1496588756,854.000000004,22.4501
1496588760,849.200000004,19.1654
1496588764,842.000000004,21.758
1496588768,909.200000004,20.2848
1496588772,842.000000004,23.5464
1496588776,803.600000004,22.2859
1496588780,834.800000004,21.8527
1496588784,834.800000004,18.2557
1496588788,808.400000004,24.7604
1496588792,858.800000004,22.2043
1496588796,796.400000004,22.2991
1496588800,746.000000004,24.1377
1496588804,801.200000004,22.2831
1496588808,772.400000004,25.2691
1496588812,791.600000004,22.9293
1496588816,813.200000004,19.4162
1496588820,844.400000004,22.1173
1496588824,849.200000004,22.1599
1496588828,844.400000004,21.8938
1496588832,849.200000004,19.5773
1496588836,870.800000004,20.5463
1496588840,858.800000004,23.4637
1496588844,849.200000004,22.1919
1496588848,899.600000004,20.9065
1496588852,904.400000004,26.0782
1496588856,856.400000004,16.1029
1496588860,839.600000004,22.0822
1496588864,851.600000004,20.7695
1496588868,909.200000004,21.3222
1496588872,868.400000004,18.9387
1496588876,858.800000004,21.767
1496588880,897.200000004,25.653
1496588884,863.600000004,21.0394
1496588888,909.200000004,22.917
1496588892,916.400000004,22.2511
1496588896,904.400000004,19.6471
1496588900,906.800000004,20.3469
1496588904,902.000000004,23.1003
1496588908,844.400000004,23.6812
1496588912,875.600000004,19.0831
1496588916,813.200000004,18.8171
1496588920,875.600000004,22.8898
1496588924,849.200000004,24.076
1496588928,858.800000004,23.0717
1496588932,890.000000004,20.3818
1496588936,938.000000004,20.0294
1496588940,875.600000004,18.5607
1496588944,916.400000004,22.3345
1496588948,873.200000004,19.1459
1496588952,858.800000004,18.6106
1496588956,844.400000004,20.4139
1496588960,842.000000004,21.8977
1496588964,880.400000004,19.6394
1496588968,825.200000004,17.9189
1496588972,842.000000004,16.7006
1496588976,854.000000004,19.0988
1496588980,875.600000004,22.792
1496588984,866.000000004,20.6852
1496588988,837.200000004,20.0235
1496588992,914.000000004,20.8778
1496588996,866.000000004,23.0012
1496589000,873.200000004,16.6237
1496589004,837.200000004,17.6358
1496589008,846.800000004,19.1786
1496589012,832.400000004,16.9989
1496589016,784.400000004,13.5097
1496589020,774.800000004,18.3138
1496589024,789.200000004,18.2215
1496589028,830.000000004,20.4594
1496589032,755.600000004,19.6231
1496589036,702.800000004,21.964
1496589040,762.800000004,21.8465
1496589044,717.200000004,19.5306
1496589048,714.800000004,20.4762
1496589052,782.000000004,18.452
1496589056,707.600000004,19.7709
1496589060,724.400000004,20.6001
1496589064,748.400000004,19.9315
1496589068,729.200000004,17.4779
1496589072,707.600000004,16.1243
1496589076,741.200000004,21.6116
1496589080,813.200000004,20.6175
1496589084,726.800000004,20.9627
1496589088,741.200000004,21.5591
1496589092,762.800000004,22.9403
1496589096,818.000000004,21.5576
1496589100,815.600000004,23.3314
1496589104,815.600000004,20.541
1496589108,830.000000004,20.3099
1496589112,839.600000004,20.0739
1496589116,813.200000004,16.6451
1496589120,801.200000004,20.0696
1496589124,760.400000004,17.864
1496589128,846.800000004,14.4188
1496589132,796.400000004,22.5302
1496589136,777.200000004,20.138
1496589140,767.600000004,20.7174
1496589144,734.000000004,24.0513
1496589148,782.000000004,20.1038
1496589152,784.400000004,21.9809
1496589156,726.800000004,20.2472
1496589160,762.800000004,16.8462
1496589164,741.200000004,18.9252
1496589168,734.000000004,20.7544
1496589172,698.000000004,22.1074
1496589176,834.800000004,21.692
1496589180,854.000000004,18.9023
1496589184,839.600000004,20.7808
1496589188,863.600000004,19.5666
1496589192,863.600000004,17.6186
1496589196,933.200000004,17.5483
1496589200,849.200000004,20.1791
1496589204,878.000000004,16.8939
1496589208,866.000000004,25.5244
1496589212,858.800000004,23.1101
1496589216,844.400000004,22.7619
1496589220,832.400000004,17.9381
1496589224,818.000000004,21.4199
1496589228,844.400000004,24.4195
1496589232,820.400000004,25.1593
1496589236,822.800000004,23.4915
1496589240,832.400000004,20.0477
1496589244,882.800000004,21.5669
1496589248,839.600000004,20.0687
1496589252,875.600000004,18.3683
1496589256,856.400000004,21.1505
1496589260,844.400000004,17.8428
1496589264,851.600000004,24.6105
1496589268,830.000000004,22.9983
1496589272,714.800000004,18.2369
1496589276,746.000000004,18.1016
1496589280,698.000000004,20.9615
1496589284,719.600000004,17.4111
1496589288,722.000000004,15.4458
1496589292,794.000000004,20.8491
1496589296,770.000000004,23.6996
1496589300,710.000000004,20.5253
1496589304,700.400000004,18.8183
1496589308,753.200000004,12.1689
1496589312,786.800000004,17.7411
1496589316,810.800000004,21.0398
1496589320,918.800000004,19.3047
1496589324,918.800000004,19.0957
1496589328,904.400000004,28.1411
1496589332,969.200000004,22.3725
1496589336,880.400000004,21.5441
1496589340,921.200000004,21.173
1496589344,904.400000004,20.7447
1496589348,914.000000004,19.9175
1496589352,894.800000004,19.1563
1496589356,863.600000004,21.0084
1496589360,878.000000004,18.7357
1496589364,856.400000004,18.5914
1496589368,837.200000004,19.7251
1496589372,854.000000004,18.2959
1496589376,844.400000004,16.3614
1496589380,839.600000004,18.3023
1496589384,844.400000004,22.3422
1496589388,882.800000004,20.1622
1496589392,866.000000004,20.4281
1496589396,827.600000004,18.1637
1496589400,839.600000004,20.3654
1496589404,837.200000004,20.7806
1496589408,834.800000004,21.6056
1496589412,791.600000004,22.9072
1496589416,794.000000004,17.5294
1496589420,683.600000004,18.8605
1496589424,818.000000004,19.1318
1496589428,736.400000004,21.8358
1496589432,762.800000004,20.2575
1496589436,738.800000004,15.2579
1496589440,724.400000004,20.4265
1496589444,729.200000004,20.9793
1496589448,762.800000004,20.8948
1496589452,784.400000004,18.2786
1496589456,822.800000004,21.337
1496589460,830.000000004,25.7623
1496589464,856.400000004,24.2865
1496589468,784.400000004,19.979
1496589472,846.800000004,20.4348
1496589476,796.400000004,21.2046
1496589480,846.800000004,17.1168
1496589484,765.200000004,16.6302
1496589488,798.800000004,18.7936
1496589492,842.000000004,21.9687
1496589496,834.800000004,19.7282
1496589500,846.800000004,19.6494
1496589504,825.200000004,16.0905
1496589508,810.800000004,16.6236
1496589512,815.600000004,18.5023
1496589516,822.800000004,17.4948
1496589520,827.600000004,20.7598
1496589524,837.200000004,19.9831
1496589528,844.400000004,18.9092
1496589532,801.200000004,23.0748
1496589536,825.200000004,21.2962
1496589540,796.400000004,19.6071
1496589544,767.600000004,19.7863
1496589548,784.400000004,15.4107
1496589552,719.600000004,19.8231
1496589556,786.800000004,21.5086
1496589560,789.200000004,18.1184
1496589564,705.200000004,18.3398
1496589568,741.200000004,19.709
1496589572,714.800000004,18.6329
1496589576,741.200000004,22.8325
1496589580,750.800000004,19.3607
1496589584,712.400000004,19.4885
1496589588,755.600000004,23.7041
1496589592,741.200000004,24.8259
1496589596,741.200000004,25.3564
1496589600,712.400000004,16.4923
1496589604,712.400000004,14.7205
1496589608,698.000000004,17.6096
1496589612,698.000000004,18.257
1496589616,690.800000004,15.4467
1496589620,690.800000004,19.4775
1496589624,664.400000004,19.2474
1496589628,690.800000004,21.4695
1496589632,705.200000004,20.2835
1496589636,714.800000004,18.5669
1496589640,702.800000004,17.7152
1496589644,753.200000004,17.7717
1496589648,681.200000004,17.4892
1496589652,686.000000004,17.9675
1496589656,712.400000004,19.5245
1496589660,700.400000004,18.6772
1496589664,671.600000004,17.9934
1496589668,678.800000004,17.9631
1496589672,707.600000004,17.1639
1496589676,698.000000004,20.4942
1496589680,712.400000004,18.4656
1496589684,700.400000004,17.4175
1496589688,633.200000004,18.1611
1496589692,662.000000004,17.4228
1496589696,707.600000004,19.2273
1496589700,736.400000004,19.4863
1496589704,798.800000004,18.6762
1496589708,801.200000004,16.0637
1496589712,746.000000004,23.031
1496589716,746.000000004,19.7622
1496589720,741.200000004,21.1566
1496589724,760.400000004,21.6956
1496589728,717.200000004,20.5714
1496589732,712.400000004,24.8911
1496589736,750.800000004,20.9502
1496589740,731.600000004,19.8831
1496589744,714.800000004,21.8124
1496589748,801.200000004,20.5209
1496589752,777.200000004,22.6152
1496589756,734.000000004,22.6691
1496589760,693.200000004,22.2195
1496589764,690.800000004,21.4738
1496589768,662.000000004,19.2645
1496589772,688.400000004,20.7064
1496589776,686.000000004,19.6079
1496589780,678.800000004,21.187
1496589784,683.600000004,17.9205
1496589788,683.600000004,19.9244
1496589792,666.800000004,16.5598
1496589796,664.400000004,21.9152
1496589800,671.600000004,20.3781
1496589804,659.600000004,21.8947
1496589808,650.000000004,22.1284
1496589812,774.800000004,19.8612
1496589816,904.400000004,17.4004
1496589820,890.000000004,22.6628
1496589824,861.200000004,18.9313
1496589828,866.000000004,22.0396
1496589832,849.200000004,18.5478
1496589836,803.600000004,21.7457
1496589840,858.800000004,19.5735
1496589844,803.600000004,19.4114
1496589848,784.400000004,19.2518
1496589852,820.400000004,20.7446
1496589856,774.800000004,15.0925
1496589860,782.000000004,19.4585
1496589864,750.800000004,21.7539
1496589872,753.200000004,23.8663
1496589876,830.000000004,21.1925
1496589880,774.800000004,24.0349
1496589884,712.400000004,23.2835
1496589888,755.600000004,17.8216
1496589892,702.800000004,18.1037
1496589896,717.200000004,20.6702
1496589900,801.200000004,21.4998
1496589904,714.800000004,23.0496
1496589908,705.200000004,19.1136
1496589912,746.000000004,21.9086
1496589916,734.000000004,18.9034
1496589920,765.200000004,17.7713
1496589924,719.600000004,19.8358
1496589928,698.000000004,24.0678
1496589932,765.200000004,22.675
1496589936,729.200000004,19.1769
1496589940,690.800000004,17.566
1496589944,808.400000004,21.37
1496589948,734.000000004,20.3815
1496589952,758.000000004,19.8929
1496589956,734.000000004,21.7148
1496589960,753.200000004,15.4175
1496589964,717.200000004,21.2715
1496589968,753.200000004,20.8487
1496589972,726.800000004,18.2745
1496589976,698.000000004,17.4298
1496589980,702.800000004,23.6
1496589984,683.600000004,17.9333
1496589988,683.600000004,22.9845
1496589992,681.200000004,23.4806
1496589996,681.200000004,22.7381
1496590000,683.600000004,21.0667
1496590004,621.200000004,21.4392
1496590008,621.200000004,17.8426
1496590012,662.000000004,20.2038
1496590016,671.600000004,19.2673
1496590020,717.200000004,21.8753
1496590024,698.000000004,19.7363
1496590028,719.600000004,21.2616
1496590032,717.200000004,18.2892
1496590036,830.000000004,18.0378
1496590040,798.800000004,19.7395
1496590044,772.400000004,19.3942
1496590048,758.000000004,18.5665
1496590052,830.000000004,18.958
1496590056,806.000000004,16.3149
1496590060,753.200000004,11.7346
1496590064,789.200000004,23.4291
1496590068,851.600000004,20.1757
1496590072,830.000000004,17.2627
1496590076,863.600000004,19.3972
1496590080,880.400000004,19.9979
1496590084,887.600000004,17.6491
1496590088,866.000000004,16.9898
1496590092,856.400000004,22.4201
1496590096,909.200000004,16.7961
1496590100,868.400000004,25.2836
1496590104,863.600000004,17.696
1496590108,839.600000004,15.1724
1496590112,870.800000004,16.2719
1496590116,803.600000004,18.586
1496590120,813.200000004,20.1841
1496590124,818.000000004,17.4407
1496590128,834.800000004,20.0581
1496590132,743.600000004,18.6517
1496590136,731.600000004,25.8794
1496590140,748.400000004,23.0302
1496590144,690.800000004,25.3627
1496590148,712.400000004,20.4836
1496590152,676.400000004,17.546
1496590156,717.200000004,22.2258
1496590160,736.400000004,24.262
1496590164,717.200000004,19.2402
1496590168,698.000000004,22.8845
1496590172,688.400000004,20.1453
1496590176,681.200000004,19.1965
1496590180,700.400000004,18.8786
1496590184,659.600000004,19.854
1496590188,592.400000004,23.1991
1496590192,693.200000004,19.4946
1496590196,662.000000004,24.067
1496590200,674.000000004,20.7718
1496590204,609.200000004,18.736
1496590208,674.000000004,21.6898
1496590212,657.200000004,23.4551
1496590216,698.000000004,21.0768
1496590220,686.000000004,18.947
1496590224,700.400000004,21.9589
1496590228,729.200000004,16.8536
1496590232,729.200000004,22.5427
1496590236,822.800000004,16.6989
1496590240,798.800000004,16.7879
1496590244,822.800000004,25.5113
1496590248,738.800000004,18.1012
1496590252,758.000000004,18.1058
1496590256,741.200000004,17.0684
1496590260,758.000000004,20.6022
1496590264,738.800000004,20.6303
1496590268,731.600000004,17.5341
1496590272,731.600000004,15.1275
1496590276,714.800000004,13.6505
1496590280,688.400000004,14.5483
1496590284,686.000000004,17.2906
1496590288,690.800000004,18.9285
1496590292,695.600000004,23.5219
1496590296,738.800000004,19.3587
1496590300,690.800000004,20.2388
1496590304,707.600000004,24.0456
1496590308,717.200000004,20.6525
1496590312,741.200000004,20.8659
1496590316,777.200000004,19.0878
1496590320,837.200000004,24.6588
1496590324,770.000000004,21.1379
1496590328,784.400000004,20.9247
1496590332,796.400000004,22.4892
1496590336,767.600000004,20.4785
1496590340,772.400000004,18.9997
1496590344,784.400000004,19.5637
1496590348,803.600000004,14.2794
1496590352,724.400000004,22.6725
1496590356,743.600000004,17.993
1496590360,743.600000004,15.5185
1496590364,789.200000004,22.2748
1496590368,782.000000004,15.6586
1496590372,724.400000004,18.6875
1496590376,710.000000004,19.2762
1496590380,755.600000004,21.6047
1496590384,705.200000004,19.6432
1496590388,722.000000004,24.9753
1496590392,750.800000004,20.4808
1496590396,712.400000004,21.986
1496590400,712.400000004,20.065
1496590404,669.200000004,21.7694
1496590408,777.200000004,17.4745
1496590412,710.000000004,21.1582
1496590416,717.200000004,18.6327
1496590420,688.400000004,16.2168
1496590424,671.600000004,17.6168
1496590428,681.200000004,17.0609
1496590432,693.200000004,16.9709
1496590436,710.000000004,16.2128
1496590440,633.200000004,20.2498
1496590444,722.000000004,18.6838
1496590448,729.200000004,17.5624
1496590452,743.600000004,17.8265
1496590456,777.200000004,22.4948
1496590460,791.600000004,21.5905
1496590464,767.600000004,22.4504
1496590468,750.800000004,21.455
1496590472,717.200000004,22.76
1496590476,753.200000004,23.1139
1496590480,753.200000004,20.3358
1496590484,702.800000004,22.6067
1496590488,741.200000004,21.2097
1496590492,726.800000004,20.0245
1496590496,748.400000004,22.0974
1496590500,710.000000004,21.4122
1496590504,750.800000004,17.119
1496590508,707.600000004,17.8287
1496590512,722.000000004,21.1956
1496590516,810.800000004,21.9396
1496590520,695.600000004,20.6117
1496590524,719.600000004,25.5079
1496590528,714.800000004,24.759
1496590532,714.800000004,22.5221
1496590536,712.400000004,25.0737
1496590540,765.200000004,24.2326
1496590544,796.400000004,28.5976
1496590548,755.600000004,25.2202
1496590552,822.800000004,22.4147
1496590556,765.200000004,26.2655
1496590560,762.800000004,21.3516
1496590564,731.600000004,19.4434
1496590568,813.200000004,19.1361
1496590572,741.200000004,16.7212
1496590576,789.200000004,16.9449
1496590580,806.000000004,20.3206
1496590584,786.800000004,21.8886
1496590588,791.600000004,24.4786
1496590592,806.000000004,23.2388
1496590596,762.800000004,19.747
1496590600,796.400000004,16.0974
1496590604,810.800000004,20.8528
1496590608,808.400000004,17.3137
1496590612,743.600000004,20.5813
1496590616,782.000000004,23.793
1496590620,767.600000004,20.82
1496590624,731.600000004,20.3222
1496590628,712.400000004,25.4071
1496590632,779.600000004,23.7665
1496590636,736.400000004,23.9542
1496590640,734.000000004,25.345
1496590644,717.200000004,25.089
1496590648,710.000000004,26.0417
1496590652,698.000000004,28.4887
1496590656,702.800000004,23.4422
1496590660,662.000000004,23.9434
1496590664,755.600000004,22.9988
1496590668,714.800000004,23.7621
1496590672,738.800000004,25.0015
1496590676,686.000000004,26.6
1496590680,755.600000004,25.7223
1496590684,801.200000004,23.9373
1496590688,755.600000004,22.6475
1496590692,719.600000004,18.266
1496590696,765.200000004,19.9219
1496590700,791.600000004,13.7924
1496590704,736.400000004,22.4431
1496590708,820.400000004,18.5582
1496590712,741.200000004,20.3397
1496590716,803.600000004,18.1026
1496590720,786.800000004,20.6208
1496590724,798.800000004,18.6429
1496590728,822.800000004,18.8017
1496590732,820.400000004,19.2917
1496590736,748.400000004,21.329
1496590740,837.200000004,19.8729
1496590744,743.600000004,22.3869
1496590748,791.600000004,19.3582
1496590752,782.000000004,21.6818
1496590756,760.400000004,23.0794
1496590760,710.000000004,24.7865
1496590764,710.000000004,19.2622
1496590768,738.800000004,20.0729
1496590772,734.000000004,16.7148
1496590776,712.400000004,20.3255
1496590780,760.400000004,22.4242
1496590784,719.600000004,17.9103
1496590788,722.000000004,23.0219
1496590792,731.600000004,22.6671
1496590796,710.000000004,21.3437
1496590800,786.800000004,17.7892
1496590804,748.400000004,19.6743
1496590808,743.600000004,23.9683
1496590812,726.800000004,20.3449
1496590816,796.400000004,20.4066
1496590820,712.400000004,20.6959
1496590824,741.200000004,23.0417
1496590828,743.600000004,21.2523
1496590832,774.800000004,21.6768
1496590836,786.800000004,20.2463
1496590840,844.400000004,19.3488
1496590844,753.200000004,18.1853
1496590848,741.200000004,24.223
1496590852,702.800000004,18.4637
1496590856,693.200000004,18.023
1496590860,714.800000004,23.3237
1496590864,700.400000004,20.4482
1496590868,717.200000004,20.7933
1496590872,683.600000004,25.9534
1496590876,683.600000004,27.8278
1496590880,738.800000004,18.2137
1496590884,750.800000004,15.0033
1496590888,695.600000004,19.3409
1496590892,698.000000004,21.0366
1496590896,748.400000004,22.5812
1496590900,686.000000004,22.6851
1496590904,705.200000004,19.1018
1496590908,702.800000004,17.4375
1496590912,686.000000004,21.0857
1496590916,698.000000004,20.2094
1496590920,671.600000004,18.9149
1496590924,695.600000004,18.075
1496590928,664.400000004,19.4425
1496590932,705.200000004,14.3577
1496590936,659.600000004,18.7804
1496590940,724.400000004,16.3534
1496590944,666.800000004,14.6081
1496590948,674.000000004,18.5777
1496590952,669.200000004,19.8333
1496590956,671.600000004,25.673
1496590960,669.200000004,22.0246
1496590964,623.600000004,23.5753
1496590968,681.200000004,23.1657
1496590976,674.000000004,18.4331
1496590980,729.200000004,19.7811
1496590984,690.800000004,21.0133
1496590988,681.200000004,18.9463
1496590992,678.800000004,21.4415
1496590996,695.600000004,20.5597
1496591000,671.600000004,21.0983
1496591004,676.400000004,21.3196
1496591008,666.800000004,19.2141
1496591012,710.000000004,22.7974
1496591016,700.400000004,22.2934
1496591020,695.600000004,21.9859
1496591024,635.600000004,18.6505
1496591028,743.600000004,19.4113
1496591032,690.800000004,18.5488
1496591036,683.600000004,22.6967
1496591040,671.600000004,18.1843
1496591044,686.000000004,19.2753
1496591048,662.000000004,20.8669
1496591052,714.800000004,22.1325
1496591056,690.800000004,18.8244
1496591060,669.200000004,18.3146
1496591064,705.200000004,18.3762
1496591068,695.600000004,19.9048
1496591072,695.600000004,19.3897
1496591076,688.400000004,21.5448
1496591080,683.600000004,21.7895
1496591084,702.800000004,22.4288
1496591088,693.200000004,21.8186
1496591092,688.400000004,20.0383
1496591096,705.200000004,15.8487
1496591100,640.400000004,20.8129
1496591104,734.000000004,22.3099
1496591108,690.800000004,22.8148
1496591112,700.400000004,24.8421
1496591116,726.800000004,20.8121
1496591120,729.200000004,23.7913
1496591124,724.400000004,22.6862
1496591128,724.400000004,23.1093
1496591132,750.800000004,23.3637
1496591136,789.200000004,22.4004
1496591140,714.800000004,23.9485
1496591144,772.400000004,19.3787
1496591148,738.800000004,23.2366
1496591152,693.200000004,21.8721
1496591156,729.200000004,22.6246
1496591160,707.600000004,20.2891
1496591164,705.200000004,19.2077
1496591168,695.600000004,20.2246
1496591172,707.600000004,22.3809
1496591176,710.000000004,16.3224
1496591180,726.800000004,20.8977
1496591184,753.200000004,18.576
1496591188,815.600000004,19.8455
1496591192,714.800000004,18.9543
1496591196,806.000000004,19.1873
1496591200,734.000000004,17.8054
1496591204,774.800000004,17.5287
1496591208,762.800000004,18.4949
