tag_number,delay,power_est
1496340116,820.400000004,20.8522
1496340120,710.000000004,23.2458
1496340124,772.400000004,21.5003
1496340128,755.600000004,23.6644
1496340132,743.600000004,17.0139
1496340136,830.000000004,20.6076
1496340140,774.800000004,21.362
1496340144,822.800000004,18.7141
1496340148,789.200000004,19.9226
1496340152,736.400000004,18.3039
1496340156,796.400000004,22.0792
1496340160,786.800000004,20.3028
1496340164,827.600000004,21.0924
1496340168,770.000000004,24.014
1496340172,762.800000004,21.9738
1496340176,748.400000004,24.5083
1496340180,698.000000004,22.8919
1496340184,820.400000004,17.186
1496340188,794.000000004,22.802
1496340192,760.400000004,20.3631
1496340196,813.200000004,20.948
1496340200,825.200000004,23.7949
1496340204,765.200000004,20.1354
1496340208,774.800000004,16.5614
1496340212,806.000000004,20.4786
1496340216,762.800000004,23.3677
1496340220,803.600000004,24.1268
1496340224,774.800000004,19.9167
1496340228,729.200000004,21.2459
1496340232,839.600000004,22.9089
1496340236,815.600000004,18.0468
1496340240,789.200000004,20.4237
1496340244,772.400000004,22.793
1496340248,822.800000004,17.0344
1496340252,827.600000004,21.5114
1496340256,798.800000004,21.3021
1496340260,830.000000004,23.1143
1496340264,803.600000004,20.4463
1496340268,806.000000004,19.2271
1496340272,851.600000004,19.8722
1496340276,842.000000004,19.9072
1496340280,854.000000004,23.5357
1496340284,803.600000004,18.7899
1496340288,839.600000004,18.8698
1496340292,806.000000004,21.1887
1496340296,784.400000004,18.6189
1496340300,762.800000004,21.0108
1496340304,810.800000004,17.223
1496340308,777.200000004,17.3064
1496340312,830.000000004,22.2312
1496340316,798.800000004,21.3606
1496340320,770.000000004,20.6347
1496340324,753.200000004,22.5973
1496340328,731.600000004,19.1323
1496340332,818.000000004,24.8311
1496340336,784.400000004,20.2537
1496340340,782.000000004,23.3765
1496340344,738.800000004,21.4197
1496340348,738.800000004,20.0185
1496340352,832.400000004,20.7204
1496340356,801.200000004,22.9596
1496340360,801.200000004,21.9207
1496340364,765.200000004,18.3332
1496340368,765.200000004,18.6632
1496340372,806.000000004,17.6191
1496340376,820.400000004,15.9953
1496340380,839.600000004,18.0508
1496340384,786.800000004,18.2305
1496340388,774.800000004,18.0122
1496340392,738.800000004,14.2711
1496340396,786.800000004,15.5867
1496340400,822.800000004,17.6096
1496340404,827.600000004,17.058
1496340408,815.600000004,21.6821
1496340412,825.200000004,19.0386
1496340416,779.600000004,21.1973
1496340420,815.600000004,16.9923
1496340424,822.800000004,17.7995
1496340428,825.200000004,15.0241
1496340432,779.600000004,19.4121
1496340436,825.200000004,25.8524
1496340440,820.400000004,23.9101
1496340444,834.800000004,24.199
1496340448,786.800000004,20.3793
1496340452,810.800000004,17.2491
1496340456,822.800000004,19.3141
1496340460,746.000000004,24.2196
1496340464,832.400000004,26.2891
1496340468,830.000000004,23.0598
1496340472,830.000000004,20.0179
1496340476,837.200000004,23.2923
1496340480,822.800000004,23.5233
1496340484,815.600000004,15.1273
1496340488,846.800000004,21.7916
1496340492,798.800000004,19.4844
1496340496,815.600000004,23.1328
1496340500,717.200000004,21.0532
1496340504,842.000000004,24.0205
1496340508,779.600000004,24.5786
1496340512,856.400000004,22.4629
1496340516,820.400000004,23.3721
1496340520,858.800000004,21.2991
1496340524,839.600000004,18.8965
1496340528,827.600000004,20.7884
1496340532,842.000000004,22.7504
1496340536,844.400000004,19.8003
1496340540,921.200000004,20.7494
1496340544,923.600000004,16.1379
1496340548,880.400000004,19.1325
1496340552,918.800000004,20.1967
1496340556,942.800000004,19.3225
1496340560,930.800000004,16.3767
1496340564,957.200000004,22.4293
1496340568,933.200000004,21.5898
1496340572,911.600000004,21.1138
1496340576,923.600000004,16.3614
1496340580,926.000000004,20.2332
1496340584,906.800000004,16.8387
1496340588,878.000000004,20.1499
1496340592,820.400000004,19.5367
1496340596,830.000000004,16.8032
1496340600,818.000000004,24.7681
1496340604,772.400000004,21.9048
1496340608,743.600000004,21.4122
1496340612,762.800000004,20.4257
1496340616,753.200000004,18.8029
1496340620,741.200000004,22.4298
1496340624,750.800000004,22.0377
1496340628,726.800000004,17.0767
1496340632,717.200000004,19.7376
1496340636,837.200000004,20.6201
1496340640,796.400000004,19.9553
1496340644,813.200000004,20.7537
1496340648,767.600000004,21.1418
1496340652,813.200000004,22.3647
1496340656,784.400000004,19.4718
1496340660,758.000000004,20.0098
1496340664,825.200000004,20.5839
1496340668,724.400000004,22.1873
1496340672,796.400000004,20.2467
1496340676,839.600000004,18.8075
1496340680,832.400000004,20.6521
1496340684,827.600000004,21.7046
1496340688,758.000000004,20.1626
1496340692,765.200000004,16.8272
1496340696,762.800000004,19.6027
1496340700,779.600000004,19.0411
1496340704,750.800000004,22.6195
1496340708,791.600000004,21.2078
1496340712,784.400000004,19.7538
1496340716,767.600000004,16.6454
1496340720,808.400000004,17.9043
1496340724,844.400000004,17.2777
1496340728,806.000000004,16.5284
1496340732,810.800000004,19.8703
1496340736,832.400000004,17.6592
1496340740,750.800000004,16.3167
1496340744,827.600000004,17.396
1496340748,813.200000004,22.1758
1496340752,758.000000004,20.6722
1496340756,767.600000004,16.3741
1496340760,736.400000004,20.9176
1496340764,789.200000004,20.0642
1496340768,779.600000004,17.8674
1496340772,830.000000004,22.313
1496340776,849.200000004,21.1711
1496340780,748.400000004,19.0518
1496340784,774.800000004,15.8877
1496340788,786.800000004,16.0106
1496340792,808.400000004,20.6651
1496340796,851.600000004,22.2745
1496340800,849.200000004,14.3122
1496340804,858.800000004,19.9517
1496340812,902.000000004,21.1479
1496340816,875.600000004,16.8296
1496340820,846.800000004,18.1902
1496340824,849.200000004,17.2475
1496340828,822.800000004,17.6195
1496340832,918.800000004,19.2871
1496340836,897.200000004,20.4489
1496340840,902.000000004,18.8796
1496340844,849.200000004,16.4234
1496340848,856.400000004,16.3802
1496340852,911.600000004,21.5268
1496340856,858.800000004,19.6333
1496340860,885.200000004,21.6746
1496340864,873.200000004,22.6305
1496340868,873.200000004,22.708
1496340872,851.600000004,21.3535
1496340876,851.600000004,26.2486
1496340880,858.800000004,16.1236
1496340884,832.400000004,20.3937
1496340888,863.600000004,23.5855
1496340892,842.000000004,23.5414
1496340896,834.800000004,16.1033
1496340900,878.000000004,17.6842
1496340904,834.800000004,17.574
1496340908,866.000000004,21.7509
1496340912,832.400000004,16.8211
1496340916,861.200000004,15.9931
1496340920,822.800000004,19.213
1496340924,842.000000004,15.259
1496340928,822.800000004,16.7333
1496340932,837.200000004,25.0374
1496340936,762.800000004,18.5357
1496340940,825.200000004,18.3729
1496340944,868.400000004,19.0471
1496340948,842.000000004,20.1888
1496340952,818.000000004,19.5264
1496340956,822.800000004,18.5597
1496340960,801.200000004,16.8309
1496340964,803.600000004,19.1851
1496340968,806.000000004,15.993
1496340972,825.200000004,16.9359
1496340976,808.400000004,18.742
1496340980,782.000000004,16.5617
1496340984,798.800000004,16.7621
1496340988,798.800000004,18.9667
1496340992,832.400000004,21.4934
1496340996,827.600000004,19.1215
1496341000,849.200000004,16.23
1496341004,873.200000004,23.175
1496341008,827.600000004,23.5162
1496341012,873.200000004,20.6267
1496341016,863.600000004,20.7408
1496341020,861.200000004,20.2333
1496341024,856.400000004,23.1491
1496341028,918.800000004,19.7298
1496341032,839.600000004,20.0544
1496341036,846.800000004,16.369
1496341040,851.600000004,17.9311
1496341044,854.000000004,23.2373
1496341048,878.000000004,20.0179
1496341052,861.200000004,16.1305
1496341056,844.400000004,22.9808
1496341060,822.800000004,16.0314
1496341064,834.800000004,20.9943
1496341068,882.800000004,21.7231
1496341072,834.800000004,20.0093
1496341076,832.400000004,20.5537
1496341080,818.000000004,21.0678
1496341084,755.600000004,16.6888
1496341088,791.600000004,13.6346
1496341092,786.800000004,20.9414
1496341096,830.000000004,20.4367
1496341100,738.800000004,16.1213
1496341104,789.200000004,16.2309
1496341108,808.400000004,19.3157
1496341112,801.200000004,20.3333
1496341116,774.800000004,18.1721
1496341120,779.600000004,11.8535
1496341124,820.400000004,11.0663
1496341128,758.000000004,18.7718
1496341132,861.200000004,22.9541
1496341136,722.000000004,19.6159
1496341140,794.000000004,18.7208
1496341144,719.600000004,19.7669
1496341148,803.600000004,16.6238
1496341152,770.000000004,22.3142
1496341156,810.800000004,21.4271
1496341160,760.400000004,22.2531
1496341164,770.000000004,23.1432
1496341168,779.600000004,17.605
1496341172,702.800000004,18.9979
1496341176,731.600000004,20.452
1496341180,705.200000004,19.0335
1496341184,722.000000004,15.4859
1496341188,750.800000004,18.2078
1496341192,717.200000004,16.4173
1496341196,806.000000004,18.525
1496341200,842.000000004,18.2483
1496341204,878.000000004,17.9061
1496341208,906.800000004,16.4854
1496341212,928.400000004,17.5548
1496341216,921.200000004,19.6448
1496341220,904.400000004,17.2753
1496341224,909.200000004,18.7657
1496341228,902.000000004,20.8829
1496341232,923.600000004,20.8849
1496341236,878.000000004,22.878
1496341240,923.600000004,19.5486
1496341244,890.000000004,19.0531
1496341248,911.600000004,20.5667
1496341252,875.600000004,20.2183
1496341256,885.200000004,15.9454
1496341260,873.200000004,18.9939
1496341264,914.000000004,17.3655
1496341268,904.400000004,19.1856
1496341272,930.800000004,20.3605
1496341276,964.400000004,21.1623
1496341280,892.400000004,16.8449
1496341284,933.200000004,17.9699
1496341288,923.600000004,16.0179
1496341292,945.200000004,20.8586
1496341296,971.600000004,15.5787
1496341300,950.000000004,20.2416
1496341304,945.200000004,19.9649
1496341308,921.200000004,16.6968
1496341312,935.600000004,18.9571
1496341316,914.000000004,18.3478
1496341320,930.800000004,15.7825
1496341324,933.200000004,18.5018
1496341328,914.000000004,17.5377
1496341332,870.800000004,19.4748
1496341336,921.200000004,15.5061
1496341340,916.400000004,17.7216
1496341344,933.200000004,21.0187
1496341348,906.800000004,17.3175
1496341352,856.400000004,15.756
1496341356,863.600000004,19.7893
1496341360,858.800000004,17.9929
1496341364,882.800000004,20.1117
1496341368,849.200000004,16.0846
1496341372,873.200000004,18.0205
1496341376,921.200000004,21.7219
1496341380,854.000000004,18.6939
1496341384,899.600000004,18.4304
1496341388,878.000000004,19.9711
1496341392,873.200000004,18.8519
1496341396,842.000000004,16.2688
1496341400,894.800000004,15.3676
1496341404,844.400000004,15.475
1496341408,863.600000004,20.7595
1496341412,866.000000004,23.0468
1496341416,822.800000004,17.7924
1496341420,846.800000004,16.7945
1496341424,806.000000004,17.9512
1496341428,861.200000004,16.9526
1496341432,837.200000004,19.9852
1496341436,844.400000004,19.4117
1496341440,858.800000004,22.1484
1496341444,844.400000004,20.212
1496341448,926.000000004,21.3009
1496341452,947.600000004,22.3191
1496341456,981.200000004,20.5408
1496341460,954.800000004,22.2737
1496341464,993.200000004,21.5535
1496341468,902.000000004,20.7327
1496341472,926.000000004,18.7761
1496341476,854.000000004,21.5265
1496341480,894.800000004,20.8931
1496341484,899.600000004,21.9716
1496341488,846.800000004,25.2192
1496341492,906.800000004,24.1047
1496341496,863.600000004,22.3663
1496341500,856.400000004,21.6152
1496341504,856.400000004,21.1986
1496341508,875.600000004,23.4655
1496341512,846.800000004,18.967
1496341516,839.600000004,21.8412
1496341520,863.600000004,22.4951
1496341524,875.600000004,17.5223
1496341528,930.800000004,17.1769
1496341532,916.400000004,22.125
1496341536,906.800000004,23.8583
1496341540,926.000000004,24.1197
1496341544,885.200000004,24.4792
1496341548,902.000000004,19.9179
1496341552,856.400000004,17.5541
1496341556,892.400000004,18.3469
1496341560,914.000000004,21.2546
1496341564,978.800000004,17.146
1496341568,926.000000004,19.2464
1496341572,935.600000004,22.7517
1496341576,945.200000004,24.5084
1496341580,928.400000004,17.8563
1496341584,873.200000004,26.4084
1496341588,921.200000004,24.989
1496341592,858.800000004,25.914
1496341596,851.600000004,26.6984
1496341600,882.800000004,28.3886
1496341604,861.200000004,30.6776
1496341608,870.800000004,25.4542
1496341612,849.200000004,25.4078
1496341616,854.000000004,22.912
1496341620,832.400000004,24.7353
1496341624,798.800000004,19.9071
1496341628,858.800000004,22.9952
1496341632,866.000000004,21.2533
1496341636,863.600000004,25.9926
1496341640,863.600000004,24.5667
1496341644,861.200000004,24.8633
1496341648,882.800000004,26.4809
1496341652,846.800000004,23.7518
1496341656,834.800000004,23.1592
1496341660,858.800000004,19.4985
1496341664,839.600000004,21.5607
1496341668,798.800000004,24.1699
1496341672,806.000000004,20.2588
1496341676,818.000000004,17.1814
1496341680,801.200000004,24.0654
1496341684,825.200000004,24.882
1496341688,849.200000004,22.1545
1496341692,818.000000004,24.733
1496341696,820.400000004,25.0406
1496341700,837.200000004,25.2743
1496341704,803.600000004,23.4028
1496341708,808.400000004,26.6481
1496341712,822.800000004,26.1306
1496341716,846.800000004,24.5134
1496341720,784.400000004,24.5706
1496341724,863.600000004,28.0059
1496341728,820.400000004,21.5742
1496341732,861.200000004,23.7532
1496341736,899.600000004,26.1354
1496341740,902.000000004,23.4386
1496341744,870.800000004,26.5567
1496341748,914.000000004,30.561
1496341752,933.200000004,21.4565
1496341756,909.200000004,21.3204
1496341760,890.000000004,25.437
1496341764,868.400000004,24.9493
1496341768,851.600000004,24.9662
1496341772,770.000000004,21.8875
1496341776,844.400000004,26.289
1496341780,844.400000004,25.5326
1496341784,820.400000004,26.9106
1496341788,856.400000004,27.1445
1496341792,856.400000004,27.8464
1496341796,854.000000004,26.9044
1496341800,846.800000004,24.6938
1496341804,911.600000004,24.3011
1496341808,858.800000004,26.6225
1496341812,950.000000004,24.472
1496341816,842.000000004,20.9422
1496341820,909.200000004,22.2468
1496341824,906.800000004,22.0792
1496341828,926.000000004,22.6652
1496341832,911.600000004,23.6318
1496341836,916.400000004,24.0372
1496341840,926.000000004,22.8081
1496341844,892.400000004,22.1978
1496341848,863.600000004,20.635
1496341852,878.000000004,20.2842
1496341856,916.400000004,28.5692
1496341860,911.600000004,19.8841
1496341864,969.200000004,22.9399
1496341868,930.800000004,20.0229
1496341872,926.000000004,18.5385
1496341876,928.400000004,18.5366
1496341880,909.200000004,18.8953
1496341884,849.200000004,22.5678
1496341888,827.600000004,21.0119
1496341892,844.400000004,17.5273
1496341896,791.600000004,16.7056
1496341900,842.000000004,18.6853
1496341904,839.600000004,19.9932
1496341908,899.600000004,20.2158
1496341912,842.000000004,20.8212
1496341916,820.400000004,21.2796
1496341920,830.000000004,19.1676
1496341924,784.400000004,17.6053
1496341928,779.600000004,13.6889
1496341932,844.400000004,14.4364
1496341936,748.400000004,19.782
1496341940,830.000000004,23.0055
1496341944,822.800000004,23.1693
1496341948,813.200000004,21.3672
1496341952,755.600000004,18.8633
1496341956,842.000000004,23.9645
1496341960,818.000000004,30.3461
1496341964,777.200000004,30.0046
1496341968,830.000000004,29.2126
1496341972,753.200000004,26.3397
1496341976,846.800000004,27.8092
1496341980,834.800000004,25.7018
1496341984,738.800000004,26.8963
1496341988,789.200000004,25.4141
1496341992,791.600000004,27.6198
1496341996,789.200000004,26.2303
1496342000,784.400000004,24.8982
1496342004,642.800000004,26.7672
1496342008,594.800000004,23.0887
1496342012,669.200000004,23.3487
1496342016,666.800000004,24.8261
1496342020,707.600000004,27.2758
1496342024,746.000000004,23.4553
1496342028,710.000000004,23.1347
1496342032,746.000000004,25.533
1496342036,731.600000004,28.9676
1496342040,710.000000004,25.7656
1496342044,674.000000004,24.2573
1496342048,707.600000004,24.8802
1496342052,693.200000004,25.643
1496342056,702.800000004,23.8471
1496342060,705.200000004,28.2715
1496342064,717.200000004,22.7507
1496342068,710.000000004,21.1497
1496342072,748.400000004,19.5564
1496342076,690.800000004,23.1364
1496342080,702.800000004,18.9791
1496342084,722.000000004,18.0574
1496342088,635.600000004,18.3371
1496342092,693.200000004,23.1542
1496342096,640.400000004,22.5031
1496342100,678.800000004,23.1984
1496342104,626.000000004,24.5607
1496342108,690.800000004,20.0238
1496342112,599.600000004,28.8715
1496342116,686.000000004,24.5116
1496342120,647.600000004,24.2456
1496342124,674.000000004,24.3813
1496342128,688.400000004,24.0669
1496342132,602.000000004,20.4778
1496342136,645.200000004,24.6574
1496342140,614.000000004,26.2484
1496342144,606.800000004,26.2216
1496342148,630.800000004,22.4334
1496342152,614.000000004,21.1219
1496342156,585.200000004,17.8426
1496342160,611.600000004,23.3349
1496342164,599.600000004,22.22
1496342168,635.600000004,25.1028
1496342172,611.600000004,22.325
1496342176,611.600000004,20.958
1496342180,604.400000004,20.9856
1496342184,611.600000004,20.9422
1496342188,638.000000004,18.5876
1496342192,640.400000004,19.8385
1496342196,609.200000004,20.7877
1496342200,657.200000004,22.5032
1496342204,623.600000004,26.0937
1496342208,650.000000004,20.1316
1496342212,662.000000004,24.773
1496342216,585.200000004,21.3129
1496342220,652.400000004,26.2642
1496342224,604.400000004,19.8194
1496342228,654.800000004,18.1869
1496342232,616.400000004,21.1044
1496342236,662.000000004,20.8605
1496342240,664.400000004,21.9728
1496342244,611.600000004,23.8894
1496342248,671.600000004,27.5972
1496342252,657.200000004,22.5007
1496342256,666.800000004,19.7522
1496342260,616.400000004,21.5227
1496342264,669.200000004,24.7501
1496342268,698.000000004,21.8156
1496342272,650.000000004,21.3281
1496342276,695.600000004,22.0298
1496342280,683.600000004,21.8918
1496342284,640.400000004,24.7186
1496342288,659.600000004,23.208
1496342292,671.600000004,21.1802
1496342296,654.800000004,23.3438
1496342300,690.800000004,24.0177
1496342304,686.000000004,22.4153
1496342308,614.000000004,26.526
1496342312,666.800000004,23.6329
1496342316,676.400000004,24.5278
1496342320,645.200000004,25.806
1496342324,678.800000004,25.4942
1496342328,693.200000004,28.4211
1496342332,683.600000004,26.5772
1496342336,621.200000004,27.8978
1496342340,681.200000004,25.4626
1496342344,666.800000004,23.4203
1496342348,666.800000004,25.6518
1496342352,638.000000004,27.1704
1496342356,635.600000004,26.1807
1496342360,645.200000004,24.6146
1496342364,659.600000004,24.3581
1496342368,676.400000004,24.5147
1496342372,683.600000004,26.0204
1496342376,614.000000004,24.1825
1496342380,621.200000004,21.2168
1496342384,594.800000004,22.753
1496342388,626.000000004,26.9227
1496342392,645.200000004,27.6691
1496342396,623.600000004,25.6105
1496342400,616.400000004,22.027
1496342404,609.200000004,16.9559
1496342408,678.800000004,15.7067
1496342412,659.600000004,20.9474
1496342416,671.600000004,18.5903
1496342420,599.600000004,16.0866
1496342424,666.800000004,19.7204
1496342428,609.200000004,18.5009
1496342432,683.600000004,15.0795
1496342436,633.200000004,15.1798
1496342440,621.200000004,20.1557
1496342444,676.400000004,16.5876
1496342448,669.200000004,20.0694
1496342452,683.600000004,24.285
1496342456,626.000000004,20.3116
1496342460,611.600000004,23.0534
1496342464,604.400000004,23.8164
1496342468,602.000000004,24.606
1496342472,597.200000004,22.9526
1496342476,606.800000004,23.4812
1496342480,618.800000004,24.4082
1496342484,635.600000004,23.2842
1496342488,573.200000004,19.6153
1496342492,578.000000004,26.8481
1496342496,609.200000004,24.4603
1496342500,592.400000004,21.3703
1496342504,604.400000004,22.5293
1496342508,594.800000004,18.4721
1496342512,602.000000004,19.624
1496342516,621.200000004,23.8273
1496342520,614.000000004,26.3536
1496342524,599.600000004,25.9888
1496342528,638.000000004,22.3361
1496342532,712.400000004,20.2242
1496342536,654.800000004,18.628
1496342540,614.000000004,17.2135
1496342544,654.800000004,21.6687
1496342548,690.800000004,17.31
1496342552,678.800000004,15.9971
1496342556,681.200000004,18.9119
1496342560,657.200000004,17.7543
1496342564,654.800000004,14.1675
1496342568,683.600000004,18.1426
1496342572,714.800000004,20.6355
1496342576,690.800000004,20.5415
1496342580,686.000000004,23.3006
1496342584,710.000000004,18.3798
1496342588,657.200000004,18.4132
1496342592,674.000000004,15.9567
1496342596,671.600000004,19.3804
1496342600,640.400000004,20.3515
1496342604,638.000000004,23.1199
1496342612,683.600000004,19.25
1496342616,662.000000004,22.4897
1496342620,662.000000004,19.5051
1496342624,686.000000004,20.9435
1496342628,621.200000004,25.9733
1496342632,657.200000004,22.6441
1496342636,695.600000004,21.3495
1496342640,705.200000004,24.7711
1496342644,683.600000004,22.9229
1496342648,712.400000004,16.1725
1496342652,712.400000004,12.328
1496342656,666.800000004,14.8373
1496342660,695.600000004,10.8672
1496342664,626.000000004,13.4372
1496342668,702.800000004,14.7681
1496342672,611.600000004,16.4172
1496342676,657.200000004,13.7139
1496342680,654.800000004,18.5572
1496342684,604.400000004,16.7897
1496342688,676.400000004,12.4605
1496342692,642.800000004,19.1722
1496342696,640.400000004,20.1827
1496342700,664.400000004,19.2615
1496342704,676.400000004,25.9134
1496342708,693.200000004,20.9324
1496342712,758.000000004,24.5212
1496342716,746.000000004,25.9398
1496342720,818.000000004,20.3193
1496342724,882.800000004,23.3506
1496342728,887.600000004,20.6535
1496342732,863.600000004,15.8823
1496342736,820.400000004,17.6231
1496342740,856.400000004,12.4515
1496342744,856.400000004,12.6698
1496342748,861.200000004,13.8343
1496342752,837.200000004,11.8364
1496342756,832.400000004,15.6165
1496342760,834.800000004,14.7004
1496342764,822.800000004,19.391
1496342768,784.400000004,17.0069
1496342772,712.400000004,18.4561
1496342776,803.600000004,19.8576
1496342780,707.600000004,23.8722
1496342784,698.000000004,23.024
1496342788,683.600000004,20.9095
1496342792,712.400000004,25.7213
1496342796,681.200000004,18.2422
1496342800,645.200000004,15.3337
1496342804,683.600000004,23.7608
1496342808,690.800000004,17.5469
1496342812,698.000000004,19.78
1496342816,666.800000004,23.941
1496342820,731.600000004,24.2045
1496342824,688.400000004,23.1023
1496342828,743.600000004,27.331
1496342832,698.000000004,26.6015
1496342836,669.200000004,23.2018
1496342840,686.000000004,17.5622
1496342844,659.600000004,21.6312
1496342848,705.200000004,19.6915
1496342852,669.200000004,23.6529
1496342856,738.800000004,19.7426
1496342860,652.400000004,18.123
1496342864,686.000000004,20.3006
1496342868,674.000000004,18.1259
1496342872,681.200000004,20.7212
1496342876,664.400000004,17.3094
1496342880,645.200000004,19.2227
1496342884,683.600000004,21.054
1496342888,614.000000004,18.7607
1496342892,695.600000004,19.7822
1496342896,695.600000004,24.8814
1496342900,714.800000004,20.4685
1496342904,712.400000004,19.5389
1496342908,736.400000004,18.7556
1496342912,760.400000004,20.0524
1496342916,724.400000004,20.0002
1496342920,791.600000004,22.1823
1496342924,810.800000004,15.3161
1496342928,753.200000004,19.8338
1496342932,789.200000004,16.8956
1496342936,750.800000004,18.3547
1496342940,746.000000004,17.2912
1496342944,714.800000004,16.5806
1496342948,774.800000004,25.2878
1496342952,705.200000004,18.8736
1496342956,693.200000004,19.5738
1496342960,714.800000004,18.4521
1496342964,681.200000004,18.93
1496342968,698.000000004,17.6375
1496342972,738.800000004,24.6825
1496342976,702.800000004,20.3441
1496342980,707.600000004,18.7078
1496342984,710.000000004,16.9507
1496342988,695.600000004,19.2109
1496342992,736.400000004,18.4293
1496342996,746.000000004,15.7147
1496343000,736.400000004,18.0046
1496343004,738.800000004,18.3401
1496343008,731.600000004,17.4175
1496343012,758.000000004,18.0398
1496343016,777.200000004,18.1999
1496343020,760.400000004,21.7786
1496343024,698.000000004,13.2878
1496343028,753.200000004,18.1088
1496343032,755.600000004,17.9331
1496343036,712.400000004,20.2521
1496343040,765.200000004,17.9805
1496343044,743.600000004,14.2059
1496343048,777.200000004,16.4213
1496343052,791.600000004,25.4499
1496343056,813.200000004,20.7722
1496343060,846.800000004,16.0835
1496343064,815.600000004,14.922
1496343068,846.800000004,17.6294
1496343072,837.200000004,18.511
1496343076,791.600000004,19.4451
1496343080,789.200000004,20.0885
1496343084,705.200000004,17.017
1496343088,712.400000004,19.5384
1496343092,731.600000004,21.1059
1496343096,681.200000004,20.7279
1496343100,664.400000004,24.1423
1496343104,676.400000004,18.256
1496343108,688.400000004,21.8968
1496343112,635.600000004,20.1486
1496343116,669.200000004,18.3664
1496343120,662.000000004,20.2432
1496343124,676.400000004,17.1069
1496343128,681.200000004,16.1853
1496343132,686.000000004,21.6152
1496343136,707.600000004,22.7958
1496343140,616.400000004,20.6021
1496343144,628.400000004,18.8639
1496343148,688.400000004,20.1531
1496343152,647.600000004,20.8307
1496343156,638.000000004,18.9274
1496343160,599.600000004,18.074
1496343164,630.800000004,18.4456
1496343168,657.200000004,19.3086
1496343172,683.600000004,16.9767
1496343176,832.400000004,16.6694
1496343180,801.200000004,17.4426
1496343184,796.400000004,20.2273
1496343188,748.400000004,21.2739
1496343192,748.400000004,23.5462
1496343196,765.200000004,19.9633
1496343200,786.800000004,22.9844
1496343204,789.200000004,22.9969
1496343208,822.800000004,23.1356
1496343212,822.800000004,21.1337
1496343216,837.200000004,24.3455
1496343220,914.000000004,19.5432
1496343224,861.200000004,17.5438
1496343228,880.400000004,16.0775
1496343232,918.800000004,17.7595
1496343236,873.200000004,16.6757
1496343240,930.800000004,16.385
1496343244,952.400000004,14.7546
1496343248,1022.000000004,19.272
1496343252,983.600000004,18.81
1496343256,942.800000004,19.9333
1496343260,1053.200000004,21.2914
1496343264,981.200000004,15.529
1496343268,1055.600000004,19.6365
1496343272,978.800000004,20.6573
1496343276,966.800000004,20.2717
1496343280,957.200000004,18.0129
1496343284,938.000000004,17.2785
1496343288,957.200000004,15.3107
1496343292,916.400000004,17.7146
1496343296,957.200000004,11.8027
1496343300,928.400000004,16.3182
1496343304,935.600000004,14.95
1496343308,962.000000004,16.531
1496343312,933.200000004,14.0632
1496343316,918.800000004,13.4226
1496343320,887.600000004,12.2008
1496343324,892.400000004,22.2012
1496343328,830.000000004,21.2369
1496343332,844.400000004,19.8826
1496343336,856.400000004,22.3809
1496343340,813.200000004,19.2846
1496343344,767.600000004,21.5312
1496343348,813.200000004,18.5106
1496343352,825.200000004,17.1642
1496343356,798.800000004,17.7743
1496343360,851.600000004,23.768
1496343364,789.200000004,20.3195
1496343368,806.000000004,24.5597
1496343372,806.000000004,20.3522
1496343376,777.200000004,21.8948
1496343380,820.400000004,16.2427
1496343384,748.400000004,19.6233
1496343388,803.600000004,20.5807
1496343392,846.800000004,23.8982
1496343396,866.000000004,15.7847
1496343400,856.400000004,16.5003
1496343404,849.200000004,18.2874
1496343408,844.400000004,20.0457
1496343412,832.400000004,21.0435
1496343416,820.400000004,21.9402
1496343420,801.200000004,21.3474
1496343424,846.800000004,17.0252
1496343428,849.200000004,20.3943
1496343432,834.800000004,18.5925
1496343436,842.000000004,20.3862
1496343440,765.200000004,23.6535
1496343444,842.000000004,24.0267
1496343448,832.400000004,16.438
1496343452,774.800000004,19.2466
1496343456,798.800000004,20.9346
1496343460,782.000000004,21.5047
1496343464,837.200000004,21.1203
1496343468,767.600000004,20.9399
1496343472,873.200000004,20.0381
1496343476,810.800000004,25.6899
1496343480,791.600000004,21.1289
1496343484,770.000000004,17.5749
1496343488,791.600000004,19.8672
1496343492,810.800000004,26.2351
1496343496,837.200000004,19.5491
1496343500,786.800000004,20.978
1496343504,818.000000004,24.1051
1496343508,786.800000004,21.5106
1496343512,813.200000004,18.2883
1496343516,806.000000004,21.3291
1496343520,834.800000004,19.5346
1496343524,832.400000004,19.4792
1496343528,810.800000004,21.1722
1496343532,839.600000004,17.8726
1496343536,916.400000004,20.7776
1496343540,858.800000004,22.9002
1496343544,880.400000004,22.3093
1496343548,856.400000004,25.4478
1496343552,851.600000004,19.6064
1496343556,882.800000004,21.7789
1496343560,818.000000004,21.4295
1496343564,827.600000004,23.9595
1496343568,808.400000004,24.8316
1496343572,856.400000004,25.4617
1496343576,806.000000004,25.9283
1496343580,822.800000004,20.0809
1496343584,851.600000004,24.9002
1496343588,894.800000004,26.7113
1496343592,834.800000004,25.3089
1496343596,878.000000004,23.4807
1496343600,930.800000004,27.641
1496343604,923.600000004,23.3346
1496343608,918.800000004,24.7665
1496343612,918.800000004,26.0744
1496343616,885.200000004,24.822
1496343620,878.000000004,23.724
1496343624,882.800000004,19.5731
1496343628,928.400000004,22.0139
1496343632,897.200000004,24.1137
1496343636,868.400000004,24.3127
1496343640,866.000000004,25.4889
1496343644,882.800000004,24.7316
1496343648,861.200000004,18.229
1496343652,834.800000004,19.5513
1496343656,863.600000004,20.8352
1496343660,844.400000004,20.7195
1496343664,844.400000004,21.6775
1496343668,906.800000004,17.7019
1496343672,906.800000004,18.499
1496343676,940.400000004,22.9273
1496343680,906.800000004,17.8805
1496343684,957.200000004,22.4274
1496343688,938.000000004,21.197
1496343692,940.400000004,23.6061
1496343696,942.800000004,22.8846
1496343700,952.400000004,19.2525
1496343704,978.800000004,23.3897
1496343708,995.600000004,20.9905
1496343712,1017.200000004,16.1995
1496343716,1050.800000004,13.0747
1496343720,962.000000004,17.6882
1496343724,954.800000004,15.7225
1496343728,839.600000004,18.451
1496343732,844.400000004,17.2928
1496343736,758.000000004,18
1496343740,798.800000004,17.6882
1496343744,770.000000004,17.9213
1496343748,770.000000004,16.5285
1496343752,750.800000004,16.4427
1496343756,719.600000004,16.0591
1496343760,705.200000004,21.7849
1496343764,760.400000004,21.306
1496343768,803.600000004,21.1591
1496343772,794.000000004,20.8798
1496343776,830.000000004,19.9963
1496343780,868.400000004,19.1983
1496343784,875.600000004,15.6383
1496343788,878.000000004,21.5452
1496343792,909.200000004,16.4286
1496343796,844.400000004,22.7301
1496343800,808.400000004,17.5013
1496343804,796.400000004,19.8039
1496343808,770.000000004,17.8404
1496343812,822.800000004,18.6837
1496343816,825.200000004,22.3468
1496343820,777.200000004,21.5578
1496343824,748.400000004,18.477
1496343828,765.200000004,15.9571
1496343832,791.600000004,20.3306
1496343836,842.000000004,14.9515
1496343840,837.200000004,22.5954
1496343844,849.200000004,21.6
1496343848,786.800000004,18.5531
1496343852,813.200000004,22.6063
1496343856,786.800000004,21.5604
1496343860,779.600000004,20.3105
1496343864,738.800000004,22.6808
1496343868,705.200000004,21.515
1496343872,755.600000004,21.8499
1496343876,791.600000004,21.4511
1496343880,846.800000004,23.5243
1496343884,784.400000004,22.8539
1496343888,832.400000004,16.9643
1496343892,777.200000004,13.3424
1496343896,825.200000004,20.3298
1496343900,808.400000004,17.5348
1496343904,803.600000004,20.9049
1496343908,791.600000004,20.263
1496343912,738.800000004,20.0813
1496343916,794.000000004,15.0759
1496343920,750.800000004,16.062
1496343924,762.800000004,16.3319
1496343928,743.600000004,18.3325
1496343932,779.600000004,21.7328
1496343936,717.200000004,19.3994
1496343940,714.800000004,14.1222
1496343944,698.000000004,19.8569
1496343948,698.000000004,21.9296
1496343952,698.000000004,21.0502
1496343956,698.000000004,18.3927
1496343960,719.600000004,17.665
1496343964,669.200000004,18.446
1496343968,710.000000004,15.7598
1496343972,681.200000004,22.5157
1496343976,714.800000004,20.3281
1496343980,722.000000004,21.6758
1496343984,705.200000004,23.7379
1496343988,738.800000004,18.4508
1496343992,714.800000004,19.4296
1496343996,702.800000004,21.9382
1496344000,714.800000004,20.7123
1496344004,714.800000004,20.7987
1496344008,707.600000004,17.9139
1496344012,705.200000004,22.2328
1496344016,669.200000004,19.2322
1496344020,738.800000004,20.8916
1496344024,676.400000004,20.3105
1496344028,707.600000004,19.3877
1496344032,734.000000004,20.4685
1496344036,770.000000004,19.2757
1496344040,753.200000004,18.8625
1496344044,736.400000004,19.3722
1496344048,762.800000004,19.6316
1496344052,722.000000004,21.8599
1496344056,779.600000004,21.3032
1496344060,767.600000004,22.8711
1496344064,765.200000004,18.4193
1496344068,779.600000004,21.2025
1496344072,796.400000004,18.5556
1496344076,789.200000004,17.0055
1496344080,767.600000004,24.0029
1496344084,820.400000004,20.5427
1496344088,846.800000004,17.2503
1496344092,866.000000004,19.0796
1496344096,825.200000004,20.2293
1496344100,791.600000004,17.0303
1496344104,722.000000004,19.8563
1496344108,726.800000004,19.4514
1496344112,772.400000004,19.4942
1496344116,726.800000004,22.0981
1496344120,784.400000004,15.1759
1496344124,702.800000004,14.2493
1496344128,719.600000004,22.2095
1496344132,676.400000004,19.5294
1496344136,688.400000004,16.7517
1496344140,710.000000004,20.5918
1496344144,690.800000004,19.2042
1496344148,746.000000004,20.9635
1496344152,714.800000004,21.8146
1496344156,714.800000004,21.458
1496344160,743.600000004,24.1611
1496344164,750.800000004,17.3073
1496344168,767.600000004,19.3395
1496344172,796.400000004,21.0431
1496344176,813.200000004,17.2041
1496344180,830.000000004,22.8692
1496344184,827.600000004,17.2809
1496344188,820.400000004,15.5812
1496344192,834.800000004,19.8954
1496344196,758.000000004,21.7901
1496344200,765.200000004,18.2605
1496344204,789.200000004,21.4428
1496344208,753.200000004,16.4908
1496344212,731.600000004,14.95
1496344216,794.000000004,18.9887
1496344220,789.200000004,21.0778
1496344224,818.000000004,17.987
1496344228,806.000000004,17.2837
1496344232,748.400000004,22.0956
1496344236,731.600000004,20.721
1496344240,710.000000004,19.372
1496344244,729.200000004,21.1564
1496344248,712.400000004,20.7302
1496344252,726.800000004,22.4634
1496344256,719.600000004,17.4108
1496344260,712.400000004,17.8784
1496344264,710.000000004,20.2025
1496344268,693.200000004,17.8397
1496344272,731.600000004,19.982
1496344276,726.800000004,18.3364
1496344280,705.200000004,19.907
1496344284,702.800000004,20.8008
1496344288,746.000000004,20.9968
1496344292,710.000000004,21.2071
1496344296,743.600000004,21.0644
1496344300,726.800000004,23.0717
1496344304,750.800000004,20.4396
1496344308,753.200000004,14.985
1496344312,839.600000004,21.3676
1496344316,765.200000004,24.7519
1496344320,794.000000004,20.0596
1496344324,810.800000004,16.1461
1496344328,863.600000004,21.7937
1496344332,801.200000004,18.3146
1496344336,851.600000004,19.7971
1496344340,789.200000004,18.6245
1496344344,794.000000004,17.8825
1496344348,777.200000004,17.8344
1496344352,746.000000004,17.572
1496344356,791.600000004,18.3906
1496344360,722.000000004,15.4829
1496344364,844.400000004,20.9539
1496344368,774.800000004,21.2717
1496344372,784.400000004,19.643
1496344376,729.200000004,18.2655
1496344380,774.800000004,16.8851
1496344384,753.200000004,17.2018
1496344388,722.000000004,18.0074
1496344392,729.200000004,15.844
1496344396,770.000000004,20.2689
1496344400,750.800000004,20.349
1496344404,698.000000004,20.2139
1496344412,750.800000004,17.8496
1496344416,726.800000004,15.2594
1496344420,736.400000004,19.9747
1496344424,734.000000004,23.1897
1496344428,753.200000004,19.2936
1496344432,710.000000004,16.448
1496344436,722.000000004,23.6322
1496344440,810.800000004,20.646
1496344444,693.200000004,20.135
1496344448,700.400000004,17.785
1496344452,717.200000004,16.0535
1496344456,714.800000004,20.2573
1496344460,729.200000004,14.5905
1496344464,717.200000004,18.1753
1496344468,700.400000004,16.8146
1496344472,762.800000004,17.6439
1496344476,798.800000004,15.5641
1496344480,782.000000004,19.5246
1496344484,808.400000004,16.2862
1496344488,765.200000004,19.7333
1496344492,803.600000004,17.594
1496344496,779.600000004,22.2675
1496344500,734.000000004,18.8137
1496344504,726.800000004,23.5782
1496344508,789.200000004,20.6487
1496344512,719.600000004,17.4469
1496344516,825.200000004,20.0527
1496344520,755.600000004,22.5142
1496344524,755.600000004,13.4652
1496344528,760.400000004,18.0469
1496344532,801.200000004,14.3279
1496344536,772.400000004,20.5335
1496344540,736.400000004,20.8678
1496344544,777.200000004,14.488
1496344548,813.200000004,20.68
1496344552,748.400000004,21.824
1496344556,782.000000004,20.7881
1496344560,767.600000004,22.0068
1496344564,825.200000004,23.2326
1496344568,832.400000004,17.7867
1496344572,798.800000004,22.4032
1496344576,796.400000004,16.879
1496344580,707.600000004,19.4662
1496344584,748.400000004,20.1283
1496344588,741.200000004,22.6594
1496344592,798.800000004,22.5775
1496344596,710.000000004,21.9567
1496344600,777.200000004,17.8413
1496344604,762.800000004,18.8823
1496344608,758.000000004,22.3285
1496344612,710.000000004,21.5301
1496344616,784.400000004,22.1558
1496344620,707.600000004,21.0633
1496344624,774.800000004,21.4531
1496344628,815.600000004,20.0732
1496344632,794.000000004,21.5482
1496344636,798.800000004,22.9847
1496344640,822.800000004,21.306
1496344644,830.000000004,20.1672
1496344648,722.000000004,17.1634
1496344652,722.000000004,17.71
1496344656,753.200000004,15.9177
1496344660,707.600000004,9.00507
1496344664,719.600000004,17.1098
1496344668,746.000000004,18.6244
1496344672,722.000000004,19.7287
1496344676,825.200000004,21.7049
1496344680,772.400000004,21.518
1496344684,779.600000004,18.1826
1496344688,746.000000004,16.8347
1496344692,779.600000004,21.63
1496344696,741.200000004,16.6432
1496344700,779.600000004,17.6206
1496344704,810.800000004,18.3099
1496344708,815.600000004,20.782
1496344712,760.400000004,19.7326
1496344716,782.000000004,16.236
1496344720,753.200000004,19.3739
1496344724,731.600000004,17.4643
1496344728,731.600000004,15.0477
1496344732,741.200000004,18.2374
1496344736,753.200000004,17.5984
1496344740,762.800000004,18.556
1496344744,772.400000004,17.8355
1496344748,753.200000004,13.9985
1496344752,784.400000004,19.725
1496344756,796.400000004,19.2614
1496344760,782.000000004,17.7516
1496344764,755.600000004,17.2616
1496344768,741.200000004,19.9763
1496344772,784.400000004,19.7797
1496344776,820.400000004,20.1148
1496344780,832.400000004,21.3469
1496344784,746.000000004,23.6962
1496344788,779.600000004,18.9196
1496344792,782.000000004,21.1736
1496344796,839.600000004,20.6728
1496344800,815.600000004,20.7522
1496344804,789.200000004,21.7166
1496344808,779.600000004,19.882
1496344812,796.400000004,19.0357
1496344816,762.800000004,20.4116
1496344820,760.400000004,23.8705
1496344824,779.600000004,21.788
1496344828,786.800000004,24.1586
1496344832,743.600000004,22.823
1496344836,779.600000004,19.9972
1496344840,729.200000004,20.0866
1496344844,798.800000004,21.6378
1496344848,750.800000004,20.6103
1496344852,753.200000004,20.699
1496344856,755.600000004,25.4591
1496344860,801.200000004,22.851
1496344864,774.800000004,20.6262
1496344868,779.600000004,20.6744
1496344872,774.800000004,23.204
1496344876,758.000000004,22.3611
1496344880,767.600000004,22.3226
1496344884,832.400000004,22.9603
1496344888,770.000000004,25.684
1496344892,746.000000004,21.0096
1496344896,779.600000004,21.1354
1496344900,707.600000004,19.9283
1496344904,827.600000004,16.2534
1496344908,729.200000004,14.0681
1496344912,825.200000004,19.9059
1496344916,808.400000004,22.0326
1496344920,803.600000004,19.5819
1496344924,784.400000004,19.7243
1496344928,746.000000004,18.6453
1496344932,803.600000004,22.3656
1496344936,760.400000004,18.8751
1496344940,765.200000004,22.7392
1496344944,765.200000004,20.4555
1496344948,760.400000004,23.7623
1496344952,734.000000004,22.7049
1496344956,806.000000004,20.2946
1496344960,789.200000004,20.1775
1496344964,741.200000004,22.6467
1496344968,734.000000004,21.5801
1496344972,712.400000004,20.3865
1496344976,830.000000004,16.8936
1496344980,758.000000004,15.0643
1496344984,832.400000004,13.3736
1496344988,779.600000004,20.2478
1496344992,774.800000004,20.6889
1496344996,741.200000004,22.0663
1496345000,748.400000004,24.662
1496345004,794.000000004,24.9221
1496345008,746.000000004,24.2394
1496345012,786.800000004,20.6341
1496345016,743.600000004,21.385
1496345020,777.200000004,22.9078
1496345024,758.000000004,20.8187
1496345028,791.600000004,21.0272
1496345032,777.200000004,20.4154
1496345036,803.600000004,19.2415
1496345040,813.200000004,23.1926
1496345044,731.600000004,18.095
1496345048,798.800000004,25.4372
1496345052,762.800000004,19.8173
1496345056,815.600000004,19.9604
1496345060,806.000000004,17.5197
1496345064,762.800000004,21.5954
1496345068,803.600000004,19.2238
1496345072,803.600000004,18.8133
1496345076,832.400000004,16.2256
1496345080,748.400000004,21.727
1496345084,758.000000004,18.9897
1496345088,774.800000004,20.8695
1496345092,834.800000004,21.2074
1496345096,830.000000004,26.765
1496345100,748.400000004,25.2816
1496345104,820.400000004,22.502
1496345108,801.200000004,23.6447
1496345112,796.400000004,26.2627
1496345116,794.000000004,21.9604
1496345120,834.800000004,20.2413
1496345124,801.200000004,20.6349
1496345128,803.600000004,24.342
1496345132,801.200000004,21.6408
1496345136,796.400000004,23.4805
1496345140,806.000000004,24.5998
1496345144,770.000000004,21.1702
1496345148,777.200000004,21.7122
1496345152,786.800000004,21.128
1496345156,774.800000004,21.3293
1496345160,818.000000004,21.5249
1496345164,825.200000004,19.078
1496345168,786.800000004,24.85
1496345172,842.000000004,23.0146
1496345176,854.000000004,21.9585
1496345180,878.000000004,24.42
1496345184,849.200000004,16.7936
1496345188,873.200000004,18.6292
1496345192,846.800000004,18.9345
1496345196,868.400000004,20.6813
1496345200,832.400000004,19.6587
1496345204,844.400000004,20.4917
1496345208,844.400000004,19.5581
1496345212,849.200000004,20.3368
1496345216,808.400000004,24.4095
1496345220,789.200000004,20.4391
1496345224,806.000000004,20.014
1496345228,743.600000004,16.4203
1496345232,765.200000004,19.7834
1496345236,758.000000004,15.5305
1496345240,719.600000004,13.2102
1496345244,722.000000004,17.4566
1496345248,767.600000004,14.79
1496345252,801.200000004,18.8901
1496345256,772.400000004,19.1729
1496345260,813.200000004,21.8766
1496345264,717.200000004,18.7331
1496345268,794.000000004,20.7417
1496345272,705.200000004,17.2002
1496345276,786.800000004,18.5817
1496345280,810.800000004,20.3597
1496345284,741.200000004,20.3572
1496345288,791.600000004,16.5533
1496345292,789.200000004,20.4534
1496345296,815.600000004,16.584
1496345300,844.400000004,16.3675
1496345304,856.400000004,19.2816
1496345308,890.000000004,15.8698
1496345312,834.800000004,21.5703
1496345316,878.000000004,22.045
1496345320,930.800000004,19.9494
1496345324,892.400000004,20.5542
1496345328,890.000000004,16.074
1496345332,892.400000004,18.7348
1496345336,902.000000004,18.4711
1496345340,856.400000004,18.4991
1496345344,885.200000004,20.2384
1496345348,846.800000004,19.9416
1496345352,839.600000004,20.9848
1496345356,818.000000004,18.5606
1496345360,772.400000004,17.3223
1496345364,801.200000004,15.1951
1496345368,825.200000004,17.5379
1496345372,746.000000004,17.4193
1496345376,741.200000004,15.9332
1496345380,734.000000004,24.8347
1496345384,746.000000004,24.2236
1496345388,758.000000004,22.523
1496345392,830.000000004,15.9837
1496345396,830.000000004,18.1736
1496345400,770.000000004,20.9834
1496345404,734.000000004,21.0238
1496345408,746.000000004,24.7386
1496345412,815.600000004,24.3199
1496345416,722.000000004,22.1653
1496345420,801.200000004,26.5626
1496345424,837.200000004,24.0194
1496345428,736.400000004,21.2305
1496345432,777.200000004,22.0355
1496345436,856.400000004,24.2167
1496345440,834.800000004,20.19
1496345444,863.600000004,13.5207
1496345448,844.400000004,20.4237
1496345452,830.000000004,17.7934
1496345456,868.400000004,19.1512
1496345460,856.400000004,21.5417
1496345464,834.800000004,21.2494
1496345468,851.600000004,19.1032
1496345472,813.200000004,19.7246
1496345476,789.200000004,22.157
1496345480,813.200000004,16.6012
1496345484,726.800000004,24.6803
1496345488,791.600000004,23.574
1496345492,801.200000004,20.4012
1496345496,808.400000004,20.8354
1496345500,777.200000004,19.5027
1496345504,820.400000004,20.814
1496345508,849.200000004,21.2885
1496345512,851.600000004,21.1721
1496345516,861.200000004,21.5883
1496345520,868.400000004,19.885
1496345524,837.200000004,16.7212
1496345528,909.200000004,18.8664
1496345532,870.800000004,20.3551
1496345536,868.400000004,17.4955
1496345540,851.600000004,20.3269
1496345544,844.400000004,22.2186
1496345548,849.200000004,17.349
1496345552,794.000000004,19.6285
1496345556,856.400000004,20.9356
1496345560,791.600000004,23.9328
1496345564,803.600000004,22.8688
1496345568,794.000000004,21.0599
1496345572,779.600000004,23.3811
1496345576,796.400000004,17.381
1496345580,755.600000004,23.4781
1496345584,753.200000004,19.8395
1496345588,767.600000004,26.91
1496345592,825.200000004,22.1608
1496345596,767.600000004,27.1205
1496345600,798.800000004,22.2271
1496345604,734.000000004,21.611
1496345608,767.600000004,24.8187
1496345612,765.200000004,24.7411
1496345616,758.000000004,23.3519
1496345620,755.600000004,21.475
1496345624,822.800000004,25.4345
1496345628,760.400000004,23.3531
1496345632,753.200000004,17.6415
1496345636,746.000000004,22.3101
1496345640,789.200000004,22.6641
1496345644,738.800000004,18.95
1496345648,765.200000004,17.8066
1496345652,770.000000004,17.2307
1496345656,719.600000004,19.5247
1496345660,738.800000004,15.5921
1496345664,734.000000004,15.6245
1496345668,765.200000004,16.7534
1496345672,784.400000004,17.0849
1496345676,746.000000004,19.6789
1496345680,772.400000004,18.6899
1496345684,712.400000004,23.8134
1496345688,774.800000004,22.6169
1496345692,717.200000004,19.3391
1496345696,801.200000004,16.3885
1496345700,738.800000004,17.4662
1496345704,770.000000004,18.56
1496345708,736.400000004,17.8361
1496345712,736.400000004,17.8403
1496345716,705.200000004,15.766
1496345720,714.800000004,18.6089
1496345724,777.200000004,18.8457
1496345728,746.000000004,21.2767
1496345732,712.400000004,18.0224
1496345736,786.800000004,23.1016
1496345740,755.600000004,25.3579
1496345744,832.400000004,22.4805
1496345748,798.800000004,21.5136
1496345752,818.000000004,25.242
1496345756,738.800000004,20.9731
1496345760,820.400000004,19.298
1496345764,760.400000004,21.8003
1496345768,796.400000004,20.3962
1496345772,796.400000004,23.0296
1496345776,827.600000004,26.483
1496345780,844.400000004,22.6987
1496345784,827.600000004,21.3569
1496345788,844.400000004,14.8948
1496345792,822.800000004,18.765
1496345796,796.400000004,21.2015
1496345800,849.200000004,25.8667
1496345804,753.200000004,21.4751
1496345808,837.200000004,19.415
1496345812,837.200000004,15.7146
1496345816,822.800000004,16.872
1496345820,830.000000004,19.9564
1496345824,846.800000004,20.1123
1496345828,832.400000004,22.306
1496345832,774.800000004,22.1381
1496345836,854.000000004,19.4309
1496345840,762.800000004,22.6677
1496345844,806.000000004,18.3531
1496345848,832.400000004,20.1667
1496345852,806.000000004,16.1997
1496345856,844.400000004,17.1834
1496345860,746.000000004,19.843
1496345864,767.600000004,20.2994
1496345868,820.400000004,17.9952
1496345872,839.600000004,20.3937
1496345876,734.000000004,25.3757
1496345880,810.800000004,20.3983
1496345884,779.600000004,21.1397
1496345888,774.800000004,20.6675
1496345892,813.200000004,21.8843
1496345896,786.800000004,21.006
1496345900,770.000000004,22.1747
1496345904,734.000000004,24.0905
1496345908,731.600000004,19.8817
1496345912,791.600000004,18.6896
1496345916,820.400000004,19.6685
1496345920,837.200000004,21.9116
1496345924,748.400000004,21.4943
1496345928,753.200000004,22.0806
1496345932,734.000000004,20.8764
1496345936,791.600000004,17.7232
1496345940,765.200000004,21.5204
1496345944,767.600000004,20.8906
1496345948,777.200000004,21.1853
1496345952,779.600000004,20.7925
1496345956,837.200000004,18.099
1496345960,822.800000004,21.0162
1496345964,808.400000004,22.3476
1496345968,810.800000004,21.3371
1496345972,705.200000004,26.1972
1496345976,796.400000004,22.89
1496345980,719.600000004,19.9754
1496345984,731.600000004,18.4058
1496345988,738.800000004,19.3407
1496345992,777.200000004,20.0319
1496345996,762.800000004,20.5245
1496346000,750.800000004,22.3879
1496346004,767.600000004,19.6651
1496346008,712.400000004,23.9366
1496346012,750.800000004,20.0623
1496346016,736.400000004,20.3523
1496346020,710.000000004,20.2038
1496346024,837.200000004,22.7931
1496346028,760.400000004,21.7252
1496346032,695.600000004,22.1813
1496346036,784.400000004,20.8602
1496346040,770.000000004,19.5563
1496346044,741.200000004,21.0855
1496346048,794.000000004,22.4366
1496346052,738.800000004,17.6515
1496346056,794.000000004,17.3225
1496346060,755.600000004,19.5378
1496346064,717.200000004,21.2296
1496346068,770.000000004,16.9001
1496346072,791.600000004,22.1123
1496346076,818.000000004,20.3528
1496346080,815.600000004,19.8035
1496346084,789.200000004,21.0265
1496346088,743.600000004,24.7834
1496346092,762.800000004,21.7242
1496346096,765.200000004,19.1768
1496346100,762.800000004,22.9845
1496346104,707.600000004,20.9101
1496346108,806.000000004,21.3365
1496346112,741.200000004,19.4738
