tag_number,delay,power_est
1490822716,493.2000000027,6.55881
1490822718,486.0000000027,6.58163
1490822720,452.4000000027,9.72355
1490822722,478.8000000027,10.6111
1490822724,464.4000000027,10.7882
1490822726,469.2000000027,12.2073
1490822728,469.2000000027,10.5491
1490822730,438.0000000027,9.71736
1490822732,445.2000000027,11.334
1490822734,414.0000000027,6.31736
1490822736,397.2000000027,5.89407
1490822738,464.4000000027,6.80586
1490822740,430.8000000027,9.21391
1490822742,399.6000000027,8.6519
1490822744,390.0000000027,12.082
1490822746,409.2000000027,9.39105
1490822748,440.4000000027,8.75399
1490822750,438.0000000027,9.70265
1490822752,387.6000000027,9.28118
1490822754,450.0000000027,10.9497
1490822756,442.8000000027,11.2681
1490822758,442.8000000027,11.1241
1490822760,428.4000000027,10.7049
1490822762,421.2000000027,9.01866
1490822764,454.8000000027,9.01079
1490822766,394.8000000027,10.3575
1490822768,447.6000000027,8.50546
1490822770,435.6000000027,9.29125
1490822772,418.8000000027,10.8423
1490822774,409.2000000027,10.8939
1490822776,435.6000000027,10.6139
1490822778,402.0000000027,11.815
1490822780,440.4000000027,10.3099
1490822782,430.8000000027,8.19867
1490822784,464.4000000027,9.41169
1490822786,421.2000000027,9.81175
1490822788,373.2000000027,9.81046
1490822790,421.2000000027,10.6555
1490822792,421.2000000027,11.3067
1490822794,378.0000000027,10.3222
1490822796,416.4000000027,10.1804
1490822798,394.8000000027,10.9262
1490822800,399.6000000027,9.51397
1490822802,438.0000000027,9.11626
1490822804,421.2000000027,9.17937
1490822806,433.2000000027,8.89304
1490822808,382.8000000027,9.20886
1490822810,356.4000000027,9.30211
1490822812,406.8000000027,11.4903
1490822814,402.0000000027,10.1135
1490822816,457.2000000027,10.4118
1490822818,382.8000000027,7.49075
1490822820,414.0000000027,9.65813
1490822822,392.4000000027,9.44863
1490822824,438.0000000027,9.07236
1490822826,385.2000000027,9.03416
1490822828,416.4000000027,8.77573
1490822830,418.8000000027,10.5871
1490822832,414.0000000027,9.8216
1490822834,399.6000000027,11.0873
1490822836,474.0000000027,10.6182
1490822838,457.2000000027,11.5561
1490822840,392.4000000027,9.41654
1490822842,459.6000000027,10.9235
1490822844,411.6000000027,10.3294
1490822846,392.4000000027,9.84929
1490822848,462.0000000027,11.5826
1490822850,464.4000000027,11.5235
1490822852,385.2000000027,12.3266
1490822854,421.2000000027,10.9985
1490822856,390.0000000027,10.3704
1490822858,416.4000000027,10.5607
1490822860,361.2000000027,9.07858
1490822862,423.6000000027,8.91836
1490822864,375.6000000027,10.4393
1490822866,380.4000000027,9.52552
1490822868,433.2000000027,7.93429
1490822870,406.8000000027,7.45031
1490822872,390.0000000027,8.57235
1490822874,373.2000000027,8.87859
1490822876,373.2000000027,7.74439
1490822878,447.6000000027,7.86428
1490822880,385.2000000027,6.99897
1490822882,385.2000000027,6.95505
1490822884,469.2000000027,7.5373
1490822886,380.4000000027,9.42477
1490822888,406.8000000027,8.62823
1490822890,404.4000000027,8.14217
1490822892,402.0000000027,7.72455
1490822894,409.2000000027,7.11776
1490822896,430.8000000027,7.24974
1490822898,438.0000000027,9.50017
1490822900,438.0000000027,7.14446
1490822902,438.0000000027,8.17367
1490822904,445.2000000027,9.25317
1490822906,373.2000000027,8.52603
1490822908,409.2000000027,8.18049
1490822910,447.6000000027,8.15531
1490822912,385.2000000027,8.76468
1490822914,375.6000000027,8.92572
1490822916,373.2000000027,9.09083
1490822918,342.0000000027,9.13968
1490822920,390.0000000027,8.33615
1490822924,392.4000000027,8.42111
1490822926,390.0000000027,9.36215
1490822928,378.0000000027,7.42297
1490822930,392.4000000027,8.26205
1490822932,358.8000000027,8.43283
1490822934,382.8000000027,9.29868
1490822936,418.8000000027,7.27031
1490822938,356.4000000027,10.0376
1490822940,406.8000000027,8.55682
1490822942,402.0000000027,8.27415
1490822944,358.8000000027,7.99211
1490822946,426.0000000027,7.38583
1490822948,394.8000000027,9.56324
1490822950,358.8000000027,10.0729
1490822952,356.4000000027,10.9395
1490822954,394.8000000027,11.6969
1490822956,392.4000000027,10.4332
1490822958,447.6000000027,10.0164
1490822960,392.4000000027,8.72404
1490822962,387.6000000027,9.38361
1490822964,354.0000000027,7.87959
1490822966,397.2000000027,10.4234
1490822968,438.0000000027,11.4971
1490822970,368.4000000027,11.1264
1490822972,382.8000000027,11.4594
1490822974,363.6000000027,9.28094
1490822976,368.4000000027,9.04735
1490822978,368.4000000027,8.49632
1490822980,399.6000000027,10.7504
1490822982,411.6000000027,9.55708
1490822984,387.6000000027,11.4317
1490822986,402.0000000027,10.8142
1490822988,378.0000000027,10.3354
1490822990,414.0000000027,9.52833
1490822992,423.6000000027,10.0501
1490822994,426.0000000027,9.47165
1490822996,382.8000000027,10.3885
1490822998,363.6000000027,7.60251
1490823000,428.4000000027,9.10818
1490823002,370.8000000027,6.80623
1490823004,397.2000000027,8.50272
1490823006,423.6000000027,9.98994
1490823008,406.8000000027,9.10093
1490823010,433.2000000027,6.84543
1490823012,406.8000000027,6.75587
1490823014,390.0000000027,7.79857
1490823016,462.0000000027,7.74041
1490823018,414.0000000027,9.93081
1490823020,397.2000000027,10.1503
1490823022,404.4000000027,7.49038
1490823024,373.2000000027,7.54123
1490823026,373.2000000027,8.96611
1490823028,402.0000000027,9.16187
1490823030,406.8000000027,8.38101
1490823032,406.8000000027,9.07921
1490823034,366.0000000027,9.01873
1490823036,426.0000000027,10.3633
1490823038,404.4000000027,9.27922
1490823040,366.0000000027,7.9155
1490823042,454.8000000027,8.16384
1490823044,380.4000000027,11.6516
1490823046,423.6000000027,9.75077
1490823048,349.2000000027,10.5387
1490823050,375.6000000027,10.6284
1490823052,337.2000000027,9.69696
1490823054,346.8000000027,8.77727
1490823056,351.6000000027,8.04821
1490823058,387.6000000027,9.60415
1490823060,351.6000000027,8.31957
1490823062,378.0000000027,8.24602
1490823064,394.8000000027,9.4698
1490823066,358.8000000027,9.08441
1490823068,339.6000000027,8.5866
1490823070,366.0000000027,9.28999
1490823072,421.2000000027,9.46668
1490823074,354.0000000027,10.4316
1490823076,366.0000000027,11.2237
1490823078,368.4000000027,9.08271
1490823080,404.4000000027,9.01708
1490823082,411.6000000027,9.9473
1490823084,392.4000000027,8.5969
1490823086,370.8000000027,8.43558
1490823088,370.8000000027,8.22793
1490823090,411.6000000027,10.4687
1490823092,418.8000000027,8.49642
1490823094,392.4000000027,9.76383
1490823096,394.8000000027,8.21628
1490823098,373.2000000027,9.59102
1490823100,390.0000000027,7.60007
1490823102,356.4000000027,9.60028
1490823104,349.2000000027,10.3634
1490823106,385.2000000027,11.9856
1490823108,399.6000000027,8.16033
1490823110,394.8000000027,10.7983
1490823112,394.8000000027,10.1261
1490823114,387.6000000027,8.08188
1490823116,454.8000000027,8.04668
1490823118,430.8000000027,10.2166
1490823120,438.0000000027,9.70926
1490823122,394.8000000027,8.19653
1490823124,466.8000000027,10.3945
1490823126,394.8000000027,8.4677
1490823128,438.0000000027,10.1491
1490823130,411.6000000027,9.40631
1490823132,457.2000000027,10.0943
1490823134,452.4000000027,11.0312
1490823136,452.4000000027,10.8761
1490823138,452.4000000027,10.9102
1490823140,418.8000000027,10.5066
1490823142,454.8000000027,11.3781
1490823144,469.2000000027,10.7416
1490823146,457.2000000027,10.3975
1490823148,452.4000000027,10.1264
1490823150,459.6000000027,10.8237
1490823152,474.0000000027,9.127
1490823154,474.0000000027,9.35892
1490823156,469.2000000027,10.5203
1490823158,397.2000000027,9.14631
1490823160,469.2000000027,10.5062
1490823162,447.6000000027,7.97171
1490823164,459.6000000027,9.36481
1490823166,469.2000000027,9.97461
1490823168,464.4000000027,8.87389
1490823170,469.2000000027,8.99215
1490823172,450.0000000027,8.50101
1490823174,418.8000000027,8.44552
1490823176,466.8000000027,9.9957
1490823178,474.0000000027,8.24915
1490823180,536.4000000027,8.37783
1490823182,464.4000000027,8.0323
1490823184,459.6000000027,12.2668
1490823186,476.4000000027,10.1406
1490823188,543.6000000027,9.06192
1490823190,483.6000000027,7.22068
1490823192,553.2000000027,8.46913
1490823194,541.2000000027,10.3585
1490823196,490.8000000027,9.19232
1490823198,538.8000000027,8.17079
1490823200,543.6000000027,8.90196
1490823202,538.8000000027,9.10317
1490823204,536.4000000027,9.57103
1490823206,459.6000000027,9.40905
1490823208,529.2000000027,9.49177
1490823210,471.6000000027,8.29535
1490823212,560.4000000027,10.756
1490823214,558.0000000027,10.8121
1490823216,555.6000000027,10.3884
1490823218,553.2000000027,11.242
1490823220,481.2000000027,11.9279
1490823222,478.8000000027,11.7341
1490823224,534.0000000027,10.4055
1490823226,486.0000000027,10.135
1490823228,524.4000000027,7.23167
1490823230,574.8000000027,7.85544
1490823232,466.8000000027,9.68386
1490823234,466.8000000027,9.17859
1490823236,483.6000000027,9.14092
1490823238,447.6000000027,8.01085
1490823240,454.8000000027,8.4829
1490823242,459.6000000027,8.48581
1490823244,466.8000000027,10.4655
1490823246,462.0000000027,9.69944
1490823248,452.4000000027,11.3903
1490823250,462.0000000027,11.995
1490823252,423.6000000027,11.8986
1490823254,452.4000000027,11.1046
1490823256,454.8000000027,11.0627
1490823258,464.4000000027,11.3123
1490823260,478.8000000027,9.43908
1490823262,529.2000000027,10.1309
1490823266,459.6000000027,7.55261
1490823268,495.6000000027,9.67533
1490823270,466.8000000027,10.6706
1490823272,546.0000000027,10.2444
1490823274,452.4000000027,11.7684
1490823276,462.0000000027,10.6133
1490823278,543.6000000027,11.2608
1490823280,476.4000000027,9.75248
1490823282,483.6000000027,10.6179
1490823284,546.0000000027,11.5311
1490823286,526.8000000027,10.8466
1490823288,550.8000000027,9.51854
1490823290,466.8000000027,9.73713
1490823292,476.4000000027,9.34917
1490823294,450.0000000027,11.0952
1490823296,474.0000000027,11.0277
1490823298,502.8000000027,9.1711
1490823300,476.4000000027,8.93503
1490823302,459.6000000027,8.85108
1490823304,553.2000000027,9.32055
1490823306,481.2000000027,8.56974
1490823308,466.8000000027,11.6891
1490823310,469.2000000027,11.555
1490823312,478.8000000027,9.6877
1490823314,462.0000000027,9.37512
1490823316,558.0000000027,8.62849
1490823318,459.6000000027,8.86955
1490823320,558.0000000027,9.5392
1490823322,558.0000000027,9.4826
1490823324,582.0000000027,7.66915
1490823326,555.6000000027,8.49605
1490823328,486.0000000027,6.15307
1490823330,522.0000000027,10.4192
1490823332,591.6000000027,9.57474
1490823334,464.4000000027,8.80482
1490823336,495.6000000027,7.92408
1490823338,493.2000000027,9.7933
1490823340,474.0000000027,7.40842
1490823342,488.4000000027,10.3121
1490823344,486.0000000027,10.953
1490823346,517.2000000027,10.9267
1490823348,553.2000000027,10.4836
1490823350,464.4000000027,9.05011
1490823352,522.0000000027,9.27208
1490823354,642.0000000027,10.0492
1490823356,603.6000000027,9.50824
1490823358,618.0000000027,10.3964
1490823360,642.0000000027,9.34265
1490823362,627.6000000027,7.92583
1490823364,656.4000000027,8.6237
1490823366,610.8000000027,7.49799
1490823368,637.2000000027,8.93851
1490823370,622.8000000027,11.0822
1490823372,690.0000000027,8.42908
1490823374,632.4000000027,9.41082
1490823376,639.6000000027,9.67349
1490823378,670.8000000027,7.73995
1490823380,678.0000000027,7.0523
1490823382,644.4000000027,9.48665
1490823384,639.6000000027,8.07581
1490823386,675.6000000027,8.21149
1490823388,658.8000000027,7.3605
1490823390,711.6000000027,7.26359
1490823392,658.8000000027,8.70864
1490823394,646.8000000027,7.26914
1490823396,673.2000000027,8.64416
1490823398,639.6000000027,10.2045
1490823400,666.0000000027,8.90173
1490823402,634.8000000027,8.87992
1490823404,622.8000000027,10.6165
1490823406,567.6000000027,10.2465
1490823408,630.0000000027,8.86451
1490823410,615.6000000027,10.1141
1490823412,654.0000000027,7.66206
1490823414,637.2000000027,9.2582
1490823416,682.8000000027,9.27235
1490823418,646.8000000027,10.2232
1490823420,656.4000000027,11.7291
1490823422,687.6000000027,11.7939
1490823424,670.8000000027,12.2386
1490823426,596.4000000027,11.4709
1490823428,627.6000000027,12.6766
1490823430,668.4000000027,10.7005
1490823432,644.4000000027,9.08961
1490823434,670.8000000027,9.73664
1490823436,608.4000000027,11.341
1490823438,601.2000000027,9.43038
1490823440,615.6000000027,11.273
1490823442,615.6000000027,11.1511
1490823444,589.2000000027,10.7044
1490823446,591.6000000027,12.4127
1490823448,577.2000000027,11.9288
1490823450,610.8000000027,11.5096
1490823452,632.4000000027,10.0991
1490823454,680.4000000027,10.5312
1490823456,591.6000000027,11.4232
1490823458,642.0000000027,11.1385
1490823460,651.6000000027,10.6096
1490823462,644.4000000027,11.1194
1490823464,608.4000000027,11.8556
1490823466,577.2000000027,12.3215
1490823468,639.6000000027,11.4188
1490823470,574.8000000027,9.51844
1490823472,632.4000000027,9.80374
1490823474,613.2000000027,11.8467
1490823476,562.8000000027,10.9233
1490823478,625.2000000027,11.1413
1490823480,574.8000000027,11.0587
1490823482,601.2000000027,8.87627
1490823484,574.8000000027,8.37126
1490823486,570.0000000027,7.76538
1490823488,596.4000000027,9.62922
1490823490,562.8000000027,7.83106
1490823492,572.4000000027,7.84754
1490823494,644.4000000027,8.77452
1490823496,570.0000000027,9.82755
1490823498,586.8000000027,8.13765
1490823500,579.6000000027,9.23665
1490823502,567.6000000027,7.51544
1490823504,620.4000000027,7.4537
1490823506,567.6000000027,9.30692
1490823508,560.4000000027,9.2729
1490823510,594.0000000027,9.24634
1490823512,589.2000000027,9.15268
1490823514,656.4000000027,10.9658
1490823516,639.6000000027,8.04234
1490823518,627.6000000027,10.0135
1490823520,634.8000000027,8.70011
1490823522,642.0000000027,9.33646
1490823524,656.4000000027,8.5599
1490823526,711.6000000027,9.67233
1490823528,610.8000000027,10.0418
1490823530,654.0000000027,7.67447
1490823532,632.4000000027,7.48796
1490823534,577.2000000027,10.7038
1490823536,608.4000000027,10.1605
1490823538,620.4000000027,10.6317
1490823540,618.0000000027,7.82516
1490823542,610.8000000027,8.58529
1490823544,666.0000000027,7.54843
1490823546,582.0000000027,8.53556
1490823548,620.4000000027,10.9496
1490823550,577.2000000027,8.03233
1490823552,577.2000000027,7.17724
1490823554,610.8000000027,7.69259
1490823556,601.2000000027,6.93181
1490823558,570.0000000027,8.94788
1490823560,615.6000000027,7.93833
1490823562,553.2000000027,10.7955
1490823564,567.6000000027,9.15459
1490823566,536.4000000027,9.34823
1490823568,558.0000000027,8.87458
1490823570,579.6000000027,10.2533
1490823572,560.4000000027,9.64567
1490823574,565.2000000027,9.46052
1490823576,562.8000000027,9.59105
1490823578,553.2000000027,8.66342
1490823580,567.6000000027,10.7824
1490823582,565.2000000027,10.6857
1490823584,538.8000000027,10.0644
1490823586,550.8000000027,8.73002
1490823588,478.8000000027,8.15701
1490823590,536.4000000027,9.76222
1490823592,543.6000000027,10.9293
1490823594,546.0000000027,8.89896
1490823596,536.4000000027,9.06098
1490823598,603.6000000027,9.46007
1490823600,538.8000000027,7.69721
1490823602,591.6000000027,7.74267
1490823604,565.2000000027,9.67833
1490823606,478.8000000027,7.52714
1490823608,550.8000000027,8.30183
1490823610,574.8000000027,9.21485
1490823612,567.6000000027,7.91912
1490823614,553.2000000027,9.29034
1490823616,541.2000000027,7.59317
1490823618,553.2000000027,8.31433
1490823620,555.6000000027,7.53563
1490823622,478.8000000027,7.18187
1490823624,469.2000000027,7.48531
1490823626,536.4000000027,8.22024
1490823628,471.6000000027,7.34932
1490823630,481.2000000027,8.83371
1490823632,558.0000000027,5.26055
1490823634,553.2000000027,8.49813
1490823636,572.4000000027,8.69302
1490823638,478.8000000027,8.04541
1490823640,474.0000000027,10.9185
1490823642,550.8000000027,10.3531
1490823644,550.8000000027,9.55277
1490823646,536.4000000027,7.56795
1490823648,560.4000000027,12.4787
1490823650,546.0000000027,8.26535
1490823652,481.2000000027,9.25314
1490823654,548.4000000027,8.57927
1490823656,560.4000000027,7.5349
1490823658,574.8000000027,9.24075
1490823660,553.2000000027,8.71913
1490823662,548.4000000027,9.36
1490823664,555.6000000027,9.06754
1490823666,481.2000000027,11.16
1490823668,486.0000000027,10.6387
1490823670,562.8000000027,11.6127
1490823672,536.4000000027,10.3312
1490823674,572.4000000027,10.1015
1490823676,560.4000000027,8.73002
1490823678,546.0000000027,11.2178
1490823680,553.2000000027,10.9113
1490823682,478.8000000027,10.9279
1490823684,538.8000000027,11.5319
1490823686,541.2000000027,10.3731
1490823688,426.0000000027,10.9374
1490823690,478.8000000027,12.2432
1490823692,469.2000000027,11.1494
1490823694,469.2000000027,10.1848
1490823696,526.8000000027,11.9852
1490823698,531.6000000027,12.1731
1490823700,522.0000000027,12.5199
1490823702,543.6000000027,11.6987
1490823704,466.8000000027,10.3456
1490823706,548.4000000027,10.3374
1490823708,548.4000000027,11.4591
1490823710,483.6000000027,9.95922
1490823712,548.4000000027,8.52921
1490823714,478.8000000027,8.57749
1490823716,526.8000000027,8.99257
1490823718,572.4000000027,9.58457
1490823720,553.2000000027,9.56695
1490823722,548.4000000027,10.1926
1490823724,543.6000000027,10.7676
1490823726,464.4000000027,12.3397
1490823728,466.8000000027,11.2516
1490823730,534.0000000027,10.8775
1490823732,481.2000000027,9.89983
1490823734,543.6000000027,9.74837
1490823736,481.2000000027,10.3859
1490823738,550.8000000027,10.3638
1490823740,577.2000000027,9.49014
1490823742,560.4000000027,9.41022
1490823744,558.0000000027,9.96099
1490823746,574.8000000027,9.26337
1490823748,553.2000000027,9.35391
1490823750,543.6000000027,8.73288
1490823752,538.8000000027,10.4116
1490823754,488.4000000027,9.18152
1490823756,466.8000000027,9.39612
1490823758,536.4000000027,9.97451
1490823760,546.0000000027,9.39045
1490823762,483.6000000027,9.39336
1490823764,562.8000000027,10.6236
1490823766,558.0000000027,9.56937
1490823768,483.6000000027,9.8437
1490823770,483.6000000027,9.30818
1490823772,538.8000000027,9.31615
1490823774,536.4000000027,9.68844
1490823776,522.0000000027,9.68861
1490823778,488.4000000027,7.31915
1490823780,543.6000000027,8.10778
1490823782,476.4000000027,10.4425
1490823784,481.2000000027,11.7216
1490823786,462.0000000027,10.4225
1490823788,471.6000000027,10.8357
1490823790,529.2000000027,10.6068
1490823792,476.4000000027,10.7352
1490823794,531.6000000027,11.5687
1490823796,474.0000000027,11.0164
1490823798,522.0000000027,10.7747
1490823800,495.6000000027,11.5627
1490823802,500.4000000027,12.6535
1490823804,550.8000000027,11.1941
1490823806,558.0000000027,10.5459
1490823808,478.8000000027,11.3597
1490823810,560.4000000027,10.3011
1490823812,536.4000000027,10.9702
1490823814,546.0000000027,12.4976
1490823816,594.0000000027,10.8592
1490823818,538.8000000027,10.4677
1490823820,560.4000000027,11.3408
1490823822,560.4000000027,9.84011
1490823824,546.0000000027,10.2065
1490823826,555.6000000027,8.21655
1490823828,550.8000000027,8.73235
1490823830,558.0000000027,9.8283
1490823832,550.8000000027,8.71719
1490823834,538.8000000027,8.66542
1490823836,582.0000000027,8.75559
1490823838,555.6000000027,8.36882
1490823840,541.2000000027,11.2305
1490823842,553.2000000027,9.11745
1490823844,550.8000000027,9.45863
1490823846,519.6000000027,5.8435
1490823848,553.2000000027,9.4007
1490823850,478.8000000027,8.67553
1490823852,486.0000000027,7.87113
1490823854,548.4000000027,7.07199
1490823856,618.0000000027,8.77945
1490823858,538.8000000027,8.39356
1490823860,550.8000000027,6.22268
1490823862,469.2000000027,9.16054
1490823864,529.2000000027,8.53362
1490823866,454.8000000027,9.47172
1490823868,531.6000000027,7.97595
1490823870,486.0000000027,10.7389
1490823872,543.6000000027,9.01113
1490823874,565.2000000027,8.58584
1490823876,471.6000000027,8.11746
1490823878,534.0000000027,7.9835
1490823880,486.0000000027,8.99062
1490823882,538.8000000027,10.0565
1490823884,562.8000000027,8.343
1490823886,486.0000000027,9.40421
1490823888,433.2000000027,8.55453
1490823890,534.0000000027,10.4365
1490823892,476.4000000027,10.7375
1490823894,543.6000000027,9.55359
1490823896,471.6000000027,12.3784
1490823898,438.0000000027,8.72104
1490823900,457.2000000027,9.47956
1490823902,466.8000000027,9.69372
1490823904,498.0000000027,9.07195
1490823906,471.6000000027,8.83994
1490823908,474.0000000027,7.89473
1490823910,469.2000000027,8.28232
1490823912,478.8000000027,8.02417
1490823914,459.6000000027,8.302
1490823916,471.6000000027,6.19578
1490823918,543.6000000027,6.65025
1490823920,548.4000000027,6.14733
1490823922,522.0000000027,9.34941
1490823924,543.6000000027,8.41433
1490823926,562.8000000027,11.7204
1490823928,586.8000000027,8.64341
1490823930,562.8000000027,9.76306
1490823932,594.0000000027,10.4957
1490823934,562.8000000027,11.2531
1490823936,567.6000000027,9.70779
1490823938,579.6000000027,9.62384
1490823940,550.8000000027,9.87703
1490823942,546.0000000027,9.82475
1490823944,572.4000000027,8.62314
1490823946,541.2000000027,10.8058
1490823948,543.6000000027,8.82988
1490823950,471.6000000027,10.3861
1490823952,529.2000000027,8.22179
1490823954,541.2000000027,10.6098
1490823956,478.8000000027,9.65122
1490823958,553.2000000027,8.98263
1490823960,550.8000000027,10.2598
1490823962,493.2000000027,7.9701
1490823964,476.4000000027,9.97452
1490823966,481.2000000027,9.87909
1490823968,481.2000000027,10.9135
1490823970,478.8000000027,10.9922
1490823972,469.2000000027,9.72805
1490823974,447.6000000027,8.57808
1490823976,476.4000000027,9.00677
1490823978,459.6000000027,8.84808
1490823980,550.8000000027,8.34508
1490823982,517.2000000027,9.76316
1490823984,541.2000000027,9.55396
1490823986,476.4000000027,9.24945
1490823990,457.2000000027,9.70363
1490823992,471.6000000027,10.3934
1490823994,488.4000000027,9.78456
1490823996,476.4000000027,9.93796
1490823998,452.4000000027,8.53979
1490824000,469.2000000027,9.37746
1490824002,534.0000000027,8.59408
1490824004,481.2000000027,7.9009
1490824006,543.6000000027,10.6518
1490824008,543.6000000027,10.4058
1490824010,529.2000000027,8.42945
1490824012,548.4000000027,7.61715
1490824014,550.8000000027,9.27513
1490824016,555.6000000027,7.85694
1490824018,565.2000000027,10.2662
1490824020,519.6000000027,11.0451
1490824022,558.0000000027,9.98102
1490824024,567.6000000027,10.6429
1490824026,570.0000000027,10.2819
1490824028,598.8000000027,9.66209
1490824030,529.2000000027,8.97609
1490824032,548.4000000027,9.43809
1490824034,560.4000000027,9.68546
1490824036,570.0000000027,9.84355
1490824038,570.0000000027,7.83835
1490824040,579.6000000027,7.03284
1490824042,555.6000000027,8.66902
1490824044,574.8000000027,9.70164
1490824046,562.8000000027,9.37508
1490824048,579.6000000027,9.21236
1490824050,584.4000000027,7.83181
1490824052,582.0000000027,7.28182
1490824054,579.6000000027,9.74407
1490824056,618.0000000027,9.14516
1490824058,634.8000000027,8.71097
1490824060,666.0000000027,8.18774
1490824062,625.2000000027,10.9211
1490824064,682.8000000027,9.4899
1490824066,634.8000000027,10.3125
1490824068,642.0000000027,10.2163
1490824070,658.8000000027,11.8753
1490824072,610.8000000027,10.9569
1490824074,656.4000000027,11.185
1490824076,634.8000000027,11.2651
1490824078,675.6000000027,12.2845
1490824080,690.0000000027,9.92413
1490824082,699.6000000027,10.1213
1490824084,716.4000000027,9.56368
1490824086,728.4000000027,10.2764
1490824088,697.2000000027,9.18448
1490824090,692.4000000027,10.603
1490824092,666.0000000027,11.9118
1490824094,610.8000000027,9.5785
1490824096,666.0000000027,9.45363
1490824098,649.2000000027,9.80893
1490824100,589.2000000027,8.49351
1490824102,644.4000000027,10.6126
1490824104,570.0000000027,8.09525
1490824106,615.6000000027,8.47902
1490824108,584.4000000027,9.00388
1490824110,596.4000000027,8.89106
1490824112,608.4000000027,9.19966
1490824114,488.4000000027,10.0249
1490824116,550.8000000027,11.0235
1490824118,584.4000000027,11.9134
1490824120,548.4000000027,11.0601
1490824122,560.4000000027,9.38807
1490824124,548.4000000027,9.63059
1490824126,474.0000000027,7.86007
1490824128,471.6000000027,9.74019
1490824130,546.0000000027,9.34974
1490824132,457.2000000027,6.97718
1490824134,486.0000000027,8.7218
1490824136,466.8000000027,8.77541
1490824138,476.4000000027,10.2665
1490824140,474.0000000027,9.34921
1490824142,466.8000000027,10.966
1490824144,442.8000000027,9.32599
1490824146,510.0000000027,9.57622
1490824148,404.4000000027,9.19773
1490824150,486.0000000027,10.8205
1490824152,466.8000000027,10.0499
1490824154,457.2000000027,10.1281
1490824156,471.6000000027,8.64549
1490824158,478.8000000027,10.4746
1490824160,546.0000000027,11.296
1490824162,546.0000000027,9.28595
1490824164,543.6000000027,6.60909
1490824166,526.8000000027,7.48198
1490824168,534.0000000027,8.48603
1490824170,538.8000000027,9.41144
1490824172,534.0000000027,9.00478
1490824174,565.2000000027,9.57326
1490824176,536.4000000027,8.23581
1490824178,538.8000000027,9.65779
1490824180,543.6000000027,7.53609
1490824182,577.2000000027,10.2749
1490824184,594.0000000027,8.71397
1490824186,567.6000000027,8.53969
1490824188,558.0000000027,9.47519
1490824190,567.6000000027,8.618
1490824192,570.0000000027,8.12241
1490824194,567.6000000027,6.94042
1490824196,572.4000000027,8.65035
1490824198,572.4000000027,8.9647
1490824200,565.2000000027,10.7472
1490824202,541.2000000027,8.54669
1490824204,570.0000000027,8.1398
1490824206,618.0000000027,6.89293
1490824208,555.6000000027,7.84874
1490824210,574.8000000027,6.81806
1490824212,570.0000000027,8.27253
1490824214,555.6000000027,9.94551
1490824216,618.0000000027,8.02755
1490824218,613.2000000027,10.2784
1490824220,562.8000000027,11.2366
1490824222,630.0000000027,11.1539
1490824224,550.8000000027,11.8955
1490824226,589.2000000027,10.2679
1490824228,634.8000000027,11.7174
1490824230,584.4000000027,11.9272
1490824232,654.0000000027,10.195
1490824234,625.2000000027,11.8942
1490824236,572.4000000027,8.47679
1490824238,613.2000000027,12.2307
1490824240,613.2000000027,11.6464
1490824242,582.0000000027,9.86753
1490824244,589.2000000027,11.9077
1490824246,570.0000000027,9.628
1490824248,618.0000000027,10.9663
1490824250,666.0000000027,10.0668
1490824252,570.0000000027,10.8317
1490824254,574.8000000027,10.7649
1490824256,615.6000000027,8.54349
1490824258,582.0000000027,10.604
1490824260,618.0000000027,9.51637
1490824262,625.2000000027,9.34725
1490824264,637.2000000027,9.41766
1490824266,644.4000000027,10.7092
1490824268,572.4000000027,9.72885
1490824270,630.0000000027,9.80226
1490824272,639.6000000027,8.72442
1490824274,668.4000000027,11.4494
1490824276,668.4000000027,11.4351
1490824278,639.6000000027,10.2773
1490824280,584.4000000027,8.59028
1490824282,663.6000000027,10.7361
1490824284,574.8000000027,9.73156
1490824286,558.0000000027,9.95708
1490824288,668.4000000027,8.19344
1490824290,637.2000000027,9.2305
1490824292,572.4000000027,8.83959
1490824294,627.6000000027,9.69301
1490824296,574.8000000027,10.7667
1490824298,632.4000000027,9.55096
1490824300,574.8000000027,7.296
1490824302,574.8000000027,9.66633
1490824304,601.2000000027,8.05137
1490824306,565.2000000027,7.90548
1490824308,538.8000000027,7.28833
1490824310,594.0000000027,7.49578
1490824312,579.6000000027,9.0031
1490824314,586.8000000027,8.62525
1490824316,572.4000000027,10.0541
1490824318,567.6000000027,8.22498
1490824320,548.4000000027,8.98434
1490824322,548.4000000027,7.03169
1490824324,534.0000000027,8.92125
1490824326,534.0000000027,7.75385
1490824328,522.0000000027,9.01245
1490824330,529.2000000027,5.24047
1490824332,565.2000000027,6.48096
1490824334,543.6000000027,7.69222
1490824336,538.8000000027,8.00119
1490824338,483.6000000027,8.90767
1490824340,572.4000000027,7.49776
1490824342,577.2000000027,11.4943
1490824344,574.8000000027,7.66718
1490824346,560.4000000027,5.87548
1490824348,591.6000000027,7.48015
1490824350,565.2000000027,8.53099
1490824352,584.4000000027,8.54048
1490824354,586.8000000027,7.77168
1490824356,584.4000000027,8.56667
1490824358,610.8000000027,8.2968
1490824360,594.0000000027,8.7072
1490824362,558.0000000027,8.79509
1490824364,639.6000000027,8.03607
1490824366,565.2000000027,8.66739
1490824368,577.2000000027,8.57901
1490824370,613.2000000027,8.10769
1490824372,589.2000000027,9.17752
1490824374,579.6000000027,7.81382
1490824376,565.2000000027,8.06263
1490824378,567.6000000027,10.2997
1490824380,637.2000000027,10.2453
1490824382,586.8000000027,10.1873
1490824384,582.0000000027,8.85275
1490824386,632.4000000027,9.44285
1490824388,579.6000000027,8.97552
1490824390,620.4000000027,9.03093
1490824392,654.0000000027,9.89433
1490824394,574.8000000027,7.20732
1490824396,639.6000000027,7.88801
1490824398,598.8000000027,8.11809
1490824400,572.4000000027,7.44288
1490824402,572.4000000027,8.1343
1490824404,582.0000000027,8.84563
1490824406,620.4000000027,9.74323
1490824408,622.8000000027,12.3445
1490824410,562.8000000027,9.39962
1490824412,555.6000000027,10.7301
1490824414,584.4000000027,9.39847
1490824416,558.0000000027,10.2844
1490824418,579.6000000027,8.88108
1490824420,572.4000000027,9.27887
1490824422,646.8000000027,11.0239
1490824424,586.8000000027,10.1085
1490824426,579.6000000027,9.64357
1490824428,558.0000000027,11.4793
1490824430,658.8000000027,10.6317
1490824432,598.8000000027,12.0089
1490824434,558.0000000027,11.5805
1490824436,594.0000000027,10.7224
1490824438,570.0000000027,10.1981
1490824440,582.0000000027,10.311
1490824442,586.8000000027,9.2195
1490824444,586.8000000027,10.7189
1490824446,625.2000000027,11.1826
1490824448,584.4000000027,10.4598
1490824450,596.4000000027,11.2964
1490824452,622.8000000027,8.9968
1490824454,670.8000000027,10.3383
1490824456,733.2000000027,10.1993
1490824458,632.4000000027,10.2978
1490824460,740.4000000027,9.359
1490824462,663.6000000027,9.47894
1490824464,709.2000000027,10.4118
1490824466,687.6000000027,9.81012
1490824468,750.0000000027,8.64741
1490824470,704.4000000027,9.38335
1490824472,682.8000000027,8.27643
1490824474,714.0000000027,9.47688
1490824476,668.4000000027,8.48953
1490824478,694.8000000027,9.15427
1490824480,661.2000000027,9.41733
1490824482,673.2000000027,9.6939
1490824484,642.0000000027,7.44562
1490824486,622.8000000027,8.23068
1490824488,565.2000000027,7.60359
1490824490,584.4000000027,7.2152
1490824492,608.4000000027,7.35804
1490824494,627.6000000027,7.50513
1490824496,598.8000000027,10.1411
1490824498,630.0000000027,7.35674
1490824500,570.0000000027,8.26168
1490824502,601.2000000027,7.30184
1490824504,642.0000000027,7.60116
1490824506,589.2000000027,6.91548
1490824508,625.2000000027,8.55007
1490824510,601.2000000027,8.10713
1490824512,577.2000000027,7.13366
1490824514,625.2000000027,7.5752
1490824516,644.4000000027,8.14413
1490824518,642.0000000027,9.1259
1490824520,651.6000000027,6.99768
1490824522,586.8000000027,6.94969
1490824524,639.6000000027,7.62001
1490824526,618.0000000027,8.3155
1490824528,627.6000000027,8.38093
1490824530,622.8000000027,8.37173
1490824532,555.6000000027,9.35085
1490824534,579.6000000027,9.79634
1490824536,555.6000000027,9.88815
1490824538,582.0000000027,8.6259
1490824540,589.2000000027,9.74525
1490824542,562.8000000027,9.34752
1490824544,567.6000000027,9.84939
1490824546,625.2000000027,10.3276
1490824548,546.0000000027,9.2863
1490824550,574.8000000027,8.99534
1490824552,548.4000000027,10.9239
1490824554,548.4000000027,8.62856
1490824556,562.8000000027,11.2157
1490824558,548.4000000027,10.9888
1490824560,466.8000000027,10.3048
1490824562,565.2000000027,11.2804
1490824564,548.4000000027,11.0579
1490824566,562.8000000027,9.08977
1490824568,550.8000000027,9.42462
1490824570,546.0000000027,10.3911
1490824572,531.6000000027,9.97753
1490824574,541.2000000027,8.18568
1490824576,483.6000000027,10.357
1490824578,577.2000000027,7.88437
1490824580,553.2000000027,9.66215
1490824582,478.8000000027,9.41855
1490824584,565.2000000027,9.7502
1490824586,550.8000000027,8.34982
1490824588,550.8000000027,11.1903
1490824590,548.4000000027,11.342
1490824592,558.0000000027,8.88361
1490824594,558.0000000027,8.0539
1490824596,567.6000000027,8.23128
1490824598,567.6000000027,8.70802
1490824600,550.8000000027,9.02905
1490824602,553.2000000027,9.94215
1490824604,543.6000000027,8.51647
1490824606,572.4000000027,7.08221
1490824608,591.6000000027,8.81857
1490824610,577.2000000027,9.02334
1490824612,615.6000000027,10.7634
1490824614,615.6000000027,9.21899
1490824616,579.6000000027,9.81566
1490824618,613.2000000027,9.19585
1490824620,589.2000000027,10.2553
1490824622,622.8000000027,11.4058
1490824624,594.0000000027,11.3284
1490824626,543.6000000027,9.32433
1490824628,649.2000000027,8.84187
1490824630,601.2000000027,8.03261
1490824632,567.6000000027,8.02522
1490824634,560.4000000027,8.11155
1490824636,570.0000000027,7.2288
1490824638,567.6000000027,9.87757
1490824640,594.0000000027,8.84295
1490824642,560.4000000027,9.34887
1490824644,610.8000000027,8.62961
1490824646,574.8000000027,9.45971
1490824648,594.0000000027,9.86604
1490824650,572.4000000027,10.4947
1490824652,644.4000000027,9.54184
1490824654,584.4000000027,10.3185
1490824656,567.6000000027,9.35856
1490824658,584.4000000027,10.1395
1490824660,574.8000000027,10.6268
1490824662,613.2000000027,9.84116
1490824664,574.8000000027,8.94144
1490824666,572.4000000027,7.95265
1490824668,598.8000000027,7.85166
1490824670,613.2000000027,8.22902
1490824672,589.2000000027,8.42466
1490824674,555.6000000027,8.92053
1490824676,483.6000000027,10.6523
1490824678,565.2000000027,8.19658
1490824680,555.6000000027,10.1737
1490824682,570.0000000027,9.68095
1490824684,567.6000000027,8.09832
1490824686,543.6000000027,7.86477
1490824688,550.8000000027,10.5831
1490824690,558.0000000027,9.80351
1490824692,483.6000000027,9.54369
1490824694,478.8000000027,8.32082
1490824696,534.0000000027,9.85072
1490824698,543.6000000027,10.1293
1490824700,546.0000000027,9.04572
1490824702,570.0000000027,10.4134
1490824704,550.8000000027,9.99317
1490824706,558.0000000027,9.60709
1490824708,478.8000000027,9.48471
1490824710,541.2000000027,9.81906
1490824712,560.4000000027,9.88614
1490824714,553.2000000027,10.1161
1490824716,558.0000000027,10.1973
1490824718,534.0000000027,8.86698
1490824720,558.0000000027,11.634
1490824722,534.0000000027,11.4181
1490824724,478.8000000027,10.1568
1490824726,572.4000000027,9.32929
1490824728,471.6000000027,10.3465
1490824730,534.0000000027,11.0179
1490824732,548.4000000027,11.0561
1490824734,562.8000000027,11.2537
1490824736,531.6000000027,13.2892
1490824738,536.4000000027,11.7727
1490824740,558.0000000027,9.25748
1490824742,577.2000000027,12.2167
1490824744,541.2000000027,8.74498
1490824746,553.2000000027,9.0535
1490824748,546.0000000027,10.0565
1490824750,567.6000000027,8.11965
1490824752,591.6000000027,10.2343
1490824754,586.8000000027,10.0061
1490824756,555.6000000027,7.68566
1490824758,646.8000000027,9.53367
1490824760,579.6000000027,10.3385
1490824762,613.2000000027,10.3838
1490824764,606.0000000027,9.71125
1490824766,572.4000000027,7.88756
1490824768,644.4000000027,9.42359
1490824770,625.2000000027,8.42713
1490824772,615.6000000027,10.285
1490824774,634.8000000027,9.50168
1490824776,702.0000000027,8.80818
1490824778,644.4000000027,8.2382
1490824780,649.2000000027,7.64695
1490824782,663.6000000027,9.85169
1490824784,632.4000000027,8.46096
1490824786,654.0000000027,9.63644
1490824788,630.0000000027,8.88963
1490824790,673.2000000027,9.07255
1490824792,666.0000000027,8.35107
1490824794,622.8000000027,9.13965
1490824796,584.4000000027,9.81652
1490824798,649.2000000027,11.1008
1490824800,589.2000000027,10.1048
1490824802,632.4000000027,8.22709
1490824804,642.0000000027,10.0481
1490824806,589.2000000027,11.5004
1490824808,622.8000000027,10.9855
1490824810,622.8000000027,8.35829
1490824812,558.0000000027,9.33553
1490824814,570.0000000027,9.99918
1490824816,543.6000000027,10.4682
1490824818,550.8000000027,12.0541
1490824820,603.6000000027,11.5689
1490824822,567.6000000027,9.41786
1490824824,610.8000000027,8.23243
1490824826,627.6000000027,7.84851
1490824828,567.6000000027,9.58582
1490824830,560.4000000027,8.95235
1490824832,625.2000000027,6.72085
1490824834,570.0000000027,8.73849
1490824836,577.2000000027,9.19303
1490824838,615.6000000027,10.9548
1490824840,555.6000000027,8.72791
1490824842,550.8000000027,11.4377
1490824844,538.8000000027,10.5691
1490824846,596.4000000027,11.1802
1490824848,558.0000000027,14.0063
1490824850,618.0000000027,9.51993
1490824852,558.0000000027,12.043
1490824854,543.6000000027,11.4704
1490824856,579.6000000027,12.6459
1490824858,562.8000000027,9.07602
1490824860,639.6000000027,11.8502
1490824862,610.8000000027,12.323
1490824864,625.2000000027,10.2231
1490824866,632.4000000027,10.3618
1490824868,690.0000000027,10.9259
1490824870,666.0000000027,10.3931
1490824872,716.4000000027,8.80109
1490824874,711.6000000027,7.90626
1490824876,721.2000000027,7.42561
1490824878,709.2000000027,8.2686
1490824880,670.8000000027,8.07495
1490824882,728.4000000027,11.1127
1490824884,704.4000000027,8.63135
1490824886,666.0000000027,11.8727
1490824888,644.4000000027,9.36827
1490824890,685.2000000027,10.5024
1490824892,594.0000000027,7.34537
1490824894,685.2000000027,7.8311
1490824896,711.6000000027,8.18448
1490824898,678.0000000027,10.2176
1490824900,654.0000000027,10.8438
1490824902,625.2000000027,11.9935
1490824904,589.2000000027,10.3968
1490824906,627.6000000027,9.29944
1490824908,603.6000000027,9.32836
1490824910,594.0000000027,9.75825
1490824912,618.0000000027,12.22
1490824914,634.8000000027,9.74426
1490824916,618.0000000027,8.27933
1490824918,610.8000000027,9.58377
1490824920,574.8000000027,10.5437
1490824922,577.2000000027,8.9013
1490824924,646.8000000027,10.0698
1490824926,610.8000000027,9.77234
1490824928,572.4000000027,10.6199
1490824930,553.2000000027,10.8479
1490824932,586.8000000027,10.3624
1490824934,567.6000000027,10.5557
1490824936,558.0000000027,12.5488
1490824938,474.0000000027,10.5266
1490824940,570.0000000027,10.2963
1490824942,553.2000000027,10.341
1490824944,536.4000000027,11.8195
1490824946,558.0000000027,10.5323
1490824948,478.8000000027,8.73009
1490824950,462.0000000027,9.5467
1490824952,526.8000000027,9.51687
1490824954,478.8000000027,7.04996
1490824956,522.0000000027,9.94683
1490824958,524.4000000027,9.23752
1490824960,478.8000000027,10.3249
1490824962,481.2000000027,10.0862
1490824964,471.6000000027,8.14138
1490824966,524.4000000027,9.30117
1490824968,474.0000000027,8.41459
1490824970,464.4000000027,8.00966
1490824972,462.0000000027,8.71196
1490824974,450.0000000027,9.17146
1490824976,457.2000000027,11.2137
1490824978,466.8000000027,11.0241
1490824980,478.8000000027,6.97839
1490824982,555.6000000027,10.1859
1490824984,466.8000000027,12.1594
1490824986,538.8000000027,10.0032
1490824988,438.0000000027,6.76679
1490824990,474.0000000027,8.25683
1490824992,476.4000000027,8.96035
1490824994,483.6000000027,9.12974
1490824996,459.6000000027,8.97408
1490824998,462.0000000027,9.54645
1490825000,450.0000000027,8.75436
1490825002,512.4000000027,7.79062
1490825004,524.4000000027,7.76235
1490825006,474.0000000027,6.80944
1490825008,469.2000000027,5.29203
1490825010,469.2000000027,6.13588
1490825012,466.8000000027,4.70006
1490825014,488.4000000027,4.83769
1490825016,543.6000000027,6.33132
1490825018,478.8000000027,6.9365
1490825020,486.0000000027,7.86607
1490825022,538.8000000027,6.44957
1490825024,553.2000000027,8.70018
1490825026,550.8000000027,7.81124
1490825028,586.8000000027,8.56983
1490825030,548.4000000027,8.2274
1490825032,548.4000000027,9.0774
1490825034,543.6000000027,9.56986
1490825036,529.2000000027,8.645
1490825038,550.8000000027,10.9023
1490825040,548.4000000027,9.02499
1490825042,546.0000000027,9.38915
1490825044,560.4000000027,8.86512
1490825046,548.4000000027,9.77046
1490825048,522.0000000027,9.91679
1490825050,541.2000000027,9.93522
1490825052,555.6000000027,10.1821
1490825054,534.0000000027,9.89844
1490825056,550.8000000027,10.9266
1490825058,558.0000000027,10.2845
1490825060,548.4000000027,10.0399
1490825062,586.8000000027,7.56888
1490825064,560.4000000027,10.6457
1490825066,546.0000000027,8.94723
1490825068,582.0000000027,11.4564
1490825070,560.4000000027,10.242
1490825072,558.0000000027,10.1586
1490825074,546.0000000027,11.0115
1490825076,555.6000000027,8.38839
1490825078,546.0000000027,10.6465
1490825080,548.4000000027,9.67422
1490825082,596.4000000027,10.7818
1490825084,584.4000000027,12.1998
1490825086,632.4000000027,11.3974
1490825088,514.8000000027,11.1328
1490825090,546.0000000027,9.49875
1490825092,541.2000000027,9.92913
1490825094,550.8000000027,9.05455
1490825096,634.8000000027,5.81556
1490825098,553.2000000027,7.20671
1490825100,534.0000000027,8.68574
1490825102,582.0000000027,8.39592
1490825104,536.4000000027,8.43436
1490825106,584.4000000027,9.95226
1490825108,560.4000000027,11.6788
1490825110,579.6000000027,10.0557
1490825112,649.2000000027,10.5232
1490825114,562.8000000027,10.8215
1490825116,570.0000000027,7.94403
1490825118,603.6000000027,9.74677
1490825120,620.4000000027,8.64682
1490825122,589.2000000027,9.51298
1490825124,637.2000000027,8.6805
1490825126,594.0000000027,7.80499
1490825128,603.6000000027,8.6326
1490825130,615.6000000027,7.82971
1490825132,613.2000000027,10.2011
1490825134,634.8000000027,11.1089
1490825136,634.8000000027,9.17936
1490825138,562.8000000027,9.82099
1490825140,620.4000000027,9.13183
1490825142,562.8000000027,8.44946
1490825144,618.0000000027,7.44885
1490825146,694.8000000027,6.8651
1490825148,627.6000000027,6.425
1490825150,637.2000000027,7.76517
1490825152,685.2000000027,8.2953
1490825154,658.8000000027,8.86559
1490825156,651.6000000027,6.58065
1490825158,666.0000000027,6.1722
1490825160,630.0000000027,5.40205
1490825162,692.4000000027,5.24352
1490825164,699.6000000027,7.98415
1490825166,685.2000000027,6.7528
1490825168,694.8000000027,6.30716
1490825170,670.8000000027,8.09719
1490825172,675.6000000027,7.96546
1490825174,682.8000000027,10.3734
1490825176,702.0000000027,7.20943
1490825178,718.8000000027,8.90255
1490825180,709.2000000027,9.48528
1490825182,685.2000000027,6.80784
1490825184,690.0000000027,4.43154
1490825186,716.4000000027,8.11969
1490825188,699.6000000027,7.16976
1490825190,690.0000000027,7.44173
1490825192,680.4000000027,5.86898
1490825194,678.0000000027,5.39924
1490825196,658.8000000027,4.25915
1490825198,656.4000000027,5.4733
1490825200,608.4000000027,6.02912
1490825202,663.6000000027,5.94092
1490825204,675.6000000027,7.76235
1490825206,675.6000000027,5.87908
1490825208,630.0000000027,6.28842
1490825210,646.8000000027,5.01565
1490825212,651.6000000027,7.30875
1490825214,663.6000000027,6.03776
1490825216,673.2000000027,6.28501
1490825218,733.2000000027,6.00553
1490825220,723.6000000027,7.90114
1490825222,685.2000000027,6.35071
1490825224,685.2000000027,8.45905
1490825226,733.2000000027,7.98202
1490825228,718.8000000027,7.76943
1490825230,718.8000000027,10.2952
1490825232,742.8000000027,9.93857
1490825234,706.8000000027,10.1162
1490825236,680.4000000027,8.30766
1490825238,747.6000000027,5.36049
1490825240,733.2000000027,8.24346
1490825242,747.6000000027,8.85361
1490825244,730.8000000027,8.92221
1490825246,718.8000000027,9.30232
1490825248,742.8000000027,9.22931
1490825250,709.2000000027,9.06921
1490825252,752.4000000027,8.65233
1490825254,728.4000000027,7.33958
1490825256,678.0000000027,8.27211
1490825258,685.2000000027,8.44405
1490825260,634.8000000027,9.5532
1490825262,630.0000000027,7.76058
1490825264,620.4000000027,9.9043
1490825266,649.2000000027,7.97678
1490825268,639.6000000027,10.6809
1490825270,651.6000000027,11.6115
1490825272,618.0000000027,10.4012
1490825274,618.0000000027,11.5017
1490825276,646.8000000027,8.95112
1490825278,577.2000000027,8.97667
1490825280,613.2000000027,7.86421
1490825282,642.0000000027,9.33796
1490825284,637.2000000027,9.2572
1490825286,620.4000000027,8.71818
1490825288,639.6000000027,7.3244
1490825290,567.6000000027,8.38374
1490825292,632.4000000027,10.4903
1490825294,613.2000000027,8.1044
1490825296,649.2000000027,10.8436
1490825298,675.6000000027,8.11872
1490825300,680.4000000027,10.5183
1490825302,656.4000000027,9.73319
1490825304,610.8000000027,9.80706
1490825306,586.8000000027,9.14601
1490825308,682.8000000027,9.42038
1490825310,687.6000000027,8.91422
1490825312,627.6000000027,9.05633
1490825314,723.6000000027,9.79527
1490825316,632.4000000027,10.6546
1490825318,584.4000000027,11.4723
1490825320,658.8000000027,10.2954
1490825322,668.4000000027,9.74338
1490825324,649.2000000027,9.49345
1490825326,632.4000000027,11.1527
1490825328,572.4000000027,9.22042
1490825330,627.6000000027,7.56037
1490825332,584.4000000027,9.74288
1490825334,601.2000000027,10.2511
1490825336,608.4000000027,9.53591
1490825338,582.0000000027,10.4203
1490825340,637.2000000027,10.6752
1490825342,613.2000000027,11.0894
1490825344,562.8000000027,12.4844
1490825346,584.4000000027,10.1491
1490825348,639.6000000027,12.1982
1490825350,589.2000000027,10.8355
1490825352,579.6000000027,11.4424
1490825354,586.8000000027,12.8734
1490825356,555.6000000027,10.9351
1490825358,579.6000000027,12.1436
1490825360,538.8000000027,11.0407
1490825362,558.0000000027,10.3096
1490825364,586.8000000027,10.9287
1490825366,553.2000000027,10.8486
1490825368,613.2000000027,11.3065
1490825370,562.8000000027,9.79994
1490825372,555.6000000027,10.0278
1490825374,562.8000000027,8.89937
1490825376,577.2000000027,9.88834
1490825378,570.0000000027,11.7154
1490825380,577.2000000027,11.701
1490825382,574.8000000027,10.3237
1490825384,579.6000000027,11.2353
1490825386,603.6000000027,8.62988
1490825388,577.2000000027,9.57994
1490825390,579.6000000027,11.09
1490825392,637.2000000027,8.96559
1490825394,613.2000000027,11.0251
1490825396,714.0000000027,12.3106
1490825398,656.4000000027,12.3584
1490825400,704.4000000027,12.6274
1490825402,620.4000000027,11.8873
1490825404,654.0000000027,10.2709
1490825406,606.0000000027,11.6585
1490825408,702.0000000027,10.4392
1490825410,644.4000000027,9.66958
1490825412,610.8000000027,10.1595
1490825414,615.6000000027,9.80573
1490825416,618.0000000027,8.94347
1490825418,625.2000000027,10.2962
1490825420,644.4000000027,9.25845
1490825422,675.6000000027,7.39885
1490825424,680.4000000027,8.28192
1490825426,656.4000000027,7.54364
1490825428,663.6000000027,9.88589
1490825430,682.8000000027,9.60853
1490825432,646.8000000027,10.1052
1490825434,697.2000000027,8.32662
1490825436,687.6000000027,8.65596
1490825438,745.2000000027,9.22005
1490825440,752.4000000027,10.2157
1490825442,750.0000000027,11.1959
1490825444,747.6000000027,9.9688
1490825446,754.8000000027,10.851
1490825448,730.8000000027,8.99101
1490825450,764.4000000027,9.49896
1490825452,766.8000000027,8.39648
1490825454,795.6000000027,8.96773
1490825456,723.6000000027,10.5908
1490825458,771.6000000027,8.39589
1490825460,723.6000000027,9.33109
1490825462,699.6000000027,7.69146
1490825464,733.2000000027,9.50395
1490825466,738.0000000027,9.16447
1490825468,685.2000000027,9.66262
1490825470,718.8000000027,8.28518
1490825472,699.6000000027,7.87971
1490825474,728.4000000027,8.2289
1490825476,718.8000000027,8.47925
1490825478,663.6000000027,8.68247
1490825480,687.6000000027,8.68829
1490825482,670.8000000027,7.43568
1490825484,627.6000000027,8.26362
1490825486,678.0000000027,9.66913
1490825488,675.6000000027,8.52551
1490825490,646.8000000027,8.56695
1490825492,651.6000000027,6.18187
1490825494,601.2000000027,8.25856
1490825496,613.2000000027,8.03929
1490825498,630.0000000027,7.64422
1490825500,632.4000000027,7.52493
1490825502,694.8000000027,7.63666
1490825504,642.0000000027,9.07504
1490825506,666.0000000027,9.76392
1490825508,682.8000000027,11.8199
1490825510,678.0000000027,10.4844
1490825512,694.8000000027,10.3957
1490825514,670.8000000027,9.2572
1490825516,694.8000000027,9.78237
1490825518,721.2000000027,8.53685
1490825520,735.6000000027,9.64302
1490825522,726.0000000027,10.517
1490825524,757.2000000027,10.6375
1490825526,694.8000000027,9.73501
1490825528,745.2000000027,10.2649
1490825530,771.6000000027,10.9607
1490825532,735.6000000027,11.0968
1490825534,776.4000000027,10.5435
1490825536,764.4000000027,13.3329
1490825538,783.6000000027,11.8167
1490825540,778.8000000027,11.3725
1490825542,795.6000000027,12.4039
1490825544,750.0000000027,12.4153
1490825546,750.0000000027,8.71934
1490825548,726.0000000027,9.97465
1490825550,718.8000000027,8.69273
1490825552,759.6000000027,8.69787
1490825554,783.6000000027,9.78465
1490825556,759.6000000027,9.20677
1490825558,716.4000000027,9.2351
1490825560,651.6000000027,11.1765
1490825562,692.4000000027,11.415
1490825564,690.0000000027,9.46247
1490825566,666.0000000027,11.1239
1490825568,697.2000000027,10.7128
1490825570,634.8000000027,10.0823
1490825572,658.8000000027,10.5361
1490825574,668.4000000027,8.15746
1490825576,666.0000000027,9.89963
1490825578,618.0000000027,8.09418
1490825580,632.4000000027,6.92681
1490825582,649.2000000027,9.90424
1490825584,632.4000000027,8.75703
1490825586,654.0000000027,10.8768
1490825588,620.4000000027,10.1044
1490825590,625.2000000027,10.1559
1490825592,606.0000000027,10.6626
1490825594,608.4000000027,10.6286
1490825596,642.0000000027,10.1166
1490825598,694.8000000027,11.3335
1490825600,651.6000000027,9.04776
1490825602,670.8000000027,10.9198
1490825604,627.6000000027,10.5161
1490825606,675.6000000027,8.64332
1490825608,632.4000000027,11.4087
1490825610,646.8000000027,7.63055
1490825612,709.2000000027,9.29261
1490825614,721.2000000027,10.2503
1490825616,723.6000000027,11.3009
1490825618,730.8000000027,7.86659
1490825620,738.0000000027,10.6362
1490825622,685.2000000027,9.26603
1490825624,673.2000000027,8.05879
1490825626,673.2000000027,9.65992
1490825628,726.0000000027,8.38229
1490825630,690.0000000027,7.83178
1490825632,699.6000000027,7.98843
1490825634,656.4000000027,8.09168
1490825636,663.6000000027,9.72179
1490825638,661.2000000027,9.96172
1490825640,694.8000000027,10.0328
1490825642,642.0000000027,9.15127
1490825644,690.0000000027,8.78805
1490825646,754.8000000027,8.76281
1490825648,670.8000000027,9.78919
1490825650,704.4000000027,6.93327
1490825652,733.2000000027,9.64511
1490825654,697.2000000027,7.37
1490825656,740.4000000027,7.21061
1490825658,723.6000000027,8.02193
1490825660,733.2000000027,9.99265
1490825662,721.2000000027,8.79349
1490825664,745.2000000027,9.07031
1490825666,690.0000000027,8.82417
1490825668,762.0000000027,7.8428
1490825670,738.0000000027,9.52805
1490825672,750.0000000027,9.87361
1490825674,774.0000000027,10.8054
1490825676,721.2000000027,11.7215
1490825678,718.8000000027,10.0825
1490825680,682.8000000027,9.38665
1490825682,745.2000000027,11.3596
1490825684,721.2000000027,10.1269
1490825686,711.6000000027,9.97046
1490825688,714.0000000027,9.79609
1490825690,637.2000000027,8.93754
1490825692,627.6000000027,10.2918
1490825694,639.6000000027,8.43844
1490825696,634.8000000027,10.496
1490825698,670.8000000027,9.88529
1490825700,613.2000000027,9.37635
1490825702,661.2000000027,9.08321
1490825704,654.0000000027,7.47971
1490825706,649.2000000027,8.63659
1490825708,649.2000000027,8.83525
1490825710,591.6000000027,7.73857
1490825712,613.2000000027,5.54227
1490825714,639.6000000027,6.96695
1490825716,567.6000000027,7.16168
1490825718,615.6000000027,6.50003
1490825720,584.4000000027,7.94582
1490825722,596.4000000027,7.92002
1490825724,567.6000000027,8.01134
1490825726,579.6000000027,9.1758
1490825728,658.8000000027,8.71057
1490825730,618.0000000027,7.08413
1490825732,577.2000000027,7.13762
1490825734,615.6000000027,7.46423
1490825736,570.0000000027,8.14565
1490825738,606.0000000027,8.7954
1490825740,637.2000000027,9.74769
1490825742,560.4000000027,7.55475
1490825744,570.0000000027,7.96457
1490825746,642.0000000027,7.39941
1490825748,579.6000000027,9.06155
1490825750,570.0000000027,8.29703
1490825752,622.8000000027,6.83963
1490825754,546.0000000027,7.7334
1490825756,553.2000000027,5.64524
1490825758,586.8000000027,5.85429
1490825760,548.4000000027,6.35494
1490825762,531.6000000027,7.50441
1490825764,562.8000000027,8.18807
1490825766,469.2000000027,10.7877
1490825768,471.6000000027,9.53757
1490825770,536.4000000027,8.26438
1490825772,531.6000000027,10.5997
1490825774,476.4000000027,8.57557
1490825776,462.0000000027,9.41996
1490825778,466.8000000027,8.38289
1490825780,565.2000000027,10.0258
1490825782,548.4000000027,8.17162
1490825784,550.8000000027,9.50022
1490825786,543.6000000027,7.23091
1490825788,486.0000000027,6.6721
1490825790,546.0000000027,9.98376
1490825792,546.0000000027,8.16453
1490825794,548.4000000027,11.425
1490825796,567.6000000027,10.2529
1490825798,618.0000000027,10.8273
1490825800,567.6000000027,9.9522
1490825802,567.6000000027,9.94133
1490825804,574.8000000027,10.6465
1490825806,555.6000000027,11.3133
1490825808,610.8000000027,9.41474
1490825810,548.4000000027,9.7447
1490825812,543.6000000027,10.1755
1490825814,572.4000000027,8.49459
1490825816,493.2000000027,9.75596
1490825818,555.6000000027,10.957
1490825820,558.0000000027,9.57913
1490825822,560.4000000027,9.77374
1490825824,558.0000000027,11.2863
1490825826,538.8000000027,9.83771
1490825828,498.0000000027,8.91104
1490825830,543.6000000027,11.0244
1490825832,570.0000000027,11.3269
1490825834,546.0000000027,9.47836
1490825836,548.4000000027,10.6667
1490825838,560.4000000027,11.7538
1490825840,548.4000000027,8.39
1490825842,579.6000000027,7.70586
1490825844,567.6000000027,9.05171
1490825846,586.8000000027,8.66794
1490825850,558.0000000027,8.95062
1490825852,577.2000000027,9.80888
1490825854,570.0000000027,9.99524
1490825856,558.0000000027,9.32306
1490825858,565.2000000027,6.95313
1490825860,565.2000000027,8.39266
1490825862,570.0000000027,8.23761
1490825864,572.4000000027,7.75001
1490825866,560.4000000027,8.40716
1490825868,471.6000000027,8.46904
1490825870,546.0000000027,9.82318
1490825872,507.6000000027,9.7435
1490825874,558.0000000027,8.8728
1490825876,548.4000000027,7.17519
1490825878,543.6000000027,7.21102
1490825880,486.0000000027,6.66725
1490825882,538.8000000027,8.3643
1490825884,560.4000000027,5.84283
1490825886,589.2000000027,10.2414
1490825888,490.8000000027,9.31215
1490825890,476.4000000027,9.98074
1490825892,548.4000000027,8.13059
1490825894,550.8000000027,9.372
1490825896,483.6000000027,9.64467
1490825898,534.0000000027,10.8382
1490825900,538.8000000027,10.2985
1490825902,546.0000000027,9.86105
1490825904,570.0000000027,13.0068
1490825906,522.0000000027,10.2337
1490825908,558.0000000027,9.05664
1490825910,558.0000000027,8.03455
1490825912,471.6000000027,9.11911
1490825914,560.4000000027,8.41562
1490825916,543.6000000027,7.04462
1490825918,546.0000000027,9.17115
1490825920,579.6000000027,9.74187
1490825922,562.8000000027,9.00468
1490825924,483.6000000027,8.1389
1490825926,550.8000000027,8.20791
1490825928,555.6000000027,8.78652
1490825930,541.2000000027,8.6667
1490825932,572.4000000027,9.86598
1490825934,555.6000000027,8.12584
1490825936,560.4000000027,8.71803
1490825938,577.2000000027,9.49943
1490825940,546.0000000027,8.84052
1490825942,565.2000000027,8.66707
1490825944,615.6000000027,5.78657
1490825946,615.6000000027,9.94763
1490825948,630.0000000027,8.89715
1490825950,613.2000000027,8.51774
1490825952,675.6000000027,7.18179
1490825954,666.0000000027,9.15221
1490825956,690.0000000027,9.87744
1490825958,716.4000000027,9.4085
1490825960,714.0000000027,8.67902
1490825962,702.0000000027,9.89682
1490825964,685.2000000027,9.67453
1490825966,670.8000000027,6.69046
1490825968,627.6000000027,8.61198
1490825970,637.2000000027,9.74095
1490825972,565.2000000027,8.90349
1490825974,579.6000000027,8.63357
1490825976,618.0000000027,9.61066
1490825978,572.4000000027,7.47179
1490825980,567.6000000027,8.58876
1490825982,562.8000000027,8.4941
1490825984,586.8000000027,8.58232
1490825986,553.2000000027,8.24319
1490825988,570.0000000027,10.1954
1490825990,567.6000000027,8.08301
1490825992,555.6000000027,9.35529
1490825994,555.6000000027,11.3579
1490825996,586.8000000027,7.15837
1490825998,541.2000000027,6.90181
1490826000,517.2000000027,7.9726
1490826002,529.2000000027,8.03692
1490826004,541.2000000027,5.71332
1490826006,553.2000000027,8.34135
1490826008,555.6000000027,9.64016
1490826010,531.6000000027,9.23701
1490826012,570.0000000027,8.7509
1490826014,478.8000000027,7.20122
1490826016,459.6000000027,8.78914
1490826018,459.6000000027,9.17064
1490826020,454.8000000027,9.51174
1490826022,471.6000000027,10.4877
1490826024,402.0000000027,7.91882
1490826026,450.0000000027,11.4513
1490826028,452.4000000027,9.841
1490826030,438.0000000027,9.17536
1490826032,385.2000000027,8.60793
1490826034,471.6000000027,9.09264
1490826036,385.2000000027,8.26496
1490826038,387.6000000027,7.82268
1490826040,445.2000000027,8.97605
1490826042,433.2000000027,9.76775
1490826044,366.0000000027,9.85433
1490826046,394.8000000027,9.06931
1490826048,414.0000000027,9.2153
1490826050,442.8000000027,10.0287
1490826052,462.0000000027,9.11159
1490826054,464.4000000027,10.0216
1490826056,447.6000000027,8.84323
1490826058,452.4000000027,9.41738
1490826060,421.2000000027,10.0763
1490826062,452.4000000027,9.91779
1490826064,452.4000000027,11.2945
1490826066,406.8000000027,12.035
1490826068,440.4000000027,9.97663
1490826070,452.4000000027,11.0898
1490826072,402.0000000027,9.41698
1490826074,454.8000000027,12.2168
1490826076,474.0000000027,11.7289
1490826078,457.2000000027,12.6758
1490826080,421.2000000027,11.5204
1490826082,459.6000000027,9.50781
1490826084,414.0000000027,10.5848
1490826086,450.0000000027,9.95587
1490826088,452.4000000027,9.12288
1490826090,462.0000000027,9.46139
1490826092,464.4000000027,9.92161
1490826094,440.4000000027,9.23644
1490826096,406.8000000027,9.746
1490826098,466.8000000027,11.3861
1490826100,452.4000000027,11.7239
1490826102,462.0000000027,11.4528
1490826104,471.6000000027,10.3175
1490826106,462.0000000027,10.2466
1490826108,454.8000000027,10.5765
1490826110,486.0000000027,11.7948
1490826112,457.2000000027,9.63039
1490826114,495.6000000027,12.5422
1490826116,457.2000000027,11.5001
1490826118,440.4000000027,10.6253
1490826120,457.2000000027,11.4221
1490826122,469.2000000027,11.0789
1490826124,466.8000000027,9.65612
1490826126,466.8000000027,10.1825
1490826128,500.4000000027,9.90592
1490826130,478.8000000027,11.8844
1490826132,488.4000000027,10.638
1490826134,548.4000000027,11.4684
1490826136,471.6000000027,12.2798
1490826138,488.4000000027,10.3944
1490826140,478.8000000027,8.53782
1490826142,476.4000000027,9.33914
1490826144,538.8000000027,9.52519
1490826146,462.0000000027,9.1077
1490826148,462.0000000027,9.08295
1490826150,548.4000000027,9.91258
1490826152,476.4000000027,10.3631
1490826154,457.2000000027,10.1972
1490826156,519.6000000027,11.663
1490826158,481.2000000027,9.61754
1490826160,584.4000000027,9.55758
1490826162,565.2000000027,9.706
1490826164,632.4000000027,8.05026
1490826166,610.8000000027,9.72091
1490826168,565.2000000027,8.4717
1490826170,574.8000000027,7.13808
1490826172,589.2000000027,8.94154
1490826174,625.2000000027,8.36803
1490826176,634.8000000027,8.04175
1490826178,634.8000000027,7.78349
1490826180,644.4000000027,6.57674
1490826182,594.0000000027,7.22373
1490826184,642.0000000027,4.93033
1490826186,673.2000000027,8.63513
1490826188,606.0000000027,7.24218
1490826190,570.0000000027,7.13535
1490826192,574.8000000027,6.93003
1490826194,558.0000000027,6.50916
1490826196,565.2000000027,8.03224
1490826198,574.8000000027,9.57046
1490826200,582.0000000027,7.48848
1490826202,625.2000000027,7.83321
1490826204,603.6000000027,8.94393
1490826206,555.6000000027,6.59022
1490826208,567.6000000027,6.20502
1490826210,543.6000000027,6.6104
1490826212,565.2000000027,6.30333
1490826214,586.8000000027,6.43811
1490826216,598.8000000027,6.81117
1490826218,622.8000000027,7.22006
1490826220,642.0000000027,6.19178
1490826222,673.2000000027,8.66789
1490826224,690.0000000027,6.96358
1490826226,678.0000000027,8.24044
1490826228,646.8000000027,7.39291
1490826230,666.0000000027,7.45589
1490826232,654.0000000027,9.53019
1490826234,610.8000000027,7.59317
1490826236,646.8000000027,6.84558
1490826238,639.6000000027,8.31777
1490826240,589.2000000027,10.669
1490826242,632.4000000027,9.0475
1490826244,673.2000000027,6.68963
1490826246,627.6000000027,8.32299
1490826248,668.4000000027,7.36281
1490826250,570.0000000027,9.36809
1490826252,637.2000000027,8.94973
1490826254,651.6000000027,7.70954
1490826256,622.8000000027,5.39493
1490826258,646.8000000027,7.03965
1490826260,663.6000000027,5.56965
1490826262,630.0000000027,5.35136
1490826264,613.2000000027,6.55186
1490826266,577.2000000027,6.62217
1490826268,615.6000000027,6.81953
1490826270,620.4000000027,5.80648
1490826272,639.6000000027,3.59962
1490826274,615.6000000027,5.73582
1490826276,608.4000000027,5.57227
1490826278,591.6000000027,5.27239
1490826280,577.2000000027,4.27132
1490826282,572.4000000027,4.90076
1490826284,562.8000000027,5.31489
1490826286,594.0000000027,7.49739
1490826288,589.2000000027,5.29485
1490826290,574.8000000027,8.17086
1490826292,615.6000000027,6.58531
1490826294,610.8000000027,8.57339
1490826296,644.4000000027,9.35188
1490826298,630.0000000027,9.00045
1490826300,637.2000000027,8.02199
1490826302,622.8000000027,8.55196
1490826304,714.0000000027,9.97322
1490826306,644.4000000027,9.62885
1490826308,656.4000000027,9.09141
1490826310,637.2000000027,8.16531
1490826312,678.0000000027,8.11892
1490826314,632.4000000027,7.23376
1490826316,615.6000000027,9.63249
1490826318,682.8000000027,11.2543
1490826320,637.2000000027,8.9862
1490826322,627.6000000027,7.84656
1490826324,603.6000000027,8.67249
1490826326,567.6000000027,9.95561
1490826328,577.2000000027,11.8788
1490826330,661.2000000027,9.33199
1490826332,678.0000000027,10.2424
1490826334,596.4000000027,10.7715
1490826336,589.2000000027,11.9154
1490826338,582.0000000027,11.5456
1490826340,555.6000000027,9.1031
1490826342,548.4000000027,9.12675
1490826344,606.0000000027,10.1329
1490826346,536.4000000027,11.0957
1490826348,558.0000000027,10.3952
1490826350,565.2000000027,8.9183
1490826352,478.8000000027,9.6585
1490826354,582.0000000027,9.52713
1490826356,529.2000000027,11.372
1490826358,471.6000000027,10.4622
1490826360,574.8000000027,9.93325
1490826362,560.4000000027,9.52927
1490826364,543.6000000027,11.4569
1490826366,562.8000000027,8.50877
1490826368,550.8000000027,8.24127
1490826370,574.8000000027,7.92367
1490826372,577.2000000027,9.0237
1490826374,584.4000000027,10.1037
1490826376,632.4000000027,10.1917
1490826378,603.6000000027,8.26335
1490826380,649.2000000027,10.7337
1490826382,582.0000000027,8.79978
1490826384,574.8000000027,9.32013
1490826386,603.6000000027,8.6569
1490826388,596.4000000027,8.34499
1490826390,634.8000000027,10.0398
1490826392,543.6000000027,6.34503
1490826394,546.0000000027,7.17919
1490826396,560.4000000027,8.56112
1490826398,584.4000000027,8.41892
1490826400,572.4000000027,7.13071
1490826402,586.8000000027,8.41082
1490826404,565.2000000027,8.38594
1490826406,589.2000000027,9.12465
1490826408,560.4000000027,6.26699
1490826410,589.2000000027,6.20786
1490826412,574.8000000027,6.63908
1490826414,620.4000000027,5.45502
1490826416,567.6000000027,8.27375
1490826418,634.8000000027,8.23369
1490826420,675.6000000027,8.2496
1490826422,618.0000000027,9.05565
1490826424,639.6000000027,7.26244
1490826426,692.4000000027,8.01077
1490826428,637.2000000027,6.65155
1490826430,622.8000000027,7.00731
1490826432,618.0000000027,8.28599
1490826434,615.6000000027,7.37946
1490826436,598.8000000027,8.14669
1490826438,548.4000000027,9.57347
1490826440,462.0000000027,8.58486
1490826442,466.8000000027,7.16641
1490826444,572.4000000027,9.22852
1490826446,478.8000000027,8.10133
1490826448,560.4000000027,8.63661
1490826450,481.2000000027,8.82659
1490826452,442.8000000027,8.99155
1490826454,486.0000000027,8.11442
1490826456,558.0000000027,7.51721
1490826458,471.6000000027,8.09641
1490826460,534.0000000027,8.54421
1490826462,464.4000000027,10.5167
1490826464,526.8000000027,9.04538
1490826466,471.6000000027,8.18706
1490826468,457.2000000027,9.88145
1490826470,452.4000000027,10.5116
1490826472,481.2000000027,11.09
1490826474,447.6000000027,9.04466
1490826476,457.2000000027,11.8038
1490826478,464.4000000027,10.3827
1490826480,445.2000000027,10.0013
1490826482,399.6000000027,10.6515
1490826484,464.4000000027,10.1407
1490826486,457.2000000027,8.2453
1490826488,450.0000000027,9.24962
1490826490,445.2000000027,7.72799
1490826492,382.8000000027,8.91303
1490826494,447.6000000027,10.0599
1490826496,454.8000000027,10.3082
1490826498,450.0000000027,8.6319
1490826500,411.6000000027,9.44764
1490826502,438.0000000027,10.0056
1490826504,442.8000000027,8.50903
1490826506,442.8000000027,9.35108
1490826508,435.6000000027,8.5967
1490826510,459.6000000027,8.50303
1490826512,438.0000000027,8.73313
1490826514,469.2000000027,10.34
1490826516,440.4000000027,10.8987
1490826518,445.2000000027,10.7407
1490826520,450.0000000027,10.9319
1490826522,553.2000000027,12.4812
1490826524,469.2000000027,11.2986
1490826526,478.8000000027,9.56433
1490826528,541.2000000027,10.0053
1490826530,464.4000000027,9.67232
1490826532,454.8000000027,11.8857
1490826534,462.0000000027,10.9654
1490826536,435.6000000027,11.2345
1490826538,483.6000000027,12.9177
1490826540,452.4000000027,11.2945
1490826542,469.2000000027,11.8814
1490826544,450.0000000027,12.1978
1490826546,476.4000000027,10.4122
1490826548,406.8000000027,10.7351
1490826550,464.4000000027,10.7457
1490826552,469.2000000027,9.4809
1490826554,464.4000000027,9.72039
1490826556,418.8000000027,9.69171
1490826558,450.0000000027,8.81885
1490826560,454.8000000027,7.40822
1490826562,474.0000000027,7.01861
1490826564,466.8000000027,9.39193
1490826566,452.4000000027,9.05298
1490826568,466.8000000027,8.73345
1490826570,469.2000000027,10.6077
1490826572,447.6000000027,9.05906
1490826574,471.6000000027,10.7012
1490826576,399.6000000027,10.2484
1490826578,454.8000000027,11.5756
1490826580,433.2000000027,10.0397
1490826582,445.2000000027,10.2606
1490826584,392.4000000027,11.1498
1490826586,457.2000000027,9.82248
1490826588,430.8000000027,7.67787
1490826590,390.0000000027,9.35823
1490826592,394.8000000027,10.1599
1490826594,399.6000000027,7.87822
1490826596,433.2000000027,7.47911
1490826598,390.0000000027,8.86382
1490826600,380.4000000027,8.79908
1490826602,402.0000000027,8.55421
1490826604,361.2000000027,6.70584
1490826606,346.8000000027,6.94198
1490826608,358.8000000027,9.59589
1490826610,409.2000000027,7.04103
1490826612,361.2000000027,7.76948
1490826614,322.8000000027,10.3392
1490826616,387.6000000027,9.12337
1490826618,325.2000000027,10.4551
1490826620,330.0000000027,7.65959
1490826622,387.6000000027,9.991
1490826624,397.2000000027,10.0305
1490826626,375.6000000027,9.12651
1490826628,366.0000000027,9.99526
1490826630,392.4000000027,10.6708
1490826632,366.0000000027,8.64231
1490826634,368.4000000027,10.2791
1490826636,392.4000000027,6.57827
1490826638,411.6000000027,7.90177
1490826640,409.2000000027,9.61203
1490826642,356.4000000027,10.0596
1490826644,397.2000000027,9.47816
1490826646,406.8000000027,9.20736
1490826648,392.4000000027,10.3086
1490826650,438.0000000027,8.50393
1490826652,445.2000000027,11.1989
1490826654,349.2000000027,10.714
1490826656,428.4000000027,9.58029
1490826658,392.4000000027,8.57207
1490826660,421.2000000027,9.62364
1490826662,363.6000000027,7.87715
1490826664,394.8000000027,9.12866
1490826666,397.2000000027,7.92892
1490826668,418.8000000027,8.31257
1490826670,366.0000000027,9.6399
1490826672,380.4000000027,9.50159
1490826674,406.8000000027,9.6205
1490826676,378.0000000027,11.022
1490826678,414.0000000027,11.1104
1490826680,380.4000000027,9.8334
1490826682,351.6000000027,10.3781
1490826684,414.0000000027,8.3721
1490826686,397.2000000027,9.1689
1490826688,373.2000000027,9.13324
1490826690,387.6000000027,9.25921
1490826692,394.8000000027,9.04575
1490826694,378.0000000027,10.1147
1490826696,394.8000000027,10.3427
1490826698,392.4000000027,9.68936
1490826700,394.8000000027,8.95711
1490826702,354.0000000027,10.5023
1490826704,351.6000000027,9.149
1490826706,382.8000000027,7.97728
1490826708,440.4000000027,8.86546
1490826710,378.0000000027,10.2908
1490826712,375.6000000027,6.72115
1490826714,414.0000000027,8.8959
