tag_number,delay,power_est
1492258100,825.200000004,8.25957
1492258102,858.800000004,9.94783
1492258104,830.000000004,7.99446
1492258106,822.800000004,8.99893
1492258108,801.200000004,7.1586
1492258110,842.000000004,3.88131
1492258112,815.600000004,7.30892
1492258114,837.200000004,4.14772
1492258116,813.200000004,9.3226
1492258118,801.200000004,9.29169
1492258120,842.000000004,9.24881
1492258122,810.800000004,9.60186
1492258124,834.800000004,7.82747
1492258126,882.800000004,6.96696
1492258128,839.600000004,7.14726
1492258130,849.200000004,6.15791
1492258132,832.400000004,6.53223
1492258134,854.000000004,8.28345
1492258136,858.800000004,7.90767
1492258138,856.400000004,9.05939
1492258140,808.400000004,9.60775
1492258142,842.000000004,8.3438
1492258144,923.600000004,8.74788
1492258146,808.400000004,9.83008
1492258148,914.000000004,9.9222
1492258150,820.400000004,9.33965
1492258152,868.400000004,6.71725
1492258154,837.200000004,7.69537
1492258156,844.400000004,8.25971
1492258158,851.600000004,7.123
1492258160,827.600000004,7.00533
1492258162,748.400000004,6.92751
1492258164,794.000000004,10.482
1492258166,736.400000004,9.10945
1492258168,789.200000004,10.3506
1492258170,794.000000004,7.20186
1492258172,789.200000004,8.38114
1492258174,712.400000004,6.18608
1492258176,832.400000004,10.0183
1492258178,784.400000004,8.69198
1492258180,834.800000004,7.5006
1492258182,762.800000004,7.71399
1492258184,760.400000004,9.30137
1492258186,755.600000004,9.08571
1492258188,772.400000004,6.54981
1492258190,813.200000004,8.05839
1492258192,791.600000004,9.41049
1492258194,803.600000004,9.12759
1492258196,798.800000004,8.35181
1492258198,741.200000004,7.48186
1492258200,710.000000004,6.05476
1492258202,842.000000004,8.18159
1492258204,803.600000004,7.89819
1492258206,798.800000004,9.37155
1492258208,767.600000004,7.96057
1492258210,782.000000004,8.61911
1492258212,753.200000004,6.89223
1492258214,837.200000004,6.99269
1492258216,794.000000004,8.45292
1492258218,858.800000004,9.89412
1492258220,794.000000004,9.48092
1492258222,832.400000004,8.42855
1492258224,858.800000004,6.47932
1492258226,810.800000004,6.58032
1492258228,858.800000004,8.58533
1492258230,842.000000004,8.87982
1492258232,750.800000004,10.1089
1492258234,818.000000004,10.1749
1492258236,825.200000004,7.53053
1492258238,849.200000004,9.39654
1492258240,868.400000004,8.90939
1492258242,837.200000004,9.14085
1492258244,818.000000004,9.19821
1492258246,741.200000004,7.74697
1492258248,767.600000004,8.75428
1492258250,801.200000004,10.3933
1492258252,844.400000004,8.53854
1492258254,798.800000004,10.6053
1492258256,813.200000004,8.86631
1492258258,803.600000004,7.63124
1492258260,815.600000004,8.54053
1492258262,813.200000004,8.17441
1492258264,822.800000004,7.54896
1492258266,832.400000004,10.3733
1492258268,832.400000004,11.9969
1492258270,770.000000004,11.4524
1492258272,736.400000004,12.0098
1492258274,782.000000004,10.3369
1492258276,813.200000004,10.1013
1492258278,750.800000004,8.93638
1492258280,837.200000004,11.2947
1492258282,762.800000004,11.2459
1492258284,741.200000004,9.75804
1492258286,750.800000004,8.76108
1492258288,743.600000004,7.69917
1492258290,686.000000004,8.45958
1492258292,770.000000004,8.24852
1492258294,779.600000004,9.20155
1492258296,705.200000004,9.18258
1492258298,796.400000004,12.1156
1492258300,765.200000004,11.4525
1492258302,808.400000004,10.4283
1492258304,743.600000004,10.9089
1492258306,784.400000004,9.34669
1492258308,750.800000004,8.48372
1492258310,774.800000004,8.59481
1492258312,760.400000004,10.8126
1492258314,746.000000004,9.64462
1492258316,803.600000004,10.9492
1492258318,767.600000004,7.10707
1492258320,772.400000004,10.9015
1492258322,796.400000004,8.1168
1492258324,784.400000004,8.73082
1492258326,774.800000004,9.71434
1492258328,741.200000004,8.29326
1492258330,772.400000004,9.40422
1492258332,844.400000004,11.0894
1492258334,832.400000004,11.4481
1492258336,784.400000004,9.67097
1492258338,846.800000004,8.64868
1492258340,808.400000004,7.85307
1492258342,820.400000004,10.47
1492258344,827.600000004,9.47146
1492258346,798.800000004,9.52805
1492258348,837.200000004,12.1493
1492258350,820.400000004,11.3684
1492258352,770.000000004,9.57774
1492258354,760.400000004,10.3777
1492258356,822.800000004,9.22448
1492258358,779.600000004,9.71576
1492258360,806.000000004,10.8655
1492258362,808.400000004,9.01966
1492258364,767.600000004,9.45783
1492258366,760.400000004,10.2678
1492258368,813.200000004,8.34476
1492258370,813.200000004,8.05558
1492258372,791.600000004,8.70731
1492258374,844.400000004,10.8109
1492258376,724.400000004,9.63371
1492258378,772.400000004,11.3552
1492258380,736.400000004,10.8119
1492258382,803.600000004,8.49023
1492258384,798.800000004,11.5372
1492258386,765.200000004,9.03317
1492258388,767.600000004,9.69729
1492258390,743.600000004,10.2298
1492258392,774.800000004,8.53952
1492258394,758.000000004,11.1789
1492258396,837.200000004,10.8763
1492258398,842.000000004,9.64979
1492258400,849.200000004,10.5353
1492258402,815.600000004,10.4023
1492258404,798.800000004,7.84448
1492258406,837.200000004,9.08794
1492258408,849.200000004,9.21087
1492258410,779.600000004,9.52057
1492258412,866.000000004,7.13382
1492258414,830.000000004,8.33796
1492258416,770.000000004,10.1485
1492258418,815.600000004,9.97256
1492258420,758.000000004,8.97173
1492258422,844.400000004,7.65435
1492258424,854.000000004,8.03119
1492258426,861.200000004,9.02733
1492258428,767.600000004,8.82952
1492258430,818.000000004,10.2709
1492258432,774.800000004,12.0862
1492258434,750.800000004,11.4494
1492258436,726.800000004,9.28784
1492258438,736.400000004,7.75397
1492258440,827.600000004,7.59518
1492258442,770.000000004,10.0339
1492258444,810.800000004,8.87774
1492258446,810.800000004,9.43766
1492258448,837.200000004,10.529
1492258450,849.200000004,8.71097
1492258452,904.400000004,8.3533
1492258454,866.000000004,8.7935
1492258456,909.200000004,10.4193
1492258458,909.200000004,9.33762
1492258460,902.000000004,9.33872
1492258462,887.600000004,8.9249
1492258464,878.000000004,9.29896
1492258466,887.600000004,8.26647
1492258468,866.000000004,10.6911
1492258470,902.000000004,9.51559
1492258472,933.200000004,8.71782
1492258474,926.000000004,9.52046
1492258476,894.800000004,9.51789
1492258478,849.200000004,9.7852
1492258480,930.800000004,9.76302
1492258482,863.600000004,7.79275
1492258484,834.800000004,8.54792
1492258486,904.400000004,8.02115
1492258488,782.000000004,8.97441
1492258490,854.000000004,8.48846
1492258492,861.200000004,10.485
1492258494,832.400000004,6.82551
1492258496,832.400000004,7.73938
1492258498,834.800000004,8.52678
1492258500,834.800000004,10.4034
1492258502,842.000000004,6.79382
1492258504,825.200000004,8.45825
1492258506,827.600000004,6.5829
1492258508,870.800000004,8.0089
1492258510,846.800000004,8.2938
1492258512,837.200000004,7.98271
1492258514,846.800000004,8.78285
1492258516,808.400000004,8.85035
1492258518,774.800000004,8.27225
1492258520,813.200000004,6.61959
1492258522,803.600000004,8.61325
1492258524,839.600000004,8.6998
1492258526,815.600000004,10.5823
1492258528,791.600000004,10.4315
1492258530,856.400000004,12.4402
1492258532,820.400000004,10.4097
1492258534,801.200000004,11.1326
1492258536,784.400000004,9.46162
1492258538,794.000000004,10.3294
1492258540,818.000000004,8.18682
1492258542,839.600000004,8.92028
1492258544,777.200000004,8.50864
1492258546,854.000000004,8.42705
1492258548,772.400000004,8.50277
1492258550,789.200000004,8.69251
1492258552,837.200000004,8.43982
1492258554,808.400000004,8.24965
1492258556,765.200000004,8.78272
1492258558,832.400000004,10.8673
1492258560,726.800000004,10.2418
1492258562,794.000000004,11.4678
1492258564,738.800000004,10.0313
1492258566,734.000000004,7.61867
1492258568,786.800000004,7.75159
1492258570,818.000000004,7.19217
1492258572,777.200000004,7.3072
1492258574,803.600000004,6.39993
1492258576,770.000000004,8.40176
1492258578,782.000000004,8.24957
1492258580,765.200000004,9.69984
1492258582,784.400000004,8.77566
1492258584,736.400000004,7.88098
1492258586,791.600000004,10.3164
1492258588,784.400000004,10.1997
1492258590,806.000000004,8.73529
1492258592,770.000000004,9.14993
1492258594,717.200000004,9.4274
1492258596,779.600000004,7.85925
1492258598,791.600000004,10.2736
1492258600,750.800000004,7.68763
1492258602,762.800000004,8.22065
1492258604,695.600000004,9.19078
1492258606,784.400000004,8.39639
1492258608,798.800000004,9.12228
1492258610,786.800000004,7.00217
1492258612,849.200000004,8.71059
1492258614,825.200000004,8.80254
1492258616,772.400000004,9.18502
1492258618,837.200000004,8.84582
1492258620,770.000000004,9.64416
1492258622,822.800000004,10.6988
1492258624,832.400000004,10.7559
1492258626,813.200000004,9.61919
1492258628,806.000000004,9.55427
1492258630,827.600000004,9.94487
1492258632,748.400000004,9.67197
1492258634,796.400000004,10.8109
1492258636,827.600000004,11.0359
1492258638,820.400000004,7.14389
1492258640,825.200000004,10.6514
1492258642,796.400000004,10.8006
1492258644,830.000000004,9.89577
1492258646,839.600000004,11.0799
1492258648,796.400000004,8.08959
1492258650,791.600000004,9.93653
1492258652,784.400000004,6.70816
1492258654,789.200000004,10.067
1492258656,827.600000004,11.2276
1492258658,784.400000004,8.20337
1492258660,813.200000004,6.78258
1492258662,844.400000004,9.0805
1492258664,825.200000004,8.86947
1492258666,784.400000004,7.71453
1492258668,813.200000004,8.67777
1492258670,774.800000004,7.37829
1492258672,734.000000004,7.17403
1492258674,842.000000004,9.10586
1492258676,822.800000004,5.92453
1492258678,820.400000004,8.9005
1492258680,784.400000004,9.37377
1492258682,770.000000004,9.48886
1492258684,738.800000004,8.52681
1492258686,789.200000004,7.53348
1492258688,786.800000004,7.12334
1492258690,851.600000004,6.81449
1492258692,820.400000004,6.66181
1492258694,774.800000004,6.29261
1492258696,774.800000004,6.68548
1492258698,806.000000004,7.58686
1492258700,782.000000004,5.94953
1492258702,786.800000004,8.91548
1492258704,837.200000004,8.20088
1492258706,782.000000004,9.65235
1492258708,767.600000004,10.7037
1492258710,784.400000004,8.66509
1492258712,777.200000004,10.1008
1492258714,779.600000004,7.91156
1492258716,683.600000004,8.82484
1492258718,822.800000004,10.4416
1492258720,846.800000004,10.4643
1492258722,736.400000004,9.34333
1492258724,786.800000004,7.41064
1492258726,798.800000004,8.08878
1492258728,779.600000004,8.75533
1492258730,815.600000004,9.70151
1492258732,770.000000004,9.42515
1492258734,712.400000004,8.7288
1492258736,753.200000004,9.29261
1492258738,774.800000004,10.1847
1492258740,791.600000004,11.113
1492258742,806.000000004,10.5264
1492258744,774.800000004,10.7406
1492258746,789.200000004,10.4919
1492258748,770.000000004,12.2675
1492258750,784.400000004,11.0159
1492258752,750.800000004,10.6023
1492258754,765.200000004,8.31989
1492258756,758.000000004,10.9295
1492258758,765.200000004,10.5733
1492258760,779.600000004,12.5882
1492258762,681.200000004,13.5752
1492258764,815.600000004,11.4506
1492258766,808.400000004,10.3954
1492258768,818.000000004,11.6817
1492258770,770.000000004,12.851
1492258772,755.600000004,12.5247
1492258774,762.800000004,12.9409
1492258776,767.600000004,12.7463
1492258778,734.000000004,11.0484
1492258780,765.200000004,11.9023
1492258782,818.000000004,11.7741
1492258784,755.600000004,11.5314
1492258786,774.800000004,9.50467
1492258788,779.600000004,9.0621
1492258790,726.800000004,10.3496
1492258792,827.600000004,10.2101
1492258794,779.600000004,10.4877
1492258796,743.600000004,11.0889
1492258798,743.600000004,11.392
1492258800,767.600000004,10.7647
1492258802,746.000000004,9.55409
1492258804,772.400000004,8.99056
1492258806,784.400000004,9.83054
1492258808,808.400000004,8.64406
1492258810,777.200000004,11.1748
1492258812,712.400000004,12.1145
1492258814,712.400000004,7.72052
1492258816,746.000000004,10.1946
1492258818,714.800000004,10.1134
1492258820,772.400000004,10.7919
1492258822,719.600000004,9.22384
1492258824,762.800000004,10.6703
1492258826,753.200000004,9.6848
1492258830,772.400000004,6.52356
1492258832,772.400000004,6.88633
1492258834,803.600000004,6.10241
1492258836,750.800000004,5.61024
1492258838,731.600000004,6.03735
1492258840,698.000000004,5.12404
1492258842,782.000000004,6.85461
1492258844,722.000000004,7.08418
1492258846,702.800000004,7.31877
1492258848,760.400000004,7.86187
1492258850,818.000000004,9.49917
1492258852,722.000000004,8.54309
1492258854,734.000000004,8.12607
1492258856,743.600000004,7.67045
1492258858,842.000000004,6.28162
1492258860,784.400000004,7.44715
1492258862,796.400000004,6.03063
1492258864,846.800000004,7.50938
1492258866,774.800000004,7.22896
1492258868,755.600000004,8.38591
1492258870,714.800000004,8.76596
1492258872,796.400000004,5.81397
1492258874,808.400000004,8.53099
1492258876,731.600000004,7.1385
1492258878,846.800000004,8.4909
1492258880,784.400000004,8.47893
1492258882,758.000000004,7.40195
1492258884,774.800000004,9.93914
1492258886,724.400000004,9.35248
1492258888,772.400000004,10.8204
1492258890,789.200000004,12.5959
1492258892,736.400000004,10.8915
1492258894,714.800000004,7.86115
1492258896,755.600000004,7.88731
1492258898,753.200000004,7.85677
1492258900,758.000000004,5.57965
1492258902,714.800000004,6.37189
1492258904,837.200000004,7.46505
1492258906,777.200000004,8.57467
1492258908,806.000000004,7.79506
1492258910,770.000000004,7.01313
1492258912,770.000000004,9.03775
1492258914,779.600000004,9.80005
1492258916,765.200000004,11.3532
1492258918,750.800000004,8.26419
1492258920,810.800000004,8.4078
1492258922,714.800000004,8.43308
1492258924,710.000000004,9.62931
1492258926,772.400000004,10.4694
1492258928,734.000000004,11.1837
1492258930,803.600000004,7.45612
1492258932,779.600000004,8.37274
1492258934,719.600000004,10.4214
1492258936,712.400000004,8.44212
1492258938,707.600000004,9.49926
1492258940,750.800000004,6.98491
1492258942,786.800000004,10.868
1492258944,734.000000004,6.48362
1492258946,808.400000004,9.55145
1492258948,765.200000004,9.93935
1492258950,786.800000004,10.0289
1492258952,784.400000004,9.74666
1492258954,789.200000004,6.75137
1492258956,762.800000004,7.62009
1492258958,834.800000004,10.5533
1492258960,820.400000004,9.93617
1492258962,842.000000004,8.31628
1492258964,863.600000004,9.95141
1492258966,736.400000004,12.5075
1492258968,839.600000004,8.85669
1492258970,808.400000004,8.73262
1492258972,818.000000004,8.73299
1492258974,791.600000004,7.75763
1492258976,827.600000004,9.38372
1492258978,825.200000004,11.0096
1492258980,832.400000004,8.84201
1492258982,798.800000004,9.54325
1492258984,834.800000004,9.00305
1492258986,786.800000004,5.93929
1492258988,818.000000004,5.8292
1492258990,786.800000004,6.56544
1492258992,844.400000004,6.621
1492258994,837.200000004,8.15468
1492258996,839.600000004,9.22328
1492258998,849.200000004,8.87359
1492259000,849.200000004,8.95463
1492259002,830.000000004,9.08885
1492259004,882.800000004,7.50669
1492259006,885.200000004,7.49238
1492259008,765.200000004,7.52498
1492259010,813.200000004,7.43559
1492259012,822.800000004,8.36147
1492259014,791.600000004,8.46216
1492259016,825.200000004,8.50088
1492259018,777.200000004,8.09571
1492259020,851.600000004,8.22825
1492259022,798.800000004,8.5749
1492259024,710.000000004,9.2911
1492259026,854.000000004,8.30863
1492259028,830.000000004,9.0151
1492259030,854.000000004,6.90086
1492259032,858.800000004,7.51327
1492259034,803.600000004,7.62088
1492259036,858.800000004,6.50662
1492259038,806.000000004,7.91426
1492259040,748.400000004,8.45801
1492259042,842.000000004,10.3638
1492259044,863.600000004,8.45573
1492259046,784.400000004,7.288
1492259048,760.400000004,6.32812
1492259050,784.400000004,7.25771
1492259052,839.600000004,7.9508
1492259054,820.400000004,9.59318
1492259056,866.000000004,10.6843
1492259058,834.800000004,8.35263
1492259060,813.200000004,8.97217
1492259062,844.400000004,5.77692
1492259064,834.800000004,8.35926
1492259066,808.400000004,8.39689
1492259068,834.800000004,5.87338
1492259070,789.200000004,6.35076
1492259072,748.400000004,7.08376
1492259074,794.000000004,6.68771
1492259076,762.800000004,6.57478
1492259078,794.000000004,9.13528
1492259080,760.400000004,7.27297
1492259082,743.600000004,10.4016
1492259084,755.600000004,9.30659
1492259086,784.400000004,9.8149
1492259088,777.200000004,8.23616
1492259090,827.600000004,10.8682
1492259092,813.200000004,9.12558
1492259094,772.400000004,4.99087
1492259096,738.800000004,10.8175
1492259098,770.000000004,10.0073
1492259100,818.000000004,10.0114
1492259102,818.000000004,10.5028
1492259104,770.000000004,9.2861
1492259106,806.000000004,9.90497
1492259108,686.000000004,7.32984
1492259110,772.400000004,7.29715
1492259112,791.600000004,8.87887
1492259114,746.000000004,6.48116
1492259116,849.200000004,9.60012
1492259118,758.000000004,7.81701
1492259120,810.800000004,8.36205
1492259122,784.400000004,10.3961
1492259124,710.000000004,11.9299
1492259126,772.400000004,8.89954
1492259128,753.200000004,9.48633
1492259130,767.600000004,9.62985
1492259132,822.800000004,7.33931
1492259134,690.800000004,7.9747
1492259136,705.200000004,9.81159
1492259138,705.200000004,8.16736
1492259140,686.000000004,9.64237
1492259142,705.200000004,7.61605
1492259144,702.800000004,8.67181
1492259146,712.400000004,9.81744
1492259148,690.800000004,9.92741
1492259150,681.200000004,8.23949
1492259152,695.600000004,8.95572
1492259154,705.200000004,11.6277
1492259156,705.200000004,10.5247
1492259158,705.200000004,11.1832
1492259160,794.000000004,11.2224
1492259162,782.000000004,9.8089
1492259164,870.800000004,8.87827
1492259166,825.200000004,11.9442
1492259168,849.200000004,10.766
1492259170,854.000000004,11.6911
1492259172,911.600000004,10.402
1492259174,866.000000004,11.6821
1492259176,894.800000004,11.1165
1492259178,861.200000004,9.82343
1492259180,839.600000004,7.86964
1492259182,786.800000004,8.76317
1492259184,851.600000004,6.52727
1492259186,798.800000004,8.78087
1492259188,825.200000004,9.80871
1492259190,870.800000004,6.54975
1492259192,863.600000004,5.85602
1492259194,863.600000004,9.59437
1492259196,777.200000004,7.94066
1492259198,779.600000004,8.83773
1492259200,820.400000004,7.61058
1492259202,844.400000004,7.43681
1492259204,753.200000004,7.61759
1492259206,779.600000004,8.81551
1492259208,717.200000004,7.69878
1492259210,772.400000004,8.84399
1492259212,791.600000004,8.7634
1492259214,798.800000004,7.15453
1492259216,846.800000004,6.72966
1492259218,849.200000004,5.39706
1492259220,767.600000004,7.07449
1492259222,738.800000004,6.3041
1492259224,712.400000004,5.81349
1492259226,830.000000004,5.14232
1492259228,844.400000004,7.38835
1492259230,726.800000004,5.67442
1492259232,762.800000004,4.13425
1492259234,765.200000004,8.50609
1492259236,774.800000004,8.2435
1492259238,734.000000004,7.75407
1492259240,705.200000004,7.2411
1492259242,753.200000004,7.28374
1492259244,818.000000004,8.28169
1492259246,700.400000004,8.81543
1492259248,700.400000004,10.6612
1492259250,748.400000004,12.2851
1492259252,762.800000004,9.18719
1492259254,767.600000004,10.5511
1492259256,710.000000004,6.9006
1492259258,794.000000004,9.05438
1492259260,748.400000004,7.17881
1492259262,784.400000004,6.18004
1492259264,772.400000004,9.2967
1492259266,765.200000004,9.98945
1492259268,678.800000004,9.39414
1492259270,765.200000004,7.18501
1492259272,770.000000004,8.04695
1492259274,777.200000004,6.75295
1492259276,863.600000004,6.13322
1492259278,832.400000004,8.14518
1492259280,770.000000004,8.07866
1492259282,736.400000004,8.09954
1492259284,758.000000004,10.5233
1492259286,786.800000004,8.04501
1492259288,758.000000004,9.20198
1492259290,784.400000004,10.7849
1492259292,803.600000004,8.73672
1492259294,767.600000004,7.65198
1492259296,782.000000004,10.4398
1492259298,762.800000004,9.24384
1492259300,753.200000004,10.0354
1492259302,789.200000004,10.2986
1492259304,846.800000004,7.01722
1492259306,803.600000004,7.38988
1492259308,803.600000004,9.14205
1492259310,798.800000004,10.3444
1492259312,806.000000004,9.22734
1492259314,777.200000004,10.5717
1492259316,820.400000004,10.3957
1492259318,839.600000004,9.82043
1492259320,784.400000004,9.887
1492259322,779.600000004,7.39817
1492259324,753.200000004,10.2882
1492259326,765.200000004,12.1397
1492259328,765.200000004,10.8525
1492259330,774.800000004,10.6345
1492259332,738.800000004,6.56497
1492259334,765.200000004,2.41299
1492259336,714.800000004,4.87087
1492259338,736.400000004,5.95515
1492259340,784.400000004,6.57417
1492259342,758.000000004,8.84129
1492259344,774.800000004,9.09247
1492259346,806.000000004,9.51677
1492259348,719.600000004,10.0553
1492259350,777.200000004,9.49029
1492259352,753.200000004,11.0464
1492259354,750.800000004,10.602
1492259356,789.200000004,10.3975
1492259358,777.200000004,7.72227
1492259360,748.400000004,9.1535
1492259362,813.200000004,6.58797
1492259364,753.200000004,4.07048
1492259366,748.400000004,4.42976
1492259368,813.200000004,5.16579
1492259370,770.000000004,10.0104
1492259372,868.400000004,8.96998
1492259374,861.200000004,13.3798
1492259376,810.800000004,8.41091
1492259378,820.400000004,6.78451
1492259380,794.000000004,7.05351
1492259382,834.800000004,7.1477
1492259384,813.200000004,8.66158
1492259386,861.200000004,6.4541
1492259388,873.200000004,8.21638
1492259390,837.200000004,7.24781
1492259392,861.200000004,7.30182
1492259394,858.800000004,9.06804
1492259396,909.200000004,7.85732
1492259398,870.800000004,6.4366
1492259400,854.000000004,3.52101
1492259402,928.400000004,5.28177
1492259404,844.400000004,6.83146
1492259406,861.200000004,6.88452
1492259408,866.000000004,7.42665
1492259410,844.400000004,9.46257
1492259412,856.400000004,10.0929
1492259414,856.400000004,9.81819
1492259416,815.600000004,11.3989
1492259418,842.000000004,10.3658
1492259420,890.000000004,9.64402
1492259422,892.400000004,10.5691
1492259424,834.800000004,10.4312
1492259426,820.400000004,9.70569
1492259428,815.600000004,12.3166
1492259430,866.000000004,9.93056
1492259432,796.400000004,10.6952
1492259434,830.000000004,11.3794
1492259436,834.800000004,11.3636
1492259438,846.800000004,10.609
1492259440,851.600000004,8.7283
1492259442,813.200000004,8.15814
1492259444,844.400000004,9.25383
1492259446,858.800000004,9.13519
1492259448,832.400000004,10.3723
1492259450,796.400000004,9.96544
1492259452,851.600000004,7.84977
1492259454,796.400000004,8.94355
1492259456,844.400000004,7.41859
1492259458,777.200000004,10.4933
1492259460,837.200000004,8.6276
1492259462,822.800000004,7.17014
1492259464,844.400000004,5.91955
1492259466,760.400000004,8.24347
1492259468,779.600000004,7.1233
1492259470,794.000000004,6.9825
1492259472,786.800000004,6.95204
1492259474,806.000000004,7.88199
1492259476,782.000000004,9.37161
1492259478,834.800000004,8.77104
1492259480,758.000000004,10.9212
1492259482,777.200000004,9.96652
1492259484,822.800000004,7.92961
1492259486,830.000000004,10.4486
1492259488,839.600000004,12.4075
1492259490,803.600000004,10.9494
1492259492,813.200000004,11.7383
1492259494,827.600000004,11.9455
1492259496,844.400000004,12.332
1492259498,878.000000004,8.76005
1492259500,844.400000004,12.1096
1492259502,830.000000004,10.9744
1492259504,794.000000004,12.1141
1492259506,808.400000004,13.131
1492259508,794.000000004,14.2751
1492259510,854.000000004,12.3561
1492259512,842.000000004,9.79875
1492259514,846.800000004,9.64284
1492259516,849.200000004,8.0662
1492259518,796.400000004,8.84272
1492259520,856.400000004,10.5989
1492259522,813.200000004,8.13821
1492259524,815.600000004,8.52742
1492259526,834.800000004,8.64893
1492259528,765.200000004,10.4204
1492259530,808.400000004,9.52265
1492259532,818.000000004,9.47923
1492259534,806.000000004,9.33124
1492259536,856.400000004,9.16843
1492259538,839.600000004,9.23283
1492259540,822.800000004,8.65389
1492259542,846.800000004,7.89629
1492259544,851.600000004,8.14783
1492259546,892.400000004,8.21632
1492259548,921.200000004,8.34869
1492259550,863.600000004,8.50905
1492259552,966.800000004,8.00386
1492259554,880.400000004,7.76898
1492259556,918.800000004,7.33371
1492259558,882.800000004,9.2883
1492259560,873.200000004,8.32591
1492259562,902.000000004,9.39274
1492259564,906.800000004,11.0772
1492259566,933.200000004,10.084
1492259568,911.600000004,7.49546
1492259570,868.400000004,6.65782
1492259572,894.800000004,10.1692
1492259574,856.400000004,10.1232
1492259576,904.400000004,7.71268
1492259578,909.200000004,8.74184
1492259580,914.000000004,11.1806
1492259582,849.200000004,10.1315
1492259584,906.800000004,9.6822
1492259586,894.800000004,9.6347
1492259588,933.200000004,9.3925
1492259590,858.800000004,10.3621
1492259592,820.400000004,9.47545
1492259594,861.200000004,8.44024
1492259596,846.800000004,9.81325
1492259598,846.800000004,9.3299
1492259600,880.400000004,10.6994
1492259602,844.400000004,7.43761
1492259604,837.200000004,8.22609
1492259606,834.800000004,9.5838
1492259608,863.600000004,8.29289
1492259610,810.800000004,9.41885
1492259612,832.400000004,8.37172
1492259614,844.400000004,9.80846
1492259616,885.200000004,7.75613
1492259618,851.600000004,5.75416
1492259620,849.200000004,8.40937
1492259622,866.000000004,7.36328
1492259624,803.600000004,7.92388
1492259626,842.000000004,6.03002
1492259628,770.000000004,6.59607
1492259630,782.000000004,6.71134
1492259632,832.400000004,7.00801
1492259634,765.200000004,9.57539
1492259636,786.800000004,4.5435
1492259638,803.600000004,5.56494
1492259640,762.800000004,7.7219
1492259642,825.200000004,7.35813
1492259644,808.400000004,8.62178
1492259646,774.800000004,7.94607
1492259648,834.800000004,6.53034
1492259650,767.600000004,8.4217
1492259652,810.800000004,8.18208
1492259654,789.200000004,9.19847
1492259656,710.000000004,9.15419
1492259658,774.800000004,8.37968
1492259660,736.400000004,9.10498
1492259662,767.600000004,8.96452
1492259664,779.600000004,9.20782
1492259666,770.000000004,9.6247
1492259668,842.000000004,5.62381
1492259670,743.600000004,6.79553
1492259672,762.800000004,6.64957
1492259674,743.600000004,7.8982
1492259676,801.200000004,6.08121
1492259678,762.800000004,9.3211
1492259680,782.000000004,8.14525
1492259682,741.200000004,6.70021
1492259684,791.600000004,6.3561
1492259686,798.800000004,4.91206
1492259688,825.200000004,7.33537
1492259690,842.000000004,9.3159
1492259692,813.200000004,8.32072
1492259694,786.800000004,7.77589
1492259696,786.800000004,9.55361
1492259698,803.600000004,10.524
1492259700,755.600000004,8.72538
1492259702,770.000000004,8.57507
1492259704,726.800000004,7.47279
1492259706,707.600000004,8.15639
1492259708,760.400000004,5.22781
1492259710,755.600000004,8.38918
1492259712,796.400000004,8.61726
1492259714,748.400000004,8.20675
1492259716,714.800000004,8.05197
1492259718,748.400000004,10.498
1492259720,693.200000004,7.43555
1492259722,731.600000004,6.58823
1492259724,760.400000004,4.94875
1492259726,748.400000004,5.59894
1492259728,719.600000004,6.17281
1492259730,688.400000004,6.81344
1492259732,693.200000004,9.14295
1492259734,695.600000004,8.72197
1492259736,717.200000004,8.98358
1492259738,743.600000004,11.1923
1492259740,700.400000004,11.2157
1492259742,710.000000004,9.62484
1492259744,750.800000004,10.8029
1492259746,770.000000004,11.0689
1492259748,731.600000004,8.30939
1492259750,719.600000004,11.4644
1492259752,736.400000004,12.0597
1492259754,765.200000004,11.7414
1492259756,765.200000004,11.2104
1492259758,765.200000004,11.9957
1492259760,760.400000004,13.1178
1492259762,770.000000004,9.77889
1492259764,772.400000004,12.5408
1492259766,719.600000004,10.8466
1492259768,714.800000004,8.5382
1492259770,741.200000004,8.45043
1492259772,806.000000004,9.17377
1492259774,719.600000004,10.0252
1492259776,731.600000004,9.02176
1492259778,671.600000004,11.4869
1492259780,770.000000004,5.92049
1492259782,729.200000004,8.05387
1492259784,750.800000004,7.96221
1492259786,758.000000004,9.17214
1492259788,698.000000004,8.98615
1492259790,724.400000004,10.6366
1492259792,760.400000004,8.86457
1492259794,686.000000004,8.82675
1492259796,710.000000004,7.92019
1492259798,714.800000004,9.59075
1492259800,753.200000004,10.5076
1492259802,770.000000004,9.40704
1492259804,683.600000004,10.1184
1492259806,722.000000004,10.418
1492259808,714.800000004,8.82656
1492259810,686.000000004,7.61596
1492259812,712.400000004,7.98135
1492259814,714.800000004,8.4265
1492259816,746.000000004,7.42647
1492259818,755.600000004,7.42805
1492259820,688.400000004,8.68384
1492259822,767.600000004,9.02103
1492259824,710.000000004,9.10233
1492259826,770.000000004,7.71661
1492259828,794.000000004,7.85423
1492259830,738.800000004,8.57984
1492259832,746.000000004,10.2327
1492259834,767.600000004,11.0368
1492259836,750.800000004,7.54012
1492259838,815.600000004,6.25733
1492259840,786.800000004,7.12829
1492259842,808.400000004,6.48841
1492259844,825.200000004,6.73941
1492259846,844.400000004,8.67893
1492259848,866.000000004,10.2229
1492259850,849.200000004,8.60438
1492259852,897.200000004,4.83257
1492259854,899.600000004,6.54422
1492259856,854.000000004,6.97805
1492259858,861.200000004,9.34141
1492259860,880.400000004,9.12285
1492259862,921.200000004,7.75601
1492259864,863.600000004,10.7557
1492259866,856.400000004,7.9197
1492259868,834.800000004,7.86645
1492259870,866.000000004,5.41853
1492259872,916.400000004,8.15899
1492259874,858.800000004,7.68051
1492259876,863.600000004,8.67424
1492259878,849.200000004,7.52482
1492259880,882.800000004,7.90608
1492259882,834.800000004,7.85364
1492259884,909.200000004,8.6047
1492259886,902.000000004,9.64027
1492259888,882.800000004,7.53544
1492259890,890.000000004,8.43643
1492259892,866.000000004,6.00669
1492259894,844.400000004,7.82575
1492259896,858.800000004,9.30139
1492259898,854.000000004,7.83262
1492259900,851.600000004,8.31963
1492259902,870.800000004,8.6297
1492259904,916.400000004,6.64719
1492259906,851.600000004,7.2939
1492259908,832.400000004,6.40993
1492259910,856.400000004,7.40458
1492259912,897.200000004,6.31969
1492259914,846.800000004,7.13167
1492259916,866.000000004,9.00102
1492259918,837.200000004,7.70815
1492259920,887.600000004,7.35435
1492259922,868.400000004,9.87277
1492259924,839.600000004,7.2506
1492259926,930.800000004,7.11276
1492259928,902.000000004,7.90598
1492259930,803.600000004,6.52238
1492259932,827.600000004,6.87206
1492259934,830.000000004,7.37412
1492259936,837.200000004,7.78285
1492259938,858.800000004,8.0377
1492259940,856.400000004,9.40817
1492259942,918.800000004,6.63332
1492259944,861.200000004,7.96686
1492259946,858.800000004,7.06044
1492259948,842.000000004,7.94376
1492259950,818.000000004,6.87344
1492259952,842.000000004,8.63575
1492259954,856.400000004,7.13356
1492259956,846.800000004,9.53019
1492259958,786.800000004,9.2507
1492259960,834.800000004,7.48479
1492259962,774.800000004,9.68025
1492259964,818.000000004,9.58261
1492259966,784.400000004,9.66025
1492259968,830.000000004,9.68468
1492259970,846.800000004,9.38116
1492259972,846.800000004,7.91104
1492259974,861.200000004,9.27896
1492259976,902.000000004,10.0307
1492259978,854.000000004,10.3298
1492259980,844.400000004,9.86074
1492259982,863.600000004,10.4342
1492259984,906.800000004,9.30866
1492259986,851.600000004,12.0626
1492259988,851.600000004,11.5171
1492259990,839.600000004,9.20327
1492259992,868.400000004,7.82393
1492259994,957.200000004,9.90582
1492259996,945.200000004,10.0248
1492259998,952.400000004,10.7431
1492260000,993.200000004,10.9745
1492260002,940.400000004,8.83978
1492260004,1000.400000004,9.82585
1492260006,969.200000004,10.1017
1492260008,938.000000004,10.3938
1492260010,981.200000004,11.1865
1492260012,990.800000004,11.0133
1492260014,964.400000004,12.0482
1492260016,1012.400000004,9.9398
1492260018,1014.800000004,8.24082
1492260020,1019.600000004,11.0403
1492260022,998.000000004,10.3313
1492260024,966.800000004,10.304
1492260026,998.000000004,8.74533
1492260028,947.600000004,9.68119
1492260030,940.400000004,10.6604
1492260032,938.000000004,8.49773
1492260034,921.200000004,7.87165
1492260036,933.200000004,9.16078
1492260038,942.800000004,7.4674
1492260040,930.800000004,6.96207
1492260042,966.800000004,6.77536
1492260044,978.800000004,5.19187
1492260046,945.200000004,7.91713
1492260048,935.600000004,7.23115
1492260050,935.600000004,7.09637
1492260052,1012.400000004,8.98352
1492260054,1034.000000004,8.2594
1492260056,952.400000004,6.34113
1492260058,988.400000004,7.50221
1492260060,1038.800000004,8.34111
1492260062,940.400000004,9.6017
1492260064,966.800000004,8.81186
1492260066,976.400000004,11.4802
1492260068,945.200000004,10.9827
1492260070,952.400000004,6.33474
1492260072,923.600000004,5.32314
1492260074,930.800000004,5.65125
1492260076,957.200000004,6.87694
1492260078,911.600000004,8.979
1492260080,1000.400000004,7.62185
1492260082,1007.600000004,7.58578
1492260084,928.400000004,8.70438
1492260086,981.200000004,8.95974
1492260088,933.200000004,7.84193
1492260090,990.800000004,8.42415
1492260092,993.200000004,7.40151
1492260094,930.800000004,8.06541
1492260096,974.000000004,7.93957
1492260098,926.000000004,10.434
1492260100,928.400000004,8.93546
1492260102,926.000000004,10.3818
1492260104,849.200000004,11.0854
1492260106,942.800000004,11.6735
1492260108,873.200000004,11.9251
1492260110,868.400000004,12.7591
1492260112,880.400000004,11.2719
1492260114,861.200000004,9.2432
1492260116,844.400000004,8.31396
1492260118,882.800000004,9.32525
1492260120,858.800000004,5.04775
1492260122,861.200000004,2.05823
1492260124,827.600000004,5.8059
1492260126,873.200000004,10.0564
1492260128,916.400000004,10.1449
1492260130,914.000000004,10.5193
1492260132,909.200000004,11.8069
1492260134,954.800000004,12.3616
1492260136,1031.600000004,8.91648
1492260138,1012.400000004,7.89322
1492260140,993.200000004,5.88928
1492260142,1019.600000004,7.74368
1492260144,1005.200000004,9.70153
1492260146,945.200000004,9.24788
1492260148,947.600000004,7.48663
1492260150,928.400000004,9.32158
1492260152,928.400000004,9.41344
1492260154,930.800000004,8.19924
1492260156,921.200000004,11.547
1492260158,916.400000004,10.4309
1492260160,930.800000004,14.1011
1492260162,942.800000004,11.4856
1492260164,950.000000004,8.38653
1492260166,930.800000004,5.15634
1492260168,916.400000004,3.14603
1492260170,933.200000004,7.20899
1492260172,914.000000004,7.72434
1492260174,911.600000004,8.7437
1492260176,966.800000004,9.09862
1492260178,904.400000004,5.83275
1492260180,926.000000004,6.94847
1492260182,923.600000004,7.77483
1492260184,902.000000004,6.93978
1492260186,875.600000004,8.97923
1492260188,844.400000004,10.1892
1492260190,842.000000004,10.2974
1492260192,844.400000004,8.1893
1492260194,779.600000004,7.71087
1492260196,825.200000004,7.22077
1492260198,875.600000004,6.74199
1492260200,861.200000004,7.97378
1492260202,890.000000004,7.69434
1492260204,827.600000004,8.24472
1492260206,882.800000004,7.24682
1492260208,849.200000004,8.41002
1492260210,861.200000004,8.67704
1492260212,851.600000004,7.57827
1492260214,902.000000004,7.92242
1492260216,873.200000004,6.44199
1492260218,928.400000004,6.56649
1492260220,902.000000004,7.18289
1492260222,906.800000004,7.43307
1492260224,851.600000004,8.86848
1492260226,918.800000004,9.25078
1492260228,1012.400000004,9.21609
1492260230,950.000000004,8.68496
1492260232,1000.400000004,8.00719
1492260234,957.200000004,6.94282
1492260236,935.600000004,6.86116
1492260238,950.000000004,7.77563
1492260240,990.800000004,9.30024
1492260242,926.000000004,7.80144
1492260244,1029.200000004,9.06391
1492260246,945.200000004,7.55383
1492260248,988.400000004,10.297
1492260250,1055.600000004,9.70051
1492260252,1017.200000004,9.35697
1492260254,983.600000004,8.48263
1492260256,981.200000004,5.0028
1492260258,940.400000004,4.47316
1492260260,966.800000004,7.65718
1492260262,1024.400000004,6.97422
1492260264,993.200000004,8.59168
1492260266,1026.800000004,9.17641
1492260268,933.200000004,9.56339
1492260270,957.200000004,11.8883
1492260272,964.400000004,9.8036
1492260274,916.400000004,8.26336
1492260276,894.800000004,6.1402
1492260278,861.200000004,10.7878
1492260280,873.200000004,10.4497
1492260282,878.000000004,7.77613
1492260284,851.600000004,9.95239
1492260286,863.600000004,7.56279
1492260288,856.400000004,6.34337
1492260290,767.600000004,10.4392
1492260292,839.600000004,7.4898
1492260294,791.600000004,7.26707
1492260296,866.000000004,6.82522
1492260298,825.200000004,6.43613
1492260300,767.600000004,7.11468
1492260302,827.600000004,5.05256
1492260304,794.000000004,6.09331
1492260306,844.400000004,5.56351
1492260308,837.200000004,5.76529
1492260310,832.400000004,7.3363
1492260312,834.800000004,7.8832
1492260314,784.400000004,7.76766
1492260316,830.000000004,6.24431
1492260318,844.400000004,7.44038
1492260320,789.200000004,7.25337
1492260322,861.200000004,9.54001
1492260324,786.800000004,6.91136
1492260326,844.400000004,7.68313
1492260328,803.600000004,9.34138
1492260330,765.200000004,9.23842
1492260332,851.600000004,10.997
1492260334,834.800000004,9.42276
1492260336,858.800000004,10.6536
1492260338,846.800000004,12.7097
1492260340,801.200000004,9.04843
1492260342,844.400000004,7.27112
1492260344,842.000000004,9.57985
1492260346,820.400000004,9.8832
1492260348,842.000000004,9.19227
1492260350,760.400000004,10.4051
1492260352,748.400000004,11.3578
1492260354,791.600000004,11.2353
1492260356,794.000000004,8.54902
1492260358,803.600000004,9.95097
1492260360,774.800000004,9.3605
1492260362,748.400000004,6.19756
1492260364,784.400000004,9.47154
1492260366,818.000000004,9.06591
1492260368,856.400000004,8.96332
1492260370,825.200000004,8.63491
1492260372,842.000000004,9.66718
1492260374,892.400000004,9.97331
1492260376,899.600000004,7.86468
1492260378,918.800000004,7.23027
1492260380,964.400000004,9.01862
1492260382,926.000000004,5.9756
1492260384,928.400000004,8.48396
1492260386,942.800000004,10.1826
1492260388,935.600000004,10.2923
1492260390,930.800000004,10.8685
1492260392,911.600000004,8.31731
1492260394,952.400000004,9.05502
1492260396,926.000000004,10.2004
1492260398,940.400000004,8.33797
1492260400,954.800000004,8.91205
1492260402,935.600000004,9.39094
1492260404,923.600000004,10.0767
1492260406,902.000000004,9.58466
1492260408,926.000000004,9.00926
1492260410,957.200000004,8.3039
1492260412,916.400000004,8.70503
1492260414,914.000000004,6.15223
1492260416,923.600000004,8.31802
1492260418,926.000000004,7.67551
1492260420,950.000000004,8.67472
1492260422,921.200000004,9.83876
1492260424,914.000000004,11.7053
1492260426,976.400000004,8.71185
1492260428,966.800000004,9.19311
1492260430,983.600000004,9.66638
1492260432,983.600000004,9.59097
1492260434,962.000000004,10.3297
1492260436,1082.000000004,9.4827
1492260438,1034.000000004,9.757
1492260440,1062.800000004,9.18709
1492260442,1072.400000004,10.2247
1492260444,1077.200000004,10.574
1492260446,1062.800000004,9.48263
1492260448,1050.800000004,8.42002
1492260450,1029.200000004,9.69346
1492260452,1019.600000004,10.5111
1492260454,957.200000004,10.4177
1492260456,1007.600000004,10.6356
1492260458,938.000000004,10.7599
1492260460,940.400000004,8.52509
1492260462,933.200000004,9.4613
1492260464,921.200000004,8.53503
1492260466,959.600000004,8.32192
1492260468,916.400000004,6.45712
1492260470,986.000000004,9.77711
1492260472,962.000000004,9.12564
1492260474,897.200000004,9.6827
1492260476,906.800000004,10.4514
1492260478,940.400000004,10.9053
1492260480,897.200000004,7.77328
1492260482,928.400000004,7.89558
1492260484,933.200000004,8.80925
1492260486,880.400000004,8.31622
1492260488,851.600000004,9.16843
1492260490,856.400000004,10.3804
1492260492,906.800000004,9.66483
1492260494,858.800000004,10.8717
1492260496,844.400000004,8.72173
1492260498,902.000000004,10.8171
1492260500,899.600000004,8.8502
1492260502,894.800000004,9.45956
1492260504,808.400000004,8.67859
1492260506,863.600000004,8.97851
1492260508,851.600000004,8.54635
1492260510,894.800000004,8.04951
1492260512,851.600000004,7.62029
1492260514,868.400000004,9.27087
1492260516,868.400000004,12.829
1492260518,909.200000004,9.65099
1492260520,878.000000004,9.44866
1492260522,846.800000004,8.17643
1492260524,880.400000004,7.66145
1492260526,832.400000004,9.17411
1492260528,839.600000004,9.98045
1492260530,827.600000004,11.5718
1492260532,870.800000004,9.33766
1492260534,870.800000004,8.18383
1492260536,777.200000004,9.86779
1492260538,873.200000004,8.71617
1492260540,837.200000004,10.1526
1492260542,849.200000004,10.1821
1492260544,856.400000004,8.8833
1492260546,825.200000004,9.31919
1492260548,846.800000004,8.93837
1492260550,861.200000004,7.19999
1492260552,813.200000004,10.0702
1492260554,779.600000004,10.6341
1492260556,846.800000004,11.3959
1492260558,801.200000004,9.16009
1492260560,796.400000004,10.1002
1492260562,842.000000004,8.11136
1492260564,772.400000004,8.67867
1492260566,786.800000004,8.747
1492260570,777.200000004,8.8196
1492260572,803.600000004,10.009
1492260574,810.800000004,8.38777
1492260576,820.400000004,10.0306
1492260578,784.400000004,9.13533
1492260580,758.000000004,9.26422
1492260582,760.400000004,9.64376
1492260584,779.600000004,9.66859
1492260586,762.800000004,8.68619
1492260588,842.000000004,10.0171
1492260590,839.600000004,11.669
1492260592,868.400000004,10.2872
1492260594,846.800000004,10.7467
1492260596,906.800000004,11.0165
1492260598,918.800000004,9.88133
1492260600,911.600000004,10.2222
1492260602,942.800000004,9.73035
1492260604,921.200000004,10.5727
1492260606,952.400000004,7.60579
1492260608,909.200000004,8.6942
1492260610,916.400000004,8.4568
1492260612,856.400000004,9.23064
1492260614,918.800000004,10.4022
1492260616,926.000000004,14.1822
1492260618,947.600000004,13.5921
1492260620,894.800000004,11.7383
1492260622,971.600000004,11.8853
1492260624,954.800000004,9.82661
1492260626,914.000000004,10.094
1492260628,947.600000004,10.2154
1492260630,952.400000004,9.34322
1492260632,904.400000004,10.1303
1492260634,935.600000004,11.3263
1492260636,878.000000004,9.88776
1492260638,957.200000004,10.1188
1492260640,923.600000004,9.80718
1492260642,909.200000004,8.63333
1492260644,911.600000004,12.2761
1492260646,916.400000004,10.4519
1492260648,983.600000004,8.23018
1492260650,863.600000004,7.53408
1492260652,909.200000004,7.2703
1492260654,878.000000004,8.52352
1492260656,868.400000004,8.92286
1492260658,849.200000004,11.0188
1492260660,868.400000004,8.90685
1492260662,820.400000004,8.03985
1492260664,827.600000004,9.58049
1492260666,861.200000004,9.37122
1492260668,830.000000004,8.73951
1492260670,846.800000004,8.54188
1492260672,866.000000004,8.22503
1492260674,880.400000004,7.75858
1492260676,906.800000004,8.15141
1492260678,916.400000004,7.5218
1492260680,899.600000004,9.264
1492260682,882.800000004,11.8842
1492260684,926.000000004,10.3779
1492260686,942.800000004,9.77532
1492260688,957.200000004,7.98317
1492260690,942.800000004,8.73142
1492260692,926.000000004,9.28475
1492260694,1002.800000004,7.7198
1492260696,978.800000004,9.42134
1492260698,1019.600000004,8.88071
1492260700,1038.800000004,8.35681
1492260702,1010.000000004,8.72644
1492260704,1031.600000004,8.69185
1492260706,995.600000004,7.62628
1492260708,986.000000004,8.53157
1492260710,993.200000004,8.73036
1492260712,1022.000000004,8.83188
1492260714,962.000000004,8.87789
1492260716,962.000000004,8.4782
1492260718,959.600000004,9.41682
1492260720,1017.200000004,11.2194
1492260722,993.200000004,7.84646
1492260724,878.000000004,9.5651
1492260726,923.600000004,10.3104
1492260728,969.200000004,11.0557
1492260730,1012.400000004,8.37321
1492260732,1002.800000004,9.406
1492260734,921.200000004,9.78897
1492260736,938.000000004,10.2072
1492260738,906.800000004,9.59653
1492260740,933.200000004,8.93555
1492260742,914.000000004,9.37683
1492260744,911.600000004,7.98144
1492260746,942.800000004,8.17185
1492260748,971.600000004,8.23421
1492260750,938.000000004,6.71501
1492260752,950.000000004,7.77101
1492260754,933.200000004,8.91286
1492260756,1012.400000004,8.90781
1492260758,921.200000004,8.47956
1492260760,990.800000004,8.73055
1492260762,928.400000004,8.17031
1492260764,940.400000004,6.76485
1492260766,909.200000004,5.67673
1492260768,914.000000004,5.13236
1492260770,878.000000004,4.52998
1492260772,918.800000004,9.28499
1492260774,921.200000004,12.1906
1492260776,878.000000004,12.148
1492260778,878.000000004,9.61891
1492260780,950.000000004,8.66931
1492260782,947.600000004,8.85537
1492260784,887.600000004,7.12446
1492260786,887.600000004,7.02758
1492260788,911.600000004,7.6545
1492260790,868.400000004,8.16863
1492260792,921.200000004,12.0771
1492260794,904.400000004,10.9207
1492260796,899.600000004,10.3421
1492260798,878.000000004,9.03217
1492260800,902.000000004,6.52153
1492260802,964.400000004,8.81732
1492260804,909.200000004,8.72526
1492260806,882.800000004,7.82677
1492260808,880.400000004,7.75391
1492260810,890.000000004,12.2161
1492260812,928.400000004,8.57309
1492260814,947.600000004,9.31847
1492260816,971.600000004,9.81819
1492260818,858.800000004,9.05368
1492260820,878.000000004,9.12065
1492260822,909.200000004,9.39035
1492260824,906.800000004,10.171
1492260826,914.000000004,11.1386
1492260828,854.000000004,12.152
1492260830,844.400000004,9.6944
1492260832,885.200000004,8.68381
1492260834,851.600000004,9.21306
1492260836,846.800000004,9.44035
1492260838,856.400000004,9.5547
1492260840,856.400000004,10.9248
1492260842,818.000000004,8.6361
1492260844,863.600000004,8.87762
1492260846,839.600000004,6.31763
1492260848,851.600000004,7.76923
1492260850,856.400000004,8.23143
1492260852,825.200000004,7.14836
1492260854,863.600000004,11.3647
1492260856,866.000000004,4.90076
1492260858,842.000000004,6.18431
1492260860,873.200000004,3.48283
1492260862,782.000000004,6.50809
1492260864,868.400000004,7.80184
1492260866,810.800000004,7.45271
1492260868,868.400000004,9.44179
1492260870,839.600000004,11.0796
1492260872,856.400000004,8.51249
1492260874,856.400000004,9.52222
1492260876,849.200000004,8.7617
1492260878,870.800000004,10.1406
1492260880,844.400000004,8.83372
1492260882,806.000000004,8.72589
1492260884,856.400000004,9.42607
1492260886,832.400000004,11.3056
1492260888,866.000000004,10.2417
1492260890,890.000000004,8.40051
1492260892,909.200000004,9.77263
1492260894,786.800000004,8.19249
1492260896,846.800000004,8.94357
1492260898,772.400000004,8.5194
1492260900,791.600000004,9.44077
1492260902,842.000000004,6.36544
1492260904,839.600000004,8.65712
1492260906,875.600000004,8.96567
1492260908,837.200000004,8.62384
1492260910,842.000000004,8.74806
1492260912,820.400000004,7.46592
1492260914,820.400000004,8.43141
1492260916,825.200000004,10.6117
1492260918,842.000000004,11.5028
1492260920,834.800000004,10.6255
1492260922,858.800000004,9.30667
1492260924,806.000000004,11.5234
1492260926,784.400000004,7.19442
1492260928,827.600000004,8.36281
1492260930,844.400000004,10.921
1492260932,822.800000004,10.4631
1492260934,794.000000004,11.0179
1492260936,834.800000004,10.4079
1492260938,849.200000004,8.15247
1492260940,851.600000004,10.5622
1492260942,830.000000004,9.87568
1492260944,815.600000004,11.2163
1492260946,796.400000004,11.687
1492260948,856.400000004,11.1639
1492260950,849.200000004,10.0767
1492260952,822.800000004,10.7481
1492260954,789.200000004,7.19057
1492260956,834.800000004,9.55125
1492260958,825.200000004,7.78118
1492260960,832.400000004,7.92028
1492260962,786.800000004,7.3947
1492260964,837.200000004,10.1967
1492260966,830.000000004,8.45651
1492260968,849.200000004,9.39322
1492260970,854.000000004,7.0401
1492260972,842.000000004,5.42066
1492260974,861.200000004,5.78159
1492260976,897.200000004,5.89374
1492260978,904.400000004,8.3297
1492260980,904.400000004,10.0071
1492260982,842.000000004,8.63467
1492260984,894.800000004,7.58995
1492260986,911.600000004,7.81226
1492260988,818.000000004,8.1742
1492260990,854.000000004,6.067
1492260992,837.200000004,7.89709
1492260994,866.000000004,10.4509
1492260996,918.800000004,9.01024
1492260998,875.600000004,8.2937
1492261000,844.400000004,8.42767
1492261002,887.600000004,8.39279
1492261004,856.400000004,8.90118
1492261006,873.200000004,10.4308
1492261008,858.800000004,10.9618
1492261010,921.200000004,10.4525
1492261012,834.800000004,9.70771
1492261014,870.800000004,7.71503
1492261016,839.600000004,8.60388
1492261018,849.200000004,8.65337
1492261020,914.000000004,8.71552
1492261022,921.200000004,8.53623
1492261024,904.400000004,7.01787
1492261026,885.200000004,8.30659
1492261028,861.200000004,9.24173
1492261030,839.600000004,8.80977
1492261032,846.800000004,7.50192
1492261034,794.000000004,9.86202
1492261036,846.800000004,10.707
1492261038,899.600000004,11.7058
1492261040,844.400000004,12.0698
1492261042,830.000000004,10.0396
1492261044,808.400000004,11.4067
1492261046,808.400000004,8.0694
1492261048,820.400000004,8.33207
1492261050,842.000000004,8.17742
1492261052,784.400000004,10.1948
1492261054,830.000000004,10.1372
1492261056,822.800000004,8.34568
1492261058,815.600000004,8.41654
1492261060,818.000000004,8.32434
1492261062,796.400000004,10.9557
1492261064,782.000000004,10.2953
1492261066,796.400000004,8.5203
1492261068,734.000000004,9.36562
1492261070,818.000000004,7.82981
1492261072,741.200000004,7.31466
1492261074,770.000000004,7.51031
1492261076,714.800000004,8.88664
1492261078,702.800000004,6.99734
1492261080,746.000000004,5.64281
1492261082,760.400000004,7.58698
1492261084,750.800000004,9.24045
1492261086,770.000000004,9.8722
1492261088,731.600000004,7.49026
1492261090,762.800000004,8.38476
1492261092,777.200000004,7.21721
1492261094,782.000000004,6.31163
1492261096,784.400000004,3.07928
1492261098,738.800000004,4.28538
1492261100,734.000000004,3.82522
1492261102,794.000000004,6.64222
1492261104,801.200000004,6.28147
1492261106,770.000000004,6.21531
1492261108,820.400000004,5.46776
1492261110,822.800000004,6.99131
1492261112,765.200000004,7.7244
1492261114,796.400000004,10.7133
1492261116,777.200000004,7.13183
1492261118,806.000000004,8.27397
1492261120,782.000000004,8.92809
1492261122,779.600000004,7.14986
1492261124,762.800000004,7.50285
1492261126,774.800000004,5.45682
1492261128,758.000000004,7.81912
1492261130,753.200000004,8.80306
1492261132,724.400000004,10.2871
1492261134,693.200000004,9.36819
1492261136,714.800000004,10.1793
1492261138,702.800000004,11.2859
1492261140,801.200000004,9.43189
1492261142,770.000000004,9.86593
1492261144,681.200000004,9.25241
1492261146,803.600000004,7.04877
1492261148,686.000000004,10.1783
1492261150,767.600000004,7.55535
1492261152,719.600000004,8.82405
1492261154,741.200000004,11.0143
1492261156,784.400000004,9.15097
1492261158,767.600000004,8.05837
1492261160,702.800000004,9.64909
1492261162,753.200000004,10.6318
1492261164,710.000000004,11.714
1492261166,770.000000004,10.5791
1492261168,789.200000004,8.8131
1492261170,755.600000004,10.2624
1492261172,753.200000004,9.84642
1492261174,729.200000004,10.4597
1492261176,738.800000004,9.46547
1492261178,755.600000004,8.15403
1492261180,760.400000004,7.29669
1492261182,599.600000004,10.371
1492261184,621.200000004,9.84695
1492261186,609.200000004,10.4217
1492261188,647.600000004,8.70111
1492261190,609.200000004,11.6548
1492261192,609.200000004,10.9202
1492261194,566.000000004,9.12334
1492261196,628.400000004,8.58832
1492261198,638.000000004,10.0725
1492261200,556.400000004,10.1252
1492261202,604.400000004,6.60042
1492261204,592.400000004,7.05988
1492261206,590.000000004,10.6572
1492261208,585.200000004,11.6853
1492261210,628.400000004,9.94333
1492261212,542.000000004,9.93255
1492261214,587.600000004,7.37958
1492261216,573.200000004,8.45169
1492261218,554.000000004,7.09785
1492261220,609.200000004,10.1852
1492261222,618.800000004,9.19328
1492261224,609.200000004,9.74917
1492261226,570.800000004,8.58959
1492261228,580.400000004,9.71007
1492261230,599.600000004,10.0445
1492261232,609.200000004,11.7404
1492261234,614.000000004,9.90906
1492261236,614.000000004,11.3001
1492261238,664.400000004,8.98725
1492261240,592.400000004,8.22008
1492261242,650.000000004,9.05496
1492261244,592.400000004,8.36241
1492261246,592.400000004,6.26422
1492261248,616.400000004,10.1188
1492261250,575.600000004,8.62365
1492261252,616.400000004,8.57358
1492261254,594.800000004,4.90435
1492261256,590.000000004,8.63615
1492261258,573.200000004,9.1596
1492261260,623.600000004,9.08151
1492261262,638.000000004,8.25938
1492261264,633.200000004,6.87658
1492261266,597.200000004,7.81773
1492261268,597.200000004,9.08919
1492261270,537.200000004,6.1418
1492261272,597.200000004,8.52239
1492261274,657.200000004,8.51601
1492261276,573.200000004,10.7272
1492261278,633.200000004,8.30414
1492261280,590.000000004,9.77356
1492261282,563.600000004,9.51848
1492261284,609.200000004,8.06218
1492261286,549.200000004,8.59962
1492261288,621.200000004,9.77524
1492261290,621.200000004,12.0315
1492261292,534.800000004,8.01683
1492261294,575.600000004,9.92977
1492261296,602.000000004,10.8155
1492261298,587.600000004,9.83482
1492261300,594.800000004,9.74561
1492261302,647.600000004,9.70331
1492261304,592.400000004,9.51298
1492261306,659.600000004,10.3018
1492261308,527.600000004,6.76821
1492261310,654.800000004,10.206
1492261312,537.200000004,10.5836
1492261314,592.400000004,9.51302
1492261316,585.200000004,8.27611
1492261318,635.600000004,9.68581
1492261320,551.600000004,9.39572
1492261322,611.600000004,10.9575
1492261324,542.000000004,9.49018
1492261326,616.400000004,10.3547
1492261328,621.200000004,10.2679
1492261330,566.000000004,9.28306
1492261332,616.400000004,10.0563
1492261334,558.800000004,10.5524
1492261336,594.800000004,11.1246
1492261338,650.000000004,9.58012
1492261340,602.000000004,10.7617
1492261342,573.200000004,10.4695
1492261344,594.800000004,10.1909
1492261346,599.600000004,12.3131
1492261348,657.200000004,10.4779
1492261350,611.600000004,10.0929
1492261352,616.400000004,9.92772
1492261354,539.600000004,10.1095
1492261356,666.800000004,10.9641
1492261358,669.200000004,9.02575
1492261360,614.000000004,9.53424
1492261362,599.600000004,9.82733
1492261364,623.600000004,9.49099
1492261366,618.800000004,10.3916
1492261368,686.000000004,9.73688
1492261370,638.000000004,10.6832
1492261372,669.200000004,9.89873
1492261374,710.000000004,7.69117
1492261376,676.400000004,8.79681
1492261378,652.400000004,9.65427
1492261380,621.200000004,8.1516
1492261382,568.400000004,8.36948
1492261384,580.400000004,7.29113
1492261386,681.200000004,7.35998
1492261388,599.600000004,7.87345
1492261390,662.000000004,8.65105
1492261392,674.000000004,9.9749
1492261394,640.400000004,8.62581
1492261396,616.400000004,8.83698
1492261398,578.000000004,9.26389
1492261400,616.400000004,7.78084
1492261402,582.800000004,8.75628
1492261404,575.600000004,8.98975
1492261406,652.400000004,5.21929
1492261408,652.400000004,5.97232
1492261410,599.600000004,11.6513
1492261412,652.400000004,10.7576
1492261414,650.000000004,10.1998
1492261416,640.400000004,11.1234
1492261418,626.000000004,8.24925
1492261420,640.400000004,7.45593
1492261422,664.400000004,7.6493
1492261424,626.000000004,7.10768
1492261426,602.000000004,9.3308
1492261428,669.200000004,12.4906
1492261430,652.400000004,8.96189
1492261432,616.400000004,10.604
1492261434,659.600000004,9.8827
1492261436,640.400000004,9.19448
1492261438,662.000000004,9.85447
1492261440,671.600000004,10.7082
1492261442,616.400000004,10.6403
1492261444,654.800000004,10.7303
1492261446,527.600000004,9.24852
1492261448,654.800000004,9.64597
1492261450,628.400000004,9.19208
1492261452,602.000000004,9.52857
1492261454,616.400000004,10.7849
1492261456,556.400000004,10.1102
1492261458,606.800000004,12.8468
1492261460,647.600000004,9.31814
1492261462,604.400000004,10.5495
1492261464,647.600000004,8.2392
1492261466,623.600000004,8.9401
1492261468,604.400000004,10.7929
1492261470,659.600000004,9.34212
1492261472,633.200000004,7.68974
1492261474,626.000000004,10.8292
1492261476,676.400000004,9.03487
1492261478,602.000000004,8.16631
1492261480,599.600000004,11.0019
1492261482,676.400000004,10.2294
1492261484,566.000000004,9.3766
1492261486,671.600000004,8.29064
1492261488,628.400000004,8.70548
1492261490,611.600000004,7.94403
1492261492,614.000000004,8.50973
1492261494,590.000000004,7.78465
1492261496,587.600000004,9.06867
1492261498,654.800000004,8.25308
1492261500,638.000000004,8.98035
1492261502,666.800000004,8.57975
1492261504,585.200000004,8.91746
1492261506,539.600000004,9.07257
1492261508,606.800000004,10.6822
1492261510,623.600000004,11.4548
1492261512,671.600000004,11.1368
1492261514,606.800000004,11.0224
1492261516,664.400000004,8.93596
1492261518,568.400000004,9.13421
1492261520,664.400000004,11.021
1492261522,671.600000004,10.7909
1492261524,652.400000004,8.81297
1492261526,674.000000004,10.706
1492261528,652.400000004,9.16719
1492261530,686.000000004,9.57295
1492261532,678.800000004,9.23645
1492261534,652.400000004,9.97656
1492261536,683.600000004,8.0618
1492261538,676.400000004,9.25982
1492261540,686.000000004,10.5222
1492261542,746.000000004,8.89821
1492261544,666.800000004,9.36589
1492261546,659.600000004,8.92846
1492261548,726.800000004,9.39193
1492261550,678.800000004,9.00991
1492261552,702.800000004,9.84513
1492261554,671.600000004,9.04573
1492261556,698.000000004,10.1127
1492261558,702.800000004,8.29041
1492261560,676.400000004,10.1907
1492261562,710.000000004,9.10518
1492261564,714.800000004,9.05419
1492261566,717.200000004,10.5366
1492261568,719.600000004,9.47664
1492261570,736.400000004,9.99445
1492261572,698.000000004,10.2816
1492261574,731.600000004,7.85418
1492261576,705.200000004,12.4714
1492261578,678.800000004,8.80541
1492261580,659.600000004,9.65855
1492261582,662.000000004,10.3859
1492261584,719.600000004,10.845
1492261586,616.400000004,9.95903
1492261588,585.200000004,8.04641
1492261590,580.400000004,9.96027
1492261592,592.400000004,10.0128
1492261594,626.000000004,9.99501
1492261596,618.800000004,9.45444
1492261598,599.600000004,8.88929
1492261600,609.200000004,10.8082
1492261602,582.800000004,10.3755
1492261604,606.800000004,10.1943
1492261606,650.000000004,11.1626
1492261608,592.400000004,9.27204
1492261610,587.600000004,8.6258
1492261612,602.000000004,9.68587
1492261614,580.400000004,8.81017
1492261616,604.400000004,10.3973
1492261618,582.800000004,10.2565
1492261620,585.200000004,8.58764
1492261622,606.800000004,7.39036
1492261624,604.400000004,7.39094
1492261626,599.600000004,5.56317
1492261628,628.400000004,8.45829
1492261630,594.800000004,8.78165
1492261632,602.000000004,8.59339
1492261634,599.600000004,11.3624
1492261636,611.600000004,9.36901
1492261638,618.800000004,9.73519
1492261640,621.200000004,11.1182
1492261642,635.600000004,9.12312
1492261644,614.000000004,12.257
1492261646,602.000000004,10.9274
1492261648,585.200000004,11.2433
1492261650,659.600000004,10.516
1492261652,590.000000004,10.8727
1492261654,695.600000004,12.3608
1492261656,657.200000004,10.6212
1492261658,609.200000004,9.21898
1492261660,611.600000004,10.9587
1492261662,590.000000004,8.28072
1492261664,618.800000004,11.524
1492261666,616.400000004,10.5442
1492261668,669.200000004,9.73581
1492261670,690.800000004,9.03366
1492261672,664.400000004,8.40058
1492261674,690.800000004,9.2212
1492261676,654.800000004,9.20323
1492261678,633.200000004,11.3928
1492261680,678.800000004,10.5311
1492261682,683.600000004,11.2777
1492261684,630.800000004,10.8019
1492261686,616.400000004,11.1715
1492261688,599.600000004,11.326
1492261690,678.800000004,10.1012
1492261692,666.800000004,7.23787
1492261694,635.600000004,8.93688
1492261696,659.600000004,10.6986
1492261698,669.200000004,10.7808
1492261700,666.800000004,10.2896
1492261702,614.000000004,9.69461
1492261704,671.600000004,8.02176
1492261706,587.600000004,6.72438
1492261708,678.800000004,8.60505
1492261710,609.200000004,9.63966
1492261712,623.600000004,8.36991
1492261714,652.400000004,8.2226
1492261716,575.600000004,9.35666
1492261718,657.200000004,10.2807
1492261720,652.400000004,8.66073
1492261722,683.600000004,8.81447
1492261724,657.200000004,7.9613
1492261726,587.600000004,8.17562
1492261728,640.400000004,10.2768
1492261730,662.000000004,10.4465
1492261732,678.800000004,10.8316
1492261734,777.200000004,9.83112
1492261736,681.200000004,7.37494
1492261738,611.600000004,11.5653
1492261740,633.200000004,10.9185
1492261742,606.800000004,8.07476
1492261744,669.200000004,7.62859
1492261746,674.000000004,9.67999
1492261748,784.400000004,11.2718
1492261750,674.000000004,10.5191
1492261752,683.600000004,10.4976
1492261754,765.200000004,8.69825
1492261756,693.200000004,10.9876
1492261758,810.800000004,7.68805
1492261760,834.800000004,9.09928
1492261762,772.400000004,8.61435
1492261764,801.200000004,9.00847
1492261766,722.000000004,8.11791
1492261768,762.800000004,8.34912
1492261770,726.800000004,7.27329
1492261772,822.800000004,8.8358
1492261774,767.600000004,9.47201
1492261776,806.000000004,11.5398
1492261778,786.800000004,9.24379
1492261780,767.600000004,10.79
1492261782,810.800000004,12.0842
1492261784,897.200000004,12.1051
1492261786,837.200000004,11.823
1492261788,844.400000004,9.14642
1492261790,822.800000004,10.109
1492261792,806.000000004,10.1125
1492261796,822.800000004,11.732
1492261798,846.800000004,11.2021
1492261800,774.800000004,11.1111
1492261802,767.600000004,11.6885
1492261804,827.600000004,11.5076
1492261806,815.600000004,11.2583
1492261808,743.600000004,9.29821
1492261810,794.000000004,8.99994
1492261812,822.800000004,7.92432
1492261814,791.600000004,8.56404
1492261816,798.800000004,8.72419
1492261818,782.000000004,10.0509
1492261820,849.200000004,10.4389
1492261822,834.800000004,8.76483
1492261824,825.200000004,9.64766
1492261826,825.200000004,8.44095
1492261828,767.600000004,8.98552
1492261830,801.200000004,11.9634
1492261832,779.600000004,10.4771
1492261834,705.200000004,12.8121
1492261836,755.600000004,9.47054
1492261838,729.200000004,9.03402
1492261840,767.600000004,8.83559
1492261842,818.000000004,11.6862
1492261844,688.400000004,10.4241
1492261846,729.200000004,10.131
1492261848,743.600000004,8.88434
1492261850,676.400000004,10.6965
1492261852,705.200000004,8.94586
1492261854,719.600000004,10.7283
1492261856,681.200000004,9.38721
1492261858,705.200000004,7.84843
1492261860,702.800000004,8.29153
1492261862,698.000000004,9.6099
1492261864,657.200000004,9.00435
1492261866,698.000000004,9.06938
1492261868,690.800000004,11.5788
1492261870,688.400000004,12.2256
1492261872,652.400000004,6.80025
1492261874,640.400000004,9.85474
1492261876,695.600000004,9.68643
1492261878,616.400000004,10.0287
1492261880,705.200000004,11.4742
1492261882,690.800000004,10.5656
1492261884,698.000000004,10.9066
1492261886,726.800000004,11.8323
1492261888,662.000000004,9.40122
1492261890,678.800000004,9.80988
1492261892,652.400000004,9.85086
1492261894,669.200000004,10.4095
1492261896,688.400000004,9.56979
1492261898,630.800000004,8.82647
1492261900,693.200000004,8.16162
1492261902,683.600000004,8.72755
1492261904,623.600000004,9.57717
1492261906,652.400000004,12.7189
1492261908,686.000000004,9.88722
1492261910,676.400000004,8.17449
1492261912,688.400000004,10.5405
1492261914,688.400000004,11.4528
1492261916,681.200000004,7.14402
1492261918,734.000000004,12.0486
1492261920,683.600000004,10.4484
1492261922,712.400000004,11.5303
1492261924,760.400000004,10.0093
1492261926,681.200000004,11.5114
1492261928,683.600000004,11.3968
1492261930,638.000000004,9.62011
1492261932,676.400000004,9.40358
1492261934,688.400000004,10.598
1492261936,676.400000004,10.1375
1492261938,628.400000004,12.5591
1492261940,686.000000004,9.16277
1492261942,652.400000004,10.1249
1492261944,681.200000004,9.98301
1492261946,652.400000004,8.6083
1492261948,633.200000004,10.5769
1492261950,702.800000004,10.1893
1492261952,690.800000004,10.5107
1492261954,690.800000004,10.8711
1492261956,690.800000004,10.8438
1492261958,688.400000004,9.74206
1492261960,695.600000004,8.78671
1492261962,690.800000004,5.81238
1492261964,676.400000004,6.96886
1492261966,669.200000004,6.8583
1492261968,693.200000004,8.19136
1492261970,707.600000004,7.39964
1492261972,695.600000004,7.73243
1492261974,683.600000004,9.80904
1492261976,676.400000004,11.2175
1492261978,702.800000004,12.2127
1492261980,719.600000004,10.1492
1492261982,789.200000004,10.6353
1492261984,774.800000004,10.9723
1492261986,734.000000004,14.1361
1492261988,774.800000004,11.7228
1492261990,714.800000004,12.8719
1492261992,705.200000004,10.9398
1492261994,746.000000004,10.8262
1492261996,753.200000004,10.5436
1492261998,798.800000004,8.88877
1492262000,741.200000004,9.2183
1492262002,743.600000004,10.8602
1492262004,753.200000004,9.90051
1492262006,760.400000004,9.77609
1492262008,765.200000004,10.9947
1492262010,794.000000004,10.1188
1492262012,820.400000004,10.0409
1492262014,844.400000004,10.2882
1492262016,818.000000004,10.5952
1492262018,827.600000004,9.57229
1492262020,762.800000004,9.44617
1492262022,815.600000004,10.1739
1492262024,825.200000004,7.79998
1492262026,782.000000004,8.47995
1492262028,738.800000004,8.46114
1492262030,789.200000004,7.55296
1492262032,702.800000004,8.75865
1492262034,748.400000004,9.13965
1492262036,710.000000004,8.41582
1492262038,741.200000004,7.32436
1492262040,736.400000004,10.0327
1492262042,702.800000004,10.3431
1492262044,758.000000004,10.4136
1492262046,700.400000004,8.75016
1492262048,748.400000004,9.04316
1492262050,770.000000004,10.6709
1492262052,743.600000004,11.3538
1492262054,746.000000004,8.25869
1492262056,832.400000004,10.5181
1492262058,798.800000004,8.31581
1492262060,770.000000004,10.3872
1492262062,762.800000004,9.02483
1492262064,734.000000004,8.95946
1492262066,762.800000004,9.9093
1492262068,774.800000004,8.87153
1492262070,810.800000004,10.7904
1492262072,767.600000004,9.83563
1492262074,774.800000004,8.60049
1492262076,774.800000004,9.24157
1492262078,798.800000004,9.89864
1492262080,796.400000004,7.11267
1492262082,748.400000004,7.77848
1492262084,707.600000004,9.442
1492262086,770.000000004,9.56465
1492262088,851.600000004,10.0173
1492262090,782.000000004,10.6615
1492262092,839.600000004,8.46561
1492262094,794.000000004,10.5264
1492262096,844.400000004,10.7722
1492262098,858.800000004,10.2013
