tag_number,delay,power_est
1491491914,-646.0000000023,11.5235
1491491916,-590.8000000023,10.2945
1491491918,-574.0000000023,10.1761
1491491920,-586.0000000023,12.0635
1491491922,-564.4000000023,6.78404
1491491924,-622.0000000023,7.2859
1491491926,-593.2000000023,6.85302
1491491928,-581.2000000023,7.79712
1491491930,-590.8000000023,8.08614
1491491932,-588.4000000023,9.57321
1491491934,-588.4000000023,10.1927
1491491936,-595.6000000023,12.6867
1491491938,-566.8000000023,11.2362
1491491940,-593.2000000023,9.18021
1491491942,-605.2000000023,8.13576
1491491944,-571.6000000023,8.94986
1491491946,-569.2000000023,8.31342
1491491948,-588.4000000023,6.17628
1491491950,-576.4000000023,7.86738
1491491952,-588.4000000023,9.18949
1491491954,-648.4000000023,6.3801
1491491956,-598.0000000023,10.0785
1491491958,-583.6000000023,8.40346
1491491960,-605.2000000023,7.55601
1491491962,-605.2000000023,9.1958
1491491964,-562.0000000023,9.67471
1491491966,-617.2000000023,9.37349
1491491968,-636.4000000023,9.49779
1491491970,-562.0000000023,11.0442
1491491972,-648.4000000023,11.7602
1491491974,-655.6000000023,7.01135
1491491976,-588.4000000023,5.9063
1491491978,-581.2000000023,2.51521
1491491980,-638.8000000023,8.31024
