tag_number,delay,power_est
1496082410,400.9333333358,19.948
1496082412,475.3333333358,21.4543
1496082414,453.7333333358,21.8329
1496082416,408.1333333358,18.2074
1496082418,477.7333333358,20.0782
1496082420,420.1333333358,22.3938
1496082422,379.3333333358,25.9764
1496082424,386.5333333358,21.7707
1496082426,422.5333333358,17.1619
1496082428,384.1333333358,15.1001
1496082430,403.3333333358,18.6131
1496082432,420.1333333358,19.305
1496082434,379.3333333358,21.2451
1496082436,415.3333333358,18.184
1496082438,468.1333333358,22.3141
1496082440,439.3333333358,21.867
1496082442,403.3333333358,22.966
1496082444,525.7333333358,20.7524
1496082446,465.7333333358,19.4838
1496082448,391.3333333358,18.0104
1496082450,422.5333333358,21.4634
1496082452,386.5333333358,19.5351
1496082454,362.5333333358,19.7809
1496082456,412.9333333358,20.52
1496082458,439.3333333358,19.9805
1496082460,415.3333333358,17.1935
1496082462,422.5333333358,24.357
1496082464,400.9333333358,17.257
1496082466,398.5333333358,21.1555
1496082468,388.9333333358,20.6054
1496082470,415.3333333358,17.6151
1496082472,376.9333333358,21.9967
1496082474,367.3333333358,20.9767
1496082476,393.7333333358,16.4697
1496082478,396.1333333358,19.5608
1496082480,379.3333333358,15.7004
1496082482,405.7333333358,15.9503
1496082484,388.9333333358,16.3162
1496082486,386.5333333358,17.9297
1496082488,316.9333333358,18.8297
1496082490,403.3333333358,19.2234
1496082492,362.5333333358,21.0495
1496082494,360.1333333358,16.5799
1496082496,362.5333333358,16.6297
1496082498,432.1333333358,21.5537
1496082500,400.9333333358,14.1982
1496082502,436.9333333358,16.0658
1496082504,434.5333333358,20.2799
1496082506,456.1333333358,16.7937
1496082508,504.1333333358,20.7746
1496082510,477.7333333358,18.0819
1496082512,439.3333333358,24.0992
1496082514,444.1333333358,17.5577
1496082516,439.3333333358,12.3015
1496082518,516.1333333358,17.1945
1496082520,391.3333333358,12.8611
1496082522,465.7333333358,20.4936
1496082524,496.9333333358,16.9261
1496082526,482.5333333358,21.8601
1496082528,482.5333333358,16.6883
1496082530,523.3333333358,16.1401
1496082532,460.9333333358,15.0299
1496082534,516.1333333358,19.3653
1496082536,499.3333333358,13.0909
1496082538,516.1333333358,12.0908
1496082540,446.5333333358,15.8238
1496082542,499.3333333358,18.0539
1496082544,501.7333333358,23.1798
1496082546,460.9333333358,20.1658
1496082548,463.3333333358,16.7903
1496082550,528.1333333358,17.3553
1496082552,468.1333333358,19.0481
1496082554,523.3333333358,21.4488
1496082556,559.3333333358,19.6383
1496082558,472.9333333358,20.5601
1496082560,451.3333333358,19.8112
1496082562,504.1333333358,20.2537
1496082564,475.3333333358,19.7723
1496082566,444.1333333358,18.5743
1496082568,434.5333333358,24.2363
1496082570,472.9333333358,21.1114
1496082572,475.3333333358,21.8209
1496082574,468.1333333358,19.0832
1496082576,506.5333333358,20.3018
1496082578,523.3333333358,23.2055
1496082580,487.3333333358,24.032
1496082582,520.9333333358,22.7966
1496082584,482.5333333358,25.1627
1496082586,504.1333333358,24.5478
1496082588,544.9333333358,22.7359
1496082590,453.7333333358,23.8702
1496082592,496.9333333358,25.6923
1496082594,451.3333333358,21.4761
1496082596,518.5333333358,19.245
1496082598,511.3333333358,24.0842
1496082600,516.1333333358,22.233
1496082602,523.3333333358,18.6799
1496082604,472.9333333358,22.9537
1496082606,525.7333333358,23.2098
1496082608,528.1333333358,22.5096
1496082610,475.3333333358,24.7533
1496082612,516.1333333358,21.624
1496082614,523.3333333358,27.2146
1496082616,458.5333333358,22.9946
1496082618,513.7333333358,22.0196
1496082620,499.3333333358,18.149
1496082622,400.9333333358,18.6701
1496082624,460.9333333358,17.8187
1496082626,480.1333333358,19.5145
1496082628,448.9333333358,16.645
1496082630,451.3333333358,19.8374
1496082632,496.9333333358,17.9562
1496082634,439.3333333358,24.3387
1496082636,405.7333333358,23.4655
1496082638,427.3333333358,22.7053
1496082640,448.9333333358,20.0306
1496082642,429.7333333358,17.2716
1496082644,458.5333333358,21.0013
1496082646,468.1333333358,19.7782
1496082648,482.5333333358,21.7046
1496082650,475.3333333358,19.5654
1496082652,513.7333333358,18.6976
1496082654,496.9333333358,20.7195
1496082656,446.5333333358,18.6549
1496082658,482.5333333358,17.8237
1496082660,432.1333333358,19.0319
1496082662,451.3333333358,21.3848
1496082664,429.7333333358,20.7559
1496082666,453.7333333358,22.7043
1496082668,439.3333333358,20.8181
1496082670,523.3333333358,26.1722
1496082672,499.3333333358,25.0151
1496082674,456.1333333358,19.8411
1496082676,496.9333333358,16.7363
1496082678,525.7333333358,17.121
1496082680,463.3333333358,22.3169
1496082682,544.9333333358,24.7311
1496082684,544.9333333358,20.0524
1496082686,532.9333333358,21.5731
1496082688,547.3333333358,20.5942
1496082690,508.9333333358,21.0323
1496082692,511.3333333358,19.6175
1496082694,528.1333333358,17.8952
1496082696,547.3333333358,24.7225
1496082698,537.7333333358,27.2852
1496082700,523.3333333358,21.297
1496082702,547.3333333358,17.768
1496082704,583.3333333358,18.0409
1496082706,559.3333333358,19.2483
1496082708,559.3333333358,19.8329
1496082710,626.5333333358,18.3514
1496082712,556.9333333358,23.197
1496082714,547.3333333358,20.8658
1496082716,540.1333333358,18.5363
1496082718,583.3333333358,20.0718
1496082720,525.7333333358,23.7634
1496082722,561.7333333358,19.249
1496082724,580.9333333358,21.6623
1496082726,525.7333333358,17.5937
1496082728,530.5333333358,16.0595
1496082730,540.1333333358,18.687
1496082732,508.9333333358,19.3264
1496082734,508.9333333358,19.6144
1496082736,544.9333333358,21.7458
1496082738,499.3333333358,21.7761
1496082740,513.7333333358,20.6422
1496082742,492.1333333358,20.773
1496082744,499.3333333358,21.8359
1496082746,525.7333333358,24.3972
1496082748,511.3333333358,24.2965
1496082750,518.5333333358,24.7094
1496082752,482.5333333358,22.6296
1496082754,496.9333333358,22.8953
1496082756,516.1333333358,23.4054
1496082758,501.7333333358,18.0336
1496082760,496.9333333358,21.3038
1496082762,532.9333333358,20.7005
1496082764,535.3333333358,23.0605
1496082766,508.9333333358,23.7823
1496082768,547.3333333358,22.1589
1496082770,523.3333333358,20.8926
1496082772,544.9333333358,20.5065
1496082774,540.1333333358,21.7043
1496082776,446.5333333358,23.2703
1496082778,537.7333333358,22.7165
1496082780,559.3333333358,19.2231
1496082782,549.7333333358,18.5812
1496082784,573.7333333358,18.1576
1496082786,535.3333333358,17.746
1496082788,542.5333333358,15.1497
1496082790,508.9333333358,16.9657
1496082792,540.1333333358,18.6641
1496082794,532.9333333358,14.8993
1496082796,559.3333333358,22.0768
1496082798,564.1333333358,14.0336
1496082800,540.1333333358,16.2544
1496082802,547.3333333358,18.7793
1496082804,650.5333333358,23.5428
1496082806,621.7333333358,20.1524
1496082808,600.1333333358,21.9022
1496082810,626.5333333358,22.2921
1496082812,667.3333333358,16.0694
1496082814,619.3333333358,15.323
1496082816,621.7333333358,13.7058
1496082818,609.7333333358,16.712
1496082820,597.7333333358,16.2451
1496082822,597.7333333358,17.2099
1496082824,640.9333333358,18.3071
1496082826,585.7333333358,18.6674
1496082828,602.5333333358,15.4652
1496082830,619.3333333358,16.3623
1496082832,554.5333333358,22.9882
1496082834,564.1333333358,23.1481
1496082836,636.1333333358,17.9904
1496082838,588.1333333358,18.0999
1496082840,580.9333333358,17.5287
1496082842,612.1333333358,22.1361
1496082844,602.5333333358,22.3607
1496082846,547.3333333358,19.7767
1496082848,588.1333333358,23.6724
1496082850,600.1333333358,20.7892
1496082852,571.3333333358,18.217
1496082854,614.5333333358,17.0242
1496082856,619.3333333358,19.2048
1496082858,612.1333333358,20.3283
1496082860,657.7333333358,20.3033
1496082862,657.7333333358,24.5112
1496082864,631.3333333358,25.2232
1496082866,652.9333333358,22.1711
1496082868,686.5333333358,20.7129
1496082870,621.7333333358,22.0353
1496082872,669.7333333358,18.1511
1496082874,698.5333333358,19.6632
1496082876,710.5333333358,15.3701
1496082878,729.7333333358,21.3393
1496082880,727.3333333358,19.1961
1496082882,727.3333333358,19.5649
1496082884,739.3333333358,22.8566
1496082886,760.9333333358,18.4138
1496082888,758.5333333358,20.6379
1496082890,722.5333333358,19.418
1496082892,741.7333333358,14.682
1496082894,744.1333333358,16.5543
1496082896,751.3333333358,14.4876
1496082898,748.9333333358,19.5043
1496082900,710.5333333358,14.8719
1496082902,638.5333333358,16.071
1496082904,684.1333333358,21.627
1496082906,657.7333333358,19.1047
1496082908,688.9333333358,17.8795
1496082910,648.1333333358,21.9018
1496082912,633.7333333358,22.3277
1496082914,717.7333333358,22.6411
1496082916,664.9333333358,21.3171
1496082918,696.1333333358,22.9292
1496082920,621.7333333358,21.7738
1496082922,708.1333333358,21.4066
1496082924,614.5333333358,20.3903
1496082926,693.7333333358,19.2484
1496082928,638.5333333358,23.0652
1496082930,631.3333333358,21.0127
1496082932,619.3333333358,21.5504
1496082934,604.9333333358,20.3862
1496082936,624.1333333358,16.3571
1496082938,648.1333333358,19.3506
1496082940,626.5333333358,20.3111
1496082942,736.9333333358,20.7615
1496082944,729.7333333358,21.1265
1496082946,636.1333333358,17.4408
1496082948,717.7333333358,19.7583
1496082950,643.3333333358,20.5989
1496082952,669.7333333358,21.3767
1496082954,741.7333333358,22.0645
1496082956,703.3333333358,21.3824
1496082958,638.5333333358,22.473
1496082960,633.7333333358,17.62
1496082962,722.5333333358,17.1121
1496082964,631.3333333358,17.696
1496082966,655.3333333358,18.2507
1496082968,669.7333333358,19.9351
1496082970,609.7333333358,16.8918
1496082972,614.5333333358,17.253
1496082974,636.1333333358,15.4284
1496082976,652.9333333358,19.9466
1496082978,645.7333333358,21.9639
1496082980,727.3333333358,19.3523
1496082982,664.9333333358,20.6633
1496082984,676.9333333358,17.9011
1496082986,736.9333333358,17.2848
1496082988,734.5333333358,18.5971
1496082990,684.1333333358,19.6805
1496082992,729.7333333358,17.0431
1496082994,720.1333333358,22.8412
1496082996,727.3333333358,16.2624
1496082998,696.1333333358,16.2084
1496083000,705.7333333358,17.0461
1496083002,662.5333333358,17.8588
1496083004,640.9333333358,22.9459
1496083006,655.3333333358,17.0676
1496083008,616.9333333358,21.3385
1496083010,662.5333333358,21.7088
1496083012,691.3333333358,18.3599
1496083014,631.3333333358,17.8993
1496083016,621.7333333358,18.0173
1496083018,636.1333333358,20.4636
1496083020,676.9333333358,19.5428
1496083022,676.9333333358,19.4568
1496083024,657.7333333358,21.1617
1496083026,616.9333333358,18.5551
1496083028,619.3333333358,22.0153
1496083030,619.3333333358,25.2421
1496083032,561.7333333358,20.86
1496083034,585.7333333358,23.324
1496083036,597.7333333358,21.2803
1496083038,616.9333333358,23.5479
1496083040,612.1333333358,21.3563
1496083042,600.1333333358,21.1195
1496083044,588.1333333358,19.4023
1496083046,607.3333333358,21.0993
1496083048,626.5333333358,21.1514
1496083050,628.9333333358,22.5946
1496083052,614.5333333358,21.8404
1496083054,621.7333333358,24.1386
1496083056,590.5333333358,24.5198
1496083058,602.5333333358,24.0819
1496083060,559.3333333358,25.6289
1496083062,631.3333333358,25.9505
1496083064,590.5333333358,27.3752
1496083066,628.9333333358,27.0004
1496083068,633.7333333358,25.5992
1496083070,681.7333333358,30.3653
1496083072,645.7333333358,28.4978
1496083074,672.1333333358,26.3768
1496083076,628.9333333358,29.7959
1496083078,624.1333333358,29.3561
1496083080,696.1333333358,26.1469
1496083082,710.5333333358,22.6912
1496083084,700.9333333358,24.9955
1496083086,614.5333333358,26.568
1496083088,607.3333333358,28.4858
1496083090,631.3333333358,25.6153
1496083092,621.7333333358,28.6366
1496083094,609.7333333358,29.0092
1496083096,619.3333333358,29.2288
1496083098,607.3333333358,27.832
1496083100,614.5333333358,29.1902
1496083102,604.9333333358,33.1381
1496083104,561.7333333358,35.0448
1496083106,542.5333333358,33.4867
1496083108,544.9333333358,34.118
1496083110,585.7333333358,31.2277
1496083112,528.1333333358,32.6292
1496083114,525.7333333358,30.1682
1496083116,528.1333333358,30.7005
1496083118,554.5333333358,29.5003
1496083120,528.1333333358,26.113
1496083122,556.9333333358,24.5361
1496083124,508.9333333358,27.1975
1496083126,544.9333333358,26.9712
1496083128,518.5333333358,24.9858
1496083130,576.1333333358,24.4034
1496083132,544.9333333358,26.893
1496083134,540.1333333358,26.5039
1496083136,504.1333333358,27.7936
1496083138,494.5333333358,27.4137
1496083140,554.5333333358,26.999
1496083142,552.1333333358,26.2457
1496083144,499.3333333358,29.4145
1496083146,537.7333333358,26.5516
1496083148,547.3333333358,28.3372
1496083150,496.9333333358,25.94
1496083152,484.9333333358,27.4544
1496083154,520.9333333358,26.4583
1496083156,516.1333333358,23.6667
1496083158,516.1333333358,27.07
1496083160,525.7333333358,25.5546
1496083162,511.3333333358,24.6344
1496083164,475.3333333358,26.0745
1496083166,516.1333333358,27.0989
1496083168,489.7333333358,28.3411
1496083170,523.3333333358,29.063
1496083172,528.1333333358,24.5768
1496083174,540.1333333358,23.5358
1496083176,451.3333333358,24.7762
1496083178,508.9333333358,27.5388
1496083180,436.9333333358,26.1631
1496083182,525.7333333358,29.4165
1496083184,554.5333333358,29.8237
1496083186,511.3333333358,22.6073
1496083188,458.5333333358,23.0675
1496083190,472.9333333358,25.9064
1496083192,530.5333333358,26.9568
1496083194,518.5333333358,23.6125
1496083196,530.5333333358,25.0462
1496083198,513.7333333358,25.7801
1496083200,520.9333333358,25.5899
1496083202,444.1333333358,28.5249
1496083204,477.7333333358,30.4469
1496083206,480.1333333358,24.8475
1496083208,518.5333333358,27.3048
1496083210,516.1333333358,28.1266
1496083212,480.1333333358,26.0611
1496083214,496.9333333358,26.1592
1496083216,506.5333333358,29.1643
1496083218,530.5333333358,21.3106
1496083220,489.7333333358,21.5382
1496083222,448.9333333358,16.0832
1496083224,532.9333333358,20.0311
1496083226,448.9333333358,20.8643
1496083228,460.9333333358,22.6146
1496083230,427.3333333358,18.6757
1496083232,463.3333333358,21.5581
1496083234,525.7333333358,22.055
1496083236,528.1333333358,23.6831
1496083238,499.3333333358,25.3689
1496083240,499.3333333358,20.3657
1496083242,463.3333333358,21.5499
1496083244,523.3333333358,18.5691
1496083246,532.9333333358,21.2852
1496083248,540.1333333358,23.3254
1496083250,516.1333333358,25.9062
1496083252,544.9333333358,23.3554
1496083254,552.1333333358,22.7495
1496083256,559.3333333358,22.268
1496083258,595.3333333358,18.5598
1496083260,547.3333333358,13.5452
1496083262,573.7333333358,19.5891
1496083264,578.5333333358,18.8734
1496083266,600.1333333358,16.8971
1496083268,547.3333333358,16.5027
1496083270,585.7333333358,17.5771
1496083272,561.7333333358,21.5448
1496083274,542.5333333358,23.0954
1496083276,600.1333333358,18.7424
1496083278,556.9333333358,19.7948
1496083280,542.5333333358,16.5266
1496083282,540.1333333358,19.1542
1496083284,513.7333333358,23.096
1496083286,559.3333333358,25.4342
1496083288,484.9333333358,24.9406
1496083290,513.7333333358,23.0289
1496083292,537.7333333358,21.236
1496083294,568.9333333358,20.8145
1496083296,516.1333333358,18.8303
1496083298,489.7333333358,20.1159
1496083300,535.3333333358,19.972
1496083302,528.1333333358,23.3387
1496083304,516.1333333358,22.0799
1496083306,528.1333333358,19.5738
1496083308,528.1333333358,23.3052
1496083310,475.3333333358,19.6324
1496083312,446.5333333358,20.002
1496083314,535.3333333358,20.1987
1496083316,530.5333333358,17.3517
1496083318,508.9333333358,20.3852
1496083320,518.5333333358,22.2496
1496083322,405.7333333358,20.7463
1496083324,451.3333333358,23.2632
1496083326,492.1333333358,27.2573
1496083328,523.3333333358,24.0869
1496083330,530.5333333358,20.005
1496083332,547.3333333358,22.9825
1496083334,535.3333333358,24.8096
1496083336,456.1333333358,22.221
1496083338,460.9333333358,21.0503
1496083340,489.7333333358,22.4656
1496083342,412.9333333358,24.3083
1496083344,475.3333333358,25.134
1496083346,508.9333333358,23.6085
1496083348,451.3333333358,24.7829
1496083350,468.1333333358,27.0649
1496083352,520.9333333358,24.0104
1496083354,441.7333333358,24.4323
1496083356,513.7333333358,24.042
1496083358,499.3333333358,24.5306
1496083360,513.7333333358,24.824
1496083362,523.3333333358,23.9994
1496083364,492.1333333358,25.3319
1496083366,501.7333333358,26.9959
1496083368,460.9333333358,22.6566
1496083370,501.7333333358,27.6888
1496083372,537.7333333358,29.1141
1496083374,504.1333333358,25.7477
1496083376,542.5333333358,26.3424
1496083378,496.9333333358,25.6105
1496083380,501.7333333358,26.9108
1496083382,460.9333333358,23.3099
1496083384,530.5333333358,18.3295
1496083386,501.7333333358,21.1844
1496083388,532.9333333358,22.5788
1496083390,513.7333333358,22.5335
1496083392,441.7333333358,23.1498
1496083394,472.9333333358,24.0656
1496083396,525.7333333358,20.3457
1496083398,549.7333333358,21.0575
1496083400,484.9333333358,23.9198
1496083402,520.9333333358,24.4711
1496083404,549.7333333358,21.0446
1496083406,508.9333333358,22.8235
1496083408,525.7333333358,24.3126
1496083410,496.9333333358,28.3001
1496083412,518.5333333358,23.1755
1496083414,446.5333333358,20.3366
1496083416,537.7333333358,21.6355
1496083418,535.3333333358,19.8382
1496083420,475.3333333358,25.1522
1496083422,504.1333333358,26.0694
1496083424,472.9333333358,25.4555
1496083426,482.5333333358,23.7728
1496083428,456.1333333358,23.0852
1496083430,499.3333333358,20.6814
1496083432,496.9333333358,17.1742
1496083434,523.3333333358,22.7605
1496083436,544.9333333358,18.3587
1496083438,518.5333333358,18.2774
1496083440,523.3333333358,20.1081
1496083442,537.7333333358,23.1039
1496083444,520.9333333358,23.4602
1496083446,420.1333333358,23.5682
1496083448,528.1333333358,16.9289
1496083450,535.3333333358,14.7204
1496083452,496.9333333358,18.082
1496083454,516.1333333358,14.4683
1496083456,535.3333333358,20.8066
1496083458,544.9333333358,20.4032
1496083460,544.9333333358,24.4136
1496083462,518.5333333358,27.1981
1496083464,516.1333333358,18.3261
1496083466,516.1333333358,19.1872
1496083468,530.5333333358,18.2233
1496083470,528.1333333358,17.4728
1496083472,494.5333333358,19.2503
1496083474,542.5333333358,16.9053
1496083476,518.5333333358,14.0822
1496083478,499.3333333358,12.5885
1496083480,530.5333333358,24.9324
1496083482,530.5333333358,16.5511
1496083484,535.3333333358,16.2786
1496083486,508.9333333358,15.0295
1496083488,501.7333333358,21.3674
1496083490,518.5333333358,20.0646
1496083492,458.5333333358,23.1098
1496083494,530.5333333358,22.7302
1496083496,528.1333333358,23.4579
1496083498,523.3333333358,18.4131
1496083500,535.3333333358,15.0847
1496083502,465.7333333358,19.8299
1496083504,453.7333333358,17.3598
1496083506,477.7333333358,15.1104
1496083508,525.7333333358,15.0253
1496083510,494.5333333358,13.4127
1496083512,501.7333333358,14.3437
1496083514,523.3333333358,16.4628
1496083516,499.3333333358,23.6734
1496083518,520.9333333358,20.652
1496083520,504.1333333358,20.1989
1496083522,525.7333333358,19.0283
1496083524,480.1333333358,20.7551
1496083526,556.9333333358,21.8755
1496083528,465.7333333358,19.4549
1496083530,523.3333333358,19.4525
1496083532,580.9333333358,22.1936
1496083534,540.1333333358,21.5887
1496083536,451.3333333358,19.738
1496083538,494.5333333358,19.3304
1496083540,494.5333333358,18.8983
1496083542,470.5333333358,13.0178
1496083544,501.7333333358,16.9358
1496083546,441.7333333358,18.2677
1496083548,427.3333333358,19.3872
1496083550,458.5333333358,18.7078
1496083552,472.9333333358,19.2647
1496083554,441.7333333358,18.23
1496083556,444.1333333358,19.7706
1496083558,458.5333333358,17.6249
1496083560,472.9333333358,26.8227
1496083562,451.3333333358,21.0881
1496083564,496.9333333358,18.6891
1496083566,482.5333333358,17.9497
1496083568,477.7333333358,22.0758
1496083570,530.5333333358,21.0475
1496083572,458.5333333358,24.8623
1496083574,499.3333333358,21.8766
1496083576,487.3333333358,22.8264
1496083578,520.9333333358,22.4881
1496083580,422.5333333358,20.2162
1496083582,468.1333333358,25.3701
1496083584,501.7333333358,24.6865
1496083586,516.1333333358,20.4265
1496083588,513.7333333358,23.3097
1496083590,429.7333333358,19.429
1496083592,559.3333333358,27.6481
1496083594,523.3333333358,18.1677
1496083596,549.7333333358,22.0254
1496083598,480.1333333358,24.7923
1496083600,441.7333333358,17.8196
1496083602,513.7333333358,19.5882
1496083604,535.3333333358,21.5002
1496083606,523.3333333358,19.0104
1496083608,535.3333333358,26.1573
1496083610,542.5333333358,27.4734
1496083612,494.5333333358,22.3666
1496083614,441.7333333358,23.2925
1496083616,429.7333333358,18.5376
1496083618,525.7333333358,21.9748
1496083620,460.9333333358,15.9046
1496083622,516.1333333358,17.7343
1496083624,441.7333333358,17.3675
1496083626,508.9333333358,22.748
1496083628,506.5333333358,19.0151
1496083630,496.9333333358,22.7673
1496083632,420.1333333358,23.1921
1496083634,496.9333333358,22.3813
1496083636,506.5333333358,23.3899
1496083638,475.3333333358,19.9106
1496083640,381.7333333358,22.152
1496083642,477.7333333358,17.5531
1496083644,415.3333333358,22.9315
1496083646,408.1333333358,18.454
1496083648,470.5333333358,24.0198
1496083650,506.5333333358,23.0001
1496083652,458.5333333358,19.0752
1496083654,446.5333333358,15.0699
1496083656,518.5333333358,24.4126
1496083658,451.3333333358,19.5397
1496083660,482.5333333358,18.4627
1496083662,532.9333333358,18.5553
1496083664,475.3333333358,18.6913
1496083666,470.5333333358,21.1686
1496083668,444.1333333358,20.0896
1496083670,511.3333333358,25.161
1496083672,508.9333333358,18.1131
1496083674,544.9333333358,20.0334
1496083676,561.7333333358,21.7858
1496083678,530.5333333358,20.4491
1496083680,518.5333333358,17.6817
1496083682,590.5333333358,21.3536
1496083684,535.3333333358,23.1043
1496083686,542.5333333358,18.115
1496083688,544.9333333358,21.7458
1496083690,513.7333333358,26.0714
1496083692,544.9333333358,22.2301
1496083694,540.1333333358,23.744
1496083696,559.3333333358,21.5204
1496083698,552.1333333358,24.3673
1496083700,568.9333333358,24.2012
1496083702,588.1333333358,25.0899
1496083704,544.9333333358,22.9593
1496083706,552.1333333358,25.3953
1496083708,561.7333333358,23.7544
1496083710,556.9333333358,25.3285
1496083712,549.7333333358,22.6677
1496083714,549.7333333358,22.056
1496083716,607.3333333358,21.701
1496083718,602.5333333358,21.6872
1496083720,559.3333333358,22.5851
1496083722,559.3333333358,23.769
1496083724,549.7333333358,16.52
1496083726,544.9333333358,21.7549
1496083728,631.3333333358,24.9946
1496083730,592.9333333358,20.6103
1496083732,552.1333333358,25.0425
1496083734,559.3333333358,28.6728
1496083736,566.5333333358,21.7527
1496083738,607.3333333358,21.2278
1496083740,600.1333333358,21.5064
1496083742,607.3333333358,21.6953
1496083744,542.5333333358,24.5778
1496083746,566.5333333358,25.2942
1496083748,576.1333333358,24.8131
1496083750,532.9333333358,24.9089
1496083752,600.1333333358,22.3532
1496083754,559.3333333358,22.9535
1496083756,554.5333333358,23.847
1496083758,583.3333333358,25.1238
1496083760,561.7333333358,24.8672
1496083762,571.3333333358,19.4734
1496083764,506.5333333358,18.8962
1496083766,528.1333333358,20.208
1496083768,592.9333333358,20.8661
1496083770,542.5333333358,18.9842
1496083772,624.1333333358,22.8062
1496083774,518.5333333358,20.5904
1496083776,600.1333333358,23.1609
1496083778,602.5333333358,24.7319
1496083780,590.5333333358,19.4867
1496083782,554.5333333358,19.2434
1496083784,604.9333333358,25.5197
1496083786,537.7333333358,19.9919
1496083788,528.1333333358,15.5694
1496083790,564.1333333358,12.7051
1496083792,595.3333333358,22.7252
1496083794,549.7333333358,24.6493
1496083796,547.3333333358,24.839
1496083798,552.1333333358,23.5029
1496083800,506.5333333358,18.3503
1496083802,518.5333333358,15.258
1496083804,540.1333333358,16.5577
1496083806,484.9333333358,23.1768
1496083808,501.7333333358,22.2999
1496083810,549.7333333358,22.0289
1496083812,513.7333333358,17.2493
1496083814,489.7333333358,12.1518
1496083816,511.3333333358,17.8484
1496083818,508.9333333358,22.3243
1496083820,451.3333333358,19.6488
1496083822,559.3333333358,17.6249
1496083824,516.1333333358,17.1785
1496083826,501.7333333358,25.1429
1496083828,451.3333333358,25.4421
1496083830,511.3333333358,25.9518
1496083832,480.1333333358,19.511
1496083834,477.7333333358,20.2887
1496083836,516.1333333358,19.3638
1496083838,484.9333333358,16.7344
1496083840,504.1333333358,21.4464
1496083842,540.1333333358,17.1306
1496083844,477.7333333358,20.389
1496083846,508.9333333358,19.1616
1496083848,528.1333333358,23.6681
1496083850,532.9333333358,17.9787
1496083852,532.9333333358,15.2181
1496083854,597.7333333358,19.1151
1496083856,528.1333333358,26.1494
1496083858,460.9333333358,19.3628
1496083860,506.5333333358,20.3167
1496083862,525.7333333358,16.6627
1496083864,564.1333333358,18.4513
1496083866,549.7333333358,21.8651
1496083868,559.3333333358,20.1502
1496083870,595.3333333358,18.787
1496083872,624.1333333358,16.9981
1496083874,631.3333333358,15.5877
1496083876,616.9333333358,18.1169
1496083878,650.5333333358,23.3255
1496083880,626.5333333358,25.0366
1496083882,652.9333333358,23.6401
1496083884,628.9333333358,17.9418
1496083886,667.3333333358,16.8562
1496083888,614.5333333358,19.1979
1496083890,609.7333333358,21.1423
1496083892,626.5333333358,18.7197
1496083894,636.1333333358,25.8302
1496083896,561.7333333358,21.8797
1496083898,583.3333333358,24.3586
1496083900,619.3333333358,24.9173
1496083902,609.7333333358,22.3372
1496083904,590.5333333358,18.4041
1496083906,564.1333333358,17.9505
1496083908,597.7333333358,20.6651
1496083910,537.7333333358,22.7787
1496083912,528.1333333358,20.3449
1496083914,554.5333333358,22.1418
1496083916,525.7333333358,23.4585
1496083918,494.5333333358,21.7219
1496083920,564.1333333358,17.5862
1496083922,544.9333333358,21.9943
1496083924,530.5333333358,18.7579
1496083926,549.7333333358,14.8378
1496083928,576.1333333358,6.10739
1496083930,532.9333333358,14.2454
1496083932,544.9333333358,15.9943
1496083934,559.3333333358,23.4961
1496083936,568.9333333358,15.6636
1496083938,542.5333333358,21.9376
1496083940,626.5333333358,10.5475
1496083942,612.1333333358,16.9158
1496083944,621.7333333358,19.3572
1496083946,564.1333333358,22.0008
1496083948,628.9333333358,22.9289
1496083950,564.1333333358,17.428
1496083952,607.3333333358,19.0463
1496083954,559.3333333358,18.7436
1496083956,592.9333333358,20.3765
1496083958,616.9333333358,18.5793
1496083960,597.7333333358,26.4817
1496083962,573.7333333358,22.7281
1496083964,554.5333333358,20.716
1496083966,588.1333333358,23.7232
1496083968,564.1333333358,18.5956
1496083970,530.5333333358,16.4895
1496083972,564.1333333358,20.226
1496083974,535.3333333358,25.5079
1496083976,544.9333333358,16.8235
1496083978,549.7333333358,16.6125
1496083980,573.7333333358,13.1635
1496083982,547.3333333358,18.2393
1496083984,559.3333333358,14.6353
1496083986,549.7333333358,22.0924
1496083988,518.5333333358,19.1804
1496083990,554.5333333358,18.1024
1496083992,568.9333333358,15.2743
1496083994,600.1333333358,21.6963
1496083996,552.1333333358,15.1473
1496083998,590.5333333358,11.3596
1496084000,564.1333333358,13.0735
1496084002,549.7333333358,15.5953
1496084004,523.3333333358,17.8277
1496084006,552.1333333358,21.378
1496084008,528.1333333358,18.1194
1496084010,542.5333333358,17.403
1496084012,537.7333333358,17.5655
1496084014,523.3333333358,20.2645
1496084016,573.7333333358,20.243
1496084018,552.1333333358,18.6832
1496084020,592.9333333358,16.2965
1496084022,580.9333333358,19.0544
1496084024,556.9333333358,18.2355
1496084026,568.9333333358,15.7742
1496084028,568.9333333358,18.8897
1496084030,571.3333333358,20.1141
1496084032,564.1333333358,20.9339
1496084034,549.7333333358,22.7555
1496084036,554.5333333358,19.9555
1496084038,556.9333333358,22.8274
1496084040,547.3333333358,24.4984
1496084042,535.3333333358,23.9445
1496084044,561.7333333358,21.8023
1496084046,525.7333333358,19.934
1496084048,542.5333333358,18.5751
1496084050,595.3333333358,13.6812
1496084052,578.5333333358,12.6207
1496084054,568.9333333358,17.0431
1496084056,564.1333333358,15.3478
1496084058,544.9333333358,19.6312
1496084060,549.7333333358,20.4869
1496084062,552.1333333358,17.2824
1496084064,602.5333333358,18.8209
1496084066,554.5333333358,20.8654
1496084068,561.7333333358,23.8931
1496084070,544.9333333358,19.966
1496084072,571.3333333358,24.6152
1496084074,528.1333333358,18.4963
1496084076,537.7333333358,18.8183
1496084078,595.3333333358,21.1745
1496084080,537.7333333358,26.0856
1496084082,588.1333333358,24.3489
1496084084,576.1333333358,18.9137
1496084086,544.9333333358,17.0851
1496084088,552.1333333358,16.6311
1496084090,578.5333333358,18.6363
1496084092,566.5333333358,22.0927
1496084094,540.1333333358,21.1489
1496084096,561.7333333358,17.4204
1496084098,566.5333333358,15.5115
1496084100,547.3333333358,16.5157
1496084102,535.3333333358,12.8072
1496084104,578.5333333358,15.875
1496084106,571.3333333358,12.7021
1496084108,566.5333333358,13.126
1496084110,544.9333333358,14.7637
1496084112,547.3333333358,13.747
1496084114,528.1333333358,17.3784
1496084116,561.7333333358,15.2729
1496084118,535.3333333358,19.4272
1496084120,532.9333333358,20.1004
1496084122,556.9333333358,21.7377
1496084124,568.9333333358,21.0097
1496084126,482.5333333358,20.0651
1496084128,508.9333333358,20.9658
1496084130,501.7333333358,15.3354
1496084132,494.5333333358,14.0674
1496084134,532.9333333358,10.0995
1496084136,492.1333333358,13.2976
1496084138,537.7333333358,14.4895
1496084140,516.1333333358,15.6725
1496084142,499.3333333358,14.0013
1496084144,544.9333333358,16.9891
1496084146,525.7333333358,18.6647
1496084148,470.5333333358,18.4901
1496084150,585.7333333358,15.7181
1496084152,559.3333333358,15.31
1496084154,556.9333333358,12.6406
1496084156,556.9333333358,17.9385
1496084158,544.9333333358,18.2485
1496084160,559.3333333358,15.1604
1496084162,566.5333333358,18.4062
1496084164,571.3333333358,12.9073
1496084166,535.3333333358,19.0207
1496084168,532.9333333358,17.366
1496084170,542.5333333358,13.987
1496084172,520.9333333358,22.016
1496084174,532.9333333358,20.9126
1496084176,540.1333333358,17.2221
1496084178,532.9333333358,20.7787
1496084180,552.1333333358,15.2512
1496084182,597.7333333358,17.8964
1496084184,549.7333333358,21.9786
1496084186,540.1333333358,17.8818
1496084188,607.3333333358,18.298
1496084190,559.3333333358,23.7601
1496084192,542.5333333358,24.6946
1496084194,580.9333333358,23.3647
1496084196,564.1333333358,21.2585
1496084198,528.1333333358,15.4728
1496084200,542.5333333358,17.534
1496084202,544.9333333358,18.812
1496084204,537.7333333358,20.3347
1496084206,535.3333333358,21.108
1496084208,547.3333333358,21.7246
1496084210,542.5333333358,19.4411
1496084212,530.5333333358,24.6177
1496084214,549.7333333358,27.9564
1496084216,556.9333333358,22.265
1496084218,504.1333333358,22.8465
1496084220,520.9333333358,10.2385
1496084222,506.5333333358,10.0984
1496084224,511.3333333358,25.0401
1496084226,537.7333333358,19.7988
1496084228,542.5333333358,22.8261
1496084230,487.3333333358,22.6477
1496084232,516.1333333358,17.8448
1496084234,523.3333333358,18.3661
1496084236,525.7333333358,21.8703
1496084238,506.5333333358,21.1131
1496084240,496.9333333358,21.2453
1496084242,525.7333333358,19.1385
1496084244,535.3333333358,22.2234
1496084246,564.1333333358,19.5446
1496084248,528.1333333358,19.6705
1496084250,549.7333333358,22.7676
1496084252,544.9333333358,24.4093
1496084254,532.9333333358,26.8445
1496084256,554.5333333358,11.7512
1496084258,552.1333333358,16.5027
1496084260,544.9333333358,17.0184
1496084262,532.9333333358,19.8744
1496084264,508.9333333358,14.1732
1496084266,561.7333333358,17.87
1496084268,530.5333333358,19.7865
1496084270,571.3333333358,17.9568
1496084272,472.9333333358,18.9068
1496084274,540.1333333358,20.196
1496084276,504.1333333358,20.4582
1496084278,540.1333333358,25.5657
1496084280,513.7333333358,21.7
1496084282,552.1333333358,18.3987
1496084284,556.9333333358,18.8014
1496084286,549.7333333358,18.9922
1496084288,525.7333333358,20.2578
1496084290,542.5333333358,15.8468
1496084292,540.1333333358,19.8042
1496084294,528.1333333358,21.5976
1496084296,540.1333333358,15.1666
1496084298,554.5333333358,22.8722
1496084300,528.1333333358,19.9222
1496084302,511.3333333358,20.9129
1496084304,528.1333333358,18.3212
1496084306,482.5333333358,20.5657
1496084308,511.3333333358,19.7726
1496084310,549.7333333358,24.411
1496084312,542.5333333358,18.6519
1496084314,484.9333333358,18.0581
1496084316,487.3333333358,23.3142
1496084318,540.1333333358,23.8606
1496084320,489.7333333358,21.4338
1496084322,528.1333333358,22.0106
1496084324,544.9333333358,19.5984
1496084326,537.7333333358,17.0216
1496084328,544.9333333358,19.4383
1496084330,549.7333333358,15.7752
1496084332,525.7333333358,19.0499
1496084334,494.5333333358,18.1813
1496084336,549.7333333358,17.8357
1496084338,564.1333333358,15.985
1496084340,537.7333333358,16.2609
1496084342,571.3333333358,24.6964
1496084344,571.3333333358,25.5362
1496084346,564.1333333358,26.2103
1496084348,583.3333333358,22.9838
1496084350,566.5333333358,22.5835
1496084352,530.5333333358,21.9083
1496084354,508.9333333358,21.147
1496084356,506.5333333358,21.4768
1496084358,544.9333333358,23.8323
1496084360,542.5333333358,19.285
1496084362,549.7333333358,20.1424
1496084364,506.5333333358,21.0518
1496084366,564.1333333358,20.1595
1496084368,566.5333333358,20.5396
1496084370,544.9333333358,15.6236
1496084372,516.1333333358,19.3099
1496084374,552.1333333358,20.3885
1496084376,520.9333333358,20.841
1496084378,489.7333333358,22.8803
1496084380,530.5333333358,23.5183
1496084382,528.1333333358,24.8914
1496084384,542.5333333358,21.2064
1496084386,532.9333333358,21.3073
1496084388,549.7333333358,21.9757
1496084390,518.5333333358,19.6982
1496084392,532.9333333358,18.0205
1496084394,564.1333333358,18.2266
1496084396,544.9333333358,22.9709
1496084398,564.1333333358,19.0944
1496084400,568.9333333358,17.0122
1496084402,525.7333333358,18.8917
1496084404,549.7333333358,19.3352
1496084406,559.3333333358,21.7025
1496084408,422.5333333358,17.3684
1496084410,374.5333333358,20.4501
1496084412,429.7333333358,21.6199
1496084414,444.1333333358,17.7546
1496084416,444.1333333358,22.6217
1496084418,451.3333333358,18.4661
1496084420,393.7333333358,17.4668
1496084422,384.1333333358,15.8026
1496084424,446.5333333358,20.8253
1496084426,482.5333333358,17.2842
1496084428,446.5333333358,15.0903
1496084430,384.1333333358,20.3594
1496084432,417.7333333358,22.6951
1496084434,417.7333333358,21.1789
1496084436,415.3333333358,18.9749
1496084438,398.5333333358,18.7535
1496084440,391.3333333358,20.5714
1496084442,410.5333333358,21.0607
1496084444,451.3333333358,21.5735
1496084446,379.3333333358,24.4608
1496084448,400.9333333358,25.1711
1496084450,384.1333333358,21.0396
1496084452,410.5333333358,17.9262
1496084454,410.5333333358,18.8086
1496084456,436.9333333358,19.3362
1496084458,388.9333333358,20.3141
1496084460,400.9333333358,19.796
1496084462,403.3333333358,21.226
1496084464,434.5333333358,16.2574
1496084466,400.9333333358,15.3205
1496084468,410.5333333358,17.6977
1496084470,381.7333333358,19.9372
1496084472,393.7333333358,15.5988
1496084474,408.1333333358,17.5799
1496084476,520.9333333358,19.0322
1496084478,463.3333333358,17.7784
1496084480,429.7333333358,18.059
1496084482,465.7333333358,17.0938
1496084484,436.9333333358,19.899
1496084486,410.5333333358,19.4204
1496084490,400.9333333358,22.4304
1496084492,410.5333333358,12.4799
1496084494,384.1333333358,13.5016
1496084496,417.7333333358,17.8191
1496084498,384.1333333358,18.2353
1496084500,417.7333333358,17.0262
1496084502,412.9333333358,18.8676
1496084504,429.7333333358,18.9693
1496084506,451.3333333358,18.1807
1496084508,427.3333333358,19.5705
1496084510,436.9333333358,18.3856
1496084512,408.1333333358,20.6152
1496084514,453.7333333358,17.6542
1496084516,408.1333333358,16.877
1496084518,429.7333333358,12.0687
1496084520,477.7333333358,12.2287
1496084522,412.9333333358,15.4515
1496084524,415.3333333358,15.4779
1496084526,398.5333333358,10.5111
1496084528,434.5333333358,13.0678
1496084530,396.1333333358,17.502
1496084532,386.5333333358,16.2547
1496084534,381.7333333358,16.1534
1496084536,439.3333333358,16.414
1496084538,424.9333333358,15.4182
1496084540,412.9333333358,16.0803
1496084542,393.7333333358,16.2332
1496084544,439.3333333358,16.6456
1496084546,410.5333333358,17.9917
1496084548,422.5333333358,18.9156
1496084550,372.1333333358,17.9647
1496084552,391.3333333358,12.2282
1496084554,434.5333333358,13.0053
1496084556,424.9333333358,16.617
1496084558,386.5333333358,18.1939
1496084560,388.9333333358,19.3157
1496084562,388.9333333358,18.3966
1496084564,376.9333333358,11.685
1496084566,388.9333333358,13.403
1496084568,381.7333333358,14.3736
1496084570,393.7333333358,17.1121
1496084572,403.3333333358,19.8502
1496084574,381.7333333358,16.716
1496084576,405.7333333358,19.986
1496084578,400.9333333358,20.3073
1496084580,429.7333333358,18.0973
1496084582,381.7333333358,21.722
1496084584,436.9333333358,19.0671
1496084586,446.5333333358,16.407
1496084588,415.3333333358,24.5618
1496084590,432.1333333358,19.9051
1496084592,456.1333333358,21.5837
1496084594,463.3333333358,19.7032
1496084596,472.9333333358,25.5029
1496084598,475.3333333358,22.12
1496084600,393.7333333358,27.9011
1496084602,434.5333333358,28.0618
1496084604,424.9333333358,18.5647
1496084606,458.5333333358,21.4975
1496084608,405.7333333358,16.6111
1496084610,463.3333333358,18.4603
1496084612,408.1333333358,21.4537
1496084614,393.7333333358,22.8876
1496084616,441.7333333358,22.2713
1496084618,429.7333333358,20.3004
1496084620,396.1333333358,19.743
1496084622,436.9333333358,17.7391
1496084624,439.3333333358,21.5561
1496084626,415.3333333358,22.4419
1496084628,400.9333333358,21.835
1496084630,456.1333333358,20.9149
1496084632,405.7333333358,18.8943
1496084634,417.7333333358,17.588
1496084636,393.7333333358,14.2046
1496084638,441.7333333358,17.1928
1496084640,456.1333333358,19.431
1496084642,384.1333333358,17.2694
1496084644,472.9333333358,19.9324
1496084646,384.1333333358,17.8847
1496084648,398.5333333358,20.4119
1496084650,422.5333333358,16.5177
1496084652,463.3333333358,23.8229
1496084654,398.5333333358,18.8976
1496084656,420.1333333358,19.8537
1496084658,439.3333333358,20.0753
1496084660,412.9333333358,16.3988
1496084662,465.7333333358,18.8331
1496084664,422.5333333358,18.7296
1496084666,417.7333333358,18.8014
1496084668,405.7333333358,16.1432
1496084670,432.1333333358,17.9837
1496084672,422.5333333358,16.0287
1496084674,403.3333333358,19.9718
1496084676,434.5333333358,19.2184
1496084678,403.3333333358,16.3414
1496084680,446.5333333358,20.6842
1496084682,410.5333333358,17.0679
1496084684,412.9333333358,14.3117
1496084686,420.1333333358,17.7585
1496084688,441.7333333358,15.3136
1496084690,436.9333333358,14.3322
1496084692,393.7333333358,15.0788
1496084694,391.3333333358,15.4022
1496084696,427.3333333358,19.0635
1496084698,398.5333333358,17.6348
1496084700,393.7333333358,17.3621
1496084702,448.9333333358,18.6946
1496084704,403.3333333358,15.2095
1496084706,458.5333333358,15.8893
1496084708,429.7333333358,16.3726
1496084710,398.5333333358,14.2205
1496084712,405.7333333358,8.80592
1496084714,468.1333333358,17.9332
1496084716,453.7333333358,11.1396
1496084718,379.3333333358,13.4373
1496084720,422.5333333358,13.3682
1496084722,398.5333333358,20.7874
1496084724,412.9333333358,18.4212
1496084726,434.5333333358,10.1392
1496084728,410.5333333358,11.9477
1496084730,405.7333333358,13.4517
1496084732,412.9333333358,11.3665
1496084734,489.7333333358,19.2081
1496084736,384.1333333358,16.769
1496084738,405.7333333358,14.8873
1496084740,420.1333333358,19.6895
1496084742,384.1333333358,21.6526
1496084744,379.3333333358,17.3279
1496084746,405.7333333358,20.0691
1496084748,415.3333333358,20.7799
1496084750,381.7333333358,19.2003
1496084752,340.9333333358,20.0716
1496084754,403.3333333358,20.4246
1496084756,388.9333333358,19.5791
1496084758,427.3333333358,21.0982
1496084760,412.9333333358,20.3908
1496084762,422.5333333358,22.3325
1496084764,410.5333333358,20.7042
1496084766,410.5333333358,17.6519
1496084768,405.7333333358,18.1742
1496084770,444.1333333358,16.8563
1496084772,439.3333333358,16.8971
1496084774,403.3333333358,21.9649
1496084776,403.3333333358,19.2174
1496084778,417.7333333358,23.1288
1496084780,444.1333333358,15.9692
1496084782,384.1333333358,20.3414
1496084784,432.1333333358,19.6343
1496084786,436.9333333358,23.1043
1496084788,369.7333333358,21.6475
1496084790,379.3333333358,20.6355
1496084792,376.9333333358,19.1994
1496084794,388.9333333358,21.4291
1496084796,369.7333333358,19.7369
1496084798,403.3333333358,23.9743
1496084800,384.1333333358,21.4767
1496084802,355.3333333358,19.1675
1496084804,388.9333333358,20.8089
1496084806,424.9333333358,20.6914
1496084808,388.9333333358,20.3097
1496084810,398.5333333358,22.2932
1496084812,398.5333333358,24.9275
1496084814,513.7333333358,29.1675
1496084816,424.9333333358,24.8247
1496084818,441.7333333358,20.2993
1496084820,480.1333333358,22.4184
1496084822,376.9333333358,21.0911
1496084824,403.3333333358,17.5785
1496084826,420.1333333358,17.1216
1496084828,439.3333333358,14.0821
1496084830,400.9333333358,20.0859
1496084832,420.1333333358,22.124
1496084834,432.1333333358,22.5476
1496084836,424.9333333358,22.886
1496084838,412.9333333358,23.88
1496084840,439.3333333358,24.6233
1496084842,448.9333333358,19.7987
1496084844,408.1333333358,20.387
1496084846,475.3333333358,22.6095
1496084848,472.9333333358,19.4727
1496084850,417.7333333358,22.9162
1496084852,444.1333333358,24.8496
1496084854,451.3333333358,22.9838
1496084856,410.5333333358,22.2159
1496084858,460.9333333358,21.1095
1496084860,477.7333333358,19.0698
1496084862,417.7333333358,18.7189
1496084864,393.7333333358,20.218
1496084866,415.3333333358,20.9549
1496084868,408.1333333358,23.9748
1496084870,400.9333333358,25.0645
1496084872,410.5333333358,25.5351
1496084874,453.7333333358,26.5519
1496084876,465.7333333358,25.0161
1496084878,408.1333333358,21.7366
1496084880,403.3333333358,25.2936
1496084882,388.9333333358,19.9744
1496084884,410.5333333358,17.7497
1496084886,405.7333333358,23.4099
1496084888,400.9333333358,19.2146
1496084890,364.9333333358,18.7547
1496084892,398.5333333358,14.1572
1496084894,434.5333333358,18.4037
1496084896,412.9333333358,23.9804
1496084898,458.5333333358,20.8889
1496084900,412.9333333358,23.4047
1496084902,400.9333333358,17.8716
1496084904,393.7333333358,19.0855
1496084906,400.9333333358,19.1249
1496084908,398.5333333358,17.0564
1496084910,415.3333333358,18.5193
1496084912,398.5333333358,16.28
1496084914,345.7333333358,14.6131
1496084916,336.1333333358,17.6606
1496084918,386.5333333358,17.2765
1496084920,381.7333333358,17.7586
1496084922,408.1333333358,23.2347
1496084924,417.7333333358,19.0758
1496084926,422.5333333358,18.6402
1496084928,379.3333333358,18.0706
1496084930,393.7333333358,18.1305
1496084932,367.3333333358,18.3677
1496084934,393.7333333358,17.9559
1496084936,372.1333333358,20.4415
1496084938,372.1333333358,22.1011
1496084940,388.9333333358,23.9882
1496084942,427.3333333358,18.3151
1496084944,393.7333333358,17.0823
1496084946,386.5333333358,21.5121
1496084948,415.3333333358,19.316
1496084950,415.3333333358,19.1116
1496084952,398.5333333358,20.4093
1496084954,388.9333333358,20.9857
1496084956,410.5333333358,18.4037
1496084958,415.3333333358,19.9659
1496084960,400.9333333358,19.9711
1496084962,444.1333333358,19.347
1496084964,391.3333333358,18.2209
1496084966,388.9333333358,23.7338
1496084968,412.9333333358,23.3745
1496084970,376.9333333358,22.2594
1496084972,388.9333333358,23.4006
1496084974,400.9333333358,23.5484
1496084976,434.5333333358,22.6794
1496084978,396.1333333358,20.1504
1496084980,408.1333333358,18.1704
1496084982,391.3333333358,20.4493
1496084984,410.5333333358,18.5151
1496084986,376.9333333358,20.2696
1496084988,388.9333333358,24.5628
1496084990,386.5333333358,22.1453
1496084992,381.7333333358,21.4933
1496084994,398.5333333358,16.832
1496084996,393.7333333358,20.649
1496084998,381.7333333358,18.9919
1496085000,376.9333333358,21.7376
1496085002,369.7333333358,19.1499
1496085004,386.5333333358,17.6367
1496085006,369.7333333358,17.8286
1496085008,372.1333333358,16.8624
1496085010,420.1333333358,21.3711
1496085012,396.1333333358,23.7292
1496085014,381.7333333358,20.0789
1496085016,357.7333333358,19.886
1496085018,386.5333333358,18.1287
1496085020,369.7333333358,22.1222
1496085022,372.1333333358,19.7755
1496085024,376.9333333358,19.4942
1496085026,381.7333333358,21.8719
1496085028,360.1333333358,22.4621
1496085030,360.1333333358,19.5637
1496085032,388.9333333358,21.1171
1496085034,376.9333333358,16.6279
1496085036,345.7333333358,20.4145
1496085038,369.7333333358,18.8179
1496085040,307.3333333358,22.943
1496085042,362.5333333358,20.9415
1496085044,360.1333333358,20.8046
1496085046,348.1333333358,19.0171
1496085048,357.7333333358,19.2413
1496085050,384.1333333358,18.4091
1496085052,376.9333333358,19.6272
1496085054,386.5333333358,18.0467
1496085056,355.3333333358,22.1179
1496085058,386.5333333358,22.1657
1496085060,381.7333333358,18.3356
1496085062,412.9333333358,24.1794
1496085064,427.3333333358,17.9473
1496085066,482.5333333358,22.1944
1496085068,398.5333333358,23.4844
1496085070,379.3333333358,18.0141
1496085072,427.3333333358,20.7769
1496085074,417.7333333358,19.6352
1496085076,328.9333333358,21.6797
1496085078,405.7333333358,20.7168
1496085080,391.3333333358,20.7277
1496085082,364.9333333358,24.381
1496085084,376.9333333358,20.3414
1496085086,386.5333333358,27.4257
1496085088,386.5333333358,19.3615
1496085090,384.1333333358,19.2738
1496085092,367.3333333358,21.658
1496085094,364.9333333358,21.3345
1496085096,381.7333333358,20.4188
1496085098,348.1333333358,20.5415
1496085100,384.1333333358,23.4124
1496085102,343.3333333358,19.4358
1496085104,343.3333333358,20.5014
1496085106,376.9333333358,24.0238
1496085108,367.3333333358,24.8023
1496085110,388.9333333358,21.4401
1496085112,391.3333333358,26.2254
1496085114,396.1333333358,25.6307
1496085116,362.5333333358,26.2936
1496085118,393.7333333358,26.9697
1496085120,400.9333333358,25.6236
1496085122,304.9333333358,21.6148
1496085124,328.9333333358,22.6385
1496085126,345.7333333358,24.6637
1496085128,357.7333333358,24.3076
1496085130,352.9333333358,24.8516
1496085132,331.3333333358,25.9053
1496085134,379.3333333358,25.1649
1496085136,374.5333333358,24.4494
1496085138,367.3333333358,25.1497
1496085140,379.3333333358,20.9609
1496085142,384.1333333358,24.7681
1496085144,348.1333333358,29.4769
1496085146,352.9333333358,23.993
1496085148,403.3333333358,20.5013
1496085150,352.9333333358,22.8237
1496085152,338.5333333358,15.3072
1496085154,362.5333333358,19.536
1496085156,357.7333333358,21.7935
1496085158,307.3333333358,17.7625
1496085160,360.1333333358,20.5655
1496085162,345.7333333358,17.9794
1496085164,362.5333333358,23.4137
1496085166,367.3333333358,19.8093
1496085168,357.7333333358,18.6867
1496085170,362.5333333358,12.8735
1496085172,352.9333333358,18.6769
1496085174,316.9333333358,18.4712
1496085176,362.5333333358,20.976
1496085178,312.1333333358,14.79
1496085180,384.1333333358,17.8224
1496085182,379.3333333358,20.8965
1496085184,388.9333333358,21.244
1496085186,398.5333333358,19.5044
1496085188,364.9333333358,16.3172
1496085190,355.3333333358,22.2083
1496085192,350.5333333358,16.7453
1496085194,350.5333333358,20.2156
1496085196,400.9333333358,19.1049
1496085198,304.9333333358,22.0321
1496085200,355.3333333358,22.272
1496085202,379.3333333358,22.9263
1496085204,372.1333333358,25.4104
1496085206,324.1333333358,21.7758
1496085208,384.1333333358,15.5987
1496085210,364.9333333358,19.6606
1496085212,333.7333333358,20.6806
1496085214,379.3333333358,22.0185
1496085216,381.7333333358,19.0341
1496085218,372.1333333358,20.3291
1496085220,343.3333333358,16.9448
1496085222,297.7333333358,17.7468
1496085224,343.3333333358,19.5036
1496085226,350.5333333358,18.6674
1496085228,355.3333333358,17.8649
1496085230,357.7333333358,18.2795
1496085232,372.1333333358,17.2201
1496085234,410.5333333358,17.6017
1496085236,319.3333333358,18.2786
1496085238,350.5333333358,21.8456
1496085240,340.9333333358,21.1544
1496085242,360.1333333358,19.8149
1496085244,415.3333333358,18.619
1496085246,403.3333333358,16.0352
1496085248,391.3333333358,21.3559
1496085250,424.9333333358,19.1031
1496085252,400.9333333358,12.2712
1496085254,420.1333333358,20.1286
1496085256,484.9333333358,20.0475
1496085258,384.1333333358,16.8923
1496085260,393.7333333358,18.9918
1496085262,405.7333333358,17.0767
1496085264,393.7333333358,21.0258
1496085266,408.1333333358,19.6991
1496085268,384.1333333358,15.3258
1496085270,494.5333333358,17.0687
1496085272,441.7333333358,17.9543
1496085274,432.1333333358,16.897
1496085276,487.3333333358,16.4827
1496085278,496.9333333358,18.4945
1496085280,388.9333333358,19.662
1496085282,475.3333333358,24.7507
1496085284,465.7333333358,18.6836
1496085286,436.9333333358,17.4732
1496085288,405.7333333358,16.9367
1496085290,472.9333333358,15.4992
1496085292,408.1333333358,18.173
1496085294,436.9333333358,14.3358
1496085296,403.3333333358,17.0617
1496085298,458.5333333358,19.8419
1496085300,415.3333333358,19.7475
1496085302,420.1333333358,20.8547
1496085304,410.5333333358,17.5159
1496085306,405.7333333358,15.8889
1496085308,386.5333333358,22.6676
1496085310,412.9333333358,25.6756
1496085312,420.1333333358,23.6368
1496085314,444.1333333358,22.9372
1496085316,436.9333333358,23.4599
1496085318,436.9333333358,17.587
1496085320,388.9333333358,21.2276
1496085322,436.9333333358,21.1027
1496085324,482.5333333358,14.9199
1496085326,451.3333333358,24.0462
1496085328,415.3333333358,20.9418
1496085330,429.7333333358,15.4426
1496085332,398.5333333358,21.1947
1496085334,391.3333333358,15.499
1496085336,415.3333333358,24.7927
1496085338,391.3333333358,22.1786
1496085340,355.3333333358,26.8463
1496085342,386.5333333358,18.6304
1496085344,374.5333333358,21.1412
1496085346,403.3333333358,19.1648
1496085348,405.7333333358,21.9594
1496085350,415.3333333358,23.6541
1496085352,393.7333333358,25.749
1496085354,384.1333333358,19.9493
1496085356,412.9333333358,21.9127
1496085358,393.7333333358,21.563
1496085360,410.5333333358,23.9698
1496085362,364.9333333358,23.1436
1496085364,374.5333333358,21.452
1496085366,362.5333333358,23.3288
1496085368,379.3333333358,18.8357
1496085370,458.5333333358,19.6103
1496085372,396.1333333358,23.0662
1496085374,424.9333333358,27.5993
1496085376,436.9333333358,20.4458
1496085378,523.3333333358,14.6991
1496085380,463.3333333358,18.8753
1496085382,465.7333333358,21.0597
1496085384,484.9333333358,22.6388
1496085386,523.3333333358,19.5992
1496085388,525.7333333358,19.874
1496085390,468.1333333358,18.4163
1496085392,436.9333333358,20.6914
1496085394,465.7333333358,21.4659
1496085396,525.7333333358,16.223
1496085398,439.3333333358,15.2536
1496085400,465.7333333358,19.65
1496085402,504.1333333358,18.9904
1496085404,463.3333333358,18.1518
1496085406,446.5333333358,17.5891
1496085408,424.9333333358,22.033
1496085410,444.1333333358,23.6614
1496085412,451.3333333358,18.7384
1496085414,458.5333333358,20.8603
1496085416,432.1333333358,15.777
1496085418,446.5333333358,13.0127
1496085420,496.9333333358,11.9324
1496085422,429.7333333358,11.1855
1496085424,444.1333333358,16.4501
1496085426,460.9333333358,16.8019
1496085428,523.3333333358,17.2382
1496085430,424.9333333358,16.1599
1496085432,417.7333333358,17.5337
1496085434,446.5333333358,16.3859
1496085436,393.7333333358,17.6192
1496085438,396.1333333358,22.1323
1496085440,480.1333333358,13.0593
1496085442,439.3333333358,21.9438
1496085444,396.1333333358,21.8346
1496085446,446.5333333358,18.4348
1496085448,412.9333333358,24.2357
1496085450,412.9333333358,19.6182
1496085452,417.7333333358,21.1202
1496085454,446.5333333358,22.2895
1496085456,427.3333333358,21.4168
1496085458,441.7333333358,17.3062
1496085460,388.9333333358,23.1771
1496085462,432.1333333358,21.5717
1496085464,417.7333333358,20.8035
1496085466,429.7333333358,23.7224
1496085468,403.3333333358,22.0672
1496085470,369.7333333358,21.0783
1496085472,420.1333333358,17.227
1496085474,408.1333333358,23.3868
1496085476,391.3333333358,21.1003
1496085478,391.3333333358,20.5768
1496085480,386.5333333358,17.934
1496085482,388.9333333358,17.1735
1496085484,379.3333333358,13.3117
1496085486,388.9333333358,20.0076
1496085488,372.1333333358,21.6573
1496085490,379.3333333358,19.6677
1496085492,376.9333333358,21.6905
1496085494,417.7333333358,18.7642
1496085496,376.9333333358,19.3531
1496085498,379.3333333358,20.2331
1496085500,391.3333333358,19.8087
1496085502,405.7333333358,17.3859
1496085504,396.1333333358,21.0338
1496085506,367.3333333358,19.7666
1496085508,372.1333333358,18.6337
1496085510,372.1333333358,18.9071
1496085512,374.5333333358,21.6386
1496085514,386.5333333358,17.7887
1496085516,384.1333333358,16.1083
1496085518,362.5333333358,16.0839
1496085520,345.7333333358,21.1503
1496085522,312.1333333358,21.1097
1496085524,398.5333333358,20.6014
1496085526,367.3333333358,17.3917
1496085528,376.9333333358,21.2364
1496085530,403.3333333358,18.9987
1496085532,374.5333333358,26.0675
1496085534,376.9333333358,18.5941
1496085536,405.7333333358,22.2354
1496085538,388.9333333358,22.1698
1496085540,374.5333333358,20.1732
1496085542,420.1333333358,20.9643
1496085544,376.9333333358,19.9508
1496085546,362.5333333358,21.4142
1496085548,364.9333333358,22.9877
1496085550,410.5333333358,21.2386
1496085552,403.3333333358,20.7581
1496085554,374.5333333358,21.9572
1496085556,408.1333333358,19.4166
1496085558,453.7333333358,18.4647
1496085560,367.3333333358,23.2575
1496085562,374.5333333358,20.9314
1496085564,355.3333333358,23.0942
1496085566,400.9333333358,21.7032
1496085568,388.9333333358,22.3442
1496085570,400.9333333358,19.5526
1496085572,362.5333333358,21.8985
1496085574,350.5333333358,16.1981
1496085576,381.7333333358,20.7933
1496085578,369.7333333358,19.7458
1496085580,396.1333333358,19.6575
1496085582,396.1333333358,21.4644
1496085584,364.9333333358,20.2126
1496085586,333.7333333358,20.5347
1496085588,367.3333333358,23.155
1496085590,352.9333333358,23.3722
1496085592,273.7333333358,20.5501
1496085594,345.7333333358,22.5404
1496085596,369.7333333358,20.86
1496085598,345.7333333358,21.8243
1496085600,357.7333333358,13.8218
1496085602,379.3333333358,19.1083
1496085604,374.5333333358,19.4293
1496085606,376.9333333358,20.3019
1496085608,400.9333333358,19.7353
1496085610,336.1333333358,20.7676
1496085612,319.3333333358,21.0615
1496085614,364.9333333358,25.1556
1496085616,369.7333333358,19.9384
1496085618,340.9333333358,17.8378
1496085620,364.9333333358,18.5659
1496085622,372.1333333358,21.1285
1496085624,326.5333333358,22.5268
1496085626,362.5333333358,18.532
1496085628,357.7333333358,14.0201
1496085630,376.9333333358,15.3403
1496085632,427.3333333358,17.4834
1496085634,379.3333333358,17.1903
1496085636,340.9333333358,20.1221
1496085638,420.1333333358,16.9287
1496085640,391.3333333358,18.3909
1496085642,379.3333333358,20.302
1496085644,391.3333333358,22.1012
1496085646,424.9333333358,20.1282
1496085648,403.3333333358,24.1419
1496085650,436.9333333358,24.5084
1496085652,410.5333333358,18.4559
1496085654,436.9333333358,14.3981
1496085656,451.3333333358,23.1417
1496085658,451.3333333358,18.8128
1496085660,441.7333333358,21.1436
1496085662,398.5333333358,22.1008
1496085664,415.3333333358,19.7774
1496085666,403.3333333358,24.4235
1496085668,420.1333333358,25.2403
1496085670,480.1333333358,23.5756
1496085672,405.7333333358,21.0939
1496085674,412.9333333358,19.9159
1496085676,398.5333333358,20.9202
1496085678,420.1333333358,18.4791
1496085680,484.9333333358,21.7932
1496085682,439.3333333358,20.1868
1496085684,400.9333333358,17.844
1496085686,444.1333333358,15.3578
1496085688,393.7333333358,15.7997
1496085690,441.7333333358,18.2182
1496085692,398.5333333358,16.2172
1496085694,427.3333333358,20.4642
1496085696,405.7333333358,16.5334
1496085698,388.9333333358,17.8458
1496085700,352.9333333358,15.1758
1496085702,398.5333333358,14.6654
1496085704,388.9333333358,15.8553
1496085706,374.5333333358,16.2368
1496085708,412.9333333358,17.9854
1496085710,391.3333333358,14.3424
1496085712,398.5333333358,18.4867
1496085714,374.5333333358,17.3414
1496085716,398.5333333358,17.9294
1496085718,398.5333333358,18.4811
1496085720,398.5333333358,22.8049
1496085722,422.5333333358,17.4321
1496085724,379.3333333358,17.4728
1496085726,386.5333333358,23.1248
1496085728,441.7333333358,15.9675
1496085730,410.5333333358,17.7259
1496085732,386.5333333358,14.832
1496085734,398.5333333358,14.2911
1496085736,427.3333333358,15.821
1496085738,391.3333333358,19.3764
1496085740,420.1333333358,24.3026
1496085742,408.1333333358,22.7436
1496085744,396.1333333358,19.8424
1496085746,415.3333333358,14.9096
1496085748,494.5333333358,18.2526
1496085750,391.3333333358,20.4383
1496085752,463.3333333358,19.0464
1496085754,489.7333333358,17.9678
1496085756,410.5333333358,19.4656
1496085758,422.5333333358,19.8258
1496085760,530.5333333358,19.5415
1496085762,460.9333333358,20.064
1496085764,453.7333333358,19.1288
1496085766,482.5333333358,21.0931
1496085768,465.7333333358,18.5985
1496085770,451.3333333358,19.4173
1496085772,506.5333333358,20.6707
1496085774,494.5333333358,20.9089
1496085776,470.5333333358,20.9621
1496085778,506.5333333358,19.3859
1496085780,537.7333333358,23.6458
1496085782,506.5333333358,22.7351
1496085784,513.7333333358,22.2391
1496085786,494.5333333358,25.9795
1496085788,487.3333333358,21.5163
1496085790,508.9333333358,22.7594
1496085792,516.1333333358,21.7871
1496085794,480.1333333358,23.6818
1496085796,499.3333333358,25.0318
1496085798,518.5333333358,22.9208
1496085800,518.5333333358,20.4305
1496085802,552.1333333358,23.1913
1496085804,564.1333333358,19.9603
1496085806,554.5333333358,19.9222
1496085808,549.7333333358,19.3918
1496085810,544.9333333358,22.0552
1496085812,607.3333333358,24.837
1496085814,537.7333333358,20.0264
1496085816,540.1333333358,20.146
1496085818,576.1333333358,21.2884
1496085820,585.7333333358,15.9651
1496085822,595.3333333358,20.4878
1496085824,604.9333333358,15.7247
1496085826,552.1333333358,18.5121
1496085828,566.5333333358,22.0281
1496085830,535.3333333358,18.8443
1496085832,544.9333333358,22.8242
1496085834,535.3333333358,18.3974
1496085836,504.1333333358,21.8226
1496085838,477.7333333358,18.3298
1496085840,458.5333333358,21.0532
1496085842,489.7333333358,21.7072
1496085844,482.5333333358,14.7725
1496085846,518.5333333358,17.2265
1496085848,542.5333333358,20.8458
1496085850,528.1333333358,18.5618
1496085852,535.3333333358,22.2353
1496085854,516.1333333358,18.4426
1496085856,489.7333333358,21.4062
1496085858,501.7333333358,20.8274
1496085860,463.3333333358,18.305
1496085862,530.5333333358,19.5838
1496085864,429.7333333358,20.8581
1496085866,470.5333333358,13.1402
1496085868,499.3333333358,9.58463
1496085870,448.9333333358,13.6744
1496085872,482.5333333358,14.0728
1496085874,516.1333333358,14.4191
1496085876,448.9333333358,14.9063
1496085878,432.1333333358,16.0794
1496085880,477.7333333358,18.8374
1496085882,492.1333333358,18.0793
1496085884,403.3333333358,20.9954
1496085886,504.1333333358,19.5531
1496085888,523.3333333358,15.9317
1496085890,460.9333333358,12.4802
1496085892,530.5333333358,11.4844
1496085894,544.9333333358,19.5188
1496085896,477.7333333358,13.5928
1496085898,504.1333333358,13.9979
1496085900,552.1333333358,17.3285
1496085902,571.3333333358,16.7045
1496085904,564.1333333358,17.3474
1496085906,564.1333333358,15.4641
1496085908,595.3333333358,16.1936
1496085910,549.7333333358,15.0002
1496085912,619.3333333358,15.2434
1496085914,564.1333333358,18.138
1496085916,612.1333333358,16.6055
1496085918,619.3333333358,19.1177
1496085920,566.5333333358,15.4594
1496085922,602.5333333358,16.5494
1496085924,631.3333333358,14.2803
1496085926,580.9333333358,14.3582
1496085928,621.7333333358,17.4984
1496085930,585.7333333358,20.396
1496085932,554.5333333358,19.9972
1496085934,571.3333333358,17.5416
1496085936,559.3333333358,16.1818
1496085938,547.3333333358,14.5386
1496085940,513.7333333358,12.3089
1496085942,552.1333333358,14.3444
1496085944,494.5333333358,15.36
1496085946,532.9333333358,14.4572
1496085948,504.1333333358,16.2676
1496085950,496.9333333358,15.2357
1496085952,422.5333333358,13.5762
1496085954,544.9333333358,21.0431
1496085956,482.5333333358,23.9435
1496085958,496.9333333358,22.9352
1496085960,475.3333333358,21.2567
1496085962,511.3333333358,25.2287
1496085964,513.7333333358,21.0042
1496085966,506.5333333358,18.1848
1496085968,456.1333333358,21.8645
1496085970,506.5333333358,17.0765
1496085972,528.1333333358,16.1275
1496085974,444.1333333358,15.7927
1496085976,518.5333333358,18.6572
1496085978,494.5333333358,21.788
1496085980,484.9333333358,15.8131
1496085982,412.9333333358,19.9205
1496085984,458.5333333358,17.8576
1496085986,492.1333333358,20.6608
1496085988,424.9333333358,20.0808
1496085990,520.9333333358,19.655
1496085992,480.1333333358,22.2824
1496085994,458.5333333358,20.1794
1496085996,434.5333333358,22.7228
1496085998,432.1333333358,19.261
1496086000,494.5333333358,22.5577
1496086002,453.7333333358,14.459
1496086004,439.3333333358,20.7887
1496086006,424.9333333358,23.6121
1496086008,492.1333333358,20.7122
1496086010,494.5333333358,22.2755
1496086012,496.9333333358,17.5736
1496086014,520.9333333358,20.431
1496086016,542.5333333358,17.3802
1496086018,595.3333333358,15.8226
1496086020,580.9333333358,17.5089
1496086022,597.7333333358,16.3251
1496086024,544.9333333358,16.5132
1496086026,564.1333333358,19.2372
1496086028,549.7333333358,26.4379
1496086030,504.1333333358,24.7478
1496086032,530.5333333358,26.451
1496086034,556.9333333358,24.7154
1496086036,549.7333333358,19.1882
1496086038,544.9333333358,21.7845
1496086040,597.7333333358,24.958
1496086042,549.7333333358,19.9374
1496086044,571.3333333358,21.3879
1496086046,544.9333333358,20.4872
1496086048,592.9333333358,25.6189
1496086050,583.3333333358,23.1164
1496086052,626.5333333358,22.5673
1496086054,540.1333333358,22.4097
1496086056,614.5333333358,21.2788
1496086058,602.5333333358,21.3464
1496086060,616.9333333358,25.393
1496086062,607.3333333358,25.6965
1496086064,590.5333333358,24.7464
1496086066,571.3333333358,22.2045
1496086068,588.1333333358,22.3401
1496086070,583.3333333358,23.7035
1496086072,530.5333333358,20.757
1496086074,530.5333333358,23.3436
1496086076,540.1333333358,23.0929
1496086078,516.1333333358,22.3048
1496086080,542.5333333358,25.2304
1496086082,520.9333333358,24.2529
1496086084,523.3333333358,21.8783
1496086086,508.9333333358,24.1694
1496086088,554.5333333358,21.8856
1496086090,542.5333333358,19.8777
1496086092,475.3333333358,21.7051
1496086094,494.5333333358,23.5547
1496086096,458.5333333358,22.2808
1496086098,518.5333333358,24.9929
1496086100,513.7333333358,25.4262
1496086102,523.3333333358,24.7433
1496086104,468.1333333358,22.911
1496086106,475.3333333358,17.5498
1496086108,465.7333333358,25.3456
1496086110,448.9333333358,21.7702
1496086112,475.3333333358,26.4986
1496086114,396.1333333358,17.5385
1496086116,451.3333333358,20.8774
1496086118,448.9333333358,19.3694
1496086120,424.9333333358,22.3904
1496086122,494.5333333358,21.875
1496086124,513.7333333358,23.5735
1496086126,400.9333333358,24.4118
1496086128,475.3333333358,24.5016
1496086130,504.1333333358,24.7784
1496086132,398.5333333358,28.2643
1496086134,499.3333333358,29.6645
1496086136,484.9333333358,24.3998
1496086138,465.7333333358,26.0917
1496086140,477.7333333358,23.9074
1496086142,482.5333333358,16.8182
1496086144,436.9333333358,20.4219
1496086146,528.1333333358,23.033
1496086148,540.1333333358,21.6483
1496086150,456.1333333358,19.9819
1496086152,489.7333333358,20.1476
1496086154,472.9333333358,15.5233
1496086156,453.7333333358,17.4061
1496086158,513.7333333358,20.0971
1496086160,475.3333333358,23.8762
1496086162,439.3333333358,21.0252
1496086164,436.9333333358,22.2757
1496086166,446.5333333358,20.9773
1496086168,405.7333333358,22.2157
1496086170,472.9333333358,21.8546
1496086172,427.3333333358,24.9306
1496086174,415.3333333358,28.301
1496086176,460.9333333358,24.4642
1496086178,477.7333333358,28.2972
1496086180,434.5333333358,18.3739
1496086182,405.7333333358,15.1811
1496086184,492.1333333358,17.5722
1496086186,504.1333333358,22.0062
1496086188,530.5333333358,12.5675
1496086190,504.1333333358,16.1552
1496086192,501.7333333358,21.2843
1496086194,532.9333333358,21.5215
1496086196,532.9333333358,20.2206
1496086198,540.1333333358,20.8948
1496086200,508.9333333358,18.2947
1496086202,458.5333333358,25.7282
1496086204,518.5333333358,22.2832
1496086206,525.7333333358,19.8995
1496086208,523.3333333358,23.1896
1496086210,398.5333333358,23.139
1496086212,472.9333333358,18.6341
1496086214,460.9333333358,21.6781
1496086216,456.1333333358,19.8353
1496086218,441.7333333358,24.0605
1496086220,499.3333333358,24.3998
1496086222,429.7333333358,23.4421
1496086224,475.3333333358,24.6008
1496086226,432.1333333358,24.2114
1496086228,492.1333333358,25.4833
1496086230,436.9333333358,16.0207
1496086232,470.5333333358,19.9029
1496086234,417.7333333358,23.0251
1496086236,422.5333333358,22.5461
1496086238,446.5333333358,27.1668
1496086240,482.5333333358,22.57
1496086242,410.5333333358,22.0721
1496086244,403.3333333358,21.8441
1496086246,439.3333333358,20.3471
1496086248,408.1333333358,17.1206
1496086250,436.9333333358,14.334
1496086252,415.3333333358,22.0638
1496086254,364.9333333358,24.2244
1496086256,420.1333333358,18.7521
1496086258,422.5333333358,14.3691
1496086260,381.7333333358,13.279
1496086262,379.3333333358,14.8303
1496086264,441.7333333358,14.8331
1496086266,388.9333333358,20.9943
1496086268,405.7333333358,20.1613
1496086270,412.9333333358,19.8146
1496086272,403.3333333358,16.692
1496086274,412.9333333358,18.8363
1496086276,448.9333333358,21.4945
1496086278,448.9333333358,24.9733
1496086280,528.1333333358,22.5032
1496086282,487.3333333358,21.4638
1496086284,463.3333333358,20.1832
1496086286,439.3333333358,18.0503
1496086288,472.9333333358,17.2369
1496086290,506.5333333358,24.1521
1496086292,480.1333333358,28.59
1496086294,499.3333333358,29.3291
1496086296,530.5333333358,29.88
1496086298,463.3333333358,26.8911
1496086300,465.7333333358,26.444
1496086302,439.3333333358,26.6221
1496086304,444.1333333358,24.9562
1496086306,535.3333333358,25.2338
1496086308,422.5333333358,24.1774
1496086310,504.1333333358,21.5138
1496086312,525.7333333358,22.465
1496086314,453.7333333358,24.6001
1496086316,523.3333333358,20.419
1496086318,549.7333333358,21.4245
1496086320,506.5333333358,21.9749
1496086322,528.1333333358,24.9798
1496086324,564.1333333358,18.3078
1496086326,477.7333333358,22.0001
1496086328,530.5333333358,26.3645
1496086330,528.1333333358,26.0057
1496086332,528.1333333358,22.38
1496086334,516.1333333358,21.7889
1496086336,484.9333333358,21.6847
1496086338,448.9333333358,24.564
1496086340,482.5333333358,28.2685
1496086342,444.1333333358,25.4314
1496086344,518.5333333358,27.4897
1496086346,523.3333333358,24.7088
1496086348,511.3333333358,22.7165
1496086350,523.3333333358,21.2364
1496086352,535.3333333358,19.9232
1496086354,513.7333333358,21.4737
1496086356,542.5333333358,21.2301
1496086358,549.7333333358,20.113
1496086360,487.3333333358,20.3008
1496086362,568.9333333358,26.3249
1496086364,547.3333333358,28.5354
1496086366,516.1333333358,24.037
1496086368,554.5333333358,26.7069
1496086370,540.1333333358,26.9485
1496086372,516.1333333358,21.5026
1496086374,504.1333333358,23.4719
1496086376,544.9333333358,22.7816
1496086378,542.5333333358,20.9425
1496086380,501.7333333358,20.3778
1496086382,540.1333333358,20.7493
1496086384,532.9333333358,20.4297
1496086386,518.5333333358,23.5045
1496086388,532.9333333358,22.3194
1496086390,511.3333333358,25.3069
1496086392,523.3333333358,22.6351
1496086394,540.1333333358,24.5075
1496086396,528.1333333358,23.1928
1496086398,470.5333333358,21.4621
1496086400,484.9333333358,21.4777
1496086402,523.3333333358,22.2732
1496086404,506.5333333358,23.2403
1496086406,506.5333333358,20.9919
1496086408,513.7333333358,20.4426
