tag_number,delay,power_est
1495787228,998.800000005,21.0848
1495787232,996.400000005,16.326
1495787236,938.800000005,17.1259
1495787240,948.400000005,19.4344
1495787244,958.000000005,18.5596
1495787248,917.200000005,17.8959
1495787252,953.200000005,24.9932
1495787256,895.600000005,22.0231
1495787260,934.000000005,24.2844
1495787264,984.400000005,23.938
1495787268,1034.800000005,24.0464
1495787272,953.200000005,25.2559
1495787276,1044.400000005,26.7467
1495787280,965.200000005,25.7949
1495787284,1025.200000005,21.5302
1495787288,1001.200000005,24.6195
1495787292,1075.600000005,17.9645
1495787296,1121.200000005,17.2758
1495787300,1087.600000005,20.833
1495787304,1008.400000005,17.8662
1495787308,1054.000000005,19.1746
1495787312,1116.400000005,22.8124
1495787316,1123.600000005,16.895
1495787320,1082.800000005,21.7587
1495787324,1109.200000005,24.2204
1495787328,1114.000000005,26.1645
1495787332,1104.400000005,21.954
1495787336,1056.400000005,22.0078
1495787340,1042.000000005,24.2076
1495787344,1032.400000005,24.0162
1495787348,1027.600000005,28.0826
1495787352,1037.200000005,23.9487
1495787356,1090.000000005,23.6909
1495787360,1046.800000005,19.4374
1495787364,1051.600000005,22.6344
1495787368,1063.600000005,21.919
1495787372,1054.000000005,24.9758
1495787376,1066.000000005,25.0824
1495787380,1030.000000005,23.8166
1495787384,1058.800000005,23.2783
1495787388,996.400000005,21.1971
1495787392,1049.200000005,21.7287
1495787396,1018.000000005,16.316
1495787400,1054.000000005,19.3653
1495787404,1022.800000005,22.7764
1495787408,1054.000000005,17.8757
1495787412,1034.800000005,21.4738
1495787416,1092.400000005,18.1691
1495787420,1015.600000005,19.1691
1495787424,1061.200000005,20.1011
1495787428,1051.600000005,17.3797
1495787432,1032.400000005,23.577
1495787436,1001.200000005,19.7582
1495787440,1044.400000005,21.1805
1495787444,1042.000000005,20.3012
1495787448,1037.200000005,19.7421
1495787452,1037.200000005,20.8656
1495787456,1022.800000005,16.9946
1495787460,1008.400000005,20.8792
1495787464,1034.800000005,21.435
1495787468,1008.400000005,20.2536
1495787472,1001.200000005,20.3421
1495787476,1001.200000005,25.0552
1495787480,1018.000000005,20.3004
1495787484,984.400000005,21.1029
1495787488,1001.200000005,18.7643
1495787492,1044.400000005,12.5085
1495787496,1042.000000005,18.3448
1495787500,1046.800000005,17.708
1495787504,1063.600000005,16.6122
1495787508,1034.800000005,13.0133
1495787512,1030.000000005,16.4313
1495787516,967.600000005,16.9921
1495787520,984.400000005,21.1737
1495787524,917.200000005,20.5573
1495787528,946.000000005,20.7336
1495787532,907.600000005,14.5578
1495787536,960.400000005,18.868
1495787540,898.000000005,19.7136
1495787544,958.000000005,17.7838
1495787548,902.800000005,16.8109
1495787552,902.800000005,19.359
1495787556,890.800000005,16.2569
1495787560,866.800000005,15.1037
1495787564,910.000000005,18.6903
1495787568,914.800000005,19.6793
1495787572,926.800000005,17.0073
1495787576,919.600000005,18.0431
1495787580,955.600000005,22.0934
1495787584,972.400000005,18.6285
1495787588,965.200000005,21.2939
1495787592,1010.800000005,19.0958
1495787596,1058.800000005,16.4586
1495787604,941.200000005,20.3154
1495787608,982.000000005,19.5578
1495787612,934.000000005,21.4687
1495787616,905.200000005,16.8838
1495787620,955.600000005,18.0039
1495787624,946.000000005,17.9435
1495787628,926.800000005,17.6238
1495787632,941.200000005,18.2672
1495787636,871.600000005,17.6671
1495787640,893.200000005,22.0774
1495787644,898.000000005,21.3159
1495787648,900.400000005,19.2374
1495787652,917.200000005,18.5609
1495787656,902.800000005,20.4329
1495787660,924.400000005,19.4275
1495787664,862.000000005,21.8586
1495787668,893.200000005,21.5866
1495787672,917.200000005,23.7878
1495787676,919.600000005,16.6299
1495787680,888.400000005,20.5045
1495787684,905.200000005,20.6562
1495787688,900.400000005,20.3352
1495787692,902.800000005,20.0918
1495787696,948.400000005,20.4295
1495787700,910.000000005,22.9977
1495787704,982.000000005,17.0283
1495787708,936.400000005,20.6572
1495787712,912.400000005,19.1844
1495787716,910.000000005,20.2461
1495787720,895.600000005,21.8575
1495787724,898.000000005,21.8971
1495787728,914.800000005,23.3431
1495787732,941.200000005,19.1733
1495787736,910.000000005,19.0131
1495787740,912.400000005,18.6648
1495787744,900.400000005,16.3795
1495787748,900.400000005,15.3996
1495787752,900.400000005,13.1521
1495787756,871.600000005,17.6107
1495787760,890.800000005,13.5644
1495787764,893.200000005,15.4457
1495787768,934.000000005,16.8434
1495787772,898.000000005,17.8221
1495787776,902.800000005,19.0861
1495787780,1013.200000005,18.4908
1495787784,864.400000005,20.4426
1495787788,893.200000005,14.8531
1495787792,871.600000005,16.5335
1495787796,883.600000005,19.5235
1495787800,833.200000005,14.1433
1495787804,895.600000005,16.3583
1495787808,898.000000005,19.0655
1495787812,893.200000005,20.2467
1495787816,859.600000005,17.9297
1495787820,859.600000005,16.6597
1495787824,898.000000005,16.6076
1495787828,840.400000005,22.0739
1495787832,842.800000005,20.4883
1495787836,874.000000005,20.6289
1495787840,821.200000005,20.9891
1495787844,905.200000005,18.4414
1495787848,907.600000005,20.9448
1495787852,876.400000005,12.0385
1495787856,898.000000005,18.3916
1495787860,862.000000005,15.8689
1495787864,886.000000005,19.5471
1495787868,898.000000005,19.7038
1495787872,886.000000005,20.9906
1495787876,814.000000005,20.3798
1495787880,934.000000005,18.1622
1495787884,883.600000005,24.1372
1495787888,871.600000005,17.9071
1495787892,895.600000005,19.5527
1495787896,874.000000005,21.2818
1495787900,886.000000005,21.0701
1495787904,883.600000005,21.3033
1495787908,965.200000005,20.6454
1495787912,893.200000005,27.7729
1495787916,998.800000005,23.8662
1495787920,895.600000005,25.4211
1495787924,866.800000005,27.4033
1495787928,871.600000005,26.1646
1495787932,847.600000005,20.0446
1495787936,864.400000005,23.1873
1495787940,881.200000005,22.7471
1495787944,902.800000005,22.5099
1495787948,893.200000005,25.1193
1495787952,876.400000005,22.8125
1495787956,890.800000005,21.6245
1495787960,898.000000005,27.3421
1495787964,883.600000005,24.6749
1495787968,898.000000005,24.9365
1495787972,821.200000005,25.9508
1495787976,876.400000005,26.3474
1495787980,905.200000005,21.7932
1495787984,910.000000005,23.3188
1495787988,936.400000005,23.816
1495787992,924.400000005,25.192
1495787996,948.400000005,22.926
1495788000,996.400000005,22.4069
1495788004,1008.400000005,20.5669
1495788008,953.200000005,22.3876
1495788012,972.400000005,21.5462
1495788016,1013.200000005,20.2174
1495788020,958.000000005,20.2144
1495788024,965.200000005,23.501
1495788028,929.200000005,20.5438
1495788032,919.600000005,25.894
1495788036,958.000000005,24.4749
1495788040,960.400000005,21.0512
1495788044,967.600000005,23.7244
1495788048,946.000000005,21.8571
1495788052,953.200000005,23.7233
1495788056,922.000000005,22.9879
1495788060,931.600000005,22.109
1495788064,1020.400000005,19.5896
1495788068,946.000000005,22.9456
1495788072,991.600000005,20.3986
1495788076,982.000000005,22.0587
1495788080,1027.600000005,21.8228
1495788084,994.000000005,19.5056
1495788088,1030.000000005,22.7407
1495788092,1020.400000005,19.3605
1495788096,1027.600000005,21.5859
1495788100,994.000000005,21.5633
1495788104,950.800000005,19.9491
1495788108,1030.000000005,20.7553
1495788112,970.000000005,18.9787
1495788116,1054.000000005,20.8851
1495788120,1020.400000005,20.8539
1495788124,1030.000000005,21.9621
1495788128,1037.200000005,17.7914
1495788132,1051.600000005,19.569
1495788136,1042.000000005,20.9954
1495788140,1006.000000005,21.9755
1495788144,1037.200000005,18.5662
1495788148,1020.400000005,21.35
1495788152,1034.800000005,21.5439
1495788156,1013.200000005,20.6808
1495788160,1006.000000005,14.4501
1495788164,1054.000000005,18.627
1495788168,1056.400000005,20.6105
1495788172,1003.600000005,20.1535
1495788176,979.600000005,16.5064
1495788180,1025.200000005,17.8583
1495788184,979.600000005,18.1684
1495788188,991.600000005,18.1467
1495788192,943.600000005,18.3196
1495788196,986.800000005,20.4294
1495788200,946.000000005,20.3957
1495788204,914.800000005,20.3581
1495788208,910.000000005,19.9763
1495788212,869.200000005,21.5634
1495788216,943.600000005,17.6438
1495788220,905.200000005,19.1058
1495788224,931.600000005,22.3713
1495788228,989.200000005,20.565
1495788232,946.000000005,23.1739
1495788236,912.400000005,24.995
1495788240,926.800000005,20.9043
1495788244,989.200000005,25.7502
1495788248,967.600000005,23.4659
1495788252,907.600000005,20.7297
1495788256,948.400000005,23.9647
1495788260,960.400000005,25.883
1495788264,946.000000005,24.2645
1495788268,950.800000005,25.3606
1495788272,898.000000005,25.7456
1495788276,931.600000005,26.9284
1495788280,919.600000005,23.2269
1495788284,972.400000005,22.0579
1495788288,950.800000005,22.3823
1495788292,1118.800000005,21.5035
1495788296,1030.000000005,20.5742
1495788300,936.400000005,21.1508
1495788304,1066.000000005,23.6025
1495788308,984.400000005,22.4339
1495788312,1015.600000005,22.3599
1495788316,1058.800000005,19.7017
1495788320,1126.000000005,19.99
1495788324,1118.800000005,20.365
1495788328,1058.800000005,20.6209
1495788332,1114.000000005,17.6648
1495788336,1075.600000005,18.82
1495788340,1092.400000005,18.8592
1495788344,1068.400000005,19.9317
1495788348,1111.600000005,20.9808
1495788352,1078.000000005,23.0359
1495788356,1063.600000005,16.4629
1495788360,1116.400000005,20.1754
1495788364,1056.400000005,18.9421
1495788368,1068.400000005,24.5206
1495788372,1080.400000005,22.731
1495788376,1034.800000005,20.6524
1495788380,1046.800000005,22.3121
1495788384,1068.400000005,20.7891
1495788388,1070.800000005,21.9654
1495788392,1066.000000005,18.568
1495788396,1020.400000005,19.7042
1495788400,1063.600000005,18.7994
1495788404,1111.600000005,18.6577
1495788408,1046.800000005,20.7707
1495788412,1046.800000005,20.0312
1495788416,1046.800000005,24.2346
1495788420,1010.800000005,20.1858
1495788424,989.200000005,17.4379
1495788428,1022.800000005,18.6619
1495788432,1008.400000005,22.7695
1495788436,931.600000005,18.7421
1495788440,943.600000005,21.8649
1495788444,907.600000005,16.7966
1495788452,943.600000005,22.2114
1495788456,886.000000005,22.6077
1495788460,878.800000005,22.4867
1495788464,902.800000005,19.4922
1495788468,953.200000005,16.8514
1495788472,878.800000005,17.9657
1495788476,898.000000005,21.0617
1495788480,900.400000005,25.2937
1495788484,895.600000005,20.7351
1495788488,878.800000005,24.8378
1495788492,857.200000005,21.2765
1495788496,929.200000005,19.121
1495788500,814.000000005,16.9473
1495788504,895.600000005,20.6509
1495788508,895.600000005,15.9951
1495788512,929.200000005,23.2479
1495788516,830.800000005,20.3921
1495788520,862.000000005,15.3021
1495788524,898.000000005,15.7024
1495788528,883.600000005,21.6188
1495788532,929.200000005,17.7871
1495788536,869.200000005,18.7764
1495788540,910.000000005,18.2449
1495788544,895.600000005,16.82
1495788548,926.800000005,19.4084
1495788552,917.200000005,21.12
1495788556,924.400000005,19.0287
1495788560,977.200000005,18.7241
1495788564,946.000000005,20.2168
1495788568,962.800000005,20.9284
1495788572,1044.400000005,19.6048
1495788576,926.800000005,21.3173
1495788580,962.800000005,21.4001
1495788584,893.200000005,20.6987
1495788588,965.200000005,19.0882
1495788592,938.800000005,20.7215
1495788596,967.600000005,21.6851
1495788600,989.200000005,27.0792
1495788604,950.800000005,18.9707
1495788608,1027.600000005,23.1814
1495788612,1039.600000005,24.8106
1495788616,1058.800000005,24.818
1495788620,1044.400000005,23.5117
1495788624,1087.600000005,24.8526
1495788628,1082.800000005,25.951
1495788632,1063.600000005,22.3766
1495788636,1075.600000005,24.5523
1495788640,1099.600000005,24.6466
1495788644,1087.600000005,21.9761
1495788648,1070.800000005,24.4115
1495788652,1114.000000005,24.4637
1495788656,1085.200000005,24.2477
1495788660,1058.800000005,23.0893
1495788664,1116.400000005,25.522
1495788668,1044.400000005,25.4349
1495788672,1123.600000005,24.9507
1495788676,1037.200000005,26.0706
1495788680,1051.600000005,19.6526
1495788684,1030.000000005,25.4045
1495788688,1039.600000005,23.841
1495788692,1008.400000005,21.6604
1495788696,970.000000005,23.4614
1495788700,910.000000005,21.1112
1495788704,922.000000005,24.9569
1495788708,917.200000005,24.0141
1495788712,886.000000005,19.4074
1495788716,907.600000005,20.7668
1495788720,929.200000005,28.0675
1495788724,874.000000005,23.4701
1495788728,893.200000005,21.8763
1495788732,907.600000005,22.0867
1495788736,910.000000005,25.285
1495788740,821.200000005,19.9006
1495788744,902.800000005,20.3749
1495788748,888.400000005,17.4847
1495788752,893.200000005,22.0664
1495788756,929.200000005,22.6773
1495788760,929.200000005,19.2298
1495788764,972.400000005,22.3999
1495788768,900.400000005,19.6003
1495788772,955.600000005,18.5701
1495788776,967.600000005,18.1915
1495788780,946.000000005,20.0562
1495788784,965.200000005,20.8352
1495788788,912.400000005,20.6848
1495788792,943.600000005,18.0464
1495788796,946.000000005,19.8034
1495788800,958.000000005,21.1439
1495788804,1008.400000005,20.4647
1495788808,871.600000005,17.7091
1495788812,888.400000005,23.7368
1495788816,912.400000005,22.1761
1495788820,910.000000005,22.4733
1495788824,919.600000005,23.949
1495788828,900.400000005,22.4704
1495788832,912.400000005,22.4347
1495788836,893.200000005,20.9273
1495788840,941.200000005,23.8511
1495788844,900.400000005,21.5472
1495788848,905.200000005,21.9426
1495788852,926.800000005,15.9113
1495788856,926.800000005,19.5235
1495788860,924.400000005,22.8174
1495788864,922.000000005,26.1098
1495788868,943.600000005,21.9582
1495788872,866.800000005,17.9158
1495788876,898.000000005,16.1329
1495788880,919.600000005,17.719
1495788884,917.200000005,22.4687
1495788888,914.800000005,21.3766
1495788892,938.800000005,22.2492
1495788896,934.000000005,20.3038
1495788900,974.800000005,17.397
1495788904,1025.200000005,16.9236
1495788908,1018.000000005,17.8033
1495788912,1027.600000005,17.5862
1495788916,1056.400000005,22.3277
1495788920,1013.200000005,23.1747
1495788924,1073.200000005,21.8394
1495788928,1042.000000005,19.1694
1495788932,1039.600000005,18.0966
1495788936,1013.200000005,22.8298
1495788940,1025.200000005,22.5443
1495788944,994.000000005,20.2193
1495788948,1039.600000005,20.0341
1495788952,1010.800000005,21.1631
1495788956,953.200000005,21.056
1495788960,994.000000005,22.4211
1495788964,938.800000005,18.6104
1495788968,1003.600000005,18.5956
1495788972,979.600000005,17.1597
1495788976,998.800000005,19.4029
1495788980,948.400000005,15.3681
1495788984,910.000000005,21.3092
1495788988,1006.000000005,17.8937
1495788992,972.400000005,21.6619
1495788996,943.600000005,20.6442
1495789000,926.800000005,19.5994
1495789004,938.800000005,23.9519
1495789008,1010.800000005,18.7744
1495789012,910.000000005,17.8699
1495789016,943.600000005,19.0677
1495789020,962.800000005,22.0468
1495789024,936.400000005,23.7623
1495789028,941.200000005,27.977
1495789032,979.600000005,28.1716
1495789036,1003.600000005,27.3466
1495789040,929.200000005,24.8544
1495789044,1001.200000005,22.4425
1495789048,1046.800000005,25.9278
1495789052,974.800000005,18.6855
1495789056,1030.000000005,22.6908
1495789060,1034.800000005,21.3186
1495789064,958.000000005,19.2607
1495789068,950.800000005,23.4261
1495789072,970.000000005,22.7767
1495789076,989.200000005,22.5041
1495789080,996.400000005,22.4624
1495789084,982.000000005,20.5611
1495789088,970.000000005,18.0563
1495789092,1022.800000005,18.1212
1495789096,936.400000005,19.6739
1495789100,948.400000005,19.7159
1495789104,926.800000005,19.9037
1495789108,955.600000005,19.909
1495789112,905.200000005,21.5134
1495789116,936.400000005,19.7654
1495789120,1008.400000005,17.1127
1495789124,953.200000005,18.2097
1495789128,953.200000005,22.2872
1495789132,946.000000005,20.9179
1495789136,926.800000005,22.9157
1495789140,955.600000005,19.6004
1495789144,948.400000005,20.5095
1495789148,924.400000005,23.7877
1495789152,1020.400000005,20.7621
1495789156,989.200000005,20.9607
1495789160,979.600000005,20.9612
1495789164,1025.200000005,21.8548
1495789168,1058.800000005,24.4458
1495789172,994.000000005,20.5459
1495789176,958.000000005,26.5646
1495789180,1025.200000005,21.401
1495789184,1034.800000005,22.8614
1495789188,1094.800000005,19.8242
1495789192,1018.000000005,20.7864
1495789196,1046.800000005,22.5304
1495789200,1068.400000005,21.6459
1495789204,991.600000005,22.2606
1495789208,1015.600000005,25.5083
1495789212,1010.800000005,23.8425
1495789216,1022.800000005,21.6034
1495789220,1044.400000005,20.9377
1495789224,1001.200000005,22.2309
1495789228,1027.600000005,24.2263
1495789232,1008.400000005,23.9442
1495789236,1054.000000005,23.3849
1495789240,1032.400000005,24.4141
1495789244,994.000000005,21.479
1495789248,1046.800000005,25.426
1495789252,991.600000005,23.7666
1495789256,1049.200000005,23.2095
1495789260,1030.000000005,22.4585
1495789264,1018.000000005,20.6222
1495789268,1051.600000005,19.9286
1495789272,991.600000005,20.5021
1495789276,946.000000005,20.0891
1495789280,1022.800000005,24.3242
1495789284,1042.000000005,21.5994
1495789288,1034.800000005,21.6386
1495789292,1039.600000005,16.4634
1495789296,1027.600000005,19.5439
1495789300,1054.000000005,20.1912
1495789304,996.400000005,23.0994
1495789308,1128.400000005,22.7399
1495789312,1133.200000005,23.6041
1495789316,1078.000000005,22.7596
1495789320,1145.200000005,25.7451
1495789324,1114.000000005,26.2954
1495789328,1087.600000005,20.2242
1495789332,1121.200000005,19.6122
1495789336,1142.800000005,22.809
1495789340,1162.000000005,23.7635
1495789344,1116.400000005,22.5947
1495789348,1102.000000005,22.6649
1495789352,1116.400000005,25.5402
1495789356,1123.600000005,15.6189
1495789360,1128.400000005,18.2358
1495789364,1164.400000005,17.0659
1495789368,1128.400000005,20.341
1495789372,1133.200000005,19.4996
1495789376,1123.600000005,21.7198
1495789380,1054.000000005,22.2006
1495789384,1082.800000005,18.6373
1495789388,1126.000000005,19.2668
1495789392,1090.000000005,20.0782
1495789396,1049.200000005,17.7163
1495789400,1039.600000005,15.8109
1495789408,989.200000005,20.6343
1495789412,936.400000005,21.6019
1495789416,989.200000005,18.0232
1495789420,994.000000005,23.7193
1495789424,974.800000005,21.0207
1495789428,953.200000005,18.522
1495789432,922.000000005,20.3815
1495789436,926.800000005,20.0378
1495789440,912.400000005,18.7512
1495789444,958.000000005,22.0063
1495789448,924.400000005,19.4645
1495789452,922.000000005,22.422
1495789456,919.600000005,18.8904
1495789460,938.800000005,21.8318
1495789464,946.000000005,16.9456
1495789468,938.800000005,16.8693
1495789472,902.800000005,22.3628
1495789476,893.200000005,19.6014
1495789480,871.600000005,18.0825
1495789484,874.000000005,21.6691
1495789488,895.600000005,16.8602
1495789492,835.600000005,23.1549
1495789496,852.400000005,19.4647
1495789500,835.600000005,25.2606
1495789504,874.000000005,22.7025
1495789508,835.600000005,19.5176
1495789512,900.400000005,16.6055
1495789516,828.400000005,16.7923
1495789520,816.400000005,17.2019
1495789524,874.000000005,17.0803
1495789528,871.600000005,21.4718
1495789532,874.000000005,16.0457
1495789536,850.000000005,19.5482
1495789540,893.200000005,18.1776
1495789544,883.600000005,20.3277
1495789548,878.800000005,16.2892
1495789552,1044.400000005,20.736
1495789556,950.800000005,20.741
1495789560,902.800000005,22.5708
1495789564,893.200000005,19.7276
1495789568,888.400000005,17.6697
1495789584,881.200000005,23.6357
1495789588,830.800000005,21.154
1495789592,900.400000005,21.2075
1495789596,888.400000005,23.3412
1495789600,847.600000005,22.7091
1495789604,934.000000005,24.8158
1495789608,914.800000005,21.4473
1495789612,900.400000005,22.1639
1495789616,883.600000005,23.3401
1495789620,862.000000005,24.6058
1495789624,874.000000005,21.7542
1495789628,862.000000005,19.3252
1495789632,830.800000005,23.6438
1495789636,854.800000005,17.1004
1495789640,785.200000005,18.2371
1495789644,835.600000005,21.7323
1495789648,886.000000005,18.3231
1495789652,854.800000005,21.8996
1495789656,898.000000005,21.5592
1495789660,814.000000005,17.324
1495789664,917.200000005,18.0026
1495789668,905.200000005,19.5055
1495789672,917.200000005,20.6994
1495789676,967.600000005,21.4429
1495789680,946.000000005,20.1532
1495789684,953.200000005,23.6808
1495789688,938.800000005,17.6916
1495789692,972.400000005,22.438
1495789696,1020.400000005,19.9905
1495789700,1001.200000005,24.7716
1495789704,972.400000005,22.6522
1495789708,1010.800000005,19.8635
1495789712,1022.800000005,21.1901
1495789716,1037.200000005,19.4573
1495789720,1001.200000005,18.9287
1495789724,982.000000005,17.9186
1495789728,1061.200000005,21.8065
1495789732,929.200000005,20.3081
1495789736,989.200000005,24.3038
1495789740,1034.800000005,20.2469
1495789744,984.400000005,22.7841
1495789748,1051.600000005,22.0039
1495789752,1030.000000005,24.3125
1495789756,979.600000005,22.7258
1495789760,919.600000005,23.7678
1495789768,977.200000005,24.0018
1495789772,929.200000005,22.503
1495789776,960.400000005,25.3446
1495789780,953.200000005,23.3737
1495789784,871.600000005,23.5109
1495789788,898.000000005,20.2637
1495789792,936.400000005,18.6892
1495789796,941.200000005,19.883
1495789800,926.800000005,19.292
1495789804,936.400000005,19.4899
1495789808,907.600000005,25.1645
1495789812,914.800000005,19.9521
1495789816,943.600000005,22.8305
1495789820,960.400000005,20.7275
1495789824,898.000000005,26.0813
1495789828,926.800000005,20.6933
1495789832,917.200000005,21.0494
1495789836,898.000000005,20.2704
1495789840,902.800000005,23.9839
1495789844,890.800000005,20.8434
1495789848,917.200000005,18.6483
1495789852,965.200000005,23.7875
1495789856,931.600000005,20.5659
1495789860,914.800000005,23.3611
1495789864,898.000000005,18.4132
1495789868,929.200000005,18.5086
1495789872,960.400000005,20.3904
1495789876,967.600000005,18.6213
1495789880,1008.400000005,19.091
1495789884,946.000000005,22.73
1495789888,919.600000005,23.626
1495789892,886.000000005,22.6383
1495789896,912.400000005,21.0829
1495789900,895.600000005,16.3261
1495789904,910.000000005,17.3633
1495789908,958.000000005,19.619
1495789912,862.000000005,19.3257
1495789916,898.000000005,20.1781
1495789920,900.400000005,18.5389
1495789924,955.600000005,18.7755
1495789928,898.000000005,19.6615
1495789932,888.400000005,17.1027
1495789936,890.800000005,18.7473
1495789940,821.200000005,16.8911
1495789944,922.000000005,18.5388
1495789948,871.600000005,20.5843
1495789952,902.800000005,21.0827
1495789956,979.600000005,19.7984
1495789960,948.400000005,20.8756
1495789964,991.600000005,20.7778
1495789968,970.000000005,18.5581
1495789972,958.000000005,17.5673
1495789976,1034.800000005,16.9845
1495789980,991.600000005,17.9739
1495789984,1037.200000005,14.3383
1495789988,982.000000005,16.3868
1495789992,946.000000005,18.9906
1495789996,948.400000005,16.8771
1495790000,994.000000005,21.4123
1495790004,924.400000005,15.6171
1495790008,934.000000005,20.8394
1495790012,1025.200000005,21.3211
1495790016,938.800000005,16.6716
1495790020,970.000000005,22.5014
1495790024,979.600000005,20.8415
1495790028,912.400000005,21.671
1495790032,926.800000005,21.976
1495790036,924.400000005,18.7772
1495790040,958.000000005,19.3997
1495790044,919.600000005,25.2723
1495790048,902.800000005,21.0042
1495790052,958.000000005,21.9802
1495790056,914.800000005,20.7391
1495790060,917.200000005,21.9244
1495790064,934.000000005,22.8075
1495790068,943.600000005,25.7654
1495790072,953.200000005,19.8443
1495790076,938.800000005,18.2582
1495790080,1013.200000005,26.2534
1495790084,1003.600000005,24.0201
1495790088,905.200000005,25.8868
1495790092,938.800000005,22.1042
1495790096,907.600000005,24.4629
1495790100,943.600000005,23.9247
1495790104,893.200000005,17.9169
1495790108,924.400000005,19.6115
1495790112,876.400000005,19.8486
1495790116,888.400000005,18.456
1495790120,924.400000005,20.9049
1495790124,888.400000005,21.3212
1495790128,986.800000005,26.0965
1495790132,902.800000005,26.3832
1495790136,943.600000005,25.0406
1495790140,960.400000005,24.8518
1495790144,953.200000005,24.7549
1495790148,1006.000000005,21.9494
1495790152,1015.600000005,21.9552
1495790156,984.400000005,23.7599
1495790160,994.000000005,21.1044
1495790164,948.400000005,23.6009
1495790168,912.400000005,23.5307
1495790172,946.000000005,18.4884
1495790176,1039.600000005,22.351
1495790180,898.000000005,20.4088
1495790184,919.600000005,20.3843
1495790188,938.800000005,17.6491
1495790192,876.400000005,19.1039
1495790196,943.600000005,19.8993
1495790200,905.200000005,24.3563
1495790204,974.800000005,21.0487
1495790208,905.200000005,21.1366
1495790212,924.400000005,17.3343
1495790216,931.600000005,20.9895
1495790220,960.400000005,16.7702
1495790224,929.200000005,18.3289
1495790228,972.400000005,21.2155
1495790232,914.800000005,19.0308
1495790236,929.200000005,20.3
1495790240,898.000000005,25.349
1495790244,941.200000005,23.5074
1495790248,893.200000005,22.7449
1495790252,941.200000005,22.2346
1495790256,898.000000005,20.6995
1495790260,929.200000005,22.7017
1495790264,938.800000005,20.5219
1495790268,936.400000005,23.8392
1495790272,936.400000005,20.1279
1495790276,1013.200000005,19.6001
1495790280,950.800000005,18.1747
1495790284,946.000000005,19.6992
1495790288,950.800000005,19.2529
1495790292,917.200000005,21.2089
1495790296,898.000000005,18.894
1495790300,902.800000005,21.6284
1495790304,1003.600000005,21.235
1495790312,914.800000005,21.5147
1495790316,900.400000005,21.5599
1495790320,900.400000005,20.2909
1495790324,883.600000005,21.134
1495790328,900.400000005,19.8864
1495790332,922.000000005,21.8607
1495790336,888.400000005,18.5749
1495790340,931.600000005,18.8603
1495790344,919.600000005,19.4781
1495790348,888.400000005,21.8487
1495790352,919.600000005,21.1576
1495790356,898.000000005,20.5516
1495790360,917.200000005,22.6891
1495790364,898.000000005,19.8144
1495790368,893.200000005,17.7501
1495790372,922.000000005,21.6213
1495790376,950.800000005,19.3682
1495790380,893.200000005,22.7857
1495790384,902.800000005,21.8676
1495790388,876.400000005,20.4322
1495790392,888.400000005,17.9
1495790396,876.400000005,18.435
1495790400,902.800000005,22.2515
1495790404,905.200000005,20.5557
1495790408,895.600000005,19.7398
1495790412,874.000000005,23.5553
1495790416,862.000000005,21.5778
1495790420,821.200000005,22.6219
1495790424,883.600000005,20.5757
1495790428,914.800000005,20.8009
1495790432,900.400000005,22.0724
1495790436,950.800000005,26.2372
1495790440,886.000000005,21.2779
1495790444,910.000000005,21.3843
1495790448,929.200000005,23.7502
1495790452,900.400000005,22.4997
1495790456,950.800000005,17.2715
1495790460,907.600000005,22.0974
1495790464,907.600000005,23.5313
1495790468,924.400000005,17.2441
1495790472,866.800000005,22.3235
1495790476,931.600000005,22.6765
1495790480,914.800000005,23.8521
1495790484,881.200000005,20.3279
1495790488,886.000000005,18.4769
1495790492,871.600000005,21.4891
1495790496,943.600000005,20.4946
1495790500,905.200000005,20.9352
1495790504,941.200000005,21.8198
1495790508,924.400000005,17.4861
1495790512,998.800000005,23.0809
1495790516,938.800000005,19.861
1495790520,1032.400000005,17.4864
1495790524,1018.000000005,19.8302
1495790528,1066.000000005,17.0871
1495790532,1032.400000005,14.9045
1495790536,1075.600000005,17.6995
1495790540,1102.000000005,18.1675
1495790544,1075.600000005,17.7724
1495790548,1070.800000005,16.7195
1495790552,1097.200000005,14.7269
1495790556,1049.200000005,17.9532
1495790560,1090.000000005,20.8286
1495790564,1032.400000005,21.5607
1495790568,1030.000000005,18.497
1495790572,1094.800000005,20.9757
1495790576,1022.800000005,23.7307
1495790580,1046.800000005,22.3292
1495790584,1051.600000005,21.0138
1495790588,1049.200000005,19.3246
1495790592,1030.000000005,17.6523
1495790596,1015.600000005,22.8394
1495790600,1042.000000005,22.7451
1495790604,972.400000005,19.5284
1495790608,941.200000005,18.9545
1495790612,1037.200000005,17.6059
1495790616,917.200000005,18.8543
1495790620,919.600000005,16.5709
1495790624,1008.400000005,16.6288
1495790628,905.200000005,18.9194
1495790632,972.400000005,15.2666
1495790636,936.400000005,21.4417
1495790640,934.000000005,17.4515
1495790644,943.600000005,22.7353
1495790648,922.000000005,18.2137
1495790652,919.600000005,19.4651
1495790656,936.400000005,20.7519
1495790660,886.000000005,22.5418
1495790664,931.600000005,19.673
1495790668,922.000000005,22.0261
1495790672,926.800000005,23.6413
1495790676,910.000000005,22.0818
1495790680,907.600000005,23.1164
1495790684,893.200000005,22.8271
1495790688,960.400000005,23.1826
1495790692,905.200000005,22.6763
1495790696,895.600000005,22.5631
1495790700,946.000000005,21.8598
1495790704,898.000000005,25.5255
1495790708,1001.200000005,23.2651
1495790712,917.200000005,24.9047
1495790716,905.200000005,22.804
1495790720,936.400000005,19.8249
1495790724,878.800000005,17.7407
1495790728,946.000000005,22.0032
1495790732,926.800000005,17.4527
1495790736,905.200000005,16.586
1495790740,912.400000005,17.7928
1495790744,917.200000005,19.9261
1495790748,910.000000005,17.5608
1495790752,958.000000005,16.5326
1495790756,907.600000005,18.8069
1495790760,898.000000005,17.6818
1495790764,912.400000005,18.5677
1495790768,934.000000005,20.1865
1495790772,883.600000005,20.7118
1495790780,910.000000005,20.046
1495790784,1037.200000005,18.8672
1495790788,931.600000005,21.9825
1495790792,946.000000005,17.6058
1495790796,926.800000005,17.4884
1495790800,886.000000005,21.6785
1495790804,943.600000005,23.1724
1495790808,907.600000005,19.812
1495790812,883.600000005,18.514
1495790816,962.800000005,20.787
1495790820,898.000000005,19.5877
1495790824,919.600000005,18.027
1495790828,895.600000005,18.9357
1495790832,907.600000005,18.1201
1495790836,890.800000005,18.9357
1495790840,893.200000005,21.2923
1495790844,907.600000005,26.3238
1495790848,910.000000005,25.2269
1495790852,907.600000005,21.201
1495790856,898.000000005,25.4133
1495790860,910.000000005,20.2483
1495790864,886.000000005,20.0083
1495790868,910.000000005,25.2918
1495790872,917.200000005,20.8376
1495790876,869.200000005,21.6106
1495790880,893.200000005,23.1369
1495790884,888.400000005,23.6636
1495790888,814.000000005,21.6383
1495790892,864.400000005,23.1712
1495790896,857.200000005,20.1692
1495790900,809.200000005,17.3846
1495790904,876.400000005,22.3609
1495790908,924.400000005,22.7377
1495790912,917.200000005,20.0908
1495790916,982.000000005,19.1005
1495790920,989.200000005,21.4065
1495790924,1010.800000005,21.1687
1495790928,965.200000005,17.8403
1495790932,974.800000005,16.4328
1495790936,962.800000005,18.261
1495790940,979.600000005,17.4768
1495790944,924.400000005,16.0058
1495790948,994.000000005,20.2491
1495790952,955.600000005,18.0209
1495790956,1027.600000005,19.6865
1495790960,984.400000005,16.8558
1495790964,1015.600000005,13.1578
1495790968,929.200000005,15.8062
1495790972,967.600000005,15.1647
1495790976,991.600000005,16.1547
1495790980,989.200000005,15.5749
1495790984,977.200000005,16.1651
1495790988,974.800000005,14.9329
1495790992,917.200000005,19.6139
1495790996,934.000000005,17.6036
1495791000,958.000000005,20.7487
1495791004,917.200000005,19.7241
1495791008,953.200000005,19.2773
1495791012,1025.200000005,19.9153
1495791016,1080.400000005,15.7152
1495791020,1099.600000005,14.1207
1495791024,1044.400000005,18.7439
1495791028,1034.800000005,15.8795
1495791032,994.000000005,19.9396
1495791036,1022.800000005,22.8953
1495791040,1030.000000005,19.6759
1495791044,1003.600000005,18.3449
1495791048,950.800000005,17.9639
1495791052,924.400000005,16.5263
1495791056,902.800000005,19.9584
1495791060,900.400000005,18.145
1495791064,905.200000005,18.7793
1495791068,876.400000005,16.3539
1495791072,902.800000005,20.8509
1495791076,910.000000005,15.3675
1495791080,878.800000005,18.5466
1495791084,878.800000005,15.4866
1495791088,794.800000005,20.8275
1495791092,878.800000005,20.8203
1495791096,840.400000005,19.635
1495791100,886.000000005,20.2464
1495791104,886.000000005,18.4204
1495791108,857.200000005,21.158
1495791112,895.600000005,22.1192
1495791116,852.400000005,19.9742
1495791120,900.400000005,19.6842
1495791124,874.000000005,21.8576
1495791128,902.800000005,20.4662
1495791132,895.600000005,23.5588
1495791136,895.600000005,22.8212
1495791140,895.600000005,19.1436
1495791144,890.800000005,20.0084
1495791148,898.000000005,15.866
1495791152,826.000000005,15.6904
1495791156,902.800000005,17.5953
1495791160,898.000000005,22.2971
1495791164,905.200000005,18.4371
1495791168,893.200000005,20.0687
1495791172,917.200000005,20.662
1495791176,886.000000005,18.5014
1495791180,917.200000005,21.7844
1495791184,972.400000005,19.367
1495791188,958.000000005,23.2164
1495791192,991.600000005,18.441
1495791196,1027.600000005,22.7139
1495791200,1039.600000005,21.6357
1495791204,1034.800000005,21.5326
1495791208,1018.000000005,22.1353
1495791212,912.400000005,19.4715
1495791216,938.800000005,21.2067
1495791220,919.600000005,19.9982
1495791224,919.600000005,23.7373
1495791228,962.800000005,21.8298
1495791232,929.200000005,19.7847
1495791236,950.800000005,21.5793
1495791240,922.000000005,21.4084
1495791244,886.000000005,20.6684
1495791248,1034.800000005,20.3291
1495791252,979.600000005,19.8014
1495791256,1008.400000005,20.3707
1495791260,1027.600000005,24.1277
1495791264,1013.200000005,18.1089
1495791268,1015.600000005,18.0564
1495791272,1020.400000005,18.8082
1495791276,1087.600000005,16.3353
1495791280,991.600000005,22.5226
1495791284,1044.400000005,21.7977
1495791288,1037.200000005,18.1593
1495791292,1034.800000005,20.9737
1495791296,1087.600000005,19.672
1495791300,1111.600000005,18.7722
1495791304,1049.200000005,20.8576
1495791308,1008.400000005,15.9242
1495791312,948.400000005,18.4853
1495791316,1032.400000005,18.6972
1495791320,996.400000005,22.6629
1495791324,1049.200000005,19.1386
1495791328,977.200000005,21.5793
1495791332,948.400000005,20.0916
1495791336,1008.400000005,17.0409
1495791340,938.800000005,20.4219
1495791344,929.200000005,18.2297
1495791348,1051.600000005,16.2311
1495791352,1003.600000005,17.7167
1495791356,1008.400000005,11.4969
1495791360,955.600000005,20.2454
1495791364,912.400000005,21.9661
1495791368,926.800000005,18.4983
1495791372,902.800000005,19.3377
1495791376,902.800000005,21.0036
1495791380,936.400000005,19.5889
1495791384,919.600000005,22.878
1495791388,883.600000005,19.8259
1495791392,914.800000005,19.8271
1495791396,922.000000005,22.025
1495791400,926.800000005,20.7353
1495791404,883.600000005,18.6072
1495791408,917.200000005,17.4666
1495791412,962.800000005,15.9857
1495791416,876.400000005,15.3404
1495791420,895.600000005,16.9936
1495791424,914.800000005,16.5417
1495791428,895.600000005,19.1981
1495791432,895.600000005,15.1146
1495791436,833.200000005,18.0715
1495791440,910.000000005,18.9887
1495791444,941.200000005,17.8522
1495791448,905.200000005,16.9586
1495791452,917.200000005,16.3137
1495791456,965.200000005,16.3104
1495791460,970.000000005,17.9194
1495791464,943.600000005,17.3232
1495791468,924.400000005,17.505
1495791472,919.600000005,17.737
1495791476,958.000000005,15.8002
1495791480,895.600000005,19.3032
1495791484,907.600000005,18.1254
1495791488,910.000000005,17.2436
1495791492,926.800000005,16.9559
1495791496,890.800000005,17.0521
1495791500,922.000000005,17.6734
1495791504,929.200000005,19.9088
1495791508,895.600000005,20.7788
1495791512,874.000000005,21.9217
1495791516,895.600000005,21.4491
1495791520,902.800000005,20.6521
1495791524,924.400000005,23.5782
1495791528,881.200000005,21.2134
1495791532,905.200000005,19.4011
1495791536,857.200000005,23.7766
1495791540,922.000000005,18.9785
1495791544,895.600000005,23.0934
1495791548,878.800000005,19.8458
1495791552,914.800000005,22.1147
1495791556,905.200000005,17.7489
1495791560,905.200000005,21.0928
1495791564,898.000000005,21.8844
1495791568,943.600000005,19.2743
1495791572,994.000000005,20.442
1495791576,1034.800000005,18.8238
1495791580,917.200000005,23.8217
1495791584,967.600000005,23.1965
1495791588,982.000000005,22.9531
1495791592,890.800000005,20.9149
1495791596,941.200000005,21.4697
1495791600,912.400000005,23.6574
1495791604,953.200000005,21.8724
1495791608,929.200000005,20.9558
1495791612,929.200000005,24.3627
1495791616,946.000000005,18.5177
1495791620,905.200000005,24.1463
1495791624,919.600000005,19.9135
1495791628,893.200000005,19.8255
1495791632,898.000000005,22.1723
1495791636,943.600000005,21.3116
1495791640,886.000000005,20.8365
1495791644,898.000000005,24.0915
1495791648,934.000000005,24.6824
1495791652,864.400000005,25.1196
1495791656,871.600000005,23.5802
1495791660,926.800000005,23.612
1495791664,912.400000005,26.0992
1495791668,883.600000005,20.6318
1495791672,931.600000005,23.8092
1495791676,943.600000005,19.0936
1495791680,910.000000005,18.4701
1495791684,907.600000005,20.8916
1495791688,917.200000005,25.0138
1495791692,898.000000005,24.7129
1495791696,946.000000005,22.3852
1495791700,890.800000005,21.2988
1495791704,941.200000005,19.2261
1495791708,953.200000005,17.7244
1495791716,878.800000005,22.758
1495791720,888.400000005,19.9267
1495791724,922.000000005,23.0144
1495791728,905.200000005,20.7471
1495791732,886.000000005,22.7747
1495791736,934.000000005,20.1686
1495791740,958.000000005,20.9002
1495791744,914.800000005,24.3348
1495791748,941.200000005,21.8902
1495791752,890.800000005,21.8916
1495791756,902.800000005,18.9998
1495791760,910.000000005,20.9261
1495791764,866.800000005,22.1559
1495791768,934.000000005,20.9786
1495791772,890.800000005,25.9268
1495791776,917.200000005,25.1517
1495791780,938.800000005,17.2169
1495791784,883.600000005,25.6885
1495791788,900.400000005,22.944
1495791792,936.400000005,23.3419
1495791796,912.400000005,21.2029
1495791800,912.400000005,23.1827
1495791804,907.600000005,25.1692
1495791808,917.200000005,23.8769
1495791812,910.000000005,19.2814
1495791816,893.200000005,21.3159
1495791820,895.600000005,24.962
1495791824,907.600000005,18.9194
1495791828,1013.200000005,20.9413
1495791832,924.400000005,23.2997
1495791836,910.000000005,18.7374
1495791840,910.000000005,23.7514
1495791844,929.200000005,14.1081
1495791848,982.000000005,22.3728
1495791852,936.400000005,18.3656
1495791856,960.400000005,19.5506
1495791860,950.800000005,17.924
1495791864,1025.200000005,21.6287
1495791868,965.200000005,16.252
1495791872,895.600000005,25.4286
1495791876,926.800000005,20.8188
1495791880,970.000000005,21.5504
1495791884,977.200000005,21.2479
1495791888,890.800000005,22.4593
1495791892,912.400000005,22.4871
1495791896,931.600000005,22.9687
1495791900,938.800000005,22.707
1495791904,902.800000005,21.1241
1495791908,919.600000005,21.1301
1495791912,888.400000005,19.2904
1495791916,874.000000005,19.3839
1495791920,890.800000005,23.3295
1495791924,914.800000005,20.8599
1495791928,917.200000005,21.2051
1495791932,970.000000005,21.2854
1495791936,890.800000005,17.2103
1495791940,869.200000005,18.6325
1495791944,934.000000005,19.1663
1495791948,907.600000005,19.2639
1495791952,910.000000005,18.1065
1495791956,1032.400000005,17.6621
1495791960,838.000000005,17.7594
1495791964,950.800000005,23.8534
1495791968,926.800000005,19.1177
1495791972,876.400000005,20.2369
1495791976,900.400000005,22.0661
1495791980,994.000000005,21.3848
1495791984,910.000000005,16.9007
1495791988,912.400000005,20.6469
1495791992,948.400000005,20.708
1495791996,898.000000005,18.427
1495792000,967.600000005,19.53
1495792004,912.400000005,22.1812
1495792008,907.600000005,18.2238
1495792012,912.400000005,22.8313
1495792016,948.400000005,22.0599
1495792020,912.400000005,21.9601
1495792024,922.000000005,22.5449
1495792028,934.000000005,19.5877
1495792032,967.600000005,20.0924
1495792036,967.600000005,20.9999
1495792040,936.400000005,20.2446
1495792044,998.800000005,19.7998
1495792048,929.200000005,22.5602
1495792052,910.000000005,21.8474
1495792056,960.400000005,24.9639
1495792060,953.200000005,20.7756
1495792064,919.600000005,23.2607
1495792068,950.800000005,20.6339
1495792072,967.600000005,17.2438
1495792076,943.600000005,20.3636
1495792080,938.800000005,21.7007
1495792084,955.600000005,19.4599
1495792088,893.200000005,18.5632
1495792092,972.400000005,18.4005
1495792096,1030.000000005,21.5812
1495792100,924.400000005,21.8376
1495792104,902.800000005,25.1381
1495792108,974.800000005,21.8888
1495792112,958.000000005,18.9161
1495792116,900.400000005,21.5079
1495792120,1020.400000005,19.3463
1495792124,931.600000005,17.5349
1495792128,910.000000005,20.3977
1495792132,996.400000005,21.5186
1495792136,960.400000005,21.4549
1495792140,962.800000005,22.0769
1495792144,970.000000005,21.8888
1495792148,1027.600000005,21.8316
1495792152,907.600000005,25.5938
1495792156,950.800000005,19.1278
1495792160,936.400000005,25.1459
1495792164,955.600000005,20.7903
1495792168,924.400000005,20.268
1495792172,989.200000005,21.5548
1495792176,1003.600000005,17.6204
1495792180,902.800000005,19.5332
1495792184,1020.400000005,19.0175
1495792188,1027.600000005,23.4744
1495792192,943.600000005,22.5794
1495792196,979.600000005,21.8422
1495792200,943.600000005,20.1476
1495792204,941.200000005,22.7245
1495792208,946.000000005,21.1855
1495792212,929.200000005,19.8975
1495792216,902.800000005,23.1538
1495792220,893.200000005,21.1764
1495792224,936.400000005,17.8337
1495792232,910.000000005,20.5441
1495792236,914.800000005,20.1398
1495792240,907.600000005,18.3338
1495792244,926.800000005,19.9388
1495792248,917.200000005,25.4918
1495792252,929.200000005,20.6818
1495792256,960.400000005,23.9382
1495792260,1008.400000005,20.7772
1495792264,962.800000005,20.5381
1495792268,1027.600000005,21.8414
1495792272,1049.200000005,22.4147
1495792276,982.000000005,17.1774
1495792280,1008.400000005,20.4992
1495792284,1022.800000005,17.8031
1495792288,1010.800000005,16.2866
1495792292,1027.600000005,20.5825
1495792296,994.000000005,21.6107
1495792300,1025.200000005,13.8147
1495792304,991.600000005,20.3254
1495792308,948.400000005,19.4137
1495792312,907.600000005,15.6675
1495792316,917.200000005,20.5522
1495792320,962.800000005,19.5118
1495792324,919.600000005,21.3582
1495792328,898.000000005,18.986
1495792332,905.200000005,21.0681
1495792336,991.600000005,19.2955
1495792340,902.800000005,17.4494
1495792344,994.000000005,18.0258
1495792348,948.400000005,16.4977
1495792352,902.800000005,14.7554
1495792356,950.800000005,13.9075
1495792360,907.600000005,18.6686
1495792364,974.800000005,17.4687
1495792368,936.400000005,18.0646
1495792372,996.400000005,16.5617
1495792376,1013.200000005,15.8501
1495792380,905.200000005,17.4004
1495792384,941.200000005,13.997
1495792388,943.600000005,19.6012
1495792392,979.600000005,18.6757
1495792396,934.000000005,17.7105
1495792400,1020.400000005,19.4476
1495792404,989.200000005,22.5069
1495792408,931.600000005,17.7545
1495792412,979.600000005,22.3742
1495792416,1027.600000005,21.5658
1495792420,914.800000005,19.8993
1495792424,946.000000005,23.0996
1495792428,917.200000005,22.714
1495792432,881.200000005,21.4202
1495792436,967.600000005,22.1106
1495792440,912.400000005,23.8236
1495792444,905.200000005,19.6228
1495792448,907.600000005,19.7761
1495792452,883.600000005,21.2326
1495792456,886.000000005,22.7914
1495792460,895.600000005,22.1909
1495792464,926.800000005,22.4399
1495792468,958.000000005,18.8905
1495792472,898.000000005,25.9939
1495792476,1020.400000005,21.3301
1495792480,953.200000005,22.7485
1495792484,907.600000005,19.6145
1495792488,946.000000005,21.1139
1495792492,1025.200000005,20.1648
1495792496,919.600000005,20.7248
1495792500,929.200000005,20.1571
1495792504,926.800000005,23.1507
1495792508,943.600000005,22.0175
1495792512,914.800000005,20.5686
1495792516,914.800000005,21.6302
1495792520,890.800000005,17.3951
1495792524,912.400000005,16.8153
1495792528,972.400000005,20.5946
1495792532,960.400000005,20.862
1495792536,912.400000005,21.1548
1495792540,967.600000005,24.0202
1495792544,929.200000005,19.3395
1495792548,914.800000005,20.1728
1495792552,926.800000005,17.2984
1495792556,917.200000005,18.5949
1495792560,1010.800000005,19.1748
1495792564,943.600000005,19.2859
1495792568,1008.400000005,21.4434
1495792572,946.000000005,19.071
1495792576,912.400000005,23.907
1495792580,965.200000005,21.582
1495792584,907.600000005,17.5891
1495792588,871.600000005,22.3781
1495792592,900.400000005,17.6143
1495792596,926.800000005,20.3003
1495792600,902.800000005,22.8715
1495792604,888.400000005,19.7086
1495792608,900.400000005,20.1739
1495792612,955.600000005,26.1405
1495792616,912.400000005,19.5578
1495792620,900.400000005,22.1146
1495792624,898.000000005,22.4644
1495792628,881.200000005,22.6111
1495792632,907.600000005,20.1545
1495792636,922.000000005,17.3587
1495792640,914.800000005,18.0286
1495792644,960.400000005,15.3948
1495792648,895.600000005,17.2208
1495792652,878.800000005,16.5049
1495792656,929.200000005,17.4233
1495792660,905.200000005,19.0008
1495792664,895.600000005,17.3971
1495792668,895.600000005,18.0781
1495792672,979.600000005,19.2113
1495792676,907.600000005,22.1075
1495792680,912.400000005,15.5932
1495792684,1003.600000005,17.4099
1495792688,979.600000005,18.8713
1495792692,953.200000005,17.9044
1495792696,989.200000005,16.9829
1495792700,974.800000005,16.9606
1495792704,965.200000005,18.4828
1495792708,1037.200000005,20.3701
1495792712,998.800000005,21.4082
1495792716,917.200000005,18.3765
1495792720,1030.000000005,22.8536
1495792724,991.600000005,19.0852
1495792728,912.400000005,17.408
1495792732,922.000000005,22.1011
1495792736,967.600000005,21.3511
1495792740,917.200000005,16.7563
1495792744,962.800000005,17.7335
1495792748,950.800000005,16.3066
1495792752,929.200000005,19.3101
1495792756,989.200000005,20.6506
1495792760,967.600000005,18.1357
1495792764,890.800000005,22.0574
1495792768,902.800000005,19.6373
1495792772,996.400000005,22.9168
1495792776,941.200000005,19.4266
1495792780,924.400000005,19.2399
1495792784,938.800000005,20.2017
1495792788,914.800000005,18.4303
1495792792,1006.000000005,20.7937
1495792796,991.600000005,17.2428
1495792800,883.600000005,23.0788
1495792804,924.400000005,16.3247
1495792808,919.600000005,22.7553
1495792812,859.600000005,19.4955
1495792816,881.200000005,19.2994
1495792820,931.600000005,19.3505
1495792824,886.000000005,19.1072
1495792828,866.800000005,19.451
1495792832,938.800000005,19.2309
1495792836,912.400000005,20.7492
1495792840,902.800000005,20.8465
1495792844,874.000000005,19.8078
1495792848,910.000000005,24.7787
1495792852,960.400000005,22.0557
1495792856,902.800000005,21.8842
1495792860,902.800000005,23.9689
1495792864,902.800000005,20.4057
1495792868,898.000000005,21.8004
1495792872,850.000000005,25.3616
1495792876,917.200000005,23.9313
1495792880,919.600000005,23.1083
1495792884,854.800000005,22.4455
1495792888,890.800000005,25.9752
1495792892,905.200000005,21.4666
1495792896,893.200000005,22.2924
1495792900,888.400000005,22.6068
1495792904,912.400000005,19.4998
1495792908,895.600000005,24.8391
1495792912,864.400000005,21.3113
1495792916,922.000000005,25.0507
1495792920,869.200000005,23.8518
1495792924,850.000000005,26.1962
1495792928,883.600000005,24.5649
1495792932,802.000000005,19.2671
1495792936,895.600000005,24.5782
1495792940,871.600000005,26.3263
1495792944,828.400000005,21.522
1495792948,862.000000005,23.8384
1495792952,886.000000005,24.2767
1495792956,874.000000005,23.2653
1495792960,905.200000005,23.4606
1495792964,1022.800000005,22.9848
1495792968,1032.400000005,21.8772
1495792972,1013.200000005,18.4951
1495792976,1001.200000005,21.6423
1495792980,1054.000000005,20.6328
1495792984,1039.600000005,19.9358
1495792988,1039.600000005,17.8353
1495792992,1003.600000005,20.269
1495792996,1032.400000005,18.822
1495793000,1068.400000005,21.6258
1495793004,1003.600000005,20.9213
1495793008,962.800000005,21.0586
1495793012,986.800000005,21.4977
1495793016,1056.400000005,21.7898
1495793020,1001.200000005,21.3972
1495793024,936.400000005,21.2752
1495793028,1018.000000005,17.4527
1495793032,936.400000005,18.4269
1495793036,972.400000005,19.8664
1495793040,929.200000005,21.478
1495793044,917.200000005,22.4248
1495793048,898.000000005,21.0766
1495793052,931.600000005,18.4025
1495793056,895.600000005,20.8675
1495793060,974.800000005,20.8466
1495793064,907.600000005,23.863
1495793068,876.400000005,19.9918
1495793072,898.000000005,20.7074
1495793076,898.000000005,19.1854
1495793080,900.400000005,20.2076
1495793084,883.600000005,19.7594
1495793088,888.400000005,20.4512
1495793092,888.400000005,19.6908
1495793096,890.800000005,21.2594
1495793100,890.800000005,18.862
1495793104,898.000000005,18.736
1495793108,888.400000005,21.1291
1495793112,902.800000005,20.2152
1495793116,883.600000005,23.2966
1495793120,922.000000005,20.379
1495793124,919.600000005,19.9214
1495793128,886.000000005,13.9425
1495793132,893.200000005,19.8783
1495793136,890.800000005,16.8983
1495793140,895.600000005,19.1821
1495793144,917.200000005,20.0391
1495793148,924.400000005,14.5303
1495793152,866.800000005,18.3877
1495793156,898.000000005,17.0834
1495793160,938.800000005,19.8061
1495793164,905.200000005,16.8966
1495793168,866.800000005,19.7366
1495793172,895.600000005,15.8859
1495793176,907.600000005,17.6325
1495793180,919.600000005,15.0099
1495793184,922.000000005,19.2862
1495793188,926.800000005,19.9425
1495793192,902.800000005,15.8685
1495793196,967.600000005,17.6101
1495793200,970.000000005,21.9383
1495793204,943.600000005,20.4585
1495793208,979.600000005,21.258
1495793212,924.400000005,19.4902
1495793216,955.600000005,20.7396
1495793220,962.800000005,20.3721
1495793224,938.800000005,19.6949
1495793228,900.400000005,18.5591
1495793232,934.000000005,21.7629
1495793236,900.400000005,16.4113
1495793240,929.200000005,20.3524
1495793244,926.800000005,20.5196
1495793248,910.000000005,19.779
1495793252,912.400000005,18.9744
1495793256,965.200000005,18.4396
1495793260,886.000000005,17.0246
1495793264,914.800000005,23.0599
1495793268,900.400000005,18.1889
1495793272,962.800000005,20.8512
1495793276,881.200000005,16.7298
1495793280,869.200000005,20.1156
1495793284,924.400000005,18.6336
1495793288,888.400000005,17.9795
1495793292,912.400000005,16.2677
1495793296,910.000000005,15.0836
1495793300,874.000000005,17.6077
1495793304,912.400000005,20.8794
1495793308,907.600000005,17.7337
1495793312,895.600000005,25.0905
1495793316,878.800000005,22.1657
1495793320,907.600000005,20.9052
1495793324,907.600000005,21.4776
1495793328,869.200000005,19.6291
1495793332,931.600000005,22.2539
1495793336,883.600000005,21.3796
1495793340,936.400000005,19.8421
1495793344,888.400000005,23.6775
1495793348,902.800000005,24.0683
1495793352,883.600000005,20.5331
1495793356,883.600000005,24.3775
1495793360,922.000000005,25.3192
1495793364,859.600000005,23.0208
1495793368,828.400000005,22.6113
1495793372,888.400000005,22.6698
1495793376,876.400000005,23.8709
1495793380,902.800000005,19.673
1495793384,919.600000005,23.8774
1495793388,950.800000005,23.8939
1495793392,1008.400000005,25.373
1495793396,1015.600000005,19.6672
1495793400,991.600000005,21.1058
1495793404,972.400000005,22.9123
1495793408,977.200000005,21.9675
1495793412,986.800000005,20.8333
1495793416,996.400000005,21.5131
1495793420,926.800000005,17.1411
1495793424,898.000000005,22.329
1495793428,922.000000005,23.2202
1495793432,950.800000005,19.9799
1495793436,998.800000005,20.1592
1495793440,1025.200000005,21.3471
1495793444,1027.600000005,19.9506
1495793448,1013.200000005,15.4515
1495793452,960.400000005,20.0231
1495793456,1027.600000005,19.5391
1495793460,1018.000000005,18.6716
1495793464,1003.600000005,21.1578
1495793468,958.000000005,19.9128
1495793472,986.800000005,17.0049
1495793476,910.000000005,18.2494
1495793480,1027.600000005,13.2925
1495793484,1032.400000005,19.5742
1495793488,1027.600000005,20.0712
1495793492,936.400000005,22.3323
1495793496,1015.600000005,15.6369
1495793500,960.400000005,23.3599
1495793504,929.200000005,24.6157
1495793508,979.600000005,22.6763
1495793512,1039.600000005,24.584
1495793516,986.800000005,23.9282
1495793520,1020.400000005,23.9401
1495793524,907.600000005,25.4933
1495793528,938.800000005,25.4937
1495793532,902.800000005,22.1682
1495793536,934.000000005,25.8773
1495793540,931.600000005,23.7023
1495793544,938.800000005,23.0087
1495793548,907.600000005,24.6947
1495793552,883.600000005,23.7932
1495793556,941.200000005,21.9972
1495793560,881.200000005,24.2451
1495793564,874.000000005,24.3036
1495793568,900.400000005,21.8856
1495793572,902.800000005,25.284
1495793576,890.800000005,24.5235
1495793580,893.200000005,24.1332
1495793584,869.200000005,26.908
1495793588,835.600000005,19.8365
1495793592,857.200000005,24.2001
1495793596,859.600000005,25.1807
1495793600,881.200000005,24.197
1495793604,890.800000005,24.3688
1495793608,917.200000005,25.5769
1495793612,917.200000005,21.4396
1495793616,902.800000005,21.925
1495793620,929.200000005,19.75
1495793624,902.800000005,17.3266
1495793628,912.400000005,18.5443
1495793632,919.600000005,19.4982
1495793636,902.800000005,23.4945
1495793640,974.800000005,19.4708
1495793644,905.200000005,20.6295
1495793648,876.400000005,19.5454
1495793652,982.000000005,19.5512
1495793656,895.600000005,13.9882
1495793660,895.600000005,18.3803
1495793664,936.400000005,21.9765
1495793668,938.800000005,18.8851
1495793672,938.800000005,19.6674
1495793676,890.800000005,17.6713
1495793680,907.600000005,21.262
1495793684,907.600000005,20.1511
1495793688,890.800000005,20.9305
1495793692,922.000000005,20.1083
1495793696,902.800000005,20.6949
1495793700,871.600000005,19.2597
1495793704,922.000000005,17.1009
1495793708,910.000000005,16.9662
1495793712,919.600000005,18.3637
1495793716,953.200000005,19.8612
1495793720,1042.000000005,21.1569
1495793724,972.400000005,19.4222
1495793728,972.400000005,20.4885
1495793732,1025.200000005,23.2146
1495793736,1006.000000005,23.4764
1495793740,972.400000005,22.7226
1495793744,1044.400000005,19.3307
1495793748,1042.000000005,19.9152
1495793752,1032.400000005,22.8254
1495793756,1018.000000005,26.0262
1495793760,982.000000005,22.6533
1495793764,1063.600000005,22.6288
1495793768,1020.400000005,18.0147
1495793772,1015.600000005,20.4462
1495793776,1037.200000005,19.6919
1495793780,996.400000005,22.5484
1495793784,972.400000005,21.4372
1495793788,1013.200000005,23.19
1495793792,1032.400000005,21.9951
1495793796,1013.200000005,24.604
1495793800,1061.200000005,20.2311
1495793804,1032.400000005,22.3705
1495793808,1054.000000005,20.3188
1495793812,1037.200000005,22.1616
1495793816,1166.800000005,21.5746
1495793820,1078.000000005,20.5696
1495793824,1066.000000005,19.4169
1495793828,1066.000000005,20.7182
1495793832,1056.400000005,22.8504
1495793836,1042.000000005,17.785
1495793840,1056.400000005,20.7016
1495793844,1046.800000005,20.508
1495793848,1034.800000005,20.2267
1495793852,1030.000000005,21.9607
1495793856,972.400000005,22.6038
1495793860,902.800000005,23.6732
1495793864,902.800000005,20.0546
1495793868,934.000000005,21.7813
1495793872,922.000000005,22.1648
1495793876,890.800000005,20.3299
1495793880,883.600000005,19.0384
1495793884,926.800000005,22.2112
1495793888,950.800000005,22.1431
1495793892,895.600000005,22.33
1495793896,890.800000005,19.5056
1495793900,917.200000005,18.1312
1495793904,936.400000005,17.9896
1495793908,917.200000005,20.335
1495793912,907.600000005,22.7611
1495793916,950.800000005,21.2611
1495793920,953.200000005,19.8848
1495793924,907.600000005,18.9834
1495793928,907.600000005,17.9598
1495793932,929.200000005,22.7692
1495793936,907.600000005,21.8636
1495793940,871.600000005,22.0352
1495793944,955.600000005,15.4147
1495793948,878.800000005,22.7136
1495793952,905.200000005,22.8206
1495793956,898.000000005,22.68
1495793960,905.200000005,27.0036
1495793964,902.800000005,21.5018
1495793968,917.200000005,18.2655
1495793972,926.800000005,20.6625
1495793976,893.200000005,20.3334
1495793980,907.600000005,22.6947
1495793984,943.600000005,25.4172
1495793988,972.400000005,21.5316
1495793992,936.400000005,21.0971
1495793996,926.800000005,17.9251
1495794000,955.600000005,18.9265
1495794004,922.000000005,21.3704
1495794008,922.000000005,21.4146
1495794012,924.400000005,23.2079
1495794016,871.600000005,17.3285
1495794020,919.600000005,17.8037
1495794024,960.400000005,18.129
1495794028,967.600000005,20.0615
1495794032,862.000000005,25.1455
1495794036,931.600000005,20.4633
1495794040,948.400000005,21.6638
1495794044,938.800000005,17.8446
1495794048,914.800000005,20.1756
1495794052,929.200000005,21.9395
1495794056,938.800000005,19.1461
1495794060,900.400000005,19.1689
1495794064,1020.400000005,25.0346
1495794068,960.400000005,22.247
1495794072,926.800000005,20.1661
1495794076,991.600000005,23.3332
1495794080,1006.000000005,22.1343
1495794084,936.400000005,24.1237
1495794088,986.800000005,21.5949
1495794092,1001.200000005,22.811
1495794096,953.200000005,22.5116
1495794100,982.000000005,20.567
1495794104,1003.600000005,20.2392
1495794108,1037.200000005,16.1885
1495794112,1025.200000005,22.5035
1495794116,941.200000005,22.2523
1495794120,984.400000005,20.7696
1495794124,1015.600000005,21.3142
1495794128,984.400000005,21.3108
1495794132,931.600000005,20.7606
1495794136,859.600000005,19.1078
1495794140,950.800000005,24.4793
1495794144,977.200000005,21.6467
1495794152,936.400000005,22.733
1495794156,948.400000005,20.8002
1495794160,926.800000005,21.1672
1495794164,958.000000005,18.9143
1495794168,946.000000005,23.5317
1495794172,910.000000005,21.4398
1495794176,910.000000005,22.8779
1495794180,953.200000005,19.0687
1495794184,924.400000005,23.5894
1495794188,898.000000005,21.4748
1495794192,929.200000005,18.9533
1495794196,910.000000005,22.4871
1495794200,917.200000005,20.0324
1495794204,912.400000005,22.1674
1495794208,895.600000005,19.3856
1495794212,931.600000005,24.0024
1495794216,886.000000005,26.6579
1495794220,912.400000005,22.4528
1495794224,902.800000005,19.6549
1495794228,888.400000005,24.1085
1495794232,934.000000005,22.2265
1495794236,895.600000005,24.7174
1495794240,864.400000005,23.5424
1495794244,898.000000005,19.8822
1495794248,922.000000005,20.3931
1495794252,895.600000005,22.3975
1495794256,902.800000005,21.4484
1495794260,934.000000005,21.1017
1495794264,888.400000005,22.2421
1495794268,924.400000005,18.5833
1495794272,1018.000000005,15.4486
1495794276,950.800000005,19.3929
1495794280,970.000000005,21.0221
1495794284,977.200000005,19.7115
1495794288,1037.200000005,17.8317
1495794292,1044.400000005,16.2544
1495794296,1034.800000005,20.0044
1495794300,1092.400000005,16.5024
1495794304,1039.600000005,21.825
1495794308,998.800000005,18.9866
1495794312,1054.000000005,18.314
1495794316,1030.000000005,18.1559
1495794320,1018.000000005,18.5081
1495794324,1003.600000005,19.1955
1495794328,1068.400000005,20.5506
1495794332,1054.000000005,18.5459
1495794336,950.800000005,18.5105
1495794340,998.800000005,21.7205
1495794344,1046.800000005,23.1565
1495794348,977.200000005,17.7477
1495794352,1003.600000005,20.9542
1495794356,962.800000005,20.292
1495794360,972.400000005,23.6499
1495794364,919.600000005,23.8981
1495794368,989.200000005,19.9724
1495794372,941.200000005,22.6271
1495794380,1044.400000005,21.1582
1495794384,958.000000005,15.9623
1495794388,941.200000005,19.8738
1495794392,910.000000005,22.6208
1495794396,943.600000005,22.9194
1495794400,926.800000005,25.2148
1495794404,893.200000005,17.8811
1495794408,917.200000005,21.3718
1495794412,917.200000005,18.3312
1495794416,922.000000005,16.1746
1495794420,886.000000005,22.4682
1495794424,907.600000005,21.002
1495794428,912.400000005,21.1157
1495794432,941.200000005,23.1934
1495794436,979.600000005,18.2639
1495794440,946.000000005,18.285
1495794444,926.800000005,24.312
1495794448,931.600000005,17.8044
1495794452,924.400000005,24.1181
1495794456,982.000000005,19.7343
1495794460,943.600000005,19.8067
1495794464,941.200000005,18.4933
1495794468,941.200000005,23.7307
1495794472,1020.400000005,19.0646
1495794476,979.600000005,18.2186
1495794480,977.200000005,20.0176
1495794484,1013.200000005,22.219
1495794488,965.200000005,24.4028
1495794492,1018.000000005,26.5758
1495794496,965.200000005,18.0962
1495794500,996.400000005,22.8917
1495794504,931.600000005,22.9999
1495794508,977.200000005,23.9615
1495794512,881.200000005,23.6888
1495794516,922.000000005,20.5744
1495794520,907.600000005,20.6405
1495794524,898.000000005,19.9236
1495794528,926.800000005,19.7231
1495794532,874.000000005,20.8338
1495794536,922.000000005,22.6822
1495794540,950.800000005,18.0312
1495794544,898.000000005,19.622
1495794548,898.000000005,21.0343
1495794552,929.200000005,21.5682
1495794556,919.600000005,20.2995
1495794560,905.200000005,22.8489
1495794564,881.200000005,22.941
1495794568,905.200000005,22.2706
1495794572,934.000000005,25.77
1495794576,917.200000005,26.1215
1495794580,922.000000005,24.1872
1495794584,955.600000005,23.5662
1495794588,914.800000005,24.1421
1495794592,912.400000005,26.8816
1495794596,905.200000005,22.3881
1495794600,912.400000005,23.2969
1495794604,938.800000005,23.6792
1495794608,917.200000005,23.6308
1495794612,895.600000005,21.4036
1495794616,941.200000005,17.6505
1495794620,900.400000005,22.8522
1495794624,888.400000005,22.3357
1495794628,910.000000005,26.3067
1495794632,934.000000005,21.1621
1495794636,874.000000005,24.7783
1495794640,902.800000005,25.9902
1495794644,881.200000005,21.5474
1495794648,895.600000005,21.8276
1495794652,900.400000005,25.3766
1495794656,900.400000005,22.0886
1495794660,919.600000005,20.5317
1495794664,900.400000005,23.4818
1495794668,931.600000005,22.058
1495794672,871.600000005,17.9507
1495794676,886.000000005,21.7401
1495794680,929.200000005,22.9087
1495794684,888.400000005,25.4271
1495794688,917.200000005,19.9097
1495794692,910.000000005,24.4893
1495794696,898.000000005,22.7214
1495794700,890.800000005,22.7998
1495794704,953.200000005,21.7025
1495794708,895.600000005,24.471
1495794712,924.400000005,21.4799
1495794716,926.800000005,22.5659
1495794720,943.600000005,20.9114
1495794724,902.800000005,17.7455
1495794728,943.600000005,19.9902
1495794732,926.800000005,16.6528
1495794736,919.600000005,20.6245
1495794740,984.400000005,19.0847
1495794744,924.400000005,17.9744
1495794748,895.600000005,21.5232
1495794752,914.800000005,17.9998
1495794756,936.400000005,20.0138
1495794760,914.800000005,19.4838
1495794764,977.200000005,18.5493
1495794768,912.400000005,15.7303
1495794772,950.800000005,17.1093
1495794776,1027.600000005,18.4726
1495794780,967.600000005,18.397
1495794784,948.400000005,22.0228
1495794788,1044.400000005,14.5276
1495794792,929.200000005,20.0597
1495794796,936.400000005,15.8762
1495794800,1020.400000005,19.0911
1495794804,926.800000005,20.3974
1495794808,955.600000005,16.5538
1495794812,1049.200000005,17.168
1495794816,1006.000000005,21.7101
1495794820,1008.400000005,16.903
1495794824,917.200000005,17.3772
1495794828,922.000000005,21.041
1495794832,912.400000005,20.4964
1495794836,1003.600000005,24.2422
1495794840,924.400000005,19.6603
1495794844,948.400000005,20.402
1495794848,960.400000005,20.721
1495794852,922.000000005,21.0341
1495794856,874.000000005,22.2474
1495794860,905.200000005,20.718
1495794864,910.000000005,21.0605
1495794868,888.400000005,20.6066
1495794872,912.400000005,18.2298
1495794876,878.800000005,23.201
1495794880,869.200000005,23.2336
1495794884,955.600000005,21.1208
1495794888,874.000000005,25.21
1495794892,866.800000005,19.9011
1495794896,912.400000005,25.1534
1495794900,874.000000005,22.1681
1495794904,883.600000005,21.2327
1495794908,907.600000005,19.0843
1495794912,878.800000005,21.0717
1495794916,898.000000005,18.8011
1495794920,888.400000005,17.9731
1495794924,900.400000005,20.2934
1495794928,931.600000005,19.3566
1495794932,895.600000005,18.3713
1495794936,816.400000005,17.1801
1495794940,917.200000005,19.1986
1495794944,905.200000005,21.9579
1495794948,905.200000005,18.8324
1495794952,864.400000005,15.5725
1495794956,874.000000005,18.7764
1495794960,890.800000005,17.9749
1495794964,895.600000005,20.57
1495794968,914.800000005,18.8654
1495794972,907.600000005,20.2488
1495794976,881.200000005,18.3407
1495794980,912.400000005,17.6156
1495794984,869.200000005,23.1163
1495794988,886.000000005,17.855
1495794992,938.800000005,22.4132
1495794996,902.800000005,21.0911
1495795000,924.400000005,19.1853
1495795004,898.000000005,21.6538
1495795008,895.600000005,18.4326
1495795012,881.200000005,20.0563
1495795016,910.000000005,19.3536
1495795020,922.000000005,21.0861
1495795024,919.600000005,18.0368
1495795028,924.400000005,22.2183
1495795032,958.000000005,20.091
1495795036,886.000000005,19.5354
1495795040,883.600000005,20.0936
1495795044,890.800000005,21.7296
1495795048,926.800000005,21.4608
1495795052,979.600000005,20.4319
1495795056,881.200000005,21.1501
1495795060,890.800000005,26.5242
1495795064,914.800000005,24.9633
1495795068,910.000000005,22.7373
1495795072,926.800000005,23.9158
1495795076,953.200000005,21.1299
1495795080,994.000000005,21.3224
1495795084,936.400000005,22.0402
1495795088,910.000000005,24.3188
1495795092,1049.200000005,22.9319
1495795096,929.200000005,22.2949
1495795100,960.400000005,19.4388
1495795104,907.600000005,25.323
1495795108,960.400000005,25.11
1495795112,938.800000005,23.2529
1495795116,926.800000005,22.4357
1495795120,924.400000005,21.4434
1495795124,907.600000005,22.5577
1495795128,907.600000005,19.3306
1495795132,900.400000005,22.3499
1495795136,886.000000005,21.7071
1495795140,898.000000005,24.0927
1495795144,893.200000005,22.1682
1495795148,888.400000005,21.6359
1495795152,864.400000005,20.7731
1495795156,900.400000005,22.6411
1495795160,876.400000005,19.5163
1495795164,878.800000005,20.2723
1495795168,902.800000005,20.1841
1495795172,864.400000005,20.9052
1495795176,893.200000005,20.8279
1495795180,907.600000005,19.1775
1495795184,883.600000005,20.1643
1495795188,881.200000005,24.0762
1495795192,888.400000005,21.4471
1495795196,850.000000005,22.0967
1495795200,883.600000005,24.6573
1495795204,900.400000005,23.3872
1495795208,878.800000005,20.0581
1495795212,854.800000005,24.0609
1495795216,922.000000005,22.8783
1495795220,943.600000005,20.2601
1495795224,854.800000005,23.0885
