tag_number,delay,power_est
1490940048,358.8000000027,13.3886
1490940050,426.0000000027,11.5205
1490940052,445.2000000027,9.16585
1490940054,378.0000000027,8.9915
1490940056,454.8000000027,7.06626
1490940058,402.0000000027,9.28716
1490940060,344.4000000027,9.65434
1490940062,392.4000000027,7.29326
1490940064,423.6000000027,9.30702
1490940066,392.4000000027,9.57777
1490940068,397.2000000027,9.63835
1490940070,406.8000000027,9.76268
1490940072,344.4000000027,11.2874
1490940074,349.2000000027,10.3276
1490940076,358.8000000027,9.71679
1490940078,337.2000000027,11.3542
1490940080,363.6000000027,10.3275
1490940082,354.0000000027,11.8653
1490940084,368.4000000027,12.8981
1490940086,399.6000000027,9.71036
1490940088,342.0000000027,7.69662
1490940090,361.2000000027,7.33383
1490940092,370.8000000027,9.14881
1490940094,358.8000000027,12.0907
1490940096,375.6000000027,12.0316
1490940098,368.4000000027,8.43976
1490940100,366.0000000027,8.2137
1490940102,337.2000000027,5.28006
1490940104,320.4000000027,8.28541
1490940106,375.6000000027,7.06724
1490940108,378.0000000027,8.91082
1490940110,332.4000000027,8.69071
1490940112,390.0000000027,6.8853
1490940114,416.4000000027,9.15078
1490940116,356.4000000027,8.92716
1490940118,366.0000000027,7.86273
1490940120,418.8000000027,7.10339
1490940122,368.4000000027,9.77014
1490940124,361.2000000027,8.81015
1490940126,385.2000000027,7.92548
1490940128,387.6000000027,6.44652
1490940130,380.4000000027,11.0323
1490940132,394.8000000027,9.60803
1490940134,476.4000000027,8.76561
1490940136,483.6000000027,9.28266
1490940138,536.4000000027,9.72496
1490940140,522.0000000027,9.7268
1490940142,538.8000000027,10.9103
1490940144,486.0000000027,6.56675
1490940146,541.2000000027,8.09245
1490940148,471.6000000027,8.45281
1490940150,466.8000000027,9.56544
1490940152,560.4000000027,10.6403
1490940154,462.0000000027,12.0341
1490940156,543.6000000027,8.79656
1490940158,462.0000000027,8.25058
1490940160,469.2000000027,9.7232
1490940162,474.0000000027,10.8298
1490940164,546.0000000027,8.12898
1490940166,466.8000000027,8.43648
1490940168,481.2000000027,9.86229
1490940170,476.4000000027,11.7887
1490940172,483.6000000027,7.94327
1490940174,476.4000000027,9.23902
1490940176,476.4000000027,10.6887
1490940178,481.2000000027,10.2277
1490940180,474.0000000027,8.84102
1490940182,469.2000000027,8.46589
1490940184,562.8000000027,11.1881
1490940186,462.0000000027,13.3915
1490940188,457.2000000027,11.5178
1490940190,534.0000000027,9.48934
1490940192,488.4000000027,10.3336
1490940194,466.8000000027,10.3276
1490940196,476.4000000027,9.51587
1490940198,469.2000000027,10.9908
1490940200,471.6000000027,9.64197
1490940202,526.8000000027,11.8877
1490940204,498.0000000027,9.54419
1490940206,493.2000000027,8.82818
1490940208,531.6000000027,10.055
1490940210,440.4000000027,10.9287
1490940212,517.2000000027,12.5965
1490940214,469.2000000027,11.5425
1490940216,478.8000000027,10.6911
1490940218,466.8000000027,10.9145
1490940220,481.2000000027,11.517
1490940222,466.8000000027,10.9748
1490940224,469.2000000027,9.16637
1490940226,514.8000000027,7.961
1490940228,529.2000000027,10.7321
1490940230,474.0000000027,9.12007
1490940232,507.6000000027,8.77139
1490940234,476.4000000027,10.8307
1490940236,454.8000000027,10.5979
1490940238,538.8000000027,12.2876
1490940240,476.4000000027,9.098
1490940242,457.2000000027,11.5455
1490940244,476.4000000027,10.7766
1490940246,457.2000000027,10.6204
1490940248,464.4000000027,10.1763
1490940250,483.6000000027,8.57402
1490940252,474.0000000027,10.6555
1490940254,464.4000000027,9.51707
1490940256,452.4000000027,5.53453
1490940258,474.0000000027,9.4283
1490940260,466.8000000027,12.1885
1490940262,452.4000000027,11.4747
1490940264,474.0000000027,9.68155
1490940266,454.8000000027,8.99263
1490940268,531.6000000027,8.97194
1490940270,476.4000000027,9.81421
1490940272,459.6000000027,9.13506
1490940274,483.6000000027,7.96472
1490940276,538.8000000027,10.2483
1490940278,560.4000000027,9.33304
1490940280,478.8000000027,9.47772
1490940282,550.8000000027,7.72289
1490940284,538.8000000027,8.47759
1490940286,486.0000000027,6.91398
1490940288,469.2000000027,7.81089
1490940290,459.6000000027,8.38355
1490940292,481.2000000027,7.0721
1490940294,474.0000000027,8.76831
1490940296,483.6000000027,7.80582
1490940298,522.0000000027,9.42236
1490940300,481.2000000027,7.74827
1490940302,481.2000000027,8.22092
1490940304,469.2000000027,9.00131
1490940306,483.6000000027,7.92098
1490940308,462.0000000027,9.45719
1490940310,457.2000000027,8.57211
1490940312,450.0000000027,6.62464
1490940314,459.6000000027,10.3891
1490940316,426.0000000027,9.80213
1490940318,526.8000000027,8.42483
1490940320,529.2000000027,8.68871
1490940322,462.0000000027,8.46659
1490940324,541.2000000027,7.44655
1490940326,553.2000000027,7.91014
1490940328,478.8000000027,9.02346
1490940330,543.6000000027,6.38886
1490940332,562.8000000027,7.46097
1490940334,562.8000000027,8.00404
1490940336,567.6000000027,8.43883
1490940338,658.8000000027,9.5551
1490940340,582.0000000027,9.75005
1490940342,565.2000000027,7.91232
1490940344,625.2000000027,5.98469
1490940346,550.8000000027,7.94037
1490940348,618.0000000027,8.74978
1490940350,579.6000000027,8.63404
1490940352,558.0000000027,9.52712
1490940354,586.8000000027,8.79851
1490940356,589.2000000027,5.07183
1490940358,572.4000000027,8.80918
1490940360,622.8000000027,7.54504
1490940362,610.8000000027,7.88065
1490940364,577.2000000027,6.50005
1490940366,608.4000000027,9.60626
1490940368,627.6000000027,10.4643
1490940370,572.4000000027,9.89274
1490940372,603.6000000027,10.8175
1490940374,622.8000000027,7.40284
1490940376,666.0000000027,8.35956
1490940378,591.6000000027,8.05685
1490940380,639.6000000027,8.10979
1490940382,678.0000000027,10.5536
1490940384,601.2000000027,11.0874
1490940386,644.4000000027,10.4684
1490940388,627.6000000027,11.2425
1490940390,596.4000000027,10.324
1490940392,680.4000000027,10.1136
1490940394,596.4000000027,9.89431
1490940396,565.2000000027,11.0523
1490940398,570.0000000027,8.03271
1490940400,620.4000000027,6.62559
1490940402,579.6000000027,7.85533
1490940404,574.8000000027,8.50651
1490940406,610.8000000027,7.71371
1490940410,572.4000000027,6.69738
1490940412,594.0000000027,8.06674
1490940416,618.0000000027,8.82613
1490940418,644.4000000027,9.91993
1490940420,601.2000000027,12.6627
1490940422,608.4000000027,13.1366
1490940424,649.2000000027,12.6208
1490940426,546.0000000027,12.8977
1490940428,579.6000000027,12.2536
1490940430,615.6000000027,9.45018
1490940432,572.4000000027,12.2793
1490940434,625.2000000027,10.4886
1490940436,615.6000000027,10.16
1490940438,632.4000000027,7.26775
1490940440,565.2000000027,11.3097
1490940442,642.0000000027,8.98025
1490940444,625.2000000027,9.93917
1490940446,618.0000000027,10.1497
1490940448,586.8000000027,11.284
1490940450,589.2000000027,11.2799
1490940452,560.4000000027,10.6582
1490940454,584.4000000027,10.0893
1490940456,646.8000000027,9.27916
1490940458,634.8000000027,10.3404
1490940460,570.0000000027,11.3076
1490940462,618.0000000027,8.41096
1490940464,555.6000000027,7.60023
1490940466,577.2000000027,10.93
1490940468,589.2000000027,10.0186
1490940470,474.0000000027,13.5765
1490940472,553.2000000027,13.1988
1490940474,560.4000000027,11.0871
1490940476,522.0000000027,10.1525
1490940478,546.0000000027,9.49171
1490940480,570.0000000027,11.5478
1490940482,478.8000000027,12.1728
1490940484,490.8000000027,10.7297
1490940486,574.8000000027,9.65627
1490940488,570.0000000027,10.6867
1490940490,543.6000000027,10.5074
1490940492,558.0000000027,12.1212
1490940494,577.2000000027,9.62273
1490940496,524.4000000027,11.1173
1490940498,541.2000000027,10.1039
1490940500,572.4000000027,9.45187
1490940502,553.2000000027,9.40234
1490940504,565.2000000027,7.34229
1490940506,577.2000000027,6.36843
1490940508,478.8000000027,8.68496
1490940510,555.6000000027,7.97693
1490940512,486.0000000027,10.6356
1490940514,481.2000000027,8.67465
1490940516,476.4000000027,8.58299
1490940518,548.4000000027,9.64349
1490940520,464.4000000027,9.05171
1490940522,512.4000000027,9.64226
1490940524,481.2000000027,10.1954
1490940526,478.8000000027,10.121
1490940528,531.6000000027,9.87249
1490940530,512.4000000027,9.13712
1490940532,471.6000000027,10.7489
1490940534,565.2000000027,11.9497
1490940536,536.4000000027,8.19463
1490940538,478.8000000027,7.77033
1490940540,447.6000000027,6.90201
1490940542,490.8000000027,8.29157
1490940544,534.0000000027,9.13845
1490940546,476.4000000027,9.27846
1490940548,574.8000000027,12.5152
1490940550,570.0000000027,9.89031
1490940552,574.8000000027,10.4309
1490940554,622.8000000027,10.204
1490940556,574.8000000027,9.20596
1490940558,639.6000000027,10.6845
1490940560,615.6000000027,10.1317
1490940562,637.2000000027,9.79621
1490940564,610.8000000027,10.6535
1490940566,654.0000000027,9.64255
1490940568,680.4000000027,9.46269
1490940570,627.6000000027,9.01798
1490940572,615.6000000027,9.26555
1490940574,699.6000000027,9.56181
1490940576,574.8000000027,9.83754
1490940578,630.0000000027,9.82993
1490940580,610.8000000027,11.9519
1490940582,567.6000000027,10.4869
1490940584,582.0000000027,10.9732
1490940586,579.6000000027,11.3281
1490940588,546.0000000027,10.4096
1490940590,570.0000000027,10.0742
1490940592,546.0000000027,9.73202
1490940594,488.4000000027,11.6722
1490940596,555.6000000027,8.1559
1490940598,546.0000000027,8.24104
1490940600,584.4000000027,9.36113
1490940602,562.8000000027,10.1591
1490940604,548.4000000027,11.1134
1490940606,558.0000000027,10.7302
1490940608,570.0000000027,9.64308
1490940610,630.0000000027,8.04003
1490940612,553.2000000027,8.24191
1490940614,574.8000000027,9.50911
1490940616,582.0000000027,9.26444
1490940618,596.4000000027,11.3217
1490940620,610.8000000027,10.8744
1490940622,639.6000000027,11.2084
1490940624,663.6000000027,8.9394
1490940626,613.2000000027,9.4197
1490940628,651.6000000027,9.61385
1490940630,644.4000000027,8.9034
1490940632,625.2000000027,9.64973
1490940634,625.2000000027,6.95206
1490940636,632.4000000027,6.88069
1490940638,577.2000000027,9.27135
1490940640,642.0000000027,8.55002
1490940642,663.6000000027,9.80318
1490940644,627.6000000027,9.58953
1490940646,603.6000000027,8.79074
1490940648,615.6000000027,7.66584
1490940650,603.6000000027,8.08882
1490940652,639.6000000027,10.3164
1490940654,620.4000000027,10.6492
1490940656,562.8000000027,8.2586
1490940658,582.0000000027,9.64389
1490940660,574.8000000027,9.41152
1490940662,555.6000000027,10.4678
1490940664,589.2000000027,9.79983
1490940666,634.8000000027,9.25072
1490940668,570.0000000027,9.42771
1490940670,582.0000000027,10.7883
1490940672,591.6000000027,9.73013
1490940674,548.4000000027,9.24709
1490940676,558.0000000027,11.8564
1490940678,558.0000000027,12.5461
1490940680,553.2000000027,11.8316
1490940682,553.2000000027,8.3247
1490940684,598.8000000027,8.29638
1490940686,562.8000000027,7.82241
1490940688,541.2000000027,9.36923
1490940690,543.6000000027,9.96227
1490940692,560.4000000027,10.7006
1490940694,560.4000000027,9.87022
1490940696,596.4000000027,9.45265
1490940698,555.6000000027,8.93034
1490940700,550.8000000027,9.18259
1490940702,543.6000000027,11.0626
1490940704,553.2000000027,10.5714
1490940706,534.0000000027,8.93794
1490940708,538.8000000027,9.66053
1490940710,543.6000000027,11.4901
1490940712,469.2000000027,10.3258
1490940714,553.2000000027,11.6819
1490940716,469.2000000027,12.6368
1490940718,546.0000000027,11.4138
1490940720,550.8000000027,13.9768
1490940722,550.8000000027,14.2234
1490940724,567.6000000027,11.556
1490940726,474.0000000027,9.57487
1490940728,481.2000000027,7.20432
1490940730,558.0000000027,13.4712
1490940732,531.6000000027,12.1229
1490940734,562.8000000027,7.57128
1490940736,543.6000000027,8.53076
1490940738,553.2000000027,9.07497
1490940740,570.0000000027,11.0271
1490940742,560.4000000027,11.7457
1490940744,572.4000000027,11.587
1490940746,541.2000000027,9.60615
1490940748,546.0000000027,10.846
1490940750,620.4000000027,8.96403
1490940752,565.2000000027,9.6677
1490940754,570.0000000027,10.7095
1490940756,572.4000000027,10.932
1490940758,574.8000000027,8.7222
1490940760,555.6000000027,10.9233
1490940762,474.0000000027,10.1969
1490940764,478.8000000027,12.6851
1490940766,531.6000000027,13.9684
1490940768,478.8000000027,8.31981
1490940770,471.6000000027,8.09411
1490940772,483.6000000027,7.06413
1490940774,519.6000000027,7.07663
1490940776,476.4000000027,8.14086
1490940778,526.8000000027,6.23779
1490940780,471.6000000027,8.58645
1490940782,474.0000000027,9.93814
1490940784,548.4000000027,9.14515
1490940786,447.6000000027,6.98533
1490940788,433.2000000027,9.97091
1490940790,447.6000000027,9.02238
1490940792,457.2000000027,8.75626
1490940794,454.8000000027,9.53174
1490940796,469.2000000027,8.9097
1490940798,462.0000000027,8.88809
1490940800,459.6000000027,10.1919
1490940802,481.2000000027,9.9996
1490940804,440.4000000027,8.33978
1490940806,469.2000000027,8.79873
1490940808,476.4000000027,7.95807
1490940810,466.8000000027,6.38087
1490940812,486.0000000027,8.64442
1490940814,474.0000000027,7.85603
1490940816,538.8000000027,6.72101
1490940818,519.6000000027,9.20168
1490940820,531.6000000027,7.0256
1490940822,548.4000000027,6.14721
1490940824,474.0000000027,7.14281
1490940826,534.0000000027,8.93659
1490940828,550.8000000027,8.87394
1490940830,476.4000000027,9.63762
1490940832,541.2000000027,9.22
1490940834,483.6000000027,8.85625
1490940836,464.4000000027,8.32122
1490940838,483.6000000027,8.53067
1490940840,478.8000000027,8.13135
1490940842,454.8000000027,8.30163
1490940844,471.6000000027,8.8188
1490940846,548.4000000027,9.15803
1490940848,469.2000000027,8.53411
1490940850,438.0000000027,10.2971
1490940852,462.0000000027,9.10629
1490940854,474.0000000027,7.02667
1490940856,428.4000000027,5.34855
1490940858,488.4000000027,6.9527
1490940860,469.2000000027,6.11517
1490940862,466.8000000027,7.52287
1490940864,486.0000000027,7.91953
1490940866,519.6000000027,8.40738
1490940868,474.0000000027,10.2996
1490940870,507.6000000027,10.8726
1490940872,531.6000000027,8.61046
1490940874,529.2000000027,8.55376
1490940876,529.2000000027,6.03193
1490940878,574.8000000027,7.74579
1490940880,471.6000000027,7.01097
1490940882,548.4000000027,8.23511
1490940884,459.6000000027,7.73386
1490940886,486.0000000027,11.0629
1490940888,478.8000000027,9.96019
1490940890,483.6000000027,7.38007
1490940892,538.8000000027,9.49033
1490940894,526.8000000027,7.72926
1490940896,493.2000000027,10.2085
1490940898,577.2000000027,9.59151
1490940900,565.2000000027,6.665
1490940902,570.0000000027,7.58578
1490940904,572.4000000027,7.46245
1490940906,666.0000000027,8.34178
1490940908,618.0000000027,7.23803
1490940910,603.6000000027,8.93184
1490940912,627.6000000027,8.09918
1490940914,582.0000000027,8.905
1490940916,586.8000000027,8.67025
1490940918,570.0000000027,9.06754
1490940920,558.0000000027,9.99776
1490940922,572.4000000027,10.2886
1490940924,562.8000000027,9.1918
1490940926,555.6000000027,9.56379
1490940928,543.6000000027,7.54349
1490940930,577.2000000027,8.43942
1490940932,553.2000000027,8.19573
1490940934,558.0000000027,9.34173
1490940936,579.6000000027,9.73906
1490940938,553.2000000027,7.76493
1490940940,565.2000000027,7.35799
1490940942,558.0000000027,9.22009
1490940944,543.6000000027,8.38578
1490940946,555.6000000027,9.61186
1490940948,584.4000000027,9.75856
1490940950,577.2000000027,10.7089
1490940952,548.4000000027,8.00173
1490940954,546.0000000027,9.47094
1490940956,538.8000000027,9.99214
1490940958,481.2000000027,11.7073
1490940960,481.2000000027,9.0127
1490940962,538.8000000027,8.57993
1490940964,567.6000000027,9.75764
1490940966,606.0000000027,8.36433
1490940968,642.0000000027,7.96989
1490940970,586.8000000027,9.54419
1490940972,634.8000000027,7.46174
1490940974,584.4000000027,8.16308
1490940976,584.4000000027,9.51484
1490940978,610.8000000027,10.7965
1490940980,579.6000000027,10.2344
1490940982,596.4000000027,7.39578
1490940984,603.6000000027,9.35561
1490940986,613.2000000027,7.42043
1490940988,560.4000000027,7.16925
1490940990,618.0000000027,11.1507
1490940992,637.2000000027,9.60004
1490940994,577.2000000027,8.16448
1490940996,565.2000000027,9.03794
1490940998,632.4000000027,8.76961
1490941000,562.8000000027,7.44956
1490941002,572.4000000027,10.0385
1490941004,608.4000000027,10.0943
1490941006,567.6000000027,10.5079
1490941008,555.6000000027,11.3603
1490941010,598.8000000027,11.1683
1490941012,548.4000000027,10.608
1490941014,562.8000000027,11.402
1490941016,594.0000000027,9.66134
1490941018,577.2000000027,10.254
1490941020,622.8000000027,10.8233
1490941022,589.2000000027,7.93039
1490941024,603.6000000027,8.95256
1490941026,591.6000000027,7.5319
1490941028,610.8000000027,10.38
1490941030,594.0000000027,8.51482
1490941032,627.6000000027,9.60971
1490941034,678.0000000027,10.7751
1490941036,577.2000000027,10.2877
1490941038,589.2000000027,6.99176
1490941040,582.0000000027,6.17161
1490941042,529.2000000027,4.57857
1490941044,594.0000000027,6.42306
1490941046,591.6000000027,6.54748
1490941048,577.2000000027,6.03871
1490941050,548.4000000027,5.4498
1490941052,584.4000000027,7.71192
1490941054,567.6000000027,8.14339
1490941056,565.2000000027,9.03453
1490941058,541.2000000027,10.7399
1490941060,586.8000000027,7.39172
1490941062,586.8000000027,10.2671
1490941064,603.6000000027,9.35351
1490941066,692.4000000027,11.649
1490941068,690.0000000027,11.2602
1490941070,680.4000000027,12.4581
1490941072,714.0000000027,12.0392
1490941074,764.4000000027,9.6087
1490941076,644.4000000027,10.7934
1490941078,730.8000000027,9.89352
1490941080,668.4000000027,10.2888
1490941082,663.6000000027,9.64361
1490941084,678.0000000027,8.95402
1490941086,582.0000000027,11.6783
1490941088,668.4000000027,9.37261
1490941090,649.2000000027,11.2682
1490941092,646.8000000027,10.2276
1490941094,622.8000000027,8.89722
1490941096,625.2000000027,7.44757
1490941098,608.4000000027,10.3828
1490941100,702.0000000027,7.57568
1490941102,632.4000000027,7.24671
1490941104,555.6000000027,7.6284
1490941106,673.2000000027,6.94284
1490941108,730.8000000027,7.57942
1490941110,694.8000000027,7.94247
1490941112,675.6000000027,7.82485
1490941114,747.6000000027,6.35525
1490941116,702.0000000027,6.50992
1490941118,738.0000000027,7.54552
1490941120,709.2000000027,10.7166
1490941122,678.0000000027,7.82499
1490941124,651.6000000027,9.24548
1490941126,692.4000000027,9.57763
1490941128,668.4000000027,7.92146
1490941130,699.6000000027,8.2535
1490941132,726.0000000027,8.77951
1490941134,687.6000000027,8.56824
1490941136,646.8000000027,8.92022
1490941138,723.6000000027,8.37281
1490941140,716.4000000027,9.78015
1490941142,656.4000000027,10.6183
1490941144,697.2000000027,11.0773
1490941146,637.2000000027,10.0693
1490941148,654.0000000027,8.62019
1490941150,644.4000000027,9.39678
1490941152,663.6000000027,10.6388
1490941154,625.2000000027,10.3924
1490941156,584.4000000027,13.4962
1490941158,577.2000000027,11.9468
1490941160,570.0000000027,13.7023
1490941162,560.4000000027,10.7797
1490941164,608.4000000027,9.26512
1490941166,610.8000000027,9.15253
1490941168,570.0000000027,11.2068
1490941170,567.6000000027,7.8203
1490941172,584.4000000027,8.45336
1490941174,572.4000000027,10.377
1490941176,620.4000000027,9.11905
1490941178,567.6000000027,10.3588
1490941180,639.6000000027,9.94507
1490941182,618.0000000027,10.5236
1490941184,574.8000000027,10.0804
1490941186,570.0000000027,10.9929
1490941188,548.4000000027,8.89616
1490941190,555.6000000027,8.04579
1490941192,531.6000000027,11.0055
1490941194,474.0000000027,9.47879
1490941196,548.4000000027,12.5494
1490941198,476.4000000027,13.0527
1490941200,483.6000000027,9.86891
1490941202,409.2000000027,11.7789
1490941204,457.2000000027,10.0856
1490941206,464.4000000027,12.784
1490941208,474.0000000027,13.1284
1490941210,435.6000000027,10.6468
1490941212,483.6000000027,10.5424
1490941214,466.8000000027,11.1071
1490941216,553.2000000027,8.83526
1490941218,543.6000000027,9.4913
1490941220,474.0000000027,9.03327
1490941222,476.4000000027,7.04422
1490941224,486.0000000027,8.69783
1490941226,543.6000000027,8.93564
1490941228,464.4000000027,10.2176
1490941230,562.8000000027,7.60164
1490941232,570.0000000027,8.95015
1490941234,586.8000000027,10.7459
1490941236,574.8000000027,11.9225
1490941238,637.2000000027,8.74607
1490941240,622.8000000027,8.5718
1490941242,620.4000000027,9.33146
1490941244,632.4000000027,8.23549
1490941246,589.2000000027,8.71256
1490941248,582.0000000027,7.72978
1490941250,620.4000000027,7.91284
1490941252,630.0000000027,9.25202
1490941254,610.8000000027,7.43305
1490941256,618.0000000027,5.79568
1490941258,694.8000000027,9.40784
1490941260,630.0000000027,8.60757
1490941262,579.6000000027,8.69304
1490941264,651.6000000027,8.09717
1490941266,608.4000000027,7.36636
1490941268,625.2000000027,8.80873
1490941270,615.6000000027,8.32283
1490941272,637.2000000027,8.82488
1490941274,572.4000000027,8.19543
1490941276,586.8000000027,9.13895
1490941278,584.4000000027,8.23095
1490941280,584.4000000027,7.90096
1490941282,567.6000000027,8.25382
1490941284,606.0000000027,8.2893
1490941286,589.2000000027,10.1254
1490941288,634.8000000027,8.13266
1490941290,586.8000000027,8.16027
1490941292,574.8000000027,9.22501
1490941294,582.0000000027,5.42425
1490941296,606.0000000027,4.892
1490941298,570.0000000027,5.62846
1490941300,632.4000000027,7.45035
1490941302,558.0000000027,8.93749
1490941304,565.2000000027,8.75542
1490941306,577.2000000027,8.76234
1490941308,606.0000000027,9.4498
1490941310,562.8000000027,9.03548
1490941312,584.4000000027,10.6903
1490941314,565.2000000027,8.76723
1490941316,570.0000000027,9.25239
1490941318,562.8000000027,8.61526
1490941320,562.8000000027,10.8501
1490941322,565.2000000027,10.1301
1490941324,572.4000000027,9.55069
1490941326,570.0000000027,8.4823
1490941328,574.8000000027,8.71733
1490941330,572.4000000027,8.18056
1490941332,644.4000000027,10.6422
1490941334,637.2000000027,9.36314
1490941336,586.8000000027,8.8736
1490941338,582.0000000027,8.96756
1490941340,606.0000000027,6.92613
1490941342,570.0000000027,8.49266
1490941344,582.0000000027,7.96075
1490941346,582.0000000027,7.54625
1490941348,572.4000000027,6.97256
1490941350,548.4000000027,8.50638
1490941352,603.6000000027,8.0375
1490941354,634.8000000027,8.98394
1490941356,567.6000000027,7.67454
1490941358,560.4000000027,7.08349
1490941360,586.8000000027,9.74978
1490941362,574.8000000027,9.13396
1490941364,661.2000000027,11.5209
1490941366,608.4000000027,11.3982
1490941368,598.8000000027,9.97667
1490941370,613.2000000027,10.4763
1490941372,553.2000000027,11.5787
1490941374,589.2000000027,11.7177
1490941376,606.0000000027,10.8954
1490941378,579.6000000027,12.0415
1490941380,594.0000000027,11.6093
1490941382,562.8000000027,9.166
1490941384,570.0000000027,9.32362
1490941386,579.6000000027,9.5829
1490941388,637.2000000027,9.06173
1490941390,598.8000000027,9.90194
1490941392,625.2000000027,9.12749
1490941394,558.0000000027,11.4028
1490941396,560.4000000027,8.76546
1490941398,558.0000000027,9.37343
1490941400,572.4000000027,9.67025
1490941402,577.2000000027,8.52253
1490941404,634.8000000027,10.1931
1490941406,572.4000000027,10.2745
1490941408,603.6000000027,11.6583
1490941410,562.8000000027,13.8104
1490941412,560.4000000027,11.9112
1490941414,570.0000000027,13.0403
1490941416,601.2000000027,11.1936
1490941418,589.2000000027,8.56697
1490941420,572.4000000027,9.61821
1490941422,562.8000000027,8.81596
1490941424,572.4000000027,8.14821
1490941426,562.8000000027,8.11614
1490941428,574.8000000027,8.92169
1490941430,572.4000000027,8.54442
1490941432,594.0000000027,10.4371
1490941434,591.6000000027,11.1191
1490941436,586.8000000027,10.2347
1490941438,574.8000000027,8.70335
1490941440,572.4000000027,7.96339
1490941442,553.2000000027,11.153
1490941444,574.8000000027,9.35183
1490941446,589.2000000027,12.5352
1490941448,538.8000000027,10.4097
1490941450,558.0000000027,9.97411
1490941452,546.0000000027,11.1289
1490941454,553.2000000027,9.47268
1490941456,529.2000000027,11.6365
1490941458,567.6000000027,10.5558
1490941460,466.8000000027,11.325
1490941462,495.6000000027,8.53439
1490941464,483.6000000027,10.13
1490941466,536.4000000027,9.68576
1490941468,543.6000000027,10.2067
1490941470,558.0000000027,11.9816
1490941472,478.8000000027,10.0548
1490941474,474.0000000027,11.1071
1490941476,476.4000000027,11.3133
1490941478,481.2000000027,10.6194
1490941480,524.4000000027,8.40943
1490941482,483.6000000027,10.4321
1490941484,529.2000000027,10.0633
1490941486,490.8000000027,10.2261
1490941488,481.2000000027,12.2795
1490941490,464.4000000027,13.8883
1490941492,488.4000000027,12.073
1490941494,531.6000000027,10.4446
1490941496,481.2000000027,9.75101
1490941498,478.8000000027,8.87378
1490941500,538.8000000027,8.03252
1490941502,464.4000000027,7.67341
1490941504,464.4000000027,9.5795
1490941506,476.4000000027,7.68537
1490941508,464.4000000027,11.9779
1490941510,469.2000000027,11.0735
1490941512,469.2000000027,11.4215
1490941514,459.6000000027,10.56
1490941516,474.0000000027,13.337
1490941518,462.0000000027,10.8118
1490941520,459.6000000027,9.60489
1490941522,462.0000000027,11.7557
1490941524,462.0000000027,11.382
1490941526,452.4000000027,9.55788
1490941528,471.6000000027,10.2067
1490941530,478.8000000027,10.1487
1490941532,469.2000000027,9.01707
1490941534,522.0000000027,11.0374
1490941536,481.2000000027,11.0998
1490941538,483.6000000027,10.5577
1490941540,534.0000000027,10.1863
1490941542,517.2000000027,8.78617
1490941544,543.6000000027,8.86582
1490941546,553.2000000027,10.1796
1490941548,553.2000000027,9.39489
1490941550,543.6000000027,8.79962
1490941552,536.4000000027,11.5261
1490941554,531.6000000027,10.9137
1490941556,478.8000000027,8.98877
1490941558,529.2000000027,12.0436
1490941560,562.8000000027,10.9545
1490941562,565.2000000027,9.36715
1490941564,560.4000000027,10.6708
1490941566,560.4000000027,14.3589
1490941568,538.8000000027,11.4597
1490941570,471.6000000027,11.9129
1490941572,582.0000000027,12.0266
1490941574,546.0000000027,11.2668
1490941576,586.8000000027,10.5122
1490941578,555.6000000027,11.3739
1490941580,483.6000000027,8.84523
1490941582,529.2000000027,10.2577
1490941584,567.6000000027,8.95484
1490941586,562.8000000027,11.7514
1490941588,567.6000000027,11.506
1490941590,565.2000000027,13.7867
1490941592,550.8000000027,13.7485
1490941594,486.0000000027,10.3529
1490941596,577.2000000027,10.5477
1490941598,560.4000000027,9.57833
1490941600,541.2000000027,11.2992
1490941602,522.0000000027,9.74616
1490941604,550.8000000027,10.7558
1490941606,558.0000000027,12.1365
1490941608,541.2000000027,12.2182
1490941610,531.6000000027,9.82319
1490941612,553.2000000027,12.7004
1490941614,618.0000000027,13.9294
1490941616,567.6000000027,8.40526
1490941618,570.0000000027,9.91161
1490941620,560.4000000027,8.94754
1490941622,550.8000000027,10.2014
1490941624,567.6000000027,10.9538
1490941626,541.2000000027,8.4328
1490941628,541.2000000027,10.4679
1490941630,572.4000000027,10.2474
1490941632,562.8000000027,10.49
1490941634,471.6000000027,8.52721
1490941636,526.8000000027,10.9521
1490941638,565.2000000027,11.1465
1490941640,538.8000000027,9.91707
1490941642,543.6000000027,11.4637
1490941644,565.2000000027,8.4878
1490941646,541.2000000027,7.91682
1490941648,577.2000000027,13.7718
1490941650,495.6000000027,10.3234
1490941652,565.2000000027,10.0339
1490941654,553.2000000027,7.63899
1490941656,546.0000000027,7.67982
1490941658,541.2000000027,8.03722
1490941660,481.2000000027,8.37756
1490941662,565.2000000027,9.47548
1490941664,558.0000000027,9.66556
1490941666,562.8000000027,9.27206
1490941668,553.2000000027,8.20699
1490941670,591.6000000027,7.13575
1490941672,543.6000000027,8.92585
1490941674,558.0000000027,8.71979
1490941676,538.8000000027,8.89415
1490941678,543.6000000027,10.3805
1490941680,558.0000000027,8.94332
1490941682,582.0000000027,10.3291
1490941684,553.2000000027,9.88166
1490941686,546.0000000027,7.14056
1490941688,558.0000000027,8.48794
1490941690,490.8000000027,8.65596
1490941692,548.4000000027,7.20672
1490941694,548.4000000027,10.3228
1490941696,570.0000000027,9.43563
1490941698,560.4000000027,8.65516
1490941700,555.6000000027,8.96779
1490941702,555.6000000027,10.138
1490941704,567.6000000027,8.03189
1490941706,550.8000000027,9.449
1490941708,543.6000000027,11.31
1490941710,550.8000000027,10.7482
1490941712,524.4000000027,8.57618
1490941714,481.2000000027,8.47217
1490941716,548.4000000027,8.98032
1490941718,543.6000000027,9.34103
1490941720,565.2000000027,11.5201
1490941722,560.4000000027,9.47695
1490941724,558.0000000027,10.8662
1490941726,594.0000000027,11.3986
1490941728,613.2000000027,9.09907
1490941730,526.8000000027,9.03007
1490941732,546.0000000027,6.27532
1490941734,536.4000000027,8.06924
1490941736,474.0000000027,7.68709
1490941738,548.4000000027,9.00792
1490941740,476.4000000027,9.67675
1490941742,476.4000000027,9.61641
1490941744,555.6000000027,8.31266
1490941746,498.0000000027,9.82151
1490941748,534.0000000027,11.2474
1490941750,481.2000000027,10.2018
1490941752,555.6000000027,10.7966
1490941754,536.4000000027,9.45827
1490941756,558.0000000027,9.04524
1490941758,553.2000000027,12.1358
1490941760,541.2000000027,9.6619
1490941762,560.4000000027,8.47988
1490941764,574.8000000027,12.4326
1490941766,567.6000000027,10.7142
1490941770,570.0000000027,10.3473
1490941772,495.6000000027,12.2964
1490941774,517.2000000027,10.3043
1490941776,560.4000000027,10.1639
1490941778,546.0000000027,9.45167
1490941780,574.8000000027,9.80805
1490941782,546.0000000027,11.1892
1490941784,543.6000000027,9.61834
1490941786,538.8000000027,9.82044
1490941788,639.6000000027,9.33456
1490941790,538.8000000027,10.044
1490941792,553.2000000027,9.83399
1490941794,574.8000000027,8.24651
1490941796,536.4000000027,7.35344
1490941798,550.8000000027,11.0524
1490941800,565.2000000027,11.1934
1490941802,538.8000000027,9.32974
1490941804,574.8000000027,11.4592
1490941806,584.4000000027,10.7141
1490941808,553.2000000027,9.17105
1490941810,488.4000000027,9.33793
1490941812,577.2000000027,10.1237
1490941814,529.2000000027,9.14765
1490941816,478.8000000027,10.9473
1490941818,615.6000000027,9.67102
1490941820,560.4000000027,10.7776
1490941822,462.0000000027,10.6981
1490941824,548.4000000027,6.7006
1490941826,550.8000000027,6.1863
1490941828,562.8000000027,6.78721
1490941830,572.4000000027,7.20945
1490941832,548.4000000027,8.0587
1490941834,481.2000000027,7.96761
1490941836,483.6000000027,7.80166
1490941838,541.2000000027,8.84546
1490941840,474.0000000027,9.88492
1490941842,558.0000000027,9.44452
1490941844,529.2000000027,9.0815
1490941846,476.4000000027,8.54179
1490941848,572.4000000027,8.44951
1490941850,567.6000000027,10.018
1490941852,536.4000000027,10.2146
1490941854,555.6000000027,10.5831
1490941856,574.8000000027,10.0156
1490941858,550.8000000027,10.2973
1490941860,474.0000000027,8.25585
1490941862,476.4000000027,9.46314
1490941864,531.6000000027,12.0938
1490941866,555.6000000027,9.37067
1490941868,567.6000000027,8.95421
1490941870,452.4000000027,9.58894
1490941872,488.4000000027,9.66155
1490941874,567.6000000027,9.42003
1490941876,471.6000000027,8.08962
1490941878,553.2000000027,11.4914
1490941880,531.6000000027,13.4897
1490941882,454.8000000027,13.0427
1490941884,562.8000000027,12.8727
1490941886,567.6000000027,11.9085
1490941888,474.0000000027,8.30963
1490941890,543.6000000027,8.5602
1490941892,471.6000000027,9.38593
1490941894,483.6000000027,9.18032
1490941896,474.0000000027,8.42432
1490941898,486.0000000027,9.4884
1490941900,534.0000000027,7.35237
1490941902,459.6000000027,9.37668
1490941904,476.4000000027,7.79145
1490941906,524.4000000027,9.29078
1490941908,462.0000000027,11.3308
1490941910,462.0000000027,11.1447
1490941912,462.0000000027,9.05808
1490941914,558.0000000027,7.88533
1490941916,500.4000000027,7.69242
1490941918,534.0000000027,6.86722
1490941920,560.4000000027,7.81771
1490941922,558.0000000027,5.58964
1490941924,534.0000000027,10.8481
1490941926,555.6000000027,7.38875
1490941928,538.8000000027,8.36198
1490941930,538.8000000027,8.98324
1490941932,553.2000000027,8.28306
1490941934,550.8000000027,8.4421
1490941936,447.6000000027,8.76916
1490941938,524.4000000027,7.7321
1490941940,534.0000000027,9.18318
1490941942,553.2000000027,10.4723
1490941944,555.6000000027,7.67182
1490941946,577.2000000027,9.2191
1490941948,519.6000000027,8.77629
1490941950,483.6000000027,7.35908
1490941952,543.6000000027,8.57841
1490941954,466.8000000027,8.1628
1490941956,469.2000000027,6.60024
1490941958,541.2000000027,7.32697
1490941960,529.2000000027,7.96488
1490941962,555.6000000027,8.92659
1490941964,534.0000000027,8.38484
1490941966,478.8000000027,7.87315
1490941968,534.0000000027,9.09013
1490941970,560.4000000027,8.74226
1490941972,543.6000000027,9.90922
1490941974,553.2000000027,7.44045
1490941976,546.0000000027,9.01787
1490941978,522.0000000027,7.47034
1490941980,481.2000000027,11.228
1490941982,560.4000000027,9.97112
1490941984,476.4000000027,10.6248
1490941986,562.8000000027,9.64501
1490941988,481.2000000027,8.77095
1490941990,476.4000000027,9.74619
1490941992,548.4000000027,9.50595
1490941994,534.0000000027,10.1906
1490941996,471.6000000027,10.8519
1490941998,546.0000000027,12.0842
1490942000,567.6000000027,11.0843
1490942002,558.0000000027,8.20111
1490942004,577.2000000027,8.76843
1490942006,536.4000000027,10.4625
1490942008,543.6000000027,9.53199
1490942010,570.0000000027,10.3937
1490942012,555.6000000027,9.34793
1490942014,550.8000000027,7.24347
1490942016,558.0000000027,7.09665
1490942018,558.0000000027,7.90092
1490942020,474.0000000027,11.3086
1490942022,570.0000000027,11.6563
1490942024,536.4000000027,9.0102
1490942026,570.0000000027,8.06769
1490942028,565.2000000027,4.82188
1490942030,570.0000000027,6.55205
1490942032,493.2000000027,8.55018
1490942034,560.4000000027,7.82506
1490942036,541.2000000027,9.61068
1490942038,478.8000000027,9.42547
1490942040,574.8000000027,10.4598
1490942042,550.8000000027,9.95995
1490942044,474.0000000027,8.23588
1490942046,558.0000000027,9.81194
1490942048,553.2000000027,8.97638
1490942050,548.4000000027,9.04176
1490942052,572.4000000027,8.36399
1490942054,476.4000000027,9.34122
1490942056,476.4000000027,10.888
1490942058,548.4000000027,7.11954
1490942060,529.2000000027,9.92144
1490942062,476.4000000027,9.51271
1490942064,553.2000000027,8.38473
1490942066,560.4000000027,8.69087
1490942068,478.8000000027,10.0819
1490942070,483.6000000027,10.181
1490942072,553.2000000027,7.43175
1490942074,478.8000000027,9.89777
1490942076,543.6000000027,10.3391
1490942078,565.2000000027,7.64799
1490942080,481.2000000027,7.99805
1490942082,558.0000000027,9.96626
1490942084,474.0000000027,7.31642
1490942086,483.6000000027,8.48518
1490942088,466.8000000027,10.7102
1490942090,548.4000000027,9.2634
1490942092,457.2000000027,7.7224
1490942094,469.2000000027,7.68269
1490942096,481.2000000027,8.46559
1490942098,466.8000000027,9.58069
1490942100,474.0000000027,9.25957
1490942102,538.8000000027,10.774
1490942104,474.0000000027,10.0085
1490942106,466.8000000027,9.20673
1490942108,471.6000000027,9.83562
1490942110,478.8000000027,11.4923
1490942112,471.6000000027,10.6856
1490942114,469.2000000027,11.1534
1490942116,466.8000000027,8.46636
1490942118,476.4000000027,10.323
1490942120,486.0000000027,9.58683
1490942122,445.2000000027,9.50662
1490942124,471.6000000027,9.10853
1490942126,462.0000000027,9.01542
1490942128,466.8000000027,8.90953
1490942130,498.0000000027,6.38446
1490942132,548.4000000027,8.81701
1490942134,488.4000000027,11.4882
1490942136,474.0000000027,10.5963
1490942138,519.6000000027,9.90294
1490942140,541.2000000027,9.85203
1490942142,538.8000000027,9.73552
1490942144,481.2000000027,10.2587
1490942146,550.8000000027,9.16165
1490942148,481.2000000027,10.4605
1490942150,478.8000000027,10.5605
1490942152,560.4000000027,11.4107
1490942154,536.4000000027,9.51908
1490942156,562.8000000027,10.2405
1490942158,555.6000000027,11.2009
1490942160,572.4000000027,8.70629
1490942162,555.6000000027,7.69797
1490942164,582.0000000027,9.10082
1490942166,591.6000000027,9.16004
1490942168,560.4000000027,9.89173
1490942170,572.4000000027,10.9633
1490942172,555.6000000027,11.0883
1490942174,579.6000000027,10.132
1490942176,570.0000000027,9.92241
1490942178,586.8000000027,10.5018
1490942180,550.8000000027,10.8367
1490942182,550.8000000027,11.5814
1490942184,589.2000000027,11.4543
1490942186,586.8000000027,11.4803
1490942188,579.6000000027,13.313
1490942190,606.0000000027,12.1781
1490942192,618.0000000027,11.4937
1490942194,627.6000000027,11.8756
1490942196,646.8000000027,12.2044
1490942198,615.6000000027,14.1809
1490942200,570.0000000027,11.9468
1490942202,630.0000000027,11.882
1490942204,651.6000000027,14.3033
1490942206,560.4000000027,13.218
1490942208,618.0000000027,11.6921
1490942210,601.2000000027,12.414
1490942212,558.0000000027,11.5402
1490942214,558.0000000027,12.4609
1490942216,562.8000000027,11.9602
1490942218,558.0000000027,14.0295
1490942220,560.4000000027,13.444
1490942222,577.2000000027,11.833
1490942224,558.0000000027,12.4947
1490942226,546.0000000027,10.7147
1490942228,613.2000000027,11.6442
1490942230,555.6000000027,11.4535
1490942232,548.4000000027,12.0341
1490942234,572.4000000027,12.9319
1490942236,495.6000000027,12.8855
1490942238,560.4000000027,12.7326
1490942240,574.8000000027,13.7919
1490942242,541.2000000027,11.5584
1490942244,534.0000000027,11.8577
1490942246,565.2000000027,11.1553
1490942248,512.4000000027,9.91896
1490942250,476.4000000027,11.5549
1490942252,562.8000000027,13.012
1490942254,469.2000000027,9.78128
1490942256,481.2000000027,9.70876
1490942258,541.2000000027,12.361
1490942260,536.4000000027,9.80204
1490942262,488.4000000027,11.3131
1490942264,538.8000000027,10.6345
1490942266,546.0000000027,11.0052
1490942268,541.2000000027,10.384
1490942270,548.4000000027,14.3134
1490942272,481.2000000027,13.7
1490942274,514.8000000027,10.993
1490942276,478.8000000027,10.4074
1490942278,478.8000000027,10.5039
1490942280,486.0000000027,12.3556
1490942282,543.6000000027,9.22895
1490942284,553.2000000027,9.71402
1490942286,541.2000000027,6.30576
1490942288,560.4000000027,9.55917
1490942290,548.4000000027,9.55339
1490942292,498.0000000027,9.8101
1490942294,478.8000000027,10.6091
1490942296,483.6000000027,9.09631
1490942298,471.6000000027,10.7131
1490942300,565.2000000027,11.3676
1490942302,558.0000000027,8.87028
1490942304,522.0000000027,9.47133
1490942306,558.0000000027,10.8883
1490942308,526.8000000027,11.5413
1490942310,538.8000000027,10.7471
1490942312,538.8000000027,12.1884
1490942314,565.2000000027,11.3635
1490942316,548.4000000027,8.7703
1490942318,567.6000000027,8.61584
1490942320,572.4000000027,8.51036
1490942322,560.4000000027,11.5973
1490942324,562.8000000027,11.6768
1490942326,579.6000000027,9.13285
1490942328,570.0000000027,8.77463
1490942330,562.8000000027,9.23189
1490942332,550.8000000027,7.7351
1490942334,574.8000000027,5.65725
1490942336,572.4000000027,9.67482
1490942338,565.2000000027,9.06383
1490942340,560.4000000027,7.25666
1490942342,584.4000000027,8.03981
1490942344,586.8000000027,9.74683
1490942346,546.0000000027,10.187
1490942348,589.2000000027,7.26062
1490942350,574.8000000027,8.62503
1490942352,570.0000000027,9.8797
1490942354,577.2000000027,9.88838
1490942356,613.2000000027,9.2943
1490942358,560.4000000027,7.33097
1490942360,570.0000000027,9.00488
1490942362,598.8000000027,11.3323
1490942364,560.4000000027,8.61397
1490942366,606.0000000027,10.1251
1490942368,567.6000000027,7.46547
1490942370,574.8000000027,5.86281
1490942372,567.6000000027,6.12927
1490942374,567.6000000027,7.9627
1490942376,555.6000000027,8.89922
1490942378,565.2000000027,8.32655
1490942380,546.0000000027,7.59834
1490942382,565.2000000027,7.35496
1490942384,562.8000000027,5.81944
1490942386,582.0000000027,5.89879
1490942388,531.6000000027,9.41889
1490942390,567.6000000027,7.40232
1490942392,471.6000000027,10.3456
1490942394,558.0000000027,9.60649
1490942396,531.6000000027,8.26868
1490942398,531.6000000027,6.95601
1490942400,538.8000000027,6.95737
1490942402,546.0000000027,6.4942
1490942404,555.6000000027,9.24002
1490942406,543.6000000027,6.45133
1490942408,558.0000000027,8.68714
1490942410,562.8000000027,11.1481
1490942412,510.0000000027,10.3854
1490942414,550.8000000027,12.002
1490942416,550.8000000027,11.8141
1490942418,490.8000000027,9.93247
1490942420,546.0000000027,12.4217
1490942422,486.0000000027,12.0151
1490942424,466.8000000027,11.7268
1490942426,558.0000000027,13.3177
1490942428,538.8000000027,12.4105
1490942430,548.4000000027,11.4059
1490942432,524.4000000027,12.505
1490942434,505.2000000027,10.139
1490942436,474.0000000027,11.1045
1490942438,538.8000000027,11.0639
1490942440,526.8000000027,10.9073
1490942442,550.8000000027,10.8998
1490942444,565.2000000027,12.9924
1490942446,538.8000000027,11.5143
1490942448,558.0000000027,12.0134
1490942450,582.0000000027,11.0661
1490942452,567.6000000027,12.0682
1490942454,574.8000000027,9.63698
1490942456,582.0000000027,10.7908
1490942458,613.2000000027,9.61257
1490942460,584.4000000027,12.6144
1490942462,574.8000000027,9.17124
1490942464,548.4000000027,10.1739
1490942466,572.4000000027,11.2608
1490942468,634.8000000027,13.5114
1490942470,536.4000000027,10.6644
1490942472,529.2000000027,10.0778
1490942474,570.0000000027,10.2589
1490942476,529.2000000027,7.5104
1490942478,550.8000000027,7.76597
1490942480,589.2000000027,8.7335
1490942482,543.6000000027,6.20324
1490942484,565.2000000027,8.58174
1490942486,553.2000000027,6.35785
1490942488,536.4000000027,7.32221
1490942490,543.6000000027,5.6853
1490942492,474.0000000027,8.9812
1490942494,471.6000000027,9.67253
1490942496,524.4000000027,9.00906
1490942498,531.6000000027,9.03531
1490942500,476.4000000027,9.60418
1490942502,541.2000000027,11.2571
1490942504,476.4000000027,10.5171
1490942506,476.4000000027,9.36404
1490942508,558.0000000027,10.3152
1490942510,546.0000000027,10.8903
1490942512,524.4000000027,9.88008
1490942514,534.0000000027,9.8985
1490942516,548.4000000027,8.25283
1490942518,476.4000000027,7.67187
1490942520,459.6000000027,9.25281
1490942522,534.0000000027,9.33329
1490942524,478.8000000027,9.30428
1490942526,570.0000000027,9.48444
1490942528,553.2000000027,11.8572
1490942530,481.2000000027,9.74009
1490942532,562.8000000027,10.5191
1490942534,534.0000000027,9.74703
1490942536,466.8000000027,8.52886
1490942538,555.6000000027,8.32438
1490942540,500.4000000027,10.0705
1490942542,541.2000000027,9.27043
1490942544,570.0000000027,8.93486
1490942546,553.2000000027,7.23475
1490942548,558.0000000027,7.57733
1490942550,630.0000000027,6.40733
1490942552,565.2000000027,7.98038
1490942554,615.6000000027,8.75256
1490942556,654.0000000027,9.70579
1490942558,678.0000000027,11.1117
1490942560,649.2000000027,11.6138
1490942562,639.6000000027,10.7757
1490942564,646.8000000027,11.271
1490942566,694.8000000027,12.5081
1490942568,675.6000000027,9.2082
1490942570,622.8000000027,8.17818
1490942572,642.0000000027,9.75964
1490942574,714.0000000027,8.70994
1490942576,644.4000000027,10.1404
1490942578,685.2000000027,10.1172
1490942580,702.0000000027,9.67351
1490942582,634.8000000027,11.5052
1490942584,613.2000000027,6.93676
1490942586,610.8000000027,6.48022
1490942588,594.0000000027,6.88618
1490942590,586.8000000027,7.10055
1490942592,586.8000000027,9.03854
1490942594,591.6000000027,10.036
1490942596,622.8000000027,8.20907
1490942598,543.6000000027,10.272
1490942600,534.0000000027,10.182
1490942602,522.0000000027,10.9707
1490942604,538.8000000027,10.7856
1490942606,550.8000000027,8.39414
1490942608,550.8000000027,9.10137
1490942610,514.8000000027,11.3364
1490942612,543.6000000027,9.76145
1490942614,486.0000000027,9.82998
1490942616,471.6000000027,8.96171
1490942618,454.8000000027,9.717
1490942620,534.0000000027,7.6707
1490942622,481.2000000027,10.5103
1490942624,546.0000000027,9.47716
1490942626,526.8000000027,7.29139
1490942628,474.0000000027,10.4254
1490942630,488.4000000027,10.1945
1490942632,474.0000000027,11.8509
1490942634,474.0000000027,10.4835
1490942636,476.4000000027,9.29726
1490942638,483.6000000027,10.321
1490942640,454.8000000027,10.4997
1490942642,469.2000000027,10.6537
1490942644,466.8000000027,10.9156
1490942646,457.2000000027,9.77584
1490942648,466.8000000027,11.588
1490942650,450.0000000027,10.6963
1490942652,450.0000000027,8.66852
1490942654,406.8000000027,8.73941
1490942656,464.4000000027,10.3786
1490942658,457.2000000027,10.0701
1490942660,414.0000000027,8.38574
1490942662,457.2000000027,5.31669
1490942664,428.4000000027,7.39683
1490942666,478.8000000027,7.7886
1490942668,418.8000000027,9.39232
1490942670,469.2000000027,10.4978
1490942672,462.0000000027,9.14082
1490942674,457.2000000027,10.2766
1490942676,454.8000000027,8.62635
1490942678,469.2000000027,9.74809
1490942680,476.4000000027,7.82768
1490942682,478.8000000027,9.04271
1490942684,577.2000000027,8.84159
1490942686,562.8000000027,8.09342
1490942688,548.4000000027,8.68988
1490942690,589.2000000027,6.30643
1490942692,572.4000000027,8.61355
1490942694,589.2000000027,12.2168
1490942696,572.4000000027,8.8981
1490942698,548.4000000027,7.02394
1490942700,562.8000000027,9.7916
1490942702,567.6000000027,9.18795
1490942704,558.0000000027,8.86499
1490942706,572.4000000027,8.73022
1490942708,632.4000000027,9.49331
1490942710,618.0000000027,10.0702
1490942712,570.0000000027,9.1944
1490942714,615.6000000027,9.06516
1490942716,574.8000000027,10.353
1490942718,579.6000000027,11.9385
1490942720,622.8000000027,7.91332
1490942722,550.8000000027,10.819
1490942724,572.4000000027,10.8354
1490942726,615.6000000027,11.1276
1490942728,562.8000000027,10.7141
1490942730,541.2000000027,10.6347
1490942732,548.4000000027,11.8699
1490942734,486.0000000027,10.5872
1490942736,579.6000000027,10.7771
1490942738,572.4000000027,12.6906
1490942740,526.8000000027,12.5167
1490942742,548.4000000027,12.0513
1490942744,553.2000000027,12.0734
1490942746,490.8000000027,9.01845
1490942748,558.0000000027,9.81319
1490942750,565.2000000027,8.19518
1490942752,464.4000000027,9.83707
1490942754,555.6000000027,10.2477
1490942756,560.4000000027,13.1566
1490942758,483.6000000027,11.769
1490942760,488.4000000027,9.52639
1490942762,567.6000000027,10.4683
1490942764,550.8000000027,10.9227
1490942766,603.6000000027,9.17235
1490942768,560.4000000027,12.1689
1490942770,560.4000000027,11.0846
1490942772,615.6000000027,7.86587
1490942774,615.6000000027,12.3191
1490942776,555.6000000027,10.0737
1490942778,553.2000000027,8.97584
1490942780,620.4000000027,11.9012
1490942782,589.2000000027,11.752
1490942784,548.4000000027,10.5531
1490942786,570.0000000027,8.88008
1490942788,596.4000000027,9.4591
1490942790,555.6000000027,9.64308
1490942792,615.6000000027,11.1421
1490942794,565.2000000027,11.7403
1490942796,558.0000000027,10.6282
1490942798,565.2000000027,10.5151
1490942800,474.0000000027,8.04593
1490942802,493.2000000027,10.9703
1490942804,560.4000000027,8.64902
1490942806,517.2000000027,8.44
1490942808,522.0000000027,11.8881
1490942810,558.0000000027,10.4148
1490942812,550.8000000027,10.2634
1490942814,546.0000000027,10.1732
1490942816,601.2000000027,9.87179
1490942818,555.6000000027,8.05693
1490942820,584.4000000027,8.90271
1490942822,598.8000000027,7.77693
1490942824,615.6000000027,8.72582
1490942826,558.0000000027,11.6807
1490942828,589.2000000027,8.53336
1490942830,572.4000000027,8.6456
1490942832,589.2000000027,7.92463
1490942834,661.2000000027,9.1421
1490942836,690.0000000027,7.81127
1490942838,627.6000000027,8.46296
1490942840,704.4000000027,7.10873
1490942842,625.2000000027,7.59215
1490942844,630.0000000027,8.55955
1490942846,697.2000000027,10.8846
1490942848,649.2000000027,9.05249
1490942850,654.0000000027,9.71345
1490942852,649.2000000027,10.1502
1490942854,622.8000000027,11.2093
1490942856,661.2000000027,9.9606
1490942858,639.6000000027,9.38819
1490942860,598.8000000027,9.86284
1490942862,618.0000000027,7.59087
1490942864,646.8000000027,9.5473
1490942866,608.4000000027,9.63882
1490942868,601.2000000027,8.35419
1490942870,558.0000000027,10.3634
1490942872,579.6000000027,8.21517
1490942874,625.2000000027,8.78051
1490942876,632.4000000027,8.95203
1490942878,610.8000000027,7.94545
1490942880,620.4000000027,8.70603
1490942882,618.0000000027,8.08748
1490942884,620.4000000027,9.91844
1490942886,577.2000000027,10.871
1490942888,632.4000000027,10.4686
1490942890,625.2000000027,10.5393
1490942892,594.0000000027,10.8571
1490942894,630.0000000027,8.25073
1490942896,618.0000000027,6.9996
1490942898,642.0000000027,7.00886
1490942900,634.8000000027,7.39595
1490942902,702.0000000027,8.05698
1490942904,646.8000000027,6.72776
1490942906,644.4000000027,8.32905
1490942908,618.0000000027,9.3092
1490942910,634.8000000027,10.2446
1490942912,642.0000000027,7.36028
1490942914,622.8000000027,8.13985
1490942916,637.2000000027,7.4794
1490942918,694.8000000027,7.65965
1490942920,654.0000000027,9.79694
1490942922,639.6000000027,8.27674
1490942924,634.8000000027,11.4214
1490942926,658.8000000027,8.45749
1490942928,642.0000000027,9.54676
1490942930,639.6000000027,7.78373
1490942932,601.2000000027,8.128
1490942934,572.4000000027,10.5363
1490942936,608.4000000027,5.83551
1490942938,615.6000000027,6.82552
1490942940,560.4000000027,8.68407
1490942942,562.8000000027,7.29589
1490942944,579.6000000027,9.01879
1490942946,594.0000000027,8.59518
1490942948,548.4000000027,10.2488
1490942950,546.0000000027,10.1424
1490942952,560.4000000027,9.30651
1490942954,582.0000000027,8.19283
1490942956,598.8000000027,10.4864
1490942958,565.2000000027,9.29578
1490942960,632.4000000027,7.50785
1490942962,541.2000000027,7.88503
1490942964,553.2000000027,10.2432
1490942966,546.0000000027,10.975
1490942968,560.4000000027,8.9763
1490942970,577.2000000027,9.79395
1490942972,555.6000000027,11.9082
1490942974,543.6000000027,11.3759
1490942976,543.6000000027,10.0807
1490942978,550.8000000027,8.88755
1490942980,541.2000000027,8.65968
1490942982,483.6000000027,7.5506
1490942984,562.8000000027,6.75834
1490942986,553.2000000027,11.3323
1490942988,555.6000000027,12.1332
1490942990,538.8000000027,9.89602
1490942992,474.0000000027,11.2656
1490942994,562.8000000027,11.7189
1490942996,541.2000000027,8.9699
1490942998,558.0000000027,11.612
1490943000,543.6000000027,10.3756
1490943002,548.4000000027,13.5729
1490943004,481.2000000027,11.8764
1490943006,553.2000000027,11.6283
1490943008,538.8000000027,11.1552
1490943010,543.6000000027,10.5986
1490943012,534.0000000027,13.4757
1490943014,548.4000000027,12.7041
1490943016,558.0000000027,10.9325
1490943018,481.2000000027,10.9645
1490943020,567.6000000027,10.2737
1490943022,536.4000000027,8.63729
1490943024,519.6000000027,8.67861
1490943026,457.2000000027,7.54889
1490943028,476.4000000027,9.28491
1490943030,574.8000000027,6.79949
1490943032,550.8000000027,10.6515
1490943034,546.0000000027,12.26
1490943036,476.4000000027,10.4077
1490943038,555.6000000027,7.90109
1490943040,476.4000000027,8.53751
1490943042,567.6000000027,6.28237
1490943044,543.6000000027,7.78387
1490943046,512.4000000027,9.83209
1490943048,471.6000000027,10.6376
1490943050,548.4000000027,9.19826
1490943052,481.2000000027,8.98443
1490943054,469.2000000027,8.77068
1490943056,541.2000000027,8.6877
1490943058,548.4000000027,9.8475
1490943060,459.6000000027,8.75041
1490943062,536.4000000027,8.44898
1490943064,555.6000000027,10.7102
1490943066,565.2000000027,10.03
1490943068,570.0000000027,9.75907
1490943070,651.6000000027,7.47044
1490943072,601.2000000027,9.20726
1490943074,642.0000000027,7.61041
1490943076,627.6000000027,11.4278
1490943078,613.2000000027,6.6064
1490943080,613.2000000027,9.6977
1490943082,639.6000000027,10.1995
1490943084,630.0000000027,9.54313
1490943086,622.8000000027,8.5994
1490943088,574.8000000027,7.38477
1490943090,565.2000000027,8.2458
1490943092,620.4000000027,8.86436
1490943094,613.2000000027,8.59015
1490943096,579.6000000027,7.25083
1490943098,570.0000000027,6.42667
1490943100,572.4000000027,7.28895
1490943102,567.6000000027,8.02145
1490943104,553.2000000027,10.9558
1490943106,565.2000000027,11.1307
1490943108,574.8000000027,9.25701
1490943110,562.8000000027,9.38327
1490943112,558.0000000027,9.82754
1490943114,548.4000000027,8.37568
1490943116,529.2000000027,10.1469
1490943118,529.2000000027,9.23962
1490943120,546.0000000027,10.3925
1490943122,567.6000000027,10.7354
1490943124,546.0000000027,9.08136
1490943126,570.0000000027,9.7754
1490943128,548.4000000027,9.06586
1490943130,553.2000000027,8.8507
1490943132,546.0000000027,9.60902
1490943134,589.2000000027,9.78018
1490943136,553.2000000027,11.1745
1490943138,534.0000000027,9.93732
1490943140,553.2000000027,12.0322
1490943142,558.0000000027,11.0158
1490943144,483.6000000027,10.8094
1490943146,574.8000000027,11.2277
1490943148,586.8000000027,8.70431
1490943150,572.4000000027,9.09916
1490943152,572.4000000027,9.65262
1490943154,560.4000000027,8.93435
1490943156,471.6000000027,8.66371
1490943158,534.0000000027,7.10469
1490943160,589.2000000027,5.84089
1490943162,574.8000000027,8.78701
1490943164,555.6000000027,8.74784
1490943166,558.0000000027,7.67975
1490943168,555.6000000027,10.2115
1490943170,486.0000000027,7.82084
1490943172,538.8000000027,6.84979
1490943174,562.8000000027,5.47599
1490943176,560.4000000027,5.40265
1490943178,562.8000000027,7.11638
1490943180,550.8000000027,6.17754
1490943182,555.6000000027,8.38746
1490943184,488.4000000027,6.96423
1490943186,478.8000000027,4.93007
1490943188,565.2000000027,4.60137
1490943190,541.2000000027,6.85879
1490943192,555.6000000027,7.08146
1490943194,476.4000000027,6.56079
1490943196,536.4000000027,7.24708
1490943198,550.8000000027,7.86794
1490943200,550.8000000027,8.59519
1490943202,538.8000000027,11.3748
1490943204,529.2000000027,9.07522
1490943206,529.2000000027,7.39521
1490943208,550.8000000027,9.77365
1490943210,459.6000000027,8.69018
1490943212,469.2000000027,8.10546
1490943214,519.6000000027,9.35996
1490943216,486.0000000027,10.2263
1490943218,457.2000000027,9.14693
1490943220,466.8000000027,8.14875
1490943222,543.6000000027,10.5001
1490943224,529.2000000027,8.34002
1490943226,550.8000000027,8.94122
1490943228,529.2000000027,10.184
1490943230,531.6000000027,11.4222
1490943232,541.2000000027,10.0012
1490943234,548.4000000027,10.8523
1490943236,553.2000000027,10.0603
1490943238,462.0000000027,8.51044
1490943240,474.0000000027,10.6851
1490943242,476.4000000027,7.50556
1490943244,466.8000000027,7.76631
1490943246,481.2000000027,8.63244
1490943248,464.4000000027,10.162
1490943250,459.6000000027,8.82151
1490943252,459.6000000027,13.1193
1490943254,469.2000000027,10.6972
1490943256,454.8000000027,11.2196
1490943258,462.0000000027,10.5469
1490943260,457.2000000027,9.93978
1490943262,469.2000000027,8.74953
1490943264,469.2000000027,8.15953
1490943266,474.0000000027,9.33215
1490943268,474.0000000027,8.14408
1490943270,411.6000000027,10.2696
1490943272,447.6000000027,10.0021
1490943274,452.4000000027,8.9927
1490943276,447.6000000027,8.90712
1490943278,447.6000000027,8.56008
1490943280,466.8000000027,8.37022
1490943282,445.2000000027,7.61227
1490943284,435.6000000027,10.6564
1490943286,469.2000000027,8.707
1490943288,469.2000000027,7.4749
1490943290,447.6000000027,12.0585
1490943292,459.6000000027,10.3325
1490943294,385.2000000027,9.47675
1490943296,464.4000000027,11.0227
1490943298,447.6000000027,8.52462
1490943300,450.0000000027,9.54096
1490943302,454.8000000027,7.94959
1490943304,457.2000000027,11.3124
1490943306,464.4000000027,10.1403
1490943308,450.0000000027,11.3951
1490943310,469.2000000027,8.85206
1490943312,442.8000000027,9.70524
1490943314,462.0000000027,9.14668
1490943316,541.2000000027,7.25711
1490943318,433.2000000027,9.38086
1490943320,452.4000000027,8.1334
1490943322,452.4000000027,8.71923
1490943324,397.2000000027,9.86518
1490943326,478.8000000027,9.38079
1490943328,522.0000000027,9.38973
1490943330,428.4000000027,9.95788
1490943332,464.4000000027,9.08662
1490943334,500.4000000027,8.14787
1490943336,483.6000000027,8.07122
1490943338,457.2000000027,11.6481
1490943340,550.8000000027,10.9968
1490943342,471.6000000027,9.87029
1490943344,488.4000000027,12.1798
1490943346,471.6000000027,9.05102
1490943348,474.0000000027,11.3946
1490943350,493.2000000027,10.7571
1490943352,550.8000000027,9.11822
1490943354,517.2000000027,9.35136
1490943356,519.6000000027,9.67508
1490943358,476.4000000027,6.95391
1490943360,490.8000000027,8.44589
1490943362,476.4000000027,6.89505
1490943364,572.4000000027,8.87637
1490943366,445.2000000027,8.13447
1490943368,531.6000000027,7.42643
1490943370,541.2000000027,8.08716
1490943372,474.0000000027,8.98574
1490943374,469.2000000027,10.2466
1490943376,546.0000000027,10.4005
1490943378,490.8000000027,7.07918
1490943380,478.8000000027,9.29679
1490943382,538.8000000027,10.084
1490943384,481.2000000027,11.3495
1490943386,476.4000000027,10.481
1490943388,-157.1999999973,11.0113
1490943390,478.8000000027,11.5124
1490943392,430.8000000027,10.0259
1490943394,454.8000000027,12.6896
1490943396,471.6000000027,9.52919
1490943398,442.8000000027,8.78092
1490943400,488.4000000027,10.2031
1490943402,442.8000000027,9.71455
1490943404,457.2000000027,10.6531
1490943406,462.0000000027,11.2033
1490943408,459.6000000027,8.91755
1490943410,442.8000000027,6.28873
1490943412,459.6000000027,4.36888
1490943414,464.4000000027,5.93051
1490943416,387.6000000027,9.21004
1490943418,526.8000000027,10.0433
1490943420,471.6000000027,12.2733
1490943422,464.4000000027,11.146
1490943424,474.0000000027,12.3426
1490943426,474.0000000027,11.0181
1490943428,469.2000000027,9.98199
1490943430,457.2000000027,8.57893
1490943432,474.0000000027,11.7388
1490943434,442.8000000027,10.105
1490943436,536.4000000027,10.1113
1490943438,469.2000000027,7.04686
1490943440,445.2000000027,4.83227
1490943442,462.0000000027,6.47989
1490943444,462.0000000027,5.26855
1490943446,457.2000000027,8.63629
1490943448,464.4000000027,8.45091
1490943450,471.6000000027,5.82875
1490943452,428.4000000027,6.46554
1490943454,459.6000000027,5.49988
1490943456,483.6000000027,5.65472
1490943458,469.2000000027,8.41664
1490943460,459.6000000027,6.4916
1490943462,529.2000000027,11.6317
1490943464,536.4000000027,4.27292
1490943466,531.6000000027,6.07595
1490943468,474.0000000027,8.3647
1490943470,462.0000000027,5.95378
1490943472,466.8000000027,8.4131
1490943474,469.2000000027,10.3873
1490943476,541.2000000027,6.82682
1490943478,459.6000000027,7.77552
1490943480,471.6000000027,7.6405
1490943482,469.2000000027,8.183
1490943484,450.0000000027,10.6136
1490943486,481.2000000027,7.80722
1490943488,466.8000000027,9.40657
1490943490,529.2000000027,9.28405
1490943492,474.0000000027,7.87207
1490943494,543.6000000027,7.74293
1490943496,442.8000000027,10.0216
1490943498,466.8000000027,11.2654
1490943500,454.8000000027,12.3684
1490943502,481.2000000027,13.3689
1490943504,464.4000000027,7.43639
1490943506,466.8000000027,9.17653
1490943508,394.8000000027,8.33939
1490943510,459.6000000027,7.62171
1490943512,402.0000000027,9.1055
1490943514,442.8000000027,7.27502
1490943516,426.0000000027,9.51733
1490943518,459.6000000027,6.68001
1490943520,430.8000000027,11.8241
1490943522,452.4000000027,10.1782
1490943524,380.4000000027,10.1421
1490943526,418.8000000027,10.9706
1490943528,445.2000000027,12.2022
1490943530,442.8000000027,11.9725
1490943532,462.0000000027,13.4316
1490943534,469.2000000027,9.48901
1490943536,442.8000000027,6.24654
1490943538,459.6000000027,8.31833
1490943540,560.4000000027,10.5966
1490943542,541.2000000027,9.98106
1490943544,474.0000000027,11.0738
1490943546,529.2000000027,10.0025
1490943548,574.8000000027,9.91078
1490943550,555.6000000027,10.8009
1490943552,555.6000000027,11.5944
1490943554,579.6000000027,10.4745
1490943556,562.8000000027,9.69397
1490943558,637.2000000027,9.55803
1490943560,591.6000000027,11.9727
1490943562,555.6000000027,9.41317
1490943564,577.2000000027,7.68042
1490943566,596.4000000027,8.97962
1490943568,577.2000000027,6.49682
1490943570,574.8000000027,9.00441
1490943572,579.6000000027,7.74116
1490943574,637.2000000027,7.65331
1490943576,606.0000000027,10.6675
1490943578,594.0000000027,10.3209
1490943580,586.8000000027,10.8589
1490943582,586.8000000027,12.7781
1490943584,630.0000000027,11.7301
1490943586,692.4000000027,7.67493
1490943588,586.8000000027,11.5355
1490943590,594.0000000027,9.89346
1490943592,637.2000000027,12.267
1490943594,594.0000000027,9.96016
1490943596,574.8000000027,12.4153
1490943598,584.4000000027,12.603
1490943600,615.6000000027,9.52415
1490943602,562.8000000027,10.3483
1490943604,565.2000000027,10.7441
1490943606,555.6000000027,10.9526
1490943608,586.8000000027,11.5811
1490943610,579.6000000027,10.7327
1490943612,560.4000000027,12.4027
1490943614,570.0000000027,10.1645
1490943616,560.4000000027,11.7354
1490943618,572.4000000027,11.7476
1490943620,574.8000000027,11.4331
1490943622,562.8000000027,11.5802
1490943624,481.2000000027,9.51533
1490943626,558.0000000027,9.1756
1490943628,469.2000000027,9.71933
1490943630,553.2000000027,9.13651
1490943632,548.4000000027,7.3639
1490943634,555.6000000027,8.97836
1490943636,471.6000000027,9.21174
1490943638,550.8000000027,9.60436
1490943640,493.2000000027,9.60285
1490943642,478.8000000027,11.8951
1490943644,471.6000000027,12.1318
1490943646,536.4000000027,11.9876
1490943648,471.6000000027,8.81975
1490943650,524.4000000027,6.24551
1490943652,529.2000000027,10.7857
1490943654,567.6000000027,9.45864
1490943656,550.8000000027,9.47993
1490943658,543.6000000027,9.80282
1490943660,471.6000000027,7.6006
1490943662,512.4000000027,9.18278
1490943664,553.2000000027,10.6634
1490943666,464.4000000027,11.4104
1490943668,543.6000000027,9.70682
1490943670,546.0000000027,10.6939
1490943672,543.6000000027,10.2006
1490943674,541.2000000027,10.8867
1490943676,582.0000000027,9.3303
1490943678,550.8000000027,10.3232
1490943680,534.0000000027,10.3373
1490943682,553.2000000027,8.61369
1490943684,562.8000000027,11.4172
1490943686,536.4000000027,9.56915
1490943688,558.0000000027,9.22701
1490943690,529.2000000027,9.40075
1490943692,464.4000000027,10.2953
1490943694,550.8000000027,10.1978
1490943696,582.0000000027,8.86157
1490943698,483.6000000027,9.47826
1490943700,625.2000000027,6.94055
1490943702,591.6000000027,6.44154
1490943704,553.2000000027,5.85089
1490943706,630.0000000027,8.05502
1490943708,692.4000000027,9.84091
1490943710,634.8000000027,7.64971
1490943712,639.6000000027,8.84655
1490943714,670.8000000027,8.14668
1490943716,591.6000000027,8.17856
1490943718,620.4000000027,8.81201
1490943720,601.2000000027,10.8004
1490943722,553.2000000027,8.16181
1490943724,618.0000000027,9.91882
1490943726,615.6000000027,9.54135
1490943728,558.0000000027,8.65019
1490943730,565.2000000027,6.02499
1490943732,572.4000000027,7.79179
1490943734,558.0000000027,6.19888
1490943736,656.4000000027,6.06889
1490943738,591.6000000027,3.507
1490943740,572.4000000027,6.31602
1490943742,574.8000000027,5.8368
1490943744,613.2000000027,7.57061
1490943746,574.8000000027,6.42945
1490943748,613.2000000027,5.65037
1490943750,606.0000000027,7.30962
1490943752,594.0000000027,9.139
1490943754,565.2000000027,8.89924
1490943756,639.6000000027,8.38337
1490943758,606.0000000027,8.2051
1490943760,560.4000000027,7.57062
1490943762,625.2000000027,9.46586
1490943764,692.4000000027,8.8327
1490943766,639.6000000027,10.7035
1490943768,646.8000000027,10.255
1490943770,666.0000000027,8.67367
1490943772,591.6000000027,8.42106
1490943774,565.2000000027,8.8509
1490943776,632.4000000027,7.67031
1490943778,613.2000000027,7.69743
1490943780,632.4000000027,10.2224
1490943782,646.8000000027,8.1919
1490943784,606.0000000027,7.95391
1490943786,615.6000000027,8.60999
1490943788,608.4000000027,10.2794
1490943790,608.4000000027,9.31616
1490943792,574.8000000027,9.55824
1490943794,620.4000000027,6.53056
1490943796,627.6000000027,10.6029
1490943798,536.4000000027,9.4398
1490943800,546.0000000027,8.60272
1490943802,531.6000000027,8.17923
1490943804,529.2000000027,9.92361
1490943806,486.0000000027,8.94305
1490943808,481.2000000027,9.10944
1490943810,500.4000000027,7.94353
1490943812,555.6000000027,8.90974
1490943814,474.0000000027,11.0727
1490943816,474.0000000027,11.6994
1490943818,541.2000000027,9.17555
1490943820,534.0000000027,9.12035
1490943822,488.4000000027,10.5287
1490943824,526.8000000027,9.41368
1490943826,478.8000000027,10.5012
1490943828,450.0000000027,10.9833
1490943830,486.0000000027,8.23271
1490943832,546.0000000027,8.8969
1490943834,469.2000000027,8.86306
1490943836,476.4000000027,10.3225
1490943838,529.2000000027,9.42658
1490943840,462.0000000027,9.42241
1490943842,481.2000000027,9.09248
1490943844,481.2000000027,7.02835
1490943846,526.8000000027,5.79443
1490943848,471.6000000027,8.61214
1490943850,531.6000000027,8.89696
1490943852,555.6000000027,8.45821
1490943854,469.2000000027,8.8964
1490943856,555.6000000027,8.96774
1490943858,560.4000000027,11.5958
1490943860,555.6000000027,9.81763
1490943862,565.2000000027,8.88672
1490943864,606.0000000027,12.2443
1490943866,572.4000000027,8.85098
1490943868,560.4000000027,6.62783
1490943870,598.8000000027,6.64852
1490943872,567.6000000027,9.2124
1490943874,536.4000000027,5.97482
1490943876,594.0000000027,8.29931
1490943878,536.4000000027,9.09629
1490943880,574.8000000027,9.42614
1490943882,567.6000000027,7.79315
1490943884,608.4000000027,6.68483
1490943886,562.8000000027,6.63063
1490943888,570.0000000027,9.88791
1490943890,586.8000000027,8.97764
1490943892,558.0000000027,6.18403
1490943894,601.2000000027,7.41011
1490943896,574.8000000027,7.26851
1490943898,555.6000000027,7.49299
1490943900,570.0000000027,6.54202
1490943902,567.6000000027,7.92331
1490943904,562.8000000027,7.114
1490943906,536.4000000027,7.68043
1490943908,555.6000000027,7.77057
1490943910,536.4000000027,7.93896
1490943912,541.2000000027,10.2971
1490943914,553.2000000027,9.76794
1490943916,541.2000000027,8.45158
1490943918,555.6000000027,8.63993
1490943920,620.4000000027,9.81668
1490943922,577.2000000027,7.83434
1490943924,608.4000000027,9.06338
1490943926,591.6000000027,8.80206
1490943928,630.0000000027,10.4681
1490943930,670.8000000027,9.62129
1490943932,649.2000000027,10.1902
1490943934,697.2000000027,10.0325
1490943936,706.8000000027,9.99633
1490943938,723.6000000027,8.02042
1490943940,687.6000000027,7.91674
1490943942,721.2000000027,6.66095
1490943944,726.0000000027,7.99482
1490943946,692.4000000027,8.83768
1490943948,704.4000000027,8.86248
1490943950,759.6000000027,7.45081
1490943952,728.4000000027,11.2867
1490943954,687.6000000027,8.45187
1490943956,709.2000000027,8.6014
1490943958,675.6000000027,9.63156
1490943960,675.6000000027,9.29286
1490943962,711.6000000027,8.03351
1490943964,618.0000000027,7.9973
1490943966,661.2000000027,7.46418
1490943968,690.0000000027,8.90452
1490943970,630.0000000027,10.3092
1490943972,562.8000000027,8.36479
1490943974,608.4000000027,10.4273
1490943976,625.2000000027,9.87066
1490943978,546.0000000027,10.6208
1490943980,615.6000000027,11.5728
1490943982,555.6000000027,10.7748
1490943984,582.0000000027,9.78821
1490943986,591.6000000027,7.34108
1490943988,541.2000000027,9.01312
1490943990,625.2000000027,7.06931
1490943992,680.4000000027,8.57315
1490943994,663.6000000027,8.28539
1490943996,694.8000000027,8.12322
1490943998,714.0000000027,8.97369
1490944000,680.4000000027,12.5965
1490944002,687.6000000027,8.50293
1490944004,610.8000000027,7.17707
1490944006,601.2000000027,9.28165
1490944008,586.8000000027,9.96327
1490944010,615.6000000027,9.9177
1490944012,586.8000000027,7.67616
1490944014,579.6000000027,10.5754
1490944016,562.8000000027,7.46465
1490944018,567.6000000027,8.10789
1490944020,546.0000000027,7.06387
1490944022,558.0000000027,9.43893
1490944024,546.0000000027,9.27376
1490944026,562.8000000027,11.8179
1490944028,550.8000000027,11.1163
1490944030,550.8000000027,9.63128
1490944032,562.8000000027,12.5915
1490944034,546.0000000027,12.8702
1490944036,486.0000000027,12.074
1490944038,529.2000000027,14.4324
1490944040,457.2000000027,10.876
1490944042,495.6000000027,11.0259
1490944044,464.4000000027,10.1607
1490944046,471.6000000027,8.64371
