tag_number,delay,power_est
1492970702,-15.6,9.94175
1492970706,-18,10.1541
1492970710,22.8,10.4582
1492970714,-15.6,8.63734
1492970718,-8.39999999999998,6.70209
1492970722,-15.6,7.77318
1492970726,42,9.03612
1492970730,-32.4,8.58944
1492970734,34.8,9.98507
1492970738,20.4,7.69402
1492970742,-27.6,9.37438
1492970746,3.60000000000002,9.03762
1492970750,-27.6,7.33129
1492970754,22.8,9.6723
1492970758,-49.2,8.51688
1492970762,-34.8,11.1418
1492970766,27.6,9.88908
1492970770,-37.2,10.506
1492970774,30,9.14047
1492970778,13.2,7.49511
1492970782,-3.60000000000002,10.5731
1492970786,8.39999999999998,9.83797
1492970790,-68.4,10.2645
1492970794,-39.6,7.37029
1492970798,39.6,9.50866
1492970802,-25.2,11.4795
1492970806,-20.4,9.52666
1492970810,37.2,8.58106
1492970814,-13.2,10.8583
1492970818,-54,10.4449
1492970822,-18,9.83832
1492970826,-39.6,10.0524
1492970830,-22.8,9.81035
1492970834,20.4,11.8518
1492970838,49.2,9.83081
1492970842,27.6,9.1372
1492970846,27.6,9.99022
1492970850,-15.6,10.0128
1492970854,-22.8,10.5267
1492970858,-68.4,10.1306
1492970862,-46.8,9.60697
1492970866,37.2,11.1986
1492970870,-10.8,7.43143
1492970874,-20.4,7.25834
1492970878,34.8,5.59697
1492970882,3.60000000000002,9.0601
1492970886,-25.2,10.3197
1492970890,32.4,11.0565
1492970894,13.2,9.37276
1492970898,10.8,9.69427
1492970902,39.6,10.6809
1492970906,20.4,8.82794
1492970910,-27.6,11.4412
1492970914,20.4,11.728
1492970918,22.8,4.63178
1492970922,-27.6,9.89883
1492970926,-54,6.04454
1492970930,8.39999999999998,9.10235
1492970934,-37.2,8.85829
1492970938,-30,10.2281
1492970942,-22.8,10.7812
1492970946,-25.2,9.40013
1492970950,-66,6.56643
1492970954,-13.2,7.11727
1492970958,-8.39999999999998,9.81556
1492970962,-49.2,7.94519
1492970966,34.8,9.84675
1492970970,-18,10.9842
1492970974,-46.8,10.2839
1492970978,-32.4,7.84527
1492970982,-10.8,10.7405
1492970986,-70.8,10.3145
1492970990,-13.2,9.47609
1492970994,-13.2,7.76191
1492970998,-3.60000000000002,9.742
1492971002,-8.39999999999998,11.7956
1492971006,61.2,10.2352
1492971010,6,9.3449
1492971014,-6,9.91636
1492971018,-34.8,8.37773
1492971022,-70.8,8.12521
1492971026,-32.4,9.58951
1492971030,3.60000000000002,7.86002
1492971034,-22.8,9.73205
1492971038,-54,8.49455
1492971042,-13.2,8.81116
1492971046,-22.8,9.21604
1492971050,-58.8,9.59494
1492971054,-66,8.2839
1492971058,-63.6,7.34241
1492971062,-116.4,8.78076
1492971066,-3.60000000000002,10.6417
1492971070,-18,10.5927
1492971074,-102,10.8173
1492971078,-25.2,8.18504
1492971082,-39.6,9.22094
1492971086,-92.4,12.9936
1492971090,-61.2,11.7535
1492971094,-6,13.2803
1492971098,-32.4,11.7435
1492971102,13.2,10.6029
1492971106,123.6,11.2823
1492971110,111.6,10.1722
1492971114,80.4,8.83856
1492971118,68.4,5.81498
1492971122,56.4,7.05172
1492971126,39.6,7.73777
1492971130,54,7.53957
1492971134,25.2,9.1799
1492971138,39.6,9.27671
1492971142,37.2,6.75722
1492971146,34.8,7.5015
1492971150,20.4,9.33568
1492971154,27.6,9.68963
1492971158,6,8.13196
1492971162,25.2,7.80565
1492971166,10.8,6.07085
1492971170,39.6,8.71758
1492971174,15.6,9.9047
1492971178,-20.4,8.34759
1492971182,-32.4,8.41837
1492971186,-10.8,10.3156
1492971190,8.39999999999998,13.3964
1492971194,-18,8.50546
1492971198,10.8,10.6217
1492971202,-32.4,6.6609
1492971206,39.6,10.4957
1492971210,63.6,11.1696
1492971214,63.6,8.20621
1492971218,63.6,8.83311
1492971222,66,9.01586
1492971226,18,7.76063
1492971230,73.2,10.5226
1492971234,56.4,9.48459
1492971238,54,11.4479
1492971242,63.6,11.4283
1492971246,63.6,10.1267
1492971250,56.4,9.74906
1492971254,111.6,9.51688
1492971258,85.2,11.4378
1492971262,118.8,6.52732
1492971266,109.2,8.88758
1492971270,200.4,10.0415
1492971274,118.8,10.149
1492971278,174,10.7391
1492971282,176.4,8.31598
1492971286,157.2,9.09204
1492971290,255.6,7.89196
1492971294,253.2,8.97417
1492971298,229.2,11.5535
1492971302,262.8,8.30015
1492971306,147.6,8.91663
1492971310,169.2,8.47819
1492971314,200.4,11.5824
1492971318,147.6,10.6594
1492971322,138,9.85503
1492971326,123.6,9.1922
1492971330,133.2,12.1072
1492971334,130.8,9.94544
1492971338,118.8,9.9277
1492971342,75.6,11.5628
1492971346,99.6,7.03124
1492971350,75.6,8.91039
1492971354,44.4,10.7552
1492971358,58.8,9.01562
1492971362,1.20000000000005,10.1727
1492971366,42,9.5751
1492971370,90,9.83676
1492971374,-3.60000000000002,10.8881
1492971378,18,8.52749
1492971382,37.2,9.51535
1492971386,37.2,9.02184
1492971390,-6,7.51344
1492971394,22.8,7.7884
1492971398,-25.2,9.37495
1492971402,-34.8,8.78498
1492971406,-10.8,9.85717
1492971410,-8.39999999999998,9.22283
1492971414,-6,10.5605
1492971418,-30,9.52764
1492971422,-27.6,9.12744
1492971426,-32.4,7.30441
1492971430,-63.6,8.53042
1492971434,-109.2,8.54095
1492971438,-51.6,10.1063
1492971442,-39.6,10.5631
1492971446,-73.2,10.1317
1492971450,-106.8,10.5506
1492971454,-51.6,8.95091
1492971458,-70.8,9.90706
1492971462,-104.4,7.88384
1492971466,-13.2,9.31967
1492971470,-63.6,10.0092
1492971474,-34.8,7.44383
1492971478,-68.4,11.1116
1492971482,-6,9.16934
1492971486,46.8,12.9303
1492971490,121.2,11.334
1492971494,114,11.7895
1492971498,126,10.3187
1492971502,111.6,11.5422
1492971506,58.8,11.5397
1492971510,75.6,12.7995
1492971514,61.2,12.3036
1492971518,37.2,11.5358
1492971522,49.2,11.667
1492971526,49.2,11.5617
1492971530,39.6,11.601
1492971534,99.6,11.0737
1492971538,128.4,13.9902
1492971542,135.6,11.3189
1492971546,200.4,12.2271
1492971550,135.6,9.35012
1492971554,121.2,11.2807
1492971558,116.4,10.2586
1492971562,118.8,10.7279
1492971566,44.4,10.76
1492971570,111.6,12.039
1492971574,116.4,9.55521
1492971578,54,8.03468
1492971582,140.4,9.0607
1492971586,111.6,8.81723
1492971590,128.4,9.94915
1492971594,135.6,8.237
1492971598,121.2,7.82822
1492971602,123.6,9.81765
1492971606,118.8,8.49187
1492971610,87.6,10.6797
1492971614,94.8,9.5854
1492971618,99.6,8.30656
1492971622,56.4,7.3528
1492971626,106.8,6.87766
1492971630,70.8,6.07703
1492971634,94.8,6.92332
1492971638,123.6,7.71879
1492971642,123.6,6.82269
1492971646,82.8,5.74834
1492971650,130.8,7.41717
1492971654,104.4,13.2964
1492971658,111.6,9.09857
1492971662,238.8,8.96436
1492971666,265.2,9.9896
1492971670,241.2,9.35357
1492971674,224.4,9.83051
1492971678,219.6,8.49545
1492971682,217.2,7.49659
1492971686,222,8.93727
1492971690,111.6,5.5852
1492971694,135.6,8.20459
1492971698,121.2,8.46689
1492971702,118.8,7.63984
1492971706,75.6,7.80636
1492971710,56.4,9.14341
1492971714,61.2,9.27813
1492971718,46.8,9.53193
1492971722,39.6,12.843
1492971726,-56.4,10.0721
1492971730,30,9.89498
1492971734,3.60000000000002,8.958
1492971738,-51.6,10.5975
1492971742,37.2,9.70391
1492971746,18,9.40763
1492971750,-22.8,10.4221
1492971754,-15.6,8.60251
1492971758,39.6,9.72088
1492971762,-10.8,9.52444
1492971766,3.60000000000002,8.02756
1492971770,-20.4,8.17807
1492971774,-37.2,8.61079
1492971778,-22.8,9.13246
1492971782,-90,10.6192
1492971786,-42,9.98787
1492971790,-27.6,9.69057
1492971794,27.6,10.8478
1492971798,3.60000000000002,8.05637
1492971802,56.4,9.07028
1492971806,51.6,9.07974
1492971810,80.4,7.73456
1492971814,90,10.4094
1492971818,157.2,9.78804
1492971822,142.8,11.1096
1492971826,202.8,7.18766
1492971830,166.8,11.4622
1492971834,121.2,9.20421
1492971838,114,9.15844
1492971842,104.4,10.0568
1492971846,92.4,6.52722
1492971850,34.8,7.8238
1492971854,44.4,8.37413
1492971858,63.6,8.08046
1492971862,42,8.77833
1492971866,121.2,10.1413
1492971870,75.6,11.1442
1492971874,42,8.73035
1492971878,30,10.0085
1492971882,39.6,11.4875
1492971886,66,11.0467
1492971890,37.2,11.7411
1492971894,13.2,10.2947
1492971898,22.8,11.7511
1492971902,-49.2,11.4414
1492971906,10.8,11.0578
1492971910,10.8,9.95332
1492971914,10.8,11.2105
1492971918,27.6,9.86669
1492971922,15.6,9.43247
1492971926,27.6,11.0457
1492971930,10.8,8.42182
1492971934,-8.39999999999998,8.83976
1492971938,39.6,10.7699
1492971942,-22.8,9.22721
1492971946,-39.6,10.0383
1492971950,-15.6,10.4496
1492971954,-46.8,7.87525
1492971958,-25.2,7.3608
1492971962,-20.4,10.9437
1492971966,3.60000000000002,9.83627
1492971970,-49.2,11.7568
1492971974,-32.4,9.73293
1492971978,-20.4,11.2376
1492971982,-51.6,9.02509
1492971986,32.4,7.07015
1492971990,-27.6,8.59225
1492971994,-61.2,9.88482
1492971998,25.2,8.7424
1492972002,-15.6,9.91603
1492972006,-37.2,9.52742
1492972010,-58.8,10.1153
1492972014,-27.6,7.79248
1492972018,-46.8,10.0329
1492972022,18,10.6116
1492972026,-75.6,11.5841
1492972030,-10.8,9.782
1492972034,-54,7.52516
1492972038,-73.2,9.7425
1492972042,-8.39999999999998,9.15997
1492972046,-46.8,8.52832
1492972050,-58.8,9.24882
1492972054,49.2,8.49329
1492972058,-10.8,7.31146
1492972062,6,9.82546
1492972066,42,9.07907
1492972070,18,7.81576
1492972074,-18,10.5636
1492972078,6,8.85394
1492972082,22.8,10.3835
1492972086,56.4,10.45
1492972090,54,9.63959
1492972094,46.8,8.16362
1492972098,66,8.88255
1492972102,70.8,9.76932
1492972106,-18,7.95535
1492972110,-22.8,8.96286
1492972114,6,9.03815
1492972118,-20.4,9.45124
1492972122,1.20000000000005,9.36597
1492972126,-15.6,8.5806
1492972130,8.39999999999998,7.84315
1492972134,-18,9.4748
1492972138,-32.4,9.77533
1492972142,-94.8,9.90825
1492972146,-46.8,10.0073
1492972150,-92.4,12.6726
1492972154,-99.6,9.22455
1492972158,-102,8.90731
1492972162,-39.6,10.2691
1492972166,-42,9.70501
1492972170,-8.39999999999998,10.3171
1492972174,6,10.2119
1492972178,-34.8,10.7841
1492972182,-15.6,11.8833
1492972186,15.6,10.3345
1492972190,37.2,9.8096
1492972194,-20.4,8.3607
1492972198,118.8,9.46528
1492972202,70.8,9.69132
1492972206,75.6,8.45894
1492972210,49.2,9.73931
1492972214,58.8,9.27856
1492972218,94.8,8.5162
1492972222,102,11.4492
1492972226,92.4,11.4918
1492972230,78,8.52609
1492972234,116.4,10.4311
1492972238,75.6,8.97293
1492972242,128.4,11.0613
1492972246,157.2,10.6243
1492972250,128.4,11.6331
1492972254,116.4,7.04897
1492972258,121.2,9.17161
1492972262,73.2,7.60918
1492972266,75.6,7.00557
1492972270,109.2,6.76388
1492972274,94.8,9.13833
1492972278,87.6,7.76134
1492972282,135.6,9.01459
1492972286,128.4,10.2905
1492972290,114,7.92298
1492972294,97.2,7.88708
1492972298,140.4,11.5004
1492972302,118.8,8.20233
1492972306,176.4,8.97
1492972310,138,8.50347
1492972314,135.6,9.89486
1492972318,159.6,10.4194
1492972322,198,6.80216
1492972326,92.4,9.68758
1492972330,140.4,6.51151
1492972334,133.2,9.40387
1492972338,126,9.9363
1492972342,181.2,11.1453
1492972346,135.6,7.91166
1492972350,142.8,9.32459
1492972354,171.6,7.11748
1492972358,126,9.64558
1492972362,174,9.93788
1492972366,152.4,11.3104
1492972370,111.6,10.208
1492972374,102,11.2454
1492972378,126,8.90481
1492972382,85.2,8.91581
1492972386,70.8,8.41883
1492972390,63.6,8.34998
1492972394,46.8,8.23846
1492972398,104.4,9.45021
1492972402,34.8,9.49848
1492972406,54,8.71543
1492972410,-20.4,9.75856
1492972414,-37.2,9.66738
1492972418,-58.8,10.9296
1492972422,1.20000000000005,9.44513
1492972426,1.20000000000005,10.2298
1492972430,-1.20000000000005,12.4012
1492972434,-10.8,12.1574
1492972438,20.4,10.1751
1492972442,-13.2,9.33939
1492972446,34.8,11.8968
1492972450,-30,11.0623
1492972454,-34.8,12.2762
1492972458,30,9.90983
1492972462,-15.6,10.6905
1492972466,34.8,9.57789
1492972470,49.2,10.5066
1492972474,-27.6,10.3401
1492972478,15.6,9.32352
1492972482,37.2,10.9062
1492972486,-44.4,8.52564
1492972490,-37.2,8.4767
1492972494,-13.2,11.0961
1492972498,-73.2,7.24934
1492972502,-85.2,6.61257
1492972506,-27.6,8.2864
1492972510,-82.8,8.75807
1492972514,-44.4,10.1335
1492972518,-22.8,8.60629
1492972522,-49.2,10.5258
1492972526,-73.2,10.9484
1492972530,-37.2,7.77957
1492972534,-51.6,8.86893
1492972538,-37.2,10.8595
1492972542,-10.8,6.66373
1492972546,-63.6,10.8235
1492972550,-46.8,10.849
1492972554,-68.4,11.5714
1492972558,-42,10.0024
1492972562,-75.6,9.04195
1492972566,-90,10.8759
1492972570,-63.6,13.382
1492972574,-56.4,10.2079
1492972578,-27.6,10.5103
1492972582,-92.4,10.184
1492972586,-13.2,10.7072
1492972590,-8.39999999999998,9.47524
1492972594,-42,9.16943
1492972598,-39.6,9.08537
1492972602,-63.6,10.5907
1492972606,10.8,10.6875
1492972610,18,8.44716
1492972614,30,9.06799
1492972618,34.8,9.33813
1492972622,75.6,7.15655
1492972626,42,8.19378
1492972630,49.2,8.86801
1492972634,37.2,7.34488
1492972638,42,9.36622
1492972642,44.4,9.75213
1492972646,42,7.50576
1492972650,20.4,9.17734
1492972654,51.6,8.09153
1492972658,61.2,8.02135
1492972662,6,6.40381
1492972666,18,7.7732
1492972670,-15.6,6.07978
1492972674,15.6,8.31373
1492972678,42,8.85338
1492972682,49.2,8.35859
1492972686,30,9.22957
1492972690,34.8,8.42197
1492972694,39.6,9.10156
1492972698,-15.6,10.9617
1492972702,6,9.72695
1492972706,54,10.7251
1492972710,-30,8.23361
1492972714,51.6,10.3556
1492972718,-30,11.6584
1492972722,-20.4,10.068
1492972726,-10.8,10.5657
1492972730,-10.8,10.0147
1492972734,-22.8,9.56509
1492972738,-27.6,10.7162
1492972742,-22.8,9.51823
1492972746,-46.8,9.8943
1492972750,-20.4,9.83934
1492972754,-37.2,9.35859
1492972758,-39.6,9.15929
1492972762,-58.8,9.94074
1492972766,-75.6,8.95078
1492972770,-68.4,8.02093
1492972774,-106.8,6.70893
1492972778,-25.2,6.7069
1492972782,-70.8,8.13029
1492972786,-8.39999999999998,8.11745
1492972790,-49.2,9.66176
1492972794,-37.2,10.9791
1492972798,-42,9.82889
1492972802,1.20000000000005,9.21217
1492972806,-32.4,9.08678
1492972810,-51.6,8.05373
1492972814,-30,9.33821
1492972818,-78,7.65508
1492972822,-73.2,7.6062
1492972826,13.2,10.809
1492972830,-44.4,8.43526
1492972834,-25.2,7.6836
1492972838,34.8,9.50851
1492972842,-46.8,10.1111
1492972846,-30,11.4097
1492972850,-32.4,14.312
1492972854,-30,10.4878
1492972858,-13.2,8.55141
1492972862,-39.6,11.1489
1492972866,6,10.6291
1492972870,-25.2,10.6775
1492972874,-27.6,10.0778
1492972878,-3.60000000000002,11.4845
1492972882,-20.4,11.7317
1492972886,-42,10.1852
1492972890,-15.6,8.46417
1492972894,-18,7.74414
1492972898,-3.60000000000002,9.5171
1492972902,-51.6,9.65487
1492972906,-20.4,9.41213
1492972910,-54,9.13664
1492972914,-3.60000000000002,8.03136
1492972918,30,9.11455
1492972922,-20.4,10.826
1492972926,-39.6,10.6995
1492972930,42,10.2861
1492972934,8.39999999999998,11.6108
1492972938,27.6,11.3965
1492972942,30,11.2574
1492972946,-13.2,10.8406
1492972950,-18,8.38514
1492972954,37.2,9.4837
1492972958,-30,8.91213
1492972962,58.8,9.70505
1492972966,-25.2,11.7216
1492972970,-27.6,11.1607
1492972974,-1.20000000000005,8.26454
1492972978,27.6,9.62265
1492972982,-27.6,9.83078
1492972986,32.4,11.9277
1492972990,6,10.465
1492972994,-25.2,8.84184
1492972998,42,10.3894
1492973002,32.4,9.99279
1492973006,-42,10.1517
1492973010,54,7.91281
1492973014,-15.6,9.31852
1492973018,-6,9.66727
1492973022,-10.8,11.3134
1492973026,-32.4,9.07281
1492973030,-37.2,10.7074
1492973034,8.39999999999998,10.3615
1492973038,6,9.19038
1492973042,39.6,9.67913
1492973046,10.8,11.564
1492973050,3.60000000000002,8.79214
1492973054,20.4,9.61318
1492973058,39.6,8.60253
1492973062,25.2,10.3978
1492973066,66,10.2388
1492973070,39.6,8.67896
1492973074,61.2,8.44185
1492973078,51.6,8.90274
1492973082,6,8.24195
1492973086,30,8.77474
1492973090,46.8,10.0985
1492973094,25.2,10.4636
1492973098,27.6,8.74511
1492973102,-10.8,7.1261
1492973106,58.8,8.21212
1492973110,46.8,9.34433
1492973114,30,10.996
1492973118,22.8,9.11772
1492973122,10.8,9.22844
1492973126,37.2,10.7845
1492973130,46.8,11.0453
1492973134,-22.8,8.98316
1492973138,27.6,10.2299
1492973142,37.2,7.67719
1492973146,-10.8,7.77965
1492973150,13.2,9.1736
1492973154,-22.8,8.93388
1492973158,1.20000000000005,8.61032
1492973162,-20.4,9.83011
1492973166,-15.6,9.94414
1492973170,-34.8,10.6023
1492973174,39.6,10.3989
1492973178,-32.4,11.3839
1492973182,6,10.8334
1492973186,-8.39999999999998,11.6584
1492973190,-3.60000000000002,8.57264
1492973194,-25.2,10.0554
1492973198,66,8.87853
1492973202,58.8,8.32676
1492973206,61.2,8.88948
1492973210,25.2,11.6914
1492973214,44.4,10.0088
1492973218,49.2,10.676
1492973222,66,8.87909
1492973226,44.4,8.14034
1492973230,18,8.23745
1492973234,18,10.4345
1492973238,42,10.2778
1492973242,42,10.7502
1492973246,73.2,9.56075
1492973250,-6,7.90602
1492973254,58.8,8.28016
1492973258,68.4,7.77681
1492973262,32.4,8.62617
1492973266,46.8,8.69916
1492973270,32.4,7.38274
1492973274,30,9.38116
1492973278,44.4,7.4382
1492973282,32.4,9.12088
1492973286,27.6,3.8337
1492973290,-51.6,6.51103
1492973294,70.8,6.93546
1492973298,13.2,10.7616
1492973302,-32.4,10.9709
1492973306,46.8,9.79395
1492973310,10.8,9.55629
1492973314,63.6,13.2459
1492973318,44.4,5.60149
1492973322,3.60000000000002,10.747
1492973326,46.8,6.29422
1492973330,68.4,7.19814
1492973334,111.6,7.57198
1492973338,51.6,9.17605
1492973342,54,11.0205
1492973346,66,11.1074
1492973350,46.8,10.0013
1492973354,128.4,9.04648
1492973358,78,9.68562
1492973362,133.2,9.78905
1492973366,70.8,8.97866
1492973370,66,9.14512
1492973374,58.8,9.1861
1492973378,128.4,9.6656
1492973382,111.6,8.05177
1492973386,66,10.4213
1492973390,54,9.34033
1492973394,15.6,7.17348
1492973398,1.20000000000005,8.9073
1492973402,49.2,11.1248
1492973406,51.6,9.74312
1492973410,15.6,9.65095
1492973414,85.2,10.3895
1492973418,37.2,10.5271
1492973422,27.6,11.0138
1492973426,34.8,9.38691
1492973430,-22.8,13.0303
1492973434,25.2,12.1553
1492973438,-8.39999999999998,9.33678
1492973442,-3.60000000000002,10.8653
1492973446,-13.2,8.54673
1492973450,8.39999999999998,9.88532
1492973454,-6,8.27117
1492973458,-44.4,8.41855
1492973462,-32.4,10.2196
1492973466,-34.8,8.55696
1492973470,-8.39999999999998,7.05698
1492973474,20.4,10.1426
1492973478,30,8.62589
1492973482,-6,9.0769
1492973486,42,8.22128
1492973490,32.4,9.93862
1492973494,27.6,8.47308
1492973498,18,8.33963
1492973502,-8.39999999999998,8.39872
1492973506,46.8,8.32685
1492973510,-30,11.0522
1492973514,-37.2,10.1973
1492973518,-10.8,10.3958
1492973522,27.6,10.0417
1492973526,-51.6,9.39217
1492973530,-90,10.9562
1492973534,-22.8,9.50061
1492973538,-42,10.7456
1492973542,-39.6,9.93085
1492973546,-37.2,10.2799
1492973550,32.4,8.02183
1492973554,-6,10.5497
1492973558,8.39999999999998,10.028
1492973562,18,9.28629
1492973566,18,10.9375
1492973570,-42,10.9081
1492973574,-25.2,10.2402
1492973578,-44.4,9.6562
1492973582,-20.4,9.96204
1492973586,1.20000000000005,8.43058
1492973590,25.2,7.8038
1492973594,-25.2,9.40816
1492973598,20.4,9.91185
1492973602,-6,9.72225
1492973606,-27.6,11.8356
1492973610,30,10.7859
1492973614,-10.8,8.06663
1492973618,-54,6.26065
1492973622,44.4,7.13425
1492973626,51.6,9.24459
1492973630,-15.6,8.94165
1492973634,15.6,8.09185
1492973638,54,9.49056
1492973642,126,9.7729
1492973650,27.6,7.1122
1492973654,18,9.28052
1492973658,25.2,9.14705
1492973662,-8.39999999999998,7.55149
1492973666,27.6,8.02348
1492973670,25.2,10.6346
1492973674,-1.20000000000005,10.379
1492973678,25.2,10.6206
1492973682,49.2,8.92826
1492973686,-10.8,8.18737
1492973690,51.6,9.30287
1492973694,-22.8,10.2781
1492973698,-20.4,9.20039
1492973702,44.4,8.68817
1492973706,-34.8,7.61291
1492973710,-97.2,7.18824
1492973714,-34.8,7.71622
1492973718,-22.8,6.95562
1492973722,-22.8,10.3356
1492973726,-46.8,6.70478
1492973730,25.2,7.16807
1492973734,10.8,10.9565
1492973738,10.8,6.98497
1492973742,6,9.0146
1492973746,-13.2,9.87587
1492973750,-44.4,8.99547
1492973754,1.20000000000005,8.49098
1492973758,-15.6,9.5123
1492973762,15.6,11.8571
1492973766,-8.39999999999998,11.0037
1492973770,-37.2,10.2918
1492973774,-46.8,9.33776
1492973778,-61.2,9.39565
1492973782,-51.6,8.12867
1492973786,-25.2,8.10319
1492973790,-49.2,8.63122
1492973794,-49.2,9.06424
1492973798,-73.2,10.4207
1492973802,-63.6,9.22168
1492973806,-32.4,7.79217
1492973810,-30,9.47036
1492973814,-75.6,9.96401
1492973818,-78,9.18652
1492973822,-37.2,7.40215
1492973826,-22.8,9.07294
1492973830,-15.6,8.00083
1492973834,1.20000000000005,9.77384
1492973838,-32.4,9.44685
1492973842,-27.6,8.75835
1492973846,3.60000000000002,8.62174
1492973850,15.6,8.42687
1492973854,-1.20000000000005,8.0655
1492973858,-32.4,8.45887
1492973862,10.8,6.50263
1492973866,-22.8,7.31862
1492973870,-8.39999999999998,6.97606
1492973874,27.6,7.66676
1492973878,22.8,4.64624
1492973882,1.20000000000005,8.27711
1492973886,25.2,6.34335
1492973890,3.60000000000002,9.0693
1492973894,-44.4,8.08959
1492973898,-6,8.92209
1492973902,20.4,9.44715
1492973906,-18,9.56983
1492973910,-3.60000000000002,9.92938
1492973914,66,6.76204
1492973918,66,9.24178
1492973922,68.4,9.70723
1492973926,118.8,7.58457
1492973930,46.8,6.70652
1492973934,56.4,5.73814
1492973938,34.8,9.77783
1492973942,6,9.79197
1492973946,39.6,11.5056
1492973950,44.4,9.38728
1492973954,18,11.4679
1492973958,15.6,10.1951
1492973962,15.6,9.00565
1492973966,51.6,8.30972
1492973970,63.6,8.5555
1492973974,42,8.39613
1492973978,27.6,7.42664
1492973982,61.2,8.64478
1492973986,34.8,11.8593
1492973990,37.2,9.50643
1492973994,70.8,9.3371
1492973998,46.8,10.1504
1492974002,15.6,11.015
1492974006,39.6,9.48163
1492974010,32.4,10.3979
1492974014,49.2,8.57553
1492974018,56.4,9.93158
1492974022,87.6,8.29735
1492974026,39.6,9.32579
1492974030,73.2,7.52444
1492974034,80.4,6.83014
1492974038,147.6,10.7234
1492974042,61.2,10.8494
1492974046,138,10.6774
1492974050,111.6,8.31891
1492974054,97.2,8.1377
1492974058,126,6.55995
1492974062,121.2,6.75395
1492974066,70.8,8.42775
1492974070,66,9.22174
1492974074,102,10.4122
1492974078,68.4,10.3638
1492974082,49.2,11.4699
1492974086,49.2,13.137
1492974090,99.6,10.3334
1492974094,56.4,9.43769
1492974098,61.2,9.47856
1492974102,90,10.4035
1492974106,99.6,9.64301
1492974110,102,10.0071
1492974114,102,10.0476
1492974118,166.8,9.29693
1492974122,169.2,10.8043
1492974126,183.6,10.2955
1492974130,224.4,9.71176
1492974138,154.8,6.95338
1492974142,212.4,9.97491
1492974146,166.8,8.72018
1492974150,102,8.85435
1492974154,166.8,9.83447
1492974158,176.4,7.13452
1492974162,150,11.303
1492974166,116.4,8.06873
1492974170,138,9.56777
1492974174,133.2,9.28882
1492974178,111.6,9.1224
1492974182,106.8,9.74534
1492974186,109.2,10.5345
1492974190,126,10.7018
1492974194,94.8,11.5948
1492974198,78,8.75075
1492974202,66,9.12211
1492974206,58.8,9.52178
1492974210,85.2,9.62261
1492974214,75.6,8.2598
1492974218,56.4,7.7597
1492974222,51.6,9.32453
1492974226,49.2,10.5792
1492974230,44.4,9.83712
1492974234,49.2,11.1614
1492974238,63.6,10.3063
1492974242,116.4,10.6681
1492974246,111.6,7.85156
1492974250,44.4,10.2815
1492974254,56.4,10.7276
1492974258,25.2,10.0949
1492974262,80.4,9.39941
1492974266,34.8,8.95408
1492974270,90,10.8516
1492974274,49.2,11.9315
1492974278,15.6,8.57078
1492974282,61.2,10.0786
1492974286,-6,9.12102
1492974290,10.8,8.41493
1492974294,-15.6,8.7668
1492974298,-10.8,10.2396
1492974302,37.2,9.16271
1492974306,-10.8,7.09873
1492974310,3.60000000000002,11.683
1492974314,32.4,8.64887
1492974318,20.4,9.2654
1492974322,18,10.4923
1492974326,10.8,10.2892
1492974330,44.4,11.0496
1492974334,34.8,11.8977
1492974338,42,11.3337
1492974342,22.8,9.71877
1492974346,54,8.92386
1492974350,27.6,9.66198
1492974354,68.4,8.32572
1492974358,46.8,9.38532
1492974362,13.2,9.15427
1492974366,46.8,8.57275
1492974370,39.6,8.47449
1492974374,44.4,8.19187
1492974378,92.4,9.16944
1492974382,123.6,10.1931
1492974386,102,8.95417
1492974390,61.2,8.9027
1492974394,58.8,11.7206
1492974398,85.2,7.46818
1492974402,63.6,10.952
1492974406,114,10.1254
1492974410,135.6,10.9031
1492974414,118.8,8.26278
1492974418,135.6,8.76521
1492974422,140.4,7.66263
1492974426,145.2,7.73352
1492974430,171.6,7.7094
1492974434,154.8,12.0723
1492974438,145.2,8.35829
1492974442,145.2,9.79731
1492974446,104.4,7.34609
1492974450,123.6,5.51113
1492974454,159.6,10.2242
1492974458,102,9.48246
1492974462,154.8,11.0344
1492974466,128.4,7.93385
1492974470,135.6,8.51386
1492974474,121.2,11.6986
1492974478,123.6,10.2125
1492974482,162,8.55373
1492974486,128.4,10.5969
1492974490,142.8,10.5249
1492974494,135.6,8.28553
1492974498,118.8,7.85728
1492974502,121.2,8.20547
1492974506,145.2,7.90063
1492974510,75.6,8.1799
1492974514,114,7.60902
1492974518,61.2,9.10172
1492974522,104.4,8.5034
1492974526,63.6,8.79303
1492974530,97.2,7.67953
1492974534,54,9.25385
1492974538,-15.6,10.352
1492974542,87.6,10.8419
1492974546,46.8,9.31228
1492974550,68.4,9.4088
1492974554,-13.2,9.00935
1492974558,61.2,9.43023
1492974562,63.6,8.9862
1492974566,111.6,10.4603
1492974570,114,9.32734
1492974574,128.4,10.2117
1492974578,111.6,8.46004
1492974582,68.4,10.9434
1492974586,133.2,10.3279
1492974590,42,10.8554
1492974594,10.8,9.61217
1492974598,39.6,9.55807
1492974602,54,8.50922
1492974606,66,9.78161
1492974610,56.4,9.94398
1492974614,46.8,11.0224
1492974618,63.6,9.35022
1492974622,30,9.46738
1492974626,44.4,10.8848
1492974630,42,8.55102
1492974634,-22.8,9.26779
1492974638,30,9.20465
1492974642,32.4,9.54121
1492974646,-20.4,9.79014
1492974650,-32.4,9.029
1492974654,-46.8,9.3604
1492974658,10.8,7.10623
1492974662,13.2,10.7723
1492974666,-30,11.5259
1492974670,-46.8,9.30581
1492974674,-51.6,12.0826
1492974678,-30,11.2717
1492974682,-25.2,12.6727
1492974686,-34.8,10.3335
1492974690,3.60000000000002,13.607
1492974694,-22.8,10.4689
1492974698,10.8,10.7525
1492974702,-15.6,10.4044
1492974706,6,9.26731
1492974710,-10.8,10.3063
1492974714,-8.39999999999998,11.3272
1492974718,-44.4,9.98431
1492974722,-25.2,9.61179
1492974726,3.60000000000002,10.4812
1492974730,30,10.4347
1492974734,37.2,9.12443
1492974738,32.4,8.79347
1492974742,-25.2,10.2778
1492974746,1.20000000000005,10.148
1492974750,37.2,8.03899
1492974754,-44.4,9.05388
1492974758,-18,9.0332
1492974762,34.8,9.77548
1492974766,-10.8,9.21677
1492974770,-8.39999999999998,9.49809
1492974774,-90,8.86342
1492974778,-46.8,12.3712
1492974782,-22.8,9.52164
1492974786,-73.2,10.3057
1492974790,-20.4,10.2969
1492974794,49.2,10.219
1492974798,-15.6,8.31942
1492974802,-44.4,10.1933
1492974806,-58.8,10.125
1492974810,-10.8,9.13922
1492974814,32.4,10.4875
1492974818,-46.8,9.50275
1492974822,61.2,8.48053
1492974826,68.4,8.75786
1492974830,22.8,9.12769
1492974834,133.2,9.83283
1492974838,188.4,8.9523
1492974842,171.6,9.4446
1492974846,140.4,10.6653
1492974850,114,10.8004
1492974854,164.4,7.54953
1492974858,142.8,10.8516
1492974862,138,11.2829
1492974866,150,10.4671
1492974870,130.8,11.0545
1492974874,133.2,10.7513
1492974878,195.6,8.99055
1492974882,207.6,12.0158
1492974886,133.2,11.0614
1492974890,150,9.94541
1492974894,114,9.73258
1492974898,128.4,10.5584
1492974902,126,11.2165
1492974906,56.4,12.0061
1492974910,58.8,11.0129
1492974914,87.6,11.6048
1492974918,114,8.58435
1492974922,130.8,10.5292
1492974926,102,11.1301
1492974930,99.6,12.8059
1492974934,116.4,9.41489
1492974938,135.6,12.1737
1492974942,157.2,9.70857
1492974946,121.2,8.68835
1492974950,130.8,9.09703
1492974954,114,9.15098
1492974958,106.8,9.61559
1492974962,135.6,8.46691
1492974966,116.4,11.9748
1492974970,130.8,11.5458
1492974974,128.4,12.0579
1492974978,162,9.61687
1492974982,133.2,11.8913
1492974986,133.2,11.2795
1492974990,157.2,11.9825
1492974994,140.4,10.7978
1492974998,169.2,10.637
1492975002,195.6,10.164
1492975006,154.8,10.9812
1492975010,126,10.6334
1492975014,121.2,11.7778
1492975022,121.2,12.086
1492975026,90,12.4314
1492975030,109.2,11.9267
1492975034,75.6,10.3304
1492975038,49.2,8.81402
1492975042,118.8,5.70033
1492975046,106.8,8.73564
1492975050,61.2,11.3405
1492975054,82.8,7.9878
1492975058,49.2,9.64989
1492975062,-27.6,11.028
1492975066,-10.8,10.2121
1492975070,61.2,11.8513
1492975074,102,11.0495
1492975078,51.6,10.4239
1492975082,111.6,11.0925
1492975086,130.8,9.84758
1492975090,102,9.68276
1492975094,78,10.4909
1492975098,75.6,10.8963
1492975102,39.6,10.5471
1492975106,49.2,10.0288
1492975110,39.6,11.3043
1492975114,49.2,9.38527
1492975118,13.2,9.27583
1492975122,39.6,8.16045
1492975126,6,7.84169
1492975130,49.2,8.4834
1492975134,27.6,7.57614
1492975138,20.4,8.03842
1492975142,42,10.1602
1492975146,-6,7.90201
1492975150,-10.8,9.74218
1492975154,-42,9.07885
1492975158,30,9.53095
1492975162,-42,9.93245
1492975166,-39.6,10.4197
1492975170,20.4,13.3255
1492975174,6,9.41848
1492975178,1.20000000000005,10.8621
1492975182,30,11.3317
1492975186,-44.4,11.5744
1492975190,-37.2,11.4357
1492975194,27.6,11.422
1492975198,42,11.0651
1492975202,-1.20000000000005,11.4902
1492975206,15.6,7.49687
1492975210,-42,8.63494
1492975214,30,10.1254
1492975218,46.8,10.8857
1492975222,10.8,11.6816
1492975226,46.8,9.04594
1492975230,1.20000000000005,11.3006
1492975234,25.2,13.7891
1492975238,20.4,10.8814
1492975242,-20.4,10.5341
1492975246,39.6,8.85536
1492975250,30,9.98519
1492975254,80.4,10.5304
1492975258,49.2,10.2609
1492975262,54,10.32
1492975266,54,10.4197
1492975270,114,11.2463
1492975274,90,10.7148
1492975278,92.4,8.52472
1492975282,123.6,9.09301
1492975286,111.6,9.18224
1492975290,61.2,9.68322
1492975294,109.2,6.76643
1492975298,121.2,10.9444
1492975302,54,10.0111
1492975306,54,10.8962
1492975310,42,12.5176
1492975314,54,10.6864
1492975318,32.4,8.46235
1492975322,8.39999999999998,12.0772
1492975326,61.2,11.813
1492975330,42,13.6625
1492975334,37.2,12.4587
1492975338,56.4,10.195
1492975342,58.8,11.4153
1492975346,68.4,9.07277
1492975350,106.8,7.56368
1492975354,61.2,9.666
1492975358,61.2,9.05965
1492975362,97.2,8.6464
1492975366,44.4,8.13772
1492975370,37.2,9.6547
1492975374,49.2,8.60648
1492975378,37.2,9.79412
1492975382,6,8.15998
1492975386,27.6,7.44402
1492975390,-18,8.59564
1492975394,51.6,9.25795
1492975398,51.6,5.807
1492975402,-34.8,10.3507
1492975406,22.8,7.50555
1492975410,39.6,8.06383
1492975414,30,10.245
1492975418,39.6,9.54743
1492975422,51.6,8.78413
1492975426,32.4,8.82842
1492975430,30,7.86189
1492975434,15.6,9.21866
1492975438,-44.4,8.52355
1492975442,-25.2,6.82375
1492975446,-13.2,8.95551
1492975450,32.4,6.58489
1492975454,37.2,8.09797
1492975458,-68.4,9.56272
1492975462,-66,8.83169
1492975466,-49.2,7.75671
1492975470,-8.39999999999998,7.74043
1492975474,-104.4,8.54362
1492975478,-109.2,9.31086
1492975482,-171.6,10.8134
1492975486,-87.6,8.90827
1492975490,-123.6,9.92861
1492975494,-130.8,8.5669
1492975498,-138,8.57879
1492975502,-138,7.38336
1492975506,-176.4,12.1575
1492975510,-183.6,12.1027
1492975514,-176.4,11.4829
1492975518,-147.6,7.90276
1492975522,-145.2,11.4571
1492975526,-130.8,9.88259
1492975530,-126,10.5481
1492975534,-121.2,11.3374
1492975538,-123.6,9.3714
1492975542,-157.2,13.4415
1492975546,-147.6,12.2137
1492975550,-90,13.2358
1492975554,-99.6,11.9134
1492975558,-104.4,11.3847
1492975562,-85.2,10.5639
1492975566,-102,7.76081
1492975570,-99.6,11.7777
1492975574,-30,11.132
1492975578,-51.6,11.0847
1492975582,-30,10.3188
1492975586,-78,10.6098
1492975590,-75.6,8.60211
1492975594,-116.4,11.0705
1492975598,-106.8,9.29724
1492975602,-97.2,9.46645
1492975606,-109.2,12.8042
1492975610,-70.8,9.77422
1492975614,-109.2,9.14203
1492975618,-126,7.95925
1492975622,-118.8,11.0835
1492975626,-116.4,10.2718
1492975630,-116.4,10.194
1492975634,-118.8,10.9648
1492975638,-181.2,10.4991
1492975642,-207.6,10.1005
1492975646,-186,11.7445
1492975650,-106.8,10.8856
1492975654,-219.6,10.8279
1492975658,-133.2,9.63896
1492975662,-157.2,10.2519
1492975666,-133.2,8.37679
1492975670,-169.2,7.33856
1492975674,-159.6,10.4012
1492975678,-140.4,8.62872
1492975682,-145.2,7.81838
1492975686,-128.4,8.80922
1492975690,-116.4,8.79812
1492975694,-111.6,10.3071
1492975698,-111.6,9.40506
1492975702,-75.6,9.83931
1492975706,-18,7.15007
1492975710,-32.4,9.16121
1492975714,-49.2,8.89305
1492975718,-20.4,9.04193
1492975722,-8.39999999999998,7.73945
1492975726,-106.8,11.4305
1492975730,-94.8,12.2711
1492975734,-49.2,9.50196
1492975738,-97.2,9.24151
1492975742,-78,6.88001
1492975746,-34.8,7.36423
1492975750,-54,10.3625
1492975754,-46.8,7.67956
1492975758,-61.2,8.33649
1492975762,-30,7.96442
1492975766,-30,6.33892
1492975770,-37.2,8.56923
1492975774,-15.6,6.00639
1492975778,-56.4,9.43563
1492975782,-97.2,8.32662
1492975786,-51.6,7.26863
1492975790,-118.8,9.09027
1492975794,-90,7.85864
1492975798,-94.8,10.6733
1492975802,-80.4,9.78469
1492975806,-54,10.6272
1492975810,-39.6,10.1692
1492975814,-90,11.4997
1492975818,-51.6,12.9752
1492975822,-75.6,11.3775
1492975826,-46.8,12.8477
1492975830,6,11.2849
1492975834,22.8,12.6159
1492975838,1.20000000000005,12.9208
1492975842,-10.8,10.6219
1492975846,-30,11.2462
1492975850,66,11.0196
1492975854,25.2,11.5008
1492975858,46.8,12.175
1492975862,-39.6,11.686
1492975866,42,11.5622
1492975870,46.8,12.8593
1492975874,42,10.4927
1492975878,32.4,11.2666
1492975882,54,8.67208
1492975886,49.2,10.8644
1492975890,37.2,10.163
1492975894,3.60000000000002,8.22571
1492975898,15.6,11.9356
1492975902,49.2,11.4821
1492975906,56.4,12.2901
1492975910,-39.6,10.9548
1492975914,1.20000000000005,10.8946
1492975918,20.4,11.112
1492975922,34.8,9.0106
1492975926,6,9.59067
1492975930,66,10.3236
1492975934,49.2,10.9606
1492975938,15.6,8.65464
1492975942,-8.39999999999998,10.9834
1492975946,54,9.75852
1492975950,37.2,8.88863
1492975954,-34.8,9.7352
1492975958,-13.2,10.112
1492975962,-1.20000000000005,9.52702
1492975966,-56.4,8.07071
1492975970,-30,10.7981
1492975974,13.2,10.9331
1492975978,32.4,11.0871
1492975982,39.6,8.93404
1492975986,46.8,8.55499
1492975990,54,8.07974
1492975994,10.8,11.8486
1492975998,30,9.26718
1492976002,-22.8,9.11001
1492976006,-18,6.33813
1492976010,-42,9.48529
1492976014,-22.8,8.40836
1492976018,-82.8,9.19444
1492976022,-99.6,7.79356
1492976026,-82.8,8.7699
1492976030,-102,9.1016
1492976034,-3.60000000000002,13.0406
1492976038,-97.2,12.0883
1492976042,-61.2,13.5932
1492976046,-68.4,10.9651
1492976050,-63.6,13.1859
1492976054,-121.2,11.6909
1492976058,-147.6,10.6734
1492976062,-109.2,10.0632
1492976066,-102,10.3918
1492976070,-126,10.8171
1492976074,-183.6,9.87726
1492976078,-123.6,8.61199
1492976082,-123.6,10.5902
1492976086,-111.6,9.53357
1492976090,-34.8,8.08646
1492976094,34.8,11.3224
1492976098,49.2,9.36348
1492976102,-8.39999999999998,7.5951
1492976106,6,10.1626
1492976110,10.8,11.7276
1492976114,3.60000000000002,9.73347
1492976118,42,9.62221
1492976122,39.6,8.01848
1492976126,8.39999999999998,8.30824
1492976130,-3.60000000000002,7.37597
1492976134,-3.60000000000002,8.10427
1492976138,20.4,7.24926
1492976142,20.4,9.65891
1492976146,10.8,8.87435
1492976150,-20.4,9.42294
1492976154,-34.8,8.86179
1492976158,-37.2,7.41969
1492976162,-56.4,7.5183
1492976166,-20.4,7.89887
1492976170,-3.60000000000002,10.2328
1492976174,-10.8,9.76106
1492976178,-54,10.4167
1492976182,-54,9.49136
1492976186,-34.8,9.73421
1492976190,-42,10.2532
1492976194,-32.4,9.46591
1492976198,-109.2,10.2793
1492976202,-80.4,9.94138
1492976206,-46.8,11.2914
1492976210,-94.8,12.7566
1492976214,-114,12.0729
1492976218,-123.6,8.01513
1492976222,-114,9.54019
1492976226,-106.8,12.5387
1492976230,-128.4,12.5038
1492976234,-114,11.0359
1492976238,-102,11.7415
1492976242,-90,9.5949
1492976246,-133.2,9.63103
1492976250,-121.2,8.26223
1492976254,-97.2,10.3435
1492976258,-135.6,12.2292
1492976262,-130.8,9.87831
1492976266,-116.4,9.90561
1492976270,-140.4,9.70309
1492976274,-222,12.7661
1492976278,-186,9.08654
1492976282,-174,10.2715
1492976286,-114,11.4813
1492976290,-123.6,11.3578
1492976294,-246,11.7767
1492976298,-188.4,7.86458
1492976302,-126,8.53993
1492976306,-145.2,7.44149
1492976310,-193.2,10.6837
1492976314,-130.8,9.9743
1492976318,-138,9.53038
1492976322,-121.2,9.74989
1492976326,-198,9.17823
1492976330,-97.2,9.62136
1492976334,-80.4,8.13469
1492976338,-73.2,8.4549
1492976342,-80.4,9.35458
1492976346,-18,9.25779
1492976350,46.8,9.29869
1492976354,-10.8,10.6026
1492976358,46.8,8.7828
1492976362,20.4,9.6709
1492976366,13.2,8.47824
1492976370,-20.4,6.41344
1492976374,-54,6.92731
1492976378,-44.4,8.63238
1492976382,-42,9.23006
1492976386,-92.4,8.77339
1492976390,-75.6,7.11798
1492976394,-78,9.12142
1492976398,-80.4,9.79131
1492976402,-135.6,8.63623
1492976406,-140.4,9.23855
1492976410,-114,12.4537
1492976414,-128.4,9.58809
1492976418,-178.8,8.86985
1492976422,-181.2,10.0462
1492976426,-123.6,12.4701
1492976430,-188.4,10.4357
1492976434,-186,11.989
1492976438,-128.4,11.8926
1492976442,-128.4,11.6362
1492976446,-142.8,10.7695
1492976450,-123.6,10.7598
1492976454,-171.6,11.3707
1492976458,-99.6,9.33285
1492976462,-140.4,9.71975
1492976466,-186,11.9948
1492976470,-154.8,10.5517
1492976474,-121.2,8.89278
1492976478,-138,9.91221
1492976482,-150,11.267
1492976486,-140.4,11.1795
1492976490,-133.2,12.2848
1492976494,-116.4,11.9598
1492976498,-145.2,13.6129
1492976502,-142.8,9.10591
1492976506,-147.6,11.0583
1492976510,-145.2,9.44361
1492976514,-109.2,9.22106
1492976518,-133.2,10.152
1492976522,-118.8,10.7289
1492976526,-135.6,9.82619
1492976530,-157.2,9.60854
1492976534,-174,8.48379
1492976538,-118.8,9.37464
1492976542,-195.6,8.80682
1492976546,-181.2,9.68167
1492976550,-114,7.99528
1492976554,-138,6.89851
1492976558,-114,7.00591
1492976562,-111.6,7.0942
1492976566,-121.2,10.2646
1492976570,-104.4,8.06205
1492976574,-104.4,7.92606
1492976578,-111.6,9.1338
1492976582,-99.6,10.0443
1492976586,-109.2,9.9207
1492976590,-104.4,8.96896
1492976594,-30,11.3362
1492976598,-116.4,10.018
1492976602,-116.4,9.83715
1492976606,-85.2,11.8698
1492976610,-140.4,12.8224
1492976614,-118.8,7.28644
1492976618,-128.4,9.07394
1492976622,-90,8.92089
1492976626,-102,12.0799
1492976630,-130.8,10.4665
1492976634,-145.2,10.7884
1492976638,-121.2,10.2578
1492976642,-140.4,13.7723
1492976646,-183.6,10.1316
1492976650,-145.2,10.469
1492976654,-128.4,13.6929
1492976658,-126,12.5721
1492976662,-171.6,9.39508
1492976666,-128.4,10.46
1492976670,-181.2,10.6155
1492976674,-102,10.3374
1492976678,-154.8,8.18121
1492976682,-140.4,9.69459
1492976686,-116.4,10.6538
1492976690,-130.8,11.5448
1492976694,-109.2,10.0878
1492976698,-159.6,8.72352
1492976702,-159.6,10.9714
1492976706,-106.8,9.25073
1492976710,-97.2,9.78817
1492976714,-106.8,10.6999
1492976718,-128.4,10.5775
1492976722,-111.6,9.95768
1492976726,-94.8,8.07434
1492976730,-116.4,10.4301
1492976734,-128.4,10.2527
1492976738,-140.4,12.1607
1492976742,-188.4,9.50693
1492976746,-145.2,11.8963
1492976750,-188.4,10.1314
1492976754,-186,8.28053
1492976758,-128.4,9.98695
1492976762,-128.4,11.372
1492976766,-121.2,11.6923
1492976770,-138,8.88697
1492976774,-138,9.70296
1492976778,-121.2,11.5354
1492976782,-138,9.96193
1492976786,-135.6,8.35648
1492976790,-99.6,10.6357
1492976794,-90,8.05047
1492976798,-121.2,8.62103
1492976802,-116.4,9.2527
1492976806,-116.4,7.94535
1492976810,-171.6,8.10029
1492976814,-133.2,7.96716
1492976818,-75.6,8.4243
1492976822,-152.4,8.96735
1492976826,-212.4,7.52803
1492976830,-97.2,9.11971
1492976834,-126,9.40178
1492976838,-121.2,7.79226
1492976842,-174,7.45897
1492976846,-130.8,8.01123
1492976850,-133.2,6.26829
1492976854,-193.2,8.36348
1492976858,-178.8,7.01056
1492976862,-116.4,6.98772
1492976866,-166.8,6.41065
1492976870,-186,7.95441
1492976874,-118.8,7.35295
1492976878,-140.4,9.77981
1492976882,-181.2,7.50605
1492976886,-126,8.67119
1492976890,-147.6,6.81275
1492976894,-138,8.06071
1492976898,-138,8.54145
1492976902,-152.4,8.66924
1492976906,-118.8,8.21586
1492976910,-154.8,9.35251
1492976914,-118.8,10.0824
1492976918,-102,10.7124
1492976922,-186,8.23399
1492976926,-171.6,9.32903
1492976930,-174,9.99111
1492976934,-126,10.2654
1492976938,-135.6,9.46807
1492976942,-178.8,8.29369
1492976946,-118.8,9.72474
1492976950,-116.4,10.6298
1492976954,-133.2,10.2338
1492976958,-142.8,10.2138
1492976962,-111.6,9.69161
1492976966,-99.6,8.27485
1492976970,-135.6,8.38657
1492976974,-54,9.39338
1492976978,-63.6,11.9063
1492976982,-121.2,9.06861
1492976986,-111.6,5.40569
1492976990,-118.8,5.53897
1492976994,-162,8.38656
1492976998,-109.2,7.34097
1492977002,-145.2,10.2716
1492977006,-128.4,8.72443
1492977010,-118.8,8.9422
1492977014,-99.6,8.84257
1492977018,-128.4,8.41297
1492977022,-111.6,9.1217
1492977026,-123.6,7.88832
1492977030,-126,10.2243
1492977034,-123.6,10.9479
1492977038,-116.4,9.72987
1492977042,-97.2,10.0594
1492977046,-178.8,9.68843
1492977050,-102,8.51761
1492977054,-147.6,8.31019
1492977058,-126,9.36083
1492977062,-200.4,8.09713
1492977066,-159.6,11.1507
1492977070,-109.2,9.81142
1492977074,-198,9.78658
1492977078,-114,9.31613
1492977082,-118.8,8.50809
1492977086,-166.8,10.0898
1492977090,-121.2,11.5427
1492977094,-130.8,10.6904
1492977098,-181.2,11.0945
1492977102,-118.8,10.1866
1492977106,-188.4,9.62175
1492977110,-176.4,9.3529
1492977114,-130.8,10.022
1492977118,-174,10.0491
1492977122,-102,8.26821
1492977126,-121.2,10.6121
1492977130,-118.8,9.8803
1492977134,-166.8,7.52622
1492977138,-133.2,6.25383
1492977142,-150,6.31714
1492977146,-142.8,8.23552
1492977150,-111.6,7.64429
1492977154,-169.2,7.92846
1492977158,-157.2,9.61838
1492977162,-126,7.91416
1492977166,-106.8,5.4518
1492977170,-195.6,9.58875
1492977174,-135.6,9.46243
1492977178,-123.6,8.91691
1492977182,-150,7.58618
1492977186,-135.6,6.02746
1492977190,-135.6,10.5097
1492977194,-123.6,9.81338
1492977198,-116.4,10.6973
1492977202,-114,9.33959
1492977206,-114,8.01838
1492977210,-78,10.465
1492977214,-97.2,9.45636
1492977218,-133.2,9.8675
1492977222,-109.2,11.6171
1492977226,-111.6,9.22195
1492977230,-181.2,7.71546
1492977234,-111.6,6.21917
1492977238,-78,6.09026
1492977242,-130.8,12.5651
1492977246,-118.8,9.51501
1492977250,-106.8,9.41566
1492977254,-118.8,9.5904
1492977258,-142.8,9.36899
1492977262,-135.6,8.51479
1492977266,-133.2,10.9107
1492977270,-183.6,6.31908
1492977274,-171.6,9.32428
1492977278,-176.4,8.59795
1492977282,-116.4,8.44318
1492977286,-121.2,7.9182
1492977290,-181.2,9.44621
1492977294,-188.4,8.98355
1492977298,-142.8,7.42434
1492977302,-116.4,5.18773
1492977306,-162,5.60287
1492977310,-135.6,5.70568
1492977314,-114,5.20536
1492977318,-121.2,7.65915
1492977322,-147.6,5.05507
1492977326,-130.8,5.96035
1492977330,-126,7.70223
1492977334,-116.4,6.91322
1492977338,-123.6,8.09996
1492977342,-111.6,8.73054
1492977346,-128.4,9.91939
1492977350,-109.2,9.5304
1492977354,-123.6,10.045
1492977358,-121.2,10.9594
1492977362,-128.4,8.7766
1492977366,-147.6,8.60182
1492977370,-118.8,10.7626
1492977374,-128.4,10.8504
1492977378,-118.8,9.68938
1492977382,-80.4,10.2578
1492977386,-97.2,13.1116
1492977390,-162,10.4888
1492977394,-85.2,9.76056
1492977398,-87.6,9.33873
1492977402,-39.6,11.2213
1492977406,-94.8,10.7603
1492977410,-111.6,8.89473
1492977414,-97.2,8.00669
1492977418,-92.4,9.53829
1492977422,-68.4,7.77981
1492977426,-66,9.9621
1492977430,-82.8,9.34845
1492977434,-39.6,7.79778
1492977438,-73.2,10.7218
1492977442,-18,11.807
1492977446,-51.6,10.2161
1492977450,-49.2,8.25086
1492977454,-94.8,8.68424
1492977458,-97.2,8.02275
1492977462,-102,14.2905
1492977466,-154.8,11.6058
1492977470,-135.6,10.7234
1492977474,-145.2,10.995
1492977478,-193.2,9.32277
1492977482,-217.2,11.1423
1492977486,-210,9.53737
1492977490,-181.2,8.30212
1492977494,-130.8,8.80309
1492977498,-159.6,11.7606
1492977502,-162,9.13132
1492977506,-152.4,8.59541
1492977510,-162,8.68456
1492977514,-190.8,11.6734
1492977518,-162,7.09988
1492977522,-157.2,8.5478
1492977526,-147.6,9.25113
1492977530,-106.8,9.99483
1492977534,-154.8,10.2234
1492977538,-123.6,6.14906
1492977542,-166.8,8.47761
1492977546,-92.4,8.41853
1492977550,-109.2,9.05608
1492977554,-123.6,8.58807
1492977558,-116.4,10.1512
1492977562,-116.4,7.70185
1492977566,-68.4,9.71485
1492977570,-106.8,9.00476
1492977574,-49.2,8.19582
1492977578,-92.4,7.87781
1492977582,-121.2,8.64293
1492977586,-94.8,8.54808
1492977590,-104.4,8.78288
1492977594,-97.2,8.72292
1492977598,-94.8,9.06936
1492977602,-70.8,9.39295
1492977606,-130.8,8.31317
1492977610,-121.2,9.12892
1492977614,-87.6,8.94538
1492977618,-128.4,6.31607
1492977622,-97.2,6.82602
1492977626,-130.8,8.35642
1492977630,-92.4,10.2105
1492977634,-118.8,10.366
1492977638,-111.6,10.4681
1492977646,-85.2,10.2565
1492977650,-82.8,10.7768
1492977654,-78,13.0185
1492977658,-99.6,6.90265
1492977662,-121.2,9.43533
1492977670,-118.8,10.1677
1492977674,-94.8,10.0348
1492977678,-13.2,10.2484
1492977682,-123.6,10.6443
1492977686,-106.8,7.43563
1492977690,-44.4,7.99002
1492977694,-114,7.65682
1492977698,-22.8,7.53469
1492977702,-73.2,6.85243
1492977706,-85.2,8.56165
1492977710,-138,4.22141
1492977714,-152.4,8.56634
1492977718,-118.8,6.248
1492977722,-193.2,9.94022
1492977726,-195.6,9.96574
1492977730,-147.6,11.2541
1492977734,-106.8,8.68188
1492977738,-183.6,9.07556
1492977742,-186,8.88063
1492977746,-183.6,10.0713
1492977750,-200.4,10.9757
1492977754,-135.6,11.7003
1492977758,-188.4,12.9417
1492977762,-157.2,6.98056
1492977766,-164.4,8.29254
1492977770,-118.8,8.50829
1492977774,-126,5.42451
1492977778,20.4,8.82047
1492977782,-37.2,7.85697
1492977786,34.8,9.74132
1492977790,13.2,8.39883
1492977794,39.6,7.04412
1492977798,121.2,6.75728
1492977802,37.2,7.48942
1492977806,130.8,7.26192
1492977810,126,4.99164
1492977814,109.2,7.67754
1492977818,68.4,7.78674
1492977822,133.2,7.75851
1492977826,121.2,6.46971
1492977830,140.4,10.676
1492977834,147.6,6.26983
1492977838,198,6.26317
1492977842,138,11.4525
1492977846,174,9.79245
1492977850,135.6,9.63999
1492977854,87.6,8.71417
1492977858,104.4,8.97528
1492977862,102,9.1815
1492977866,128.4,9.36253
1492977870,80.4,8.28696
1492977874,133.2,8.44979
1492977878,92.4,8.50021
1492977882,66,8.55927
1492977886,44.4,8.77135
1492977890,66,10.3021
1492977894,44.4,9.93083
1492977898,58.8,10.6941
1492977902,39.6,10.7098
1492977906,54,9.76792
1492977910,66,10.7256
1492977914,63.6,9.04523
1492977918,39.6,11.4337
1492977922,46.8,10.4045
1492977926,63.6,9.54635
1492977930,78,8.57312
1492977934,118.8,9.49459
1492977938,142.8,9.78637
1492977942,104.4,8.97546
1492977946,109.2,7.29446
1492977950,126,7.17277
1492977954,118.8,9.51741
1492977958,51.6,7.9827
1492977962,123.6,9.32184
1492977966,171.6,6.95536
1492977970,66,7.52016
1492977974,133.2,7.36145
1492977978,169.2,10.0884
1492977982,104.4,6.11982
1492977986,116.4,8.41264
1492977990,56.4,7.96761
1492977994,63.6,7.83762
1492977998,22.8,10.5395
1492978002,109.2,7.41818
1492978006,99.6,8.9132
1492978010,87.6,8.33572
1492978014,118.8,8.0991
1492978018,109.2,8.72279
1492978022,49.2,8.3348
1492978026,56.4,11.0928
1492978030,63.6,8.82804
1492978034,18,10.4852
1492978038,66,7.16021
1492978042,114,7.21249
1492978046,34.8,9.28945
1492978050,51.6,9.32523
1492978054,97.2,8.24334
1492978058,15.6,8.87018
1492978062,63.6,5.46269
1492978066,39.6,6.78486
1492978070,54,6.62256
1492978074,97.2,6.96238
1492978078,104.4,8.97344
1492978082,30,9.39976
1492978086,54,8.11234
1492978090,37.2,8.01311
1492978094,54,8.91833
1492978098,73.2,10.2801
1492978102,70.8,9.9692
1492978106,39.6,8.79666
1492978110,104.4,8.15778
1492978114,63.6,7.87981
1492978118,18,5.79443
1492978122,70.8,7.38997
1492978126,42,7.98697
1492978130,152.4,8.4648
1492978134,138,10.3354
1492978138,114,7.89328
1492978142,128.4,5.28637
1492978146,106.8,8.1758
1492978150,114,6.03208
1492978154,90,4.18322
1492978158,102,6.41704
1492978162,46.8,6.24987
1492978166,51.6,7.40954
1492978170,126,9.88679
1492978174,106.8,10.0149
1492978178,99.6,11.0462
1492978182,111.6,9.62103
1492978186,80.4,9.3054
1492978190,90,7.39813
1492978194,90,8.37106
1492978198,54,7.62752
1492978202,130.8,6.74068
1492978206,66,9.86773
1492978210,54,8.8695
1492978214,66,9.01629
1492978218,97.2,9.05324
1492978222,63.6,8.85724
1492978226,44.4,7.86753
1492978230,99.6,7.80963
1492978234,42,5.5575
1492978238,25.2,8.44462
1492978242,109.2,10.1575
1492978246,-32.4,8.82453
1492978250,51.6,10.0154
1492978254,30,9.05095
1492978258,13.2,9.17412
1492978262,-15.6,8.54975
1492978266,15.6,8.80879
1492978270,-42,10.7973
1492978274,10.8,9.93618
1492978278,-1.20000000000005,9.24617
1492978282,18,8.85926
1492978286,30,8.54029
1492978290,56.4,9.06997
1492978294,34.8,8.05939
1492978298,37.2,10.7424
1492978302,30,10.7953
1492978306,44.4,7.87741
1492978310,94.8,11.3555
1492978314,25.2,8.81903
1492978318,-10.8,10.8219
1492978322,20.4,10.0995
1492978326,46.8,13.2531
1492978330,22.8,11.9869
1492978334,51.6,7.42905
1492978338,25.2,10.0454
1492978342,44.4,9.19535
1492978346,10.8,8.73667
1492978350,-22.8,8.45523
1492978354,58.8,9.02801
1492978358,63.6,10.4273
1492978362,39.6,10.4991
1492978366,-25.2,9.93715
1492978370,-27.6,10.1132
1492978374,27.6,9.83314
1492978378,-49.2,10.435
1492978382,18,9.81871
1492978386,1.20000000000005,9.44604
1492978390,-20.4,9.9299
1492978394,-3.60000000000002,9.52223
1492978398,37.2,8.87976
1492978402,-10.8,9.61541
1492978406,-1.20000000000005,9.91424
1492978410,13.2,10.6953
1492978414,-42,9.32069
1492978418,-27.6,8.9268
1492978422,15.6,7.89509
1492978426,-1.20000000000005,8.5051
1492978430,49.2,10.3858
1492978434,61.2,8.44697
1492978438,22.8,8.81379
1492978442,49.2,7.11248
1492978446,-22.8,8.03806
1492978450,39.6,9.45233
1492978454,73.2,9.03467
1492978458,42,10.7475
1492978462,42,8.96875
1492978466,56.4,8.99553
1492978470,37.2,5.43322
1492978474,54,9.56627
1492978478,39.6,8.0003
1492978482,58.8,9.48938
1492978486,46.8,7.59323
1492978490,49.2,10.4892
1492978494,6,6.5772
1492978498,37.2,11.2941
1492978502,37.2,10.9801
1492978506,-22.8,8.59164
1492978510,25.2,9.25512
1492978514,-1.20000000000005,8.48179
1492978518,-27.6,9.81848
1492978522,-42,9.13623
1492978526,20.4,7.015
1492978530,-51.6,10.0499
1492978534,-42,9.94189
1492978538,-32.4,9.01491
1492978542,-13.2,9.13084
1492978546,-42,8.30217
1492978550,-27.6,5.86687
1492978554,-27.6,8.84839
1492978558,-22.8,9.22431
1492978562,-20.4,8.64521
1492978566,-66,7.91011
1492978570,1.20000000000005,9.85185
1492978574,-22.8,11.089
1492978578,-20.4,8.53689
1492978582,27.6,5.92916
1492978586,27.6,9.98889
1492978590,32.4,9.84581
1492978594,44.4,11.1608
1492978598,32.4,10.3151
1492978602,39.6,8.15924
1492978606,1.20000000000005,10.0032
1492978610,34.8,9.50962
1492978614,-30,10.0414
1492978618,-20.4,8.59449
1492978622,-6,9.99079
1492978626,-46.8,10.8641
1492978630,32.4,7.87534
1492978634,-30,8.58671
1492978638,-15.6,9.34712
1492978642,-15.6,9.96263
1492978646,51.6,9.77628
1492978650,10.8,9.40264
1492978654,37.2,10.7209
1492978658,66,9.81491
1492978662,30,12.5498
1492978666,46.8,9.49175
1492978670,61.2,10.4395
1492978674,49.2,11.4337
1492978678,118.8,11.965
1492978682,128.4,10.4608
1492978686,128.4,10.5431
1492978690,75.6,11.1164
1492978694,121.2,9.69764
1492978698,90,9.30335
