tag_number,delay,power_est
1498415188,688.400000004,111.863
1498415190,724.400000004,113.392
1498415192,743.600000004,112.286
1498415194,717.200000004,113.936
1498415196,726.800000004,115.111
1498415198,765.200000004,113.484
1498415200,806.000000004,114.564
1498415202,719.600000004,118.599
1498415204,714.800000004,118.6
1498415206,738.800000004,109.815
1498415208,722.000000004,112.148
1498415210,772.400000004,114.14
1498415212,765.200000004,116.933
1498415214,791.600000004,117.173
1498415216,702.800000004,116.049
1498415218,695.600000004,115.536
1498415220,770.000000004,110.068
1498415222,770.000000004,115.563
1498415224,717.200000004,113.184
1498415226,731.600000004,121.377
1498415228,724.400000004,116.204
1498415230,671.600000004,114.721
1498415232,758.000000004,111.997
1498415234,750.800000004,112.416
1498415236,736.400000004,117.555
1498415238,707.600000004,115.017
1498415240,702.800000004,114.72
1498415242,726.800000004,117.361
1498415244,695.600000004,111.872
1498415246,746.000000004,107.822
1498415250,779.600000004,116.851
1498415252,707.600000004,109.529
1498415254,748.400000004,122.947
1498415256,700.400000004,112.238
1498415258,755.600000004,110.458
1498415260,741.200000004,113.943
1498415262,765.200000004,121.435
1498415264,796.400000004,117.07
1498415266,786.800000004,115.299
1498415268,741.200000004,113.801
1498415270,753.200000004,113.654
1498415272,815.600000004,114.597
1498415274,796.400000004,117.268
1498415276,736.400000004,109.145
1498415278,719.600000004,102.301
1498415280,750.800000004,102.525
1498415282,827.600000004,106.909
1498415284,726.800000004,105.362
1498415286,746.000000004,112.834
1498415288,748.400000004,105.255
1498415290,726.800000004,111.162
1498415292,760.400000004,113.48
1498415294,719.600000004,114.778
1498415296,750.800000004,112.51
1498415298,717.200000004,108.109
1498415300,772.400000004,111.724
1498415302,789.200000004,107.709
1498415304,705.200000004,108.206
1498415306,710.000000004,115.722
1498415308,741.200000004,112.554
1498415310,710.000000004,114.62
1498415312,717.200000004,121.654
1498415314,726.800000004,123.438
1498415316,710.000000004,113.3
1498415318,758.000000004,116.25
1498415320,755.600000004,115.556
1498415322,731.600000004,110.805
1498415324,784.400000004,115.234
1498415326,748.400000004,113.534
1498415328,738.800000004,109.617
1498415330,746.000000004,114.632
1498415332,746.000000004,111.407
1498415334,724.400000004,111.633
1498415336,782.000000004,115.44
1498415338,782.000000004,114.309
1498415340,755.600000004,115.141
1498415342,688.400000004,118.936
1498415344,736.400000004,118.32
1498415346,731.600000004,114.994
1498415348,746.000000004,116.899
1498415350,695.600000004,114.879
1498415352,722.000000004,120.772
1498415354,726.800000004,113.235
1498415356,688.400000004,113.065
1498415358,736.400000004,115.327
1498415360,719.600000004,126.772
1498415362,760.400000004,116.801
1498415364,734.000000004,108.146
1498415366,750.800000004,109.105
1498415368,748.400000004,111.432
1498415370,743.600000004,112.182
1498415372,712.400000004,115.245
1498415374,746.000000004,115.712
1498415376,722.000000004,114.252
1498415378,710.000000004,115.567
1498415380,710.000000004,114.796
1498415382,722.000000004,117.032
1498415384,738.800000004,117.637
1498415386,700.400000004,121.514
1498415388,734.000000004,111.244
1498415390,844.400000004,119.83
1498415392,777.200000004,110.538
1498415394,746.000000004,107.919
1498415396,724.400000004,118.967
1498415398,755.600000004,119.719
1498415400,724.400000004,116.624
1498415402,760.400000004,108.56
1498415404,753.200000004,114.032
1498415406,767.600000004,115.438
1498415408,762.800000004,116.311
1498415410,784.400000004,108.811
1498415412,849.200000004,110.53
1498415414,815.600000004,114.548
1498415416,822.800000004,123.203
1498415418,849.200000004,111.823
1498415420,858.800000004,114.387
1498415422,858.800000004,117.937
1498415424,842.000000004,116.819
1498415426,854.000000004,113.779
1498415428,921.200000004,115.03
1498415430,878.000000004,108.534
1498415432,916.400000004,109.322
1498415434,902.000000004,109.371
1498415436,916.400000004,113.628
1498415438,861.200000004,111.036
1498415440,909.200000004,110.347
1498415442,892.400000004,107.778
1498415444,904.400000004,115.923
1498415446,875.600000004,103.401
1498415448,887.600000004,109.703
1498415450,894.800000004,106.022
1498415452,863.600000004,109.145
1498415454,839.600000004,117.309
1498415456,954.800000004,112.771
1498415458,906.800000004,103.731
1498415460,839.600000004,108.581
1498415462,868.400000004,112.527
1498415464,923.600000004,105.901
1498415466,858.800000004,107.35
1498415468,890.000000004,104.304
1498415470,921.200000004,109.376
1498415472,904.400000004,116.094
1498415474,846.800000004,109.834
1498415476,818.000000004,118.657
1498415478,887.600000004,114.435
1498415480,849.200000004,112.065
1498415482,866.000000004,116.675
1498415484,868.400000004,115.722
1498415486,890.000000004,110.893
1498415488,854.000000004,116.788
1498415490,844.400000004,109.824
1498415492,832.400000004,122.342
1498415494,854.000000004,110.542
1498415496,846.800000004,108.478
1498415498,846.800000004,104.262
1498415500,866.000000004,110.863
1498415502,851.600000004,109.416
1498415504,863.600000004,113.49
1498415506,873.200000004,108.53
1498415508,880.400000004,108.173
1498415510,868.400000004,111.596
1498415512,887.600000004,100.44
1498415514,863.600000004,103.292
1498415516,858.800000004,104.85
1498415518,818.000000004,112.099
1498415520,834.800000004,111.181
1498415522,849.200000004,115.751
1498415524,834.800000004,111.149
1498415526,830.000000004,117.046
1498415528,868.400000004,114.532
1498415530,839.600000004,112.883
1498415532,830.000000004,118.017
1498415534,779.600000004,115.559
1498415536,806.000000004,113.336
1498415538,844.400000004,107.691
1498415540,844.400000004,110.935
1498415542,806.000000004,108.135
1498415544,832.400000004,110.249
1498415546,873.200000004,98.2763
1498415548,846.800000004,110.489
1498415550,844.400000004,104.905
1498415552,834.800000004,114.065
1498415554,844.400000004,104.342
1498415556,837.200000004,115.894
1498415558,861.200000004,109.627
1498415560,885.200000004,102.965
1498415562,887.600000004,106.773
1498415564,892.400000004,102.763
1498415566,930.800000004,112.102
1498415568,926.000000004,103.263
1498415570,897.200000004,119.299
1498415572,882.800000004,106.601
1498415574,928.400000004,105.644
1498415576,878.000000004,104.768
1498415578,863.600000004,106.516
1498415580,870.800000004,106.398
1498415582,878.000000004,110.287
1498415584,866.000000004,113.555
1498415586,837.200000004,107.798
1498415588,854.000000004,106.096
1498415590,813.200000004,108.731
1498415592,832.400000004,109.258
1498415594,880.400000004,102.718
1498415596,849.200000004,111.082
1498415598,822.800000004,104.27
1498415600,849.200000004,108.777
1498415602,842.000000004,109.278
1498415604,854.000000004,107.514
1498415606,837.200000004,113.076
1498415608,839.600000004,107.952
1498415610,827.600000004,120.417
1498415612,827.600000004,118.979
1498415614,827.600000004,113.803
1498415616,827.600000004,112.836
1498415620,842.000000004,111.628
1498415622,839.600000004,112.33
1498415624,803.600000004,116.098
1498415626,796.400000004,115.051
1498415628,760.400000004,117.278
1498415630,729.200000004,116.214
1498415632,760.400000004,115.666
1498415634,784.400000004,118.632
1498415636,741.200000004,122.939
1498415638,702.800000004,118.409
1498415640,760.400000004,119.268
1498415642,794.000000004,112.53
1498415644,796.400000004,114.611
1498415646,803.600000004,108.521
1498415648,782.000000004,106.909
1498415650,794.000000004,115.56
1498415652,762.800000004,117.784
1498415654,849.200000004,113.606
1498415656,794.000000004,119.598
1498415658,796.400000004,114.314
1498415660,842.000000004,110.026
1498415662,806.000000004,106.249
1498415664,856.400000004,105.265
1498415666,825.200000004,107.664
1498415668,839.600000004,110.83
1498415670,791.600000004,116.82
1498415672,813.200000004,118.153
1498415674,822.800000004,109.989
1498415676,832.400000004,114.338
1498415678,803.600000004,113.539
1498415680,801.200000004,107.867
1498415682,806.000000004,115.527
1498415684,798.800000004,107.647
1498415686,746.000000004,115.857
1498415688,820.400000004,117.62
1498415690,760.400000004,111.831
1498415692,849.200000004,115.587
1498415694,803.600000004,110.746
1498415696,760.400000004,118.174
1498415698,782.000000004,124.938
1498415700,765.200000004,123.129
1498415702,707.600000004,126.33
1498415704,726.800000004,118.043
1498415706,794.000000004,111.046
1498415708,794.000000004,117.564
1498415710,746.000000004,111.111
1498415712,712.400000004,111.424
1498415714,777.200000004,116.121
1498415716,815.600000004,112.284
1498415718,746.000000004,116.768
1498415720,779.600000004,108.327
1498415722,741.200000004,109.252
1498415724,707.600000004,109.179
1498415726,760.400000004,102.208
1498415728,705.200000004,108.279
1498415730,712.400000004,114.857
1498415732,686.000000004,106.074
1498415734,698.000000004,123.917
1498415736,738.800000004,117.985
1498415738,678.800000004,111.231
1498415740,702.800000004,114.516
1498415742,671.600000004,108.885
1498415744,700.400000004,105.661
1498415746,695.600000004,118.94
1498415748,695.600000004,113.319
1498415750,753.200000004,110.402
1498415752,700.400000004,111.194
1498415754,657.200000004,110.491
1498415756,616.400000004,112.342
1498415758,695.600000004,104.76
1498415760,678.800000004,113.404
1498415762,669.200000004,110.113
1498415764,669.200000004,109.7
1498415766,707.600000004,108.352
1498415768,664.400000004,107.276
1498415770,676.400000004,103.181
1498415772,736.400000004,110.644
1498415774,686.000000004,104.985
1498415776,676.400000004,104.623
1498415778,705.200000004,107.213
1498415780,748.400000004,107.44
1498415782,702.800000004,103.814
1498415784,702.800000004,104.146
1498415786,770.000000004,107.586
1498415788,741.200000004,109.337
1498415790,717.200000004,113.779
1498415792,705.200000004,110.746
1498415794,770.000000004,112.307
1498415796,710.000000004,111.14
1498415798,702.800000004,108.085
1498415800,710.000000004,117.606
1498415802,707.600000004,110.279
1498415804,686.000000004,112.763
1498415806,676.400000004,109.567
1498415808,705.200000004,115.411
1498415810,693.200000004,113.899
1498415812,705.200000004,111.214
1498415814,707.600000004,110.962
1498415816,738.800000004,116.504
1498415818,743.600000004,112.544
1498415820,746.000000004,107.438
1498415822,801.200000004,113.227
1498415824,786.800000004,114.676
1498415826,726.800000004,118.587
1498415828,755.600000004,113.525
1498415830,734.000000004,111.582
1498415832,774.800000004,116.077
1498415834,758.000000004,114.168
1498415836,803.600000004,106.914
1498415838,734.000000004,107.501
1498415840,695.600000004,110.917
1498415842,760.400000004,109.282
1498415844,753.200000004,116.315
1498415846,712.400000004,108.265
1498415848,736.400000004,109.697
1498415850,724.400000004,104.738
1498415852,777.200000004,108.018
1498415854,719.600000004,105.952
1498415856,714.800000004,109.628
1498415858,765.200000004,116.335
1498415860,705.200000004,114.978
1498415862,690.800000004,118.645
1498415864,777.200000004,117.302
1498415866,762.800000004,112.958
1498415868,767.600000004,115.869
1498415870,700.400000004,118.38
1498415872,676.400000004,119.033
1498415874,707.600000004,107.28
1498415876,676.400000004,112.309
1498415878,693.200000004,110.917
1498415880,686.000000004,116.835
1498415882,700.400000004,115.866
1498415884,707.600000004,114.657
1498415886,698.000000004,119.067
1498415888,762.800000004,112.921
1498415890,690.800000004,115.537
1498415892,707.600000004,116.077
1498415894,702.800000004,106.433
1498415896,702.800000004,118.181
1498415898,657.200000004,120.807
1498415900,731.600000004,114.709
1498415902,695.600000004,122.804
1498415904,690.800000004,119.138
1498415906,671.600000004,120.734
1498415908,702.800000004,107.648
1498415910,736.400000004,116.336
1498415912,722.000000004,115.683
1498415914,738.800000004,108.867
1498415916,729.200000004,110.839
1498415918,719.600000004,118.394
1498415920,695.600000004,116.613
1498415922,722.000000004,118.776
1498415924,722.000000004,116.39
1498415926,712.400000004,126.96
1498415928,693.200000004,121.692
1498415930,695.600000004,118.887
1498415932,705.200000004,121.152
1498415934,714.800000004,111.6
1498415936,705.200000004,112.205
1498415938,755.600000004,112.846
1498415940,770.000000004,110.293
1498415942,734.000000004,108.63
1498415944,705.200000004,105.146
1498415946,808.400000004,113.627
1498415948,791.600000004,112.551
1498415950,784.400000004,120.094
1498415952,746.000000004,114.674
1498415954,830.000000004,108.635
1498415956,822.800000004,106.235
1498415958,815.600000004,107.716
1498415960,837.200000004,111.389
1498415962,830.000000004,106.737
1498415964,815.600000004,105.927
1498415966,806.000000004,106.438
1498415968,791.600000004,107.408
1498415970,794.000000004,109.051
1498415972,782.000000004,109.045
1498415974,825.200000004,115.959
1498415976,803.600000004,113.2
1498415978,808.400000004,110.608
1498415980,738.800000004,114.491
1498415982,779.600000004,107.885
1498415984,822.800000004,117.719
1498415986,748.400000004,114.359
1498415988,806.000000004,113.632
1498415990,832.400000004,111.017
1498415992,820.400000004,112.64
1498415994,854.000000004,107.334
1498415996,822.800000004,114.628
1498415998,789.200000004,108.948
1498416000,813.200000004,102.394
1498416002,767.600000004,100.622
1498416004,798.800000004,102.614
1498416006,770.000000004,106.067
1498416008,762.800000004,106.802
1498416010,758.000000004,104.632
1498416012,803.600000004,99.0866
1498416014,762.800000004,105.952
1498416016,770.000000004,104.305
1498416018,786.800000004,116.971
1498416020,820.400000004,105.844
1498416022,820.400000004,101.139
1498416024,837.200000004,112.859
1498416026,798.800000004,110.878
1498416028,765.200000004,104.042
1498416030,731.600000004,105.874
1498416032,777.200000004,110.209
1498416034,806.000000004,112.096
1498416036,738.800000004,109.234
1498416038,772.400000004,110.254
1498416040,743.600000004,112.963
1498416042,782.000000004,115.208
1498416044,774.800000004,110.758
1498416046,786.800000004,111.001
1498416048,774.800000004,117.639
1498416050,806.000000004,106.595
1498416052,779.600000004,110.984
1498416054,834.800000004,109.515
1498416056,806.000000004,103.571
1498416058,760.400000004,109.631
1498416060,825.200000004,110.221
1498416062,825.200000004,116.611
1498416064,842.000000004,112.113
1498416066,854.000000004,113.618
1498416068,897.200000004,113.401
1498416070,856.400000004,113.514
1498416072,863.600000004,111.995
1498416074,904.400000004,115.092
1498416076,890.000000004,117.007
1498416078,863.600000004,106.11
1498416080,866.000000004,116.608
1498416082,866.000000004,112.343
1498416084,909.200000004,105.506
1498416086,854.000000004,102.491
1498416088,858.800000004,114.124
1498416090,863.600000004,120.655
1498416092,834.800000004,102.441
1498416094,786.800000004,107.976
1498416096,755.600000004,108.113
1498416098,820.400000004,111.13
1498416100,762.800000004,112.846
1498416102,818.000000004,112.834
1498416104,810.800000004,112.392
1498416106,815.600000004,106.289
1498416108,842.000000004,109.717
1498416110,866.000000004,108.549
1498416112,861.200000004,106.434
1498416114,832.400000004,105.46
1498416116,863.600000004,107.478
1498416118,854.000000004,99.6036
1498416120,902.000000004,100.724
1498416122,866.000000004,109.483
1498416124,851.600000004,97.6667
1498416126,842.000000004,104.327
1498416128,899.600000004,101.657
1498416130,892.400000004,103.051
1498416132,858.800000004,114.117
1498416134,861.200000004,108.802
1498416136,894.800000004,113.546
1498416138,868.400000004,107.194
1498416140,911.600000004,111.076
1498416142,870.800000004,98.199
1498416144,894.800000004,103.062
1498416146,849.200000004,102.339
1498416148,878.000000004,102.438
1498416150,846.800000004,102.118
1498416152,844.400000004,97.5365
1498416154,892.400000004,103.937
1498416156,851.600000004,95.5543
1498416158,870.800000004,101.498
1498416160,849.200000004,102.152
1498416162,914.000000004,101.422
1498416164,856.400000004,91.4132
1498416166,856.400000004,100.893
1498416168,914.000000004,103.297
1498416170,882.800000004,96.0035
1498416172,875.600000004,97.6276
1498416174,902.000000004,95.5047
1498416176,902.000000004,96.9371
1498416178,906.800000004,97.445
1498416180,930.800000004,104.747
1498416182,861.200000004,100.73
1498416184,856.400000004,104.167
1498416186,825.200000004,102.321
1498416188,902.000000004,106.988
1498416190,851.600000004,108.323
1498416192,904.400000004,100.485
1498416194,890.000000004,106.255
1498416196,885.200000004,108.257
1498416198,842.000000004,100.232
1498416200,849.200000004,104.89
1498416202,830.000000004,99.9459
1498416204,870.800000004,105.921
1498416206,887.600000004,102.202
1498416208,839.600000004,102.779
1498416210,844.400000004,94.273
1498416212,851.600000004,98.5474
1498416214,830.000000004,100.339
1498416216,815.600000004,105.793
1498416218,832.400000004,104.808
1498416220,858.800000004,116.155
1498416222,878.000000004,109.988
1498416224,825.200000004,102.144
1498416226,849.200000004,101.429
1498416228,834.800000004,104.55
1498416230,825.200000004,104.207
1498416232,842.000000004,105.386
1498416234,832.400000004,105.511
1498416236,863.600000004,107.836
1498416238,822.800000004,111.286
1498416240,820.400000004,110.928
1498416242,849.200000004,109.22
1498416244,854.000000004,107.571
1498416246,854.000000004,110.554
1498416248,822.800000004,104.412
1498416250,861.200000004,109.63
1498416252,837.200000004,106.519
1498416254,813.200000004,111.937
1498416256,830.000000004,114.415
1498416258,851.600000004,109.543
1498416260,846.800000004,106.557
1498416262,875.600000004,108.03
1498416264,834.800000004,110.715
1498416266,844.400000004,105.69
1498416268,822.800000004,107.062
1498416270,842.000000004,113.737
1498416272,873.200000004,104.709
1498416274,846.800000004,104.798
1498416276,837.200000004,113.199
1498416278,834.800000004,106.472
1498416280,834.800000004,107.846
1498416282,770.000000004,114.327
1498416284,825.200000004,112.039
1498416286,779.600000004,111.318
1498416288,834.800000004,113.331
1498416290,746.000000004,114.243
1498416292,791.600000004,113.328
1498416294,750.800000004,110.89
1498416296,710.000000004,111.636
1498416298,767.600000004,115.023
1498416300,777.200000004,112.762
1498416302,779.600000004,118.443
1498416304,722.000000004,114.037
1498416306,758.000000004,109.135
1498416308,803.600000004,108.367
1498416310,705.200000004,117.413
1498416312,786.800000004,115.515
1498416314,762.800000004,114.329
1498416316,724.400000004,117.741
1498416318,726.800000004,114.026
1498416320,712.400000004,107.203
1498416322,753.200000004,109.059
1498416324,765.200000004,105.638
1498416326,830.000000004,113.96
1498416328,762.800000004,108.829
1498416330,746.000000004,108.122
1498416332,822.800000004,111.008
1498416334,724.400000004,103.463
1498416336,806.000000004,102.667
1498416338,738.800000004,103.479
1498416340,774.800000004,108.266
1498416342,779.600000004,104.651
1498416344,789.200000004,109.213
1498416346,722.000000004,106.399
1498416348,719.600000004,114.957
1498416350,770.000000004,109.42
1498416352,779.600000004,106.003
1498416354,738.800000004,105.146
1498416356,686.000000004,106.547
1498416358,736.400000004,111.604
1498416360,748.400000004,114.335
1498416362,786.800000004,113.393
1498416364,760.400000004,109.8
1498416366,765.200000004,107.047
1498416368,750.800000004,107.88
1498416370,731.600000004,112.048
1498416372,770.000000004,107.148
1498416374,767.600000004,108.33
1498416376,738.800000004,114.899
1498416378,738.800000004,111.812
1498416380,731.600000004,107.151
1498416382,719.600000004,111.126
1498416384,700.400000004,111.222
1498416386,734.000000004,108.549
1498416388,724.400000004,100.952
1498416390,786.800000004,105.22
1498416392,707.600000004,113.7
1498416394,738.800000004,113.216
1498416396,767.600000004,107.832
1498416398,734.000000004,110.06
1498416400,786.800000004,107.66
1498416402,726.800000004,112.862
1498416404,794.000000004,107.759
1498416406,729.200000004,113.018
1498416408,746.000000004,109.504
1498416410,746.000000004,109.87
1498416412,750.800000004,107.158
1498416414,705.200000004,112.77
1498416416,710.000000004,115.836
1498416418,789.200000004,111.641
1498416420,734.000000004,109.656
1498416422,700.400000004,111.195
1498416424,772.400000004,106.757
1498416426,758.000000004,99.2916
1498416428,717.200000004,108.043
1498416430,702.800000004,113.044
1498416432,758.000000004,107.562
1498416434,746.000000004,111.878
1498416436,724.400000004,111.981
1498416438,719.600000004,109.868
1498416440,746.000000004,110.37
1498416442,729.200000004,114.113
1498416444,767.600000004,115.907
1498416446,750.800000004,113.383
1498416448,782.000000004,111.247
1498416450,758.000000004,117.729
1498416452,748.400000004,110.579
1498416454,765.200000004,113.309
1498416456,707.600000004,114.74
1498416458,734.000000004,105.794
1498416460,705.200000004,106.988
1498416462,710.000000004,111.005
1498416464,695.600000004,108.17
1498416466,729.200000004,105.048
1498416468,710.000000004,100.743
1498416470,695.600000004,101.585
1498416472,662.000000004,103.408
1498416474,765.200000004,100.153
1498416476,681.200000004,105.151
1498416478,743.600000004,105.641
1498416480,736.400000004,105.158
1498416482,774.800000004,109.653
1498416484,722.000000004,112.864
1498416486,734.000000004,107.426
1498416488,822.800000004,102.455
1498416490,731.600000004,110.247
1498416492,705.200000004,114.387
1498416494,789.200000004,109.319
1498416496,798.800000004,111.105
1498416498,707.600000004,112.138
1498416500,767.600000004,109.913
1498416502,786.800000004,113.045
1498416504,765.200000004,113.517
1498416506,741.200000004,111.008
1498416508,774.800000004,106.891
1498416510,782.000000004,109.858
1498416512,748.400000004,116.249
1498416514,693.200000004,118.302
1498416516,702.800000004,124.525
1498416518,741.200000004,112.297
1498416520,700.400000004,113.438
1498416522,765.200000004,112.383
1498416524,702.800000004,113.335
1498416526,688.400000004,108.199
1498416528,748.400000004,112.785
1498416530,762.800000004,109.671
1498416532,758.000000004,109.544
1498416534,729.200000004,106.932
1498416536,736.400000004,108.944
1498416538,784.400000004,107.693
1498416540,794.000000004,108.187
1498416542,750.800000004,108.71
1498416544,741.200000004,114.936
1498416546,806.000000004,111.48
1498416548,743.600000004,112.253
1498416550,774.800000004,108.993
1498416552,762.800000004,119.338
1498416554,767.600000004,113.867
1498416556,755.600000004,116.062
1498416558,782.000000004,111.731
1498416560,791.600000004,114.321
1498416562,767.600000004,111.598
1498416564,794.000000004,114.724
1498416566,839.600000004,110.438
1498416568,873.200000004,107.602
1498416570,854.000000004,118.553
1498416572,885.200000004,105.007
1498416574,938.000000004,106.333
1498416576,911.600000004,107.265
1498416578,885.200000004,110.536
1498416580,902.000000004,101.527
1498416582,921.200000004,103.575
1498416584,880.400000004,114.992
1498416586,863.600000004,107.02
1498416588,832.400000004,109.061
1498416590,861.200000004,112.814
1498416592,777.200000004,118.622
1498416594,863.600000004,110.44
1498416596,863.600000004,111.488
1498416598,834.800000004,116.472
1498416600,813.200000004,112.731
1498416602,810.800000004,104.841
1498416604,786.800000004,103.789
1498416606,820.400000004,118.139
1498416608,837.200000004,112.756
1498416610,844.400000004,101.664
1498416612,789.200000004,108.844
1498416614,786.800000004,109.706
1498416616,818.000000004,97.7418
1498416618,830.000000004,101.575
1498416620,796.400000004,115.054
1498416622,820.400000004,112.026
1498416624,815.600000004,106.867
1498416626,791.600000004,105.206
1498416628,834.800000004,107.961
1498416630,832.400000004,99.3688
1498416632,837.200000004,106.178
1498416634,806.000000004,113.37
1498416636,798.800000004,109.599
1498416638,830.000000004,111.663
1498416640,858.800000004,106.978
1498416642,863.600000004,108.109
1498416644,892.400000004,108.352
1498416646,854.000000004,111.879
1498416648,856.400000004,110.263
1498416650,870.800000004,111.545
1498416652,849.200000004,111.585
1498416654,842.000000004,114.079
1498416656,820.400000004,116.241
1498416658,882.800000004,103.282
1498416660,810.800000004,108.458
1498416662,873.200000004,110.319
1498416664,830.000000004,109.755
1498416666,854.000000004,115.388
1498416668,851.600000004,110.396
1498416670,801.200000004,103.778
1498416672,904.400000004,106.282
1498416674,813.200000004,112.274
1498416676,844.400000004,109.171
1498416678,849.200000004,110.428
1498416680,856.400000004,110.927
1498416682,834.800000004,116.508
1498416684,808.400000004,113.011
1498416686,832.400000004,102.808
1498416688,830.000000004,111.502
1498416690,842.000000004,103.906
1498416692,803.600000004,108.399
1498416694,834.800000004,112.541
1498416696,854.000000004,110.992
1498416698,832.400000004,114.34
1498416700,842.000000004,120.48
1498416702,798.800000004,106.666
1498416704,801.200000004,100.298
1498416706,830.000000004,113.801
1498416708,830.000000004,112.344
1498416710,818.000000004,108.641
1498416712,803.600000004,105.582
1498416714,842.000000004,110.185
1498416716,827.600000004,111.766
1498416718,806.000000004,116.96
1498416720,801.200000004,115.34
1498416722,796.400000004,116.767
1498416724,834.800000004,110.874
1498416726,818.000000004,116.348
1498416728,820.400000004,106.25
1498416730,827.600000004,118.609
1498416732,861.200000004,105.731
1498416734,827.600000004,119.87
1498416736,806.000000004,111.217
1498416738,866.000000004,116.045
1498416740,758.000000004,114.373
1498416742,782.000000004,107.418
1498416744,839.600000004,103.419
1498416746,741.200000004,114.329
1498416748,806.000000004,110.411
1498416750,846.800000004,123.041
1498416752,794.000000004,121.828
1498416754,794.000000004,120.961
1498416756,796.400000004,117.051
1498416758,834.800000004,111.487
1498416760,820.400000004,117.017
1498416762,806.000000004,115.963
1498416764,791.600000004,108.638
1498416766,746.000000004,116.561
1498416768,837.200000004,111.586
1498416770,724.400000004,107.588
1498416772,755.600000004,107.179
1498416774,791.600000004,110.91
1498416776,762.800000004,113.499
1498416778,810.800000004,108.736
1498416780,810.800000004,107.18
1498416782,760.400000004,109.368
1498416784,782.000000004,102.926
1498416786,765.200000004,100.827
1498416788,753.200000004,109.339
1498416790,753.200000004,108.694
1498416792,755.600000004,109.416
1498416794,798.800000004,116.632
1498416796,813.200000004,115.077
1498416798,755.600000004,115.515
1498416800,774.800000004,114.407
1498416802,844.400000004,112.322
1498416804,803.600000004,107.376
1498416806,822.800000004,105.576
1498416808,856.400000004,106.252
1498416810,846.800000004,105.061
1498416812,822.800000004,109.98
1498416814,856.400000004,109.887
1498416816,844.400000004,110.633
1498416818,825.200000004,114.404
1498416820,810.800000004,104.862
1498416822,813.200000004,115.276
1498416824,854.000000004,103.661
1498416826,791.600000004,112.113
1498416828,806.000000004,104.081
1498416830,808.400000004,106.169
1498416832,798.800000004,111.003
1498416834,762.800000004,110.492
1498416836,798.800000004,105.861
1498416838,767.600000004,102.986
1498416840,796.400000004,113.685
1498416842,827.600000004,109.325
1498416844,832.400000004,109.74
1498416846,748.400000004,110.307
1498416848,782.000000004,108.995
1498416850,791.600000004,107.261
1498416852,815.600000004,108.605
1498416854,748.400000004,112.293
1498416856,786.800000004,105.346
1498416858,832.400000004,109.943
1498416860,794.000000004,112.415
1498416862,801.200000004,109.522
1498416864,854.000000004,110.526
1498416866,863.600000004,112.538
1498416868,849.200000004,106.795
1498416870,842.000000004,108.543
1498416872,904.400000004,106.899
1498416874,858.800000004,110.661
1498416876,887.600000004,108.216
1498416878,914.000000004,110.119
1498416880,974.000000004,116.044
1498416882,962.000000004,108.119
1498416884,928.400000004,109.197
1498416886,892.400000004,108.43
1498416888,858.800000004,115.874
1498416890,830.000000004,111.903
1498416892,858.800000004,110.755
1498416894,854.000000004,106.022
1498416896,798.800000004,105.842
1498416898,849.200000004,110.782
1498416900,832.400000004,114.425
1498416902,798.800000004,122.134
1498416904,830.000000004,111.353
1498416906,834.800000004,109.586
1498416908,849.200000004,124.348
1498416910,825.200000004,122.58
1498416912,844.400000004,114.938
1498416914,868.400000004,110.642
1498416916,834.800000004,115.039
1498416918,834.800000004,121.832
1498416920,818.000000004,113.779
1498416922,822.800000004,123.468
1498416924,806.000000004,121.11
1498416926,806.000000004,120.641
1498416928,794.000000004,121.584
1498416930,731.600000004,121.324
1498416932,722.000000004,119.041
1498416934,818.000000004,119.734
1498416936,777.200000004,122.684
1498416938,774.800000004,126.325
1498416940,803.600000004,121.466
1498416942,743.600000004,121.609
1498416944,762.800000004,120.744
1498416946,772.400000004,118.126
1498416948,760.400000004,110.797
1498416950,818.000000004,119.082
1498416952,710.000000004,112.957
1498416954,798.800000004,113.774
1498416956,878.000000004,98.4839
1498416958,887.600000004,114.506
1498416960,868.400000004,107.464
1498416962,911.600000004,110.168
1498416964,834.800000004,114.897
1498416966,849.200000004,122.8
1498416968,832.400000004,117.484
1498416970,822.800000004,117.186
1498416972,796.400000004,120.154
1498416974,858.800000004,114.76
1498416976,820.400000004,120.929
1498416978,813.200000004,108.911
1498416980,765.200000004,117.59
1498416982,818.000000004,113.723
1498416984,779.600000004,112.971
1498416986,791.600000004,103.854
1498416988,818.000000004,102.563
1498416990,796.400000004,112.776
1498416992,770.000000004,107.547
1498416994,794.000000004,116.986
1498416996,839.600000004,114.439
1498416998,801.200000004,105.899
1498417000,808.400000004,107.887
1498417002,851.600000004,117.426
1498417004,806.000000004,120.984
1498417006,827.600000004,118.673
1498417008,839.600000004,107.616
1498417010,825.200000004,99.0017
1498417012,796.400000004,98.4986
1498417014,832.400000004,101.335
1498417016,839.600000004,108.087
1498417018,798.800000004,109.165
1498417020,849.200000004,104.086
1498417022,846.800000004,105.691
1498417024,820.400000004,109.533
1498417026,846.800000004,106.11
1498417028,868.400000004,111.303
1498417030,873.200000004,114.827
1498417032,863.600000004,112.348
1498417034,839.600000004,117.428
1498417036,844.400000004,113.402
1498417038,880.400000004,109.664
1498417040,830.000000004,109.259
1498417042,904.400000004,104.807
1498417044,856.400000004,115.981
1498417046,820.400000004,116.685
1498417048,832.400000004,107.019
1498417050,846.800000004,113.073
1498417052,830.000000004,116.48
1498417054,844.400000004,118.125
1498417056,846.800000004,110.511
1498417058,837.200000004,111.259
1498417060,794.000000004,111.372
1498417062,834.800000004,111.604
1498417064,839.600000004,115.223
1498417066,854.000000004,115.169
1498417068,875.600000004,122.423
1498417070,892.400000004,113.325
1498417072,832.400000004,110.524
1498417074,822.800000004,113.164
1498417076,796.400000004,110.739
1498417078,830.000000004,108.108
1498417080,832.400000004,119.139
1498417082,782.000000004,112.849
1498417084,894.800000004,108.095
1498417086,863.600000004,106.582
1498417088,834.800000004,113.934
1498417090,849.200000004,112.424
1498417092,851.600000004,113.816
1498417094,846.800000004,105.109
1498417096,856.400000004,113.196
1498417098,878.000000004,100.165
1498417100,810.800000004,105.635
1498417102,863.600000004,103.626
1498417104,870.800000004,105.574
1498417106,815.600000004,110.753
1498417108,858.800000004,110.695
1498417110,810.800000004,107.87
1498417112,842.000000004,109.39
1498417114,786.800000004,111.579
1498417116,791.600000004,115.079
1498417118,851.600000004,120.894
1498417120,794.000000004,108.857
1498417122,750.800000004,107.703
1498417124,830.000000004,112.191
1498417126,820.400000004,125.981
1498417128,818.000000004,112.133
1498417130,784.400000004,116.584
1498417132,794.000000004,112.317
1498417134,782.000000004,106.685
1498417136,825.200000004,113.235
1498417138,822.800000004,117.342
1498417140,794.000000004,115.342
1498417142,801.200000004,113.504
1498417144,839.600000004,109.746
1498417146,815.600000004,104.044
1498417148,825.200000004,112.282
1498417150,765.200000004,114.754
1498417152,762.800000004,110.744
1498417154,856.400000004,106.419
1498417156,846.800000004,102.256
1498417158,851.600000004,106.286
1498417160,832.400000004,105.242
1498417162,834.800000004,110.273
1498417164,777.200000004,112.573
1498417166,854.000000004,120.835
1498417168,798.800000004,114.669
1498417170,813.200000004,109.237
1498417172,803.600000004,103.383
1498417174,779.600000004,106.88
1498417176,832.400000004,114.61
1498417178,801.200000004,109.82
1498417180,830.000000004,114.427
1498417182,837.200000004,110.361
1498417184,820.400000004,113.731
1498417186,837.200000004,110.782
1498417188,849.200000004,117.193
1498417190,870.800000004,117.953
1498417192,861.200000004,116.96
1498417194,875.600000004,120.515
1498417196,890.000000004,125.522
1498417198,834.800000004,116.468
1498417200,866.000000004,121.093
1498417202,902.000000004,115.354
1498417204,842.000000004,110.962
1498417206,882.800000004,106.924
1498417208,878.000000004,121.61
1498417210,899.600000004,118.362
1498417212,844.400000004,109.466
1498417214,880.400000004,110.033
1498417216,894.800000004,116.357
1498417218,861.200000004,110.331
1498417220,851.600000004,107.039
1498417222,854.000000004,116.652
1498417224,916.400000004,103.805
1498417226,894.800000004,104.182
1498417228,870.800000004,107.587
1498417230,899.600000004,110.514
1498417232,830.000000004,114.783
1498417234,844.400000004,120.234
1498417236,866.000000004,118.608
1498417238,849.200000004,121.551
1498417240,832.400000004,116.006
1498417242,844.400000004,110.482
1498417244,856.400000004,115.733
1498417246,837.200000004,113.369
1498417248,830.000000004,115.446
1498417250,791.600000004,111.762
1498417252,729.200000004,111.755
1498417254,813.200000004,108.586
1498417256,758.000000004,108.322
1498417258,758.000000004,111.253
1498417260,789.200000004,102.653
1498417262,798.800000004,111.865
1498417264,770.000000004,106.42
1498417266,729.200000004,107.694
1498417268,806.000000004,118.906
1498417270,820.400000004,114.584
1498417272,755.600000004,118.363
1498417274,726.800000004,114.13
1498417276,762.800000004,113.196
1498417278,755.600000004,111.571
1498417280,731.600000004,110.011
1498417282,746.000000004,115.916
1498417284,755.600000004,116.166
1498417286,755.600000004,123.556
1498417288,743.600000004,125.88
1498417290,801.200000004,128.489
1498417292,738.800000004,116.409
1498417294,719.600000004,117.84
1498417296,738.800000004,117.477
1498417298,746.000000004,117.361
1498417300,719.600000004,111.711
1498417302,724.400000004,123.932
1498417304,719.600000004,121.687
1498417306,707.600000004,121.213
1498417308,712.400000004,112.084
1498417310,755.600000004,122.29
1498417312,779.600000004,120.09
1498417314,693.200000004,122.457
1498417316,712.400000004,123.664
1498417318,796.400000004,122.738
1498417320,717.200000004,121.15
1498417322,726.800000004,115.341
1498417324,712.400000004,131.262
1498417326,741.200000004,117.333
1498417328,731.600000004,117.009
1498417330,748.400000004,109.826
1498417332,798.800000004,118.578
1498417334,731.600000004,122.403
1498417336,774.800000004,130.273
1498417338,765.200000004,111.523
1498417340,774.800000004,120.992
1498417342,714.800000004,110.618
1498417344,758.000000004,118.093
1498417346,794.000000004,111.317
1498417348,755.600000004,114.196
1498417350,726.800000004,116.644
1498417352,772.400000004,112.968
1498417354,724.400000004,117.753
1498417356,714.800000004,118.961
1498417358,693.200000004,119.057
1498417360,753.200000004,114.892
1498417362,710.000000004,103.743
1498417364,714.800000004,103.629
1498417366,734.000000004,111.392
1498417368,722.000000004,107.775
1498417370,770.000000004,108.944
1498417372,707.600000004,113.179
1498417374,731.600000004,116.934
1498417376,724.400000004,106.273
1498417378,726.800000004,108.747
1498417380,777.200000004,111.361
1498417382,719.600000004,114.705
1498417384,758.000000004,114.173
1498417386,722.000000004,103.956
1498417388,731.600000004,109.934
1498417390,717.200000004,108.526
1498417392,789.200000004,115.59
1498417394,784.400000004,111.281
1498417396,750.800000004,116.602
1498417398,743.600000004,112.495
1498417400,734.000000004,115.892
1498417402,724.400000004,116.603
1498417404,770.000000004,110.783
1498417406,717.200000004,118.411
1498417408,729.200000004,113.394
1498417410,719.600000004,115.047
1498417412,722.000000004,113.666
1498417414,753.200000004,112.295
1498417416,719.600000004,109.381
1498417418,700.400000004,113.939
1498417420,750.800000004,119.159
1498417422,825.200000004,108.402
1498417424,707.600000004,115.979
1498417426,734.000000004,117.834
1498417428,758.000000004,121.952
1498417430,734.000000004,118.639
1498417432,765.200000004,126.62
1498417434,772.400000004,123.955
1498417436,717.200000004,119.224
1498417438,714.800000004,109.06
1498417440,743.600000004,110.123
1498417442,784.400000004,107.278
1498417444,734.000000004,106.078
1498417446,755.600000004,103.681
1498417448,784.400000004,108.505
1498417450,770.000000004,117.186
1498417452,750.800000004,115.459
1498417454,762.800000004,110.606
1498417456,772.400000004,112.679
1498417458,746.000000004,111.05
1498417460,825.200000004,104.86
1498417462,818.000000004,111.388
1498417464,762.800000004,111.559
1498417466,806.000000004,114.13
1498417470,767.600000004,112.316
1498417472,726.800000004,114.078
1498417474,765.200000004,108.962
1498417476,770.000000004,109.563
1498417478,777.200000004,111.318
1498417480,714.800000004,115.068
1498417482,774.800000004,118.153
1498417484,758.000000004,110.503
1498417486,762.800000004,106.988
1498417488,731.600000004,110.978
1498417490,760.400000004,104.743
1498417492,755.600000004,105.157
1498417494,743.600000004,104.292
1498417496,767.600000004,108.92
1498417498,791.600000004,111.542
1498417500,731.600000004,108.669
1498417502,786.800000004,109.738
1498417504,801.200000004,103.05
1498417506,762.800000004,116.222
1498417508,734.000000004,99.936
1498417510,784.400000004,100.082
1498417512,765.200000004,99.282
1498417514,779.600000004,107.571
1498417516,777.200000004,102.131
1498417518,839.600000004,109.774
1498417520,710.000000004,113.007
1498417522,741.200000004,114.248
1498417524,765.200000004,116.18
1498417526,774.800000004,103.669
1498417528,772.400000004,108.059
1498417530,758.000000004,117.957
1498417532,738.800000004,109.829
1498417534,695.600000004,115.718
1498417536,755.600000004,106.539
1498417538,760.400000004,111.137
1498417540,700.400000004,107.235
1498417542,736.400000004,112.04
1498417544,681.200000004,111.508
1498417546,662.000000004,104.752
1498417548,700.400000004,110.374
1498417550,678.800000004,111.131
1498417552,702.800000004,114.629
1498417554,700.400000004,108.782
1498417556,702.800000004,114.967
1498417558,714.800000004,116.512
1498417560,695.600000004,109.852
1498417562,693.200000004,114.396
1498417564,714.800000004,122.028
1498417566,702.800000004,117.034
1498417568,645.200000004,109.038
1498417570,719.600000004,108.465
1498417572,683.600000004,107.925
1498417574,741.200000004,103.649
1498417576,707.600000004,110.363
1498417578,674.000000004,124.689
1498417580,678.800000004,110.547
1498417582,676.400000004,108.802
1498417584,671.600000004,114.77
1498417586,707.600000004,106.16
1498417588,693.200000004,111.122
1498417590,695.600000004,110.742
1498417592,705.200000004,99.402
1498417594,702.800000004,109.331
1498417596,710.000000004,99.1037
1498417598,722.000000004,100.85
1498417600,738.800000004,96.418
1498417602,693.200000004,100.012
1498417604,714.800000004,106.32
1498417606,702.800000004,103.839
1498417608,714.800000004,103
1498417610,710.000000004,104.144
1498417612,758.000000004,119.184
1498417614,736.400000004,110.181
1498417616,688.400000004,109.712
1498417618,726.800000004,105.412
1498417620,741.200000004,108.498
1498417622,734.000000004,110.444
1498417624,724.400000004,108.502
1498417626,724.400000004,117.252
1498417628,705.200000004,116.383
1498417630,671.600000004,109.275
1498417632,686.000000004,107.236
1498417634,789.200000004,116.073
1498417636,683.600000004,103.625
1498417638,693.200000004,101.748
1498417640,669.200000004,106.041
1498417642,678.800000004,102.589
1498417644,666.800000004,109.965
1498417646,714.800000004,99.9958
1498417648,683.600000004,102.119
1498417650,714.800000004,106.489
1498417652,695.600000004,99.9383
1498417654,729.200000004,102.129
1498417656,700.400000004,100.814
1498417658,717.200000004,109.44
1498417660,700.400000004,98.6097
1498417662,738.800000004,99.5185
1498417664,690.800000004,105.562
1498417666,746.000000004,98.3912
1498417668,719.600000004,95.3337
1498417670,712.400000004,103.923
1498417672,717.200000004,107.1
1498417674,731.600000004,100.855
1498417676,674.000000004,101.599
1498417678,770.000000004,109.648
1498417680,741.200000004,106.923
1498417682,762.800000004,109.582
1498417684,717.200000004,103.3
1498417686,758.000000004,112.796
1498417688,758.000000004,106.01
1498417690,731.600000004,107.437
1498417692,729.200000004,107.043
1498417694,798.800000004,109.523
1498417696,755.600000004,106.366
1498417698,734.000000004,115.959
1498417700,750.800000004,112.318
1498417702,710.000000004,102.288
1498417704,731.600000004,105.172
1498417706,748.400000004,104.289
1498417708,710.000000004,102.4
1498417710,726.800000004,107.918
1498417712,695.600000004,105.633
1498417714,724.400000004,103.649
1498417716,717.200000004,104.208
1498417718,738.800000004,117.578
1498417720,734.000000004,114.166
1498417722,746.000000004,115.569
1498417724,731.600000004,115.726
1498417726,714.800000004,115.395
1498417728,789.200000004,126.647
1498417730,710.000000004,121.853
1498417732,714.800000004,125.823
1498417734,741.200000004,118.435
1498417736,676.400000004,115.014
1498417738,686.000000004,118.275
1498417740,698.000000004,119.06
1498417742,717.200000004,116.791
1498417744,664.400000004,105.271
1498417746,712.400000004,107.148
1498417748,710.000000004,109.55
1498417750,676.400000004,108.355
1498417752,681.200000004,112.181
1498417754,714.800000004,124.706
1498417756,731.600000004,117.487
1498417758,678.800000004,118.807
1498417760,726.800000004,117.417
1498417762,746.000000004,121.598
1498417764,707.600000004,114.049
1498417766,724.400000004,119.192
1498417768,693.200000004,112.73
1498417770,683.600000004,114.588
1498417772,681.200000004,114.421
1498417774,700.400000004,109.897
1498417776,664.400000004,116.519
1498417778,678.800000004,121.643
1498417780,717.200000004,115.442
1498417782,666.800000004,111.492
1498417784,717.200000004,111.591
1498417786,743.600000004,109.014
1498417788,710.000000004,110.996
1498417790,734.000000004,117.378
1498417792,686.000000004,116.966
1498417794,722.000000004,125.408
1498417796,688.400000004,113.421
1498417798,714.800000004,109.206
1498417800,741.200000004,106.947
1498417802,710.000000004,109.61
1498417804,671.600000004,105.624
1498417806,738.800000004,116.905
1498417808,714.800000004,108.353
1498417810,676.400000004,106.719
1498417812,726.800000004,106.585
1498417814,734.000000004,105.868
1498417816,712.400000004,110.125
1498417818,698.000000004,101.813
1498417820,710.000000004,108.856
1498417822,705.200000004,114.61
1498417824,678.800000004,117.729
1498417826,760.400000004,111.555
1498417828,700.400000004,115.495
1498417830,710.000000004,107.442
1498417832,750.800000004,102.118
1498417834,746.000000004,96.2555
1498417836,676.400000004,107.647
1498417838,717.200000004,115.488
1498417840,743.600000004,114.65
1498417842,724.400000004,115.455
1498417844,681.200000004,117.141
1498417846,794.000000004,115.891
1498417848,837.200000004,119.398
1498417850,741.200000004,114.525
1498417852,798.800000004,111.571
1498417854,830.000000004,110.106
1498417856,779.600000004,122.957
1498417858,724.400000004,121.468
1498417860,746.000000004,111.925
1498417862,755.600000004,113.545
1498417864,714.800000004,113.758
1498417866,734.000000004,122.635
1498417868,712.400000004,118.846
1498417870,734.000000004,114.735
1498417872,714.800000004,111.373
1498417874,755.600000004,117.264
1498417876,731.600000004,115.702
1498417878,712.400000004,113.426
1498417880,722.000000004,114.555
1498417882,750.800000004,107.351
1498417884,710.000000004,116.541
1498417886,750.800000004,114.808
1498417888,734.000000004,112.471
1498417890,746.000000004,108.545
1498417892,750.800000004,104.193
1498417894,738.800000004,117.114
1498417896,789.200000004,116.042
1498417898,676.400000004,105.151
1498417900,707.600000004,106.351
1498417902,702.800000004,113.674
1498417904,652.400000004,101.665
1498417906,702.800000004,102.97
1498417908,714.800000004,101.444
1498417910,760.400000004,109.292
1498417912,729.200000004,107.723
1498417914,712.400000004,111.515
1498417916,748.400000004,108.943
1498417918,705.200000004,104.136
1498417920,683.600000004,107.999
1498417922,719.600000004,114.952
1498417924,710.000000004,117.737
1498417926,693.200000004,107.979
1498417928,724.400000004,117.766
1498417930,722.000000004,114.258
1498417932,743.600000004,112.739
1498417934,724.400000004,108.779
1498417936,731.600000004,98.0575
1498417938,712.400000004,114.718
1498417940,729.200000004,108.037
1498417942,772.400000004,111.164
1498417944,746.000000004,106.331
1498417946,714.800000004,107.903
1498417948,755.600000004,106.959
1498417950,755.600000004,113.72
1498417952,767.600000004,116.954
1498417954,738.800000004,115.493
1498417956,765.200000004,123.428
1498417958,707.600000004,105.9
1498417960,717.200000004,109.353
1498417962,772.400000004,103.098
1498417964,760.400000004,116.074
1498417966,760.400000004,115.229
1498417968,815.600000004,117.446
1498417970,815.600000004,110.908
1498417972,806.000000004,112.065
1498417974,777.200000004,110.325
1498417976,818.000000004,114.006
1498417978,789.200000004,106.109
1498417980,782.000000004,112.865
1498417982,779.600000004,115.455
1498417984,839.600000004,110.484
1498417986,738.800000004,113.431
1498417988,786.800000004,114.446
1498417990,786.800000004,107.021
1498417992,765.200000004,118.67
1498417994,794.000000004,114.163
1498417996,760.400000004,111.837
1498417998,801.200000004,112.659
1498418000,762.800000004,117.932
1498418002,810.800000004,113.029
1498418004,818.000000004,118.792
1498418006,796.400000004,107.661
1498418008,786.800000004,119.43
1498418010,844.400000004,107.259
1498418012,758.000000004,116.494
1498418014,762.800000004,105.926
1498418016,779.600000004,108.568
1498418018,798.800000004,110.472
1498418020,753.200000004,115.238
1498418022,791.600000004,106.541
1498418024,762.800000004,100.369
1498418026,758.000000004,104.424
1498418028,707.600000004,108.148
1498418030,777.200000004,109.894
1498418032,726.800000004,113.246
1498418034,772.400000004,106.76
1498418036,813.200000004,116.158
1498418038,808.400000004,110.564
1498418040,767.600000004,106.404
1498418042,806.000000004,109.869
1498418044,791.600000004,95.5378
1498418046,801.200000004,110.298
1498418048,760.400000004,114.367
1498418050,746.000000004,109.176
1498418052,806.000000004,111.502
1498418054,803.600000004,110.961
1498418056,818.000000004,112.282
1498418058,822.800000004,108.642
1498418060,767.600000004,110.358
1498418062,762.800000004,110.868
1498418064,767.600000004,115.837
1498418066,825.200000004,104.161
1498418068,741.200000004,111.31
1498418070,743.600000004,108.516
1498418072,818.000000004,108.921
1498418074,782.000000004,104.649
1498418076,762.800000004,96.1909
1498418078,801.200000004,107.153
1498418080,782.000000004,105.931
1498418082,777.200000004,112.998
1498418084,758.000000004,103.149
1498418086,762.800000004,103.427
1498418088,782.000000004,93.774
1498418090,801.200000004,107.115
1498418092,755.600000004,108.205
1498418094,741.200000004,111.946
1498418096,710.000000004,114.328
1498418098,786.800000004,107.35
1498418100,779.600000004,118.261
1498418102,731.600000004,112.641
1498418104,755.600000004,100.707
1498418106,722.000000004,108.446
1498418108,758.000000004,107.935
1498418110,729.200000004,103.141
1498418112,803.600000004,112.91
1498418114,724.400000004,110.068
1498418116,782.000000004,109.167
1498418118,796.400000004,111.767
1498418120,758.000000004,111.12
1498418122,794.000000004,108.708
1498418124,774.800000004,110.508
1498418126,765.200000004,105.833
1498418128,693.200000004,112.341
1498418130,758.000000004,117.734
1498418132,803.600000004,110.005
1498418134,765.200000004,113.545
1498418136,698.000000004,111.265
1498418138,724.400000004,120.316
1498418140,750.800000004,101.216
1498418142,710.000000004,102.366
1498418144,782.000000004,112.438
1498418146,748.400000004,106.536
1498418148,729.200000004,114.321
1498418150,750.800000004,118.288
1498418152,753.200000004,110.688
1498418154,700.400000004,107.961
1498418156,731.600000004,115.939
1498418158,717.200000004,111.149
1498418160,758.000000004,115.155
1498418162,726.800000004,116.807
1498418164,779.600000004,119.555
1498418166,707.600000004,115.067
1498418168,758.000000004,113.622
1498418170,748.400000004,114.192
1498418172,786.800000004,112.875
1498418174,762.800000004,116.633
1498418176,743.600000004,116.826
1498418178,743.600000004,113.72
1498418180,700.400000004,119.699
1498418182,777.200000004,114.651
1498418184,765.200000004,115.181
1498418186,714.800000004,111.755
1498418188,765.200000004,107.123
1498418190,810.800000004,108.547
1498418192,772.400000004,115.781
1498418194,753.200000004,100.977
1498418196,808.400000004,113.433
1498418198,801.200000004,113.073
1498418200,765.200000004,112.171
1498418202,784.400000004,102.702
1498418204,796.400000004,110.133
1498418206,767.600000004,109.322
1498418208,736.400000004,107.874
1498418210,794.000000004,113.822
1498418212,717.200000004,114.274
1498418214,726.800000004,112.705
1498418216,710.000000004,107.755
1498418218,762.800000004,111.496
1498418220,758.000000004,115.469
1498418222,707.600000004,113.934
1498418224,731.600000004,116.287
1498418226,726.800000004,114.593
1498418228,736.400000004,119.522
1498418230,760.400000004,115.091
1498418232,724.400000004,109.637
1498418234,719.600000004,104.592
1498418236,702.800000004,103.882
1498418238,717.200000004,114.656
1498418240,676.400000004,104.487
1498418242,722.000000004,111.203
1498418244,705.200000004,107.43
1498418246,738.800000004,101.467
1498418248,726.800000004,97.7036
1498418250,731.600000004,99.7969
1498418252,702.800000004,112.004
1498418254,705.200000004,113.18
1498418256,755.600000004,110.857
1498418258,717.200000004,99.282
1498418260,717.200000004,107.098
1498418262,707.600000004,104.264
1498418264,738.800000004,109.595
1498418266,705.200000004,104.043
1498418268,710.000000004,107.305
1498418270,801.200000004,107.878
1498418272,741.200000004,110.848
1498418274,782.000000004,115.939
1498418276,794.000000004,118.67
1498418278,722.000000004,119.612
1498418280,784.400000004,115.221
1498418282,808.400000004,110.952
1498418284,810.800000004,112.921
1498418286,796.400000004,117.952
1498418288,777.200000004,117.929
1498418290,767.600000004,110.471
1498418292,777.200000004,107.748
1498418294,813.200000004,111.86
1498418296,830.000000004,119.137
1498418298,762.800000004,117.052
1498418300,803.600000004,114.71
1498418302,760.400000004,111.922
1498418304,755.600000004,113.642
1498418306,762.800000004,113.652
1498418308,798.800000004,109.177
1498418310,810.800000004,112.228
1498418312,760.400000004,110.901
1498418314,815.600000004,108.203
1498418316,827.600000004,112.805
1498418318,738.800000004,113.686
1498418320,762.800000004,114.945
1498418322,772.400000004,125.086
1498418324,755.600000004,115.557
1498418326,717.200000004,125.178
1498418328,772.400000004,122.778
1498418330,794.000000004,123.739
1498418332,760.400000004,118.78
1498418334,791.600000004,112.159
1498418336,813.200000004,117.568
1498418338,755.600000004,113.829
1498418340,741.200000004,114.4
1498418342,729.200000004,115.787
1498418344,698.000000004,114.775
1498418346,750.800000004,112.115
1498418348,719.600000004,106.568
1498418350,707.600000004,119.1
1498418352,690.800000004,107.571
1498418354,724.400000004,109.04
1498418356,755.600000004,107.092
1498418358,710.000000004,108.471
1498418360,698.000000004,110.301
1498418362,710.000000004,117.461
1498418364,702.800000004,99.5503
1498418366,693.200000004,107.584
1498418368,702.800000004,107.219
1498418370,731.600000004,113.325
1498418372,724.400000004,109.679
1498418374,767.600000004,103.706
1498418376,746.000000004,108.608
1498418378,755.600000004,113.595
1498418380,705.200000004,116.81
1498418382,726.800000004,116.887
1498418384,710.000000004,114.452
1498418386,722.000000004,113.411
1498418388,695.600000004,117.457
1498418390,698.000000004,116.935
1498418392,693.200000004,115.1
1498418394,674.000000004,115.143
1498418396,741.200000004,120.566
1498418398,710.000000004,117.899
1498418400,714.800000004,116.462
1498418402,717.200000004,119.68
1498418404,700.400000004,121.972
1498418406,710.000000004,118.505
1498418408,731.600000004,116.104
1498418410,698.000000004,121.732
1498418412,767.600000004,120.118
1498418414,693.200000004,125.139
1498418416,693.200000004,122.819
1498418418,707.600000004,114.362
1498418420,664.400000004,122.897
1498418422,678.800000004,112.958
1498418424,702.800000004,120.294
1498418426,746.000000004,116.02
1498418428,710.000000004,115.127
1498418430,755.600000004,116.503
1498418432,746.000000004,111.927
1498418434,755.600000004,109.584
1498418436,724.400000004,121.806
1498418438,695.600000004,116.686
1498418440,690.800000004,111.496
1498418442,712.400000004,113.327
1498418444,714.800000004,112.811
1498418446,669.200000004,119.869
1498418448,700.400000004,115.195
1498418450,722.000000004,115.804
1498418452,717.200000004,119.603
1498418454,722.000000004,125.896
1498418456,738.800000004,110.364
1498418458,681.200000004,112.811
1498418460,695.600000004,116.478
1498418462,734.000000004,119.001
1498418464,678.800000004,117.72
1498418466,702.800000004,113.709
1498418468,705.200000004,118.251
1498418470,702.800000004,108.831
1498418472,743.600000004,111.089
1498418474,698.000000004,109.879
1498418476,726.800000004,110.016
1498418478,700.400000004,107.522
1498418480,719.600000004,116.281
1498418482,724.400000004,111.213
1498418484,698.000000004,122.127
1498418486,729.200000004,113.232
1498418488,731.600000004,115.292
1498418490,659.600000004,111.755
1498418492,714.800000004,109.536
1498418494,726.800000004,108.366
1498418496,710.000000004,109.77
1498418498,762.800000004,109.967
1498418500,765.200000004,106.289
1498418502,714.800000004,107.096
1498418504,678.800000004,112.423
1498418506,758.000000004,114.461
1498418508,705.200000004,111.727
1498418510,710.000000004,117.364
1498418512,786.800000004,116.826
1498418514,717.200000004,114.473
1498418516,767.600000004,113.355
1498418518,724.400000004,123.025
1498418520,779.600000004,111.155
1498418522,765.200000004,106.259
1498418524,801.200000004,110.573
1498418526,750.800000004,120.031
1498418528,702.800000004,112.846
1498418530,722.000000004,103.754
1498418532,748.400000004,105.202
1498418534,758.000000004,106.879
1498418536,746.000000004,114.083
1498418538,777.200000004,112.454
1498418540,712.400000004,115.454
1498418542,772.400000004,110.547
1498418544,796.400000004,109.163
1498418546,786.800000004,106.754
1498418548,734.000000004,111.819
1498418550,729.200000004,109.321
1498418552,743.600000004,112.422
1498418554,748.400000004,111.667
1498418556,801.200000004,110.746
1498418558,822.800000004,114.095
1498418560,726.800000004,113.33
1498418562,753.200000004,113.859
1498418564,736.400000004,120.45
1498418566,786.800000004,118.049
1498418568,748.400000004,116.224
1498418570,765.200000004,115.051
1498418572,770.000000004,113.676
1498418574,806.000000004,113.659
1498418576,794.000000004,119.448
1498418578,825.200000004,121.276
1498418580,731.600000004,112.973
1498418582,822.800000004,120.257
1498418584,786.800000004,115.097
1498418586,738.800000004,111.982
1498418588,822.800000004,112.154
1498418590,753.200000004,120.355
1498418592,695.600000004,106.253
1498418594,705.200000004,114.632
1498418596,791.600000004,110.313
1498418598,750.800000004,108.403
1498418600,741.200000004,109.605
1498418602,818.000000004,112.818
1498418604,813.200000004,113.442
1498418606,801.200000004,111.855
1498418608,765.200000004,119.827
1498418610,786.800000004,111.46
1498418612,794.000000004,111.336
1498418614,794.000000004,112.475
1498418616,765.200000004,111.472
1498418618,710.000000004,115.569
1498418620,743.600000004,121.248
1498418622,784.400000004,109.872
1498418624,738.800000004,117.041
1498418626,786.800000004,110.441
1498418628,738.800000004,110.694
1498418630,736.400000004,105.845
1498418632,777.200000004,111.515
1498418634,813.200000004,112.712
1498418636,796.400000004,103.364
1498418638,782.000000004,106.841
1498418640,765.200000004,104.418
1498418642,762.800000004,113.984
1498418644,777.200000004,115.578
1498418646,767.600000004,117.874
1498418648,806.000000004,113.531
1498418650,762.800000004,110.946
1498418652,770.000000004,121.526
1498418654,849.200000004,114.937
1498418656,834.800000004,121.822
1498418658,858.800000004,120.845
1498418660,849.200000004,112.819
1498418662,878.000000004,119.253
1498418664,899.600000004,122.701
1498418666,873.200000004,112.427
1498418668,856.400000004,119.931
1498418670,849.200000004,123.976
1498418672,914.000000004,119.214
1498418674,909.200000004,117.123
1498418676,868.400000004,116.41
1498418678,861.200000004,108.607
1498418680,856.400000004,109.686
1498418682,880.400000004,115.773
1498418684,892.400000004,115.206
1498418686,878.000000004,120.565
1498418688,861.200000004,126.883
1498418690,842.000000004,118.792
1498418692,846.800000004,121.239
1498418694,832.400000004,110.73
1498418696,856.400000004,117.646
1498418698,822.800000004,115.56
1498418700,784.400000004,121.569
1498418702,858.800000004,122.913
1498418704,803.600000004,114.389
1498418706,834.800000004,117.82
1498418708,837.200000004,118.891
1498418710,801.200000004,114.177
1498418712,731.600000004,116.446
1498418714,808.400000004,119.973
1498418716,810.800000004,118.93
1498418718,830.000000004,112.121
1498418720,825.200000004,109.131
1498418722,779.600000004,109.858
1498418724,772.400000004,118.293
1498418726,798.800000004,126.996
1498418728,777.200000004,117.93
1498418730,774.800000004,111.811
1498418732,738.800000004,118.047
1498418734,762.800000004,113.151
1498418736,791.600000004,122.884
1498418738,743.600000004,122.473
1498418740,707.600000004,109.302
1498418742,719.600000004,114.918
1498418744,765.200000004,113.823
1498418746,798.800000004,112.257
1498418748,798.800000004,119.285
1498418750,700.400000004,111.688
1498418752,789.200000004,111.407
1498418754,736.400000004,118.045
1498418756,770.000000004,112.321
1498418758,712.400000004,112.129
1498418760,731.600000004,116.433
1498418762,702.800000004,122.37
1498418764,698.000000004,115.471
1498418766,724.400000004,116.515
1498418768,705.200000004,109.501
1498418770,726.800000004,117.902
1498418772,671.600000004,124.843
1498418774,700.400000004,126.013
1498418776,731.600000004,119.144
1498418778,688.400000004,111.16
1498418780,707.600000004,115.556
1498418782,683.600000004,117.761
1498418784,738.800000004,112.409
1498418786,702.800000004,111.253
1498418788,741.200000004,116.56
1498418790,712.400000004,119.829
1498418792,734.000000004,112.814
1498418794,729.200000004,115.816
1498418796,736.400000004,119.086
1498418798,734.000000004,111.353
1498418800,654.800000004,112.245
1498418802,705.200000004,115.559
1498418804,726.800000004,108.466
1498418806,736.400000004,112.02
1498418808,741.200000004,114.219
1498418810,714.800000004,110.939
1498418812,690.800000004,118.6
1498418814,760.400000004,117.566
1498418816,743.600000004,121.346
1498418818,719.600000004,127.766
1498418820,717.200000004,124.428
1498418822,810.800000004,120.806
1498418824,731.600000004,118.176
1498418826,702.800000004,113.127
1498418828,700.400000004,109.916
1498418830,734.000000004,110.526
1498418832,731.600000004,118.313
1498418834,729.200000004,109.997
1498418836,717.200000004,103.544
1498418838,695.600000004,98.5089
1498418840,702.800000004,106.393
1498418842,738.800000004,107.353
1498418844,705.200000004,110.363
1498418846,717.200000004,112.684
1498418848,698.000000004,112.646
1498418850,686.000000004,108.931
1498418852,693.200000004,107.086
1498418854,753.200000004,110.647
1498418856,758.000000004,108.939
1498418858,710.000000004,104.58
1498418860,698.000000004,100.88
1498418862,717.200000004,101.246
1498418864,681.200000004,105.416
1498418866,698.000000004,112.559
1498418868,758.000000004,115.569
1498418870,705.200000004,108.697
1498418872,693.200000004,108.38
1498418874,734.000000004,113.8
1498418876,702.800000004,103.025
1498418878,746.000000004,108.361
1498418880,748.400000004,103.302
1498418882,726.800000004,108.55
1498418884,748.400000004,107.395
1498418886,674.000000004,102.37
1498418888,736.400000004,105.602
1498418890,724.400000004,106.178
1498418892,674.000000004,106.562
1498418894,717.200000004,107.4
1498418896,750.800000004,110.26
1498418898,736.400000004,109.341
1498418900,734.000000004,110.572
1498418902,755.600000004,107.845
1498418904,765.200000004,107.268
1498418906,719.600000004,111.309
1498418908,731.600000004,113.787
1498418910,722.000000004,109.67
1498418912,686.000000004,110.246
1498418914,789.200000004,102.247
1498418916,736.400000004,106.439
1498418918,693.200000004,102.73
1498418920,753.200000004,103.137
1498418922,755.600000004,102.673
1498418924,700.400000004,102.154
1498418926,700.400000004,113.802
1498418928,767.600000004,110.016
1498418930,717.200000004,109.693
1498418932,707.600000004,111.627
1498418934,712.400000004,104.118
1498418936,722.000000004,104.099
1498418938,726.800000004,102.939
1498418940,736.400000004,99.9542
1498418942,729.200000004,110.876
1498418944,734.000000004,105.443
1498418946,808.400000004,104.404
1498418948,810.800000004,109.266
1498418950,762.800000004,112.451
1498418952,755.600000004,111.139
1498418954,755.600000004,112.906
1498418956,714.800000004,117.072
1498418958,707.600000004,123.615
1498418960,710.000000004,109.723
1498418962,760.400000004,115.775
1498418964,743.600000004,115.18
1498418966,719.600000004,114.469
1498418968,774.800000004,111.575
1498418970,762.800000004,108.362
1498418972,789.200000004,109.791
1498418974,782.000000004,112.649
1498418976,750.800000004,117.385
1498418978,714.800000004,104.527
1498418980,738.800000004,109.943
1498418982,736.400000004,115.758
1498418984,705.200000004,114.743
1498418986,710.000000004,112.103
1498418988,746.000000004,106.617
1498418990,798.800000004,108.252
1498418992,782.000000004,106.126
1498418994,798.800000004,107.235
1498418996,782.000000004,111.083
1498418998,760.400000004,114.309
1498419000,789.200000004,106.755
1498419002,748.400000004,111.719
1498419004,779.600000004,110.124
1498419006,777.200000004,108.367
1498419008,734.000000004,114.949
1498419010,722.000000004,115.469
1498419012,748.400000004,106.877
1498419014,801.200000004,114.149
1498419016,726.800000004,108.784
1498419018,714.800000004,110.178
1498419020,741.200000004,104.122
1498419022,719.600000004,109.729
1498419024,717.200000004,108.97
1498419026,738.800000004,108.915
1498419028,714.800000004,116.293
1498419030,779.600000004,111.721
1498419032,803.600000004,105.82
1498419034,801.200000004,108.784
1498419036,774.800000004,110.788
1498419038,714.800000004,117.106
1498419040,784.400000004,119.149
1498419042,707.600000004,116.456
1498419044,729.200000004,110.394
1498419046,784.400000004,112.548
1498419048,698.000000004,122.344
1498419050,707.600000004,115.837
1498419052,741.200000004,115.231
1498419054,714.800000004,106.33
1498419056,731.600000004,111.686
1498419058,755.600000004,119.894
1498419060,746.000000004,108.141
1498419062,683.600000004,118.195
1498419064,741.200000004,111.126
1498419066,767.600000004,121.329
1498419068,760.400000004,123.548
1498419070,705.200000004,109.253
1498419072,702.800000004,109.637
1498419074,738.800000004,120.128
1498419076,743.600000004,116.391
1498419078,782.000000004,116.593
1498419080,825.200000004,112.023
1498419082,705.200000004,111.085
1498419084,710.000000004,111.234
1498419086,736.400000004,118.721
1498419088,755.600000004,111.958
1498419090,714.800000004,113.982
1498419092,738.800000004,118.25
1498419094,753.200000004,112.332
1498419096,729.200000004,108.446
1498419098,741.200000004,115.719
1498419100,726.800000004,105.887
1498419102,729.200000004,120.044
1498419104,712.400000004,111.314
1498419106,734.000000004,116.759
1498419108,726.800000004,119.963
1498419110,686.000000004,125.983
1498419112,746.000000004,125.486
1498419114,762.800000004,117.348
1498419116,702.800000004,120.18
1498419118,674.000000004,119.506
1498419120,753.200000004,115.418
1498419122,736.400000004,120.179
1498419124,705.200000004,117.872
1498419126,731.600000004,111.085
1498419128,722.000000004,116.584
1498419130,738.800000004,113.367
1498419132,705.200000004,114.617
1498419134,746.000000004,109.975
1498419136,758.000000004,110.696
1498419138,714.800000004,107.099
1498419140,738.800000004,110.743
1498419142,717.200000004,111.879
1498419144,731.600000004,122.739
1498419146,772.400000004,121.425
1498419148,777.200000004,117.96
1498419150,726.800000004,120.567
1498419152,710.000000004,123.829
1498419154,714.800000004,118.604
1498419156,748.400000004,123.102
1498419158,736.400000004,117.043
1498419160,774.800000004,114.636
1498419162,762.800000004,119.399
1498419164,762.800000004,120.724
1498419166,695.600000004,115.675
1498419168,755.600000004,112.84
1498419170,714.800000004,113.896
1498419172,765.200000004,117.802
1498419174,746.000000004,118.161
1498419176,736.400000004,117.326
1498419178,736.400000004,119.168
1498419180,736.400000004,120.471
1498419182,815.600000004,119.125
1498419184,774.800000004,110.862
1498419186,755.600000004,116.424
