tag_number,delay,power_est
1498406050,940.400000004,113.331
1498406052,947.600000004,110.93
1498406054,954.800000004,116.504
1498406056,933.200000004,118.923
1498406058,995.600000004,119.782
1498406060,957.200000004,112.528
1498406062,904.400000004,112.97
1498406064,909.200000004,114.09
1498406066,940.400000004,115.581
1498406068,918.800000004,117.689
1498406070,897.200000004,115.359
1498406072,906.800000004,112.688
1498406074,892.400000004,112.995
1498406076,902.000000004,109.245
1498406078,894.800000004,116.233
1498406080,911.600000004,117.196
1498406082,885.200000004,110.626
1498406084,911.600000004,114.085
1498406086,834.800000004,115.441
1498406088,878.000000004,112.326
1498406090,839.600000004,105.462
1498406092,837.200000004,108.248
1498406094,837.200000004,108.381
1498406096,842.000000004,104.92
1498406098,870.800000004,96.9767
1498406100,849.200000004,102.304
1498406102,863.600000004,100.059
1498406104,892.400000004,107.746
1498406106,911.600000004,97.5242
1498406108,873.200000004,110.448
1498406110,899.600000004,118.365
1498406112,990.800000004,121.619
1498406114,933.200000004,121.342
1498406116,940.400000004,115.724
1498406118,935.600000004,109.631
1498406120,954.800000004,114.798
1498406122,942.800000004,116.34
1498406124,914.000000004,104.394
1498406126,938.000000004,104.4
1498406128,916.400000004,103.697
1498406130,897.200000004,105.706
1498406132,930.800000004,116.944
1498406134,935.600000004,113.728
1498406136,933.200000004,112.706
1498406138,880.400000004,115.154
1498406140,892.400000004,112.523
1498406142,914.000000004,114.718
1498406144,882.800000004,111.786
1498406146,856.400000004,115.795
1498406148,897.200000004,118.554
1498406150,873.200000004,116.6
1498406152,935.600000004,112.268
1498406154,861.200000004,120.587
1498406156,892.400000004,114.231
1498406158,870.800000004,120.96
1498406160,892.400000004,117.951
1498406162,839.600000004,114.396
1498406164,890.000000004,124.086
1498406166,890.000000004,121.428
1498406168,854.000000004,122.561
1498406170,834.800000004,119.337
1498406172,837.200000004,119.31
1498406174,837.200000004,113.427
1498406176,858.800000004,108.111
1498406178,866.000000004,111.616
1498406180,909.200000004,117.421
1498406182,849.200000004,108.801
1498406184,844.400000004,115.832
1498406186,892.400000004,121.793
1498406188,863.600000004,120.569
1498406190,851.600000004,122.928
1498406192,885.200000004,118.68
1498406194,873.200000004,110.058
1498406196,856.400000004,110.565
1498406198,858.800000004,118.599
1498406200,856.400000004,119.38
1498406202,854.000000004,117.096
1498406204,870.800000004,119.981
1498406206,863.600000004,114.217
1498406208,878.000000004,110.607
1498406210,904.400000004,112.244
1498406212,844.400000004,112.358
1498406214,856.400000004,110.974
1498406216,844.400000004,118.134
1498406218,825.200000004,113.573
1498406220,777.200000004,124.319
1498406222,731.600000004,115.406
1498406224,832.400000004,105.54
1498406226,767.600000004,114.678
1498406228,719.600000004,119.996
1498406230,717.200000004,112.659
1498406232,731.600000004,114.2
1498406234,686.000000004,106.06
1498406236,736.400000004,111.06
1498406238,774.800000004,114.211
1498406240,741.200000004,115.771
1498406242,714.800000004,109.789
1498406244,748.400000004,107.66
1498406246,748.400000004,109.6
1498406248,765.200000004,102.301
1498406250,794.000000004,114.361
1498406252,834.800000004,109.319
1498406254,858.800000004,105.022
1498406256,897.200000004,101.496
1498406258,983.600000004,97.9189
1498406260,1014.800000004,97.8019
1498406262,983.600000004,105.894
1498406264,940.400000004,105.566
1498406266,906.800000004,101.675
1498406268,921.200000004,106.536
1498406270,856.400000004,96.7907
1498406272,894.800000004,101.287
1498406274,842.000000004,88.8783
1498406276,849.200000004,98.2422
1498406278,815.600000004,103.853
1498406280,830.000000004,108.928
1498406282,830.000000004,110.023
1498406284,861.200000004,103.45
1498406286,822.800000004,96.4129
1498406288,818.000000004,102.704
1498406290,849.200000004,106.019
1498406292,846.800000004,111.404
1498406294,868.400000004,101.213
1498406296,885.200000004,103.089
1498406298,926.000000004,107.096
1498406300,839.600000004,104.809
1498406302,834.800000004,106.659
1498406304,890.000000004,111.146
1498406306,861.200000004,114.921
1498406308,875.600000004,113.927
1498406310,902.000000004,112.252
1498406312,930.800000004,122.76
1498406314,851.600000004,112.141
1498406316,870.800000004,110.643
1498406318,933.200000004,109.288
1498406320,909.200000004,113.298
1498406322,878.000000004,113.744
1498406324,899.600000004,114.392
1498406326,878.000000004,113.963
1498406328,858.800000004,111.882
1498406330,856.400000004,106.819
1498406332,866.000000004,111.902
1498406334,887.600000004,121.467
1498406336,873.200000004,117.352
1498406338,832.400000004,112.737
1498406340,844.400000004,104.735
1498406342,906.800000004,104.782
1498406344,854.000000004,114.639
1498406346,870.800000004,104.414
1498406348,861.200000004,110.251
1498406350,880.400000004,115.096
1498406352,858.800000004,106.606
1498406354,890.000000004,112.172
1498406356,882.800000004,117.833
1498406358,832.400000004,119.416
1498406360,839.600000004,111.766
1498406362,834.800000004,117.156
1498406364,822.800000004,120.507
1498406366,801.200000004,119.274
1498406368,822.800000004,111.328
1498406370,854.000000004,106.265
1498406372,842.000000004,116.272
1498406374,810.800000004,111.114
1498406376,750.800000004,115.375
1498406378,782.000000004,120.004
1498406380,784.400000004,113.638
1498406382,755.600000004,118.375
1498406384,782.000000004,119.268
1498406386,738.800000004,119.819
1498406388,746.000000004,111.676
1498406390,755.600000004,120.37
1498406392,765.200000004,115.845
1498406394,765.200000004,110.216
1498406396,762.800000004,114.877
1498406398,765.200000004,114.893
1498406400,743.600000004,110.94
1498406402,755.600000004,114.098
1498406404,772.400000004,120.628
1498406406,712.400000004,116.319
1498406408,762.800000004,112.578
1498406410,741.200000004,110.261
1498406412,755.600000004,110.319
1498406414,796.400000004,105.172
1498406416,786.800000004,108.722
1498406418,762.800000004,99.3193
1498406420,813.200000004,110.895
1498406422,719.600000004,113.439
1498406424,796.400000004,116.177
1498406426,808.400000004,112.807
1498406428,798.800000004,117.136
1498406430,839.600000004,121.987
1498406432,743.600000004,109.489
1498406434,755.600000004,109.922
1498406436,765.200000004,116.75
1498406438,803.600000004,116.65
1498406440,834.800000004,111.223
1498406442,770.000000004,114.062
1498406444,844.400000004,108.951
1498406446,789.200000004,101.62
1498406448,830.000000004,113.069
1498406450,791.600000004,114.243
1498406452,858.800000004,111.964
1498406454,842.000000004,109.187
1498406456,813.200000004,109.072
1498406458,844.400000004,115.877
1498406460,837.200000004,105.281
1498406462,803.600000004,112.464
1498406464,820.400000004,109.202
1498406466,806.000000004,107.574
1498406468,825.200000004,105.53
1498406470,786.800000004,106.527
1498406472,746.000000004,114.331
1498406474,753.200000004,106.615
1498406476,810.800000004,111.965
1498406478,736.400000004,115.909
1498406480,779.600000004,117.872
1498406482,774.800000004,119.043
1498406484,789.200000004,110.743
1498406486,731.600000004,108.702
1498406488,801.200000004,106.75
1498406490,767.600000004,109.091
1498406492,767.600000004,111.021
1498406494,772.400000004,113.119
1498406496,743.600000004,110.351
1498406498,741.200000004,110.196
1498406500,755.600000004,104.577
1498406502,712.400000004,106.434
1498406504,719.600000004,107.912
1498406506,770.000000004,117.266
1498406508,717.200000004,112.989
1498406510,760.400000004,112.835
1498406512,808.400000004,117.529
1498406514,712.400000004,113.262
1498406516,779.600000004,117.489
1498406518,702.800000004,106.409
1498406520,827.600000004,113.715
1498406522,782.000000004,111.3
1498406524,741.200000004,110.221
1498406526,729.200000004,109.836
1498406528,782.000000004,107.649
1498406530,779.600000004,110.69
1498406532,746.000000004,112.346
1498406534,750.800000004,117.612
1498406536,750.800000004,105.402
1498406538,734.000000004,113.555
1498406540,772.400000004,114.785
1498406542,772.400000004,116.803
1498406544,765.200000004,116.989
1498406546,758.000000004,107.544
1498406548,714.800000004,108.533
1498406550,753.200000004,102.636
1498406552,755.600000004,108.364
1498406554,738.800000004,105.595
1498406556,683.600000004,109.92
1498406558,690.800000004,102.84
1498406560,753.200000004,105.329
1498406562,822.800000004,110.214
1498406564,796.400000004,107.54
1498406566,726.800000004,106.078
1498406568,762.800000004,112.609
1498406570,755.600000004,104.989
1498406572,707.600000004,110.351
1498406574,734.000000004,112.71
1498406576,770.000000004,104.131
1498406578,750.800000004,102.33
1498406580,683.600000004,104.328
1498406582,652.400000004,104.863
1498406584,664.400000004,103.525
1498406586,599.600000004,107.473
1498406588,614.000000004,110.362
1498406590,609.200000004,109.189
1498406592,609.200000004,107.353
1498406594,611.600000004,101.485
1498406596,626.000000004,102.376
1498406598,657.200000004,103.492
1498406600,678.800000004,109.535
1498406602,662.000000004,116.237
1498406604,676.400000004,106.755
1498406606,686.000000004,107.229
1498406608,688.400000004,111.496
1498406610,664.400000004,112.637
1498406612,683.600000004,100.742
1498406614,683.600000004,113.882
1498406616,647.600000004,108.196
1498406618,681.200000004,108.142
1498406620,654.800000004,111.847
1498406622,652.400000004,117.681
1498406624,657.200000004,111.847
1498406626,621.200000004,119.474
1498406628,671.600000004,113.196
1498406630,650.000000004,116.912
1498406632,657.200000004,113.533
1498406634,674.000000004,114.241
1498406636,659.600000004,108.334
1498406638,671.600000004,108.307
1498406640,623.600000004,116.269
1498406642,683.600000004,109.452
1498406644,714.800000004,118.194
1498406646,652.400000004,115.038
1498406648,674.000000004,111.247
1498406650,628.400000004,115.695
1498406652,654.800000004,115.186
1498406654,674.000000004,110.296
1498406656,626.000000004,111.786
1498406658,664.400000004,121.246
1498406660,695.600000004,115.01
1498406662,623.600000004,111.345
1498406664,652.400000004,115.914
1498406666,669.200000004,116.744
1498406668,654.800000004,116.333
1498406670,686.000000004,115.323
1498406672,681.200000004,115.295
1498406674,669.200000004,107.871
1498406676,630.800000004,108.517
1498406678,654.800000004,110.259
1498406680,683.600000004,111.174
1498406682,671.600000004,106.625
1498406684,678.800000004,115.296
1498406686,664.400000004,117.484
1498406688,695.600000004,107.842
1498406690,688.400000004,111.323
1498406692,662.000000004,105.538
1498406694,700.400000004,115.523
1498406696,664.400000004,115.039
1498406698,688.400000004,109.42
1498406700,633.200000004,117.984
1498406702,693.200000004,112.658
1498406704,666.800000004,108.776
1498406706,690.800000004,107.958
1498406708,669.200000004,106.597
1498406710,707.600000004,110.222
1498406712,657.200000004,108.488
1498406714,623.600000004,106.213
1498406716,674.000000004,109.652
1498406718,659.600000004,108.08
1498406720,640.400000004,114.421
1498406722,690.800000004,111.897
1498406724,678.800000004,108.674
1498406726,695.600000004,112.841
1498406728,683.600000004,110.622
1498406730,674.000000004,109.502
1498406732,690.800000004,116.707
1498406734,669.200000004,111.364
1498406736,669.200000004,111.08
1498406738,642.800000004,111.135
1498406740,635.600000004,108.902
1498406742,657.200000004,111.599
1498406744,628.400000004,112.732
1498406746,674.000000004,123.406
1498406748,676.400000004,114.964
1498406750,688.400000004,120.046
1498406752,671.600000004,123.364
1498406754,635.600000004,122.818
1498406756,662.000000004,123.857
1498406758,654.800000004,123.035
1498406760,640.400000004,124.983
1498406762,654.800000004,116.745
1498406764,695.600000004,114.734
1498406766,686.000000004,108.737
1498406768,681.200000004,113.437
1498406770,664.400000004,111.279
1498406772,666.800000004,109.341
1498406774,628.400000004,110.262
1498406776,690.800000004,108.764
1498406778,698.000000004,111.396
1498406780,659.600000004,104.37
1498406782,678.800000004,105.325
1498406784,650.000000004,112.152
1498406786,657.200000004,108.511
1498406788,688.400000004,107.316
1498406790,659.600000004,110.473
1498406792,690.800000004,108.033
1498406794,700.400000004,108.278
1498406796,671.600000004,114.906
1498406798,674.000000004,112.698
1498406800,693.200000004,111.781
1498406802,688.400000004,110.845
1498406804,683.600000004,108.87
1498406806,659.600000004,110.531
1498406808,626.000000004,111.035
1498406810,647.600000004,109.885
1498406812,602.000000004,109.191
1498406814,690.800000004,111.852
1498406816,664.400000004,119.133
1498406818,700.400000004,122.493
1498406820,681.200000004,121.43
1498406822,676.400000004,119.832
1498406824,642.800000004,111.802
1498406826,686.000000004,124.341
1498406828,671.600000004,121.576
1498406830,700.400000004,120.087
1498406832,681.200000004,111.446
1498406834,666.800000004,105.72
1498406836,654.800000004,114.81
1498406838,681.200000004,109.531
1498406840,621.200000004,115.082
1498406842,688.400000004,116.772
1498406844,654.800000004,109.572
1498406846,616.400000004,102.535
1498406848,635.600000004,104.595
1498406850,652.400000004,108.586
1498406852,671.600000004,113.13
1498406854,640.400000004,118.659
1498406856,671.600000004,117.809
1498406858,674.000000004,123.093
1498406860,611.600000004,119.709
1498406862,647.600000004,119.384
1498406864,688.400000004,113.224
1498406866,647.600000004,109.275
1498406868,678.800000004,114.919
1498406870,633.200000004,109.376
1498406872,664.400000004,108.513
1498406874,669.200000004,115.531
1498406876,652.400000004,103.312
1498406878,570.800000004,113.709
1498406880,630.800000004,108.427
1498406882,676.400000004,117.757
1498406884,662.000000004,109.044
1498406886,618.800000004,114.79
1498406888,652.400000004,109.201
1498406890,650.000000004,106.713
1498406892,666.800000004,123.272
1498406894,683.600000004,118.496
1498406896,647.600000004,113.189
1498406898,683.600000004,112.312
1498406900,654.800000004,114.075
1498406902,671.600000004,115.383
1498406904,702.800000004,117.286
1498406906,664.400000004,110.925
1498406908,659.600000004,107.078
1498406910,647.600000004,107.043
1498406912,676.400000004,110.734
1498406914,662.000000004,117.718
1498406916,642.800000004,117.642
1498406918,666.800000004,112.943
1498406920,657.200000004,109.314
1498406922,654.800000004,120.29
1498406924,657.200000004,113.926
1498406926,630.800000004,118.112
1498406928,614.000000004,115.739
1498406930,669.200000004,114.817
1498406932,700.400000004,112.266
1498406934,621.200000004,118.026
1498406936,623.600000004,108.851
1498406938,662.000000004,118.418
1498406940,666.800000004,113.654
1498406942,616.400000004,110.707
1498406944,652.400000004,111.581
1498406946,650.000000004,111.307
1498406948,657.200000004,114.367
1498406950,611.600000004,107.337
1498406952,642.800000004,107.096
1498406954,614.000000004,111.689
1498406956,606.800000004,116.747
1498406958,590.000000004,112.262
1498406960,630.800000004,111.458
1498406962,606.800000004,112.05
1498406964,623.600000004,119.013
1498406966,599.600000004,115.979
1498406968,633.200000004,105.779
1498406970,611.600000004,105.4
1498406972,568.400000004,106.243
1498406974,604.400000004,108.625
1498406976,640.400000004,107.957
1498406978,606.800000004,102.846
1498406980,578.000000004,116.093
1498406982,618.800000004,109.883
1498406984,623.600000004,107.227
1498406986,638.000000004,106.512
1498406988,599.600000004,110.996
1498406990,657.200000004,105.723
1498406992,683.600000004,107.046
1498406994,674.000000004,106.918
1498406996,702.800000004,107.541
1498406998,743.600000004,106.01
1498407000,681.200000004,110.785
1498407002,693.200000004,108.683
1498407004,705.200000004,112.93
1498407006,714.800000004,109.941
1498407008,657.200000004,114.82
1498407010,645.200000004,108.235
1498407012,702.800000004,110.166
1498407014,652.400000004,103.67
1498407016,681.200000004,105.822
1498407018,659.600000004,106.605
1498407020,654.800000004,110.294
1498407022,662.000000004,115.08
1498407024,664.400000004,105.454
1498407026,686.000000004,100.227
1498407028,633.200000004,105.091
1498407030,621.200000004,101.332
1498407032,642.800000004,106.355
1498407034,609.200000004,114.875
1498407036,650.000000004,107.877
1498407038,681.200000004,116.359
1498407040,669.200000004,113.731
1498407042,664.400000004,114.043
1498407044,662.000000004,116.019
1498407046,664.400000004,112.126
1498407048,714.800000004,112.902
1498407050,671.600000004,112.381
1498407052,647.600000004,108.254
1498407054,681.200000004,117.206
1498407056,664.400000004,121.552
1498407058,652.400000004,127.922
1498407060,686.000000004,121.738
1498407062,666.800000004,113.56
1498407064,635.600000004,123.096
1498407066,666.800000004,115.342
1498407068,688.400000004,118.911
1498407070,654.800000004,124.098
1498407072,659.600000004,114.158
1498407074,635.600000004,121.686
1498407076,662.000000004,110.966
1498407078,652.400000004,112.757
1498407080,602.000000004,115.034
1498407082,616.400000004,111.836
1498407084,676.400000004,117.647
1498407086,671.600000004,118.032
1498407088,642.800000004,120.895
1498407090,618.800000004,111.797
1498407092,662.000000004,110.636
1498407094,630.800000004,119.273
1498407096,606.800000004,114.07
1498407098,674.000000004,114.771
1498407100,642.800000004,113.781
1498407102,666.800000004,113.801
1498407104,681.200000004,107.784
1498407106,690.800000004,112.882
1498407108,686.000000004,108.384
1498407110,710.000000004,111.042
1498407112,693.200000004,114.336
1498407114,710.000000004,113.347
1498407116,688.400000004,112.682
1498407118,710.000000004,114.717
1498407120,714.800000004,116.141
1498407122,693.200000004,113.715
1498407124,674.000000004,111.164
1498407126,698.000000004,115.142
1498407128,671.600000004,110.572
1498407130,599.600000004,105.702
1498407132,666.800000004,118.644
1498407134,664.400000004,123.163
1498407136,642.800000004,122.887
1498407138,664.400000004,120.314
1498407140,671.600000004,119.258
1498407142,678.800000004,110.362
1498407144,592.400000004,114.167
1498407146,611.600000004,117.073
1498407148,621.200000004,118.098
1498407150,587.600000004,114.583
1498407152,630.800000004,110.622
1498407154,650.000000004,113.029
1498407156,669.200000004,106.995
1498407158,626.000000004,119.212
1498407160,616.400000004,116.518
1498407162,662.000000004,117.196
1498407164,618.800000004,114.161
1498407166,686.000000004,119.68
1498407168,669.200000004,119.017
1498407170,693.200000004,121.9
1498407172,690.800000004,125.05
1498407174,683.600000004,123.132
1498407176,695.600000004,113.634
1498407178,741.200000004,112.126
1498407180,705.200000004,111.036
1498407182,693.200000004,112.785
1498407184,743.600000004,126.501
1498407186,700.400000004,112.909
1498407188,698.000000004,114.691
1498407190,741.200000004,113.988
1498407192,690.800000004,122.64
1498407194,731.600000004,113.326
1498407196,702.800000004,124.952
1498407198,770.000000004,121.371
1498407200,753.200000004,116.532
1498407202,700.400000004,116.357
1498407204,710.000000004,111.144
1498407206,724.400000004,115.338
1498407208,678.800000004,116.427
1498407210,698.000000004,118.529
1498407212,710.000000004,112.532
1498407214,710.000000004,108.492
1498407216,659.600000004,120.865
1498407218,642.800000004,108.327
1498407220,690.800000004,114.958
1498407222,671.600000004,111.389
1498407224,700.400000004,107.161
1498407226,693.200000004,109.23
1498407228,688.400000004,111.145
1498407230,702.800000004,109.093
1498407232,654.800000004,118.322
1498407234,647.600000004,118.951
1498407236,606.800000004,108.527
1498407238,642.800000004,116.994
1498407240,688.400000004,119.254
1498407242,688.400000004,114.01
1498407244,621.200000004,121.465
1498407246,652.400000004,121.474
1498407248,695.600000004,119.5
1498407250,681.200000004,121.903
1498407252,594.800000004,115.413
1498407254,686.000000004,110.803
1498407256,710.000000004,113.085
1498407258,705.200000004,114.166
1498407260,628.400000004,117.515
1498407262,693.200000004,113.528
1498407264,693.200000004,117.144
1498407266,597.200000004,105.946
1498407268,683.600000004,107.136
1498407270,676.400000004,112.322
1498407272,693.200000004,108.403
1498407274,712.400000004,106.988
1498407276,681.200000004,117.233
1498407278,700.400000004,115.556
1498407280,652.400000004,115.098
1498407282,671.600000004,119.056
1498407284,686.000000004,118.22
1498407286,633.200000004,114.334
1498407288,662.000000004,116.894
1498407290,640.400000004,110.343
1498407292,652.400000004,116.054
1498407294,618.800000004,106.369
1498407296,638.000000004,112.178
1498407298,681.200000004,113.131
1498407300,681.200000004,106.659
1498407302,621.200000004,109.225
1498407304,669.200000004,109.443
1498407306,659.600000004,114.631
1498407308,642.800000004,111.604
1498407310,633.200000004,114.212
1498407312,616.400000004,104.759
1498407314,633.200000004,104.307
1498407316,662.000000004,107.933
1498407318,638.000000004,110.28
1498407320,662.000000004,111.417
1498407322,688.400000004,111.962
1498407324,674.000000004,108.988
1498407326,676.400000004,102.919
1498407330,664.400000004,103.732
1498407332,678.800000004,112.147
1498407334,688.400000004,114.179
1498407336,700.400000004,107.744
1498407338,690.800000004,109.857
1498407340,712.400000004,109.431
1498407342,729.200000004,110.564
1498407344,690.800000004,112.421
1498407346,700.400000004,116.193
1498407348,729.200000004,111.815
1498407350,779.600000004,112.985
1498407352,806.000000004,106.045
1498407354,760.400000004,110.187
1498407356,738.800000004,101.185
1498407358,743.600000004,95.0667
1498407360,822.800000004,105.424
1498407362,813.200000004,106.194
1498407364,808.400000004,105.843
1498407366,820.400000004,111.492
1498407368,818.000000004,116.287
1498407370,825.200000004,114.143
1498407372,870.800000004,112.819
1498407374,851.600000004,110.626
1498407376,810.800000004,111.23
1498407378,873.200000004,121.369
1498407380,803.600000004,124.532
1498407382,794.000000004,110.783
1498407384,842.000000004,109.224
1498407386,832.400000004,121.014
1498407388,839.600000004,120.106
1498407390,803.600000004,125.621
1498407392,784.400000004,114.736
1498407394,837.200000004,118.99
1498407396,736.400000004,119.217
1498407398,741.200000004,118.262
1498407400,729.200000004,117.752
1498407402,794.000000004,111.25
1498407404,722.000000004,108.033
1498407406,741.200000004,114.157
1498407408,719.600000004,117.854
1498407410,729.200000004,114.358
1498407412,705.200000004,122.697
1498407414,726.800000004,117.892
1498407416,726.800000004,116.068
1498407418,705.200000004,111.331
1498407420,789.200000004,123.091
1498407422,719.600000004,119.356
1498407424,729.200000004,115.264
1498407426,702.800000004,107.873
1498407428,700.400000004,109.896
1498407430,714.800000004,107.16
1498407432,702.800000004,117.538
1498407434,726.800000004,120.217
1498407436,722.000000004,115.465
1498407438,693.200000004,112.93
1498407440,611.600000004,118.596
1498407442,650.000000004,115.105
1498407444,681.200000004,114.374
1498407446,628.400000004,112.164
1498407448,642.800000004,117.8
1498407450,633.200000004,124.07
1498407452,652.400000004,118.154
1498407454,676.400000004,116.837
1498407456,618.800000004,113.456
1498407458,662.000000004,123.839
1498407460,652.400000004,127.152
1498407462,647.600000004,124.742
1498407464,654.800000004,126.68
1498407466,630.800000004,119.526
1498407468,628.400000004,121.78
1498407470,662.000000004,117.895
1498407472,652.400000004,111.536
1498407474,666.800000004,113.948
1498407476,707.600000004,109.886
1498407478,633.200000004,114.022
1498407480,690.800000004,118.44
1498407482,674.000000004,119.507
1498407484,724.400000004,117.815
1498407486,724.400000004,118.661
1498407488,678.800000004,113.202
1498407490,707.600000004,112.182
1498407492,748.400000004,114.069
1498407494,758.000000004,120.355
1498407496,794.000000004,111.431
1498407498,772.400000004,109.581
1498407500,825.200000004,104.152
1498407502,837.200000004,111.144
1498407504,798.800000004,117.714
1498407506,825.200000004,110.878
1498407508,789.200000004,114.182
1498407510,743.600000004,116.59
1498407512,786.800000004,120.502
1498407514,786.800000004,111.668
1498407516,767.600000004,120.021
1498407518,705.200000004,118.287
1498407520,772.400000004,105.591
1498407522,765.200000004,101.099
1498407524,820.400000004,97.3256
1498407526,767.600000004,111.879
1498407528,748.400000004,114.045
1498407530,731.600000004,121.536
1498407532,772.400000004,117.788
1498407534,729.200000004,110.293
1498407536,779.600000004,108.819
1498407538,722.000000004,110.112
1498407540,717.200000004,105.146
1498407542,753.200000004,114.721
1498407544,707.600000004,116.217
1498407546,698.000000004,115.243
1498407548,690.800000004,119.036
1498407550,695.600000004,112.566
1498407552,693.200000004,115.668
1498407554,681.200000004,109.362
1498407556,683.600000004,111.73
1498407558,714.800000004,106.462
1498407560,702.800000004,102.154
1498407562,654.800000004,118.106
1498407564,702.800000004,109.282
1498407566,707.600000004,105.922
1498407568,690.800000004,110.041
1498407570,647.600000004,112.775
1498407572,710.000000004,114.865
1498407574,702.800000004,108.926
1498407576,707.600000004,102.834
1498407578,700.400000004,103.798
1498407580,746.000000004,108.567
1498407582,741.200000004,109.076
1498407584,686.000000004,111.14
1498407586,695.600000004,105.668
1498407588,719.600000004,111.681
1498407590,681.200000004,109.81
1498407592,729.200000004,109.77
1498407594,707.600000004,115.347
1498407596,647.600000004,111.339
1498407598,645.200000004,104.912
1498407600,688.400000004,109.916
1498407602,678.800000004,110.499
1498407604,688.400000004,109.319
1498407606,650.000000004,109.388
1498407608,686.000000004,104.647
1498407610,623.600000004,111.851
1498407612,645.200000004,117.904
1498407614,614.000000004,113.701
1498407616,695.600000004,118.567
1498407618,688.400000004,106.395
1498407620,662.000000004,116.03
1498407622,686.000000004,104.549
1498407624,686.000000004,115.245
1498407626,666.800000004,111.014
1498407628,669.200000004,109.345
1498407630,695.600000004,109.487
1498407632,683.600000004,105.031
1498407634,657.200000004,106.759
1498407636,678.800000004,113.911
1498407638,669.200000004,104.924
1498407640,659.600000004,108.449
1498407642,626.000000004,113.436
1498407644,678.800000004,112.653
1498407646,662.000000004,113.026
1498407648,659.600000004,110.721
1498407650,630.800000004,107.286
1498407652,669.200000004,103.71
1498407654,618.800000004,110.025
1498407656,710.000000004,109.783
1498407658,738.800000004,113.102
1498407660,690.800000004,119.032
1498407662,702.800000004,112.281
1498407664,664.400000004,101.47
1498407666,693.200000004,106.858
1498407668,714.800000004,109.82
1498407670,700.400000004,104.04
1498407672,698.000000004,108.401
1498407674,686.000000004,102.241
1498407676,623.600000004,108.719
1498407678,590.000000004,105.212
1498407680,609.200000004,105.577
1498407682,676.400000004,109.05
1498407684,688.400000004,112.068
1498407686,642.800000004,121.171
1498407688,683.600000004,112.333
1498407690,659.600000004,112.171
1498407692,671.600000004,114.735
1498407694,652.400000004,104.497
1498407696,678.800000004,109.601
1498407698,621.200000004,107.797
1498407700,650.000000004,107.379
1498407702,606.800000004,117.029
1498407704,671.600000004,116.659
1498407706,633.200000004,116.224
1498407708,647.600000004,114.498
1498407710,700.400000004,110.271
1498407712,623.600000004,108.173
1498407714,669.200000004,108.2
1498407716,657.200000004,109.058
1498407718,678.800000004,103.76
1498407720,674.000000004,107.035
1498407722,659.600000004,110.662
1498407724,650.000000004,110.682
1498407726,681.200000004,106.539
1498407728,623.600000004,112.785
1498407730,642.800000004,114.323
1498407732,686.000000004,112.053
1498407734,654.800000004,111.06
1498407736,669.200000004,107.067
1498407738,683.600000004,116.3
1498407740,676.400000004,111.107
1498407742,669.200000004,108.83
1498407744,669.200000004,119.229
1498407746,645.200000004,114.712
1498407748,678.800000004,115.145
1498407750,762.800000004,113.037
1498407752,820.400000004,115.476
1498407754,786.800000004,119.46
1498407756,731.600000004,103.084
1498407758,736.400000004,110.337
1498407760,789.200000004,112.38
1498407762,801.200000004,106.601
1498407764,750.800000004,105.691
1498407766,743.600000004,108.797
1498407768,762.800000004,111.303
1498407770,815.600000004,108.051
1498407772,774.800000004,114.228
1498407774,758.000000004,106.549
1498407776,801.200000004,114.164
1498407778,779.600000004,113.584
1498407780,719.600000004,109.219
1498407782,736.400000004,109.507
1498407784,789.200000004,115.71
1498407786,789.200000004,105.689
1498407788,712.400000004,121.969
1498407790,782.000000004,117.092
1498407792,758.000000004,112.327
1498407794,729.200000004,107.492
1498407796,724.400000004,110.638
1498407798,796.400000004,108.968
1498407800,808.400000004,111.607
1498407802,791.600000004,110.655
1498407804,748.400000004,119.529
1498407806,772.400000004,106.397
1498407808,834.800000004,112.979
1498407810,746.000000004,116.909
1498407812,748.400000004,114.107
1498407814,738.800000004,126.136
1498407816,767.600000004,119.729
1498407818,726.800000004,120.092
1498407820,765.200000004,120.701
1498407822,753.200000004,116.011
1498407824,762.800000004,118.068
1498407826,714.800000004,114.614
1498407828,736.400000004,120.99
1498407830,714.800000004,119.562
1498407832,736.400000004,125.996
1498407834,693.200000004,119.099
1498407836,736.400000004,118.921
1498407838,765.200000004,118.049
1498407840,748.400000004,119.81
1498407842,731.600000004,109.208
1498407844,753.200000004,115.455
1498407846,731.600000004,117.066
1498407848,698.000000004,120.903
1498407850,748.400000004,124.917
1498407852,736.400000004,113.393
1498407854,830.000000004,116.327
1498407856,683.600000004,106.601
1498407858,731.600000004,107.078
1498407860,755.600000004,113.654
1498407862,748.400000004,109.956
1498407864,714.800000004,111.892
1498407866,746.000000004,111.346
1498407868,755.600000004,102.776
1498407870,736.400000004,110.868
1498407872,734.000000004,112.477
1498407874,738.800000004,110.881
1498407876,794.000000004,110.303
1498407878,777.200000004,109.773
1498407880,796.400000004,108.41
1498407882,762.800000004,108.425
1498407884,772.400000004,114.949
1498407886,729.200000004,112.221
1498407888,743.600000004,114.435
1498407890,789.200000004,114.901
1498407892,765.200000004,110.744
1498407894,755.600000004,112.243
1498407896,777.200000004,116.594
1498407898,815.600000004,114.009
1498407900,758.000000004,108.632
1498407902,767.600000004,113.167
1498407904,782.000000004,111.789
1498407906,842.000000004,118.499
1498407908,789.200000004,117.274
1498407910,825.200000004,116.525
1498407912,815.600000004,119.358
1498407914,772.400000004,116.489
1498407916,750.800000004,121.036
1498407918,846.800000004,114.539
1498407920,844.400000004,117.711
1498407922,854.000000004,126.38
1498407924,786.800000004,114.975
1498407926,856.400000004,113.577
1498407928,849.200000004,118.158
1498407930,818.000000004,119.669
1498407932,822.800000004,113.905
1498407934,825.200000004,116.577
1498407936,846.800000004,113.008
1498407938,851.600000004,116.801
1498407940,842.000000004,112.459
1498407942,858.800000004,107.834
1498407944,851.600000004,112.74
1498407946,803.600000004,118.488
1498407948,846.800000004,118.259
1498407950,902.000000004,123.009
1498407952,918.800000004,109.471
1498407954,866.000000004,117.334
1498407956,837.200000004,120.768
1498407958,870.800000004,121.761
1498407960,885.200000004,126.53
1498407962,842.000000004,112.945
1498407964,854.000000004,118.631
1498407966,873.200000004,117.32
1498407968,837.200000004,113.168
1498407970,880.400000004,121.703
1498407972,822.800000004,119.605
1498407974,839.600000004,127.69
1498407976,846.800000004,116.528
1498407978,856.400000004,115.328
1498407980,839.600000004,113.902
1498407982,854.000000004,116.684
1498407984,755.600000004,112.82
1498407986,782.000000004,112.375
1498407988,815.600000004,103.851
1498407990,803.600000004,109.901
1498407992,796.400000004,104.473
1498407994,803.600000004,106.819
1498407996,827.600000004,105.746
1498407998,786.800000004,105.959
1498408000,822.800000004,109.848
1498408002,851.600000004,109.169
1498408004,834.800000004,114.437
1498408006,825.200000004,128.904
1498408008,758.000000004,124.707
1498408010,854.000000004,124.552
1498408012,839.600000004,120.785
1498408014,815.600000004,125.707
1498408016,791.600000004,113.082
1498408018,834.800000004,108.815
1498408020,784.400000004,112.913
1498408022,755.600000004,112.429
1498408024,782.000000004,117.161
1498408026,813.200000004,108.791
1498408028,794.000000004,114.414
1498408030,736.400000004,113.186
1498408032,808.400000004,110.654
1498408034,784.400000004,116.903
1498408036,748.400000004,113.495
1498408038,791.600000004,108.216
1498408040,820.400000004,114.823
1498408042,808.400000004,99.9969
1498408044,726.800000004,105.752
1498408046,806.000000004,113.578
1498408048,755.600000004,111.294
1498408050,758.000000004,114.92
1498408052,798.800000004,114.984
1498408054,762.800000004,110.458
1498408056,789.200000004,112.043
1498408058,777.200000004,114.633
1498408060,726.800000004,110.691
1498408062,707.600000004,108.583
1498408064,750.800000004,107.849
1498408066,734.000000004,112.702
1498408068,750.800000004,106.498
1498408070,786.800000004,105.504
1498408072,746.000000004,110.111
1498408074,755.600000004,109.955
1498408076,760.400000004,110.477
1498408078,774.800000004,107.919
1498408080,743.600000004,109.872
1498408082,753.200000004,111.337
1498408084,791.600000004,114.507
1498408086,784.400000004,113.495
1498408088,765.200000004,111.581
1498408090,743.600000004,117.293
1498408092,724.400000004,114.029
1498408094,750.800000004,121.219
1498408096,731.600000004,107.142
1498408098,738.800000004,109.857
1498408100,818.000000004,116.351
1498408102,844.400000004,115.257
1498408104,796.400000004,115.46
1498408106,789.200000004,108.8
1498408108,777.200000004,119.633
1498408110,762.800000004,113.35
1498408112,774.800000004,117.279
1498408114,789.200000004,114.576
1498408116,770.000000004,112.247
1498408118,786.800000004,113.293
1498408120,806.000000004,105.579
1498408122,777.200000004,111.714
1498408124,854.000000004,110.479
1498408126,789.200000004,104.13
1498408128,820.400000004,105.129
1498408130,815.600000004,116.316
1498408132,834.800000004,114.144
1498408134,786.800000004,118.406
1498408136,808.400000004,109.163
1498408138,808.400000004,111.038
1498408140,854.000000004,108.915
1498408142,856.400000004,118.141
1498408144,770.000000004,111.789
1498408146,885.200000004,106.741
1498408148,938.000000004,112.662
1498408150,894.800000004,104.793
1498408152,887.600000004,106.537
1498408154,916.400000004,111.687
1498408156,911.600000004,110.011
1498408158,851.600000004,112.008
1498408160,849.200000004,110.21
1498408162,911.600000004,110.953
1498408164,894.800000004,105.395
1498408166,906.800000004,112.691
1498408168,911.600000004,108.499
1498408170,911.600000004,112.453
1498408172,935.600000004,104.505
1498408174,909.200000004,107.292
1498408176,914.000000004,100.813
1498408178,981.200000004,108.081
1498408180,974.000000004,97.1463
1498408182,945.200000004,109.921
1498408184,976.400000004,108.125
1498408186,966.800000004,111.672
1498408188,926.000000004,110.444
1498408190,928.400000004,112.433
1498408192,914.000000004,118.767
1498408194,923.600000004,117.265
1498408196,935.600000004,121.524
1498408198,940.400000004,106.459
1498408200,923.600000004,109.982
1498408202,950.000000004,100.336
1498408204,918.800000004,103.943
1498408206,928.400000004,111.981
1498408208,906.800000004,110.457
1498408210,909.200000004,116.205
1498408212,916.400000004,111.947
1498408214,918.800000004,122.076
1498408216,935.600000004,118.788
1498408218,906.800000004,115.798
1498408220,930.800000004,124.274
1498408222,940.400000004,120.312
1498408224,916.400000004,124.222
1498408226,902.000000004,125.193
1498408228,921.200000004,124.688
1498408230,909.200000004,118.33
1498408232,914.000000004,112.788
1498408234,904.400000004,122.387
1498408236,846.800000004,119.731
1498408238,887.600000004,114.209
1498408240,909.200000004,114.328
1498408242,940.400000004,121.34
1498408244,856.400000004,120.99
1498408246,887.600000004,114.327
1498408248,880.400000004,119.074
1498408250,875.600000004,117.749
1498408252,858.800000004,114.189
1498408254,926.000000004,123.444
1498408256,911.600000004,112.023
1498408258,899.600000004,115.27
1498408260,928.400000004,112.567
1498408262,899.600000004,117.09
1498408264,906.800000004,115.44
1498408266,950.000000004,116.457
1498408268,930.800000004,112.976
1498408270,938.000000004,122.755
1498408272,892.400000004,110.527
1498408274,866.000000004,113.114
1498408276,882.800000004,112.956
1498408278,914.000000004,111.308
1498408280,906.800000004,115.2
1498408282,928.400000004,114.336
1498408284,897.200000004,117.959
1498408286,875.600000004,117.392
1498408288,875.600000004,112.407
1498408290,897.200000004,110.08
1498408292,921.200000004,122.12
1498408294,911.600000004,112.899
1498408296,897.200000004,108.473
1498408298,894.800000004,108.74
1498408300,916.400000004,112.55
1498408302,909.200000004,119.573
1498408304,902.000000004,124.008
1498408306,916.400000004,113.561
1498408308,885.200000004,114.458
1498408310,834.800000004,122.921
1498408312,899.600000004,114.14
1498408314,854.000000004,121.506
1498408316,899.600000004,114.295
1498408318,844.400000004,112.544
1498408320,887.600000004,110.394
1498408322,866.000000004,112.205
1498408324,882.800000004,107.127
1498408326,868.400000004,111.949
1498408328,851.600000004,107.827
1498408330,849.200000004,120.504
1498408332,839.600000004,112.621
1498408334,863.600000004,115.625
1498408336,834.800000004,111.087
1498408338,827.600000004,107.134
1498408340,851.600000004,107.932
1498408342,868.400000004,117.511
1498408344,834.800000004,120.915
1498408346,830.000000004,116.507
1498408348,854.000000004,113.192
1498408350,844.400000004,117.362
1498408352,808.400000004,103.655
1498408354,849.200000004,111.368
1498408356,858.800000004,113.28
1498408358,839.600000004,108.121
1498408360,810.800000004,107.402
1498408362,822.800000004,106.321
1498408364,806.000000004,112.282
1498408366,830.000000004,112.475
1498408368,796.400000004,109.121
1498408370,832.400000004,105.683
1498408372,825.200000004,105.629
1498408374,791.600000004,108.48
1498408376,820.400000004,115.304
1498408378,844.400000004,113.524
1498408380,825.200000004,108.335
1498408382,798.800000004,116.955
1498408384,846.800000004,107.67
1498408386,810.800000004,110.25
1498408388,846.800000004,105.82
1498408390,786.800000004,107.501
1498408392,885.200000004,110.845
1498408394,849.200000004,110.651
1498408396,858.800000004,114.427
1498408398,844.400000004,114.323
1498408400,830.000000004,110.578
1498408402,846.800000004,107.596
1498408404,854.000000004,108.756
1498408406,846.800000004,110.206
1498408408,820.400000004,108.427
1498408410,832.400000004,111.861
1498408412,822.800000004,117.731
1498408414,827.600000004,110.042
1498408416,839.600000004,116.621
1498408418,834.800000004,112.854
1498408420,837.200000004,111.646
1498408422,813.200000004,109.714
1498408424,822.800000004,104.399
1498408426,834.800000004,116.892
1498408428,861.200000004,110.203
1498408430,854.000000004,117.543
1498408432,839.600000004,113.11
1498408434,846.800000004,107.512
1498408436,834.800000004,105.379
1498408438,844.400000004,107.174
1498408440,834.800000004,107.694
1498408442,858.800000004,119.683
1498408444,875.600000004,104.949
1498408446,818.000000004,113.377
1498408448,810.800000004,115.045
1498408450,851.600000004,118.384
1498408452,868.400000004,109.262
1498408454,894.800000004,111.457
1498408456,873.200000004,116.066
1498408458,899.600000004,102.812
1498408460,950.000000004,110.545
1498408462,938.000000004,107.52
1498408464,911.600000004,111.833
1498408466,983.600000004,106.005
1498408468,923.600000004,102.682
1498408470,878.000000004,102.325
1498408472,866.000000004,116.329
1498408474,935.600000004,115.552
1498408476,911.600000004,111.865
1498408478,861.200000004,105.75
1498408480,894.800000004,99.4125
1498408482,916.400000004,108.813
1498408484,863.600000004,116.229
1498408486,890.000000004,110.429
1498408488,863.600000004,107.261
1498408490,887.600000004,108.795
1498408492,866.000000004,100.339
1498408494,928.400000004,104.876
1498408496,875.600000004,106.931
1498408498,870.800000004,121.234
1498408500,923.600000004,117.719
1498408502,923.600000004,113.277
1498408504,926.000000004,107.494
1498408506,938.000000004,108.717
1498408508,914.000000004,117.2
1498408510,918.800000004,117.423
1498408512,935.600000004,114.067
1498408514,938.000000004,114.609
1498408516,935.600000004,116.552
1498408518,950.000000004,109.502
1498408520,995.600000004,116.313
1498408522,947.600000004,115.914
1498408524,959.600000004,110.262
1498408526,921.200000004,110.886
1498408528,923.600000004,119.788
1498408530,916.400000004,120.544
1498408532,952.400000004,119.117
1498408534,878.000000004,112.838
1498408536,909.200000004,102.818
1498408538,906.800000004,109.104
1498408540,911.600000004,108.177
1498408542,868.400000004,128.319
1498408544,978.800000004,111.447
1498408546,923.600000004,119.995
1498408548,964.400000004,117.277
1498408550,923.600000004,124.585
1498408552,952.400000004,112.333
1498408554,976.400000004,107.386
1498408556,954.800000004,111.193
1498408558,974.000000004,106.759
1498408560,988.400000004,102.657
1498408562,1029.200000004,106.457
1498408564,1002.800000004,115.807
1498408566,962.000000004,111.212
1498408568,954.800000004,101.776
1498408570,978.800000004,110.354
1498408572,933.200000004,119.205
1498408574,964.400000004,113.12
1498408576,921.200000004,115.453
1498408578,928.400000004,116.337
1498408580,976.400000004,113.011
1498408582,954.800000004,123.889
1498408584,923.600000004,121.763
1498408586,897.200000004,118.14
1498408588,904.400000004,114.355
1498408590,964.400000004,123.995
1498408592,933.200000004,121.279
1498408594,897.200000004,120.906
1498408596,909.200000004,118.496
1498408598,904.400000004,112.115
1498408600,914.000000004,111.583
1498408602,914.000000004,115.204
1498408604,923.600000004,120.143
1498408606,911.600000004,115.861
1498408608,926.000000004,108.474
1498408610,921.200000004,113.057
1498408612,909.200000004,117.273
1498408614,909.200000004,110.054
1498408616,909.200000004,100.479
1498408618,890.000000004,104.694
1498408620,914.000000004,111.127
1498408622,839.600000004,108.364
1498408624,899.600000004,111.412
1498408626,875.600000004,120.66
1498408628,863.600000004,118.303
1498408630,858.800000004,110.309
1498408632,902.000000004,120.069
1498408634,837.200000004,116.754
1498408636,854.000000004,115.41
1498408638,820.400000004,112.905
1498408640,868.400000004,121.084
1498408642,798.800000004,116.327
1498408644,782.000000004,125.062
1498408646,782.000000004,121.616
1498408648,796.400000004,111.184
1498408650,794.000000004,108.702
1498408652,777.200000004,108.536
1498408654,794.000000004,111.85
1498408656,746.000000004,110.274
1498408658,827.600000004,108.061
1498408660,791.600000004,118.312
1498408662,849.200000004,109.432
1498408664,813.200000004,112.289
1498408666,762.800000004,119.347
1498408668,815.600000004,112.445
1498408670,854.000000004,118.337
1498408672,861.200000004,119.395
1498408674,842.000000004,116.037
1498408676,885.200000004,117.074
1498408678,844.400000004,110.795
1498408680,822.800000004,120.618
1498408682,897.200000004,116.985
1498408684,892.400000004,116.856
1498408686,870.800000004,119.194
1498408688,832.400000004,115.438
1498408690,863.600000004,108.426
1498408692,856.400000004,108.888
1498408694,842.000000004,105.939
1498408696,856.400000004,110.496
1498408698,868.400000004,113.761
1498408700,842.000000004,118.719
1498408702,806.000000004,118.842
1498408704,818.000000004,116.393
1498408706,818.000000004,119.615
1498408708,832.400000004,112.628
1498408710,794.000000004,107.833
1498408712,875.600000004,119.207
1498408714,856.400000004,119.218
1498408716,839.600000004,123.286
1498408718,842.000000004,123.661
1498408720,856.400000004,129.699
1498408722,822.800000004,124.82
1498408724,851.600000004,127.304
1498408726,849.200000004,122.919
1498408728,856.400000004,124.238
1498408730,801.200000004,119.605
1498408732,837.200000004,119.287
1498408734,894.800000004,118.115
1498408736,880.400000004,125.958
1498408738,846.800000004,121.105
1498408740,882.800000004,112.417
1498408742,918.800000004,125.214
1498408744,842.000000004,120.727
1498408746,861.200000004,113.115
1498408748,861.200000004,110.428
1498408750,902.000000004,123.905
1498408752,918.800000004,110.494
1498408754,866.000000004,113.395
1498408756,885.200000004,112.574
1498408758,825.200000004,115.991
1498408760,854.000000004,119.43
1498408762,918.800000004,117.247
1498408764,854.000000004,112.786
1498408766,878.000000004,117.797
1498408768,870.800000004,125.834
1498408770,866.000000004,130.36
1498408772,875.600000004,120.659
1498408774,875.600000004,127.577
1498408776,863.600000004,133.728
1498408778,909.200000004,120.376
1498408780,863.600000004,114.771
1498408782,899.600000004,112.185
1498408784,873.200000004,106.926
1498408786,866.000000004,118.198
1498408788,844.400000004,123.277
1498408790,866.000000004,116.491
1498408792,885.200000004,109.111
1498408794,904.400000004,117.877
1498408796,866.000000004,109.326
1498408798,899.600000004,110.568
1498408800,870.800000004,124.111
1498408802,880.400000004,113.302
1498408804,861.200000004,117.05
1498408806,897.200000004,111.139
1498408808,854.000000004,111.81
1498408810,870.800000004,104.841
1498408812,844.400000004,112.473
1498408814,887.600000004,106.026
1498408816,856.400000004,111.797
1498408818,842.000000004,116.511
1498408820,846.800000004,119.23
1498408822,844.400000004,123.256
1498408824,786.800000004,109.266
1498408826,772.400000004,111.135
1498408828,784.400000004,111.457
1498408830,827.600000004,112.763
1498408832,796.400000004,115.345
1498408834,820.400000004,117.907
1498408836,815.600000004,114.572
1498408838,743.600000004,111.479
1498408840,700.400000004,119.042
1498408842,791.600000004,113.337
1498408844,748.400000004,117.408
1498408846,702.800000004,113.805
1498408848,705.200000004,119.333
1498408850,760.400000004,109.457
1498408852,760.400000004,110.768
1498408854,750.800000004,112.007
1498408856,734.000000004,115.257
1498408858,738.800000004,115.026
1498408860,782.000000004,116.829
1498408862,830.000000004,113.763
1498408864,758.000000004,110.224
1498408866,786.800000004,117.513
1498408868,808.400000004,113.252
1498408870,803.600000004,116.158
1498408872,822.800000004,117.301
1498408874,818.000000004,116.935
1498408876,818.000000004,113.738
1498408878,880.400000004,123.711
1498408880,837.200000004,113.552
1498408882,825.200000004,107.933
1498408884,878.000000004,111.527
1498408886,796.400000004,120.291
1498408888,796.400000004,107.378
1498408890,808.400000004,115.532
1498408892,846.800000004,112.829
1498408894,856.400000004,118.647
1498408896,813.200000004,114.356
1498408898,834.800000004,114.612
1498408900,808.400000004,104.751
1498408902,839.600000004,115.243
1498408904,866.000000004,104.622
1498408906,837.200000004,109.33
1498408908,820.400000004,107.42
1498408910,798.800000004,106.553
1498408912,808.400000004,109.774
1498408914,825.200000004,114.785
1498408916,808.400000004,113.29
1498408918,767.600000004,107.709
1498408920,710.000000004,110.494
1498408922,688.400000004,111.925
1498408924,702.800000004,110.574
1498408926,702.800000004,117.142
1498408928,698.000000004,113.878
1498408930,698.000000004,116.229
1498408932,705.200000004,115.968
1498408934,695.600000004,116.88
1498408936,724.400000004,113.737
1498408938,702.800000004,104.001
1498408940,674.000000004,111.554
1498408942,762.800000004,110.844
1498408944,750.800000004,113.612
1498408946,729.200000004,108.502
1498408948,741.200000004,117.081
1498408950,695.600000004,112.886
1498408952,736.400000004,110.133
1498408954,710.000000004,120.185
1498408956,700.400000004,106.121
1498408958,774.800000004,102.124
1498408960,681.200000004,93.7345
1498408962,719.600000004,106.998
1498408964,736.400000004,109.631
1498408966,681.200000004,103.748
1498408968,705.200000004,105.004
1498408970,734.000000004,104.292
1498408972,746.000000004,101.027
1498408974,724.400000004,105.547
1498408976,707.600000004,108.459
1498408978,714.800000004,109.059
1498408980,676.400000004,103.95
1498408982,681.200000004,113.779
1498408984,736.400000004,105.051
1498408986,707.600000004,99.1595
1498408988,688.400000004,92.9815
1498408990,702.800000004,95.1193
1498408992,724.400000004,99.333
1498408994,774.800000004,100.149
1498408996,698.000000004,108.445
1498408998,690.800000004,114.057
1498409000,698.000000004,116.449
1498409002,686.000000004,104.038
1498409004,676.400000004,100.264
1498409006,705.200000004,107.474
1498409008,666.800000004,105.879
1498409010,662.000000004,107.427
1498409012,676.400000004,102.823
1498409014,669.200000004,110.437
1498409016,628.400000004,110.458
1498409018,621.200000004,110.182
1498409020,676.400000004,114.913
1498409022,686.000000004,105.726
1498409024,681.200000004,113.355
1498409026,683.600000004,120.714
1498409028,640.400000004,119.892
1498409030,628.400000004,117.385
1498409032,585.200000004,110.87
1498409034,657.200000004,115.392
1498409036,635.600000004,110.552
1498409038,597.200000004,116.918
1498409040,592.400000004,115.574
1498409042,640.400000004,110.144
1498409044,592.400000004,114.991
1498409046,611.600000004,110.035
1498409048,659.600000004,118.61
1498409050,592.400000004,109.566
1498409052,578.000000004,113.372
1498409054,616.400000004,119.126
1498409056,657.200000004,116.929
1498409058,647.600000004,114.325
1498409060,585.200000004,111.76
1498409062,621.200000004,120.52
1498409064,664.400000004,113.945
1498409066,594.800000004,116.319
1498409068,676.400000004,107.98
1498409070,659.600000004,111.22
1498409072,676.400000004,113.154
1498409074,626.000000004,107.974
1498409076,671.600000004,112.026
1498409078,623.600000004,109.161
1498409080,671.600000004,106.711
1498409082,618.800000004,106.795
1498409084,664.400000004,113.071
1498409086,642.800000004,111.317
1498409088,659.600000004,112.486
1498409090,604.400000004,119.442
1498409092,674.000000004,121.203
1498409094,674.000000004,111.588
1498409096,635.600000004,110.757
1498409098,618.800000004,111.834
1498409100,690.800000004,110.263
1498409102,681.200000004,110.61
1498409104,669.200000004,113.502
1498409106,654.800000004,111.094
1498409108,654.800000004,111.135
1498409110,676.400000004,112.258
1498409112,599.600000004,109.613
1498409114,698.000000004,117.962
1498409116,662.000000004,114.707
1498409118,664.400000004,111.475
1498409120,623.600000004,117.002
1498409122,640.400000004,122.191
1498409124,618.800000004,108.92
1498409126,678.800000004,101.444
1498409130,671.600000004,115.219
1498409132,604.400000004,117.932
1498409134,626.000000004,119.281
1498409136,590.000000004,118.975
1498409138,664.400000004,113.548
1498409140,618.800000004,107.744
1498409142,666.800000004,99.859
1498409144,585.200000004,101.098
1498409146,666.800000004,105.039
1498409148,614.000000004,109.92
1498409150,652.400000004,109.791
1498409152,609.200000004,113.975
1498409154,623.600000004,109.024
1498409156,623.600000004,109.998
1498409158,645.200000004,112.122
1498409160,683.600000004,113.989
1498409162,683.600000004,111.163
1498409164,630.800000004,114.936
1498409166,650.000000004,112.998
1498409168,642.800000004,123.128
1498409170,654.800000004,111.874
1498409172,616.400000004,114.01
1498409174,678.800000004,110.053
1498409176,669.200000004,120.657
1498409178,686.000000004,103.36
1498409180,717.200000004,111.391
1498409182,690.800000004,112.69
1498409184,659.600000004,115.13
1498409186,659.600000004,114.831
1498409188,659.600000004,114.605
1498409190,664.400000004,114.681
1498409192,683.600000004,116.552
1498409194,681.200000004,112.493
1498409196,688.400000004,114.357
1498409198,664.400000004,110.168
1498409200,650.000000004,107.856
1498409202,695.600000004,109.465
1498409204,676.400000004,104.177
1498409206,698.000000004,107.462
1498409208,654.800000004,106.203
1498409210,693.200000004,107.581
1498409212,695.600000004,107.538
1498409214,695.600000004,106.834
1498409216,714.800000004,110.445
1498409218,671.600000004,104.244
1498409220,628.400000004,116.335
1498409222,640.400000004,119.604
1498409224,722.000000004,118.116
1498409226,705.200000004,128.026
1498409228,693.200000004,121.334
1498409230,688.400000004,120.976
1498409232,698.000000004,121.62
1498409234,698.000000004,118.053
1498409236,686.000000004,111.16
1498409238,664.400000004,119.625
1498409240,652.400000004,119.077
1498409242,690.800000004,117.873
1498409244,654.800000004,109.43
1498409246,743.600000004,112.586
1498409248,671.600000004,109.696
1498409250,671.600000004,111.811
1498409252,678.800000004,115.986
1498409254,705.200000004,111.757
1498409256,695.600000004,111.828
1498409258,678.800000004,111.76
1498409260,671.600000004,110.128
1498409262,676.400000004,102.383
1498409264,674.000000004,114.347
1498409266,714.800000004,118.926
1498409268,652.400000004,116.322
1498409270,690.800000004,115.785
1498409272,659.600000004,113.364
1498409274,676.400000004,121.158
1498409276,712.400000004,105.71
1498409278,714.800000004,109.888
1498409280,671.600000004,109.44
1498409282,767.600000004,110.695
1498409284,707.600000004,111.923
1498409286,681.200000004,110.049
1498409288,748.400000004,110.863
1498409290,801.200000004,101.44
1498409292,698.000000004,118.786
1498409294,750.800000004,106.645
1498409296,741.200000004,110.929
1498409298,918.800000004,121.502
1498409300,772.400000004,115.362
1498409302,794.000000004,113.055
1498409304,760.400000004,115.602
1498409306,856.400000004,114.852
1498409308,777.200000004,116.929
1498409310,822.800000004,110.043
1498409312,849.200000004,110.218
1498409314,842.000000004,117.691
1498409316,801.200000004,115.035
1498409318,846.800000004,108.481
1498409320,803.600000004,108.786
1498409322,820.400000004,111.528
1498409324,827.600000004,113.95
1498409326,849.200000004,101.92
1498409328,791.600000004,117.955
1498409330,786.800000004,123.745
1498409332,810.800000004,109.995
1498409334,758.000000004,110.192
1498409336,774.800000004,112.116
1498409338,772.400000004,115.785
1498409340,801.200000004,106.396
1498409342,760.400000004,110.856
1498409344,738.800000004,102.199
1498409346,758.000000004,104.108
1498409348,750.800000004,121.145
1498409350,729.200000004,122.265
1498409352,734.000000004,118.777
1498409354,743.600000004,109.932
1498409356,760.400000004,115.763
1498409358,760.400000004,119.497
1498409360,786.800000004,112.52
1498409362,750.800000004,118.309
1498409364,789.200000004,116.757
1498409366,827.600000004,119.923
1498409368,746.000000004,118.859
1498409370,748.400000004,116.681
1498409372,746.000000004,122.729
1498409374,755.600000004,123.789
1498409376,796.400000004,126.436
1498409378,753.200000004,125.897
1498409380,767.600000004,117.349
1498409382,767.600000004,123.341
1498409384,722.000000004,115.056
1498409386,755.600000004,110.561
1498409388,750.800000004,118.314
1498409390,806.000000004,116.134
1498409392,746.000000004,112.742
1498409394,741.200000004,113.576
1498409396,755.600000004,109.947
1498409398,731.600000004,107.589
1498409400,717.200000004,111.023
1498409402,734.000000004,108.774
1498409404,722.000000004,109.443
1498409406,700.400000004,114.756
1498409408,693.200000004,103.477
1498409410,700.400000004,109.278
1498409412,719.600000004,113.269
1498409414,710.000000004,118.438
1498409416,736.400000004,116.578
1498409418,770.000000004,118.603
1498409420,686.000000004,120.657
1498409422,748.400000004,119.623
1498409424,760.400000004,119.244
1498409426,714.800000004,117.51
1498409428,750.800000004,117.212
1498409430,736.400000004,111.5
1498409432,753.200000004,114.428
1498409434,678.800000004,105.784
1498409436,707.600000004,122.429
1498409438,731.600000004,123.856
1498409440,700.400000004,118.506
1498409442,642.800000004,124.166
1498409444,669.200000004,118.907
1498409446,736.400000004,117.282
1498409448,669.200000004,122.927
1498409450,618.800000004,119.818
1498409452,686.000000004,108.147
1498409454,688.400000004,113.721
1498409456,657.200000004,104.963
1498409458,705.200000004,108.546
1498409460,719.600000004,113.125
1498409462,640.400000004,110.418
1498409464,618.800000004,108.954
1498409466,669.200000004,106.798
1498409468,657.200000004,120.684
1498409470,618.800000004,116.529
1498409472,638.000000004,111.552
1498409474,606.800000004,112.908
1498409476,681.200000004,117.88
1498409478,621.200000004,117.83
1498409480,662.000000004,116.638
1498409482,623.600000004,114.424
1498409484,614.000000004,111.48
1498409486,645.200000004,118.942
1498409488,688.400000004,108.605
1498409490,606.800000004,111.925
1498409492,621.200000004,104.016
1498409494,642.800000004,114.803
1498409496,626.000000004,110.924
1498409498,611.600000004,110.657
1498409500,626.000000004,112.012
1498409502,642.800000004,121.56
1498409504,570.800000004,111.095
1498409506,666.800000004,110.19
1498409508,662.000000004,113.311
1498409510,666.800000004,111.512
1498409512,599.600000004,111.33
1498409514,609.200000004,116.973
1498409516,690.800000004,120.893
1498409518,654.800000004,117.451
1498409520,650.000000004,113.667
1498409522,669.200000004,109.536
1498409524,669.200000004,118.281
1498409526,621.200000004,124.957
1498409528,683.600000004,119.175
1498409530,626.000000004,120.236
1498409532,678.800000004,121.098
1498409534,676.400000004,120.65
1498409536,688.400000004,117.762
1498409538,664.400000004,120.363
1498409540,678.800000004,103.851
1498409542,676.400000004,114
1498409544,705.200000004,109.531
1498409546,657.200000004,107.63
1498409548,669.200000004,111.58
1498409550,683.600000004,121.048
1498409552,712.400000004,118.067
1498409554,698.000000004,121.669
1498409556,683.600000004,119.045
1498409558,722.000000004,120.998
1498409560,702.800000004,121.022
1498409562,669.200000004,122.065
1498409564,681.200000004,115.56
1498409566,683.600000004,109.919
1498409568,674.000000004,116.998
1498409570,659.600000004,115.722
1498409572,746.000000004,108.223
1498409574,736.400000004,114.434
1498409578,676.400000004,103.152
1498409580,731.600000004,115.018
1498409582,724.400000004,112.411
1498409584,741.200000004,114.652
1498409586,734.000000004,121.189
1498409588,750.800000004,114.12
1498409590,669.200000004,112.555
1498409592,700.400000004,116.714
1498409594,731.600000004,114.411
1498409596,714.800000004,114.164
1498409598,731.600000004,117.735
1498409600,717.200000004,117.597
1498409602,712.400000004,114.832
1498409604,717.200000004,114.338
1498409606,741.200000004,116.609
1498409608,678.800000004,124.443
1498409610,700.400000004,123.349
1498409612,683.600000004,113.749
1498409614,719.600000004,114.134
1498409616,746.000000004,120.527
1498409618,774.800000004,111.235
1498409620,755.600000004,115.352
1498409622,743.600000004,118.901
1498409624,683.600000004,113.074
1498409626,657.200000004,112.397
1498409628,710.000000004,116.727
1498409630,700.400000004,112.617
1498409632,695.600000004,110.303
1498409634,681.200000004,111.658
1498409636,722.000000004,114.211
1498409638,695.600000004,113.411
1498409640,714.800000004,118.933
1498409642,705.200000004,114.549
1498409644,719.600000004,112.473
1498409646,659.600000004,116.596
1498409648,690.800000004,110.978
1498409650,731.600000004,109.405
1498409652,731.600000004,120.243
1498409654,762.800000004,123.641
1498409656,719.600000004,117.627
1498409658,734.000000004,115.788
1498409660,779.600000004,120.245
1498409662,722.000000004,121.266
1498409664,743.600000004,119.281
1498409666,753.200000004,115.574
1498409668,753.200000004,119.271
1498409670,702.800000004,109.431
1498409672,717.200000004,115.122
1498409674,683.600000004,115.853
1498409676,722.000000004,118.032
1498409678,750.800000004,118.191
1498409680,736.400000004,104.959
1498409682,717.200000004,104.459
1498409684,722.000000004,117.652
1498409686,748.400000004,120.502
1498409688,772.400000004,115.864
1498409690,753.200000004,122.228
1498409692,765.200000004,120.698
1498409694,762.800000004,116.395
1498409696,741.200000004,117.205
1498409698,794.000000004,115.243
1498409700,822.800000004,117.252
1498409702,844.400000004,118.907
1498409704,755.600000004,114.576
1498409706,803.600000004,123.936
1498409708,815.600000004,121.799
1498409710,856.400000004,125.007
1498409712,782.000000004,115.272
1498409714,851.600000004,105.234
1498409716,842.000000004,112.509
1498409718,803.600000004,120.905
1498409720,784.400000004,123.526
1498409722,851.600000004,120.532
1498409724,798.800000004,128.425
1498409726,808.400000004,125.261
1498409728,772.400000004,112.646
1498409730,842.000000004,113.68
1498409732,779.600000004,113.727
1498409734,842.000000004,124.001
1498409736,846.800000004,122.164
1498409738,830.000000004,114.886
1498409740,777.200000004,113.548
1498409742,765.200000004,121.045
1498409744,810.800000004,119.912
1498409746,827.600000004,113.679
1498409748,822.800000004,134.015
1498409750,810.800000004,119.509
1498409752,738.800000004,119.229
1498409754,815.600000004,113.2
1498409756,748.400000004,116.661
1498409758,815.600000004,119.968
1498409760,794.000000004,116.627
1498409762,808.400000004,112
1498409764,760.400000004,117.663
1498409766,789.200000004,124.274
1498409768,774.800000004,123.859
1498409770,818.000000004,120.741
1498409772,734.000000004,120.209
1498409774,822.800000004,114.27
1498409776,746.000000004,112.83
1498409778,748.400000004,119.726
1498409780,760.400000004,115.204
1498409782,822.800000004,115.34
1498409784,825.200000004,110.33
1498409786,820.400000004,121.809
1498409788,794.000000004,116.861
1498409790,798.800000004,116.844
1498409792,782.000000004,120.208
1498409794,830.000000004,121.994
1498409796,832.400000004,110.118
1498409798,782.000000004,118.359
1498409800,762.800000004,118.965
1498409802,813.200000004,99.2803
1498409804,830.000000004,112.182
1498409806,779.600000004,121.029
1498409808,786.800000004,106.066
1498409810,815.600000004,112.38
1498409812,818.000000004,115.143
1498409814,803.600000004,104.219
1498409816,810.800000004,110.08
1498409818,758.000000004,104.883
1498409820,743.600000004,107.803
1498409822,729.200000004,107.981
1498409824,743.600000004,109.656
1498409826,820.400000004,114.45
1498409828,700.400000004,110.532
1498409830,712.400000004,113.873
1498409832,741.200000004,113.704
1498409834,729.200000004,113.542
1498409836,734.000000004,110.121
1498409838,724.400000004,109.792
1498409840,724.400000004,114.988
1498409842,741.200000004,111.275
1498409844,762.800000004,109.012
1498409846,705.200000004,111.768
1498409848,695.600000004,110.842
1498409850,719.600000004,100.897
1498409852,669.200000004,109.95
1498409854,695.600000004,113.238
1498409856,714.800000004,107.411
1498409858,705.200000004,118.348
1498409860,789.200000004,118.627
1498409862,791.600000004,114.326
1498409864,729.200000004,111.94
1498409866,762.800000004,125.709
1498409868,777.200000004,120.731
1498409870,700.400000004,121.358
1498409872,726.800000004,123.485
1498409874,736.400000004,119.699
1498409876,712.400000004,113.009
1498409878,738.800000004,110.856
1498409880,712.400000004,111.583
1498409882,736.400000004,106.164
1498409884,736.400000004,109.593
1498409886,717.200000004,117.822
1498409888,798.800000004,116.882
1498409890,762.800000004,120.177
1498409892,719.600000004,112.943
1498409894,705.200000004,121.644
1498409896,681.200000004,113.89
1498409898,688.400000004,119.002
1498409900,700.400000004,108.335
1498409902,726.800000004,112.113
1498409904,707.600000004,110.627
1498409906,724.400000004,114.121
1498409908,662.000000004,111.419
1498409910,698.000000004,120.499
1498409912,743.600000004,113.924
1498409914,693.200000004,108.645
1498409916,719.600000004,114.035
1498409918,734.000000004,110.529
1498409920,724.400000004,112.829
1498409922,705.200000004,116.008
1498409924,700.400000004,109.813
1498409926,683.600000004,120.222
1498409928,666.800000004,111.112
1498409930,702.800000004,113.032
1498409932,729.200000004,119.531
1498409934,717.200000004,112.036
1498409936,686.000000004,110.409
1498409938,700.400000004,108.74
1498409940,722.000000004,102.227
1498409942,686.000000004,107.023
1498409944,714.800000004,110.013
1498409946,674.000000004,108.594
1498409948,669.200000004,108.347
1498409950,674.000000004,108.022
1498409952,666.800000004,108.456
1498409954,666.800000004,114.254
1498409956,652.400000004,102.202
1498409958,707.600000004,103.52
1498409960,638.000000004,110.446
1498409962,635.600000004,104.539
1498409964,645.200000004,107.467
1498409966,674.000000004,103.877
1498409968,618.800000004,106.26
1498409970,638.000000004,107.971
1498409972,681.200000004,107.248
1498409974,638.000000004,106.728
1498409976,630.800000004,112.631
1498409978,614.000000004,116.076
1498409980,604.400000004,110.418
1498409982,650.000000004,104.78
1498409984,606.800000004,98.3708
1498409986,707.600000004,107.287
1498409988,678.800000004,107.178
1498409990,674.000000004,111.817
1498409992,686.000000004,112.78
1498409994,669.200000004,111.854
1498409996,623.600000004,112.72
1498409998,647.600000004,107.992
1498410000,698.000000004,111.12
1498410002,669.200000004,109.237
1498410004,616.400000004,109.696
1498410006,690.800000004,108.657
1498410008,669.200000004,112.156
1498410010,693.200000004,118.352
1498410012,678.800000004,115.034
1498410014,695.600000004,110.754
1498410016,669.200000004,114.407
1498410018,638.000000004,118.645
1498410020,652.400000004,117.527
1498410022,676.400000004,110.193
1498410024,659.600000004,117.541
1498410026,662.000000004,118.487
1498410028,678.800000004,111.189
1498410030,671.600000004,104.697
1498410032,664.400000004,106.492
1498410034,662.000000004,116.436
1498410036,693.200000004,112.575
1498410038,640.400000004,122.431
1498410040,606.800000004,113.639
1498410042,602.000000004,113.012
1498410044,676.400000004,115.088
1498410046,630.800000004,118.772
1498410048,587.600000004,115.281
