tag_number,delay,power_est
1496333556,938.000000004,25.4309
1496333560,930.800000004,21.5578
1496333564,926.000000004,19.4395
1496333568,868.400000004,21.7308
1496333572,921.200000004,18.3902
1496333576,928.400000004,18.9064
1496333580,914.000000004,19.5951
1496333584,906.800000004,18.7011
1496333588,928.400000004,18.7784
1496333592,851.600000004,16.6018
1496333596,863.600000004,19.0629
1496333600,870.800000004,22.1599
1496333604,837.200000004,21.9535
1496333608,846.800000004,23.8009
1496333612,866.000000004,22.9081
1496333616,914.000000004,19.8456
1496333620,863.600000004,15.36
1496333624,945.200000004,17.3148
1496333628,894.800000004,19.0324
1496333632,909.200000004,18.5345
1496333636,906.800000004,18.9923
1496333640,928.400000004,16.658
1496333644,873.200000004,19.5056
1496333648,918.800000004,18.5469
1496333652,926.000000004,14.192
1496333656,954.800000004,21.6312
1496333660,906.800000004,16.4289
1496333664,868.400000004,21.2808
1496333668,918.800000004,17.286
1496333672,854.000000004,18.6529
1496333676,837.200000004,13.4204
1496333680,851.600000004,16.2449
1496333684,806.000000004,20.1951
1496333688,806.000000004,18.9119
1496333692,803.600000004,22.0838
1496333696,822.800000004,20.0398
1496333700,806.000000004,18.9396
1496333704,786.800000004,18.7864
1496333708,825.200000004,21.9422
1496333712,839.600000004,20.4604
1496333716,803.600000004,23.6233
1496333720,796.400000004,20.1073
1496333724,810.800000004,19.713
1496333728,834.800000004,19.4633
1496333732,827.600000004,24.3152
1496333736,743.600000004,23.7005
1496333740,806.000000004,24.1329
1496333744,842.000000004,20.1523
1496333748,842.000000004,18.4772
1496333752,837.200000004,23.7201
1496333756,866.000000004,24.0289
1496333760,808.400000004,21.5481
1496333764,854.000000004,20.7268
1496333768,803.600000004,19.8896
1496333772,849.200000004,20.3365
1496333776,839.600000004,17.7717
1496333780,825.200000004,19.053
1496333784,832.400000004,19.8634
1496333788,849.200000004,18.3621
1496333792,834.800000004,22.6824
1496333796,844.400000004,22.3025
1496333800,851.600000004,24.6005
1496333804,849.200000004,23.7345
1496333808,794.000000004,24.1948
1496333812,842.000000004,20.2548
1496333816,849.200000004,22.9782
1496333820,810.800000004,21.1878
1496333824,818.000000004,22.4489
1496333828,837.200000004,23.5826
1496333832,858.800000004,22.3369
1496333836,856.400000004,23.4166
1496333840,914.000000004,22.3558
1496333844,868.400000004,23.6336
1496333848,906.800000004,21.8593
1496333852,875.600000004,22.0985
1496333856,854.000000004,20.204
1496333860,837.200000004,19.2252
1496333864,844.400000004,17.7671
1496333868,878.000000004,19.7207
1496333872,856.400000004,18.6608
1496333876,875.600000004,18.1137
1496333880,846.800000004,18.9212
1496333884,868.400000004,18.951
1496333888,863.600000004,21.4568
1496333892,861.200000004,17.2164
1496333896,930.800000004,17.2609
1496333900,921.200000004,17.6377
1496333904,945.200000004,16.9183
1496333908,914.000000004,19.4786
1496333912,916.400000004,17.9968
1496333916,923.600000004,22.727
1496333920,892.400000004,21.9592
1496333924,911.600000004,21.3963
1496333928,868.400000004,18.9051
1496333932,923.600000004,19.4831
1496333936,916.400000004,20.2068
1496333940,878.000000004,23.5921
1496333944,914.000000004,20.0022
1496333948,911.600000004,19.9378
1496333952,930.800000004,21.0038
1496333956,894.800000004,20.6223
1496333960,957.200000004,18.425
1496333964,933.200000004,16.3419
1496333968,945.200000004,17.2903
1496333972,1029.200000004,20.7306
1496333976,1060.400000004,17.4242
1496333980,1017.200000004,20.346
1496333984,1036.400000004,21.5443
1496333988,1019.600000004,17.4734
1496333992,995.600000004,15.0686
1496333996,971.600000004,19.7655
1496334000,950.000000004,16.7541
1496334004,930.800000004,18.6588
1496334008,909.200000004,16.6136
1496334012,916.400000004,17.9234
1496334016,904.400000004,17.0837
1496334020,952.400000004,17.6743
1496334024,858.800000004,18.1449
1496334028,904.400000004,19.8244
1496334032,863.600000004,20.0381
1496334036,856.400000004,17.2497
1496334040,851.600000004,19.5565
1496334044,894.800000004,19.2048
1496334048,813.200000004,22.578
1496334052,842.000000004,19.3206
1496334056,825.200000004,21.4308
1496334060,808.400000004,18.0942
1496334064,854.000000004,17.0492
1496334068,856.400000004,23.2083
1496334072,870.800000004,21.022
1496334076,846.800000004,23.1795
1496334080,844.400000004,18.692
1496334084,887.600000004,18.9888
1496334088,878.000000004,19.4324
1496334092,851.600000004,16.6243
1496334096,890.000000004,20.2174
1496334100,882.800000004,22.4822
1496334104,863.600000004,21.0384
1496334108,842.000000004,22.6402
1496334112,837.200000004,23.6535
1496334116,861.200000004,15.7048
1496334120,784.400000004,21.4466
1496334124,753.200000004,19.2523
1496334128,789.200000004,13.4934
1496334132,815.600000004,19.5637
1496334136,834.800000004,16.3698
1496334140,837.200000004,11.9734
1496334144,834.800000004,17.5421
1496334148,849.200000004,20.6551
1496334152,844.400000004,20.256
1496334156,801.200000004,21.1603
1496334160,827.600000004,22.5412
1496334164,796.400000004,22.0628
1496334168,851.600000004,23.3473
1496334172,815.600000004,19.2603
1496334176,842.000000004,18.7307
1496334180,815.600000004,19.9159
1496334184,856.400000004,21.1273
1496334188,832.400000004,19.3112
1496334192,827.600000004,16.0687
1496334196,851.600000004,19.9737
1496334200,784.400000004,17.8379
1496334204,851.600000004,27.8791
1496334208,815.600000004,20.7654
1496334212,863.600000004,22.7563
1496334216,839.600000004,21.0253
1496334220,868.400000004,24.7103
1496334224,861.200000004,20.4557
1496334228,846.800000004,19.1557
1496334232,870.800000004,18.6992
1496334236,866.000000004,20.512
1496334240,885.200000004,17.5648
1496334244,834.800000004,19.0204
1496334248,851.600000004,23.0692
1496334252,839.600000004,19.013
1496334256,839.600000004,16.8871
1496334260,822.800000004,16.233
1496334264,767.600000004,11.7782
1496334268,794.000000004,16.2353
1496334272,851.600000004,19.707
1496334276,820.400000004,18.1875
1496334280,820.400000004,20.6418
1496334284,801.200000004,18.0448
1496334288,770.000000004,20.624
1496334292,825.200000004,18.8767
1496334296,743.600000004,21.3975
1496334300,777.200000004,16.8802
1496334304,796.400000004,22.0752
1496334308,750.800000004,18.3594
1496334312,820.400000004,19.2588
1496334316,820.400000004,17.8407
1496334320,822.800000004,20.1094
1496334324,774.800000004,22.7034
1496334328,801.200000004,19.7721
1496334332,786.800000004,19.7374
1496334336,837.200000004,18.1846
1496334340,808.400000004,15.5915
1496334344,822.800000004,14.5964
1496334348,810.800000004,15.1287
1496334352,858.800000004,17.3261
1496334356,854.000000004,21.3292
1496334360,822.800000004,19.441
1496334364,854.000000004,18.1455
1496334368,839.600000004,17.7515
1496334372,849.200000004,19.1185
1496334376,820.400000004,23.643
1496334380,832.400000004,20.6404
1496334384,851.600000004,19.5968
1496334388,794.000000004,16.5378
1496334392,854.000000004,19.6624
1496334396,846.800000004,18.483
1496334400,856.400000004,19.9219
1496334404,846.800000004,19.739
1496334408,832.400000004,19.0129
1496334412,875.600000004,21.1163
1496334416,842.000000004,23.498
1496334420,851.600000004,26.4827
1496334424,822.800000004,25.9128
1496334428,851.600000004,25.6468
1496334432,758.000000004,24.4703
1496334436,808.400000004,22.8644
1496334440,830.000000004,21.7862
1496334444,815.600000004,24.0704
1496334448,842.000000004,22.7779
1496334452,856.400000004,22.1321
1496334456,868.400000004,17.6127
1496334460,808.400000004,18.9448
1496334464,839.600000004,18.3839
1496334468,827.600000004,18.8978
1496334472,846.800000004,22.1655
1496334476,791.600000004,20.1306
1496334480,808.400000004,20.3316
1496334484,832.400000004,19.1859
1496334488,842.000000004,21.8707
1496334492,839.600000004,20.4744
1496334496,849.200000004,19.3083
1496334500,880.400000004,14.7415
1496334504,808.400000004,20.4286
1496334508,887.600000004,16.8632
1496334512,856.400000004,18.8023
1496334516,878.000000004,16.7306
1496334520,834.800000004,17.8039
1496334524,882.800000004,17.0706
1496334528,849.200000004,25.2339
1496334532,854.000000004,18.4514
1496334536,870.800000004,17.7035
1496334540,858.800000004,18.7931
1496334544,916.400000004,21.7885
1496334548,854.000000004,20.0192
1496334552,894.800000004,22.1898
1496334556,875.600000004,22.3189
1496334560,858.800000004,21.7932
1496334564,858.800000004,20.3059
1496334568,882.800000004,19.0596
1496334572,868.400000004,15.2798
1496334576,854.000000004,16.5752
1496334580,834.800000004,14.0185
1496334584,803.600000004,19.3877
1496334588,844.400000004,19.0353
1496334592,842.000000004,17.5847
1496334596,839.600000004,21.2101
1496334600,818.000000004,22.4028
1496334604,830.000000004,19.6633
1496334608,846.800000004,21.0527
1496334612,861.200000004,20.4269
1496334616,762.800000004,20.9343
1496334620,825.200000004,18.1123
1496334624,760.400000004,19.9383
1496334628,827.600000004,18.498
1496334632,844.400000004,19.6745
1496334636,846.800000004,20.6565
1496334640,854.000000004,19.5954
1496334644,818.000000004,24.4096
1496334648,806.000000004,20.0136
1496334652,873.200000004,20.7595
1496334656,868.400000004,22.7476
1496334660,796.400000004,21.5619
1496334664,801.200000004,25.1672
1496334668,791.600000004,21.2417
1496334672,832.400000004,21.9516
1496334676,801.200000004,21.4549
1496334680,789.200000004,23.5885
1496334684,815.600000004,21.5049
1496334688,832.400000004,18.0868
1496334692,830.000000004,20.7432
1496334696,796.400000004,16.1888
1496334700,762.800000004,20.2721
1496334704,849.200000004,17.9541
1496334708,813.200000004,22.3455
1496334712,806.000000004,21.3238
1496334716,820.400000004,20.7369
1496334720,801.200000004,19.7704
1496334724,758.000000004,19.3391
1496334728,822.800000004,18.2899
1496334732,815.600000004,17.0951
1496334736,789.200000004,17.5343
1496334740,755.600000004,19.3109
1496334744,765.200000004,17.6843
1496334748,827.600000004,19.2948
1496334752,858.800000004,17.2245
1496334756,822.800000004,20.9803
1496334760,765.200000004,23.3172
1496334764,851.600000004,21.2818
1496334768,782.000000004,19.4961
1496334772,834.800000004,24.0315
1496334776,813.200000004,18.9827
1496334780,822.800000004,21.2912
1496334784,815.600000004,16.278
1496334788,765.200000004,17.903
1496334792,842.000000004,18.4865
1496334796,834.800000004,13.8268
1496334800,830.000000004,15.6651
1496334804,760.400000004,18.8556
1496334808,837.200000004,17.8204
1496334812,808.400000004,19.5661
1496334816,832.400000004,18.6665
1496334820,798.800000004,19.3952
1496334824,810.800000004,17.2402
1496334828,825.200000004,25.0169
1496334832,822.800000004,23.9894
1496334836,779.600000004,20.2875
1496334840,808.400000004,20.6174
1496334844,789.200000004,20.5872
1496334848,810.800000004,18.5904
1496334852,789.200000004,15.4009
1496334856,806.000000004,17.5921
1496334860,820.400000004,19.9192
1496334864,801.200000004,18.1444
1496334868,880.400000004,17.6182
1496334872,839.600000004,19.2973
1496334876,832.400000004,16.0607
1496334880,854.000000004,21.1618
1496334884,851.600000004,18.5173
1496334888,849.200000004,20.24
1496334892,834.800000004,20.4128
1496334896,887.600000004,19.0495
1496334900,837.200000004,18.4128
1496334904,856.400000004,23.0881
1496334908,803.600000004,20.8707
1496334912,849.200000004,16.9021
1496334916,830.000000004,23.9332
1496334920,822.800000004,18.7239
1496334924,866.000000004,19.6497
1496334928,798.800000004,17.4566
1496334932,846.800000004,19.7247
1496334936,822.800000004,15.5337
1496334940,822.800000004,19.3786
1496334944,837.200000004,21.5709
1496334948,798.800000004,20.3181
1496334952,851.600000004,20.4407
1496334956,762.800000004,20.9691
1496334960,822.800000004,16.8197
1496334964,810.800000004,15.4585
1496334968,866.000000004,20.0956
1496334972,844.400000004,17.319
1496334976,894.800000004,18.5694
1496334980,834.800000004,18.0857
1496334984,734.000000004,17.644
1496334988,690.800000004,18.3104
1496334992,777.200000004,20.0748
1496334996,765.200000004,16.7635
1496335000,688.400000004,20.2296
1496335004,794.000000004,21.6618
1496335008,714.800000004,17.3904
1496335012,736.400000004,25.2982
1496335016,731.600000004,19.9898
1496335020,729.200000004,24.1357
1496335024,786.800000004,18.9759
1496335028,714.800000004,17.9278
1496335032,753.200000004,21.21
1496335036,705.200000004,21.9752
1496335040,717.200000004,21.6643
1496335044,729.200000004,22.3084
1496335048,700.400000004,21.5152
1496335052,738.800000004,24.0218
1496335056,736.400000004,17.0037
1496335060,690.800000004,19.9937
1496335064,688.400000004,18.8228
1496335068,698.000000004,16.0458
1496335072,678.800000004,17.2471
1496335076,710.000000004,15.1252
1496335080,671.600000004,21.1053
1496335084,714.800000004,21.5009
1496335088,729.200000004,18.6905
1496335092,710.000000004,18.1758
1496335096,688.400000004,16.3988
1496335100,657.200000004,14.8981
1496335104,736.400000004,16.4386
1496335108,707.600000004,8.17221
1496335112,693.200000004,17.3276
1496335116,638.000000004,17.6091
1496335120,688.400000004,17.0705
1496335124,690.800000004,18.2654
1496335128,683.600000004,20.3985
1496335132,664.400000004,18.7556
1496335136,642.800000004,19.8725
1496335140,676.400000004,18.7352
1496335144,695.600000004,17.4419
1496335148,753.200000004,16.9252
1496335152,676.400000004,18.1811
1496335156,750.800000004,21.4039
1496335160,705.200000004,17.4998
1496335164,743.600000004,21.9032
1496335168,690.800000004,19.2425
1496335172,741.200000004,21.5803
1496335176,695.600000004,19.2014
1496335180,695.600000004,17.3058
1496335184,683.600000004,18.2106
1496335188,686.000000004,18.7583
1496335192,666.800000004,17.8201
1496335196,674.000000004,17.1823
1496335200,729.200000004,17.5674
1496335204,674.000000004,20.1113
1496335208,712.400000004,22.4229
1496335212,736.400000004,23.0814
1496335216,710.000000004,21.6548
1496335220,686.000000004,22.2199
1496335224,712.400000004,22.4455
1496335228,683.600000004,25.7967
1496335232,683.600000004,25.4641
1496335236,686.000000004,26.8985
1496335240,746.000000004,24.1843
1496335244,676.400000004,26.2964
1496335248,683.600000004,21.4777
1496335252,686.000000004,19.552
1496335256,688.400000004,24.4876
1496335260,705.200000004,23.0201
1496335264,714.800000004,26.1175
1496335268,741.200000004,21.4497
1496335272,693.200000004,21.4988
1496335276,734.000000004,18.2558
1496335280,695.600000004,18.8286
1496335284,726.800000004,20.6803
1496335292,635.600000004,19.8789
1496335296,729.200000004,24.1078
1496335300,671.600000004,20.7625
1496335304,678.800000004,19.1917
1496335308,705.200000004,25.051
1496335312,686.000000004,24.7707
1496335316,664.400000004,21.209
1496335320,707.600000004,19.8057
1496335324,688.400000004,17.1337
1496335328,753.200000004,18.9426
1496335332,695.600000004,17.17
1496335336,698.000000004,19.186
1496335340,671.600000004,21.4191
1496335344,666.800000004,25.1726
1496335348,686.000000004,18.2005
1496335352,714.800000004,22.3842
1496335356,741.200000004,19.5706
1496335364,762.800000004,15.0141
1496335368,806.000000004,18.2082
1496335372,698.000000004,13.2828
1496335376,717.200000004,16.6493
1496335380,760.400000004,19.3211
1496335384,702.800000004,16.6747
1496335388,722.000000004,19.7145
1496335392,724.400000004,18.2346
1496335396,738.800000004,20.0275
1496335400,750.800000004,22.3154
1496335404,731.600000004,15.7574
1496335408,794.000000004,18.8698
1496335412,726.800000004,19.8709
1496335416,748.400000004,15.7214
1496335420,748.400000004,18.3298
1496335424,770.000000004,20.0663
1496335428,786.800000004,17.6749
1496335432,789.200000004,17.236
1496335436,786.800000004,20.2666
1496335440,798.800000004,15.0532
1496335444,844.400000004,18.4207
1496335448,822.800000004,20.0478
1496335452,837.200000004,20.0548
1496335456,825.200000004,22.197
1496335460,820.400000004,22.023
1496335464,803.600000004,15.0925
1496335468,822.800000004,13.1413
1496335472,822.800000004,20.4774
1496335476,770.000000004,23.5427
1496335480,818.000000004,15.6272
1496335484,784.400000004,23.7594
1496335488,813.200000004,24.0981
1496335492,789.200000004,21.7157
1496335496,758.000000004,22.1221
1496335500,760.400000004,17.1303
1496335504,750.800000004,18.1831
1496335508,755.600000004,20.6407
1496335512,772.400000004,19.9075
1496335516,731.600000004,22.4833
1496335520,736.400000004,19.2221
1496335524,700.400000004,25.0439
1496335528,678.800000004,24.989
1496335532,722.000000004,21.9585
1496335536,690.800000004,22.7171
1496335540,722.000000004,23.9604
1496335544,664.400000004,19.9505
1496335548,686.000000004,22.3948
1496335552,686.000000004,21.5708
1496335556,690.800000004,19.879
1496335560,702.800000004,20.0444
1496335564,717.200000004,20.4522
1496335568,671.600000004,24.7476
1496335572,731.600000004,22.7622
1496335576,695.600000004,16.584
1496335580,695.600000004,20.8194
1496335584,669.200000004,19.9824
1496335588,674.000000004,21.1958
1496335592,676.400000004,18.4514
1496335596,693.200000004,21.6773
1496335600,671.600000004,21.1816
1496335604,700.400000004,23.3844
1496335608,698.000000004,21.636
1496335612,688.400000004,23.4083
1496335616,666.800000004,18.2934
1496335620,662.000000004,20.9092
1496335624,724.400000004,22.6432
1496335628,630.800000004,23.8626
1496335632,712.400000004,19.6172
1496335636,674.000000004,20.1273
1496335640,717.200000004,18.7972
1496335644,731.600000004,23.0104
1496335648,700.400000004,11.7963
1496335652,722.000000004,18.1069
1496335656,731.600000004,22.8464
1496335660,700.400000004,23.4642
1496335664,714.800000004,20.5443
1496335668,710.000000004,23.2567
1496335672,719.600000004,17.6421
1496335676,707.600000004,20.9864
1496335680,710.000000004,21.9468
1496335684,669.200000004,23.6835
1496335688,669.200000004,16.3888
1496335692,724.400000004,16.1358
1496335696,678.800000004,17.3498
1496335700,683.600000004,15.5164
1496335704,729.200000004,17.265
1496335708,676.400000004,22.906
1496335712,698.000000004,15.3679
1496335716,688.400000004,21.1835
1496335720,717.200000004,21.6847
1496335724,707.600000004,21.9027
1496335728,671.600000004,22.6378
1496335732,683.600000004,20.8992
1496335736,628.400000004,21.5815
1496335740,690.800000004,20.9925
1496335744,657.200000004,16.1166
1496335748,710.000000004,18.0231
1496335752,664.400000004,20.5385
1496335756,686.000000004,17.6325
1496335760,698.000000004,19.7582
1496335764,683.600000004,15.1053
1496335768,686.000000004,18.7684
1496335772,666.800000004,19.3234
1496335776,698.000000004,21.9418
1496335780,722.000000004,17.8166
1496335784,688.400000004,19.1541
1496335788,664.400000004,19.0161
1496335792,717.200000004,17.1846
1496335796,705.200000004,17.2961
1496335800,712.400000004,17.4684
1496335804,674.000000004,17.3639
1496335808,693.200000004,21.1829
1496335812,604.400000004,18.4205
1496335816,710.000000004,18.0905
1496335820,671.600000004,22.6966
1496335824,654.800000004,22.8671
1496335828,666.800000004,20.5246
1496335832,690.800000004,23.3266
1496335836,647.600000004,19.9795
1496335840,690.800000004,20.535
1496335844,664.400000004,12.5443
1496335848,674.000000004,16.6363
1496335852,652.400000004,21.2925
1496335856,743.600000004,20.2966
1496335860,712.400000004,20.4049
1496335864,662.000000004,20.0212
1496335868,669.200000004,21.6915
1496335872,693.200000004,13.5205
1496335876,671.600000004,16.1849
1496335880,654.800000004,13.0235
1496335884,654.800000004,17.3864
1496335888,669.200000004,13.445
1496335892,678.800000004,12.0836
1496335896,647.600000004,19.4549
1496335900,705.200000004,21.9448
1496335904,705.200000004,18.0848
1496335908,690.800000004,14.8662
1496335912,678.800000004,20.8406
1496335916,690.800000004,17.2179
1496335920,666.800000004,18.4774
1496335924,674.000000004,20.0381
1496335928,666.800000004,17.4627
1496335932,633.200000004,12.6836
1496335936,698.000000004,23.5835
1496335940,666.800000004,19.5478
1496335944,642.800000004,22.2569
1496335948,698.000000004,19.6514
1496335952,686.000000004,21.3574
1496335956,664.400000004,13.5773
1496335960,666.800000004,20.574
1496335964,719.600000004,19.1728
1496335968,702.800000004,19.1091
1496335972,676.400000004,18.3151
1496335976,705.200000004,20.5465
1496335980,695.600000004,21.4722
1496335984,707.600000004,19.4459
1496335988,662.000000004,22.3219
1496335992,748.400000004,21.7203
1496335996,678.800000004,17.2756
1496336000,686.000000004,22.8831
1496336004,662.000000004,15.8179
1496336008,681.200000004,17.4053
1496336012,678.800000004,16.7382
1496336016,681.200000004,16.4676
1496336020,671.600000004,19.1951
1496336024,690.800000004,21.4507
1496336028,657.200000004,26.3643
1496336032,657.200000004,22.2502
1496336036,710.000000004,20.3693
1496336040,702.800000004,22.5806
1496336044,671.600000004,24.1499
1496336048,678.800000004,21.6814
1496336052,698.000000004,18.062
1496336056,664.400000004,22.1709
1496336060,702.800000004,19.7531
1496336064,690.800000004,22.4702
1496336068,762.800000004,21.892
1496336072,678.800000004,13.9101
1496336076,722.000000004,23.6005
1496336080,736.400000004,23.0838
1496336084,724.400000004,25.2237
1496336088,700.400000004,23.1922
1496336092,755.600000004,16.8184
1496336096,760.400000004,22.1093
1496336100,765.200000004,21.2002
1496336104,753.200000004,19.3188
1496336108,736.400000004,19.659
1496336112,698.000000004,26.7643
1496336116,748.400000004,22.5728
1496336120,762.800000004,18.2818
1496336124,738.800000004,16.2699
1496336128,717.200000004,20.6157
1496336132,772.400000004,15.3319
1496336136,820.400000004,19.1607
1496336140,806.000000004,18.3279
1496336144,827.600000004,14.4742
1496336148,820.400000004,22.8018
1496336152,830.000000004,19.563
1496336156,928.400000004,17.0254
1496336160,930.800000004,22.485
1496336164,854.000000004,17.9692
1496336168,890.000000004,17.7185
1496336172,914.000000004,20.0958
1496336176,866.000000004,20.1383
1496336180,868.400000004,20.5802
1496336184,916.400000004,21.1872
1496336188,938.000000004,18.369
1496336192,911.600000004,18.0363
1496336196,918.800000004,23.0639
1496336200,868.400000004,19.2875
1496336204,916.400000004,20.4879
1496336208,873.200000004,16.2847
1496336212,923.600000004,18.7327
1496336216,875.600000004,19.5275
1496336220,902.000000004,17.0811
1496336224,906.800000004,20.4782
1496336228,875.600000004,18.8176
1496336232,870.800000004,17.066
1496336236,842.000000004,18.7128
1496336240,909.200000004,17.6014
1496336244,868.400000004,23.0727
1496336248,837.200000004,20.6488
1496336252,808.400000004,23.3257
1496336256,846.800000004,17.9588
1496336260,861.200000004,22.8774
1496336264,870.800000004,22.2803
1496336268,933.200000004,22.9064
1496336272,842.000000004,23.608
1496336276,875.600000004,19.6836
1496336280,894.800000004,23.0408
1496336284,921.200000004,25.2931
1496336288,911.600000004,23.2968
1496336292,947.600000004,20.2608
1496336296,940.400000004,18.3254
1496336300,935.600000004,20.9157
1496336304,894.800000004,20.3386
1496336308,897.200000004,20.0912
1496336312,942.800000004,21.5023
1496336316,923.600000004,22.3241
1496336320,870.800000004,15.2176
1496336324,892.400000004,18.0046
1496336328,940.400000004,18.9636
1496336332,892.400000004,24.4294
1496336336,928.400000004,18.6891
1496336340,882.800000004,19.9521
1496336344,894.800000004,22.6764
1496336348,906.800000004,19.7472
1496336352,897.200000004,16.3441
1496336356,878.000000004,20.6747
1496336360,849.200000004,19.4273
1496336364,906.800000004,20.907
1496336368,875.600000004,12.835
1496336372,899.600000004,18.6364
1496336376,911.600000004,22.8985
1496336380,904.400000004,17.6939
1496336384,882.800000004,21.4945
1496336388,882.800000004,14.1601
1496336392,914.000000004,15.6525
1496336396,839.600000004,20.3417
1496336400,902.000000004,15.259
1496336404,870.800000004,19.8953
1496336408,861.200000004,18.5028
1496336412,846.800000004,21.7629
1496336416,870.800000004,23.396
1496336420,906.800000004,22.4862
1496336424,863.600000004,22.7162
1496336428,846.800000004,22.2121
1496336432,854.000000004,23.8539
1496336436,861.200000004,25.955
1496336440,834.800000004,24.6939
1496336444,834.800000004,20.0504
1496336448,849.200000004,21.274
1496336452,827.600000004,17.0257
1496336456,846.800000004,21.1354
1496336460,827.600000004,20.8301
1496336464,873.200000004,19.97
1496336468,863.600000004,22.0304
1496336472,844.400000004,22.0127
1496336476,839.600000004,22.3287
1496336480,844.400000004,23.9182
1496336484,839.600000004,15.1985
1496336488,832.400000004,22.5843
1496336492,810.800000004,22.5109
1496336496,803.600000004,22.7825
1496336500,758.000000004,16.0903
1496336504,844.400000004,16.2288
1496336508,820.400000004,22.2721
1496336512,827.600000004,22.2753
1496336516,827.600000004,20.7414
1496336520,861.200000004,21.0944
1496336524,854.000000004,19.6966
1496336528,854.000000004,22.6462
1496336532,856.400000004,22.7702
1496336536,851.600000004,22.5343
1496336540,861.200000004,23.8544
1496336544,796.400000004,18.7072
1496336548,858.800000004,18.4477
1496336552,806.000000004,18.2517
1496336556,837.200000004,14.0765
1496336560,815.600000004,19.1188
1496336564,815.600000004,17.4789
1496336568,755.600000004,20.9843
1496336572,837.200000004,18.9428
1496336576,810.800000004,17.1608
1496336580,863.600000004,19.1304
1496336584,868.400000004,22.3309
1496336588,926.000000004,24.0668
1496336592,839.600000004,22.5285
1496336596,863.600000004,19.8944
1496336600,868.400000004,23.1278
1496336604,846.800000004,23.1134
1496336608,830.000000004,19.9998
1496336612,837.200000004,19.8882
1496336616,873.200000004,21.6659
1496336620,846.800000004,20.7667
1496336624,882.800000004,23.5914
1496336628,842.000000004,21.2477
1496336632,868.400000004,20.1188
1496336636,873.200000004,17.1063
1496336640,870.800000004,17.1107
1496336644,861.200000004,15.9828
1496336648,858.800000004,20.9367
1496336652,830.000000004,19.986
1496336656,820.400000004,18.787
1496336660,846.800000004,18.2296
1496336664,846.800000004,15.3335
1496336668,894.800000004,17.6882
1496336672,820.400000004,24.5865
1496336676,854.000000004,20.6735
1496336680,822.800000004,21.3062
1496336684,844.400000004,23.291
1496336688,830.000000004,24.8088
1496336692,844.400000004,22.1648
1496336696,842.000000004,20.9887
1496336700,858.800000004,19.2461
1496336704,839.600000004,20.4196
1496336708,837.200000004,17.4336
1496336712,849.200000004,17.5631
1496336716,779.600000004,18.5538
1496336720,818.000000004,24.9137
1496336724,882.800000004,23.001
1496336728,834.800000004,20.104
1496336732,832.400000004,19.057
1496336736,832.400000004,21.2794
1496336740,856.400000004,20.1763
1496336744,837.200000004,22.6767
1496336748,815.600000004,24.7087
1496336752,801.200000004,27.0691
1496336756,851.600000004,25.1321
1496336760,830.000000004,23.617
1496336764,844.400000004,20.1452
1496336768,837.200000004,24.5572
1496336772,758.000000004,21.8266
1496336776,825.200000004,23.5053
1496336780,791.600000004,22.0791
1496336784,791.600000004,19.8039
1496336788,801.200000004,24.6102
1496336792,798.800000004,21.6914
1496336796,822.800000004,20.0643
1496336800,806.000000004,25.4918
1496336804,837.200000004,22.687
1496336808,803.600000004,21.6044
1496336812,822.800000004,24.8694
1496336816,808.400000004,22.8838
1496336820,748.400000004,22.7199
1496336824,863.600000004,24.1559
1496336828,774.800000004,23.3542
1496336832,796.400000004,24.5657
1496336836,755.600000004,21.257
1496336840,820.400000004,24.4314
1496336844,820.400000004,27.105
1496336848,772.400000004,23.8655
1496336852,830.000000004,17.9776
1496336856,753.200000004,20.4021
1496336860,856.400000004,20.3524
1496336864,779.600000004,21.2659
1496336868,794.000000004,20.0083
1496336872,719.600000004,20.4991
1496336876,810.800000004,21.406
1496336880,712.400000004,21.9443
1496336884,743.600000004,22.476
1496336888,753.200000004,23.653
1496336892,810.800000004,23.8404
1496336896,815.600000004,22.3218
1496336900,801.200000004,23.5764
1496336904,815.600000004,22.4256
1496336912,724.400000004,19.1746
1496336916,839.600000004,20.3547
1496336920,798.800000004,16.0159
1496336924,820.400000004,17.6265
1496336928,868.400000004,22.4411
1496336932,839.600000004,21.2988
1496336936,839.600000004,22.5365
1496336940,854.000000004,20.4565
1496336944,830.000000004,20.8827
1496336948,837.200000004,19.3344
1496336952,842.000000004,17.6485
1496336956,832.400000004,23.5614
1496336960,839.600000004,21.3592
1496336964,846.800000004,21.587
1496336968,849.200000004,19.8837
1496336972,825.200000004,18.6884
1496336976,849.200000004,20.6987
1496336980,837.200000004,17.2458
1496336984,844.400000004,18.8091
1496336988,818.000000004,21.4804
1496336992,837.200000004,19.5094
1496336996,837.200000004,21.5531
1496337000,825.200000004,20.3862
1496337004,839.600000004,18.4851
1496337008,839.600000004,20.6411
1496337012,794.000000004,22.786
1496337016,830.000000004,17.556
1496337020,810.800000004,20.3575
1496337024,844.400000004,19.2897
1496337028,815.600000004,22.1022
1496337032,822.800000004,25.2421
1496337036,791.600000004,21.9786
1496337040,830.000000004,19.5974
1496337044,801.200000004,24.6353
1496337048,834.800000004,22.8482
1496337052,854.000000004,22.7212
1496337056,846.800000004,21.8491
1496337060,830.000000004,18.7504
1496337064,825.200000004,20.4063
1496337068,825.200000004,18.4294
1496337072,839.600000004,23.1313
1496337076,873.200000004,23.254
1496337080,834.800000004,23.4949
1496337084,820.400000004,23.7472
1496337088,810.800000004,23.6911
1496337092,801.200000004,23.8689
1496337096,834.800000004,24.8686
1496337100,820.400000004,21.1735
1496337104,866.000000004,19.6462
1496337108,815.600000004,21.6998
1496337112,837.200000004,19.9762
1496337116,798.800000004,22.98
1496337120,842.000000004,17.4244
1496337124,837.200000004,21.597
1496337128,803.600000004,23.6002
1496337132,839.600000004,21.5758
1496337136,894.800000004,22.4224
1496337140,899.600000004,18.1641
1496337144,834.800000004,19.1176
1496337148,902.000000004,17.844
1496337152,851.600000004,20.8513
1496337156,854.000000004,25.0396
1496337164,849.200000004,18.2442
1496337168,856.400000004,20.5273
1496337172,813.200000004,24.4564
1496337176,882.800000004,26.1254
1496337184,854.000000004,19.2963
1496337188,810.800000004,24.8994
1496337192,820.400000004,22.6639
1496337196,825.200000004,18.495
1496337200,827.600000004,22.5442
1496337204,846.800000004,18.1663
1496337208,820.400000004,25.1424
1496337212,863.600000004,18.2592
1496337216,882.800000004,23.8566
1496337220,904.400000004,25.0699
1496337224,880.400000004,24.6812
1496337228,851.600000004,21.015
1496337232,899.600000004,23.8442
1496337236,789.200000004,21.9248
1496337240,856.400000004,21.131
1496337244,834.800000004,20.4666
1496337248,825.200000004,19.6315
1496337252,827.600000004,19.0235
1496337256,851.600000004,21.9911
1496337260,834.800000004,19.347
1496337264,782.000000004,20.1871
1496337268,801.200000004,18.4036
1496337272,777.200000004,15.4794
1496337276,818.000000004,17.7965
1496337280,834.800000004,19.8271
1496337284,806.000000004,17.8402
1496337288,798.800000004,20.06
1496337292,834.800000004,20.499
1496337296,854.000000004,22.0985
1496337300,832.400000004,22.1892
1496337304,842.000000004,22.1697
1496337308,822.800000004,14.8061
1496337312,866.000000004,16.4704
1496337316,820.400000004,17.4103
1496337320,837.200000004,20.8213
1496337324,837.200000004,21.2444
1496337328,719.600000004,18.8666
1496337332,717.200000004,22.4729
1496337336,700.400000004,25.7702
1496337340,755.600000004,17.9524
1496337344,748.400000004,21.4235
1496337348,724.400000004,23.5357
1496337352,714.800000004,27.3052
1496337356,741.200000004,20.5731
1496337360,717.200000004,22.1382
1496337364,760.400000004,20.4642
1496337368,810.800000004,21.9991
1496337372,779.600000004,21.19
1496337376,774.800000004,22.6411
1496337380,707.600000004,21.1964
1496337384,755.600000004,23.4577
1496337388,782.000000004,19.609
1496337392,702.800000004,20.2066
1496337396,700.400000004,22.0153
1496337400,671.600000004,21.3812
1496337404,695.600000004,24.9516
1496337408,650.000000004,22.4717
1496337412,669.200000004,22.6107
1496337416,681.200000004,14.9788
1496337420,695.600000004,19.1312
1496337424,626.000000004,12.7013
1496337428,606.800000004,20.3291
1496337432,669.200000004,23.5386
1496337436,659.600000004,25.1778
1496337440,654.800000004,21.4071
1496337444,626.000000004,21.5749
1496337448,664.400000004,21.4968
1496337452,693.200000004,22.4986
1496337456,666.800000004,21.2897
1496337460,623.600000004,24.4757
1496337464,681.200000004,21.1307
1496337468,650.000000004,19.9493
1496337472,666.800000004,21.2258
1496337476,695.600000004,18.2075
1496337480,669.200000004,23.9946
1496337484,662.000000004,25.0145
1496337488,676.400000004,22.7861
1496337492,681.200000004,19.8888
1496337496,674.000000004,21.1867
1496337500,678.800000004,21.3917
1496337504,666.800000004,20.6191
1496337508,669.200000004,18.5611
1496337512,657.200000004,20.3509
1496337516,683.600000004,21.6176
1496337520,693.200000004,20.7254
1496337524,712.400000004,23.4855
1496337528,690.800000004,21.8084
1496337532,702.800000004,25.911
1496337536,683.600000004,20.1684
1496337540,702.800000004,19.5027
1496337544,695.600000004,20.3738
1496337548,659.600000004,24.6903
1496337552,681.200000004,22.0543
1496337556,698.000000004,19.5194
1496337560,686.000000004,20.4978
1496337564,642.800000004,18.2458
1496337568,678.800000004,24.4375
1496337572,676.400000004,21.2238
1496337576,669.200000004,22.8016
1496337580,688.400000004,21.2744
1496337584,683.600000004,24.4491
1496337588,700.400000004,21.001
1496337592,700.400000004,19.0061
1496337596,688.400000004,22.0049
1496337600,662.000000004,22.0088
1496337604,664.400000004,22.1212
1496337608,666.800000004,20.7597
1496337612,633.200000004,20.8294
1496337616,645.200000004,22.276
1496337620,666.800000004,20.3043
1496337624,633.200000004,20.8238
1496337628,640.400000004,15.9924
1496337632,674.000000004,22.0333
1496337636,683.600000004,16.4285
1496337640,614.000000004,17.6397
1496337644,650.000000004,16.939
1496337648,626.000000004,18.6618
1496337652,676.400000004,13.9823
1496337656,669.200000004,18.5816
1496337660,678.800000004,19.4423
1496337664,626.000000004,20.3581
1496337668,705.200000004,20.8313
1496337672,676.400000004,22.5412
1496337676,681.200000004,18.5714
1496337680,669.200000004,22.2404
1496337684,676.400000004,19.6854
1496337688,681.200000004,21.6773
1496337692,614.000000004,24.1934
1496337696,669.200000004,19.5487
1496337700,674.000000004,25.0104
1496337704,688.400000004,23.4246
1496337708,669.200000004,20.1094
1496337712,623.600000004,19.0594
1496337716,688.400000004,21.1095
1496337720,626.000000004,19.0046
1496337724,662.000000004,25.3034
1496337728,616.400000004,18.4635
1496337732,674.000000004,23.2664
1496337736,604.400000004,23.8135
1496337740,678.800000004,21.9657
1496337744,669.200000004,24.4246
1496337748,664.400000004,20.4984
1496337752,686.000000004,20.4301
1496337756,618.800000004,19.9174
1496337760,657.200000004,22.567
1496337764,676.400000004,21.6772
1496337768,714.800000004,21.5213
1496337772,657.200000004,22.8061
1496337776,635.600000004,23.6815
1496337780,683.600000004,22.6005
1496337784,676.400000004,17.6739
1496337788,693.200000004,17.7799
1496337792,623.600000004,16.8959
1496337796,700.400000004,22.783
1496337800,659.600000004,21.3023
1496337804,683.600000004,16.4577
1496337808,645.200000004,24.1817
1496337812,640.400000004,19.7478
1496337816,686.000000004,18.9678
1496337820,686.000000004,22.0238
1496337824,707.600000004,22.585
1496337828,681.200000004,19.1543
1496337832,657.200000004,20.9662
1496337836,695.600000004,15.0654
1496337840,690.800000004,19.7746
1496337844,671.600000004,19.6853
1496337848,705.200000004,19.6341
1496337852,678.800000004,19.2843
1496337856,640.400000004,24.6495
1496337860,695.600000004,17.4908
1496337864,630.800000004,17.5778
1496337868,652.400000004,23.883
1496337872,662.000000004,21.5958
1496337876,671.600000004,22.0067
1496337880,702.800000004,28.7834
1496337884,664.400000004,19.8302
1496337888,702.800000004,20.8722
1496337892,594.800000004,24.0883
1496337896,693.200000004,23.1563
1496337900,686.000000004,24.877
1496337904,657.200000004,25.674
1496337908,681.200000004,19.1409
1496337912,657.200000004,22.8883
1496337916,683.600000004,16.9155
1496337920,669.200000004,18.6236
1496337924,621.200000004,18.5109
1496337928,640.400000004,15.3965
1496337932,626.000000004,20.3087
1496337936,602.000000004,16.3042
1496337940,681.200000004,17.7591
1496337944,659.600000004,18.5518
1496337948,686.000000004,20.5882
1496337952,630.800000004,19.2571
1496337956,676.400000004,19.8112
1496337960,635.600000004,18.3638
1496337964,669.200000004,21.2195
1496337968,654.800000004,17.4105
1496337972,662.000000004,17.1072
1496337976,659.600000004,22.4823
1496337980,683.600000004,19.1564
1496337984,678.800000004,18.7359
1496337988,645.200000004,22.5849
1496337992,683.600000004,22.913
1496337996,618.800000004,20.1686
1496338000,647.600000004,18.3302
1496338004,654.800000004,22.2652
1496338008,592.400000004,19.4373
1496338012,683.600000004,20.9797
1496338016,662.000000004,20.4365
1496338020,688.400000004,20.4903
1496338024,652.400000004,21.7604
1496338028,674.000000004,19.2187
1496338032,676.400000004,21.7359
1496338036,671.600000004,19.9943
1496338040,686.000000004,17.1171
1496338044,695.600000004,23.6007
1496338048,683.600000004,22.0033
1496338052,702.800000004,16.9013
1496338056,686.000000004,20.6984
1496338060,712.400000004,19.8987
1496338064,686.000000004,20.7888
1496338068,722.000000004,17.3937
1496338072,690.800000004,21.3001
1496338076,676.400000004,18.7806
1496338080,717.200000004,21.8709
1496338084,671.600000004,17.5922
1496338088,705.200000004,17.0523
1496338092,695.600000004,19.7392
1496338096,678.800000004,15.2158
1496338100,700.400000004,18.4931
1496338104,671.600000004,15.997
1496338108,700.400000004,18.3987
1496338112,669.200000004,16.1704
1496338116,710.000000004,19.7908
1496338120,645.200000004,17.1504
1496338124,676.400000004,19.991
1496338128,686.000000004,18.0407
1496338132,626.000000004,15.8428
1496338136,690.800000004,19.7299
1496338140,650.000000004,23.5888
1496338144,688.400000004,20.788
1496338148,712.400000004,21.3029
1496338152,654.800000004,18.8202
1496338156,710.000000004,20.9359
1496338160,717.200000004,19.5348
1496338164,767.600000004,23.1511
1496338168,746.000000004,19.5149
1496338172,789.200000004,21.39
1496338176,779.600000004,22.2893
1496338180,815.600000004,23.0194
1496338184,849.200000004,21.9366
1496338188,858.800000004,26.6934
1496338192,837.200000004,25.2852
1496338196,822.800000004,19.8032
1496338200,849.200000004,20.5559
1496338204,856.400000004,24.8107
1496338208,837.200000004,18.5733
1496338212,875.600000004,21.0351
1496338216,868.400000004,21.5487
1496338220,815.600000004,20.5108
1496338224,798.800000004,22.7328
1496338228,770.000000004,21.659
1496338232,801.200000004,20.6297
1496338236,810.800000004,23.4477
1496338240,863.600000004,26.0611
1496338244,822.800000004,19.9951
1496338248,791.600000004,21.857
1496338252,748.400000004,21.0123
1496338256,726.800000004,20.4627
1496338260,726.800000004,20.9953
1496338264,784.400000004,21.6807
1496338268,755.600000004,19.802
1496338272,786.800000004,18.7252
1496338276,834.800000004,22.0225
1496338280,796.400000004,18.02
1496338284,717.200000004,21.6097
1496338288,830.000000004,19.8095
1496338292,803.600000004,16.7242
1496338296,822.800000004,18.561
1496338300,813.200000004,17.5092
1496338304,794.000000004,19.4709
1496338308,827.600000004,18.3817
1496338312,794.000000004,19.3965
1496338316,794.000000004,20.7381
1496338320,741.200000004,20.1575
1496338324,710.000000004,20.4014
1496338328,702.800000004,22.602
1496338332,705.200000004,25.114
1496338336,671.600000004,22.9426
1496338340,702.800000004,23.1864
1496338344,688.400000004,22.8366
1496338348,726.800000004,19.9193
1496338352,712.400000004,16.6987
1496338356,700.400000004,20.6289
1496338360,714.800000004,21.7232
1496338364,671.600000004,18.8371
1496338368,657.200000004,17.7103
1496338372,659.600000004,19.7659
1496338376,714.800000004,18.332
1496338380,638.000000004,19.1708
1496338384,671.600000004,16.216
1496338388,654.800000004,19.2941
1496338392,654.800000004,22.6537
1496338396,671.600000004,18.2219
1496338400,681.200000004,21.0784
1496338404,659.600000004,22.2929
1496338408,609.200000004,23.7267
1496338412,618.800000004,19.7963
1496338416,626.000000004,20.0687
1496338420,623.600000004,21.2262
1496338424,681.200000004,18.4817
1496338428,604.400000004,16.4134
1496338432,710.000000004,24.3814
1496338436,614.000000004,20.3134
1496338440,618.800000004,21.1042
1496338444,654.800000004,23.8313
1496338448,609.200000004,21.4913
1496338452,662.000000004,20.2559
1496338456,662.000000004,15.1608
1496338460,678.800000004,24.9174
1496338464,652.400000004,23.6409
1496338468,666.800000004,19.7947
1496338472,702.800000004,20.7027
1496338476,676.400000004,16.5884
1496338480,702.800000004,21.1355
1496338484,710.000000004,17.7451
1496338488,676.400000004,21.2725
1496338492,652.400000004,16.7136
1496338496,638.000000004,21.4583
1496338500,712.400000004,24.672
1496338504,671.600000004,24.3637
1496338508,794.000000004,17.0737
1496338512,820.400000004,17.2961
1496338516,842.000000004,18.569
1496338520,842.000000004,17.1959
1496338524,810.800000004,18.4739
1496338528,854.000000004,15.1241
1496338532,782.000000004,19.102
1496338536,863.600000004,15.2833
1496338540,873.200000004,14.4246
1496338544,839.600000004,15.5006
1496338548,834.800000004,16.0893
1496338552,832.400000004,15.7309
1496338556,842.000000004,21.7977
1496338560,837.200000004,14.2556
1496338564,813.200000004,17.8515
1496338568,868.400000004,26.3113
1496338572,762.800000004,19.7931
1496338576,861.200000004,22.1843
1496338580,882.800000004,18.1589
1496338584,851.600000004,22.0337
1496338588,878.000000004,23.0942
1496338592,890.000000004,22.0921
1496338596,906.800000004,22.3717
1496338600,854.000000004,21.3021
1496338604,882.800000004,27.5399
1496338608,854.000000004,19.1486
1496338612,861.200000004,20.2811
1496338616,878.000000004,23.6439
1496338620,830.000000004,23.0823
1496338624,894.800000004,19.5532
1496338628,856.400000004,21.0995
1496338632,861.200000004,16.4726
1496338636,849.200000004,21.3162
1496338640,779.600000004,22.4545
1496338644,854.000000004,17.4625
1496338648,789.200000004,18.2599
1496338652,834.800000004,19.1351
1496338656,858.800000004,17.0468
1496338660,820.400000004,20.0621
1496338664,875.600000004,20.2614
1496338668,827.600000004,13.8132
1496338672,858.800000004,18.3407
1496338676,830.000000004,16.4729
1496338680,822.800000004,21.2456
1496338684,837.200000004,18.888
1496338688,830.000000004,20.7951
1496338692,834.800000004,17.7058
1496338696,837.200000004,20.317
1496338700,858.800000004,17.3329
1496338704,842.000000004,23.0578
1496338708,856.400000004,18.9613
1496338712,839.600000004,15.6222
1496338716,839.600000004,16.4581
1496338720,854.000000004,19.9899
1496338724,868.400000004,18.9428
1496338728,832.400000004,21.6463
1496338732,854.000000004,17.353
1496338736,832.400000004,21.5255
1496338740,851.600000004,22.2387
1496338744,806.000000004,19.328
1496338748,851.600000004,22.3197
1496338752,856.400000004,21.439
1496338756,851.600000004,20.1511
1496338760,825.200000004,20.8545
1496338764,854.000000004,23.2037
1496338768,830.000000004,19.9251
1496338772,885.200000004,19.8738
1496338776,861.200000004,19.1107
1496338780,916.400000004,19.257
1496338784,923.600000004,19.0461
1496338788,911.600000004,22.2012
1496338792,918.800000004,18.5704
1496338796,854.000000004,21.7693
1496338800,856.400000004,19.2705
1496338804,878.000000004,18.1724
1496338808,827.600000004,20.3457
1496338812,844.400000004,19.9856
1496338816,839.600000004,22.5581
1496338820,834.800000004,17.7458
1496338824,810.800000004,22.1464
1496338832,827.600000004,19.8284
1496338836,827.600000004,21.7305
1496338840,834.800000004,20.1534
1496338844,839.600000004,21.2225
1496338848,806.000000004,19.2007
1496338852,832.400000004,19.1657
1496338856,830.000000004,25.219
1496338860,801.200000004,24.4567
1496338864,842.000000004,20.5812
1496338868,832.400000004,23.3283
1496338872,856.400000004,22.5594
1496338876,808.400000004,20.1933
1496338880,832.400000004,24.3567
1496338884,844.400000004,23.4741
1496338888,830.000000004,17.7046
1496338892,820.400000004,22.3893
1496338896,794.000000004,20.4609
1496338900,822.800000004,20.4828
1496338904,796.400000004,21.7258
1496338908,842.000000004,19.9265
1496338912,820.400000004,18.3995
1496338916,808.400000004,17.8942
1496338920,839.600000004,20.1838
1496338924,779.600000004,19.9105
1496338928,743.600000004,19.799
1496338932,825.200000004,17.7412
1496338936,741.200000004,17.7474
1496338940,746.000000004,22.1832
1496338944,707.600000004,20.8841
1496338948,794.000000004,18.6102
1496338952,753.200000004,18.8427
1496338956,741.200000004,19.9444
1496338960,722.000000004,19.9382
1496338964,770.000000004,19.8394
1496338968,746.000000004,16.7609
1496338972,758.000000004,24.0163
1496338976,786.800000004,25.3531
1496338980,834.800000004,14.9948
1496338984,719.600000004,19.3964
1496338988,755.600000004,18.7648
1496338992,796.400000004,22.5616
1496338996,813.200000004,18.517
1496339000,830.000000004,17.7657
1496339004,839.600000004,20.2551
1496339008,815.600000004,16.7582
1496339012,738.800000004,22.5058
1496339016,839.600000004,19.9041
1496339020,810.800000004,18.3559
1496339024,798.800000004,19.9946
1496339028,803.600000004,22.1521
1496339032,830.000000004,22.6361
1496339036,803.600000004,20.1676
1496339040,842.000000004,17.4206
1496339044,779.600000004,21.0868
1496339048,774.800000004,23.6516
1496339052,837.200000004,20.6146
1496339056,770.000000004,21.3257
1496339060,765.200000004,20.648
1496339064,842.000000004,19.4297
1496339068,808.400000004,20.0541
1496339072,820.400000004,17.0022
1496339076,844.400000004,19.5369
1496339080,784.400000004,21.5548
1496339084,873.200000004,19.5673
1496339088,810.800000004,23.3424
1496339092,851.600000004,20.8321
1496339096,827.600000004,20.2944
1496339100,837.200000004,24.131
1496339104,844.400000004,24.351
1496339108,854.000000004,20.1448
1496339112,837.200000004,17.4684
1496339116,832.400000004,20.4661
1496339124,839.600000004,20.3289
1496339128,851.600000004,22.8104
1496339132,846.800000004,22.569
1496339136,878.000000004,21.776
1496339140,837.200000004,23.1981
1496339144,825.200000004,26.7192
1496339148,818.000000004,22.6894
1496339152,846.800000004,25.6499
1496339156,796.400000004,21.8869
1496339160,839.600000004,22.2607
1496339164,839.600000004,21.0919
1496339168,851.600000004,20.3327
1496339172,866.000000004,23.2754
1496339176,854.000000004,19.9987
1496339180,880.400000004,22.5096
1496339184,878.000000004,20.8173
1496339188,882.800000004,27.5856
1496339192,921.200000004,22.5054
1496339196,846.800000004,22.8692
1496339200,844.400000004,21.2425
1496339204,861.200000004,21.3022
1496339208,842.000000004,17.8874
1496339212,839.600000004,19.6893
1496339216,844.400000004,18.2115
1496339220,801.200000004,19.6854
1496339224,772.400000004,24.0248
1496339228,786.800000004,22.4375
1496339232,743.600000004,19.4022
1496339236,755.600000004,25.1013
1496339240,837.200000004,18.1746
1496339244,772.400000004,20.0507
1496339248,758.000000004,19.791
1496339252,758.000000004,22.5145
1496339256,794.000000004,20.7241
1496339260,738.800000004,19.1428
1496339264,762.800000004,20.5808
1496339268,806.000000004,18.433
1496339272,801.200000004,22.4838
1496339276,820.400000004,21.1671
1496339280,796.400000004,23.3987
1496339284,837.200000004,21.0392
1496339288,813.200000004,21.2456
1496339292,750.800000004,22.5108
1496339296,794.000000004,24.9067
1496339300,753.200000004,21.8594
1496339304,803.600000004,25.8486
1496339308,794.000000004,22.89
1496339312,774.800000004,20.4693
1496339316,798.800000004,20.0879
1496339320,830.000000004,23.2976
1496339324,830.000000004,26.48
1496339328,837.200000004,20.7033
1496339332,822.800000004,23.432
1496339336,820.400000004,20.246
1496339340,846.800000004,23.742
1496339344,873.200000004,19.9362
1496339348,827.600000004,20.5552
1496339352,813.200000004,18.8392
1496339356,827.600000004,17.3923
1496339360,839.600000004,22.3636
1496339364,911.600000004,20.9994
1496339368,818.000000004,21.178
1496339372,844.400000004,22.1613
1496339376,839.600000004,18.1548
1496339380,801.200000004,21.453
1496339384,861.200000004,23.0763
1496339388,827.600000004,23.1269
1496339392,818.000000004,22.1871
1496339396,801.200000004,19.7026
1496339400,784.400000004,23.8455
1496339404,813.200000004,20.2715
1496339408,815.600000004,20.3006
1496339412,818.000000004,21.1981
1496339416,798.800000004,19.1158
1496339420,863.600000004,22.0266
1496339424,866.000000004,28.6214
1496339428,839.600000004,18.362
1496339432,854.000000004,21.9523
1496339436,844.400000004,24.0725
1496339440,851.600000004,22.4915
1496339444,774.800000004,19.5868
1496339448,820.400000004,26.3445
1496339452,801.200000004,17.9779
1496339456,825.200000004,19.3164
1496339460,825.200000004,22.7319
1496339464,786.800000004,21.3591
1496339468,849.200000004,23.8136
1496339472,822.800000004,19.5188
1496339476,899.600000004,19.0011
1496339480,863.600000004,20.3579
1496339484,844.400000004,22.7999
1496339488,861.200000004,23.5093
1496339492,854.000000004,21.1962
1496339496,899.600000004,25.3072
1496339500,808.400000004,23.1435
1496339504,830.000000004,23.3771
1496339508,801.200000004,23.8684
1496339512,856.400000004,24.6856
1496339516,801.200000004,22.7128
1496339520,849.200000004,20.8784
1496339524,842.000000004,27.3035
1496339528,813.200000004,26.6151
1496339532,926.000000004,26.14
1496339536,894.800000004,19.4242
1496339540,844.400000004,20.6534
1496339544,875.600000004,20.8765
1496339548,885.200000004,21.4518
1496339552,873.200000004,24.4528
