tag_number,delay,power_est
1491849500,22.0000000005,12.8635
1491849502,41.2000000005,10.964
1491849504,74.8000000004999,9.00126
1491849506,94.0000000005,9.25432
1491849508,127.6000000005,8.78181
1491849510,144.4000000005,9.38043
1491849512,53.2000000005,11.1566
1491849514,55.6000000005,8.14273
1491849516,130.0000000005,10.2499
1491849518,144.4000000005,11.5851
1491849520,89.2000000005,7.72459
1491849522,62.8000000004999,8.72596
1491849524,38.8000000004999,8.47065
1491849526,74.8000000004999,9.45507
1491849528,79.6000000005,8.92816
1491849530,58.0000000005,8.14134
1491849532,65.2000000005,9.93966
1491849534,84.4000000005,6.95097
1491849536,67.6000000005,8.90839
1491849538,60.4000000005,7.3201
1491849540,103.6000000005,9.24416
1491849542,43.6000000005,10.2566
1491849544,132.4000000005,8.92255
1491849546,58.0000000005,5.96294
1491849548,77.2000000005,10.7844
1491849550,132.4000000005,12.1394
1491849552,67.6000000005,9.91296
1491849554,96.4000000005,8.97795
1491849556,74.8000000004999,9.71083
1491849558,108.4000000005,9.19994
1491849560,77.2000000005,9.95841
1491849562,89.2000000005,9.72712
1491849564,79.6000000005,9.77232
1491849566,58.0000000005,10.1737
1491849568,70.0000000005,9.91822
1491849570,96.4000000005,7.42917
1491849572,96.4000000005,9.53047
1491849574,50.8000000004999,8.2713
1491849576,55.6000000005,8.71739
1491849578,41.2000000005,10.371
1491849580,103.6000000005,8.80667
1491849582,77.2000000005,8.59202
1491849584,60.4000000005,8.15129
1491849586,36.4000000005,8.4673
1491849588,17.2000000005,6.5933
1491849590,43.6000000005,7.78977
1491849592,77.2000000005,9.23165
1491849594,24.4000000005,8.95438
1491849596,62.8000000004999,6.0119
1491849598,14.8000000004999,6.27678
1491849600,29.2000000005,8.95089
1491849602,29.2000000005,9.59734
1491849604,-16.3999999995,7.08335
1491849606,58.0000000005,8.68808
1491849608,12.4000000005,10.5509
1491849610,-6.79999999949996,9.20838
1491849612,41.2000000005,7.47801
1491849614,19.6000000005,13.0817
1491849616,-4.39999999949998,12.4446
1491849618,2.80000000049995,10.2262
1491849620,-1.99999999950001,10.78
1491849622,62.8000000004999,11.17
1491849624,5.20000000050004,10.6167
1491849626,29.2000000005,9.36633
1491849628,-9.19999999950005,9.08204
1491849630,5.20000000050004,9.75717
1491849632,-6.79999999949996,10.3422
1491849634,17.2000000005,12.3993
1491849636,24.4000000005,9.17938
1491849638,-18.7999999995,10.9612
1491849640,58.0000000005,10.3341
1491849642,0.400000000499972,9.16233
1491849644,77.2000000005,8.71937
1491849646,67.6000000005,7.8376
1491849648,-9.19999999950005,10.1517
1491849650,122.8000000005,10.831
1491849652,17.2000000005,11.7475
1491849654,43.6000000005,12.1959
1491849656,120.4000000005,10.7675
1491849658,86.8000000004999,9.32396
1491849660,120.4000000005,10.6056
1491849662,77.2000000005,8.67953
1491849664,74.8000000004999,9.16244
1491849666,122.8000000005,9.87559
1491849668,72.4000000005,8.24516
1491849670,134.8000000005,10.6221
1491849672,86.8000000004999,10.5826
1491849674,62.8000000004999,13.2665
1491849676,103.6000000005,13.2761
1491849678,60.4000000005,12.626
1491849680,67.6000000005,10.102
1491849682,127.6000000005,8.17806
1491849684,34.0000000005,7.17721
1491849686,74.8000000004999,9.85041
1491849688,79.6000000005,8.84791
1491849690,29.2000000005,8.01848
1491849692,58.0000000005,10.2173
1491849694,34.0000000005,8.52741
1491849696,82.0000000005,8.01015
1491849698,62.8000000004999,9.50424
1491849700,26.8000000004999,9.65971
1491849702,62.8000000004999,9.33093
1491849704,53.2000000005,10.1621
1491849706,17.2000000005,13.1388
1491849708,134.8000000005,11.1527
1491849710,10.0000000005,7.78168
1491849712,38.8000000004999,5.40811
1491849714,5.20000000050004,8.7182
1491849716,17.2000000005,9.31203
1491849718,48.4000000005,10.5708
1491849720,43.6000000005,10.72
1491849722,48.4000000005,9.5579
1491849724,84.4000000005,9.69225
1491849726,74.8000000004999,8.78355
1491849728,14.8000000004999,11.6108
1491849730,-6.79999999949996,12.7222
1491849732,-6.79999999949996,10.4264
1491849734,34.0000000005,11.0998
1491849736,89.2000000005,9.44085
1491849738,58.0000000005,12.3289
1491849740,98.8000000004999,11.7271
1491849742,82.0000000005,11.597
1491849744,0.400000000499972,10.718
1491849746,24.4000000005,11.8617
1491849748,-16.3999999995,10.4049
1491849750,70.0000000005,9.54099
1491849752,70.0000000005,9.94123
1491849754,50.8000000004999,12.1602
1491849756,62.8000000004999,5.84241
1491849758,46.0000000005,5.50079
1491849760,101.2000000005,9.4935
1491849762,96.4000000005,9.87124
1491849764,72.4000000005,7.78064
1491849766,120.4000000005,9.85404
1491849768,84.4000000005,9.07328
1491849770,67.6000000005,9.61377
1491849772,55.6000000005,10.1696
1491849774,65.2000000005,10.0008
1491849776,74.8000000004999,9.17837
1491849778,91.6000000005,9.7901
1491849780,72.4000000005,9.43894
1491849782,106.0000000005,8.60799
1491849784,7.60000000050002,9.11944
1491849786,55.6000000005,10.1637
1491849788,41.2000000005,7.7848
1491849790,19.6000000005,9.44575
1491849792,120.4000000005,9.90566
1491849794,70.0000000005,11.0904
1491849796,17.2000000005,9.98692
1491849798,22.0000000005,10.2141
1491849800,60.4000000005,10.8251
1491849802,67.6000000005,12.8387
1491849804,79.6000000005,11.1637
1491849806,19.6000000005,13.1685
1491849808,60.4000000005,11.5527
1491849810,82.0000000005,11.3263
1491849812,26.8000000004999,13.5632
1491849814,43.6000000005,7.78344
1491849816,31.6000000005,8.19001
1491849818,72.4000000005,7.4827
1491849820,72.4000000005,9.82906
1491849822,84.4000000005,10.9355
1491849824,98.8000000004999,6.927
1491849826,43.6000000005,10.9157
1491849828,108.4000000005,9.45909
1491849830,146.8000000005,9.5726
1491849832,38.8000000004999,5.08948
1491849834,84.4000000005,6.46912
1491849836,50.8000000004999,5.33846
1491849838,46.0000000005,5.37295
1491849840,55.6000000005,7.62409
1491849842,2.80000000049995,7.60999
1491849844,115.6000000005,6.68025
1491849846,55.6000000005,7.22039
1491849848,-4.39999999949998,7.78836
1491849850,86.8000000004999,8.00417
1491849852,24.4000000005,8.95031
1491849854,43.6000000005,8.56981
1491849856,62.8000000004999,9.55524
1491849858,84.4000000005,8.23157
1491849860,70.0000000005,9.64794
1491849862,12.4000000005,10.2757
1491849864,12.4000000005,10.396
1491849866,72.4000000005,8.39767
1491849868,-9.19999999950005,9.84275
1491849870,50.8000000004999,8.1783
1491849872,-13.9999999995,7.41181
1491849874,-4.39999999949998,8.70605
1491849876,55.6000000005,8.75905
1491849878,38.8000000004999,7.21668
1491849880,-13.9999999995,7.82452
1491849882,12.4000000005,7.77975
1491849884,2.80000000049995,6.22681
1491849886,10.0000000005,9.51102
1491849888,17.2000000005,7.0615
1491849890,0.400000000499972,8.38181
1491849892,-4.39999999949998,9.72244
1491849894,-1.99999999950001,9.49798
1491849896,-1.99999999950001,12.6982
1491849898,43.6000000005,11.9385
1491849900,-18.7999999995,12.6397
1491849902,53.2000000005,11.5439
1491849904,7.60000000050002,11.6143
1491849906,2.80000000049995,11.6207
1491849908,43.6000000005,11.1599
1491849910,-54.7999999995,7.04946
1491849912,-11.5999999995,8.27648
1491849914,-4.39999999949998,8.98703
1491849916,-23.5999999995,10.6721
1491849918,12.4000000005,9.25607
1491849920,-9.19999999950005,8.83395
1491849922,-30.7999999995,10.1096
1491849924,10.0000000005,10.6507
1491849926,7.60000000050002,10.9193
1491849928,14.8000000004999,7.43666
1491849930,53.2000000005,6.36311
1491849932,-11.5999999995,8.38551
1491849934,-23.5999999995,9.63428
1491849936,-13.9999999995,7.46042
1491849938,55.6000000005,7.69381
1491849940,-11.5999999995,8.44277
1491849942,14.8000000004999,6.79649
1491849944,2.80000000049995,9.1819
1491849946,-6.79999999949996,7.74335
1491849948,22.0000000005,9.57903
1491849950,-1.99999999950001,12.2454
1491849952,-25.9999999995,8.91465
1491849954,17.2000000005,4.70476
1491849956,22.0000000005,5.06811
1491849958,-9.19999999950005,8.09462
1491849960,-18.7999999995,6.01165
1491849962,-1.99999999950001,9.16523
1491849964,-4.39999999949998,7.66576
1491849966,22.0000000005,10.5957
1491849968,19.6000000005,10.4331
1491849970,34.0000000005,9.2895
1491849972,53.2000000005,10.0054
1491849974,31.6000000005,11.5523
1491849976,29.2000000005,9.19314
1491849978,46.0000000005,8.00957
1491849980,10.0000000005,7.98971
1491849982,48.4000000005,6.16765
1491849984,-16.3999999995,7.69402
1491849986,34.0000000005,7.25559
1491849988,31.6000000005,7.30942
1491849990,0.400000000499972,7.82091
1491849992,-4.39999999949998,8.67931
1491849994,17.2000000005,8.65455
1491849996,-37.9999999995,9.61066
1491849998,-6.79999999949996,8.46162
1491850000,79.6000000005,6.76252
1491850002,-6.79999999949996,8.687
1491850004,43.6000000005,11.7398
1491850006,7.60000000050002,8.97761
1491850008,50.8000000004999,10.0554
1491850010,-11.5999999995,10.7276
1491850012,-1.99999999950001,10.5562
1491850014,7.60000000050002,9.1581
1491850016,62.8000000004999,10.3385
1491850018,-16.3999999995,9.83133
1491850020,53.2000000005,9.28636
1491850022,67.6000000005,9.00383
1491850024,60.4000000005,10.4693
1491850026,46.0000000005,10.6164
1491850028,50.8000000004999,10.4333
1491850030,-6.79999999949996,11.621
1491850032,12.4000000005,11.1143
1491850034,0.400000000499972,9.40447
1491850036,62.8000000004999,10.5415
1491850038,19.6000000005,10.2888
1491850040,43.6000000005,8.89013
1491850042,70.0000000005,8.42639
1491850044,38.8000000004999,9.69307
1491850046,19.6000000005,8.30754
1491850048,50.8000000004999,7.18769
1491850050,12.4000000005,8.89393
1491850052,55.6000000005,8.9272
1491850054,48.4000000005,7.76888
1491850056,-13.9999999995,9.80522
1491850058,7.60000000050002,10.168
1491850060,50.8000000004999,8.99635
1491850062,12.4000000005,9.74285
1491850064,58.0000000005,8.50122
1491850066,-6.79999999949996,8.84433
1491850068,2.80000000049995,9.86057
1491850070,14.8000000004999,8.47357
1491850072,82.0000000005,7.91521
1491850074,41.2000000005,7.40585
1491850076,2.80000000049995,5.48006
1491850078,-6.79999999949996,4.64879
1491850080,14.8000000004999,8.42583
1491850082,29.2000000005,10.0272
1491850084,70.0000000005,10.1624
1491850086,22.0000000005,7.05949
1491850088,0.400000000499972,10.0986
1491850090,41.2000000005,12.7768
1491850092,53.2000000005,13.8841
1491850094,60.4000000005,9.35955
1491850096,41.2000000005,11.9989
1491850098,19.6000000005,12.3285
1491850100,58.0000000005,11.7542
1491850102,14.8000000004999,11.0043
1491850104,58.0000000005,6.33453
1491850106,5.20000000050004,8.62829
1491850108,38.8000000004999,6.75708
1491850110,7.60000000050002,8.75858
1491850112,48.4000000005,7.3445
1491850114,67.6000000005,5.3103
1491850116,29.2000000005,7.29044
1491850118,7.60000000050002,9.78396
1491850120,12.4000000005,8.70899
1491850122,-37.9999999995,9.00945
1491850124,10.0000000005,10.1835
1491850126,26.8000000004999,7.80873
1491850128,-4.39999999949998,9.21493
1491850130,67.6000000005,9.98699
1491850132,89.2000000005,11.4905
1491850134,5.20000000050004,10.4998
1491850136,53.2000000005,11.5909
1491850138,2.80000000049995,9.98646
1491850140,65.2000000005,9.51009
1491850142,26.8000000004999,10.0668
1491850144,5.20000000050004,8.98765
1491850146,46.0000000005,8.30476
1491850148,10.0000000005,12.3233
1491850150,2.80000000049995,11.6518
1491850152,84.4000000005,11.2657
1491850154,24.4000000005,12.9767
1491850156,55.6000000005,11.3198
1491850158,34.0000000005,11.2478
1491850160,58.0000000005,12.4784
1491850162,24.4000000005,11.8251
1491850164,62.8000000004999,11.8581
1491850166,70.0000000005,11.9861
1491850168,91.6000000005,10.8116
1491850170,53.2000000005,10.9665
1491850172,72.4000000005,11.3283
1491850174,22.0000000005,11.9172
1491850176,36.4000000005,13.657
1491850178,108.4000000005,11.853
1491850180,86.8000000004999,11.0345
1491850182,31.6000000005,10.7818
1491850184,34.0000000005,13.6521
1491850186,0.400000000499972,12.0646
1491850188,53.2000000005,11.6151
1491850190,-6.79999999949996,11.4896
1491850192,36.4000000005,11.4232
1491850194,24.4000000005,8.12292
1491850196,17.2000000005,10.2846
1491850198,22.0000000005,8.6984
1491850200,10.0000000005,7.58132
1491850202,48.4000000005,7.91576
1491850204,130.0000000005,10.0874
1491850206,77.2000000005,8.2504
1491850208,7.60000000050002,8.93245
1491850210,34.0000000005,9.13199
1491850212,-16.3999999995,9.74832
1491850214,77.2000000005,6.86678
1491850216,17.2000000005,8.43252
1491850218,19.6000000005,9.07601
1491850220,70.0000000005,10.5073
1491850222,55.6000000005,9.34944
1491850224,43.6000000005,11.2556
1491850226,60.4000000005,9.05298
1491850228,53.2000000005,9.41071
1491850230,62.8000000004999,9.54206
1491850232,67.6000000005,10.5891
1491850234,38.8000000004999,9.73741
1491850236,122.8000000005,12.762
1491850238,67.6000000005,12.7037
1491850240,96.4000000005,8.88393
1491850242,98.8000000004999,10.4787
1491850244,72.4000000005,10.5844
1491850246,77.2000000005,9.60299
1491850248,106.0000000005,8.68251
1491850250,77.2000000005,9.61201
1491850252,120.4000000005,8.99316
1491850254,58.0000000005,7.72759
1491850256,7.60000000050002,8.32068
1491850258,70.0000000005,7.99233
1491850260,106.0000000005,7.71431
1491850262,142.0000000005,8.48545
1491850264,50.8000000004999,10.3091
1491850266,62.8000000004999,8.92443
1491850268,115.6000000005,9.4639
1491850270,67.6000000005,10.6349
1491850272,101.2000000005,11.4877
1491850274,84.4000000005,10.8902
1491850276,62.8000000004999,10.6667
1491850278,58.0000000005,10.9689
1491850280,77.2000000005,9.68713
1491850282,84.4000000005,7.86288
1491850284,17.2000000005,8.96885
1491850286,19.6000000005,9.74047
1491850288,101.2000000005,9.15906
1491850290,91.6000000005,9.98656
1491850292,17.2000000005,9.96772
1491850294,77.2000000005,9.77623
1491850296,22.0000000005,9.55935
1491850298,62.8000000004999,11.3725
1491850300,120.4000000005,12.5941
1491850302,98.8000000004999,14.506
1491850304,108.4000000005,13.8746
1491850306,60.4000000005,9.34127
1491850308,60.4000000005,6.34059
1491850310,84.4000000005,9.2041
1491850312,38.8000000004999,10.8273
1491850314,113.2000000005,9.78108
1491850316,149.2000000005,11.8623
1491850318,22.0000000005,12.2254
1491850320,103.6000000005,12.7067
1491850322,46.0000000005,10.458
1491850324,96.4000000005,11.2092
1491850326,86.8000000004999,10.0733
1491850328,74.8000000004999,11.368
1491850330,72.4000000005,7.50224
1491850332,72.4000000005,10.6931
1491850334,144.4000000005,11.506
1491850336,151.6000000005,8.78927
1491850338,106.0000000005,6.74157
1491850340,91.6000000005,8.85216
1491850342,108.4000000005,9.12545
1491850344,36.4000000005,9.8313
1491850346,74.8000000004999,9.05091
1491850348,74.8000000004999,9.39674
1491850350,14.8000000004999,7.53714
1491850352,163.6000000005,7.00984
1491850354,67.6000000005,8.92789
1491850356,106.0000000005,10.2769
1491850358,122.8000000005,8.97089
1491850360,19.6000000005,6.50773
1491850362,89.2000000005,7.64671
1491850364,82.0000000005,6.51496
1491850366,60.4000000005,7.48108
1491850368,98.8000000004999,9.1557
1491850370,89.2000000005,7.57369
1491850372,103.6000000005,7.52277
1491850374,137.2000000005,4.92422
1491850376,58.0000000005,9.16853
1491850378,137.2000000005,8.60064
1491850380,77.2000000005,11.2156
1491850382,125.2000000005,10.2676
1491850384,103.6000000005,12.8015
1491850386,58.0000000005,10.6235
1491850388,82.0000000005,11.3065
1491850390,144.4000000005,9.34536
1491850392,70.0000000005,8.38209
1491850394,79.6000000005,3.86734
1491850396,134.8000000005,2.78483
1491850398,60.4000000005,7.76504
1491850400,134.8000000005,10.8696
1491850402,118.0000000005,9.00343
1491850404,31.6000000005,7.11485
1491850406,82.0000000005,5.17253
1491850410,48.4000000005,11.2494
1491850412,91.6000000005,7.71128
1491850414,34.0000000005,9.42261
1491850416,118.0000000005,10.1153
1491850418,36.4000000005,9.94152
1491850420,19.6000000005,11.8608
1491850422,34.0000000005,9.84683
1491850424,43.6000000005,8.93368
1491850426,137.2000000005,8.88331
1491850428,82.0000000005,10.7951
1491850430,65.2000000005,11.4539
1491850432,50.8000000004999,12.1652
1491850434,12.4000000005,7.92128
1491850436,22.0000000005,6.80282
1491850438,84.4000000005,8.36745
1491850440,65.2000000005,6.72845
1491850442,53.2000000005,8.72142
1491850444,84.4000000005,10.4336
1491850446,77.2000000005,10.1168
1491850448,55.6000000005,9.03528
1491850450,55.6000000005,9.45518
1491850452,41.2000000005,10.3711
1491850454,53.2000000005,9.09777
1491850456,82.0000000005,8.87374
1491850458,7.60000000050002,8.37563
1491850462,46.0000000005,8.93387
1491850464,22.0000000005,9.4951
1491850466,-21.1999999994999,8.67126
1491850468,0.400000000499972,8.83746
1491850470,-23.5999999995,9.44636
1491850472,14.8000000004999,8.5032
1491850474,70.0000000005,8.77869
1491850476,-11.5999999995,10.689
1491850478,-4.39999999949998,5.56428
1491850480,0.400000000499972,11.6312
1491850482,50.8000000004999,11.3799
1491850484,5.20000000050004,9.7132
1491850486,58.0000000005,9.76607
1491850488,60.4000000005,9.67142
1491850490,34.0000000005,8.70444
1491850492,-16.3999999995,7.40427
1491850494,22.0000000005,8.53062
1491850496,-4.39999999949998,11.0182
1491850498,65.2000000005,9.43863
1491850500,46.0000000005,10.4498
1491850502,-16.3999999995,11.4715
1491850504,10.0000000005,8.94376
1491850506,2.80000000049995,5.97624
1491850508,-4.39999999949998,5.80397
1491850510,5.20000000050004,7.87797
1491850512,-18.7999999995,7.29606
1491850514,0.400000000499972,8.98019
1491850516,77.2000000005,8.54075
1491850518,70.0000000005,8.8231
1491850520,55.6000000005,11.0132
1491850522,50.8000000004999,9.64289
1491850524,2.80000000049995,9.24004
1491850526,79.6000000005,10.282
1491850528,17.2000000005,11.2282
1491850530,5.20000000050004,10.0703
1491850532,19.6000000005,7.75562
1491850534,12.4000000005,10.2893
1491850536,-4.39999999949998,9.38321
1491850538,118.0000000005,9.18632
1491850540,65.2000000005,10.8574
1491850542,77.2000000005,8.31412
1491850544,14.8000000004999,10.6071
1491850546,36.4000000005,10.9223
1491850548,77.2000000005,5.18392
1491850550,7.60000000050002,7.8863
1491850552,48.4000000005,9.74383
1491850554,113.2000000005,8.61222
1491850556,-11.5999999995,9.1099
1491850558,46.0000000005,10.0859
1491850560,74.8000000004999,10.9837
1491850562,86.8000000004999,9.58316
1491850564,72.4000000005,12.7631
1491850566,19.6000000005,10.1355
1491850568,26.8000000004999,11.467
1491850570,55.6000000005,11.7293
1491850572,-16.3999999995,5.94074
1491850574,2.80000000049995,10.9191
1491850576,55.6000000005,10.2739
1491850578,-18.7999999995,11.344
1491850580,89.2000000005,6.82453
1491850582,70.0000000005,8.93462
1491850584,5.20000000050004,8.81842
1491850586,-4.39999999949998,9.61965
1491850588,-13.9999999995,8.56947
1491850590,-11.5999999995,9.97079
1491850592,0.400000000499972,11.8974
1491850594,7.60000000050002,11.4094
1491850596,58.0000000005,8.35344
1491850598,60.4000000005,10.4361
1491850600,-16.3999999995,10.0098
1491850602,17.2000000005,12.3252
1491850604,-49.9999999995,8.47305
1491850606,-69.1999999995,8.78403
1491850608,0.400000000499972,6.11144
1491850610,-16.3999999995,8.95165
1491850612,-11.5999999995,10.7996
1491850614,-4.39999999949998,10.4965
1491850616,-11.5999999995,6.69973
1491850618,2.80000000049995,8.37458
1491850620,-23.5999999995,8.63573
1491850622,-6.79999999949996,10.409
1491850624,0.400000000499972,8.67243
1491850626,-4.39999999949998,8.9903
1491850628,5.20000000050004,7.58229
1491850630,-1.99999999950001,4.77297
1491850632,-18.7999999995,4.09432
1491850634,43.6000000005,3.67971
1491850636,77.2000000005,5.04953
1491850638,62.8000000004999,6.8175
1491850640,72.4000000005,6.15901
1491850642,-1.99999999950001,7.18099
1491850644,19.6000000005,9.48864
1491850646,77.2000000005,8.90545
1491850648,31.6000000005,11.3102
1491850650,98.8000000004999,11.864
1491850652,22.0000000005,8.77505
1491850654,101.2000000005,10.8699
1491850656,41.2000000005,11.7134
1491850658,62.8000000004999,9.70664
1491850660,86.8000000004999,10.4037
1491850662,58.0000000005,10.0857
1491850664,72.4000000005,12.8392
1491850666,94.0000000005,8.84684
1491850668,17.2000000005,10.8719
1491850670,60.4000000005,11.6546
1491850672,53.2000000005,11.1967
1491850674,58.0000000005,10.0268
1491850676,67.6000000005,10.4099
1491850678,77.2000000005,10.4244
1491850680,58.0000000005,7.58172
1491850682,-4.39999999949998,9.33608
1491850684,60.4000000005,8.33218
1491850686,29.2000000005,6.00293
1491850688,118.0000000005,8.08818
1491850690,36.4000000005,10.482
1491850692,94.0000000005,9.81946
1491850694,70.0000000005,11.0792
1491850696,142.0000000005,11.9609
1491850698,161.2000000005,9.71797
1491850700,214.0000000005,9.97843
1491850702,214.0000000005,13.8992
1491850704,300.4000000005,13.9492
1491850706,322.0000000005,12.7697
1491850708,290.8000000005,12.6443
1491850710,271.6000000005,13.7282
1491850712,187.6000000005,12.1359
1491850714,206.8000000005,10.488
1491850716,214.0000000005,10.143
1491850718,230.8000000005,9.68331
1491850720,228.4000000005,9.10666
1491850722,182.8000000005,9.78515
1491850724,197.2000000005,9.45516
1491850726,192.4000000005,10.5306
1491850728,146.8000000005,8.26915
1491850730,163.6000000005,6.18955
1491850732,209.2000000005,10.3275
1491850734,166.0000000005,12.004
1491850736,228.4000000005,11.6419
1491850738,218.8000000005,13.9911
1491850740,144.4000000005,12.1528
1491850742,137.2000000005,13.7432
1491850744,146.8000000005,10.569
1491850746,142.0000000005,10.1552
1491850748,163.6000000005,12.0068
1491850750,180.4000000005,8.71395
1491850752,142.0000000005,9.68952
1491850754,170.8000000005,9.59621
1491850756,144.4000000005,12.5079
1491850758,178.0000000005,10.0547
1491850760,235.6000000005,10.9593
1491850762,132.4000000005,11.8079
1491850764,146.8000000005,9.52395
1491850766,94.0000000005,8.91294
1491850768,144.4000000005,8.26426
1491850770,120.4000000005,7.57011
1491850772,113.2000000005,8.15616
1491850774,115.6000000005,9.98329
1491850776,82.0000000005,10.5272
1491850778,72.4000000005,10.9492
1491850780,84.4000000005,8.8409
1491850782,41.2000000005,9.39527
1491850784,60.4000000005,9.90343
1491850786,74.8000000004999,7.97445
1491850788,70.0000000005,8.36245
1491850790,22.0000000005,10.2442
1491850792,134.8000000005,8.51851
1491850794,74.8000000004999,7.78245
1491850796,72.4000000005,10.1272
1491850798,77.2000000005,11.8481
1491850800,41.2000000005,8.04914
1491850802,74.8000000004999,7.60068
1491850804,2.80000000049995,9.68455
1491850806,-9.19999999950005,7.56672
1491850808,50.8000000004999,7.77886
1491850810,60.4000000005,6.78398
1491850812,-1.99999999950001,9.04803
1491850814,34.0000000005,6.98797
1491850816,-28.3999999995,8.29013
1491850818,19.6000000005,9.73171
1491850820,31.6000000005,10.3121
1491850822,-23.5999999995,9.80819
1491850824,26.8000000004999,10.2832
1491850826,-4.39999999949998,11.9612
1491850828,-30.7999999995,9.74707
1491850830,0.400000000499972,12.0831
1491850832,-4.39999999949998,11.9824
1491850834,43.6000000005,7.54358
1491850836,-1.99999999950001,10.1811
1491850838,-25.9999999995,9.58978
1491850840,-21.1999999994999,11.477
1491850842,74.8000000004999,6.89906
1491850844,-6.79999999949996,9.11822
1491850846,17.2000000005,8.68905
1491850848,10.0000000005,9.24899
1491850850,53.2000000005,11.7871
1491850852,22.0000000005,9.98927
1491850854,70.0000000005,7.35418
1491850856,65.2000000005,7.16813
1491850858,5.20000000050004,6.22589
1491850860,48.4000000005,4.86159
1491850862,72.4000000005,7.23094
1491850864,82.0000000005,8.84459
1491850866,55.6000000005,7.9839
1491850868,72.4000000005,9.39196
1491850870,17.2000000005,9.9457
1491850872,12.4000000005,9.37671
1491850874,2.80000000049995,10.0549
1491850876,-18.7999999995,9.56497
1491850878,14.8000000004999,9.71886
1491850880,-16.3999999995,11.2568
1491850882,-25.9999999995,11.0443
1491850884,-25.9999999995,9.30027
1491850886,-9.19999999950005,10.6535
1491850888,50.8000000004999,11.1009
1491850890,46.0000000005,12.8569
1491850892,-1.99999999950001,11.5098
1491850894,-9.19999999950005,11.476
1491850896,0.400000000499972,10.3871
1491850898,-11.5999999995,11.0074
1491850900,38.8000000004999,10.6549
1491850902,-21.1999999994999,10.4707
1491850904,-4.39999999949998,12.9653
1491850906,-25.9999999995,13.2158
1491850908,-42.7999999995,11.8462
1491850910,-25.9999999995,12.6781
1491850912,62.8000000004999,11.6484
1491850914,-23.5999999995,11.3212
1491850916,-4.39999999949998,8.17789
1491850918,-11.5999999995,11.0793
1491850920,-13.9999999995,12.351
1491850922,-18.7999999995,11.8574
1491850924,-30.7999999995,12.7814
1491850926,-11.5999999995,14.7997
1491850928,7.60000000050002,12.3063
1491850930,-18.7999999995,13.0679
1491850932,-16.3999999995,7.34039
1491850934,-6.79999999949996,8.31689
1491850936,-33.1999999994999,10.16
1491850938,0.400000000499972,9.39729
1491850940,-33.1999999994999,11.1214
1491850942,-11.5999999995,10.5997
1491850944,-28.3999999995,11.7305
1491850946,-18.7999999995,12.2572
1491850948,34.0000000005,11.3361
1491850950,14.8000000004999,12.1791
1491850952,7.60000000050002,12.8863
1491850954,-16.3999999995,11.8315
1491850956,-28.3999999995,9.77567
1491850958,29.2000000005,11.2384
1491850962,0.400000000499972,8.7483
1491850964,10.0000000005,9.60375
1491850966,79.6000000005,6.90792
1491850968,-11.5999999995,8.56906
1491850970,19.6000000005,8.57599
1491850972,50.8000000004999,11.4585
1491850974,41.2000000005,10.0764
1491850976,38.8000000004999,10.5168
1491850978,26.8000000004999,8.53809
1491850980,14.8000000004999,10.4011
1491850982,46.0000000005,12.0074
1491850984,-4.39999999949998,10.1797
1491850986,29.2000000005,10.6173
1491850988,26.8000000004999,8.77827
1491850990,-16.3999999995,9.82186
1491850992,43.6000000005,8.43524
1491850994,22.0000000005,8.44161
1491850996,108.4000000005,9.46208
1491850998,67.6000000005,8.58826
1491851000,108.4000000005,7.4729
1491851002,139.6000000005,5.71732
1491851004,84.4000000005,7.71084
1491851006,106.0000000005,8.97089
1491851008,151.6000000005,10.13
1491851010,132.4000000005,10.4365
1491851012,211.6000000005,8.42305
1491851014,228.4000000005,9.69304
1491851016,202.0000000005,10.5297
1491851018,190.0000000005,9.09514
1491851020,228.4000000005,9.09245
1491851022,206.8000000005,8.74342
1491851024,226.0000000005,9.45258
1491851026,197.2000000005,9.59086
1491851028,202.0000000005,8.80418
1491851030,175.6000000005,7.88883
1491851032,214.0000000005,6.88936
1491851034,190.0000000005,8.42918
1491851036,166.0000000005,9.0881
1491851038,98.8000000004999,8.44693
1491851040,120.4000000005,10.2622
1491851042,65.2000000005,7.76813
1491851044,130.0000000005,8.99407
1491851046,108.4000000005,12.9209
1491851048,103.6000000005,12.6414
1491851050,146.8000000005,11.5133
1491851052,50.8000000004999,9.6351
1491851054,89.2000000005,10.6
1491851056,72.4000000005,11.1154
1491851058,146.8000000005,9.58282
1491851060,161.2000000005,11.2019
1491851062,115.6000000005,10.6062
1491851064,118.0000000005,9.54799
1491851066,125.2000000005,9.60911
1491851068,144.4000000005,9.21571
1491851070,127.6000000005,9.65891
1491851072,144.4000000005,7.9865
1491851074,108.4000000005,8.68408
1491851076,192.4000000005,9.29964
1491851078,146.8000000005,7.93148
1491851080,151.6000000005,8.75514
1491851082,74.8000000004999,6.78064
1491851084,98.8000000004999,7.41562
1491851086,96.4000000005,8.17298
1491851088,96.4000000005,8.53646
1491851090,96.4000000005,7.39171
1491851092,122.8000000005,9.94565
1491851094,67.6000000005,10.3292
1491851096,137.2000000005,8.70653
1491851098,106.0000000005,9.56345
1491851100,72.4000000005,9.38621
1491851102,120.4000000005,9.48038
1491851104,74.8000000004999,10.066
1491851106,101.2000000005,9.07143
1491851108,137.2000000005,7.86034
1491851110,149.2000000005,7.72235
1491851112,125.2000000005,6.86556
1491851114,118.0000000005,7.09562
1491851116,127.6000000005,9.29331
1491851118,144.4000000005,9.07687
1491851120,115.6000000005,8.1495
1491851122,166.0000000005,7.49944
1491851124,132.4000000005,6.77743
1491851126,146.8000000005,5.2063
1491851128,125.2000000005,5.28473
1491851130,127.6000000005,8.29739
1491851132,91.6000000005,5.76196
1491851134,113.2000000005,8.36767
1491851136,122.8000000005,6.14629
1491851138,142.0000000005,8.37736
1491851140,137.2000000005,9.37952
1491851142,110.8000000005,6.99073
1491851144,137.2000000005,8.36374
1491851146,89.2000000005,9.7083
1491851148,41.2000000005,10.6402
1491851150,163.6000000005,9.56348
1491851152,89.2000000005,9.79646
1491851154,127.6000000005,9.59697
1491851156,156.4000000005,9.42723
1491851158,115.6000000005,8.33155
1491851160,156.4000000005,8.00984
1491851162,139.6000000005,10.2983
1491851164,67.6000000005,11.7927
1491851166,154.0000000005,9.71395
1491851168,127.6000000005,11.1184
1491851170,180.4000000005,9.48434
1491851172,175.6000000005,7.12735
1491851174,202.0000000005,8.18113
1491851176,166.0000000005,9.1376
1491851178,170.8000000005,8.16186
1491851180,137.2000000005,10.2064
1491851182,161.2000000005,7.43406
1491851184,137.2000000005,10.2908
1491851186,173.2000000005,8.69251
1491851188,161.2000000005,7.96773
1491851190,120.4000000005,8.29379
1491851192,139.6000000005,8.39545
1491851194,156.4000000005,8.34832
1491851196,161.2000000005,8.05779
1491851198,202.0000000005,7.5864
1491851200,125.2000000005,9.08553
1491851202,146.8000000005,11.0173
1491851204,127.6000000005,9.36255
1491851206,82.0000000005,10.4675
1491851208,134.8000000005,10.6852
1491851210,48.4000000005,9.15439
1491851212,67.6000000005,10.8197
1491851214,127.6000000005,8.93025
1491851216,50.8000000004999,11.0854
1491851218,94.0000000005,11.8233
1491851220,50.8000000004999,11.6724
1491851222,67.6000000005,8.81741
1491851224,134.8000000005,10.4544
1491851226,29.2000000005,8.92279
1491851228,127.6000000005,9.75747
1491851230,120.4000000005,9.94201
1491851232,96.4000000005,10.7931
1491851234,12.4000000005,8.72988
1491851236,-11.5999999995,9.3872
1491851238,36.4000000005,9.59269
1491851240,-1.99999999950001,9.09775
1491851242,46.0000000005,11.3425
1491851244,17.2000000005,12.9496
1491851246,77.2000000005,10.2481
1491851248,0.400000000499972,7.43393
1491851250,14.8000000004999,11.2309
1491851252,-1.99999999950001,9.71354
1491851254,36.4000000005,11.2266
1491851256,53.2000000005,9.78812
1491851258,0.400000000499972,10.6207
1491851260,7.60000000050002,12.4952
1491851262,46.0000000005,12.9907
1491851264,-9.19999999950005,13.8732
1491851266,36.4000000005,11.7002
1491851268,-13.9999999995,12.1823
1491851270,-4.39999999949998,10.9431
1491851272,48.4000000005,9.94359
1491851274,60.4000000005,11.0789
1491851276,41.2000000005,8.89717
1491851278,72.4000000005,10.3598
1491851280,10.0000000005,11.9087
1491851282,26.8000000004999,13.4346
1491851284,41.2000000005,12.4169
1491851286,74.8000000004999,13.6883
1491851288,77.2000000005,11.7043
1491851290,10.0000000005,11.2143
1491851292,17.2000000005,10.1721
1491851294,-9.19999999950005,9.84933
1491851296,0.400000000499972,9.66171
1491851298,7.60000000050002,7.62902
1491851300,-13.9999999995,8.21779
1491851302,34.0000000005,7.33712
1491851304,0.400000000499972,9.23944
1491851306,55.6000000005,8.15823
1491851308,12.4000000005,10.3445
1491851310,65.2000000005,7.17798
1491851312,55.6000000005,8.06622
1491851314,77.2000000005,9.71117
1491851316,55.6000000005,7.50623
1491851318,58.0000000005,6.55796
1491851320,79.6000000005,8.3593
1491851322,-6.79999999949996,7.1158
1491851324,29.2000000005,10.242
1491851326,41.2000000005,9.14472
1491851328,12.4000000005,9.75235
1491851330,60.4000000005,9.25722
1491851332,0.400000000499972,11.0979
1491851334,5.20000000050004,8.88373
1491851336,58.0000000005,11.4425
1491851338,36.4000000005,9.70974
1491851340,137.2000000005,11.201
1491851342,113.2000000005,11.801
1491851344,65.2000000005,10.1417
1491851346,55.6000000005,10.1404
1491851348,108.4000000005,10.3073
1491851350,82.0000000005,10.5911
1491851352,142.0000000005,9.04197
1491851354,110.8000000005,8.29882
1491851356,139.6000000005,8.47022
1491851358,65.2000000005,9.37232
1491851360,62.8000000004999,8.56274
1491851362,91.6000000005,11.4192
1491851364,94.0000000005,9.47182
1491851366,70.0000000005,10.0004
1491851368,12.4000000005,9.43761
1491851370,67.6000000005,10.803
1491851372,122.8000000005,9.07184
1491851374,132.4000000005,9.62386
1491851376,53.2000000005,7.85474
1491851378,53.2000000005,9.08068
1491851380,79.6000000005,7.05204
1491851382,89.2000000005,9.03004
1491851384,60.4000000005,12.0581
1491851386,86.8000000004999,10.965
1491851388,55.6000000005,10.7439
1491851390,53.2000000005,12.2882
1491851392,43.6000000005,11.0675
1491851394,48.4000000005,11.1428
1491851396,-21.1999999994999,9.29384
1491851398,55.6000000005,9.82405
1491851400,43.6000000005,12.0495
1491851402,19.6000000005,10.0927
1491851404,89.2000000005,11.9093
1491851406,41.2000000005,10.2396
1491851408,17.2000000005,11.6146
1491851410,62.8000000004999,14.6546
1491851412,46.0000000005,12.6011
1491851414,46.0000000005,12.6052
1491851416,70.0000000005,11.1272
1491851418,84.4000000005,10.5777
1491851420,115.6000000005,10.8327
1491851422,12.4000000005,9.62699
1491851424,86.8000000004999,11.1528
1491851426,79.6000000005,11.2193
1491851428,24.4000000005,11.3031
1491851430,120.4000000005,12.6112
1491851432,74.8000000004999,12.6365
1491851434,0.400000000499972,9.5657
1491851436,5.20000000050004,10.2958
1491851438,2.80000000049995,8.39381
1491851440,70.0000000005,9.03572
1491851442,48.4000000005,10.2919
1491851444,58.0000000005,9.18132
1491851446,34.0000000005,12.3076
1491851448,-4.39999999949998,8.83504
1491851450,-1.99999999950001,8.88575
1491851452,43.6000000005,8.49695
1491851454,31.6000000005,9.70058
1491851456,-9.19999999950005,11.8979
1491851458,-6.79999999949996,10.7321
1491851460,-25.9999999995,7.9186
1491851462,31.6000000005,7.46627
1491851464,43.6000000005,8.18139
1491851466,31.6000000005,10.9933
1491851468,34.0000000005,11.3955
1491851470,-1.99999999950001,12.3864
1491851472,2.80000000049995,9.60644
1491851474,72.4000000005,8.48764
1491851476,-6.79999999949996,10.4088
1491851478,48.4000000005,8.99955
1491851480,19.6000000005,10.1253
1491851482,7.60000000050002,10.5724
1491851484,60.4000000005,9.23635
1491851486,24.4000000005,11.094
1491851488,48.4000000005,10.0672
1491851490,65.2000000005,9.61181
1491851492,36.4000000005,11.8974
1491851494,0.400000000499972,10.9581
1491851496,24.4000000005,10.7398
1491851498,43.6000000005,11.9895
1491851500,53.2000000005,13.3699
1491851502,58.0000000005,9.9796
1491851504,67.6000000005,11.0524
1491851506,60.4000000005,12.0789
1491851508,55.6000000005,8.72266
1491851510,120.4000000005,9.80672
1491851512,110.8000000005,9.08649
1491851514,161.2000000005,8.96692
1491851516,199.6000000005,7.76904
1491851518,206.8000000005,11.2929
1491851520,168.4000000005,12.8391
1491851522,218.8000000005,12.6255
1491851524,228.4000000005,9.08209
1491851526,226.0000000005,7.86182
1491851528,214.0000000005,7.29435
1491851530,156.4000000005,9.82443
1491851532,211.6000000005,8.04286
1491851534,214.0000000005,10.4846
1491851536,156.4000000005,6.69106
1491851538,170.8000000005,9.77557
1491851540,134.8000000005,10.3487
1491851542,151.6000000005,10.2407
1491851544,127.6000000005,11.5411
1491851546,113.2000000005,10.8752
1491851548,158.8000000005,9.31557
1491851550,118.0000000005,9.57628
1491851552,94.0000000005,9.74108
1491851554,142.0000000005,6.25194
1491851556,125.2000000005,9.38767
1491851558,137.2000000005,8.99574
1491851560,149.2000000005,10.1824
1491851562,72.4000000005,8.73216
1491851564,120.4000000005,11.4402
1491851566,130.0000000005,12.0542
1491851568,130.0000000005,9.02475
1491851570,77.2000000005,7.7946
1491851572,62.8000000004999,8.97346
1491851574,53.2000000005,9.16342
1491851576,130.0000000005,5.7972
1491851578,-6.79999999949996,9.18646
1491851580,77.2000000005,12.2015
1491851582,70.0000000005,10.7125
1491851584,53.2000000005,7.8927
1491851586,74.8000000004999,6.95547
1491851588,72.4000000005,3.36005
1491851590,65.2000000005,6.67725
1491851592,36.4000000005,8.56949
1491851594,46.0000000005,9.3641
1491851596,118.0000000005,9.23538
1491851598,5.20000000050004,9.74261
1491851600,53.2000000005,8.84296
1491851602,58.0000000005,9.37848
1491851604,67.6000000005,8.65729
1491851606,94.0000000005,10.9947
1491851608,12.4000000005,11.2805
1491851610,70.0000000005,8.11627
1491851612,70.0000000005,9.00789
1491851614,67.6000000005,9.71234
1491851616,67.6000000005,9.46218
1491851618,41.2000000005,8.1094
1491851620,65.2000000005,9.85076
1491851622,24.4000000005,10.8313
1491851624,74.8000000004999,9.7037
1491851626,74.8000000004999,10.4711
1491851628,67.6000000005,13.0502
1491851630,-23.5999999995,11.8803
1491851632,29.2000000005,12.4321
1491851634,67.6000000005,11.5945
1491851636,65.2000000005,10.295
1491851638,29.2000000005,11.0044
1491851640,22.0000000005,8.60072
1491851642,14.8000000004999,11.9323
1491851644,31.6000000005,12.6566
1491851646,58.0000000005,11.0738
1491851648,98.8000000004999,9.72777
1491851650,96.4000000005,11.1836
1491851652,94.0000000005,11.8051
1491851654,53.2000000005,10.6231
1491851656,79.6000000005,11.7541
1491851658,122.8000000005,12.978
1491851660,62.8000000004999,14.4262
1491851662,86.8000000004999,9.34274
1491851664,110.8000000005,11.0346
1491851666,103.6000000005,10.2175
1491851668,146.8000000005,12.0558
1491851670,122.8000000005,12.0042
1491851672,74.8000000004999,9.43774
1491851674,70.0000000005,11.537
1491851676,96.4000000005,11.9439
1491851678,86.8000000004999,7.81116
1491851680,108.4000000005,9.96805
1491851682,98.8000000004999,9.89932
1491851684,89.2000000005,10.075
1491851686,125.2000000005,10.7277
1491851688,110.8000000005,11.965
1491851690,91.6000000005,7.89838
1491851692,89.2000000005,10.7444
1491851694,65.2000000005,10.9008
1491851696,67.6000000005,9.49037
1491851698,132.4000000005,11.5874
1491851700,60.4000000005,10.7992
1491851702,137.2000000005,9.57326
1491851704,36.4000000005,8.44902
1491851706,74.8000000004999,8.84168
1491851708,36.4000000005,8.96953
1491851710,41.2000000005,7.64552
1491851712,82.0000000005,7.26969
1491851714,108.4000000005,7.11006
1491851716,122.8000000005,10.3846
1491851718,146.8000000005,10.2002
1491851720,48.4000000005,9.73824
1491851722,139.6000000005,9.65374
1491851724,55.6000000005,8.1495
1491851726,74.8000000004999,8.09863
1491851728,55.6000000005,8.96116
1491851730,55.6000000005,9.57185
1491851732,115.6000000005,10.232
1491851734,86.8000000004999,10.6691
1491851736,94.0000000005,11.1174
1491851738,96.4000000005,9.21985
1491851740,58.0000000005,10.491
1491851742,-4.39999999949998,8.89098
1491851744,94.0000000005,7.03208
1491851746,50.8000000004999,9.76881
1491851748,79.6000000005,9.84031
1491851750,103.6000000005,9.10041
1491851752,55.6000000005,9.76051
1491851754,98.8000000004999,9.55852
1491851756,58.0000000005,9.45833
1491851758,55.6000000005,8.17602
1491851760,12.4000000005,5.47792
1491851762,46.0000000005,6.8404
1491851764,67.6000000005,7.32382
1491851766,89.2000000005,5.15355
1491851768,60.4000000005,6.04146
1491851770,0.400000000499972,5.49062
1491851772,50.8000000004999,10.903
1491851774,113.2000000005,10.0791
1491851776,132.4000000005,6.69805
1491851778,134.8000000005,2.45167
1491851780,55.6000000005,6.70897
1491851782,127.6000000005,7.76219
1491851784,24.4000000005,7.3831
1491851786,115.6000000005,7.9884
1491851788,139.6000000005,9.86024
1491851790,120.4000000005,10.9983
1491851792,144.4000000005,10.2799
1491851794,70.0000000005,10.8338
1491851796,48.4000000005,6.86157
1491851798,70.0000000005,7.02225
1491851800,122.8000000005,7.45813
1491851802,101.2000000005,6.1134
1491851804,146.8000000005,9.05208
1491851806,79.6000000005,9.06679
1491851808,118.0000000005,9.03828
1491851810,62.8000000004999,9.95827
1491851812,89.2000000005,10.4588
1491851814,96.4000000005,8.98889
1491851816,19.6000000005,10.3498
1491851818,86.8000000004999,10.999
1491851820,82.0000000005,10.6859
1491851822,77.2000000005,10.0242
1491851824,67.6000000005,12.2193
1491851826,62.8000000004999,10.8822
1491851828,58.0000000005,11.3206
1491851830,-16.3999999995,9.93028
1491851832,26.8000000004999,11.3529
1491851834,48.4000000005,11.8756
1491851836,-23.5999999995,13.7345
1491851838,86.8000000004999,12.4799
1491851840,17.2000000005,11.2607
1491851842,58.0000000005,12.2035
1491851844,46.0000000005,12.2268
1491851846,-11.5999999995,12.7714
1491851848,14.8000000004999,13.3124
1491851850,34.0000000005,9.46814
1491851852,31.6000000005,12.0764
1491851854,46.0000000005,10.1939
1491851856,-28.3999999995,11.6203
1491851858,-6.79999999949996,13.7455
1491851860,31.6000000005,15.2419
1491851862,2.80000000049995,13.5325
1491851864,0.400000000499972,10.5942
1491851866,7.60000000050002,11.6888
1491851868,38.8000000004999,8.93899
1491851870,70.0000000005,9.59364
1491851872,106.0000000005,11.4874
1491851874,7.60000000050002,9.04575
1491851876,84.4000000005,11.1683
1491851878,-1.99999999950001,11.6307
1491851880,-4.39999999949998,11.2089
1491851882,-11.5999999995,9.82327
1491851884,-6.79999999949996,10.4458
1491851886,74.8000000004999,8.9395
1491851888,70.0000000005,9.51093
1491851890,22.0000000005,11.3006
1491851892,22.0000000005,10.5244
1491851894,17.2000000005,9.60413
1491851896,41.2000000005,10.4044
1491851898,29.2000000005,7.79185
1491851900,62.8000000004999,7.63623
1491851902,110.8000000005,6.48624
1491851904,82.0000000005,7.98919
1491851906,7.60000000050002,8.89109
1491851908,60.4000000005,9.41628
1491851910,-4.39999999949998,7.85758
1491851912,55.6000000005,8.67173
1491851914,70.0000000005,10.8773
1491851916,-18.7999999995,9.42326
1491851918,62.8000000004999,9.32365
1491851920,5.20000000050004,8.96436
1491851922,-13.9999999995,9.87818
1491851924,26.8000000004999,10.5194
1491851926,24.4000000005,10.9266
1491851928,2.80000000049995,11.0965
1491851930,-30.7999999995,11.4884
1491851932,-1.99999999950001,8.00699
1491851934,-16.3999999995,10.8547
1491851936,2.80000000049995,10.1721
1491851938,29.2000000005,8.6462
1491851940,43.6000000005,7.06057
1491851942,26.8000000004999,7.28121
1491851944,82.0000000005,10.5713
1491851946,72.4000000005,7.04131
1491851948,19.6000000005,8.40259
1491851950,22.0000000005,10.0564
1491851952,26.8000000004999,9.60058
1491851954,-13.9999999995,8.92829
1491851956,67.6000000005,5.9375
1491851958,-16.3999999995,8.37191
1491851960,36.4000000005,11.0896
1491851962,-6.79999999949996,7.34599
1491851964,-35.5999999995,8.32844
1491851966,-11.5999999995,9.5228
1491851968,-81.1999999995,7.63074
1491851970,-21.1999999994999,10.809
1491851972,-13.9999999995,9.30781
1491851974,-16.3999999995,9.8185
1491851976,79.6000000005,6.79187
1491851978,72.4000000005,6.58287
1491851980,36.4000000005,6.96204
1491851982,67.6000000005,8.37139
1491851984,5.20000000050004,12.8283
1491851986,-6.79999999949996,11.0211
1491851988,58.0000000005,11.0265
1491851990,-1.99999999950001,11.2244
1491851992,19.6000000005,8.52059
1491851994,53.2000000005,8.68603
1491851996,29.2000000005,12.4797
1491851998,98.8000000004999,10.5436
1491852000,101.2000000005,10.3202
1491852002,31.6000000005,10.0465
1491852004,74.8000000004999,10.5967
1491852006,96.4000000005,10.277
1491852008,41.2000000005,8.92316
1491852010,86.8000000004999,10.8595
1491852012,74.8000000004999,12.3875
1491852014,67.6000000005,11.8958
1491852016,115.6000000005,9.95283
1491852018,98.8000000004999,10.3479
1491852020,106.0000000005,12.0745
1491852022,60.4000000005,10.2673
1491852024,79.6000000005,9.94865
1491852026,77.2000000005,9.61301
1491852028,26.8000000004999,10.4468
1491852030,91.6000000005,8.78238
1491852032,130.0000000005,9.36154
1491852034,89.2000000005,9.73603
1491852036,144.4000000005,10.2394
1491852038,115.6000000005,8.66367
1491852040,110.8000000005,7.09539
1491852042,149.2000000005,8.57021
1491852044,115.6000000005,8.27016
1491852046,151.6000000005,10.1158
1491852048,170.8000000005,10.4424
1491852050,168.4000000005,10.0337
1491852052,151.6000000005,10.3044
1491852054,151.6000000005,9.60052
1491852056,178.0000000005,10.2671
1491852058,146.8000000005,12.7492
1491852060,127.6000000005,11.0059
1491852062,146.8000000005,10.2068
1491852064,120.4000000005,11.6753
1491852066,118.0000000005,10.0497
1491852068,154.0000000005,10.5503
1491852070,149.2000000005,10.5557
1491852072,149.2000000005,10.5517
1491852074,132.4000000005,11.5174
1491852076,103.6000000005,9.99384
1491852078,53.2000000005,13.6791
1491852080,139.6000000005,8.46806
1491852082,41.2000000005,8.15995
1491852084,113.2000000005,11.9667
1491852086,86.8000000004999,9.94024
1491852090,132.4000000005,5.84753
1491852092,70.0000000005,10.2837
1491852094,156.4000000005,7.03683
1491852096,122.8000000005,9.11221
1491852098,72.4000000005,9.37311
1491852100,134.8000000005,12.3389
1491852102,55.6000000005,12.3622
1491852104,72.4000000005,10.5986
1491852106,118.0000000005,9.94425
1491852108,110.8000000005,10.8557
1491852110,79.6000000005,12.3415
1491852112,144.4000000005,10.4168
1491852114,125.2000000005,7.25203
1491852116,137.2000000005,8.59999
1491852118,62.8000000004999,7.02026
1491852120,127.6000000005,6.72142
1491852122,101.2000000005,6.71275
1491852124,108.4000000005,5.81656
1491852126,158.8000000005,7.63849
1491852128,139.6000000005,8.01161
1491852130,125.2000000005,9.99936
1491852132,154.0000000005,7.17824
1491852134,139.6000000005,10.1189
1491852136,134.8000000005,10.2422
1491852138,156.4000000005,7.15346
1491852140,132.4000000005,8.46046
1491852142,110.8000000005,9.86806
1491852144,94.0000000005,10.5038
1491852146,146.8000000005,7.5238
1491852148,151.6000000005,8.73818
1491852150,158.8000000005,5.77583
1491852152,110.8000000005,7.43801
1491852154,142.0000000005,8.25641
1491852156,122.8000000005,8.42708
1491852158,132.4000000005,10.4157
1491852160,127.6000000005,8.01071
1491852162,158.8000000005,9.89375
1491852164,202.0000000005,9.7229
1491852166,154.0000000005,11.8426
1491852168,151.6000000005,11.5622
1491852170,190.0000000005,11.5855
1491852172,101.2000000005,12.4803
1491852174,154.0000000005,14.9169
1491852176,161.2000000005,8.95047
1491852178,149.2000000005,11.1984
1491852180,130.0000000005,12.1813
1491852182,144.4000000005,9.03108
1491852184,127.6000000005,9.45971
1491852186,180.4000000005,11.5418
1491852188,118.0000000005,9.55307
1491852190,142.0000000005,10.1956
1491852192,103.6000000005,10.553
1491852194,108.4000000005,7.73929
1491852196,125.2000000005,9.45414
1491852198,74.8000000004999,10.608
1491852200,146.8000000005,9.6174
1491852202,120.4000000005,12.2475
1491852204,146.8000000005,11.6931
1491852206,122.8000000005,11.2517
1491852208,161.2000000005,11.0104
1491852210,79.6000000005,10.2721
1491852212,89.2000000005,11.1722
1491852214,130.0000000005,10.2461
1491852216,106.0000000005,6.96495
1491852218,151.6000000005,10.1993
1491852220,134.8000000005,11.0765
1491852222,70.0000000005,11.2061
1491852224,175.6000000005,11.7622
1491852226,101.2000000005,10.5075
1491852228,161.2000000005,11.2984
1491852230,139.6000000005,9.43739
1491852232,142.0000000005,10.632
1491852234,199.6000000005,11.8015
1491852236,151.6000000005,10.2083
1491852238,158.8000000005,11.6151
1491852240,218.8000000005,10.9669
1491852242,166.0000000005,11.9707
1491852244,163.6000000005,11.0308
1491852246,154.0000000005,12.4158
1491852248,173.2000000005,9.6897
1491852250,156.4000000005,7.86122
1491852252,206.8000000005,9.14437
1491852254,146.8000000005,6.91765
1491852256,170.8000000005,9.24883
1491852258,139.6000000005,9.42926
1491852260,134.8000000005,10.3564
1491852262,170.8000000005,12.0783
1491852264,96.4000000005,10.1834
1491852266,127.6000000005,10.654
1491852268,161.2000000005,10.2527
1491852270,151.6000000005,10.717
1491852272,122.8000000005,8.97346
1491852274,58.0000000005,8.28705
1491852276,74.8000000004999,8.28631
1491852278,144.4000000005,10.7081
1491852280,74.8000000004999,9.14972
1491852282,134.8000000005,7.80934
1491852284,108.4000000005,8.91867
1491852286,72.4000000005,10.1279
1491852288,84.4000000005,6.73734
1491852290,127.6000000005,7.65895
1491852292,77.2000000005,8.44318
1491852294,86.8000000004999,6.79477
1491852296,120.4000000005,8.65941
1491852298,115.6000000005,8.69923
1491852300,41.2000000005,6.14576
1491852302,115.6000000005,8.35956
1491852304,120.4000000005,9.40148
1491852306,144.4000000005,11.8495
1491852308,151.6000000005,11.2947
1491852310,204.4000000005,11.4682
1491852312,103.6000000005,8.43476
1491852314,53.2000000005,10.065
1491852316,84.4000000005,9.19719
1491852318,106.0000000005,11.2601
1491852320,77.2000000005,8.25555
1491852322,50.8000000004999,8.96897
1491852324,70.0000000005,10.4457
1491852326,29.2000000005,9.25829
1491852328,14.8000000004999,10.0228
1491852330,12.4000000005,9.8385
1491852332,-6.79999999949996,9.16826
1491852334,-9.19999999950005,9.0843
1491852336,-6.79999999949996,8.39741
1491852338,-21.1999999994999,9.37934
1491852340,5.20000000050004,10.0347
1491852342,0.400000000499972,9.70293
1491852344,-42.7999999995,9.22601
1491852346,-21.1999999994999,9.88204
1491852348,55.6000000005,11.6308
1491852350,7.60000000050002,12.0953
1491852352,-23.5999999995,12.5368
1491852354,-40.3999999995,11.8196
1491852356,26.8000000004999,8.55954
1491852358,7.60000000050002,10.2863
1491852360,-9.19999999950005,10.1885
1491852362,34.0000000005,10.9229
1491852364,-4.39999999949998,11.1845
1491852366,46.0000000005,9.99442
1491852368,7.60000000050002,10.4533
1491852370,7.60000000050002,11.2665
1491852372,10.0000000005,11.505
1491852374,19.6000000005,12.1049
1491852376,-69.1999999995,10.4224
1491852378,-4.39999999949998,9.1341
1491852380,10.0000000005,9.80123
1491852382,58.0000000005,9.52922
1491852384,34.0000000005,9.60939
1491852386,5.20000000050004,11.9077
1491852388,-23.5999999995,7.03704
1491852390,-25.9999999995,12.6124
1491852392,5.20000000050004,12.8717
1491852394,5.20000000050004,9.11373
1491852396,14.8000000004999,8.63425
1491852398,-11.5999999995,10.045
1491852400,-18.7999999995,10.708
1491852402,29.2000000005,10.979
1491852404,-9.19999999950005,9.8433
1491852406,10.0000000005,9.8565
1491852408,22.0000000005,8.44202
1491852410,-23.5999999995,9.73083
1491852412,34.0000000005,9.97357
1491852414,14.8000000004999,8.69458
1491852416,-9.19999999950005,7.21665
1491852418,89.2000000005,8.2207
1491852420,-1.99999999950001,8.73836
1491852422,34.0000000005,9.91745
1491852424,-6.79999999949996,8.82067
1491852426,5.20000000050004,9.08556
1491852428,-1.99999999950001,10.043
1491852430,91.6000000005,10.5343
1491852432,24.4000000005,8.58056
1491852434,-11.5999999995,10.8716
1491852436,72.4000000005,8.91834
1491852438,98.8000000004999,6.29144
1491852440,22.0000000005,3.84724
1491852442,53.2000000005,5.98145
1491852444,31.6000000005,6.86698
1491852446,125.2000000005,6.90235
1491852448,134.8000000005,8.73853
1491852450,139.6000000005,9.50226
1491852452,144.4000000005,10.8017
1491852454,134.8000000005,9.84969
1491852456,134.8000000005,9.30109
1491852458,137.2000000005,7.63816
1491852460,101.2000000005,9.33428
1491852462,86.8000000004999,11.1905
1491852464,67.6000000005,8.36655
1491852466,130.0000000005,8.32081
1491852468,118.0000000005,7.76811
1491852470,79.6000000005,8.88508
1491852472,144.4000000005,7.92915
1491852474,74.8000000004999,7.09886
1491852476,110.8000000005,8.4264
1491852478,77.2000000005,6.77774
1491852480,101.2000000005,9.37777
1491852482,113.2000000005,10.0253
1491852484,77.2000000005,10.994
1491852486,60.4000000005,10.3135
1491852488,38.8000000004999,10.7747
1491852490,43.6000000005,10.3867
1491852492,96.4000000005,9.89
1491852494,70.0000000005,8.94569
1491852496,86.8000000004999,8.1702
1491852498,91.6000000005,6.72364
1491852500,113.2000000005,8.0329
1491852502,120.4000000005,9.12664
1491852504,67.6000000005,10.1296
1491852506,137.2000000005,10.5051
1491852508,125.2000000005,8.01299
1491852510,122.8000000005,8.62881
1491852512,149.2000000005,10.4823
1491852514,130.0000000005,9.73452
1491852516,103.6000000005,9.15863
1491852518,103.6000000005,10.6852
1491852520,89.2000000005,10.2536
1491852522,137.2000000005,9.93493
1491852524,137.2000000005,10.4681
1491852526,110.8000000005,8.68856
1491852528,101.2000000005,9.05853
1491852530,58.0000000005,7.14037
1491852532,50.8000000004999,5.53101
1491852534,130.0000000005,7.93533
1491852536,151.6000000005,6.62916
1491852538,96.4000000005,7.34494
1491852540,120.4000000005,10.9527
1491852542,120.4000000005,11.7794
1491852544,101.2000000005,9.45756
1491852546,70.0000000005,9.00146
1491852548,137.2000000005,11.7314
1491852550,106.0000000005,10.2061
1491852552,79.6000000005,10.2955
1491852554,94.0000000005,9.51831
1491852556,48.4000000005,8.75736
1491852558,79.6000000005,7.97501
1491852560,70.0000000005,11.0832
1491852562,86.8000000004999,8.94016
1491852564,62.8000000004999,9.765
1491852566,34.0000000005,8.23589
1491852568,34.0000000005,9.14077
1491852570,58.0000000005,8.73986
1491852572,86.8000000004999,7.14607
1491852574,34.0000000005,8.4183
1491852576,48.4000000005,8.18509
1491852578,2.80000000049995,9.21344
1491852580,46.0000000005,7.81895
1491852582,70.0000000005,9.30071
1491852584,48.4000000005,9.37869
1491852586,5.20000000050004,10.633
1491852588,74.8000000004999,10.9762
1491852590,55.6000000005,10.3342
1491852592,2.80000000049995,9.49288
1491852594,43.6000000005,9.70596
1491852596,12.4000000005,12.419
1491852598,53.2000000005,11.1129
1491852600,14.8000000004999,9.7803
1491852602,58.0000000005,10.243
1491852604,-11.5999999995,5.14662
1491852606,2.80000000049995,6.43879
1491852608,65.2000000005,10.952
1491852610,0.400000000499972,10.3065
1491852612,36.4000000005,8.43431
1491852614,2.80000000049995,1.32937
1491852616,-4.39999999949998,2.86716
1491852618,-4.39999999949998,4.5955
1491852620,31.6000000005,7.28099
1491852622,-4.39999999949998,9.20647
1491852624,2.80000000049995,10.926
1491852626,-11.5999999995,9.57824
1491852628,12.4000000005,12.1536
1491852630,7.60000000050002,10.159
1491852632,7.60000000050002,9.45075
1491852634,110.8000000005,10.4098
1491852636,103.6000000005,10.8275
1491852638,24.4000000005,9.65357
1491852640,98.8000000004999,10.829
1491852642,60.4000000005,8.09799
1491852644,53.2000000005,9.55654
1491852646,125.2000000005,9.11384
1491852648,46.0000000005,9.15583
1491852650,46.0000000005,9.77194
1491852652,132.4000000005,10.351
1491852654,113.2000000005,10.3796
1491852656,106.0000000005,8.59459
1491852658,132.4000000005,8.36173
1491852660,113.2000000005,8.35622
1491852662,187.6000000005,7.7218
1491852664,127.6000000005,9.32501
1491852666,55.6000000005,8.76833
1491852668,149.2000000005,10.9071
1491852670,127.6000000005,10.1919
1491852672,77.2000000005,10.9094
1491852674,137.2000000005,8.904
1491852676,163.6000000005,8.57627
1491852678,168.4000000005,9.26254
1491852680,130.0000000005,8.13288
1491852682,70.0000000005,6.78899
1491852684,110.8000000005,6.4363
1491852686,91.6000000005,6.20335
1491852688,70.0000000005,9.35438
1491852690,122.8000000005,11.1454
1491852692,113.2000000005,9.07473
1491852694,103.6000000005,10.3916
1491852696,146.8000000005,10.0968
1491852698,110.8000000005,11.2505
1491852700,120.4000000005,9.53193
1491852702,130.0000000005,8.86725
1491852704,202.0000000005,6.07645
1491852706,144.4000000005,4.50211
1491852708,115.6000000005,6.91288
1491852710,106.0000000005,6.9068
1491852712,149.2000000005,7.7336
1491852714,130.0000000005,9.39102
1491852716,144.4000000005,10.4807
1491852718,211.6000000005,12.2215
1491852720,168.4000000005,12.0893
1491852722,139.6000000005,8.97379
1491852724,221.2000000005,7.83232
1491852726,127.6000000005,6.91247
1491852728,216.4000000005,6.79352
1491852730,163.6000000005,7.04178
1491852732,175.6000000005,9.32506
1491852734,168.4000000005,9.53347
1491852736,156.4000000005,11.1119
1491852738,187.6000000005,12.9858
1491852740,209.2000000005,9.5031
1491852742,223.6000000005,9.39691
1491852744,178.0000000005,9.81704
1491852746,221.2000000005,8.73941
1491852748,214.0000000005,10.3634
1491852750,168.4000000005,10.6956
1491852752,228.4000000005,9.00659
1491852754,190.0000000005,11.0264
1491852756,214.0000000005,10.8252
1491852758,214.0000000005,8.35952
1491852760,180.4000000005,4.81679
1491852762,218.8000000005,6.02024
1491852764,197.2000000005,7.96291
1491852766,221.2000000005,6.39787
1491852768,211.6000000005,5.83616
1491852770,209.2000000005,6.84883
1491852772,170.8000000005,10.7047
1491852774,204.4000000005,4.93705
1491852776,221.2000000005,7.90977
1491852778,168.4000000005,8.53375
1491852780,156.4000000005,10.2778
1491852782,190.0000000005,11.994
1491852784,142.0000000005,8.5854
1491852786,149.2000000005,8.87369
1491852788,146.8000000005,7.14595
1491852790,221.2000000005,11.1008
1491852792,218.8000000005,9.51322
1491852794,154.0000000005,10.4838
1491852796,187.6000000005,9.9351
1491852798,144.4000000005,7.04745
1491852800,211.6000000005,9.01677
1491852802,190.0000000005,7.55514
1491852804,199.6000000005,7.94792
1491852806,158.8000000005,9.43126
1491852808,168.4000000005,7.35563
1491852810,132.4000000005,9.16194
1491852812,161.2000000005,8.84281
1491852814,127.6000000005,7.11412
1491852816,142.0000000005,4.86789
1491852818,98.8000000004999,8.99809
1491852820,142.0000000005,8.95051
1491852822,94.0000000005,8.00141
1491852824,130.0000000005,9.38093
1491852826,137.2000000005,8.45246
1491852828,166.0000000005,8.05174
1491852830,144.4000000005,8.76373
1491852832,180.4000000005,8.25367
1491852834,113.2000000005,8.2225
1491852836,146.8000000005,8.74044
1491852838,163.6000000005,9.33852
1491852840,127.6000000005,10.2545
1491852842,199.6000000005,11.6548
1491852844,187.6000000005,8.98306
1491852846,206.8000000005,11.2885
1491852848,240.4000000005,7.56832
1491852850,206.8000000005,6.96272
1491852852,228.4000000005,7.74095
1491852854,238.0000000005,9.32275
1491852856,190.0000000005,10.409
1491852858,202.0000000005,10.5454
1491852860,182.8000000005,13.1286
1491852862,149.2000000005,11.1556
1491852864,218.8000000005,8.69276
1491852866,202.0000000005,7.75826
1491852868,149.2000000005,6.63222
1491852870,166.0000000005,7.56963
1491852872,163.6000000005,10.0139
1491852874,180.4000000005,6.90857
1491852876,197.2000000005,8.15105
1491852878,103.6000000005,10.1852
1491852880,113.2000000005,8.93585
1491852882,158.8000000005,10.422
1491852884,118.0000000005,9.41024
1491852886,130.0000000005,11.4802
1491852888,127.6000000005,11.1171
1491852890,89.2000000005,9.56605
1491852892,115.6000000005,12.2067
1491852894,96.4000000005,10.6007
1491852896,43.6000000005,9.05865
1491852898,14.8000000004999,7.36248
1491852900,-4.39999999949998,6.85002
1491852902,14.8000000004999,7.55641
1491852904,10.0000000005,10.4931
1491852906,-13.9999999995,11.8719
1491852908,-42.7999999995,11.371
1491852910,34.0000000005,11.8822
1491852912,-42.7999999995,9.95935
1491852914,-6.79999999949996,9.02378
1491852916,-28.3999999995,8.17609
1491852918,-30.7999999995,11.8198
1491852920,-6.79999999949996,10.873
1491852922,-6.79999999949996,11.0077
1491852924,-11.5999999995,9.32181
1491852926,19.6000000005,8.11467
1491852928,-9.19999999950005,10.1725
1491852930,43.6000000005,9.09818
1491852932,19.6000000005,9.63939
1491852934,96.4000000005,9.37855
1491852936,65.2000000005,10.783
1491852938,170.8000000005,9.00159
1491852940,228.4000000005,10.9636
1491852942,211.6000000005,10.7074
1491852944,271.6000000005,10.7519
1491852946,240.4000000005,10.142
1491852948,218.8000000005,9.10394
1491852950,221.2000000005,8.28743
1491852952,216.4000000005,6.00744
1491852954,209.2000000005,6.2723
1491852956,202.0000000005,3.99374
1491852958,132.4000000005,9.5221
1491852960,139.6000000005,8.78605
1491852962,144.4000000005,9.24165
1491852964,106.0000000005,10.3433
1491852966,127.6000000005,8.91468
1491852968,130.0000000005,9.06922
1491852970,146.8000000005,8.5726
1491852972,94.0000000005,11.0974
1491852974,137.2000000005,12.5608
1491852976,163.6000000005,13.536
1491852978,154.0000000005,11.1962
1491852980,154.0000000005,11.9779
1491852982,67.6000000005,10.123
1491852984,89.2000000005,9.60244
1491852986,120.4000000005,10.8009
1491852988,118.0000000005,11.8009
1491852990,101.2000000005,12.4766
1491852992,106.0000000005,10.4416
1491852994,108.4000000005,10.3338
1491852996,120.4000000005,11.6049
1491852998,82.0000000005,7.73845
1491853000,142.0000000005,6.64485
1491853002,127.6000000005,6.90443
1491853004,36.4000000005,9.46619
1491853006,22.0000000005,8.68925
1491853008,91.6000000005,8.20902
1491853010,10.0000000005,7.95433
1491853012,-11.5999999995,12.1051
1491853014,22.0000000005,9.68951
1491853016,41.2000000005,4.39712
1491853018,17.2000000005,3.72624
1491853020,19.6000000005,6.47042
1491853022,74.8000000004999,4.36935
1491853024,98.8000000004999,4.45481
1491853026,58.0000000005,6.44368
1491853028,115.6000000005,8.31211
1491853030,65.2000000005,8.71295
1491853032,60.4000000005,9.27226
1491853034,60.4000000005,6.42668
1491853036,29.2000000005,9.66634
1491853038,24.4000000005,10.1632
1491853040,74.8000000004999,8.56035
1491853042,10.0000000005,6.71098
1491853044,-6.79999999949996,3.25641
1491853046,86.8000000004999,4.82394
1491853048,46.0000000005,4.62985
1491853050,-6.79999999949996,5.42176
1491853052,70.0000000005,8.02057
1491853054,26.8000000004999,7.5254
1491853056,-1.99999999950001,9.89644
1491853058,14.8000000004999,9.49844
1491853060,43.6000000005,9.81714
1491853062,48.4000000005,10.9424
1491853064,58.0000000005,6.48198
1491853066,31.6000000005,8.31995
1491853068,22.0000000005,9.63175
1491853070,17.2000000005,10.2837
1491853072,34.0000000005,9.65136
1491853074,94.0000000005,9.60309
1491853076,50.8000000004999,9.55459
1491853078,79.6000000005,8.3407
1491853080,58.0000000005,8.30046
1491853082,50.8000000004999,7.72676
1491853084,96.4000000005,9.60493
1491853086,118.0000000005,10.1799
1491853088,62.8000000004999,8.40527
1491853090,17.2000000005,8.17158
1491853092,65.2000000005,7.14148
1491853094,-6.79999999949996,6.60727
1491853096,77.2000000005,8.18079
1491853098,46.0000000005,9.68895
1491853100,60.4000000005,9.87844
1491853102,46.0000000005,10.4522
1491853104,50.8000000004999,8.80724
1491853106,17.2000000005,8.9054
1491853108,55.6000000005,10.0646
1491853110,36.4000000005,10.6039
1491853112,12.4000000005,10.9881
1491853114,12.4000000005,9.06158
1491853116,-13.9999999995,6.70413
1491853118,17.2000000005,8.16741
1491853120,62.8000000004999,7.13354
1491853122,2.80000000049995,8.43958
1491853124,53.2000000005,7.74287
1491853126,53.2000000005,8.94146
1491853128,-4.39999999949998,9.45379
1491853130,50.8000000004999,7.954
1491853132,-4.39999999949998,10.1811
1491853134,-25.9999999995,5.91716
1491853136,84.4000000005,7.76251
1491853138,26.8000000004999,7.12679
1491853140,53.2000000005,8.79183
1491853142,120.4000000005,10.4708
1491853144,70.0000000005,14.2193
1491853146,134.8000000005,7.72513
1491853148,62.8000000004999,8.66334
1491853150,65.2000000005,8.49785
1491853152,142.0000000005,8.66474
1491853154,106.0000000005,11.1451
1491853156,118.0000000005,7.7015
1491853158,125.2000000005,5.68099
1491853160,106.0000000005,7.83243
1491853162,86.8000000004999,7.20277
1491853164,134.8000000005,8.2099
1491853166,89.2000000005,8.05244
1491853168,130.0000000005,9.45317
1491853170,89.2000000005,10.4738
1491853172,41.2000000005,9.0966
1491853174,12.4000000005,12.1258
1491853176,110.8000000005,7.33559
1491853178,89.2000000005,10.0016
1491853180,29.2000000005,10.001
1491853182,-4.39999999949998,11.886
1491853184,82.0000000005,11.2898
1491853186,41.2000000005,13.4725
1491853188,84.4000000005,13.6561
1491853190,134.8000000005,10.9474
1491853192,72.4000000005,9.53178
1491853194,89.2000000005,12.6793
1491853196,62.8000000004999,10.5356
1491853198,84.4000000005,9.90458
1491853200,110.8000000005,8.78024
1491853202,60.4000000005,10.2646
1491853204,94.0000000005,9.20541
1491853206,110.8000000005,8.77409
1491853208,134.8000000005,9.2377
1491853210,101.2000000005,7.53886
1491853212,70.0000000005,7.79631
1491853214,89.2000000005,7.23424
1491853216,139.6000000005,10.4452
1491853218,158.8000000005,7.98223
1491853220,74.8000000004999,9.15084
1491853222,110.8000000005,9.02306
1491853224,82.0000000005,9.48712
1491853226,144.4000000005,8.63522
1491853228,158.8000000005,7.4503
1491853230,101.2000000005,7.40131
1491853232,190.0000000005,9.07546
1491853234,163.6000000005,8.85642
1491853236,178.0000000005,8.27754
1491853238,158.8000000005,9.90691
1491853240,216.4000000005,10.8302
1491853242,216.4000000005,10.7154
1491853244,226.0000000005,7.33946
1491853246,151.6000000005,8.01786
1491853248,211.6000000005,7.35619
1491853250,178.0000000005,6.55363
1491853252,206.8000000005,7.87229
1491853254,180.4000000005,8.46962
1491853256,209.2000000005,12.0994
1491853258,134.8000000005,10.3036
1491853260,168.4000000005,9.18348
1491853262,115.6000000005,7.89343
1491853264,142.0000000005,8.3613
1491853266,137.2000000005,6.51438
1491853268,154.0000000005,7.5358
1491853270,149.2000000005,7.62821
1491853272,166.0000000005,6.98005
1491853274,144.4000000005,8.99665
1491853276,154.0000000005,8.96796
1491853278,202.0000000005,6.06148
1491853280,139.6000000005,7.93772
1491853282,168.4000000005,8.10148
1491853284,151.6000000005,10.7258
1491853286,139.6000000005,11.0596
1491853288,175.6000000005,11.4617
1491853290,156.4000000005,6.56586
1491853292,130.0000000005,8.24068
1491853294,110.8000000005,7.89455
1491853296,199.6000000005,8.91789
1491853298,94.0000000005,9.11207
1491853300,149.2000000005,6.39712
1491853302,146.8000000005,6.64405
1491853304,134.8000000005,8.20812
1491853306,163.6000000005,9.1525
1491853308,142.0000000005,11.1894
1491853310,115.6000000005,11.2539
1491853312,122.8000000005,10.779
1491853314,127.6000000005,9.65985
1491853316,158.8000000005,6.73821
1491853318,214.0000000005,10.9142
1491853320,223.6000000005,9.25478
1491853322,262.0000000005,10.8533
1491853324,274.0000000005,6.97401
1491853326,252.4000000005,9.83155
1491853328,242.8000000005,9.08937
1491853330,226.0000000005,10.0555
1491853332,202.0000000005,7.48299
1491853334,161.2000000005,9.04399
1491853336,190.0000000005,9.73585
1491853338,158.8000000005,11.0111
1491853340,175.6000000005,9.62195
1491853342,94.0000000005,10.561
1491853344,154.0000000005,10.6409
1491853346,86.8000000004999,9.68236
1491853348,125.2000000005,8.68842
1491853350,118.0000000005,6.74566
1491853352,127.6000000005,10.1873
1491853354,77.2000000005,9.40964
1491853356,89.2000000005,7.24601
1491853358,62.8000000004999,7.67602
1491853360,74.8000000004999,8.22526
1491853362,60.4000000005,6.99385
1491853364,125.2000000005,7.51691
1491853366,7.60000000050002,7.27354
1491853368,96.4000000005,6.55893
1491853370,60.4000000005,7.4376
1491853372,-9.19999999950005,6.94124
1491853374,-28.3999999995,9.59645
1491853376,74.8000000004999,7.27394
1491853378,-9.19999999950005,6.00463
1491853380,50.8000000004999,5.95316
1491853382,-18.7999999995,6.77759
1491853384,-28.3999999995,6.01861
1491853386,-9.19999999950005,5.16777
1491853388,-18.7999999995,9.34506
1491853390,-9.19999999950005,7.90932
1491853392,7.60000000050002,9.50216
1491853394,-11.5999999995,8.45939
1491853396,58.0000000005,7.43292
1491853398,122.8000000005,9.85387
1491853400,5.20000000050004,7.16671
1491853402,43.6000000005,7.8916
1491853404,58.0000000005,9.43204
1491853406,14.8000000004999,8.83856
1491853410,-1.99999999950001,7.23967
1491853412,-42.7999999995,5.53001
1491853414,-6.79999999949996,4.71234
1491853416,79.6000000005,5.96162
1491853418,41.2000000005,6.72436
1491853420,74.8000000004999,8.91607
1491853422,-11.5999999995,9.40843
1491853424,17.2000000005,9.21041
1491853426,65.2000000005,10.1641
1491853428,-9.19999999950005,9.06434
1491853430,60.4000000005,9.28847
1491853432,67.6000000005,8.34027
1491853434,41.2000000005,5.99268
1491853436,70.0000000005,8.83041
1491853438,65.2000000005,8.66927
1491853440,62.8000000004999,9.51688
1491853442,72.4000000005,9.60802
1491853444,55.6000000005,7.65522
1491853446,58.0000000005,7.60788
1491853448,55.6000000005,5.90329
1491853450,31.6000000005,5.60256
1491853452,14.8000000004999,8.16562
1491853454,132.4000000005,8.36077
1491853456,58.0000000005,3.83582
1491853458,65.2000000005,5.41734
1491853460,60.4000000005,9.23604
1491853462,43.6000000005,7.11661
1491853464,48.4000000005,5.5612
1491853466,70.0000000005,5.6266
1491853468,43.6000000005,10.1973
1491853470,19.6000000005,10.3524
1491853472,60.4000000005,10.1787
1491853474,14.8000000004999,8.20156
1491853476,-1.99999999950001,8.90462
1491853478,48.4000000005,10.6704
1491853480,-9.19999999950005,10.2378
1491853482,48.4000000005,8.73986
1491853484,0.400000000499972,10.9704
1491853486,24.4000000005,10.7469
1491853488,7.60000000050002,9.14403
1491853490,5.20000000050004,7.09338
1491853492,-9.19999999950005,8.20302
1491853494,60.4000000005,9.02432
1491853496,19.6000000005,10.256
1491853498,60.4000000005,9.12588
