tag_number,delay,power_est
1492438820,-264.4000000005,7.56459
1492438822,-235.6000000005,8.01303
1492438824,-221.2000000005,11.4862
1492438826,-218.8000000005,8.71712
1492438828,-230.8000000005,7.55696
1492438830,-278.8000000005,10.4636
1492438832,-245.2000000005,10.2351
1492438834,-245.2000000005,10.4575
1492438836,-247.6000000005,11.3675
1492438838,-250.0000000005,10.6271
1492438840,-262.0000000005,12.0769
1492438842,-228.4000000005,12.282
1492438844,-245.2000000005,11.5194
1492438846,-194.8000000005,11.8708
1492438848,-252.4000000005,11.8628
1492438850,-235.6000000005,10.1568
1492438852,-233.2000000005,11.612
1492438854,-281.2000000005,7.77275
1492438856,-314.8000000005,10.6761
1492438858,-238.0000000005,8.74567
1492438860,-264.4000000005,7.69313
1492438862,-286.0000000005,8.78488
1492438864,-226.0000000005,9.29629
1492438866,-238.0000000005,11.9924
1492438868,-295.6000000005,8.3835
1492438870,-238.0000000005,8.69407
1492438872,-226.0000000005,8.24601
1492438874,-238.0000000005,11.5309
1492438876,-209.2000000005,12.169
1492438878,-235.6000000005,9.67876
1492438880,-286.0000000005,9.47706
1492438882,-230.8000000005,7.35981
1492438884,-230.8000000005,7.65284
1492438886,-300.4000000005,12.3929
1492438888,-221.2000000005,10.7132
1492438890,-206.8000000005,9.50416
1492438892,-247.6000000005,10.0344
1492438894,-259.6000000005,9.22389
1492438896,-247.6000000005,9.4025
1492438898,-283.6000000005,10.5552
1492438900,-223.6000000005,8.05245
1492438902,-226.0000000005,11.5968
1492438904,-266.8000000005,8.95272
1492438906,-329.2000000005,8.79444
1492438908,-226.0000000005,7.08498
1492438910,-266.8000000005,9.62718
1492438912,-281.2000000005,10.9855
1492438914,-233.2000000005,8.66506
1492438916,-197.2000000005,9.42631
1492438918,-288.4000000005,7.68417
1492438920,-264.4000000005,6.89121
1492438922,-233.2000000005,8.63378
1492438924,-302.8000000005,6.08759
1492438926,-293.2000000005,6.49584
1492438928,-252.4000000005,8.32568
1492438930,-295.6000000005,8.63248
1492438932,-290.8000000005,7.99365
1492438934,-214.0000000005,7.78627
1492438936,-362.8000000005,8.08551
1492438938,-278.8000000005,10.8594
1492438940,-300.4000000005,10.3136
1492438942,-238.0000000005,7.92437
1492438944,-264.4000000005,8.97751
1492438946,-254.8000000005,9.01434
1492438948,-230.8000000005,9.35081
1492438950,-278.8000000005,5.58363
1492438952,-238.0000000005,7.81385
1492438954,-240.4000000005,6.63793
1492438956,-343.6000000005,11.0656
1492438958,-302.8000000005,11.4187
1492438960,-254.8000000005,11.8057
1492438962,-283.6000000005,11.0958
1492438964,-288.4000000005,10.0175
1492438966,-276.4000000005,8.92162
1492438968,-276.4000000005,9.50985
1492438970,-259.6000000005,8.63701
1492438972,-262.0000000005,9.21053
1492438974,-204.4000000005,12.179
1492438976,-228.4000000005,9.29643
1492438978,-223.6000000005,8.51515
1492438980,-214.0000000005,10.1708
1492438982,-206.8000000005,11.1683
1492438984,-103.6000000005,10.0966
1492438986,-192.4000000005,7.13396
1492438988,-130.0000000005,7.4143
1492438990,-211.6000000005,10.2766
1492438992,-79.6000000005,9.37194
1492438994,-221.2000000005,5.19486
1492438996,-223.6000000005,6.09151
1492439000,-216.4000000005,7.97466
1492439002,-286.0000000005,7.96075
1492439004,-151.6000000005,10.5339
1492439006,-197.2000000005,8.45863
1492439012,-204.4000000005,11.9361
1492439018,25.9999999995,12.1302
1492439020,-214.0000000005,10.7392
1492439022,-161.2000000005,10.9382
1492439024,-132.4000000005,8.81524
1492439026,-151.6000000005,7.54548
1492439028,-214.0000000005,8.89308
1492439030,-209.2000000005,7.1853
1492439032,-230.8000000005,7.90675
1492439034,-214.0000000005,8.51258
1492439036,-214.0000000005,8.07662
1492439038,-235.6000000005,9.13763
1492439040,-223.6000000005,8.65716
1492439042,-254.8000000005,10.3113
1492439044,-214.0000000005,10.8643
1492439046,-235.6000000005,8.71695
1492439048,-199.6000000005,10.7335
1492439050,-230.8000000005,11.8024
1492439052,-211.6000000005,10.5623
1492439054,-216.4000000005,9.33715
1492439056,-209.2000000005,10.1152
1492439058,-233.2000000005,11.2414
1492439060,-235.6000000005,7.91013
1492439062,-211.6000000005,9.13596
1492439064,-192.4000000005,11.0723
1492439066,-216.4000000005,11.8144
1492439068,-192.4000000005,10.8288
1492439070,-230.8000000005,8.7985
1492439072,-230.8000000005,7.56868
1492439074,-218.8000000005,7.77792
1492439076,-223.6000000005,9.2942
1492439078,-134.8000000005,10.0698
1492439080,-250.0000000005,8.36359
1492439082,-235.6000000005,9.12854
1492439084,-228.4000000005,11.0948
1492439086,-204.4000000005,11.3782
1492439088,-192.4000000005,13.0555
1492439090,-298.0000000005,6.22682
1492439092,-216.4000000005,5.96789
1492439094,-218.8000000005,5.27707
1492439096,-187.6000000005,9.09015
1492439098,-211.6000000005,7.10521
1492439100,-290.8000000005,6.46119
1492439102,-214.0000000005,7.77151
1492439104,-235.6000000005,12.3603
1492439106,-216.4000000005,9.34925
1492439108,-192.4000000005,8.8969
1492439110,-209.2000000005,9.28836
1492439112,-180.4000000005,9.56827
1492439114,-204.4000000005,8.01826
1492439116,-206.8000000005,8.83622
1492439118,-202.0000000005,10.779
1492439120,-178.0000000005,7.76104
1492439122,-168.4000000005,8.31994
1492439124,-199.6000000005,8.40571
1492439126,-192.4000000005,8.68979
1492439128,-137.2000000005,6.81415
1492439130,-197.2000000005,8.56489
1492439132,-98.8000000005,8.88341
1492439134,-74.8000000005,10.1542
1492439136,-199.6000000005,9.71446
1492439138,-137.2000000005,9.31419
1492439140,-175.6000000005,6.56615
1492439142,-221.2000000005,7.44871
1492439144,-166.0000000005,9.45931
1492439146,-194.8000000005,7.71781
1492439148,-180.4000000005,8.05406
1492439150,-190.0000000005,6.99321
1492439152,-214.0000000005,5.5441
1492439154,-178.0000000005,9.51061
1492439158,-211.6000000005,8.18823
1492439160,-139.6000000005,9.92718
1492439162,-187.6000000005,12.578
1492439164,-144.4000000005,8.6954
1492439166,-235.6000000005,7.27484
1492439168,-209.2000000005,8.73816
1492439170,-182.8000000005,8.92491
1492439172,-221.2000000005,7.77928
1492439174,-226.0000000005,7.42193
1492439176,-204.4000000005,8.08486
1492439178,-180.4000000005,8.37782
1492439180,-211.6000000005,10.6258
1492439182,-228.4000000005,9.50271
1492439184,-206.8000000005,8.5701
1492439186,-190.0000000005,7.44752
1492439188,-221.2000000005,6.89774
1492439190,-206.8000000005,9.36744
1492439192,-194.8000000005,7.67477
1492439194,-194.8000000005,8.78823
1492439196,-204.4000000005,10.2648
1492439198,-149.2000000005,9.13388
1492439200,-130.0000000005,10.7683
1492439202,-182.8000000005,10.8097
1492439204,-60.4000000005,10.3561
1492439206,-190.0000000005,9.8508
1492439208,-194.8000000005,8.96906
1492439210,-72.4000000005,6.48331
1492439212,-67.6000000005,6.19336
1492439214,-142.0000000005,7.74347
1492439216,-202.0000000005,8.61338
1492439218,-182.8000000005,8.57874
1492439220,-170.8000000005,9.07493
1492439222,-108.4000000005,7.6001
1492439224,-204.4000000005,7.30161
1492439226,-170.8000000005,9.02492
1492439228,-204.4000000005,6.7308
1492439230,-166.0000000005,7.47861
1492439232,-125.2000000005,11.8672
1492439234,-62.8000000004999,10.9159
1492439236,-199.6000000005,11.8839
1492439238,-209.2000000005,11.0034
1492439240,-134.8000000005,11.0537
1492439242,-204.4000000005,8.67867
1492439244,-190.0000000005,11.591
1492439246,-211.6000000005,9.40363
1492439250,-223.6000000005,10.8435
1492439252,-199.6000000005,9.06307
1492439254,-139.6000000005,10.54
1492439256,-233.2000000005,9.91548
1492439258,-211.6000000005,9.20192
1492439260,-202.0000000005,9.47155
1492439262,-199.6000000005,10.4025
1492439264,-187.6000000005,7.73426
1492439266,-127.6000000005,10.6549
1492439268,-180.4000000005,7.57372
1492439270,-197.2000000005,8.91264
1492439272,-182.8000000005,11.2148
1492439274,-252.4000000005,11.0673
1492439276,-206.8000000005,8.24467
1492439278,-197.2000000005,9.00671
1492439280,-190.0000000005,10.8211
1492439282,-283.6000000005,10.4118
1492439284,-218.8000000005,9.86535
1492439286,-127.6000000005,8.49908
1492439290,-235.6000000005,10.0785
1492439292,-178.0000000005,10.9586
1492439294,-202.0000000005,9.81185
1492439296,-230.8000000005,11.1337
1492439300,-226.0000000005,8.48018
1492439302,-226.0000000005,9.80827
1492439304,-137.2000000005,7.3017
1492439306,-146.8000000005,9.08133
1492439308,-110.8000000005,7.97905
1492439310,-166.0000000005,7.03026
1492439314,-211.6000000005,7.30215
1492439316,-163.6000000005,5.77548
1492439318,-168.4000000005,8.46625
1492439320,-235.6000000005,5.27334
1492439322,-161.2000000005,6.25108
1492439324,-194.8000000005,9.56694
1492439326,-187.6000000005,7.16464
1492439328,-206.8000000005,9.62053
1492439330,-197.2000000005,8.03227
1492439332,-175.6000000005,9.07285
1492439334,-192.4000000005,10.0041
1492439336,-166.0000000005,10.398
1492439338,-130.0000000005,9.09861
1492439340,-211.6000000005,10.1129
1492439342,-190.0000000005,9.16524
1492439344,-180.4000000005,9.07156
1492439346,-199.6000000005,9.29313
1492439348,-142.0000000005,10.6584
1492439350,-156.4000000005,8.51516
1492439352,-214.0000000005,11.3898
1492439354,-142.0000000005,7.21317
1492439356,-204.4000000005,9.24846
1492439358,-194.8000000005,8.5141
1492439360,-182.8000000005,8.32478
1492439362,-166.0000000005,8.30305
1492439364,-137.2000000005,11.4797
1492439366,-192.4000000005,8.84775
1492439368,-180.4000000005,9.18726
1492439370,-134.8000000005,8.47749
1492439372,-216.4000000005,10.5157
1492439374,-149.2000000005,11.3348
1492439376,-197.2000000005,10.3862
1492439378,-218.8000000005,6.09623
1492439380,-228.4000000005,9.88041
1492439382,-151.6000000005,11.3337
1492439384,-96.4000000005,7.58894
1492439386,-178.0000000005,8.64908
1492439388,-185.2000000005,5.42515
1492439390,-110.8000000005,9.97385
1492439392,-137.2000000005,10.7192
1492439394,-74.8000000005,10.3944
1492439396,-134.8000000005,10.0464
1492439398,-197.2000000005,9.30303
1492439400,-106.0000000005,9.57714
1492439402,-130.0000000005,7.80911
1492439404,-65.2000000005,10.5806
1492439406,-86.8000000005,9.51546
1492439410,-120.4000000005,9.18842
1492439412,-127.6000000005,7.30275
1492439414,-130.0000000005,7.36204
1492439416,-180.4000000005,7.34265
1492439418,-144.4000000005,8.64113
1492439420,-190.0000000005,6.41725
1492439422,-118.0000000005,7.59309
1492439424,-79.6000000005,9.74136
1492439426,-154.0000000005,10.495
1492439428,-72.4000000005,10.8952
1492439430,-70.0000000005,9.59539
1492439432,-137.2000000005,9.80475
1492439434,-60.4000000005,7.54949
1492439436,-106.0000000005,9.116
1492439438,-178.0000000005,7.81614
1492439440,-146.8000000005,8.39353
1492439442,-166.0000000005,7.78794
1492439444,-110.8000000005,9.14622
1492439446,-103.6000000005,10.3501
1492439448,-84.4000000005,11.58
1492439450,-194.8000000005,11.3102
1492439452,-113.2000000005,11.102
1492439454,-130.0000000005,13.2887
1492439456,-108.4000000005,11.8837
1492439458,-182.8000000005,11.9528
1492439460,-154.0000000005,10.2556
1492439462,-163.6000000005,10.0849
1492439466,-144.4000000005,10.7471
1492439468,-199.6000000005,6.43829
1492439470,-58.0000000005,7.49733
1492439474,-122.8000000005,10.9399
1492439476,-144.4000000005,10.5816
1492439478,-70.0000000005,7.68473
1492439480,-101.2000000005,8.68649
1492439482,-154.0000000005,8.79069
1492439484,-187.6000000005,9.97062
1492439486,-170.8000000005,9.13765
1492439488,-190.0000000005,9.67384
1492439490,-178.0000000005,6.874
1492439492,-163.6000000005,6.24766
1492439494,-161.2000000005,7.68148
1492439496,-214.0000000005,5.05576
1492439498,-204.4000000005,11.1979
1492439500,-233.2000000005,9.64525
1492439502,-226.0000000005,7.3584
1492439504,-199.6000000005,8.61598
1492439506,-202.0000000005,8.71716
1492439508,-185.2000000005,7.29881
1492439510,-199.6000000005,6.79945
1492439512,-228.4000000005,10.434
1492439514,-228.4000000005,8.20871
1492439516,-211.6000000005,8.63006
1492439518,-204.4000000005,10.55
1492439520,-228.4000000005,10.1991
1492439522,-221.2000000005,7.56846
1492439524,-218.8000000005,8.54686
1492439526,-257.2000000005,7.91371
1492439528,-228.4000000005,5.94658
1492439530,-204.4000000005,4.31359
1492439532,-211.6000000005,6.50966
1492439534,-211.6000000005,6.86365
1492439536,-194.8000000005,7.75241
1492439538,-211.6000000005,9.06315
1492439540,-247.6000000005,8.18248
1492439542,-209.2000000005,9.89542
1492439544,-230.8000000005,9.08005
1492439546,-230.8000000005,9.81355
1492439548,-194.8000000005,9.24831
1492439550,-214.0000000005,10.1508
1492439552,-226.0000000005,11.5545
1492439554,-221.2000000005,10.7691
1492439556,-199.6000000005,10.6595
1492439558,-206.8000000005,11.647
1492439560,-187.6000000005,10.5636
1492439562,-142.0000000005,12.3571
1492439564,-190.0000000005,10.8063
1492439566,-130.0000000005,11.7576
1492439568,-206.8000000005,11.4317
1492439570,-221.2000000005,13.1048
1492439572,-199.6000000005,9.53313
1492439574,-139.6000000005,9.58713
1492439576,-226.0000000005,7.64912
1492439578,-226.0000000005,7.82633
1492439580,-182.8000000005,8.51456
1492439582,-199.6000000005,9.70513
1492439584,-245.2000000005,7.86403
1492439586,-163.6000000005,7.39974
1492439588,-211.6000000005,9.53631
1492439590,-218.8000000005,9.73488
1492439592,-216.4000000005,7.88328
1492439594,-247.6000000005,8.7295
1492439596,-214.0000000005,9.88067
1492439598,-223.6000000005,9.92176
1492439600,-221.2000000005,11.1738
1492439602,-214.0000000005,11.8014
1492439604,-161.2000000005,10.6567
1492439608,-216.4000000005,7.56692
1492439610,-199.6000000005,8.53595
1492439612,-113.2000000005,9.12309
1492439614,-197.2000000005,9.78233
1492439616,-173.2000000005,9.72513
1492439618,-180.4000000005,10.6692
1492439620,-166.0000000005,13.3088
1492439622,-194.8000000005,14.4513
1492439624,-209.2000000005,12.197
1492439626,-163.6000000005,9.25737
1492439628,-218.8000000005,12.4527
1492439630,-199.6000000005,10.3355
1492439632,-202.0000000005,7.77735
1492439634,-190.0000000005,7.69286
1492439636,-202.0000000005,6.59777
1492439638,-226.0000000005,5.92736
1492439640,-235.6000000005,6.17725
1492439642,-238.0000000005,5.36069
1492439644,-197.2000000005,8.2124
1492439646,-206.8000000005,9.0739
1492439648,-228.4000000005,8.00395
1492439650,-250.0000000005,10.7327
1492439652,-235.6000000005,12.4497
1492439654,-245.2000000005,7.01322
1492439656,-127.6000000005,8.89221
1492439658,-214.0000000005,4.73079
1492439660,-230.8000000005,3.53023
1492439662,-206.8000000005,4.16064
1492439664,-288.4000000005,6.13274
1492439666,-271.6000000005,11.3643
1492439668,-274.0000000005,9.36197
1492439670,-230.8000000005,8.88586
1492439672,-269.2000000005,7.77436
1492439674,-204.4000000005,9.21146
1492439676,-202.0000000005,10.7402
1492439678,-226.0000000005,8.42256
1492439680,-221.2000000005,8.57706
1492439682,-216.4000000005,7.28551
1492439684,-226.0000000005,9.11219
1492439686,-216.4000000005,11.0495
1492439688,-240.4000000005,8.69366
1492439690,-209.2000000005,11.58
1492439692,-194.8000000005,13.1147
1492439694,-209.2000000005,11.5148
1492439696,-170.8000000005,10.4968
1492439698,-202.0000000005,9.14635
1492439700,-142.0000000005,8.4736
1492439702,-223.6000000005,8.66097
1492439704,-206.8000000005,7.69758
1492439706,-204.4000000005,7.63786
1492439708,-230.8000000005,8.63922
1492439710,-221.2000000005,9.08076
1492439712,-254.8000000005,9.58517
1492439714,-230.8000000005,10.3726
1492439716,-228.4000000005,7.66193
1492439718,-250.0000000005,9.6141
1492439720,-175.6000000005,9.40908
1492439722,-247.6000000005,9.47264
1492439724,-238.0000000005,11.1703
1492439726,-230.8000000005,9.54922
1492439728,-252.4000000005,10.6118
1492439730,-218.8000000005,9.42332
1492439732,-223.6000000005,10.9171
1492439734,-218.8000000005,10.4502
1492439736,-238.0000000005,11.0568
1492439738,-228.4000000005,9.69221
1492439740,-204.4000000005,10.2791
1492439742,-206.8000000005,8.29094
1492439744,-194.8000000005,8.74598
1492439746,-202.0000000005,10.7689
1492439748,-226.0000000005,10.8688
1492439750,-218.8000000005,9.70143
1492439752,-218.8000000005,9.59157
1492439754,-223.6000000005,8.2772
1492439756,-214.0000000005,8.53937
1492439758,-185.2000000005,8.45906
1492439760,-190.0000000005,7.34404
1492439762,-194.8000000005,4.88845
1492439764,-209.2000000005,7.16614
1492439766,-252.4000000005,10.093
1492439768,-197.2000000005,8.84225
1492439770,-197.2000000005,8.18379
1492439772,-223.6000000005,7.35199
1492439774,-187.6000000005,8.79911
1492439776,-202.0000000005,11.0066
1492439778,-197.2000000005,8.65924
1492439780,-245.2000000005,10.112
1492439782,-178.0000000005,10.9971
1492439784,-223.6000000005,12.2864
1492439786,-233.2000000005,11.9942
1492439788,-70.0000000005,9.58535
1492439790,-197.2000000005,6.52216
1492439792,-266.8000000005,7.54731
1492439794,-228.4000000005,7.13819
1492439796,-221.2000000005,8.84366
1492439798,-235.6000000005,8.30874
1492439800,-238.0000000005,7.56564
1492439802,-226.0000000005,8.04317
1492439804,-235.6000000005,7.3224
1492439806,-238.0000000005,8.72933
1492439808,-214.0000000005,9.20683
1492439810,-180.4000000005,8.37446
1492439812,-235.6000000005,7.68097
1492439814,-209.2000000005,7.84826
1492439816,-223.6000000005,10.4475
1492439818,-218.8000000005,10.605
1492439820,-182.8000000005,9.39891
1492439822,-221.2000000005,10.6203
1492439824,-226.0000000005,11.9235
1492439826,-266.8000000005,9.6245
1492439828,-250.0000000005,9.39919
1492439830,-235.6000000005,8.57069
1492439832,-230.8000000005,7.66992
1492439834,-286.0000000005,6.85616
1492439836,-252.4000000005,8.78118
1492439838,-233.2000000005,9.12788
1492439840,-257.2000000005,9.75621
1492439842,-230.8000000005,8.37664
1492439844,-254.8000000005,6.64033
1492439846,-310.0000000005,7.56483
1492439848,-238.0000000005,7.74738
1492439850,-202.0000000005,8.12634
1492439852,-245.2000000005,7.12515
1492439854,-346.0000000005,7.71969
1492439856,-278.8000000005,8.15311
1492439858,-302.8000000005,5.04886
1492439860,-298.0000000005,6.63523
1492439862,-252.4000000005,7.57042
1492439864,-252.4000000005,7.52178
1492439866,-350.8000000005,7.3183
1492439868,-290.8000000005,8.55436
1492439870,-218.8000000005,7.44777
1492439872,-310.0000000005,7.27354
1492439874,-288.4000000005,7.55132
1492439876,-269.2000000005,7.83457
1492439878,-336.4000000005,6.76948
1492439880,-310.0000000005,7.5411
1492439882,-274.0000000005,10.6404
1492439884,-358.0000000005,8.29343
1492439886,-257.2000000005,9.55736
1492439888,-274.0000000005,9.75089
1492439890,-278.8000000005,10.939
1492439892,-302.8000000005,9.45659
1492439894,-269.2000000005,11.3157
1492439896,-274.0000000005,10.9652
1492439898,-257.2000000005,10.0672
1492439900,-298.0000000005,10.0163
1492439902,-230.8000000005,7.93487
1492439904,-367.6000000005,7.78213
1492439906,-247.6000000005,9.6455
1492439908,-295.6000000005,12.1881
1492439910,-242.8000000005,14.4132
1492439912,-228.4000000005,9.20579
1492439914,-288.4000000005,11.9766
1492439916,-286.0000000005,10.799
1492439918,-218.8000000005,8.98959
1492439920,-264.4000000005,9.99171
1492439922,-221.2000000005,10.7203
1492439924,-271.6000000005,10.7739
1492439926,-197.2000000005,9.30106
1492439928,-235.6000000005,8.51888
1492439930,-223.6000000005,9.98522
1492439932,-199.6000000005,7.91128
1492439934,-247.6000000005,9.08247
1492439936,-216.4000000005,10.2835
1492439938,-185.2000000005,9.51226
1492439940,-194.8000000005,9.71046
1492439942,-221.2000000005,9.78322
1492439944,-190.0000000005,10.002
1492439946,-233.2000000005,10.6322
1492439948,-209.2000000005,8.98697
1492439950,-185.2000000005,8.27551
1492439952,-182.8000000005,9.67488
1492439954,-218.8000000005,10.8532
1492439956,-190.0000000005,8.81881
1492439958,-168.4000000005,8.6304
1492439960,-168.4000000005,11.1802
1492439962,-197.2000000005,11.0599
1492439964,-156.4000000005,9.25209
1492439966,-178.0000000005,8.48435
1492439968,-214.0000000005,11.9877
1492439970,-166.0000000005,9.35798
1492439972,-187.6000000005,9.72706
1492439974,-209.2000000005,9.53298
1492439976,-209.2000000005,9.92829
1492439978,-187.6000000005,8.86927
1492439980,-175.6000000005,9.45197
1492439982,-180.4000000005,8.80723
1492439984,-206.8000000005,9.99951
1492439986,-187.6000000005,9.33281
1492439988,-197.2000000005,9.05624
1492439990,-199.6000000005,8.45431
1492439992,-206.8000000005,9.38818
1492439994,-202.0000000005,9.55714
1492439996,-120.4000000005,11.7833
1492439998,-209.2000000005,12.264
1492440000,-185.2000000005,12.9499
1492440002,-185.2000000005,9.45358
1492440004,-214.0000000005,9.70016
1492440006,-238.0000000005,9.40935
1492440008,-185.2000000005,8.17621
1492440012,-206.8000000005,9.43346
1492440014,-228.4000000005,6.328
1492440016,-194.8000000005,10.2643
1492440018,-228.4000000005,10.8109
1492440020,-211.6000000005,11.2665
1492440022,-211.6000000005,10.9302
1492440024,-209.2000000005,11.3306
1492440026,-228.4000000005,9.39999
1492440028,-151.6000000005,5.56396
1492440030,-202.0000000005,7.06061
1492440032,-204.4000000005,5.46076
1492440034,-214.0000000005,5.35654
1492440036,-192.4000000005,7.68551
1492440038,-199.6000000005,9.19208
1492440040,-226.0000000005,10.1347
1492440042,-228.4000000005,8.67287
1492440044,-238.0000000005,7.25891
1492440046,-204.4000000005,7.69744
1492440048,-211.6000000005,9.48205
1492440050,-233.2000000005,8.42503
1492440052,-166.0000000005,8.84974
1492440054,-161.2000000005,8.18197
1492440056,-223.6000000005,7.73543
1492440058,-216.4000000005,6.93548
1492440060,-223.6000000005,9.27198
1492440062,-238.0000000005,8.44819
1492440064,-290.8000000005,9.55154
1492440066,-209.2000000005,8.70345
1492440068,-180.4000000005,8.84036
1492440070,-235.6000000005,7.52516
1492440072,-230.8000000005,4.88655
1492440074,-221.2000000005,11.0701
1492440076,-223.6000000005,8.0882
1492440078,-240.4000000005,7.83722
1492440080,-295.6000000005,8.41392
1492440082,-242.8000000005,6.30243
1492440084,-271.6000000005,7.97678
1492440086,-228.4000000005,9.03395
1492440088,-230.8000000005,7.9656
1492440090,-269.2000000005,8.3195
1492440094,-259.6000000005,5.89738
1492440096,-214.0000000005,7.66937
1492440098,-250.0000000005,6.65409
1492440100,-238.0000000005,6.7615
1492440102,-226.0000000005,9.24107
1492440104,-235.6000000005,7.62201
1492440106,-202.0000000005,5.27308
1492440108,-228.4000000005,7.1863
1492440110,-216.4000000005,8.97616
1492440112,-173.2000000005,5.04307
1492440114,-209.2000000005,8.74254
1492440116,-252.4000000005,6.80441
1492440118,-211.6000000005,6.90448
1492440120,-209.2000000005,8.04829
1492440122,-221.2000000005,7.02306
1492440124,-221.2000000005,8.12419
1492440126,-221.2000000005,7.50766
1492440128,-194.8000000005,8.39205
1492440130,-211.6000000005,9.5584
1492440132,-187.6000000005,9.0263
1492440134,-199.6000000005,10.0412
1492440136,-230.8000000005,7.69828
1492440138,-211.6000000005,7.8084
1492440140,-158.8000000005,8.05497
1492440142,-238.0000000005,7.78845
1492440144,-226.0000000005,6.64551
1492440146,-197.2000000005,7.73474
1492440148,-233.2000000005,5.09113
1492440150,-194.8000000005,6.35647
1492440152,-266.8000000005,10.0078
1492440154,-259.6000000005,7.417
1492440156,-235.6000000005,9.38027
1492440158,-223.6000000005,8.24475
1492440160,-300.4000000005,8.94033
1492440162,-209.2000000005,9.00793
1492440164,-235.6000000005,9.47186
1492440166,-206.8000000005,8.6939
1492440168,-226.0000000005,10.548
1492440170,-214.0000000005,7.36751
1492440172,-156.4000000005,8.52671
1492440174,-216.4000000005,6.38799
1492440176,-233.2000000005,8.69344
1492440178,-235.6000000005,10.8483
1492440180,-211.6000000005,10.6642
1492440182,-202.0000000005,10.1607
1492440184,-242.8000000005,7.82917
1492440186,-230.8000000005,8.20753
1492440188,-240.4000000005,7.03576
1492440190,-288.4000000005,6.17334
1492440192,-209.2000000005,7.93618
1492440194,-190.0000000005,6.58553
1492440196,-233.2000000005,7.36796
1492440198,-218.8000000005,6.4016
1492440200,-197.2000000005,8.44488
1492440202,-221.2000000005,8.09614
1492440204,-226.0000000005,6.80402
1492440206,-242.8000000005,8.17535
1492440208,-218.8000000005,7.9679
1492440210,-216.4000000005,8.49703
1492440212,-199.6000000005,11.7776
1492440214,-278.8000000005,12.2743
1492440216,-286.0000000005,11.7517
1492440218,-180.4000000005,11.4423
1492440220,-233.2000000005,11.5862
1492440222,-293.2000000005,7.33686
1492440224,-250.0000000005,7.52193
1492440226,-274.0000000005,11.5174
1492440228,-305.2000000005,10.3411
1492440230,-230.8000000005,9.47242
1492440232,-266.8000000005,7.36205
1492440234,-250.0000000005,8.69193
1492440236,-206.8000000005,9.1298
1492440238,-223.6000000005,8.72518
1492440240,-211.6000000005,10.1382
1492440242,-216.4000000005,8.88529
1492440248,-214.0000000005,11.142
1492440250,-115.6000000005,9.89772
1492440252,-187.6000000005,10.0523
1492440254,-218.8000000005,7.29712
1492440256,-202.0000000005,8.99255
1492440258,-235.6000000005,6.87146
1492440260,-218.8000000005,5.62886
1492440262,-209.2000000005,9.26538
1492440264,-226.0000000005,9.24662
1492440266,-221.2000000005,7.56147
1492440268,-209.2000000005,7.5661
1492440270,-226.0000000005,9.86099
1492440272,-197.2000000005,6.97647
1492440274,-170.8000000005,6.99657
1492440276,-226.0000000005,4.78943
1492440278,-161.2000000005,6.16005
1492440280,-190.0000000005,6.05565
1492440282,-144.4000000005,7.61931
1492440284,-197.2000000005,5.68808
1492440286,-130.0000000005,6.07816
1492440288,-79.6000000005,7.52104
1492440290,-110.8000000005,11.0429
1492440292,-132.4000000005,8.8774
1492440294,-46.0000000005,9.34193
1492440296,-2.80000000049995,8.40067
1492440298,-36.4000000005,7.69983
1492440300,-17.2000000005,10.7539
1492440302,-38.8000000004999,7.77977
1492440304,-46.0000000005,8.24715
1492440306,13.9999999995,5.51111
1492440308,-67.6000000005,9.43729
1492440310,-91.6000000005,9.21411
1492440312,-38.8000000004999,8.39427
1492440314,-58.0000000005,4.971
1492440316,-70.0000000005,7.17431
1492440318,-70.0000000005,7.1062
1492440320,-96.4000000005,9.66743
1492440322,-58.0000000005,7.12629
1492440324,-130.0000000005,6.16858
1492440326,-36.4000000005,6.23364
1492440328,-98.8000000005,5.9189
1492440330,-50.8000000004999,8.50133
1492440332,-62.8000000004999,10.3621
1492440334,-58.0000000005,10.7922
1492440336,-70.0000000005,11.146
1492440338,-53.2000000005,9.3608
1492440340,28.3999999995,6.36949
1492440342,33.1999999994999,6.63067
1492440344,16.3999999995,7.18924
1492440346,52.3999999995,7.42729
1492440348,9.19999999950005,6.90072
1492440350,25.9999999995,8.75006
1492440352,25.9999999995,8.13498
1492440354,16.3999999995,8.41287
1492440356,13.9999999995,10.6344
1492440358,11.5999999995,10.4765
1492440360,-50.8000000004999,11.993
1492440362,21.1999999994999,7.48584
1492440364,11.5999999995,4.91484
1492440366,1.99999999950001,9.67472
1492440368,-0.400000000499972,9.99652
1492440370,30.7999999995,8.26568
1492440372,9.19999999950005,5.7123
1492440374,11.5999999995,7.05677
1492440376,42.7999999995,6.09948
1492440378,11.5999999995,8.25105
1492440380,16.3999999995,9.10254
1492440382,42.7999999995,7.24321
1492440384,21.1999999994999,7.49006
1492440386,23.5999999995,8.12464
1492440388,9.19999999950005,8.06675
1492440390,25.9999999995,7.6009
1492440392,18.7999999995,8.28284
1492440394,6.79999999949996,8.58311
1492440396,13.9999999995,8.66201
1492440398,-24.4000000005,8.48587
1492440400,-2.80000000049995,10.3033
1492440402,-26.8000000004999,9.60446
1492440404,-29.2000000005,9.06203
1492440406,-0.400000000499972,8.44991
1492440408,25.9999999995,7.26324
1492440410,-29.2000000005,11.3037
1492440412,40.3999999995,10.9394
1492440414,18.7999999995,10.6453
1492440416,-31.6000000005,8.84396
1492440418,-22.0000000005,10.6656
1492440420,-24.4000000005,13.1585
1492440422,-58.0000000005,11.1406
1492440424,-58.0000000005,10.7112
1492440426,-10.0000000005,10.0839
1492440428,16.3999999995,8.33296
1492440430,-0.400000000499972,9.90056
1492440432,16.3999999995,7.85142
1492440434,6.79999999949996,4.1351
1492440436,1.99999999950001,4.93696
1492440438,40.3999999995,7.43632
1492440440,49.9999999995,5.48659
1492440442,9.19999999950005,5.75772
1492440444,71.5999999995,6.60582
1492440446,-41.2000000005,10.9875
1492440448,-48.4000000005,8.20127
1492440450,-36.4000000005,6.94144
1492440452,-0.400000000499972,8.69185
1492440454,-65.2000000005,9.88631
1492440456,-38.8000000004999,12.497
1492440458,-91.6000000005,8.1456
1492440460,-60.4000000005,9.65455
1492440462,-96.4000000005,8.07821
1492440464,-53.2000000005,10.6217
1492440466,-110.8000000005,9.94165
1492440468,-46.0000000005,8.14709
1492440470,-82.0000000005,9.13936
1492440472,-74.8000000005,8.34491
1492440474,-74.8000000005,6.47009
1492440476,-72.4000000005,7.41987
1492440478,-110.8000000005,8.03417
1492440480,-91.6000000005,7.51908
1492440482,-53.2000000005,9.04482
1492440484,-120.4000000005,7.42157
1492440486,-113.2000000005,5.78157
1492440488,-19.6000000005,7.14571
1492440490,-115.6000000005,7.31175
1492440492,-46.0000000005,8.57888
1492440494,-5.20000000050004,7.16108
1492440496,-60.4000000005,7.87984
1492440498,-82.0000000005,7.43786
1492440500,-38.8000000004999,8.6451
1492440502,-43.6000000005,8.61622
1492440504,-55.6000000005,11.4582
1492440506,21.1999999994999,9.845
1492440508,-53.2000000005,8.94293
1492440510,1.99999999950001,7.69092
1492440512,18.7999999995,9.6544
1492440514,-34.0000000005,10.7386
1492440516,-65.2000000005,8.24846
1492440518,9.19999999950005,9.7954
1492440520,-67.6000000005,9.81538
1492440522,-67.6000000005,8.26747
1492440524,-34.0000000005,10.9825
1492440526,-65.2000000005,9.61125
1492440528,-72.4000000005,10.8195
1492440530,-82.0000000005,7.71352
1492440532,-53.2000000005,7.04338
1492440534,-36.4000000005,8.69728
1492440536,-36.4000000005,10.7512
1492440538,-60.4000000005,8.96077
1492440540,-110.8000000005,10.0143
1492440542,-89.2000000005,7.21595
1492440544,-50.8000000004999,5.82638
1492440546,-72.4000000005,7.28571
1492440548,-58.0000000005,9.12814
1492440550,-72.4000000005,8.36328
1492440552,-86.8000000005,8.10561
1492440554,-94.0000000005,7.86021
1492440556,-70.0000000005,10.4801
1492440558,-96.4000000005,9.82726
1492440560,-60.4000000005,9.48082
1492440562,-65.2000000005,7.96072
1492440564,-43.6000000005,9.04028
1492440566,-14.8000000004999,8.39252
1492440568,-48.4000000005,8.07147
1492440570,-41.2000000005,8.99357
1492440572,-43.6000000005,11.7461
1492440574,-65.2000000005,10.7158
1492440576,-50.8000000004999,10.6927
1492440578,23.5999999995,7.41372
1492440580,33.1999999994999,7.22474
1492440584,9.19999999950005,6.87716
1492440586,-50.8000000004999,9.18036
1492440588,23.5999999995,8.41945
1492440590,-12.4000000005,9.9094
1492440592,-29.2000000005,9.76253
1492440594,-86.8000000005,11.9102
1492440596,-50.8000000004999,13.652
1492440598,-74.8000000005,13.6124
1492440600,-84.4000000005,12.8176
1492440602,-12.4000000005,5.50488
1492440604,-115.6000000005,2.26095
1492440606,-77.2000000005,3.29889
1492440608,-67.6000000005,6.29094
1492440610,-125.2000000005,9.95146
1492440612,-53.2000000005,9.67162
1492440614,-34.0000000005,9.8721
1492440616,-106.0000000005,10.0852
1492440618,-72.4000000005,9.20374
1492440620,-43.6000000005,10.0229
1492440622,-53.2000000005,12.2522
1492440624,-58.0000000005,10.7769
1492440626,-50.8000000004999,10.4807
1492440628,-34.0000000005,11.8795
1492440630,-67.6000000005,10.8847
1492440632,-67.6000000005,8.31634
1492440634,-101.2000000005,7.92204
1492440636,-31.6000000005,10.3375
1492440638,-60.4000000005,8.93235
1492440640,-46.0000000005,7.92532
1492440642,-132.4000000005,9.766
1492440644,-62.8000000004999,8.53623
1492440646,-62.8000000004999,6.01207
1492440648,-103.6000000005,9.88749
1492440650,-79.6000000005,9.47506
1492440652,-50.8000000004999,10.7382
1492440654,-86.8000000005,7.41012
1492440656,-89.2000000005,7.85381
1492440658,-122.8000000005,8.58632
1492440660,-91.6000000005,10.4679
1492440662,-38.8000000004999,8.55694
1492440664,-125.2000000005,10.4178
1492440666,-72.4000000005,9.73182
1492440668,-84.4000000005,9.2457
1492440670,-98.8000000005,10.385
1492440672,-122.8000000005,7.20845
1492440674,-98.8000000005,8.38679
1492440676,-122.8000000005,7.83877
1492440678,-125.2000000005,6.25716
1492440680,-106.0000000005,6.47377
1492440682,-101.2000000005,7.59706
1492440684,-91.6000000005,8.80598
1492440686,-115.6000000005,8.77477
1492440688,-168.4000000005,9.18601
1492440690,-62.8000000004999,8.80532
1492440692,-194.8000000005,9.76733
1492440694,-182.8000000005,11.3954
1492440696,-190.0000000005,8.84688
1492440698,-190.0000000005,9.5644
1492440700,-142.0000000005,10.9063
1492440702,-163.6000000005,11.4642
1492440704,-146.8000000005,9.75918
1492440706,-180.4000000005,9.90232
1492440708,-146.8000000005,10.9101
1492440710,-192.4000000005,9.63112
1492440712,-168.4000000005,9.21903
1492440714,-163.6000000005,8.87135
1492440716,-197.2000000005,9.10253
1492440718,-192.4000000005,4.91157
1492440720,-170.8000000005,2.71966
1492440722,-115.6000000005,3.93302
1492440724,-72.4000000005,4.94016
1492440726,-156.4000000005,4.43075
1492440728,-190.0000000005,3.21743
1492440730,-154.0000000005,5.46117
1492440732,-142.0000000005,7.82375
1492440734,-170.8000000005,7.69274
1492440736,-142.0000000005,7.55499
1492440738,-197.2000000005,9.06331
1492440740,-168.4000000005,8.27222
1492440742,-120.4000000005,5.0368
1492440744,-187.6000000005,5.8098
1492440746,-192.4000000005,7.29487
1492440748,-202.0000000005,7.9333
1492440750,-149.2000000005,7.51321
1492440752,-144.4000000005,9.4192
1492440754,-163.6000000005,8.55123
1492440756,-151.6000000005,9.32956
1492440758,-142.0000000005,9.7618
1492440760,-161.2000000005,9.69491
1492440762,-130.0000000005,8.85473
1492440764,-96.4000000005,7.50758
1492440766,-146.8000000005,5.6036
1492440768,-144.4000000005,9.18577
1492440770,-146.8000000005,11.4534
1492440772,-190.0000000005,9.96173
1492440774,-101.2000000005,7.86395
1492440776,-86.8000000005,7.70422
1492440778,-202.0000000005,6.48282
1492440780,-142.0000000005,8.25626
1492440782,-94.0000000005,9.30209
1492440784,-139.6000000005,10.795
1492440786,-180.4000000005,8.70126
1492440788,-175.6000000005,7.87293
1492440790,-98.8000000005,10.8352
1492440792,-137.2000000005,9.19169
1492440794,-142.0000000005,9.99589
1492440796,-180.4000000005,8.05148
1492440798,-173.2000000005,9.09755
1492440800,-89.2000000005,9.97701
1492440802,-137.2000000005,11.2838
1492440804,-149.2000000005,12.1957
1492440806,-214.0000000005,13.127
1492440808,-161.2000000005,9.46968
1492440810,-142.0000000005,10.2387
1492440812,-168.4000000005,10.1183
1492440814,-161.2000000005,8.81265
1492440816,-190.0000000005,5.85926
1492440818,-204.4000000005,8.43186
1492440820,-218.8000000005,7.40332
1492440822,-187.6000000005,9.02757
1492440824,-146.8000000005,9.49533
1492440826,-144.4000000005,9.17006
1492440828,-151.6000000005,7.61851
1492440830,-156.4000000005,5.89401
1492440832,-173.2000000005,4.58785
1492440834,-108.4000000005,7.82874
1492440836,-182.8000000005,8.51744
1492440838,-190.0000000005,9.49307
1492440840,-192.4000000005,10.1316
1492440842,-194.8000000005,9.14728
1492440844,-134.8000000005,7.68926
1492440846,-110.8000000005,7.7893
1492440848,-151.6000000005,7.96528
1492440850,-144.4000000005,8.94888
1492440852,-130.0000000005,10.0235
1492440854,-170.8000000005,9.68641
1492440856,-91.6000000005,10.2434
1492440858,-96.4000000005,10.3234
1492440860,-151.6000000005,11.4807
1492440862,-113.2000000005,8.6943
1492440864,-67.6000000005,4.02531
1492440866,-173.2000000005,2.62621
1492440868,-178.0000000005,1.08126
1492440870,-137.2000000005,6.74792
1492440872,-118.0000000005,7.32596
1492440874,-72.4000000005,7.61214
1492440876,-89.2000000005,11.148
1492440878,-65.2000000005,10.3985
1492440880,-110.8000000005,8.57304
1492440882,-43.6000000005,11.0596
1492440884,-84.4000000005,9.78921
1492440886,-48.4000000005,8.93518
1492440888,-36.4000000005,9.59854
1492440890,-101.2000000005,10.3044
1492440892,16.3999999995,8.34574
1492440894,-12.4000000005,9.40869
1492440896,-46.0000000005,10.1291
1492440898,-41.2000000005,11.19
1492440900,16.3999999995,11.6345
1492440902,-48.4000000005,11.5613
1492440904,-43.6000000005,9.71094
1492440906,-53.2000000005,10.5601
1492440908,-89.2000000005,9.36173
1492440910,-31.6000000005,9.32227
1492440912,-38.8000000004999,5.93842
1492440914,-62.8000000004999,10.2179
1492440916,6.79999999949996,12.7914
1492440918,6.79999999949996,12.1597
1492440920,4.39999999949998,9.60604
1492440922,-55.6000000005,9.86126
1492440924,-46.0000000005,9.527
1492440926,-38.8000000004999,10.4314
1492440928,-72.4000000005,8.25712
1492440930,-50.8000000004999,9.6471
1492440932,-43.6000000005,12.0499
1492440934,-36.4000000005,10.8421
1492440936,-98.8000000005,8.48534
1492440938,-60.4000000005,7.44253
1492440940,-67.6000000005,9.49139
1492440942,-55.6000000005,7.08517
1492440944,-137.2000000005,5.63553
1492440946,-94.0000000005,9.86031
1492440948,-55.6000000005,10.1744
1492440950,-74.8000000005,12.341
1492440952,-110.8000000005,10.4758
1492440954,-120.4000000005,8.29039
1492440956,-94.0000000005,10.774
1492440958,-113.2000000005,12.1722
1492440960,-74.8000000005,3.99006
1492440962,-94.0000000005,7.03822
1492440964,-77.2000000005,6.39797
1492440966,-82.0000000005,6.85117
1492440968,-108.4000000005,10.6337
1492440970,-62.8000000004999,11.0862
1492440972,-79.6000000005,10.8211
1492440974,-67.6000000005,9.90863
1492440976,-48.4000000005,12.0819
1492440978,-60.4000000005,12.1956
1492440980,-84.4000000005,10.2822
1492440982,-46.0000000005,11.8027
1492440984,-103.6000000005,10.3346
1492440986,-82.0000000005,11.1561
1492440988,-72.4000000005,11.8979
1492440990,-89.2000000005,11.1677
1492440992,-55.6000000005,10.263
1492440994,-46.0000000005,9.65251
1492440996,-46.0000000005,10.1076
1492440998,-108.4000000005,10.4507
1492441000,-29.2000000005,10.943
1492441002,-38.8000000004999,10.2056
1492441004,-0.400000000499972,11.6635
1492441006,-41.2000000005,10.1153
1492441008,-74.8000000005,7.6438
1492441010,-91.6000000005,4.35451
1492441012,-34.0000000005,5.63095
1492441014,-125.2000000005,4.70118
1492441016,-79.6000000005,3.64687
1492441018,-89.2000000005,3.75926
1492441020,-86.8000000005,5.25345
1492441022,-125.2000000005,7.08748
1492441024,-166.0000000005,9.01592
1492441026,-115.6000000005,9.26804
1492441028,-84.4000000005,10.6375
1492441030,-84.4000000005,9.17071
1492441032,-130.0000000005,9.7188
1492441034,-65.2000000005,9.16939
1492441036,-101.2000000005,9.67244
1492441038,-84.4000000005,8.84274
1492441040,-60.4000000005,10.7492
1492441042,-74.8000000005,8.18748
1492441044,-43.6000000005,9.51569
1492441046,-34.0000000005,9.15514
1492441050,-118.0000000005,9.54428
1492441052,-50.8000000004999,9.13243
1492441054,-62.8000000004999,8.55503
1492441056,-94.0000000005,8.61661
1492441058,-48.4000000005,9.56033
1492441060,-48.4000000005,7.91595
1492441062,-43.6000000005,10.1461
1492441064,-38.8000000004999,9.65475
1492441066,-77.2000000005,9.21521
1492441068,-36.4000000005,8.4731
1492441070,-0.400000000499972,8.96406
1492441072,-48.4000000005,9.98865
1492441074,-29.2000000005,10.4095
1492441076,-62.8000000004999,4.62736
1492441078,-0.400000000499972,6.87108
1492441080,-29.2000000005,7.44541
1492441082,-65.2000000005,7.58795
1492441084,-84.4000000005,7.06324
1492441086,-50.8000000004999,6.39479
1492441088,-154.0000000005,8.29771
1492441090,-142.0000000005,6.7292
1492441092,-134.8000000005,9.05603
1492441094,-60.4000000005,8.03657
1492441096,-67.6000000005,10.711
1492441098,-82.0000000005,9.40635
1492441100,-170.8000000005,8.8304
1492441102,-103.6000000005,9.03609
1492441104,-118.0000000005,8.70093
1492441106,-125.2000000005,10.2602
1492441108,-166.0000000005,9.63693
1492441110,-94.0000000005,8.86855
1492441112,-113.2000000005,6.53524
1492441114,-130.0000000005,8.21578
1492441116,-156.4000000005,8.02405
1492441118,-144.4000000005,8.19609
1492441120,-120.4000000005,8.96785
1492441122,-86.8000000005,7.98336
1492441124,-161.2000000005,7.10675
1492441126,-132.4000000005,8.30729
1492441128,-74.8000000005,5.94638
1492441130,-122.8000000005,5.55808
1492441132,-108.4000000005,8.74274
1492441134,-46.0000000005,9.58456
1492441136,-60.4000000005,9.104
1492441138,-72.4000000005,7.64202
1492441140,-70.0000000005,8.48431
1492441142,-134.8000000005,9.65154
1492441144,-86.8000000005,8.56191
1492441146,-122.8000000005,8.43611
1492441148,-67.6000000005,9.28016
1492441150,-46.0000000005,6.34534
1492441152,-38.8000000004999,6.16371
1492441154,-122.8000000005,6.60766
1492441156,-79.6000000005,5.6154
1492441158,-55.6000000005,5.02282
1492441160,-31.6000000005,6.81744
1492441162,-22.0000000005,6.1999
1492441164,-29.2000000005,8.38033
1492441166,-70.0000000005,10.0114
1492441168,-7.60000000050002,7.97078
1492441170,11.5999999995,6.88269
1492441172,-50.8000000004999,5.21539
1492441174,-26.8000000004999,4.33289
1492441176,23.5999999995,6.30502
1492441178,25.9999999995,7.47146
1492441180,37.9999999995,9.34545
1492441182,13.9999999995,6.81575
1492441184,-46.0000000005,5.10915
1492441186,-0.400000000499972,5.53157
1492441188,33.1999999994999,4.2178
1492441190,-46.0000000005,5.94519
1492441192,21.1999999994999,6.49913
1492441194,-24.4000000005,8.75791
1492441196,-48.4000000005,7.90456
1492441198,4.39999999949998,8.08974
1492441200,23.5999999995,7.82043
1492441202,23.5999999995,8.58806
1492441204,13.9999999995,9.25137
1492441206,42.7999999995,10.1799
1492441208,1.99999999950001,8.566
1492441210,30.7999999995,8.3561
1492441212,35.5999999995,11.5791
1492441214,16.3999999995,12.5846
1492441216,-34.0000000005,8.18359
1492441218,6.79999999949996,10.7751
1492441220,-62.8000000004999,7.80669
1492441222,-38.8000000004999,8.39287
1492441224,-29.2000000005,9.36213
1492441226,-125.2000000005,7.88362
1492441228,-2.80000000049995,4.89103
1492441230,13.9999999995,4.08527
1492441232,-60.4000000005,5.04237
1492441234,-5.20000000050004,8.86723
1492441236,-67.6000000005,8.07896
1492441238,-101.2000000005,8.2849
1492441240,-60.4000000005,10.4406
1492441242,-53.2000000005,9.99288
1492441244,-31.6000000005,7.58183
1492441246,-84.4000000005,8.433
1492441248,-65.2000000005,7.01766
1492441250,-127.6000000005,8.38933
1492441252,-84.4000000005,10.2298
1492441254,-72.4000000005,9.93005
1492441256,-46.0000000005,8.53267
1492441258,-70.0000000005,7.16474
1492441260,-74.8000000005,5.03952
1492441262,-50.8000000004999,6.75168
1492441264,-101.2000000005,10.2066
1492441266,-62.8000000004999,7.43972
1492441268,-65.2000000005,9.44228
1492441270,-36.4000000005,8.21916
1492441272,-46.0000000005,8.05132
1492441274,-125.2000000005,11.4199
1492441276,-134.8000000005,9.98929
1492441278,-106.0000000005,8.04209
1492441280,-134.8000000005,9.57457
1492441282,-120.4000000005,9.42599
1492441284,-137.2000000005,10.6694
1492441286,-118.0000000005,8.86985
1492441288,-98.8000000005,5.67237
1492441290,-86.8000000005,5.76363
1492441292,-132.4000000005,8.78523
1492441294,-142.0000000005,7.47572
1492441296,-132.4000000005,6.95137
1492441298,-70.0000000005,7.37729
1492441300,-94.0000000005,6.96156
1492441302,-53.2000000005,7.66255
1492441304,-77.2000000005,7.54566
1492441306,-67.6000000005,8.19955
1492441308,-96.4000000005,8.5955
1492441310,-91.6000000005,8.01371
1492441312,4.39999999949998,6.10789
1492441314,-43.6000000005,7.98806
1492441316,40.3999999995,8.90421
1492441318,-31.6000000005,9.60708
1492441320,-74.8000000005,8.62651
1492441322,-60.4000000005,9.89112
1492441324,-50.8000000004999,10.0753
1492441326,-31.6000000005,9.09981
1492441328,23.5999999995,8.50188
1492441330,66.7999999995,7.3708
1492441332,-10.0000000005,7.45772
1492441334,9.19999999950005,9.76324
1492441336,23.5999999995,9.00947
1492441338,28.3999999995,9.42652
1492441340,47.5999999995,9.47561
1492441342,85.9999999995,7.254
1492441344,66.7999999995,8.04046
1492441346,73.9999999995,8.45339
1492441348,42.7999999995,9.83019
1492441350,52.3999999995,7.94571
1492441352,100.3999999995,7.26417
1492441354,52.3999999995,8.412
1492441356,28.3999999995,4.54733
1492441358,100.3999999995,9.64035
1492441360,81.1999999994999,9.09889
1492441362,45.1999999994999,9.20609
1492441364,69.1999999994999,7.98764
1492441366,71.5999999995,10.5179
1492441368,95.5999999995,11.627
1492441370,129.1999999995,7.4664
1492441372,64.3999999995,10.4015
1492441374,148.3999999995,10.238
1492441376,155.5999999995,9.88084
1492441378,155.5999999995,8.59723
1492441380,150.7999999995,8.83209
1492441382,126.7999999995,9.89445
1492441384,141.1999999995,10.6908
1492441386,109.9999999995,9.39561
1492441388,129.1999999995,9.90369
1492441390,52.3999999995,9.18667
1492441392,105.1999999995,9.9703
1492441394,47.5999999995,10.0732
1492441396,18.7999999995,7.66124
1492441398,40.3999999995,10.8371
1492441400,23.5999999995,8.06363
1492441402,1.99999999950001,9.0279
1492441404,30.7999999995,7.65009
1492441406,21.1999999994999,8.30578
1492441408,40.3999999995,8.9816
1492441410,76.3999999995,10.3368
1492441412,18.7999999995,11.0745
1492441414,-29.2000000005,12.8163
1492441416,-10.0000000005,11.6462
1492441418,16.3999999995,10.1587
1492441420,-12.4000000005,7.08331
1492441422,1.99999999950001,6.70875
1492441424,-0.400000000499972,6.55136
1492441426,-0.400000000499972,8.32607
1492441428,21.1999999994999,7.8445
1492441430,-31.6000000005,9.15595
1492441432,-26.8000000004999,12.2883
1492441434,4.39999999949998,12.2048
1492441436,-26.8000000004999,11.2379
1492441438,-58.0000000005,10.0146
1492441440,13.9999999995,10.9351
1492441442,16.3999999995,8.87095
1492441444,23.5999999995,9.19088
1492441446,4.39999999949998,9.56289
1492441448,-7.60000000050002,8.3249
1492441450,35.5999999995,9.67644
1492441452,-10.0000000005,10.0828
1492441454,-48.4000000005,9.32925
1492441456,9.19999999950005,10.5946
1492441458,30.7999999995,9.69453
1492441460,-31.6000000005,9.42621
1492441462,-53.2000000005,7.8705
1492441464,-34.0000000005,7.79367
1492441466,-70.0000000005,5.24631
1492441468,-62.8000000004999,6.58976
1492441470,1.99999999950001,5.82176
1492441472,-26.8000000004999,6.41178
1492441474,13.9999999995,9.01714
1492441476,-50.8000000004999,9.29382
1492441478,-31.6000000005,7.87635
1492441480,1.99999999950001,7.61851
1492441482,-62.8000000004999,8.59522
1492441484,-84.4000000005,6.59007
1492441486,-46.0000000005,9.16801
1492441488,-58.0000000005,6.06784
1492441490,-55.6000000005,7.96329
1492441492,-50.8000000004999,6.17941
1492441494,-58.0000000005,9.38475
1492441496,-58.0000000005,8.78275
1492441498,-29.2000000005,9.67883
1492441500,-65.2000000005,8.49616
1492441502,-113.2000000005,9.05556
1492441504,-12.4000000005,10.2829
1492441506,-43.6000000005,10.3766
1492441508,-48.4000000005,8.35662
1492441510,-22.0000000005,9.53287
1492441512,6.79999999949996,13.7959
1492441514,-67.6000000005,9.95897
1492441516,-60.4000000005,10.2946
1492441518,-50.8000000004999,9.4613
1492441520,-53.2000000005,10.1919
1492441522,-46.0000000005,8.48408
1492441524,-7.60000000050002,10.8626
1492441526,-19.6000000005,11.001
1492441528,13.9999999995,9.71311
1492441530,6.79999999949996,8.99068
1492441532,-2.80000000049995,8.64194
1492441534,-41.2000000005,8.66792
1492441536,-12.4000000005,7.33721
1492441538,-38.8000000004999,9.88039
1492441540,13.9999999995,8.35599
1492441542,21.1999999994999,10.9621
1492441544,11.5999999995,10.0171
1492441546,45.1999999994999,9.12658
1492441548,25.9999999995,7.9391
1492441550,49.9999999995,10.0828
1492441552,9.19999999950005,10.6209
1492441554,18.7999999995,11.9861
1492441556,28.3999999995,10.1519
1492441558,13.9999999995,7.40312
1492441560,25.9999999995,8.30464
1492441562,66.7999999995,11.9974
1492441564,49.9999999995,10.8204
1492441566,23.5999999995,10.5976
1492441568,57.1999999994999,9.41266
1492441570,25.9999999995,9.44886
1492441572,40.3999999995,8.66909
1492441574,71.5999999995,9.37363
1492441576,57.1999999994999,7.67772
1492441578,47.5999999995,8.84605
1492441580,100.3999999995,11.2968
1492441582,37.9999999995,11.7017
1492441584,131.5999999995,8.13737
1492441586,126.7999999995,4.37742
1492441588,131.5999999995,5.67597
1492441590,119.5999999995,6.94678
1492441592,193.9999999995,7.43027
1492441594,179.5999999995,7.19403
1492441596,174.7999999995,10.5563
1492441598,155.5999999995,9.10568
1492441600,181.9999999995,7.99849
1492441602,174.7999999995,7.71023
1492441604,203.5999999995,10.0214
1492441606,179.5999999995,7.97551
1492441608,126.7999999995,9.55949
1492441610,121.9999999995,10.2672
1492441612,129.1999999995,9.03073
1492441614,150.7999999995,9.44447
1492441616,141.1999999995,10.0124
1492441618,138.7999999995,8.24178
1492441620,114.7999999995,9.08093
1492441622,131.5999999995,8.68769
1492441624,105.1999999995,11.2385
1492441626,21.1999999994999,9.64167
1492441628,35.5999999995,9.81469
1492441630,28.3999999995,8.29648
1492441632,21.1999999994999,5.4236
1492441634,37.9999999995,6.69202
1492441636,40.3999999995,8.77092
1492441638,-43.6000000005,7.03154
1492441640,45.1999999994999,8.31366
1492441642,-2.80000000049995,7.57481
1492441644,42.7999999995,7.73924
1492441646,33.1999999994999,7.26359
1492441648,4.39999999949998,8.95717
1492441650,-46.0000000005,10.4028
1492441652,-10.0000000005,10.0768
1492441654,9.19999999950005,10.2741
1492441656,-0.400000000499972,12.1956
1492441658,23.5999999995,12.0362
1492441660,18.7999999995,8.78227
1492441662,6.79999999949996,10.255
1492441664,35.5999999995,9.12317
1492441666,-12.4000000005,8.11385
1492441668,81.1999999994999,10.651
1492441670,54.7999999995,10.5028
1492441672,42.7999999995,10.0497
1492441674,165.1999999995,9.69113
1492441676,153.1999999995,10.7948
1492441678,112.3999999995,8.27619
1492441680,93.1999999994999,8.85976
1492441682,102.7999999995,9.98786
1492441684,119.5999999995,7.19721
1492441686,97.9999999995,5.22651
1492441688,177.1999999995,7.89163
1492441690,88.3999999995,10.4141
1492441692,126.7999999995,10.5029
1492441694,136.3999999995,9.9117
1492441696,131.5999999995,10.6477
1492441698,114.7999999995,12.175
1492441700,64.3999999995,12.5852
1492441702,57.1999999994999,8.91363
1492441704,57.1999999994999,9.36958
1492441706,30.7999999995,7.12919
1492441708,136.3999999995,7.73489
1492441710,133.9999999995,7.96614
1492441712,129.1999999995,10.8165
1492441714,73.9999999995,8.81399
1492441716,145.9999999995,10.4723
1492441718,28.3999999995,8.0852
1492441720,37.9999999995,5.83308
1492441722,109.9999999995,7.3429
1492441724,90.7999999995,9.19395
1492441726,97.9999999995,8.70643
1492441728,107.5999999995,8.58914
1492441730,129.1999999995,8.73898
1492441732,117.1999999995,6.37142
1492441734,141.1999999995,7.88549
1492441736,100.3999999995,8.68738
1492441738,133.9999999995,9.21633
1492441740,107.5999999995,8.7727
1492441742,155.5999999995,10.3627
1492441744,148.3999999995,8.18411
1492441746,138.7999999995,7.47054
1492441748,145.9999999995,9.8904
1492441750,136.3999999995,8.27113
1492441752,181.9999999995,6.19883
1492441754,155.5999999995,7.59991
1492441756,131.5999999995,9.56688
1492441758,165.1999999995,10.3702
1492441760,150.7999999995,10.3539
1492441762,174.7999999995,9.94595
1492441764,155.5999999995,9.28054
1492441766,129.1999999995,9.03787
1492441768,160.3999999995,10.3999
1492441770,150.7999999995,8.34858
1492441772,126.7999999995,9.50859
1492441774,49.9999999995,8.50462
1492441776,73.9999999995,10.543
1492441778,124.3999999995,9.49554
1492441780,73.9999999995,9.79683
1492441782,54.7999999995,11.2673
1492441784,49.9999999995,9.75526
1492441786,23.5999999995,10.747
1492441788,23.5999999995,11.5383
1492441790,-10.0000000005,10.247
1492441792,-36.4000000005,9.62761
1492441794,-26.8000000004999,10.7797
1492441796,6.79999999949996,10.9233
1492441798,-24.4000000005,9.56308
1492441800,-60.4000000005,9.89422
1492441802,-50.8000000004999,10.9825
1492441804,-53.2000000005,11.8076
1492441806,-62.8000000004999,10.0733
1492441808,-31.6000000005,9.80814
1492441810,-48.4000000005,11.1188
1492441812,-60.4000000005,10.0018
1492441814,4.39999999949998,11.7381
1492441816,47.5999999995,14.1209
1492441818,-2.80000000049995,14.3379
1492441820,18.7999999995,14.8813
1492441822,-29.2000000005,10.3633
1492441824,-55.6000000005,12.0061
1492441826,-67.6000000005,12.0763
1492441828,-53.2000000005,11.839
1492441830,-46.0000000005,10.9128
1492441832,-36.4000000005,9.97265
1492441834,-53.2000000005,11.4468
1492441836,-38.8000000004999,12.697
1492441838,25.9999999995,14.8701
1492441840,-36.4000000005,11.5337
1492441842,-19.6000000005,8.04919
1492441844,28.3999999995,9.70026
1492441846,112.3999999995,10.4659
1492441848,33.1999999994999,9.70603
1492441850,119.5999999995,9.93844
1492441852,69.1999999994999,9.33652
1492441854,160.3999999995,10.0166
1492441856,145.9999999995,9.99303
1492441858,126.7999999995,10.2592
1492441860,117.1999999995,9.40653
1492441862,28.3999999995,9.79379
1492441864,119.5999999995,10.4508
1492441866,64.3999999995,8.67864
1492441868,121.9999999995,10.4181
1492441870,40.3999999995,6.23244
1492441872,16.3999999995,9.87876
1492441874,28.3999999995,10.0044
1492441876,6.79999999949996,10.1055
1492441878,16.3999999995,10.3119
1492441880,1.99999999950001,12.4374
1492441882,16.3999999995,11.4523
1492441884,40.3999999995,10.0032
1492441886,23.5999999995,10.2095
1492441888,16.3999999995,9.72625
1492441890,23.5999999995,10.3332
1492441892,25.9999999995,11.3273
1492441894,25.9999999995,11.034
1492441896,18.7999999995,15.0237
1492441898,57.1999999994999,7.47293
1492441900,64.3999999995,7.01347
1492441902,28.3999999995,7.41495
1492441904,42.7999999995,10.8709
1492441906,33.1999999994999,9.87347
1492441908,47.5999999995,10.7617
1492441910,45.1999999994999,11.4602
1492441912,33.1999999994999,7.74097
1492441914,64.3999999995,8.64879
1492441916,105.1999999995,7.99838
1492441918,18.7999999995,8.48714
1492441920,35.5999999995,10.4179
1492441922,40.3999999995,10.6037
1492441924,-22.0000000005,11.3846
1492441926,-41.2000000005,10.6419
1492441928,6.79999999949996,10.8187
1492441930,-77.2000000005,13.5347
1492441932,-72.4000000005,13.4327
1492441934,-72.4000000005,10.5897
1492441936,-94.0000000005,11.58
1492441938,-134.8000000005,9.99516
1492441940,-108.4000000005,9.94721
1492441942,-67.6000000005,9.96741
1492441944,-46.0000000005,11.0513
1492441946,-46.0000000005,6.22642
1492441948,-62.8000000004999,5.13627
1492441950,-46.0000000005,5.20893
1492441952,-65.2000000005,5.447
1492441954,-36.4000000005,10.3357
1492441956,-0.400000000499972,8.84771
1492441958,16.3999999995,8.67121
1492441960,59.5999999995,9.1914
1492441962,114.7999999995,10.4907
1492441964,141.1999999995,9.7861
1492441966,131.5999999995,8.0596
1492441968,191.5999999995,10.3701
1492441970,117.1999999995,9.97707
1492441972,61.9999999995,10.3801
1492441974,126.7999999995,10.0222
1492441976,73.9999999995,11.9223
1492441978,114.7999999995,9.0964
1492441980,157.9999999995,10.442
1492441982,126.7999999995,9.06653
1492441984,90.7999999995,10.5141
1492441986,57.1999999994999,10.343
1492441988,81.1999999994999,8.26875
1492441990,49.9999999995,11.0741
1492441992,52.3999999995,11.9326
1492441994,47.5999999995,8.6689
1492441996,83.5999999995,9.34888
1492441998,33.1999999994999,9.76717
1492442000,47.5999999995,11.0039
1492442002,40.3999999995,10.9534
1492442004,9.19999999950005,9.37172
1492442006,-0.400000000499972,8.8661
1492442008,-46.0000000005,9.20641
1492442010,-0.400000000499972,11.2562
1492442012,-62.8000000004999,10.5513
1492442014,-17.2000000005,8.00795
1492442016,-55.6000000005,7.76404
1492442018,-22.0000000005,7.14246
1492442020,-24.4000000005,6.96911
1492442022,-7.60000000050002,9.71144
1492442024,-46.0000000005,7.91874
1492442026,-31.6000000005,7.45807
1492442028,-70.0000000005,7.94211
1492442030,-5.20000000050004,9.64546
1492442032,-34.0000000005,8.86278
1492442034,-58.0000000005,10.1896
1492442036,-50.8000000004999,8.44902
1492442038,-46.0000000005,7.91059
1492442040,-58.0000000005,10.2872
1492442042,-89.2000000005,7.74094
1492442044,-41.2000000005,10.0253
1492442046,-12.4000000005,10.2162
1492442048,-72.4000000005,10.1844
1492442050,-72.4000000005,8.74794
1492442052,-98.8000000005,8.38068
1492442054,-55.6000000005,8.98518
1492442056,-60.4000000005,9.45
1492442058,-84.4000000005,11.3446
1492442060,-106.0000000005,9.27083
1492442062,-58.0000000005,12.054
1492442064,-110.8000000005,12.8975
1492442066,-41.2000000005,9.37398
1492442068,-79.6000000005,10.0822
1492442070,-132.4000000005,11.0911
1492442072,-67.6000000005,7.80366
1492442074,-53.2000000005,5.73918
1492442076,-77.2000000005,10.1011
1492442078,-41.2000000005,8.89742
1492442080,-108.4000000005,7.21127
1492442082,-125.2000000005,8.34223
1492442084,-137.2000000005,10.2251
1492442086,-127.6000000005,8.33127
1492442088,-132.4000000005,8.2947
1492442090,-122.8000000005,8.15152
1492442092,-127.6000000005,8.93618
1492442094,-178.0000000005,9.56627
1492442096,-50.8000000004999,9.27954
1492442098,37.9999999995,6.59094
1492442100,107.5999999995,7.89613
1492442102,181.9999999995,8.39805
1492442104,150.7999999995,8.70349
1492442106,73.9999999995,10.4744
1492442108,136.3999999995,4.96384
1492442110,59.5999999995,9.33713
1492442112,71.5999999995,9.72884
1492442114,23.5999999995,7.22165
1492442116,25.9999999995,7.34367
1492442118,35.5999999995,5.82634
1492442120,23.5999999995,6.4951
1492442122,23.5999999995,9.16097
1492442124,35.5999999995,9.27551
1492442126,28.3999999995,11.0934
1492442128,16.3999999995,11.9116
1492442130,-17.2000000005,10.4576
1492442132,-26.8000000004999,8.71951
1492442134,-55.6000000005,7.79868
1492442136,-43.6000000005,8.0245
1492442138,-46.0000000005,6.65527
1492442140,-113.2000000005,9.51073
1492442142,-113.2000000005,7.98443
1492442144,-65.2000000005,7.47397
1492442146,-70.0000000005,8.86372
1492442148,-58.0000000005,7.59206
1492442150,-127.6000000005,7.96043
1492442152,-72.4000000005,8.74071
1492442154,-48.4000000005,11.3582
1492442156,-89.2000000005,11.215
1492442158,-65.2000000005,8.26856
1492442160,-72.4000000005,9.29494
1492442162,-115.6000000005,9.5029
1492442164,-55.6000000005,10.2879
1492442166,-50.8000000004999,9.29348
1492442168,-106.0000000005,10.4583
1492442170,-58.0000000005,8.16599
1492442172,-84.4000000005,6.18552
1492442174,-166.0000000005,8.35995
1492442176,-122.8000000005,8.51068
1492442178,-146.8000000005,8.53696
1492442180,-113.2000000005,7.68508
1492442182,-187.6000000005,8.50587
1492442184,-139.6000000005,9.1126
1492442186,-130.0000000005,9.17023
1492442188,-91.6000000005,9.93385
1492442190,-77.2000000005,9.25805
1492442192,-134.8000000005,7.93863
1492442194,-110.8000000005,9.32295
1492442196,-127.6000000005,4.96724
1492442198,-65.2000000005,8.38629
1492442200,-74.8000000005,8.70843
1492442202,-130.0000000005,9.73685
1492442204,-60.4000000005,11.333
1492442206,-101.2000000005,6.9968
1492442208,-132.4000000005,6.26749
1492442210,-182.8000000005,5.82951
1492442212,-118.0000000005,4.52386
1492442214,-130.0000000005,5.32568
1492442216,-74.8000000005,6.77061
1492442218,-139.6000000005,5.58184
1492442220,-132.4000000005,7.74122
1492442222,-50.8000000004999,5.32013
1492442224,-58.0000000005,7.65168
1492442226,-130.0000000005,6.53863
1492442228,-120.4000000005,8.28103
1492442230,-106.0000000005,7.86107
1492442232,-98.8000000005,7.74075
1492442234,-58.0000000005,5.59571
1492442236,-115.6000000005,6.64416
1492442238,-98.8000000005,7.13134
1492442240,-58.0000000005,5.45716
1492442242,-120.4000000005,12.738
1492442244,-62.8000000004999,11.4731
1492442246,-182.8000000005,9.6167
1492442248,-108.4000000005,9.9345
1492442250,-127.6000000005,11.0229
1492442252,-84.4000000005,10.8996
1492442254,-187.6000000005,8.51121
1492442256,-98.8000000005,7.78669
1492442258,-106.0000000005,11.45
1492442260,-82.0000000005,6.16124
1492442262,-103.6000000005,8.6447
1492442264,-113.2000000005,8.38131
1492442266,-125.2000000005,5.69122
1492442268,-84.4000000005,7.13981
1492442270,-134.8000000005,9.54158
1492442272,-115.6000000005,8.65486
1492442274,-144.4000000005,9.63574
1492442276,-106.0000000005,8.34634
1492442278,-120.4000000005,10.4635
1492442280,-127.6000000005,9.57121
1492442282,-187.6000000005,8.58045
1492442284,-115.6000000005,8.78234
1492442286,-120.4000000005,7.72909
1492442288,-178.0000000005,6.83655
1492442290,-156.4000000005,8.07291
1492442292,-115.6000000005,8.13351
1492442294,-216.4000000005,8.89311
1492442296,-142.0000000005,10.1464
1492442298,-202.0000000005,11.6221
1492442300,-202.0000000005,11.3077
1492442302,11.5999999995,9.79846
1492442304,-125.2000000005,9.40073
1492442306,-72.4000000005,10.4606
1492442308,-55.6000000005,11.0212
1492442310,-122.8000000005,10.4782
1492442312,-77.2000000005,10.1849
1492442314,-48.4000000005,9.10036
1492442316,-134.8000000005,9.75727
1492442318,-125.2000000005,7.25198
1492442320,-72.4000000005,8.25986
1492442322,-101.2000000005,12.2058
1492442324,-190.0000000005,13.7309
1492442326,-130.0000000005,14.1955
1492442328,-127.6000000005,13.4267
1492442330,-101.2000000005,6.851
1492442332,-98.8000000005,7.02278
1492442334,-101.2000000005,6.23763
1492442336,-130.0000000005,7.76154
1492442338,-84.4000000005,6.55489
1492442340,-149.2000000005,7.58434
1492442342,-65.2000000005,8.80485
1492442344,-125.2000000005,6.6676
1492442346,-127.6000000005,6.28564
1492442348,-108.4000000005,7.57185
1492442350,-86.8000000005,9.36752
1492442352,-149.2000000005,9.52282
1492442354,-110.8000000005,6.72194
1492442356,-142.0000000005,8.40801
1492442358,-156.4000000005,6.52529
1492442360,-139.6000000005,8.11792
1492442362,-139.6000000005,7.80659
1492442364,-190.0000000005,6.71761
1492442366,-137.2000000005,7.77507
1492442368,-144.4000000005,9.30551
1492442370,-161.2000000005,10.8664
1492442372,-70.0000000005,6.07729
1492442374,-122.8000000005,8.99181
1492442376,-120.4000000005,7.77484
1492442378,-118.0000000005,6.61763
1492442380,-122.8000000005,9.97217
1492442382,-60.4000000005,9.33567
1492442384,-113.2000000005,10.0411
1492442386,-103.6000000005,11.2238
1492442388,-72.4000000005,8.67306
1492442390,-91.6000000005,9.37687
1492442392,-122.8000000005,6.63258
1492442394,-79.6000000005,4.91747
1492442396,-2.80000000049995,8.23826
1492442398,-67.6000000005,5.89366
1492442400,-55.6000000005,5.90706
1492442402,-55.6000000005,4.53966
1492442404,-5.20000000050004,6.1547
1492442406,-36.4000000005,5.40415
1492442408,-31.6000000005,9.28117
1492442410,-67.6000000005,8.65579
1492442412,-70.0000000005,9.58327
1492442414,-14.8000000004999,10.6057
1492442416,-46.0000000005,9.26778
1492442418,6.79999999949996,8.83587
1492442420,-82.0000000005,8.1167
1492442422,-60.4000000005,8.7066
1492442424,-38.8000000004999,8.94668
1492442426,-2.80000000049995,10.3332
1492442428,-115.6000000005,7.83203
1492442430,-38.8000000004999,6.33961
1492442432,-38.8000000004999,9.99852
1492442434,-41.2000000005,7.35832
1492442436,-58.0000000005,3.83706
1492442438,-77.2000000005,4.86876
1492442440,-74.8000000005,10.2063
1492442442,-50.8000000004999,7.07208
1492442444,-41.2000000005,7.64998
1492442446,-43.6000000005,4.85321
1492442448,-43.6000000005,8.61846
1492442450,-43.6000000005,8.47797
1492442452,-43.6000000005,9.74186
1492442454,-24.4000000005,11.8594
1492442456,-62.8000000004999,8.7699
1492442458,-70.0000000005,8.78591
1492442460,-84.4000000005,9.93656
1492442462,9.19999999950005,10.312
1492442464,-67.6000000005,8.47298
1492442466,-48.4000000005,10.1046
1492442468,-55.6000000005,10.539
1492442470,-77.2000000005,7.62302
1492442472,33.1999999994999,10.1504
1492442474,11.5999999995,9.6735
1492442476,11.5999999995,9.32804
1492442478,40.3999999995,7.92074
1492442480,18.7999999995,8.07195
1492442482,37.9999999995,10.9974
1492442484,37.9999999995,11.1383
1492442486,16.3999999995,8.27266
1492442488,9.19999999950005,12.1314
1492442490,33.1999999994999,7.92228
1492442492,6.79999999949996,7.88658
1492442494,13.9999999995,9.9884
1492442496,-7.60000000050002,6.11094
1492442498,-24.4000000005,8.46759
1492442500,-36.4000000005,6.98089
1492442502,11.5999999995,11.3194
1492442504,-48.4000000005,9.78958
1492442506,9.19999999950005,7.23958
1492442508,-14.8000000004999,6.39716
1492442510,-48.4000000005,7.75084
1492442512,-48.4000000005,10.8434
1492442514,-38.8000000004999,11.5981
1492442516,-12.4000000005,12.4309
1492442518,-41.2000000005,10.5286
1492442520,-58.0000000005,9.5803
1492442522,-41.2000000005,12.4838
1492442524,-46.0000000005,8.92264
1492442526,-106.0000000005,11.291
1492442528,-53.2000000005,10.5491
1492442530,-55.6000000005,9.27836
1492442532,-132.4000000005,10.0546
1492442534,-14.8000000004999,12.0134
1492442536,-12.4000000005,9.3751
1492442538,-48.4000000005,11.4315
1492442540,-55.6000000005,10.6112
1492442542,-53.2000000005,10.2714
1492442544,-70.0000000005,9.12345
1492442546,-62.8000000004999,8.28724
1492442548,28.3999999995,7.92731
1492442550,-70.0000000005,7.33354
1492442552,-17.2000000005,9.02658
1492442554,-36.4000000005,8.04435
1492442556,-41.2000000005,5.30634
1492442558,16.3999999995,5.98495
1492442560,23.5999999995,9.98527
1492442562,-0.400000000499972,6.66256
1492442564,45.1999999994999,6.30102
1492442566,9.19999999950005,6.93431
1492442568,11.5999999995,5.10421
1492442570,42.7999999995,7.46126
1492442572,23.5999999995,7.54396
1492442574,-38.8000000004999,8.83301
1492442576,23.5999999995,11.7363
1492442578,-5.20000000050004,10.9227
1492442580,18.7999999995,8.45601
1492442582,-29.2000000005,10.8018
1492442584,-0.400000000499972,9.21469
1492442586,-12.4000000005,10.7116
1492442588,28.3999999995,12.2207
1492442590,-94.0000000005,10.725
1492442592,25.9999999995,9.74496
1492442594,18.7999999995,11.5258
1492442596,40.3999999995,11.1663
1492442598,1.99999999950001,9.46082
1492442600,1.99999999950001,9.42764
1492442602,-19.6000000005,11.3569
1492442604,6.79999999949996,10.1337
1492442606,-26.8000000004999,11.8114
1492442608,28.3999999995,12.6982
1492442610,52.3999999995,9.42289
1492442612,21.1999999994999,9.4847
1492442614,-0.400000000499972,14.261
1492442616,28.3999999995,12.3658
1492442618,-43.6000000005,10.0483
1492442620,37.9999999995,8.84317
1492442622,6.79999999949996,7.53507
1492442624,9.19999999950005,7.89277
1492442626,40.3999999995,7.92746
1492442628,11.5999999995,7.54634
1492442630,-34.0000000005,8.08115
1492442632,-34.0000000005,5.85199
1492442634,-132.4000000005,7.51132
1492442636,-55.6000000005,7.53229
1492442638,-113.2000000005,6.73953
1492442640,-74.8000000005,8.48555
1492442642,-106.0000000005,8.20961
1492442644,-98.8000000005,9.00652
1492442646,-70.0000000005,9.0793
1492442648,-55.6000000005,9.28926
1492442650,-50.8000000004999,4.40875
1492442652,-94.0000000005,6.99126
1492442654,1.99999999950001,8.85769
1492442656,-50.8000000004999,9.79638
1492442658,-17.2000000005,7.94897
1492442660,-70.0000000005,6.47354
1492442662,-91.6000000005,8.72337
1492442664,-108.4000000005,9.01315
1492442666,-70.0000000005,6.15917
1492442668,-60.4000000005,7.12194
1492442670,-94.0000000005,7.99626
1492442672,-115.6000000005,4.61888
1492442674,-142.0000000005,6.95161
1492442676,-108.4000000005,4.91622
1492442678,-151.6000000005,8.72342
1492442680,-115.6000000005,9.7116
1492442682,-91.6000000005,7.61377
1492442684,-113.2000000005,7.03837
1492442686,-146.8000000005,8.69163
1492442688,-110.8000000005,8.40597
1492442690,-156.4000000005,8.74171
1492442692,-110.8000000005,7.77636
1492442694,-122.8000000005,9.52972
1492442696,-130.0000000005,10.4321
1492442698,-173.2000000005,7.59474
1492442700,-192.4000000005,9.64089
1492442702,-110.8000000005,11.5951
1492442704,-122.8000000005,8.4857
1492442706,-202.0000000005,9.82973
1492442708,-154.0000000005,8.10621
1492442710,-151.6000000005,7.90722
1492442712,-134.8000000005,6.68899
1492442714,-166.0000000005,6.32766
1492442716,-113.2000000005,8.52094
1492442718,-151.6000000005,7.81171
1492442720,-202.0000000005,8.63948
1492442722,-122.8000000005,7.83692
1492442724,-132.4000000005,7.51319
1492442726,-173.2000000005,6.58142
1492442728,-206.8000000005,9.15574
1492442730,-180.4000000005,10.0627
1492442732,-187.6000000005,8.6595
1492442734,-156.4000000005,7.97837
1492442736,-180.4000000005,7.95896
1492442738,-166.0000000005,4.21409
1492442740,-168.4000000005,5.73168
1492442742,-192.4000000005,9.09861
1492442744,-139.6000000005,10.4684
1492442746,-199.6000000005,9.33687
1492442748,-228.4000000005,8.71532
1492442750,-194.8000000005,7.19473
1492442752,-221.2000000005,8.97611
1492442754,-206.8000000005,9.74667
1492442756,-197.2000000005,9.4182
1492442758,-199.6000000005,9.66359
1492442760,-187.6000000005,6.88285
1492442762,-185.2000000005,9.32413
1492442764,-209.2000000005,9.08878
1492442766,-170.8000000005,7.16723
1492442768,-185.2000000005,7.62385
1492442770,-161.2000000005,8.95773
1492442772,-197.2000000005,8.8411
1492442774,-187.6000000005,6.97839
1492442776,-235.6000000005,8.97293
1492442778,-202.0000000005,10.2858
1492442780,-192.4000000005,9.64596
1492442782,-211.6000000005,7.98157
1492442784,-192.4000000005,9.19122
1492442786,-199.6000000005,8.94111
1492442788,-230.8000000005,7.40791
1492442790,-204.4000000005,6.88552
1492442792,-134.8000000005,6.97854
1492442794,-216.4000000005,10.3505
1492442796,-194.8000000005,8.23975
1492442798,-223.6000000005,10.8734
1492442800,-214.0000000005,11.7481
1492442802,-202.0000000005,10.6943
1492442804,-197.2000000005,10.2236
1492442806,-187.6000000005,8.81364
1492442808,-182.8000000005,8.94793
1492442810,-197.2000000005,9.36713
1492442812,-223.6000000005,10.1496
1492442814,-223.6000000005,8.36199
1492442816,-214.0000000005,6.62751
1492442818,-204.4000000005,7.5985
