tag_number,delay,power_est
1497307700,989.7333333383,16.7797
1497307704,1028.1333333383,18.0978
1497307708,1042.5333333383,16.7995
1497307712,1008.9333333383,18.1025
1497307716,1042.5333333383,17.0133
1497307720,1023.3333333383,18.9794
1497307724,980.1333333383,19.3559
1497307728,1016.1333333383,19.1664
1497307732,1001.7333333383,18.0435
1497307736,1025.7333333383,17.4004
1497307740,1040.1333333383,18.5923
1497307744,1044.9333333383,17.4773
1497307748,972.9333333383,17.4039
1497307752,1032.9333333383,18.4012
1497307756,1018.5333333383,17.8936
1497307760,939.3333333383,18.5678
1497307764,1004.1333333383,17.5703
1497307768,1013.7333333383,17.8946
1497307772,1018.5333333383,17.4703
1497307776,1054.5333333383,18.3255
1497307780,1037.7333333383,18.9189
1497307784,1040.1333333383,17.5966
1497307788,1037.7333333383,18.3481
1497307792,1032.9333333383,17.4889
1497307796,1035.3333333383,17.2745
1497307800,1004.1333333383,17.369
1497307804,1001.7333333383,18.118
1497307808,1035.3333333383,17.9111
1497307812,970.5333333383,17.537
1497307816,987.3333333383,17.922
1497307820,970.5333333383,17.9077
1497307824,1032.9333333383,16.7708
1497307828,1040.1333333383,16.7774
1497307832,1080.9333333383,17.6619
1497307836,1090.5333333383,18.0549
1497307840,1181.7333333383,17.6011
1497307844,1160.1333333383,17.2129
1497307848,1150.5333333383,16.5542
1497307852,1160.1333333383,17.4578
1497307856,1157.7333333383,16.8176
1497307860,1128.9333333383,17.6707
1497307864,1116.9333333383,16.5808
1497307868,1114.5333333383,16.6149
1497307872,1037.7333333383,16.3621
1497307876,1076.1333333383,17.7297
1497307880,1064.1333333383,16.7072
1497307884,1035.3333333383,17.0742
1497307888,1006.5333333383,16.558
1497307892,999.3333333383,17.0168
1497307896,953.7333333383,16.4401
1497307900,951.3333333383,16.1248
1497307904,1006.5333333383,17.5982
1497307908,1008.9333333383,18.7795
1497307912,1004.1333333383,17.7351
1497307916,1047.3333333383,16.9179
1497307920,963.3333333383,17.7184
1497307924,1006.5333333383,17.5981
1497307928,977.7333333383,17.3362
1497307932,1030.5333333383,16.8696
1497307936,953.7333333383,17.9515
1497307940,1020.9333333383,17.4852
1497307944,984.9333333383,17.7992
1497307948,982.5333333383,17.8126
1497307952,968.1333333383,17.9855
1497307956,1013.7333333383,17.9837
1497307960,975.3333333383,17.3863
1497307964,987.3333333383,17.4022
1497307968,1044.9333333383,16.7865
1497307972,1016.1333333383,17.2873
1497307976,1044.9333333383,18.6491
1497307980,1037.7333333383,17.2045
1497307984,1013.7333333383,18.0368
1497307988,1071.3333333383,18.0312
1497307992,1078.5333333383,18.8804
1497307996,1020.9333333383,17.6203
1497308000,1054.5333333383,17.4893
1497308004,1032.9333333383,17.9954
1497308008,989.7333333383,16.6652
1497308012,1042.5333333383,16.5055
1497308016,970.5333333383,15.869
1497308020,975.3333333383,18.3353
1497308024,1008.9333333383,18.9444
1497308028,1025.7333333383,18.4366
1497308032,910.5333333383,17.3991
1497308036,1008.9333333383,18.6892
1497308040,934.5333333383,18.8091
1497308044,946.5333333383,18.7412
1497308048,980.1333333383,18.8497
1497308052,965.7333333383,18.9627
1497308056,917.7333333383,17.3882
1497308060,968.1333333383,17.2975
1497308064,929.7333333383,16.94
1497308068,900.9333333383,16.0117
1497308072,944.1333333383,17.9873
1497308076,900.9333333383,18.5519
1497308080,972.9333333383,17.7062
1497308084,1023.3333333383,19.0388
1497308088,1030.5333333383,16.7592
1497308092,999.3333333383,18.2969
1497308096,1052.1333333383,16.2387
1497308100,1044.9333333383,18.4864
1497308104,1011.3333333383,16.6714
1497308108,1035.3333333383,18.1952
1497308112,1008.9333333383,17.7024
1497308116,1011.3333333383,16.2597
1497308120,982.5333333383,17.1892
1497308124,977.7333333383,17.0429
1497308128,999.3333333383,16.8689
1497308132,992.1333333383,16.6488
1497308136,963.3333333383,17.5628
1497308140,994.5333333383,16.3555
1497308144,1020.9333333383,18.0665
1497308148,1049.7333333383,17.5152
1497308152,1049.7333333383,16.432
1497308156,946.5333333383,16.1002
1497308160,1023.3333333383,15.6234
1497308164,1071.3333333383,17.2735
1497308168,1047.3333333383,16.9435
1497308172,1028.1333333383,18.1636
1497308176,1085.7333333383,17.4725
1497308180,1080.9333333383,17.241
1497308184,1056.9333333383,17.708
1497308188,1030.5333333383,17.6443
1497308192,1030.5333333383,17.1618
1497308196,1056.9333333383,17.0625
1497308200,972.9333333383,16.4456
1497308204,924.9333333383,16.8238
1497308208,1001.7333333383,18.0183
1497308212,944.1333333383,17.6536
1497308216,977.7333333383,16.6541
1497308220,1004.1333333383,17.2734
1497308224,941.7333333383,18.5354
1497308228,992.1333333383,17.5176
1497308232,1011.3333333383,17.5484
1497308236,1030.5333333383,16.9989
1497308240,960.9333333383,17.7866
1497308244,958.5333333383,16.6448
1497308248,946.5333333383,17.2995
1497308252,920.1333333383,17.3902
1497308256,1056.9333333383,17.2894
1497308260,1040.1333333383,18.2733
1497308264,970.5333333383,16.8422
1497308268,963.3333333383,17.1454
1497308272,1004.1333333383,17.7932
1497308276,1006.5333333383,17.7905
1497308280,992.1333333383,17.6947
1497308284,941.7333333383,16.5639
1497308288,996.9333333383,17.7451
1497308292,946.5333333383,16.7203
1497308296,958.5333333383,17.1864
1497308300,999.3333333383,15.6717
1497308304,994.5333333383,17.0894
1497308308,1037.7333333383,17.16
1497308312,1004.1333333383,17.011
1497308316,1061.7333333383,17.6223
1497308320,1088.1333333383,17.611
1497308324,1133.7333333383,17.861
1497308328,1126.5333333383,18.5596
1497308332,1186.5333333383,18.5906
1497308336,1128.9333333383,16.5634
1497308340,1100.1333333383,16.4956
1497308344,1124.1333333383,17.2757
1497308348,1090.5333333383,15.8899
1497308352,1076.1333333383,16.1627
1497308356,1095.3333333383,16.2499
1497308360,1071.3333333383,16.0276
1497308364,1054.5333333383,17.4877
1497308368,1124.1333333383,17.6837
1497308372,1107.3333333383,17.3777
1497308376,1052.1333333383,16.7106
1497308380,1054.5333333383,17.3105
1497308384,1054.5333333383,16.4595
1497308388,1059.3333333383,16.1831
1497308392,1016.1333333383,15.295
1497308396,1037.7333333383,16.5622
1497308400,1068.9333333383,16.311
1497308404,1032.9333333383,16.8542
1497308408,1047.3333333383,16.2265
1497308412,1032.9333333383,15.9021
1497308416,1049.7333333383,16.352
1497308420,1085.7333333383,16.2663
1497308424,1092.9333333383,17.0679
1497308428,1035.3333333383,17.9853
1497308432,1078.5333333383,17.7043
1497308436,1061.7333333383,17.0871
1497308440,1076.1333333383,17.6719
1497308444,1102.5333333383,16.3627
1497308448,1030.5333333383,17.3787
1497308452,1011.3333333383,17.4039
1497308456,1042.5333333383,15.5191
1497308460,1032.9333333383,15.4155
1497308464,1114.5333333383,18.0804
1497308468,1095.3333333383,16.5158
1497308472,1100.1333333383,16.4159
1497308476,1112.1333333383,16.336
1497308480,1061.7333333383,17.0257
1497308484,1042.5333333383,16.9938
1497308488,1092.9333333383,16.4307
1497308492,1052.1333333383,17.4818
1497308496,1100.1333333383,16.4238
1497308500,1090.5333333383,15.8145
1497308504,1040.1333333383,18.9477
1497308508,1080.9333333383,18.1619
1497308512,1076.1333333383,18.1239
1497308516,1042.5333333383,18.1874
1497308520,1059.3333333383,16.5216
1497308524,1104.9333333383,18.2272
1497308528,1100.1333333383,15.4183
1497308532,1131.3333333383,15.7803
1497308536,1102.5333333383,15.6843
1497308540,1056.9333333383,16.2152
1497308544,1119.3333333383,17.2912
1497308548,1107.3333333383,16.4406
1497308552,1059.3333333383,16.898
1497308556,1049.7333333383,16.6241
1497308560,1107.3333333383,17.1902
1497308564,1061.7333333383,16.7476
1497308568,1126.5333333383,15.6948
1497308572,1049.7333333383,17.1618
1497308576,1020.9333333383,16.2712
1497308580,1090.5333333383,17.5255
1497308584,980.1333333383,17.012
1497308588,980.1333333383,17.8877
1497308592,1032.9333333383,16.1783
1497308596,1025.7333333383,17.4102
1497308600,975.3333333383,15.6582
1497308604,999.3333333383,16.0695
1497308608,951.3333333383,15.3218
1497308612,936.9333333383,16.5301
1497308616,963.3333333383,18.0222
1497308620,886.5333333383,16.3767
1497308624,920.1333333383,16.4743
1497308628,910.5333333383,16.2519
1497308632,903.3333333383,17.2976
1497308636,994.5333333383,17.818
1497308640,908.1333333383,16.7541
1497308644,968.1333333383,16.8414
1497308648,982.5333333383,17.9112
1497308652,1025.7333333383,18.0311
1497308656,951.3333333383,16.8863
1497308660,968.1333333383,17.6239
1497308664,920.1333333383,17.7241
1497308668,975.3333333383,16.3668
1497308672,960.9333333383,17.2573
1497308676,917.7333333383,16.7168
1497308680,958.5333333383,17.4086
1497308684,970.5333333383,17.9463
1497308688,956.1333333383,17.1247
1497308692,1025.7333333383,16.9524
1497308696,1049.7333333383,17.6504
1497308700,1095.3333333383,17.4574
1497308704,1100.1333333383,17.6167
1497308708,1097.7333333383,16.8809
1497308712,1112.1333333383,16.4815
1497308716,1107.3333333383,16.5366
1497308720,1008.9333333383,17.8927
1497308724,1037.7333333383,18.7245
1497308732,1052.1333333383,17.466
1497308736,1028.1333333383,17.3892
1497308740,982.5333333383,16.7032
1497308744,1052.1333333383,17.7334
1497308748,996.9333333383,18.0033
1497308752,994.5333333383,18.6031
1497308756,1047.3333333383,18.6119
1497308760,1035.3333333383,18.19
1497308764,1109.7333333383,17.8637
1497308768,1138.5333333383,17.508
1497308772,1133.7333333383,17.6307
1497308776,1198.5333333383,18.4521
1497308780,1184.1333333383,17.9519
1497308784,1119.3333333383,17.4337
1497308788,1049.7333333383,17.7577
1497308792,1109.7333333383,17.7529
1497308796,1059.3333333383,17.6159
1497308800,1068.9333333383,16.2072
1497308804,1020.9333333383,17.8446
1497308808,1100.1333333383,16.9626
1497308812,1052.1333333383,16.6582
1497308816,1040.1333333383,16.852
1497308820,1047.3333333383,17.0669
1497308824,1052.1333333383,17.3323
1497308828,1059.3333333383,17.517
1497308832,1085.7333333383,17.1894
1497308836,1044.9333333383,15.5109
1497308840,1092.9333333383,17.4251
1497308844,1088.1333333383,17.778
1497308848,1059.3333333383,17.9759
1497308852,1049.7333333383,16.9449
1497308856,1092.9333333383,16.3857
1497308860,1085.7333333383,17.7333
1497308864,1140.9333333383,17.174
1497308868,1138.5333333383,16.7541
1497308872,1179.3333333383,17.0176
1497308876,1210.5333333383,17.3437
1497308880,1140.9333333383,17.7232
1497308884,1162.5333333383,19.0304
1497308888,1140.9333333383,16.4091
1497308892,1124.1333333383,16.7145
1497308896,1140.9333333383,17.9037
1497308900,1164.9333333383,16.9474
1497308904,1179.3333333383,16.3174
1497308908,1203.3333333383,16.9238
1497308912,1124.1333333383,17.4655
1497308916,1186.5333333383,15.6359
1497308920,1140.9333333383,15.992
1497308924,1208.1333333383,16.9867
1497308928,1162.5333333383,17.5309
1497308932,1109.7333333383,17.9685
1497308936,1138.5333333383,17.2509
1497308940,1114.5333333383,17.1601
1497308944,1121.7333333383,17.6918
1497308948,1056.9333333383,16.5415
1497308952,1047.3333333383,15.5346
1497308956,1056.9333333383,16.7776
1497308960,1042.5333333383,17.8221
1497308964,1032.9333333383,17.0657
1497308968,1035.3333333383,17.8273
1497308972,1016.1333333383,17.2978
1497308976,1044.9333333383,17.6265
1497308980,992.1333333383,19.1423
1497308984,1032.9333333383,17.5731
1497308988,987.3333333383,18.0139
1497308992,1025.7333333383,18.2258
1497308996,1047.3333333383,18.3335
1497309000,987.3333333383,17.5249
1497309004,1037.7333333383,18.0718
1497309008,1037.7333333383,18.498
1497309012,1044.9333333383,18.099
1497309016,1054.5333333383,17.9204
1497309020,1016.1333333383,18.0584
1497309024,1023.3333333383,16.576
1497309028,1042.5333333383,17.1057
1497309032,1008.9333333383,16.778
1497309036,1013.7333333383,18.1836
1497309040,1025.7333333383,18.3433
1497309044,970.5333333383,18.2091
1497309048,1018.5333333383,18.2371
1497309052,989.7333333383,16.6094
1497309056,968.1333333383,18.3417
1497309060,999.3333333383,17.6803
1497309064,944.1333333383,16.1071
1497309068,1001.7333333383,16.4583
1497309072,1018.5333333383,17.8858
1497309076,1052.1333333383,15.8249
1497309080,1032.9333333383,18.0634
1497309084,934.5333333383,17.6704
1497309088,1020.9333333383,16.4253
1497309092,1018.5333333383,16.5141
1497309096,1023.3333333383,16.6535
1497309100,1028.1333333383,16.8835
1497309104,1030.5333333383,16.1509
1497309108,1023.3333333383,17.4202
1497309112,963.3333333383,16.6858
1497309116,1032.9333333383,16.8634
1497309120,975.3333333383,16.3206
1497309124,1008.9333333383,17.0975
1497309128,1044.9333333383,16.6424
1497309132,1028.1333333383,17.5898
1497309136,1052.1333333383,17.4689
1497309140,980.1333333383,16.2179
1497309144,946.5333333383,17.5486
1497309148,970.5333333383,17.5438
1497309152,1013.7333333383,16.9493
1497309156,1008.9333333383,16.6714
1497309160,989.7333333383,16.2073
1497309164,1004.1333333383,17.1167
1497309168,936.9333333383,17.2592
1497309172,984.9333333383,17.1115
1497309176,1018.5333333383,17.5526
1497309180,917.7333333383,17.4792
1497309184,1004.1333333383,19.2879
1497309188,958.5333333383,18.9386
1497309192,953.7333333383,18.979
1497309196,975.3333333383,17.1544
1497309200,982.5333333383,16.7885
1497309204,965.7333333383,16.5094
1497309208,953.7333333383,18.2483
1497309212,975.3333333383,17.1759
1497309216,984.9333333383,17.9422
1497309220,999.3333333383,17.8056
1497309224,958.5333333383,19.0661
1497309228,958.5333333383,16.9706
1497309232,975.3333333383,18.4785
1497309236,965.7333333383,16.9017
1497309240,948.9333333383,18.1454
1497309244,1006.5333333383,17.4364
1497309248,915.3333333383,17.4288
1497309252,999.3333333383,15.7861
1497309256,965.7333333383,17.413
1497309260,980.1333333383,17.4471
1497309264,1008.9333333383,16.6303
1497309268,951.3333333383,15.9178
1497309272,965.7333333383,17.212
1497309276,1006.5333333383,16.9659
1497309280,1008.9333333383,17.4498
1497309284,960.9333333383,16.8358
1497309288,939.3333333383,17.3093
1497309292,1011.3333333383,16.8459
1497309296,1028.1333333383,17.9655
1497309300,994.5333333383,17.0452
1497309304,1006.5333333383,17.3328
1497309308,1032.9333333383,17.3211
1497309312,1016.1333333383,17.0404
1497309316,1016.1333333383,16.7567
1497309320,1011.3333333383,17.5656
1497309324,999.3333333383,17.45
1497309328,1018.5333333383,16.6985
1497309332,1035.3333333383,15.6304
1497309336,1016.1333333383,16.096
1497309340,1040.1333333383,17.3134
1497309344,1018.5333333383,15.3047
1497309348,948.9333333383,16.4625
1497309352,1020.9333333383,16.9758
1497309356,1049.7333333383,16.7901
1497309360,999.3333333383,16.7604
1497309364,1044.9333333383,17.0611
1497309368,982.5333333383,16.792
1497309372,941.7333333383,17.2008
1497309376,1008.9333333383,17.0047
1497309380,1008.9333333383,17.4328
1497309384,1037.7333333383,14.8649
1497309388,994.5333333383,16.7612
1497309392,929.7333333383,16.9148
1497309396,1040.1333333383,17.7759
1497309400,968.1333333383,17.1187
1497309404,989.7333333383,17.9727
1497309408,1006.5333333383,17.1447
1497309412,972.9333333383,18.0217
1497309416,1040.1333333383,16.3075
1497309420,1044.9333333383,16.4705
1497309424,1004.1333333383,17.2199
1497309428,1013.7333333383,17.6722
1497309432,1023.3333333383,16.571
1497309436,968.1333333383,17.218
1497309440,999.3333333383,16.5591
1497309444,1004.1333333383,18.0811
1497309448,1008.9333333383,18.8987
1497309452,972.9333333383,17.1594
1497309456,1011.3333333383,18.5113
1497309460,941.7333333383,18.2342
1497309464,999.3333333383,17.8809
1497309468,934.5333333383,17.6285
1497309472,1018.5333333383,16.7634
1497309476,984.9333333383,16.9366
1497309480,987.3333333383,16.3108
1497309484,968.1333333383,16.7295
1497309488,1030.5333333383,16.9685
1497309492,1035.3333333383,17.8315
1497309496,1066.5333333383,17.5038
1497309500,1052.1333333383,16.592
1497309504,1040.1333333383,18.3572
1497309508,1025.7333333383,17.0291
1497309512,1054.5333333383,17.8116
1497309516,1056.9333333383,16.8528
1497309520,1042.5333333383,15.7123
1497309524,1028.1333333383,19.092
1497309528,1044.9333333383,18.1497
1497309532,1107.3333333383,17.2714
1497309536,1008.9333333383,16.7669
1497309540,1016.1333333383,18.2323
1497309544,1047.3333333383,17.5427
1497309548,1030.5333333383,17.7449
1497309552,1040.1333333383,17.8337
1497309556,1042.5333333383,16.6332
1497309560,1037.7333333383,18.0391
1497309564,1030.5333333383,18.6482
1497309568,1035.3333333383,17.3796
1497309572,1025.7333333383,16.2913
1497309576,1025.7333333383,16.5159
1497309580,968.1333333383,17.252
1497309584,984.9333333383,15.2908
1497309588,963.3333333383,17.0818
1497309592,965.7333333383,15.4485
1497309596,960.9333333383,17.6319
1497309600,924.9333333383,17.3243
1497309604,999.3333333383,16.7952
1497309608,934.5333333383,17.8512
1497309612,944.1333333383,16.8497
1497309616,908.1333333383,16.9582
1497309620,980.1333333383,17.2868
1497309624,888.9333333383,16.9036
1497309628,963.3333333383,16.1006
1497309632,939.3333333383,16.4112
1497309636,924.9333333383,17.2244
1497309640,948.9333333383,16.7687
1497309644,970.5333333383,17.685
1497309648,989.7333333383,16.5658
1497309652,927.3333333383,17.1875
1497309656,1037.7333333383,17.0305
1497309660,1035.3333333383,16.9955
1497309664,1049.7333333383,17.3879
1497309668,1100.1333333383,17.019
1497309672,1116.9333333383,17.9502
1497309676,1126.5333333383,17.0187
1497309680,1078.5333333383,17.937
1497309684,1100.1333333383,17.1388
1497309688,1068.9333333383,18.4441
1497309692,1040.1333333383,17.3151
1497309696,1056.9333333383,17.9567
1497309700,1001.7333333383,16.7746
1497309704,1032.9333333383,17.8025
1497309708,891.3333333383,17.8666
1497309712,881.7333333383,17.6049
1497309716,900.9333333383,16.2884
1497309720,876.9333333383,16.4342
1497309724,884.1333333383,16.7288
1497309728,850.5333333383,16.727
1497309732,840.9333333383,17.3514
1497309736,864.9333333383,19.2335
1497309740,852.9333333383,17.5252
1497309744,886.5333333383,17.8656
1497309748,802.5333333383,17.951
1497309752,862.5333333383,19.2526
1497309756,840.9333333383,18.8254
1497309760,776.1333333383,18.2612
1497309764,783.3333333383,16.9424
1497309768,864.9333333383,16.664
1497309772,874.5333333383,17.2952
1497309776,869.7333333383,16.8637
1497309780,874.5333333383,16.4205
1497309784,857.7333333383,17.5503
1497309788,816.9333333383,18.1097
1497309792,826.5333333383,16.1015
1497309796,867.3333333383,16.7733
1497309800,874.5333333383,16.8029
1497309804,872.1333333383,17.0104
1497309808,855.3333333383,17.0509
1497309812,848.1333333383,17.5966
1497309816,833.7333333383,17.6337
1497309820,855.3333333383,18.2387
1497309824,867.3333333383,17.966
1497309828,860.1333333383,17.2944
1497309832,843.3333333383,19.0815
1497309836,898.5333333383,17.0092
1497309840,879.3333333383,17.3398
1497309844,850.5333333383,16.9201
1497309848,881.7333333383,17.6513
1497309852,862.5333333383,17.9577
1497309856,879.3333333383,18.4627
1497309860,852.9333333383,17.9314
1497309864,814.5333333383,17.4697
1497309868,886.5333333383,17.8547
1497309872,814.5333333383,17.6625
1497309876,797.7333333383,18.1415
1497309880,836.1333333383,18.1775
1497309884,872.1333333383,16.5987
1497309888,855.3333333383,18.5973
1497309892,898.5333333383,17.7282
1497309896,975.3333333383,17.7376
1497309900,884.1333333383,17.465
1497309904,874.5333333383,17.7032
1497309908,951.3333333383,17.8876
1497309912,867.3333333383,18.1255
1497309916,903.3333333383,16.7231
1497309920,872.1333333383,17.6668
1497309924,905.7333333383,17.2648
1497309928,936.9333333383,17.801
1497309932,891.3333333383,17.3107
1497309936,900.9333333383,17.5243
1497309940,879.3333333383,17.8395
1497309944,927.3333333383,18.2658
1497309948,900.9333333383,17.9056
1497309952,941.7333333383,18.2872
1497309956,905.7333333383,17.9929
1497309960,910.5333333383,16.7751
1497309964,941.7333333383,16.8908
1497309968,917.7333333383,19.1052
1497309972,987.3333333383,16.98
1497309976,968.1333333383,15.6384
1497309980,939.3333333383,18.6789
1497309984,912.9333333383,16.9336
1497309988,898.5333333383,17.5715
1497309992,917.7333333383,16.9509
1497309996,886.5333333383,17.8523
1497310000,917.7333333383,16.6026
1497310004,893.7333333383,16.6174
1497310008,1006.5333333383,16.7046
1497310012,927.3333333383,15.2636
1497310016,900.9333333383,17.79
1497310020,951.3333333383,17.4865
1497310024,900.9333333383,18.223
1497310028,879.3333333383,18.8618
1497310032,898.5333333383,16.7974
1497310036,893.7333333383,18.4346
1497310040,903.3333333383,17.0829
1497310044,920.1333333383,17.8716
1497310048,884.1333333383,16.4884
1497310052,917.7333333383,17.0267
1497310056,960.9333333383,17.6647
1497310060,941.7333333383,18.1443
1497310064,932.1333333383,18.3086
1497310068,881.7333333383,17.2914
1497310072,888.9333333383,17.4382
1497310076,903.3333333383,17.1348
1497310080,908.1333333383,16.9719
1497310084,900.9333333383,17.4663
1497310088,910.5333333383,18.314
1497310092,886.5333333383,17.8653
1497310096,886.5333333383,18.707
1497310100,884.1333333383,17.6973
1497310104,963.3333333383,16.3684
1497310108,900.9333333383,18.4953
1497310112,917.7333333383,17.1436
1497310116,881.7333333383,17.3483
1497310120,881.7333333383,17.8742
1497310124,886.5333333383,18.4607
1497310128,881.7333333383,17.7338
1497310132,908.1333333383,16.7573
1497310136,896.1333333383,17.3336
1497310140,910.5333333383,18.1101
1497310144,903.3333333383,18.481
1497310148,872.1333333383,16.5141
1497310152,874.5333333383,16.0795
1497310156,881.7333333383,17.2989
1497310160,884.1333333383,17.2369
1497310164,893.7333333383,16.2465
1497310168,893.7333333383,16.9756
1497310172,891.3333333383,17.548
1497310176,831.3333333383,17.1006
1497310180,879.3333333383,15.9823
1497310184,896.1333333383,16.7446
1497310188,812.1333333383,17.4145
1497310192,852.9333333383,17.5321
1497310196,831.3333333383,17.3897
1497310200,879.3333333383,17.7284
1497310204,826.5333333383,17.3648
1497310208,860.1333333383,18.5576
1497310212,876.9333333383,18.2476
1497310216,840.9333333383,17.3575
1497310220,891.3333333383,18.1456
1497310224,797.7333333383,16.9247
1497310228,824.1333333383,17.5329
1497310232,804.9333333383,16.6578
1497310236,797.7333333383,15.761
1497310240,850.5333333383,16.4228
1497310244,797.7333333383,18.1637
1497310248,809.7333333383,17.3491
1497310252,869.7333333383,16.441
1497310256,855.3333333383,17.3052
1497310260,807.3333333383,17.1013
1497310264,807.3333333383,16.6164
1497310268,809.7333333383,17.3585
1497310272,828.9333333383,17.6013
1497310276,814.5333333383,16.0131
1497310280,800.1333333383,17.1636
1497310284,833.7333333383,17.546
1497310288,860.1333333383,16.9551
1497310292,824.1333333383,18.7831
1497310296,840.9333333383,17.0208
1497310300,879.3333333383,17.5645
1497310304,860.1333333383,16.7425
1497310308,910.5333333383,17.866
1497310312,920.1333333383,17.5978
1497310316,903.3333333383,17.626
1497310320,922.5333333383,18.6312
1497310324,932.1333333383,18.6508
1497310328,982.5333333383,17.9623
1497310332,953.7333333383,17.6333
1497310336,992.1333333383,17.4188
1497310340,1032.9333333383,17.2303
1497310344,1040.1333333383,17.7785
1497310348,1047.3333333383,16.4717
1497310352,1030.5333333383,18.2884
1497310356,1040.1333333383,15.7283
1497310360,1040.1333333383,16.6716
1497310364,1030.5333333383,17.9863
1497310368,1064.1333333383,16.1317
1497310372,948.9333333383,16.5384
1497310376,1020.9333333383,17.0806
1497310380,968.1333333383,15.8788
1497310384,1016.1333333383,16.5509
1497310388,929.7333333383,16.7968
1497310392,903.3333333383,17.0442
1497310396,934.5333333383,17.6644
1497310400,891.3333333383,18.3411
1497310404,929.7333333383,16.2905
1497310408,917.7333333383,16.8739
1497310412,956.1333333383,16.3113
1497310416,958.5333333383,16.98
1497310420,903.3333333383,16.9208
1497310424,953.7333333383,16.549
1497310428,968.1333333383,16.1354
1497310432,939.3333333383,17.8673
1497310436,951.3333333383,17.3973
1497310440,1001.7333333383,17.0347
1497310444,975.3333333383,17.3498
1497310448,965.7333333383,17.1135
1497310452,975.3333333383,17.5046
1497310456,951.3333333383,16.5111
1497310460,956.1333333383,18.1123
1497310464,1001.7333333383,17.9027
1497310468,987.3333333383,16.3075
1497310472,1028.1333333383,17.3828
1497310476,960.9333333383,17.9242
1497310480,994.5333333383,17.9577
1497310484,1006.5333333383,17.6585
1497310488,1059.3333333383,17.924
1497310492,1008.9333333383,16.8517
1497310500,1044.9333333383,16.6028
1497310504,1056.9333333383,17.9197
1497310508,1047.3333333383,17.3642
1497310512,1025.7333333383,17.5672
1497310516,1023.3333333383,17.9764
1497310520,1042.5333333383,16.7883
1497310524,1004.1333333383,17.1039
1497310528,1032.9333333383,15.1975
1497310532,1013.7333333383,14.7224
1497310536,965.7333333383,17.2765
1497310540,975.3333333383,17.346
1497310544,989.7333333383,16.963
1497310548,996.9333333383,16.1954
1497310552,989.7333333383,16.879
1497310556,996.9333333383,15.9675
1497310560,1030.5333333383,15.7344
1497310564,1030.5333333383,16.2864
1497310568,1032.9333333383,17.2521
1497310572,963.3333333383,17.2605
1497310576,996.9333333383,16.6079
1497310580,972.9333333383,17.9832
1497310584,1013.7333333383,18.7138
1497310588,977.7333333383,17.0735
1497310592,1030.5333333383,17.6741
1497310596,1008.9333333383,18.2385
1497310600,1028.1333333383,16.598
1497310604,996.9333333383,17.4857
1497310608,1032.9333333383,17.1319
1497310612,1025.7333333383,16.98
1497310616,939.3333333383,17.6665
1497310620,1030.5333333383,17.7355
1497310624,936.9333333383,17.7495
1497310628,972.9333333383,17.7915
1497310632,924.9333333383,16.8647
1497310636,934.5333333383,18.1034
1497310640,893.7333333383,18.1691
1497310644,915.3333333383,16.53
1497310652,896.1333333383,17.3308
1497310656,876.9333333383,19.0415
1497310660,898.5333333383,18.2723
1497310664,915.3333333383,18.1322
1497310668,900.9333333383,18.4021
1497310672,917.7333333383,16.8322
1497310676,910.5333333383,17.5829
1497310680,893.7333333383,17.7311
1497310684,932.1333333383,17.6325
1497310688,881.7333333383,17.9365
1497310692,941.7333333383,16.9337
1497310696,912.9333333383,17.371
1497310700,932.1333333383,17.398
1497310704,934.5333333383,17.4248
1497310708,934.5333333383,17.5847
1497310712,1018.5333333383,17.2602
1497310716,992.1333333383,18.1307
1497310720,1008.9333333383,17.7789
1497310724,1037.7333333383,16.6019
1497310728,963.3333333383,16.8807
1497310732,1016.1333333383,16.8464
1497310736,965.7333333383,16.5997
1497310740,975.3333333383,17.502
1497310744,924.9333333383,18.0375
1497310748,915.3333333383,17.8463
1497310752,891.3333333383,17.5751
1497310756,869.7333333383,20.0898
1497310760,893.7333333383,18.8619
1497310764,867.3333333383,17.6878
1497310768,879.3333333383,17.8794
1497310772,884.1333333383,17.8505
1497310776,927.3333333383,16.4632
1497310780,917.7333333383,17.8435
1497310784,884.1333333383,16.8982
1497310788,934.5333333383,16.6186
1497310792,984.9333333383,16.5577
1497310796,905.7333333383,17.1498
1497310800,917.7333333383,18.2723
1497310804,898.5333333383,17.6844
1497310808,886.5333333383,18.233
1497310812,886.5333333383,17.7929
1497310816,903.3333333383,17.4992
1497310820,869.7333333383,19.2916
1497310824,843.3333333383,17.9652
1497310828,922.5333333383,17.1594
1497310832,867.3333333383,17.7586
1497310836,862.5333333383,16.7724
1497310840,828.9333333383,17.3289
1497310844,881.7333333383,17.0478
1497310848,881.7333333383,18.5443
1497310852,843.3333333383,18.1004
1497310856,860.1333333383,17.8967
1497310860,860.1333333383,16.7724
1497310864,792.9333333383,18.9318
1497310868,840.9333333383,18.7723
1497310872,800.1333333383,17.8746
1497310876,843.3333333383,19.2051
1497310880,814.5333333383,17.0039
1497310884,809.7333333383,17.9709
1497310888,804.9333333383,17.0605
1497310892,800.1333333383,18.1543
1497310896,816.9333333383,18.4071
1497310900,812.1333333383,18.259
1497310904,809.7333333383,16.8153
1497310908,857.7333333383,17.9175
1497310912,788.1333333383,18.3284
1497310916,821.7333333383,18.9792
1497310920,785.7333333383,16.866
1497310924,821.7333333383,16.7773
1497310928,869.7333333383,17.9487
1497310932,862.5333333383,17.0036
1497310936,850.5333333383,16.994
1497310940,833.7333333383,17.3817
1497310944,850.5333333383,17.2161
1497310948,785.7333333383,17.0601
1497310952,876.9333333383,17.5304
1497310956,802.5333333383,16.7216
1497310960,807.3333333383,15.9285
1497310964,812.1333333383,15.9787
1497310968,821.7333333383,17.8899
1497310972,816.9333333383,16.3994
1497310976,812.1333333383,17.0404
1497310980,850.5333333383,16.9374
1497310984,838.5333333383,17.3033
1497310988,819.3333333383,17.6878
1497310992,809.7333333383,17.4166
1497310996,802.5333333383,17.321
1497311000,816.9333333383,17.4467
1497311004,867.3333333383,17.1954
1497311008,872.1333333383,17.5819
1497311012,862.5333333383,17.572
1497311016,876.9333333383,17.7605
1497311020,905.7333333383,17.9899
1497311024,874.5333333383,16.2627
1497311028,831.3333333383,16.7963
1497311032,896.1333333383,17.3539
1497311036,857.7333333383,16.628
1497311040,845.7333333383,17.2854
1497311044,840.9333333383,16.3835
1497311048,872.1333333383,16.3717
1497311052,807.3333333383,17.8911
1497311056,862.5333333383,16.6125
1497311060,862.5333333383,17.2404
1497311064,824.1333333383,16.1868
1497311068,874.5333333383,16.4785
1497311072,874.5333333383,17.6713
1497311076,876.9333333383,16.7207
1497311080,876.9333333383,17.5288
1497311084,888.9333333383,17.5757
1497311088,896.1333333383,17.4885
1497311092,833.7333333383,16.4942
1497311096,819.3333333383,17.3124
1497311100,824.1333333383,17.484
1497311104,860.1333333383,17.4404
1497311108,797.7333333383,17.6889
1497311112,833.7333333383,16.5219
1497311116,874.5333333383,16.8994
1497311120,855.3333333383,16.3779
1497311124,821.7333333383,17.5343
1497311128,790.5333333383,17.3286
1497311132,800.1333333383,16.9062
1497311136,821.7333333383,18.2514
1497311140,816.9333333383,18.6891
1497311144,836.1333333383,17.2823
1497311148,862.5333333383,17.8688
1497311152,874.5333333383,17.2863
1497311156,862.5333333383,16.8353
1497311160,864.9333333383,17.7914
1497311164,833.7333333383,17.1462
1497311168,790.5333333383,17.3066
1497311172,852.9333333383,17.7483
1497311176,802.5333333383,18.2588
1497311180,850.5333333383,16.8924
1497311184,848.1333333383,17.818
1497311188,804.9333333383,17.5225
1497311192,867.3333333383,17.2691
1497311196,845.7333333383,18.2577
1497311200,867.3333333383,18.4565
1497311204,833.7333333383,17.6293
1497311208,814.5333333383,18.3634
1497311212,886.5333333383,16.1072
1497311216,831.3333333383,16.3061
1497311220,864.9333333383,17.7872
1497311224,848.1333333383,16.8531
1497311228,828.9333333383,17.3205
1497311232,874.5333333383,17.6905
1497311236,814.5333333383,17.7535
1497311240,888.9333333383,17.9513
1497311244,790.5333333383,17.3291
1497311248,852.9333333383,17.5704
1497311252,812.1333333383,17.0299
1497311256,900.9333333383,17.679
1497311260,852.9333333383,16.7338
1497311264,898.5333333383,16.9073
1497311268,905.7333333383,17.7762
1497311272,896.1333333383,16.4392
1497311276,838.5333333383,17.1983
1497311280,886.5333333383,16.5851
1497311284,812.1333333383,19.0083
1497311288,860.1333333383,17.5783
1497311292,797.7333333383,17.5742
1497311296,881.7333333383,17.4908
1497311300,804.9333333383,18.7516
1497311304,864.9333333383,17.5585
1497311308,862.5333333383,16.578
1497311312,855.3333333383,17.0492
1497311316,872.1333333383,18.5722
1497311320,881.7333333383,17.3813
1497311324,867.3333333383,16.3705
1497311328,855.3333333383,17.182
1497311332,881.7333333383,16.6051
1497311336,860.1333333383,17.2202
1497311340,838.5333333383,17.3006
1497311344,852.9333333383,16.2411
1497311348,869.7333333383,17.5405
1497311352,804.9333333383,17.9005
1497311356,814.5333333383,16.817
1497311360,879.3333333383,16.0894
1497311364,797.7333333383,17.5268
1497311368,819.3333333383,16.7049
1497311372,790.5333333383,17.5823
1497311376,821.7333333383,17.2017
1497311380,812.1333333383,16.504
1497311384,819.3333333383,17.8475
1497311388,747.3333333383,16.2656
1497311392,768.9333333383,16.9144
1497311396,867.3333333383,17.3849
1497311400,860.1333333383,16.9194
1497311404,896.1333333383,17.4063
1497311408,852.9333333383,18.4175
1497311412,872.1333333383,17.9289
1497311416,908.1333333383,18.517
1497311420,917.7333333383,17.0211
1497311424,941.7333333383,18.4562
1497311428,905.7333333383,18.003
1497311432,970.5333333383,17.2321
1497311436,893.7333333383,17.6604
1497311440,896.1333333383,16.1255
1497311444,884.1333333383,17.6741
1497311448,946.5333333383,16.2075
1497311452,936.9333333383,16.7949
1497311456,910.5333333383,18.1882
1497311460,953.7333333383,18.1776
1497311464,912.9333333383,16.3667
1497311468,876.9333333383,16.3624
1497311472,869.7333333383,17.4666
1497311476,891.3333333383,18.3054
1497311480,838.5333333383,18.6527
1497311484,826.5333333383,15.7242
1497311488,860.1333333383,18.5203
1497311492,869.7333333383,18.2602
1497311496,903.3333333383,16.4704
1497311500,869.7333333383,17.2977
1497311504,881.7333333383,17.3276
1497311508,845.7333333383,17.263
1497311512,780.9333333383,16.1767
1497311516,862.5333333383,17.5954
1497311520,852.9333333383,17.4417
1497311524,848.1333333383,16.7773
1497311528,840.9333333383,16.6604
1497311532,840.9333333383,17.9265
1497311536,908.1333333383,18.6237
1497311540,905.7333333383,18.1534
1497311544,867.3333333383,17.5679
1497311548,867.3333333383,16.5805
1497311552,852.9333333383,18.4116
1497311556,936.9333333383,17.5492
1497311560,905.7333333383,17.5251
1497311564,946.5333333383,16.678
1497311568,980.1333333383,17.6131
1497311572,963.3333333383,17.3457
1497311576,1025.7333333383,16.9994
1497311580,958.5333333383,17.7464
1497311584,968.1333333383,16.3257
1497311588,968.1333333383,16.0182
1497311592,1020.9333333383,16.2725
1497311596,1001.7333333383,17.3753
1497311600,994.5333333383,17.2512
1497311604,920.1333333383,16.1292
1497311608,953.7333333383,16.8046
1497311612,941.7333333383,16.5243
1497311616,915.3333333383,16.9894
1497311620,965.7333333383,15.9042
1497311624,910.5333333383,18.3612
1497311628,915.3333333383,17.7283
1497311632,888.9333333383,16.4003
1497311636,999.3333333383,17.4427
1497311640,881.7333333383,17.2222
1497311644,908.1333333383,16.8534
1497311648,915.3333333383,17.0062
1497311652,915.3333333383,17.7159
1497311656,905.7333333383,16.1127
1497311660,876.9333333383,16.1792
1497311664,888.9333333383,16.7978
1497311668,872.1333333383,17.4534
1497311672,879.3333333383,17.1649
1497311676,872.1333333383,17.9662
1497311680,886.5333333383,17.7022
1497311684,886.5333333383,17.9166
1497311688,879.3333333383,17.1195
1497311692,867.3333333383,17.9567
1497311696,874.5333333383,17.7799
1497311700,893.7333333383,17.9615
1497311704,891.3333333383,17.2307
1497311708,836.1333333383,17.9095
1497311712,828.9333333383,16.6321
1497311716,790.5333333383,17.7661
1497311720,848.1333333383,17.3936
1497311724,776.1333333383,17.1039
1497311728,807.3333333383,18.6471
1497311732,790.5333333383,17.8237
1497311736,828.9333333383,17.2797
1497311740,881.7333333383,16.9156
1497311744,891.3333333383,17.1723
1497311748,800.1333333383,17.3601
1497311752,860.1333333383,16.838
1497311756,874.5333333383,17.1784
1497311760,828.9333333383,17.7396
1497311764,848.1333333383,16.635
1497311768,831.3333333383,17.0005
1497311772,860.1333333383,17.3104
1497311776,812.1333333383,17.5546
1497311780,845.7333333383,19.0458
1497311784,874.5333333383,18.9603
1497311788,852.9333333383,16.9789
1497311792,879.3333333383,17.3557
1497311796,819.3333333383,17.6351
1497311800,867.3333333383,17.2962
1497311804,876.9333333383,17.8755
1497311808,821.7333333383,17.2164
1497311812,884.1333333383,18.6496
1497311816,855.3333333383,17.5534
1497311820,876.9333333383,18.1194
1497311824,864.9333333383,17.9381
1497311828,852.9333333383,17.6963
1497311832,896.1333333383,17.3952
1497311836,881.7333333383,17.474
1497311840,862.5333333383,17.4831
1497311844,903.3333333383,16.5549
1497311848,898.5333333383,17.248
1497311852,888.9333333383,16.82
1497311856,881.7333333383,18.0761
1497311860,876.9333333383,16.2307
1497311864,857.7333333383,16.5418
1497311868,876.9333333383,16.888
1497311872,888.9333333383,17.8138
1497311876,884.1333333383,17.231
1497311880,888.9333333383,17.5121
1497311884,900.9333333383,17.3547
1497311888,884.1333333383,17.1502
1497311892,896.1333333383,19.1834
1497311896,860.1333333383,18.3562
1497311900,876.9333333383,19.5256
1497311904,857.7333333383,18.1061
1497311908,862.5333333383,17.9169
1497311912,819.3333333383,18.2245
1497311916,845.7333333383,16.7989
1497311920,852.9333333383,17.1939
1497311924,855.3333333383,17.4393
1497311928,867.3333333383,19.6528
1497311932,860.1333333383,17.5608
1497311936,824.1333333383,17.7493
1497311940,824.1333333383,18.1466
1497311944,869.7333333383,18.7284
1497311948,867.3333333383,17.6649
1497311952,876.9333333383,18.1338
1497311956,850.5333333383,17.5166
1497311960,874.5333333383,18.0352
1497311964,816.9333333383,18.989
1497311968,828.9333333383,18.9317
1497311972,824.1333333383,17.7638
1497311976,862.5333333383,17.8452
1497311980,888.9333333383,17.6596
1497311984,814.5333333383,17.2184
1497311988,816.9333333383,17.3359
1497311992,836.1333333383,17.2819
1497311996,812.1333333383,18.7168
1497312000,862.5333333383,16.9337
1497312004,816.9333333383,17.2216
1497312008,852.9333333383,16.9231
1497312012,826.5333333383,17.588
1497312016,790.5333333383,17.2156
1497312020,840.9333333383,17.269
1497312024,795.3333333383,18.06
1497312028,852.9333333383,16.8489
1497312032,816.9333333383,17.1088
1497312036,864.9333333383,16.0218
1497312040,864.9333333383,15.6334
1497312044,874.5333333383,17.4524
1497312048,867.3333333383,17.0576
1497312052,975.3333333383,17.7588
1497312056,924.9333333383,17.9483
1497312060,905.7333333383,16.816
1497312064,922.5333333383,16.1969
1497312068,953.7333333383,16.9813
1497312072,915.3333333383,16.5003
1497312076,939.3333333383,17.3788
1497312080,886.5333333383,15.7962
1497312084,917.7333333383,17.2075
1497312088,903.3333333383,18.1185
1497312092,908.1333333383,17.112
1497312096,888.9333333383,17.2224
1497312100,852.9333333383,18.2325
1497312104,864.9333333383,16.75
1497312108,879.3333333383,16.7119
1497312112,893.7333333383,17.0985
1497312116,936.9333333383,18.3047
1497312120,1013.7333333383,17.5287
1497312124,1028.1333333383,16.6613
1497312128,1011.3333333383,15.6437
1497312132,1004.1333333383,16.8779
1497312136,1032.9333333383,16.9734
1497312140,1028.1333333383,17.4009
1497312144,956.1333333383,16.5557
1497312148,1008.9333333383,17.3635
1497312152,1030.5333333383,17.619
1497312156,1020.9333333383,16.7368
1497312160,1047.3333333383,16.9119
1497312164,1047.3333333383,17.5532
1497312168,994.5333333383,17.4395
1497312172,1028.1333333383,15.4077
1497312176,1059.3333333383,16.8684
1497312180,996.9333333383,17.4406
1497312184,1042.5333333383,16.5032
1497312188,980.1333333383,16.9199
1497312192,1032.9333333383,17.1218
1497312196,1028.1333333383,17.0551
1497312200,1030.5333333383,17.9543
1497312204,1044.9333333383,17.8033
1497312208,1018.5333333383,16.4727
1497312212,1035.3333333383,17.1634
1497312216,977.7333333383,15.3317
1497312220,1061.7333333383,16.4216
1497312224,1071.3333333383,17.555
1497312228,1030.5333333383,18.2098
1497312232,1035.3333333383,17.6996
1497312236,1047.3333333383,16.7184
1497312240,1076.1333333383,18.2134
1497312244,1116.9333333383,17.061
1497312248,1116.9333333383,17.87
1497312252,1119.3333333383,17.3752
1497312256,1097.7333333383,16.7532
1497312260,1114.5333333383,17.8811
1497312264,1164.9333333383,16.8079
1497312268,1208.1333333383,17.9206
1497312272,1138.5333333383,17.5291
1497312276,1212.9333333383,17.084
1497312280,1191.3333333383,17.0153
1497312284,1138.5333333383,16.4419
1497312288,1222.5333333383,18.0216
1497312292,1148.1333333383,17.6174
1497312296,1186.5333333383,17.8855
1497312300,1184.1333333383,17.0069
1497312304,1124.1333333383,17.2499
1497312308,1167.3333333383,15.7357
1497312312,1109.7333333383,17.177
1497312316,1126.5333333383,15.6177
1497312320,1114.5333333383,16.5362
1497312324,1114.5333333383,17.1334
1497312328,1193.7333333383,16.6866
1497312332,1102.5333333383,16.8105
1497312336,1124.1333333383,16.5109
1497312340,1116.9333333383,17.1186
1497312344,1100.1333333383,17.6595
1497312348,1126.5333333383,17.2658
1497312352,1112.1333333383,17.3083
1497312356,1119.3333333383,18.0499
1497312360,1090.5333333383,17.7494
1497312364,1128.9333333383,18.7642
1497312368,1126.5333333383,18.385
1497312372,1109.7333333383,17.2583
1497312376,1107.3333333383,17.6882
1497312380,1133.7333333383,16.8149
1497312384,1097.7333333383,17.1085
1497312392,1131.3333333383,17.5914
1497312396,1121.7333333383,16.7847
1497312400,1107.3333333383,17.5733
1497312404,1109.7333333383,17.6551
1497312408,1061.7333333383,16.7294
1497312412,1076.1333333383,16.5611
1497312416,1047.3333333383,15.6149
1497312420,1085.7333333383,17.7415
1497312424,1056.9333333383,16.8095
1497312428,1042.5333333383,18.0067
1497312432,1078.5333333383,16.7657
1497312436,1080.9333333383,16.1398
1497312440,1119.3333333383,16.6206
1497312444,1128.9333333383,17.1124
1497312448,1164.9333333383,17.427
1497312452,1148.1333333383,16.3742
1497312456,1172.1333333383,16.488
1497312460,1145.7333333383,15.9955
1497312464,1066.5333333383,17.1834
1497312468,1138.5333333383,17.3282
1497312472,1116.9333333383,17.5937
1497312476,1133.7333333383,17.9309
1497312480,1244.1333333383,17.9553
1497312484,1172.1333333383,18.0868
1497312488,1140.9333333383,18.2788
1497312492,1136.1333333383,17.8598
1497312496,1150.5333333383,17.6435
1497312500,1119.3333333383,16.8989
1497312504,1095.3333333383,17.5785
1497312508,1126.5333333383,16.5757
1497312512,1102.5333333383,17.4776
1497312516,1076.1333333383,18.2031
1497312520,1114.5333333383,17.6282
1497312524,1037.7333333383,17.8086
1497312528,1042.5333333383,18.1449
1497312532,1049.7333333383,17.6268
1497312536,1092.9333333383,17.6554
1497312540,1080.9333333383,18.0728
1497312544,1119.3333333383,17.8934
1497312548,1133.7333333383,17.8298
1497312552,1056.9333333383,17.3601
1497312556,1076.1333333383,17.4103
1497312560,1071.3333333383,17.3159
1497312564,1056.9333333383,17.8156
1497312568,1025.7333333383,18.5482
1497312572,1028.1333333383,17.55
1497312576,1013.7333333383,17.2018
1497312580,982.5333333383,18.7805
1497312584,1052.1333333383,18.2363
1497312588,1020.9333333383,18.6957
1497312592,987.3333333383,15.939
1497312596,1016.1333333383,17.1691
1497312600,1011.3333333383,17.597
1497312604,970.5333333383,16.9324
1497312608,989.7333333383,17.9125
1497312612,1028.1333333383,16.3143
1497312616,1001.7333333383,18.2904
1497312620,1025.7333333383,16.2293
1497312624,1044.9333333383,17.7794
1497312628,1119.3333333383,18.12
1497312632,1227.3333333383,17.8065
1497312636,1220.1333333383,17.5702
1497312640,1143.3333333383,17.0147
1497312644,1136.1333333383,17.0229
1497312648,1119.3333333383,18.1972
1497312652,1104.9333333383,17.4478
1497312656,1064.1333333383,17.6276
1497312660,1085.7333333383,18.0381
1497312664,1064.1333333383,18.2103
1497312668,996.9333333383,17.1772
1497312672,968.1333333383,17.8094
1497312676,1042.5333333383,19.789
1497312680,996.9333333383,18.4215
1497312684,1011.3333333383,17.3216
1497312688,1004.1333333383,18.1316
1497312692,1018.5333333383,18.5335
1497312696,1016.1333333383,18.0872
1497312700,1061.7333333383,17.0767
1497312704,1107.3333333383,17.3887
1497312708,1049.7333333383,17.1198
1497312712,1044.9333333383,17.5838
1497312716,1124.1333333383,18.2476
1497312720,1095.3333333383,17.8316
1497312724,1059.3333333383,16.8828
1497312728,1095.3333333383,16.2131
1497312732,1073.7333333383,17.6481
1497312736,1025.7333333383,18.1938
1497312740,1064.1333333383,18.1821
1497312744,1037.7333333383,18.5929
1497312748,1068.9333333383,17.9742
1497312752,1126.5333333383,18.127
1497312756,1078.5333333383,18.4056
1497312760,1102.5333333383,17.836
1497312764,1042.5333333383,17.1281
1497312768,1088.1333333383,15.5752
1497312772,1066.5333333383,18.0819
1497312776,1016.1333333383,18.3482
1497312780,1100.1333333383,19.3763
1497312784,1044.9333333383,19.5117
1497312788,1042.5333333383,18.2823
1497312792,1016.1333333383,17.377
1497312796,1061.7333333383,15.3705
1497312800,1013.7333333383,18.4656
1497312804,1023.3333333383,17.3361
1497312808,1047.3333333383,15.4842
1497312812,987.3333333383,18.137
1497312816,989.7333333383,16.7576
1497312820,1018.5333333383,17.978
1497312824,948.9333333383,17.502
1497312828,1025.7333333383,17.472
1497312832,948.9333333383,17.2593
1497312836,982.5333333383,16.9786
1497312840,994.5333333383,17.2248
1497312844,944.1333333383,17.3656
1497312848,994.5333333383,17.3648
1497312852,960.9333333383,17.2723
1497312856,956.1333333383,15.7501
1497312860,941.7333333383,16.6502
1497312864,960.9333333383,17.9078
1497312868,1025.7333333383,16.9844
1497312872,987.3333333383,16.6418
1497312876,1186.5333333383,15.9802
1497312880,1191.3333333383,16.9143
1497312884,1124.1333333383,16.0521
1497312888,1152.9333333383,18.527
1497312892,1107.3333333383,16.7255
1497312896,1073.7333333383,17.1167
1497312900,1056.9333333383,18.0152
1497312904,1052.1333333383,16.5303
1497312908,1042.5333333383,17.6166
1497312912,992.1333333383,18.353
1497312916,1044.9333333383,17.5117
1497312920,934.5333333383,17.6042
1497312924,960.9333333383,17.9205
1497312928,1008.9333333383,17.766
1497312932,1035.3333333383,18.1977
1497312936,1030.5333333383,17.8126
1497312940,1013.7333333383,17.2235
1497312944,1028.1333333383,17.1885
1497312948,1037.7333333383,17.8956
1497312952,1035.3333333383,17.2855
1497312956,970.5333333383,16.5386
1497312960,1001.7333333383,17.0508
1497312964,953.7333333383,17.3738
1497312968,1028.1333333383,17.9205
1497312972,989.7333333383,15.8382
1497312976,970.5333333383,16.2966
1497312980,987.3333333383,18.1128
1497312984,987.3333333383,18.5766
1497312988,1025.7333333383,16.8581
1497312992,953.7333333383,17.9016
1497312996,1004.1333333383,16.4563
1497313000,1006.5333333383,17.5796
1497313004,1035.3333333383,18.8771
1497313008,1016.1333333383,18.4248
1497313012,984.9333333383,19.7138
1497313016,970.5333333383,17.5517
1497313020,917.7333333383,18.1372
1497313024,1023.3333333383,17.669
1497313028,953.7333333383,17.6765
1497313032,910.5333333383,18.6481
1497313036,910.5333333383,19.4925
1497313040,989.7333333383,17.771
1497313044,941.7333333383,19.4281
1497313048,982.5333333383,19.6544
1497313052,924.9333333383,19.0132
1497313056,1016.1333333383,16.2097
1497313060,970.5333333383,16.6267
1497313064,912.9333333383,17.491
1497313068,956.1333333383,17.1395
1497313072,924.9333333383,17.7078
1497313076,1037.7333333383,18.254
1497313080,1037.7333333383,17.5407
1497313084,1028.1333333383,18.5232
1497313088,1042.5333333383,18.5928
1497313092,1016.1333333383,18.0632
1497313096,1004.1333333383,17.6569
1497313100,1025.7333333383,18.7414
1497313104,994.5333333383,17.6555
1497313108,1023.3333333383,17.5049
1497313112,1028.1333333383,17.5014
1497313116,1023.3333333383,19.0645
1497313120,953.7333333383,17.574
1497313124,1016.1333333383,18.6106
1497313128,1068.9333333383,18.578
1497313132,1006.5333333383,18.4292
1497313136,1004.1333333383,17.6899
1497313140,1109.7333333383,17.156
1497313144,1090.5333333383,17.4449
1497313148,1102.5333333383,16.9917
1497313152,1068.9333333383,17.0772
1497313156,1042.5333333383,16.3465
1497313160,1080.9333333383,17.0145
1497313164,1032.9333333383,17.263
1497313168,1037.7333333383,16.8262
1497313172,1035.3333333383,17.8704
1497313176,1042.5333333383,17.4112
1497313180,1028.1333333383,18.1544
1497313184,1018.5333333383,17.8831
1497313188,1016.1333333383,17.1343
1497313192,1102.5333333383,16.4429
1497313196,1025.7333333383,17.4419
1497313200,992.1333333383,15.102
1497313204,1049.7333333383,15.8028
1497313208,1032.9333333383,16.2203
1497313212,989.7333333383,15.6662
1497313216,1028.1333333383,17.1195
1497313220,903.3333333383,16.6347
1497313224,886.5333333383,17.6025
1497313228,879.3333333383,15.8595
1497313232,905.7333333383,17.2179
1497313236,884.1333333383,18.1088
1497313240,948.9333333383,18.5609
1497313244,896.1333333383,17.3566
1497313248,845.7333333383,18.4301
1497313252,898.5333333383,17.7696
1497313256,792.9333333383,17.9779
1497313260,876.9333333383,18.1339
1497313264,881.7333333383,18.1049
1497313268,862.5333333383,16.1801
1497313272,898.5333333383,18.4114
1497313276,905.7333333383,16.7221
1497313280,848.1333333383,17.1133
1497313284,869.7333333383,17.6249
1497313288,896.1333333383,16.2525
1497313292,876.9333333383,16.1879
1497313296,848.1333333383,17.9258
1497313300,831.3333333383,17.5505
1497313304,864.9333333383,17.8395
1497313308,857.7333333383,19.2811
1497313312,862.5333333383,17.3471
1497313316,903.3333333383,16.479
1497313320,836.1333333383,17.0711
1497313324,860.1333333383,17.7752
1497313328,891.3333333383,17.2645
1497313332,874.5333333383,19.287
1497313336,905.7333333383,18.5175
1497313340,869.7333333383,17.5591
1497313344,864.9333333383,17.0969
1497313348,886.5333333383,16.9286
1497313352,946.5333333383,16.3154
1497313356,862.5333333383,16.913
1497313360,908.1333333383,17.9289
1497313364,884.1333333383,16.7416
1497313368,876.9333333383,17.6258
1497313372,884.1333333383,18.6527
1497313376,886.5333333383,17.2697
1497313380,874.5333333383,18.7004
1497313384,884.1333333383,16.2864
1497313388,881.7333333383,18.5209
1497313392,879.3333333383,18.1532
1497313396,876.9333333383,17.1103
1497313400,821.7333333383,17.2566
1497313404,845.7333333383,17.9057
1497313408,874.5333333383,18.1908
1497313412,855.3333333383,16.5042
1497313416,884.1333333383,15.6198
1497313420,816.9333333383,15.3646
1497313424,857.7333333383,16.9582
1497313428,869.7333333383,17.7076
1497313432,828.9333333383,16.5956
1497313436,855.3333333383,16.2966
1497313440,850.5333333383,16.2136
1497313444,797.7333333383,16.2488
1497313448,790.5333333383,17.1001
1497313452,809.7333333383,16.942
1497313456,785.7333333383,17.5344
1497313460,790.5333333383,17.4191
1497313464,792.9333333383,17.6331
1497313468,720.9333333383,16.3315
1497313472,768.9333333383,17.6827
1497313476,812.1333333383,18.2076
1497313480,797.7333333383,17.6809
1497313484,800.1333333383,17.5308
1497313488,771.3333333383,16.9745
1497313492,802.5333333383,17.7254
1497313496,804.9333333383,18.7188
1497313500,778.5333333383,18.4711
1497313504,780.9333333383,18.3193
1497313508,797.7333333383,17.1855
1497313512,788.1333333383,18.5951
1497313516,795.3333333383,17.8342
1497313520,800.1333333383,17.2265
1497313524,783.3333333383,17.0459
1497313528,828.9333333383,17.1451
1497313532,766.5333333383,17.7609
1497313536,819.3333333383,17.9878
1497313540,864.9333333383,18.5562
1497313544,860.1333333383,16.6589
1497313548,836.1333333383,17.1598
1497313552,800.1333333383,16.7421
1497313556,790.5333333383,17.2071
1497313560,848.1333333383,16.4688
1497313564,809.7333333383,16.6832
1497313568,800.1333333383,16.8662
1497313572,778.5333333383,17.9067
1497313576,824.1333333383,17.4876
1497313580,821.7333333383,18.4939
1497313584,804.9333333383,16.4475
1497313588,797.7333333383,18.8011
1497313592,838.5333333383,16.7842
1497313596,886.5333333383,18.5551
1497313600,884.1333333383,15.9968
1497313604,802.5333333383,17.2826
1497313608,797.7333333383,16.6068
1497313612,814.5333333383,18.0286
1497313616,843.3333333383,16.6911
1497313620,845.7333333383,18.5885
1497313624,879.3333333383,17.6415
1497313628,864.9333333383,18.0691
1497313632,862.5333333383,17.8017
1497313636,809.7333333383,17.6304
1497313640,814.5333333383,16.9685
1497313644,797.7333333383,17.0289
1497313648,812.1333333383,17.27
1497313652,809.7333333383,18.245
1497313656,809.7333333383,16.5967
1497313660,864.9333333383,17.216
1497313664,896.1333333383,17.9517
1497313668,869.7333333383,18.0737
1497313672,941.7333333383,17.6511
1497313676,984.9333333383,16.9404
1497313680,982.5333333383,17.4669
1497313684,1049.7333333383,17.0649
1497313688,1044.9333333383,17.7806
1497313692,1040.1333333383,17.6784
1497313696,1064.1333333383,17.8085
1497313700,1044.9333333383,18.4979
1497313704,1040.1333333383,17.1516
1497313708,1037.7333333383,17.7361
1497313712,996.9333333383,16.2402
1497313716,980.1333333383,16.713
1497313720,989.7333333383,16.5739
1497313724,984.9333333383,18.1031
1497313728,960.9333333383,14.6717
1497313732,989.7333333383,15.7195
1497313736,941.7333333383,16.2256
1497313740,944.1333333383,15.868
1497313744,965.7333333383,15.7166
1497313748,1025.7333333383,15.6027
1497313752,980.1333333383,16.4682
1497313756,999.3333333383,16.1655
1497313760,898.5333333383,16.5368
1497313764,948.9333333383,17.1948
1497313768,958.5333333383,16.8578
1497313772,953.7333333383,17.2767
1497313776,1035.3333333383,16.535
1497313780,996.9333333383,16.7486
1497313784,960.9333333383,16.1733
1497313788,1011.3333333383,17.9212
1497313792,1030.5333333383,16.989
1497313796,910.5333333383,17.1837
1497313800,1016.1333333383,15.5895
1497313804,1023.3333333383,17.3141
1497313808,946.5333333383,16.739
1497313812,903.3333333383,17.1897
1497313816,987.3333333383,18.2185
1497313820,946.5333333383,17.95
1497313824,960.9333333383,17.123
1497313828,948.9333333383,16.5692
1497313832,936.9333333383,16.3907
1497313836,924.9333333383,16.7437
1497313840,951.3333333383,16.4564
1497313844,1018.5333333383,17.714
1497313848,994.5333333383,18.0422
1497313852,953.7333333383,18.665
1497313856,951.3333333383,18.1722
1497313860,980.1333333383,17.1323
1497313864,1008.9333333383,16.1052
1497313868,1001.7333333383,17.2065
1497313872,1008.9333333383,16.9516
1497313876,980.1333333383,16.3757
1497313880,999.3333333383,17.9753
1497313884,920.1333333383,16.1982
1497313888,989.7333333383,19.0483
1497313892,989.7333333383,17.1218
1497313896,953.7333333383,16.9752
1497313900,951.3333333383,17.4871
1497313904,929.7333333383,16.9443
1497313908,948.9333333383,16.7965
1497313912,987.3333333383,16.374
1497313916,946.5333333383,17.3756
1497313920,939.3333333383,15.5526
1497313924,932.1333333383,15.1356
1497313928,884.1333333383,16.8368
1497313932,905.7333333383,17.1901
1497313936,900.9333333383,17.8865
1497313940,879.3333333383,18.026
1497313944,917.7333333383,17.5286
1497313948,888.9333333383,16.2274
1497313952,886.5333333383,17.0649
1497313956,900.9333333383,16.1968
1497313960,896.1333333383,17.5447
1497313964,872.1333333383,16.2459
1497313968,874.5333333383,17.7051
1497313972,867.3333333383,16.4227
1497313976,884.1333333383,17.666
1497313980,840.9333333383,16.576
1497313984,872.1333333383,18.3017
1497313988,884.1333333383,17.0816
1497313992,908.1333333383,18.3195
1497313996,920.1333333383,17.3928
1497314000,910.5333333383,17.0895
1497314004,881.7333333383,16.5789
1497314008,881.7333333383,17.3064
1497314012,848.1333333383,17.912
1497314016,828.9333333383,17.4465
1497314020,879.3333333383,15.5817
1497314024,872.1333333383,17.4326
1497314028,855.3333333383,17.2507
1497314032,903.3333333383,17.3605
1497314036,862.5333333383,16.2304
1497314040,833.7333333383,16.2982
1497314044,860.1333333383,16.4674
1497314048,860.1333333383,15.775
1497314052,828.9333333383,16.7059
1497314056,797.7333333383,17.1856
1497314060,848.1333333383,17.1255
1497314064,879.3333333383,18.1837
1497314068,831.3333333383,17.5184
1497314072,790.5333333383,16.7442
1497314076,852.9333333383,17.5903
1497314080,869.7333333383,17.6494
1497314084,852.9333333383,18.7408
1497314088,819.3333333383,17.3134
1497314092,797.7333333383,17.9443
1497314096,836.1333333383,17.3625
1497314100,860.1333333383,17.0437
1497314104,876.9333333383,17.0515
1497314108,864.9333333383,17.9801
1497314112,903.3333333383,17.1067
1497314116,915.3333333383,17.4794
1497314120,994.5333333383,17.4739
1497314124,881.7333333383,18.1304
1497314128,941.7333333383,16.9482
1497314132,929.7333333383,16.445
1497314136,970.5333333383,17.5727
1497314140,953.7333333383,17.7554
1497314144,977.7333333383,19.2181
1497314148,939.3333333383,16.9116
1497314152,946.5333333383,18.1739
1497314156,946.5333333383,18.6756
1497314160,924.9333333383,18.1806
1497314164,1008.9333333383,17.8136
1497314168,920.1333333383,17.3664
1497314172,903.3333333383,16.1532
1497314176,1004.1333333383,17.2937
1497314180,912.9333333383,16.3304
1497314184,951.3333333383,15.9901
1497314188,915.3333333383,16.0257
1497314192,893.7333333383,16.4173
1497314196,968.1333333383,15.9582
1497314200,944.1333333383,17.6049
1497314204,912.9333333383,16.7918
1497314208,975.3333333383,17.841
1497314212,932.1333333383,17.0015
1497314216,903.3333333383,17.6777
1497314220,934.5333333383,18.4875
1497314224,905.7333333383,17.8639
1497314228,924.9333333383,15.565
1497314232,888.9333333383,17.454
1497314236,888.9333333383,17.5403
1497314240,898.5333333383,17.1723
1497314244,900.9333333383,17.5923
1497314248,872.1333333383,16.7952
1497314252,1013.7333333383,16.7389
1497314256,891.3333333383,17.3491
1497314260,886.5333333383,17.7004
1497314264,970.5333333383,16.5732
1497314268,917.7333333383,17.7204
1497314272,946.5333333383,16.972
1497314276,1001.7333333383,17.9128
1497314280,960.9333333383,18.293
1497314284,1037.7333333383,18.3114
1497314288,968.1333333383,18.0904
1497314292,953.7333333383,18.7101
1497314296,1004.1333333383,15.633
1497314300,946.5333333383,17.2055
1497314304,944.1333333383,16.9207
1497314312,922.5333333383,18.9546
1497314316,927.3333333383,17.2284
1497314320,903.3333333383,18.6618
1497314324,879.3333333383,17.9157
1497314328,869.7333333383,16.3832
1497314332,896.1333333383,17.2525
1497314336,869.7333333383,16.0552
1497314340,874.5333333383,18.0466
1497314344,860.1333333383,17.5692
1497314348,874.5333333383,18.0121
1497314352,874.5333333383,17.2574
1497314356,884.1333333383,17.1876
1497314360,828.9333333383,16.8945
1497314364,869.7333333383,16.4444
1497314368,864.9333333383,17.4945
1497314372,848.1333333383,17.2561
1497314376,869.7333333383,18.2411
1497314380,852.9333333383,16.8898
1497314384,860.1333333383,17.0275
1497314388,903.3333333383,17.9945
1497314392,872.1333333383,18.1585
1497314396,831.3333333383,17.8305
1497314400,994.5333333383,16.6577
1497314404,1018.5333333383,16.8844
1497314408,970.5333333383,16.8071
1497314412,1025.7333333383,15.784
1497314416,1020.9333333383,16.8058
1497314420,956.1333333383,17.8986
1497314424,1028.1333333383,17.0533
1497314428,980.1333333383,17.3285
1497314432,1006.5333333383,17.5611
1497314436,1030.5333333383,16.7827
1497314440,1016.1333333383,17.8415
1497314444,1030.5333333383,18.1007
1497314448,1032.9333333383,17.048
1497314452,1006.5333333383,18.089
1497314456,1028.1333333383,16.9473
1497314460,975.3333333383,16.7469
1497314464,1013.7333333383,17.2706
1497314468,965.7333333383,17.3659
1497314472,1008.9333333383,18.0645
1497314476,903.3333333383,17.2404
1497314480,1001.7333333383,17.3518
1497314484,939.3333333383,18.6285
1497314488,932.1333333383,16.6636
1497314492,941.7333333383,17.9231
1497314496,956.1333333383,17.8294
1497314500,905.7333333383,16.4599
1497314504,982.5333333383,17.0152
1497314508,958.5333333383,17.5774
1497314512,900.9333333383,16.7955
1497314516,975.3333333383,17.4132
1497314520,948.9333333383,17.7811
1497314524,908.1333333383,17.7451
1497314528,936.9333333383,20.0712
1497314532,924.9333333383,18.2304
1497314536,982.5333333383,18.275
1497314540,948.9333333383,18.8685
1497314544,941.7333333383,17.379
1497314548,903.3333333383,17.8037
1497314552,953.7333333383,18.156
1497314556,924.9333333383,16.8286
1497314560,987.3333333383,17.6437
1497314564,989.7333333383,17.4078
1497314568,958.5333333383,17.8989
1497314572,1016.1333333383,16.6637
1497314576,1040.1333333383,16.456
1497314580,972.9333333383,17.056
1497314584,1006.5333333383,16.1578
1497314588,1035.3333333383,16.3514
1497314592,982.5333333383,17.2951
1497314596,982.5333333383,18.3491
1497314600,1092.9333333383,17.7784
1497314604,1032.9333333383,16.713
1497314608,1064.1333333383,17.9416
1497314612,1107.3333333383,18.4541
1497314616,1068.9333333383,18.5236
1497314620,1052.1333333383,17.7871
1497314624,1059.3333333383,16.9375
1497314628,1040.1333333383,17.3426
1497314632,1131.3333333383,18.112
1497314636,1083.3333333383,17.1793
1497314640,1088.1333333383,17.8272
1497314644,1085.7333333383,16.4201
1497314648,1083.3333333383,17.3519
1497314652,1044.9333333383,17.1891
1497314656,1114.5333333383,17.4405
1497314660,1037.7333333383,17.46
1497314664,1121.7333333383,18.4505
1497314668,1140.9333333383,18.1428
1497314672,1128.9333333383,16.5258
1497314676,1059.3333333383,17.1007
1497314680,1064.1333333383,16.9992
1497314684,1056.9333333383,17.7179
1497314688,1064.1333333383,17.1342
1497314692,1078.5333333383,18.0713
1497314696,1056.9333333383,18.045
1497314700,1040.1333333383,16.9905
1497314704,1071.3333333383,15.8108
1497314708,1056.9333333383,17.9865
1497314712,1064.1333333383,17.2812
1497314716,1047.3333333383,18.3136
1497314720,1061.7333333383,17.9903
1497314724,1066.5333333383,17.9787
1497314728,1049.7333333383,18.8261
1497314732,1037.7333333383,17.3087
1497314736,1090.5333333383,17.5718
1497314740,1071.3333333383,18.0568
1497314744,1059.3333333383,18.6586
1497314748,1090.5333333383,18.6639
1497314752,1078.5333333383,17.9807
1497314756,1059.3333333383,18.3791
1497314760,1097.7333333383,17.0066
1497314764,1064.1333333383,19.1418
1497314768,1085.7333333383,16.4221
1497314772,1035.3333333383,16.303
1497314776,1037.7333333383,17.8295
1497314780,1044.9333333383,17.0525
1497314784,1018.5333333383,17.4935
1497314788,1052.1333333383,17.4982
1497314792,1054.5333333383,17.6508
1497314796,1044.9333333383,18.0745
1497314800,1056.9333333383,17.3058
1497314804,1061.7333333383,17.8182
1497314808,1032.9333333383,16.3281
1497314812,1025.7333333383,18.4198
1497314816,1080.9333333383,18.6762
1497314820,1037.7333333383,17.9568
1497314824,1047.3333333383,18.4434
1497314828,1107.3333333383,17.4815
1497314832,1068.9333333383,17.8013
1497314836,1109.7333333383,17.0976
1497314840,1092.9333333383,18.4097
1497314844,1044.9333333383,16.4921
1497314848,1073.7333333383,18.1721
1497314852,1076.1333333383,18.8394
1497314856,1071.3333333383,16.6906
1497314860,1059.3333333383,18.4387
1497314864,1052.1333333383,16.2719
1497314868,1042.5333333383,16.798
1497314872,1030.5333333383,15.8249
1497314876,1076.1333333383,15.9036
1497314880,1088.1333333383,17.4447
1497314884,1035.3333333383,17.203
1497314888,1042.5333333383,16.4239
1497314892,1054.5333333383,16.0279
1497314896,1056.9333333383,18.009
1497314900,1102.5333333383,16.8004
1497314904,1128.9333333383,17.987
1497314908,1068.9333333383,17.8452
1497314912,1109.7333333383,17.6771
1497314916,1080.9333333383,17.3149
1497314920,1056.9333333383,17.8214
1497314924,1018.5333333383,17.7983
1497314928,977.7333333383,17.6581
1497314932,1025.7333333383,17.9898
1497314936,999.3333333383,19.1162
1497314940,1047.3333333383,17.8602
1497314944,987.3333333383,18.4677
1497314948,929.7333333383,17.3558
1497314952,1016.1333333383,18.3982
1497314956,975.3333333383,17.2393
1497314960,996.9333333383,17.1736
1497314964,968.1333333383,16.9447
1497314968,1006.5333333383,15.7104
1497314972,999.3333333383,16.8641
1497314976,989.7333333383,17.7733
1497314980,941.7333333383,17.4212
1497314984,1025.7333333383,16.4238
1497314988,1028.1333333383,17.2028
1497314992,1016.1333333383,17.6455
1497314996,1025.7333333383,16.9521
1497315000,1018.5333333383,17.6401
1497315004,1008.9333333383,17.4977
1497315008,1032.9333333383,17.8387
1497315012,1011.3333333383,18.9666
1497315016,1006.5333333383,16.7344
1497315020,994.5333333383,17.5503
1497315024,1030.5333333383,16.0586
1497315028,1020.9333333383,18.0489
1497315032,1030.5333333383,17.5493
1497315036,1054.5333333383,17.8327
1497315040,1107.3333333383,17.0908
1497315044,1042.5333333383,16.4731
1497315048,1030.5333333383,15.5685
1497315052,1042.5333333383,16.7552
1497315056,1052.1333333383,17.9788
1497315060,1030.5333333383,18.301
1497315064,1056.9333333383,17.1822
1497315068,1064.1333333383,17.7251
1497315072,1020.9333333383,17.3355
1497315076,1006.5333333383,17.5548
1497315080,1042.5333333383,16.265
1497315084,994.5333333383,17.1861
1497315088,946.5333333383,18.1109
1497315092,1016.1333333383,17.9906
1497315096,929.7333333383,15.8652
1497315100,963.3333333383,16.0144
1497315104,960.9333333383,17.3212
1497315108,970.5333333383,16.3401
1497315112,1037.7333333383,18.0108
1497315116,1004.1333333383,16.7651
1497315120,1028.1333333383,17.5427
1497315124,972.9333333383,17.7003
1497315128,996.9333333383,18.5607
1497315132,1001.7333333383,17.4316
1497315136,987.3333333383,17.462
1497315140,1013.7333333383,18.0327
1497315144,1032.9333333383,18.4564
1497315148,1047.3333333383,16.8054
1497315152,1047.3333333383,17.7801
1497315156,1011.3333333383,17.6477
1497315160,1008.9333333383,17.9712
1497315164,1020.9333333383,18.2483
1497315168,1025.7333333383,18.2499
1497315172,1006.5333333383,16.8584
1497315176,1025.7333333383,16.0407
1497315180,1023.3333333383,17.4531
1497315184,994.5333333383,17.7256
1497315188,1056.9333333383,16.8681
1497315192,1032.9333333383,17.1957
1497315196,1052.1333333383,16.539
1497315200,1020.9333333383,17.0156
1497315204,1040.1333333383,17.502
1497315208,1020.9333333383,18.1434
1497315212,1088.1333333383,18.4152
1497315216,1042.5333333383,17.8869
1497315220,1047.3333333383,18.1618
1497315224,1049.7333333383,17.6749
1497315228,1066.5333333383,16.2849
1497315232,1107.3333333383,17.2093
1497315236,1109.7333333383,16.8945
1497315240,1124.1333333383,17.2592
1497315244,1116.9333333383,17.5318
1497315248,1162.5333333383,16.5678
1497315252,1126.5333333383,16.56
1497315256,1124.1333333383,16.9742
1497315260,1176.9333333383,15.9686
1497315264,1198.5333333383,17.7539
1497315268,1128.9333333383,15.7402
1497315272,1128.9333333383,16.3521
1497315276,1169.7333333383,15.5111
1497315280,1128.9333333383,18.1092
1497315284,1176.9333333383,17.8851
1497315288,1160.1333333383,16.9322
1497315292,1136.1333333383,16.5115
1497315296,1172.1333333383,17.5806
1497315300,1179.3333333383,15.7715
1497315304,1136.1333333383,17.2695
1497315308,1193.7333333383,17.5145
1497315312,1126.5333333383,17.6334
1497315316,1095.3333333383,18.0557
1497315320,1095.3333333383,15.458
1497315324,1116.9333333383,17.9223
1497315328,1109.7333333383,17.027
1497315332,1133.7333333383,17.877
1497315336,1085.7333333383,17.2059
1497315340,1052.1333333383,17.9253
1497315344,1078.5333333383,17.3371
1497315348,1047.3333333383,17.1687
1497315352,1080.9333333383,15.5706
1497315356,1119.3333333383,17.0185
1497315360,1073.7333333383,16.9688
1497315364,1090.5333333383,16.917
1497315368,1054.5333333383,16.3702
1497315372,1059.3333333383,16.869
1497315376,1085.7333333383,17.1432
1497315380,1061.7333333383,17.2064
1497315384,1056.9333333383,15.5075
1497315388,1030.5333333383,16.1961
1497315392,1085.7333333383,16.3145
1497315396,1090.5333333383,17.476
1497315400,1037.7333333383,17.0924
1497315404,1068.9333333383,17.3903
1497315408,1068.9333333383,17.7602
1497315412,1061.7333333383,16.4908
1497315416,1064.1333333383,17.4028
1497315420,1083.3333333383,16.0677
1497315424,1068.9333333383,17.7096
1497315428,1109.7333333383,16.8814
1497315432,1107.3333333383,16.6936
1497315436,1126.5333333383,17.2813
1497315440,1126.5333333383,16.5059
1497315444,1200.9333333383,16.3684
1497315448,1220.1333333383,16.6203
1497315452,1143.3333333383,16.7079
1497315456,1109.7333333383,17.0201
1497315460,1085.7333333383,17.369
1497315464,1097.7333333383,16.0752
1497315468,1116.9333333383,17.1589
1497315472,1114.5333333383,17.295
1497315476,1042.5333333383,16.4666
1497315480,1080.9333333383,16.2404
1497315484,1061.7333333383,17.4833
1497315488,1068.9333333383,18.0656
1497315492,1061.7333333383,17.7681
1497315496,1124.1333333383,16.6818
1497315500,994.5333333383,15.8193
1497315504,1107.3333333383,16.9416
1497315508,1100.1333333383,17.1139
1497315512,1073.7333333383,16.5377
1497315516,1121.7333333383,16.6328
1497315520,1090.5333333383,17.5721
1497315524,1068.9333333383,16.2036
1497315528,1066.5333333383,15.5969
1497315532,1040.1333333383,16.6257
1497315536,1059.3333333383,15.7128
1497315540,1104.9333333383,17.3931
1497315544,1066.5333333383,16.8794
1497315548,1102.5333333383,17.7432
1497315552,1066.5333333383,16.2996
1497315556,1092.9333333383,16.791
1497315560,1040.1333333383,16.7303
1497315564,1044.9333333383,17.0031
1497315568,1016.1333333383,16.7273
1497315572,970.5333333383,17.0584
1497315576,953.7333333383,16.6044
1497315580,1006.5333333383,17.9154
1497315584,975.3333333383,16.8705
1497315588,1011.3333333383,17.0182
1497315592,977.7333333383,17.9975
1497315596,1047.3333333383,17.7558
1497315600,1056.9333333383,17.0185
1497315604,1073.7333333383,16.1866
1497315608,1061.7333333383,17.0555
1497315612,1054.5333333383,14.5987
1497315616,1030.5333333383,18.1164
1497315620,1032.9333333383,16.7879
1497315624,1097.7333333383,15.9804
1497315628,1052.1333333383,17.5704
1497315632,1071.3333333383,17.3981
1497315636,1056.9333333383,16.7209
1497315640,1028.1333333383,17.8174
1497315644,1044.9333333383,17.5818
1497315648,1011.3333333383,17.9136
1497315652,1006.5333333383,18.7742
1497315656,1025.7333333383,17.3156
1497315660,958.5333333383,17.5558
1497315664,951.3333333383,18.1588
1497315668,972.9333333383,17.3678
1497315672,980.1333333383,16.4025
1497315676,975.3333333383,17.16
1497315680,956.1333333383,15.2806
1497315684,1008.9333333383,15.51
1497315688,1032.9333333383,16.7424
1497315692,1042.5333333383,17.3978
1497315696,1023.3333333383,17.8659
