tag_number,delay,power_est
1492511262,-223.6000000005,8.23884
1492511264,-240.4000000005,6.93439
1492511266,-214.0000000005,8.58429
1492511268,-204.4000000005,5.13619
1492511270,-264.4000000005,6.02684
1492511274,-238.0000000005,7.61449
1492511276,-214.0000000005,7.07802
1492511278,-214.0000000005,7.61215
1492511280,-223.6000000005,5.64241
1492511282,-206.8000000005,8.70239
1492511284,-300.4000000005,5.02794
1492511286,-228.4000000005,8.3684
1492511288,-218.8000000005,7.84665
1492511290,-230.8000000005,10.5549
1492511292,-226.0000000005,7.4183
1492511294,-190.0000000005,7.97179
1492511296,-242.8000000005,10.2897
1492511298,-221.2000000005,8.02481
1492511300,-197.2000000005,10.5305
1492511302,-209.2000000005,10.6745
1492511304,-264.4000000005,11.6258
1492511306,-214.0000000005,10.5642
1492511308,-245.2000000005,12.1598
1492511310,-247.6000000005,11.5189
1492511312,-230.8000000005,10.6531
1492511314,-223.6000000005,9.60927
1492511316,-211.6000000005,6.44033
1492511318,-216.4000000005,7.44191
1492511320,-214.0000000005,9.10438
1492511322,-264.4000000005,6.71041
1492511324,-228.4000000005,3.95938
1492511326,-250.0000000005,6.21714
1492511328,-264.4000000005,8.22475
1492511330,-276.4000000005,7.07822
1492511332,-240.4000000005,9.18493
1492511334,-254.8000000005,11.3867
1492511336,-206.8000000005,12.0699
1492511338,-226.0000000005,8.14941
1492511340,-264.4000000005,10.3094
1492511342,-286.0000000005,9.37459
1492511344,-250.0000000005,7.04404
1492511346,-266.8000000005,6.269
1492511348,-290.8000000005,10.16
1492511350,-247.6000000005,8.34215
1492511352,-271.6000000005,5.698
1492511354,-314.8000000005,6.91424
1492511356,-266.8000000005,6.39954
1492511358,-264.4000000005,10.2386
1492511360,-295.6000000005,10.844
1492511362,-228.4000000005,7.83225
1492511364,-257.2000000005,8.19518
1492511366,-266.8000000005,6.22098
1492511368,-298.0000000005,4.73813
1492511370,-283.6000000005,6.19068
1492511372,-240.4000000005,7.86199
1492511374,-298.0000000005,8.96327
1492511376,-274.0000000005,11.3302
1492511378,-266.8000000005,10.4175
1492511380,-252.4000000005,9.74181
1492511382,-283.6000000005,8.58163
1492511384,-305.2000000005,7.76734
1492511386,-281.2000000005,6.6596
1492511388,-259.6000000005,10.813
1492511390,-173.2000000005,10.1402
1492511392,-242.8000000005,8.82422
1492511394,-182.8000000005,8.00831
1492511396,-192.4000000005,6.42873
1492511398,-161.2000000005,7.4052
1492511400,-221.2000000005,6.52157
1492511402,-175.6000000005,5.53634
1492511404,-149.2000000005,6.4196
1492511406,-204.4000000005,8.98424
1492511408,-161.2000000005,9.86372
1492511410,-202.0000000005,4.87554
1492511412,-199.6000000005,4.67128
1492511414,-144.4000000005,4.43279
1492511416,-216.4000000005,5.62768
1492511418,-190.0000000005,8.18998
1492511420,-254.8000000005,7.1853
1492511422,-139.6000000005,9.37151
1492511424,-206.8000000005,7.6831
1492511426,-163.6000000005,8.30634
1492511428,-209.2000000005,4.29428
1492511430,-199.6000000005,9.25303
1492511432,-144.4000000005,10.0686
1492511434,-192.4000000005,9.17727
1492511436,-168.4000000005,9.97608
1492511438,-154.0000000005,7.93958
1492511440,-218.8000000005,9.51418
1492511442,-139.6000000005,8.25637
1492511444,-161.2000000005,12.1632
1492511446,-197.2000000005,9.05599
1492511448,-192.4000000005,11.4397
1492511450,-197.2000000005,8.06424
1492511452,-204.4000000005,8.80816
1492511454,-235.6000000005,6.66694
1492511456,-214.0000000005,7.96519
1492511458,-204.4000000005,7.13014
1492511460,-199.6000000005,9.02881
1492511462,-139.6000000005,10.2568
1492511464,-170.8000000005,9.0797
1492511466,-230.8000000005,8.54046
1492511468,-223.6000000005,13.1732
1492511470,-144.4000000005,11.6329
1492511472,-206.8000000005,8.80301
1492511474,-130.0000000005,8.27001
1492511476,-154.0000000005,8.84946
1492511478,-182.8000000005,8.10194
1492511480,-108.4000000005,10.7836
1492511482,-163.6000000005,9.21241
1492511484,-163.6000000005,10.2663
1492511486,-204.4000000005,8.54685
1492511488,-180.4000000005,8.66257
1492511490,-192.4000000005,8.86578
1492511492,-206.8000000005,8.77903
1492511494,-170.8000000005,7.54704
1492511496,-154.0000000005,8.04537
1492511498,-144.4000000005,9.6389
1492511500,-91.6000000005,11.2455
1492511502,-175.6000000005,10.6116
1492511504,-156.4000000005,12.2016
1492511506,-139.6000000005,8.75467
1492511508,-214.0000000005,8.74012
1492511510,-137.2000000005,8.51599
1492511512,-120.4000000005,6.90279
1492511514,-127.6000000005,6.6288
1492511516,-187.6000000005,2.71879
1492511518,-110.8000000005,5.5165
1492511520,-194.8000000005,6.86371
1492511522,-218.8000000005,8.90864
1492511524,-173.2000000005,10.0143
1492511526,-187.6000000005,11.4918
1492511528,-163.6000000005,6.68076
1492511530,-118.0000000005,7.83328
1492511532,-127.6000000005,8.52861
1492511534,-149.2000000005,8.87053
1492511536,-192.4000000005,9.12482
1492511538,-187.6000000005,11.1057
1492511540,-202.0000000005,11.4903
1492511542,-214.0000000005,11.43
1492511544,-137.2000000005,11.488
1492511546,-197.2000000005,8.47691
1492511548,-192.4000000005,7.60703
1492511550,-216.4000000005,7.56265
1492511552,-211.6000000005,10.0481
1492511554,-158.8000000005,6.54396
1492511556,-197.2000000005,5.89536
1492511558,-218.8000000005,6.40491
1492511560,-216.4000000005,6.72092
1492511562,-204.4000000005,8.4095
1492511564,-199.6000000005,7.00673
1492511566,-209.2000000005,7.50046
1492511568,-221.2000000005,7.84655
1492511570,-65.2000000005,5.95477
1492511572,-156.4000000005,5.11208
1492511574,-204.4000000005,9.90423
1492511576,-288.4000000005,8.99423
1492511578,-230.8000000005,10.2837
1492511580,-187.6000000005,8.23966
1492511582,-211.6000000005,8.21598
1492511584,-271.6000000005,7.2765
1492511586,-235.6000000005,8.63875
1492511588,-274.0000000005,10.0918
1492511590,-242.8000000005,10.0776
1492511592,-190.0000000005,10.2056
1492511594,-194.8000000005,9.65754
1492511596,-214.0000000005,5.7807
1492511598,-214.0000000005,8.70616
1492511600,-245.2000000005,9.30981
1492511602,-166.0000000005,8.90795
1492511604,-218.8000000005,6.62795
1492511606,-211.6000000005,7.42382
1492511608,-226.0000000005,9.72322
1492511610,-245.2000000005,8.03667
1492511612,-247.6000000005,9.62663
1492511614,-233.2000000005,10.5205
1492511616,-178.0000000005,9.38229
1492511618,-209.2000000005,9.53382
1492511620,-262.0000000005,8.53997
1492511622,-247.6000000005,10.3878
1492511624,-223.6000000005,8.37528
1492511626,-228.4000000005,11.0169
1492511628,-230.8000000005,9.13116
1492511630,-235.6000000005,6.51295
1492511632,-228.4000000005,5.85777
1492511634,-175.6000000005,6.16687
1492511636,-199.6000000005,4.77176
1492511638,-257.2000000005,3.5445
1492511640,-206.8000000005,8.46973
1492511642,-197.2000000005,10.3972
1492511644,-206.8000000005,11.6628
1492511646,-235.6000000005,11.9124
1492511648,-204.4000000005,12.9639
1492511650,-247.6000000005,9.95043
1492511652,-218.8000000005,9.83417
1492511654,-252.4000000005,9.48027
1492511656,-269.2000000005,7.82787
1492511658,-178.0000000005,8.59939
1492511660,-233.2000000005,7.32779
1492511662,-226.0000000005,6.35008
1492511664,-226.0000000005,7.56187
1492511666,-223.6000000005,10.6007
1492511668,-216.4000000005,11.5999
1492511670,-254.8000000005,11.6325
1492511672,-269.2000000005,13.848
1492511674,-235.6000000005,13.8518
1492511676,-226.0000000005,11.2319
1492511678,-218.8000000005,9.89388
1492511680,-226.0000000005,6.34052
1492511682,-262.0000000005,8.66478
1492511684,-182.8000000005,7.59829
1492511686,-264.4000000005,8.35638
1492511688,-235.6000000005,7.04333
1492511690,-223.6000000005,7.80977
1492511692,-290.8000000005,8.26713
1492511694,-298.0000000005,10.4171
1492511696,-264.4000000005,8.87758
1492511698,-142.0000000005,10.7582
1492511700,-214.0000000005,10.8506
1492511702,-221.2000000005,10.0031
1492511704,-206.8000000005,8.10184
1492511706,-254.8000000005,7.18168
1492511708,-218.8000000005,8.14176
1492511710,-245.2000000005,8.29115
1492511712,-283.6000000005,4.17657
1492511714,-295.6000000005,0.418007
1492511716,-276.4000000005,7.00369
1492511718,-250.0000000005,6.9788
1492511720,-247.6000000005,8.27901
1492511722,-163.6000000005,6.31757
1492511724,-190.0000000005,8.30108
1492511726,-94.0000000005,7.75055
1492511728,-127.6000000005,11.4684
1492511730,-185.2000000005,8.6778
1492511732,-151.6000000005,4.91294
1492511734,-67.6000000005,9.06106
1492511736,-139.6000000005,6.57737
1492511738,-137.2000000005,8.09906
1492511740,-151.6000000005,8.15361
1492511742,-190.0000000005,6.91527
1492511744,-122.8000000005,6.66031
1492511746,-125.2000000005,8.00227
1492511748,-149.2000000005,8.22319
1492511750,-137.2000000005,7.7499
1492511752,-60.4000000005,8.98383
1492511754,-125.2000000005,6.8746
1492511756,-178.0000000005,6.30704
1492511758,-151.6000000005,10.1057
1492511760,-132.4000000005,10.7599
1492511762,-156.4000000005,10.6
1492511764,-163.6000000005,12.0781
1492511766,-142.0000000005,10.7975
1492511768,-161.2000000005,7.82959
1492511770,-151.6000000005,9.30348
1492511772,-187.6000000005,10.8004
1492511774,-194.8000000005,11.8574
1492511776,-98.8000000005,12.6182
1492511778,-108.4000000005,11.0699
1492511780,-125.2000000005,10.7071
1492511782,-163.6000000005,10.6718
1492511784,-127.6000000005,8.93854
1492511786,-161.2000000005,8.50172
1492511788,-79.6000000005,9.85837
1492511790,-113.2000000005,9.23766
1492511792,-60.4000000005,9.23403
1492511794,-101.2000000005,9.89239
1492511796,-163.6000000005,11.1999
1492511798,-120.4000000005,9.81719
1492511800,-110.8000000005,7.97559
1492511802,-101.2000000005,8.89387
1492511804,-190.0000000005,8.77074
1492511806,-187.6000000005,5.78352
1492511808,-166.0000000005,7.84734
1492511810,-149.2000000005,9.20667
1492511812,-122.8000000005,9.07846
1492511814,-118.0000000005,7.89212
1492511816,-58.0000000005,6.84305
1492511818,-154.0000000005,7.46462
1492511820,-142.0000000005,9.00695
1492511822,-130.0000000005,10.1036
1492511824,-84.4000000005,9.49513
1492511826,-163.6000000005,6.88801
1492511828,-67.6000000005,6.15562
1492511830,-79.6000000005,6.61835
1492511834,-163.6000000005,8.10154
1492511836,-178.0000000005,7.57838
1492511838,-146.8000000005,8.65676
1492511840,-103.6000000005,7.34226
1492511842,-77.2000000005,10.5988
1492511844,-53.2000000005,9.81061
1492511846,25.9999999995,7.60455
1492511848,-122.8000000005,7.30792
1492511850,-74.8000000005,9.27727
1492511852,-127.6000000005,7.16052
1492511854,-79.6000000005,7.16128
1492511856,-142.0000000005,7.44084
1492511858,-62.8000000004999,6.23151
1492511860,-120.4000000005,8.28198
1492511862,-127.6000000005,10.1953
1492511864,-166.0000000005,10.2664
1492511866,-113.2000000005,8.06319
1492511868,-82.0000000005,10.9372
1492511870,-149.2000000005,10.7479
1492511872,-115.6000000005,10.1973
1492511874,-127.6000000005,6.26183
1492511876,-144.4000000005,5.92673
1492511878,-86.8000000005,5.17291
1492511880,-110.8000000005,4.88895
1492511882,-113.2000000005,4.87231
1492511884,-79.6000000005,6.81461
1492511886,-132.4000000005,9.19136
1492511888,-96.4000000005,8.97672
1492511890,-130.0000000005,10.2444
1492511892,-79.6000000005,8.99099
1492511894,-132.4000000005,6.76937
1492511896,-65.2000000005,8.58478
1492511898,-55.6000000005,9.96126
1492511900,-70.0000000005,11.0359
1492511902,-96.4000000005,10.0327
1492511904,-65.2000000005,6.43308
1492511906,-62.8000000004999,8.17357
1492511908,-101.2000000005,9.4245
1492511910,-127.6000000005,7.3137
1492511912,-86.8000000005,8.4891
1492511914,-139.6000000005,8.6888
1492511916,-43.6000000005,11.4739
1492511918,-79.6000000005,9.35379
1492511920,-110.8000000005,9.87104
1492511922,-74.8000000005,8.19111
1492511924,-43.6000000005,9.47276
1492511926,-113.2000000005,9.72199
1492511928,-77.2000000005,11.4151
1492511930,-82.0000000005,9.90413
1492511932,-0.400000000499972,8.72433
1492511934,-53.2000000005,12.3892
1492511936,-12.4000000005,9.48719
1492511938,21.1999999994999,10.0038
1492511940,1.99999999950001,10.3499
1492511942,16.3999999995,8.81954
1492511944,33.1999999994999,8.76768
1492511946,-19.6000000005,9.24171
1492511948,-24.4000000005,7.65913
1492511950,-0.400000000499972,7.53218
1492511952,-50.8000000004999,7.70558
1492511954,-67.6000000005,9.24248
1492511956,-46.0000000005,9.68293
1492511958,-108.4000000005,8.73829
1492511960,-38.8000000004999,12.949
1492511962,-29.2000000005,8.57646
1492511964,-29.2000000005,10.9216
1492511966,-46.0000000005,11.7625
1492511968,-60.4000000005,8.2337
1492511970,-77.2000000005,11.3252
1492511972,-98.8000000005,8.17082
1492511974,-62.8000000004999,8.32385
1492511976,-91.6000000005,8.84389
1492511978,-58.0000000005,10.5256
1492511980,-89.2000000005,9.99893
1492511982,-60.4000000005,10.5959
1492511984,-74.8000000005,8.63566
1492511986,-67.6000000005,9.67011
1492511988,-65.2000000005,12.3394
1492511990,-74.8000000005,8.50046
1492511992,-55.6000000005,4.56601
1492511994,-38.8000000004999,4.84964
1492511996,-10.0000000005,4.90734
1492511998,-43.6000000005,5.43206
1492512000,-36.4000000005,10.6942
1492512002,-62.8000000004999,10.9696
1492512004,-60.4000000005,11.4826
1492512006,-14.8000000004999,10.6379
1492512008,21.1999999994999,9.08219
1492512010,-22.0000000005,11.1957
1492512012,-7.60000000050002,11.0015
1492512014,-65.2000000005,10.5842
1492512016,-46.0000000005,10.3745
1492512018,23.5999999995,10.6292
1492512020,25.9999999995,9.0432
1492512022,-58.0000000005,10.1092
1492512024,18.7999999995,8.71035
1492512026,-7.60000000050002,10.8194
1492512030,16.3999999995,9.33121
1492512032,52.3999999995,7.2966
1492512034,-31.6000000005,8.58359
1492512036,21.1999999994999,5.9043
1492512038,-7.60000000050002,8.78102
1492512040,18.7999999995,7.17525
1492512042,18.7999999995,6.61635
1492512044,13.9999999995,4.9942
1492512046,-22.0000000005,7.57443
1492512048,-55.6000000005,9.1754
1492512050,35.5999999995,9.28261
1492512052,-34.0000000005,9.29405
1492512054,-26.8000000004999,5.43916
1492512056,6.79999999949996,7.4086
1492512058,-36.4000000005,5.82519
1492512060,-60.4000000005,5.93353
1492512062,25.9999999995,5.84781
1492512064,25.9999999995,7.41781
1492512066,-17.2000000005,7.20156
1492512068,-38.8000000004999,9.22012
1492512070,-43.6000000005,6.78418
1492512072,-50.8000000004999,9.46553
1492512074,11.5999999995,10.7131
1492512076,-72.4000000005,9.37015
1492512078,-43.6000000005,8.45659
1492512080,-7.60000000050002,11.2587
1492512082,-12.4000000005,12.5376
1492512084,-67.6000000005,8.90864
1492512086,-5.20000000050004,7.63245
1492512088,-41.2000000005,6.73495
1492512090,-58.0000000005,7.65321
1492512092,23.5999999995,5.73485
1492512094,-34.0000000005,9.63544
1492512096,-36.4000000005,10.4674
1492512098,-48.4000000005,10.5573
1492512100,25.9999999995,9.05887
1492512102,-2.80000000049995,12.147
1492512104,57.1999999994999,11.5577
1492512106,42.7999999995,11.1264
1492512108,95.5999999995,10.8164
1492512110,42.7999999995,9.79546
1492512112,28.3999999995,10.3614
1492512114,52.3999999995,9.1391
1492512116,-10.0000000005,6.63087
1492512118,30.7999999995,7.83183
1492512120,21.1999999994999,6.51257
1492512122,49.9999999995,9.83554
1492512124,81.1999999994999,7.77966
1492512126,37.9999999995,8.70784
1492512128,6.79999999949996,10.0584
1492512130,49.9999999995,9.6773
1492512132,25.9999999995,9.61917
1492512134,-34.0000000005,8.97198
1492512136,33.1999999994999,11.6903
1492512138,-41.2000000005,10.4737
1492512140,-79.6000000005,10.9294
1492512142,-50.8000000004999,10.1386
1492512144,-55.6000000005,11.0671
1492512146,-31.6000000005,10.9227
1492512148,-46.0000000005,11.4656
1492512150,-48.4000000005,11.0479
1492512152,-94.0000000005,10.1595
1492512154,-120.4000000005,10.0054
1492512156,-43.6000000005,11.435
1492512158,-55.6000000005,7.7125
1492512160,-53.2000000005,9.50454
1492512162,-70.0000000005,10.7834
1492512164,-82.0000000005,10.8803
1492512166,-74.8000000005,8.56481
1492512168,-50.8000000004999,9.99977
1492512170,-96.4000000005,11.0316
1492512172,-94.0000000005,7.43647
1492512174,-96.4000000005,9.66914
1492512176,-86.8000000005,7.06195
1492512178,-67.6000000005,10.5319
1492512180,-53.2000000005,10.2499
1492512182,-65.2000000005,10.6153
1492512184,-24.4000000005,15.1535
1492512186,-14.8000000004999,12.5364
1492512188,-43.6000000005,11.2176
1492512190,-50.8000000004999,9.51922
1492512192,1.99999999950001,8.95711
1492512194,-60.4000000005,9.9269
1492512196,-67.6000000005,9.96281
1492512198,-48.4000000005,8.72341
1492512200,-50.8000000004999,10.774
1492512202,-122.8000000005,9.4902
1492512204,-94.0000000005,10.458
1492512206,-67.6000000005,11.1077
1492512208,-115.6000000005,10.8098
1492512210,-65.2000000005,10.7647
1492512212,-115.6000000005,11.5249
1492512214,-132.4000000005,12.0838
1492512216,-84.4000000005,12.7129
1492512218,-84.4000000005,12.111
1492512220,-132.4000000005,10.3539
1492512222,-146.8000000005,8.40216
1492512224,-106.0000000005,8.3659
1492512226,-106.0000000005,8.02171
1492512228,-106.0000000005,7.80707
1492512230,-130.0000000005,7.63623
1492512232,-86.8000000005,11.4279
1492512234,-156.4000000005,15.3205
1492512236,-110.8000000005,11.4472
1492512238,-101.2000000005,11.7244
1492512240,-94.0000000005,10.3534
1492512242,-60.4000000005,10.3876
1492512244,-58.0000000005,11.2992
1492512246,-50.8000000004999,13.2809
1492512248,-62.8000000004999,11.1987
1492512250,-134.8000000005,11.6666
1492512252,-98.8000000005,11.1253
1492512254,4.39999999949998,9.14851
1492512256,-41.2000000005,8.30259
1492512258,-38.8000000004999,10.552
1492512260,-58.0000000005,10.9654
1492512262,-62.8000000004999,11.5732
1492512264,-46.0000000005,11.0062
1492512266,6.79999999949996,11.852
1492512268,-0.400000000499972,8.78925
1492512270,-50.8000000004999,8.60558
1492512272,-53.2000000005,11.8679
1492512274,-34.0000000005,10.3656
1492512276,-132.4000000005,12.1734
1492512278,-74.8000000005,12.1299
1492512280,-38.8000000004999,10.6269
1492512282,-60.4000000005,12.5995
1492512284,-58.0000000005,10.7939
1492512286,-53.2000000005,10.5817
1492512288,-50.8000000004999,8.27535
1492512290,-65.2000000005,8.42216
1492512292,-48.4000000005,9.53779
1492512294,-72.4000000005,9.17911
1492512296,-65.2000000005,9.03931
1492512298,-46.0000000005,11.4999
1492512300,-46.0000000005,13.1235
1492512302,-134.8000000005,10.0547
1492512304,-77.2000000005,9.36351
1492512306,-43.6000000005,10.5109
1492512308,-115.6000000005,9.31336
1492512310,-50.8000000004999,9.17121
1492512312,-46.0000000005,9.79418
1492512314,-127.6000000005,7.33309
1492512316,-24.4000000005,7.11887
1492512318,-79.6000000005,6.97692
1492512320,-130.0000000005,7.5142
1492512322,-55.6000000005,7.11988
1492512324,-48.4000000005,8.85005
1492512326,-77.2000000005,7.13847
1492512328,-43.6000000005,7.37968
1492512330,11.5999999995,8.93455
1492512332,-38.8000000004999,9.27799
1492512334,-41.2000000005,8.7832
1492512336,-14.8000000004999,10.4982
1492512338,-84.4000000005,8.78004
1492512340,-62.8000000004999,8.08424
1492512342,-84.4000000005,9.79524
1492512344,-127.6000000005,10.7704
1492512346,-101.2000000005,12.3336
1492512348,-53.2000000005,14.3129
1492512350,-137.2000000005,12.7936
1492512352,-132.4000000005,12.3418
1492512354,-74.8000000005,11.3364
1492512356,-74.8000000005,10.4421
1492512358,-101.2000000005,12.554
1492512360,-82.0000000005,12.638
1492512362,-118.0000000005,13.7502
1492512364,-149.2000000005,12.4093
1492512366,-91.6000000005,11.1396
1492512368,-84.4000000005,9.32614
1492512370,-60.4000000005,11.2731
1492512372,-14.8000000004999,10.8367
1492512374,-55.6000000005,11.0701
1492512376,-132.4000000005,11.1153
1492512378,-26.8000000004999,11.0794
1492512380,-79.6000000005,10.253
1492512382,-53.2000000005,10.6315
1492512384,-91.6000000005,9.50227
1492512386,-62.8000000004999,8.22405
1492512388,-96.4000000005,11.7775
1492512390,-58.0000000005,11.2175
1492512392,-115.6000000005,9.13391
1492512394,-106.0000000005,9.26141
1492512396,-132.4000000005,10.1443
1492512398,-79.6000000005,10.5598
1492512400,-67.6000000005,9.712
1492512402,-101.2000000005,8.17789
1492512404,-94.0000000005,8.60625
1492512406,-108.4000000005,7.89897
1492512408,-113.2000000005,9.40744
1492512410,-130.0000000005,12.3098
1492512412,-98.8000000005,12.116
1492512414,-103.6000000005,10.2066
1492512416,-137.2000000005,9.02676
1492512418,-122.8000000005,7.85565
1492512420,-72.4000000005,9.47166
1492512422,-115.6000000005,11.6641
1492512424,-62.8000000004999,9.05154
1492512426,-53.2000000005,8.98772
1492512428,-67.6000000005,10.9765
1492512430,-103.6000000005,10.1635
1492512432,-53.2000000005,12.0762
1492512434,-125.2000000005,13.9253
1492512436,-2.80000000049995,11.1108
1492512438,-53.2000000005,9.34151
1492512440,-55.6000000005,9.33462
1492512442,-70.0000000005,8.09496
1492512444,-38.8000000004999,11.524
1492512446,-77.2000000005,9.63827
1492512448,-24.4000000005,10.473
1492512450,16.3999999995,8.79465
1492512452,-12.4000000005,11.1918
1492512454,-36.4000000005,11.525
1492512456,-91.6000000005,10.4629
1492512458,-62.8000000004999,9.02597
1492512460,-67.6000000005,8.83001
1492512462,-53.2000000005,9.19948
1492512464,-53.2000000005,10.0865
1492512466,-72.4000000005,12.1515
1492512468,-48.4000000005,9.28737
1492512470,-14.8000000004999,10.5754
1492512472,-48.4000000005,9.2552
1492512474,-50.8000000004999,9.76088
1492512476,-53.2000000005,8.5266
1492512478,-72.4000000005,8.18572
1492512480,-53.2000000005,8.35851
1492512482,-46.0000000005,10.1911
1492512484,-127.6000000005,9.60175
1492512486,-60.4000000005,8.65596
1492512488,-70.0000000005,8.06373
1492512490,-106.0000000005,11.6099
1492512492,-38.8000000004999,11.059
1492512494,-94.0000000005,9.31503
1492512496,-149.2000000005,6.93026
1492512498,-67.6000000005,9.08375
1492512500,-70.0000000005,12.1451
1492512502,-79.6000000005,10.6855
1492512504,-86.8000000005,9.58079
1492512506,-10.0000000005,9.46648
1492512508,-127.6000000005,7.72384
1492512510,-46.0000000005,10.6567
1492512512,-67.6000000005,9.18105
1492512514,-139.6000000005,9.40126
1492512516,-65.2000000005,7.28354
1492512518,-79.6000000005,10.247
1492512520,-41.2000000005,10.7264
1492512522,-29.2000000005,9.45541
1492512524,-94.0000000005,9.78283
1492512526,-72.4000000005,9.25079
1492512528,-55.6000000005,8.72505
1492512530,-55.6000000005,9.21307
1492512532,-70.0000000005,9.56434
1492512534,-77.2000000005,10.1984
1492512536,-60.4000000005,11.2289
1492512538,-91.6000000005,10.4232
1492512540,-46.0000000005,10.5634
1492512542,-43.6000000005,10.8707
1492512544,-94.0000000005,8.22849
1492512546,-55.6000000005,10.3938
1492512548,-60.4000000005,10.1728
1492512550,-82.0000000005,11.6226
1492512552,-50.8000000004999,8.19014
1492512554,-38.8000000004999,10.7968
1492512556,-41.2000000005,11.7803
1492512558,-77.2000000005,11.4292
1492512560,-50.8000000004999,10.4049
1492512562,-58.0000000005,11.0794
1492512564,-65.2000000005,7.43938
1492512566,-58.0000000005,8.01096
1492512568,-41.2000000005,9.16095
1492512570,-72.4000000005,9.94618
1492512572,18.7999999995,10.16
1492512574,-34.0000000005,10.4696
1492512576,-2.80000000049995,10.9153
1492512578,-60.4000000005,9.48257
1492512580,4.39999999949998,8.80901
1492512582,-31.6000000005,9.93436
1492512584,18.7999999995,9.85989
1492512586,-36.4000000005,9.70148
1492512588,18.7999999995,9.43748
1492512590,-36.4000000005,6.00706
1492512592,-43.6000000005,8.04267
1492512594,-84.4000000005,10.6793
1492512596,-43.6000000005,10.2323
1492512598,11.5999999995,13.2863
1492512600,-46.0000000005,9.73354
1492512602,-10.0000000005,10.1548
1492512604,-0.400000000499972,11.6305
1492512606,-43.6000000005,13.8689
1492512608,21.1999999994999,11.296
1492512610,-22.0000000005,7.10864
1492512612,-43.6000000005,8.7591
1492512614,16.3999999995,11.5848
1492512616,-10.0000000005,10.3222
1492512618,-62.8000000004999,8.55338
1492512620,-38.8000000004999,9.82163
1492512622,25.9999999995,9.37124
1492512624,13.9999999995,6.47624
1492512626,4.39999999949998,7.58742
1492512628,18.7999999995,9.01218
1492512630,-46.0000000005,9.8065
1492512632,-62.8000000004999,7.30777
1492512634,13.9999999995,10.4284
1492512636,-34.0000000005,12.8845
1492512638,-48.4000000005,12.2645
1492512640,-41.2000000005,9.36443
1492512642,-48.4000000005,9.29749
1492512644,-2.80000000049995,7.59104
1492512646,-58.0000000005,7.3956
1492512648,-14.8000000004999,7.45943
1492512650,-26.8000000004999,9.62512
1492512652,-29.2000000005,9.54754
1492512654,-12.4000000005,8.43227
1492512656,-31.6000000005,10.1445
1492512658,-70.0000000005,9.8207
1492512660,-70.0000000005,10.4597
1492512662,-48.4000000005,9.17927
1492512664,-65.2000000005,7.80095
1492512666,-31.6000000005,6.34053
1492512668,-60.4000000005,8.34807
1492512670,-43.6000000005,10.5778
1492512672,-38.8000000004999,10.1459
1492512674,-89.2000000005,8.78344
1492512676,-41.2000000005,10.1079
1492512678,-0.400000000499972,9.45656
1492512680,-31.6000000005,10.1952
1492512682,-62.8000000004999,7.87176
1492512684,-2.80000000049995,8.811
1492512686,-31.6000000005,6.80354
1492512688,-91.6000000005,8.06003
1492512690,-41.2000000005,11.5137
1492512692,-0.400000000499972,8.089
1492512694,-46.0000000005,7.16853
1492512696,-86.8000000005,2.40024
1492512698,-34.0000000005,7.0403
1492512700,-70.0000000005,4.42708
1492512702,-17.2000000005,10.0426
1492512704,-62.8000000004999,8.1394
1492512706,-26.8000000004999,8.00061
1492512708,-41.2000000005,10.9388
1492512710,-79.6000000005,7.89239
1492512712,-65.2000000005,8.68549
1492512714,-122.8000000005,8.77406
1492512716,-62.8000000004999,7.32844
1492512718,-72.4000000005,9.1372
1492512720,-79.6000000005,11.4269
1492512722,-19.6000000005,11.8802
1492512724,-98.8000000005,8.50592
1492512726,-125.2000000005,7.37876
1492512728,-55.6000000005,10.351
1492512730,-106.0000000005,11.6704
1492512732,-89.2000000005,9.36888
1492512734,-108.4000000005,7.45342
1492512736,-82.0000000005,7.94414
1492512738,-118.0000000005,8.43393
1492512740,-79.6000000005,10.144
1492512742,-120.4000000005,9.07817
1492512744,-82.0000000005,9.4254
1492512746,-74.8000000005,7.54832
1492512748,-60.4000000005,8.16273
1492512750,-101.2000000005,9.96437
1492512752,-70.0000000005,8.3083
1492512754,-137.2000000005,8.69637
1492512756,-137.2000000005,9.28237
1492512758,-144.4000000005,8.51961
1492512760,-89.2000000005,8.11797
1492512762,-144.4000000005,7.75354
1492512764,-132.4000000005,9.74565
1492512766,-120.4000000005,9.01806
1492512768,-144.4000000005,8.41935
1492512770,-67.6000000005,7.17787
1492512772,-70.0000000005,8.78353
1492512774,-106.0000000005,8.00505
1492512776,-144.4000000005,8.22486
1492512778,-65.2000000005,8.962
1492512780,-134.8000000005,6.45288
1492512782,-74.8000000005,7.8334
1492512784,-55.6000000005,8.74718
1492512786,-60.4000000005,9.77812
1492512788,-67.6000000005,7.92438
1492512790,25.9999999995,8.72398
1492512792,45.1999999994999,8.12689
1492512794,54.7999999995,7.41773
1492512796,64.3999999995,7.71908
1492512798,54.7999999995,7.48701
1492512800,76.3999999995,9.73559
1492512802,112.3999999995,9.65483
1492512804,45.1999999994999,5.9076
1492512806,28.3999999995,9.72835
1492512808,81.1999999994999,9.82329
1492512810,28.3999999995,9.42976
1492512812,28.3999999995,6.33178
1492512814,105.1999999995,9.47857
1492512816,4.39999999949998,8.88561
1492512818,6.79999999949996,8.23359
1492512820,37.9999999995,8.51973
1492512822,28.3999999995,7.47126
1492512824,-14.8000000004999,7.20831
1492512826,28.3999999995,7.52256
1492512828,-14.8000000004999,6.73699
1492512830,4.39999999949998,9.56477
1492512832,-7.60000000050002,9.81347
1492512834,6.79999999949996,8.89393
1492512836,-41.2000000005,7.75472
1492512838,-53.2000000005,5.5241
1492512840,-55.6000000005,6.27091
1492512842,-77.2000000005,7.33025
1492512844,-101.2000000005,7.10552
1492512846,-53.2000000005,6.82193
1492512848,-67.6000000005,5.59171
1492512850,-41.2000000005,6.09194
1492512852,-53.2000000005,7.9875
1492512854,-113.2000000005,7.53038
1492512856,-84.4000000005,6.86508
1492512858,-65.2000000005,9.59647
1492512860,-53.2000000005,8.08082
1492512862,-60.4000000005,7.57988
1492512864,-67.6000000005,9.29327
1492512866,-82.0000000005,7.64801
1492512868,-67.6000000005,7.72339
1492512870,-22.0000000005,7.30378
1492512872,-7.60000000050002,7.90762
1492512874,-77.2000000005,7.2122
1492512876,-65.2000000005,7.3669
1492512878,-89.2000000005,5.15989
1492512880,-72.4000000005,7.09239
1492512882,-70.0000000005,6.03957
1492512884,-98.8000000005,6.26366
1492512886,-94.0000000005,4.90863
1492512888,-41.2000000005,6.42095
1492512890,-108.4000000005,5.68573
1492512892,-50.8000000004999,7.38386
1492512894,-46.0000000005,5.26113
1492512896,-46.0000000005,6.43452
1492512898,-118.0000000005,7.61482
1492512900,-84.4000000005,7.69688
1492512902,-50.8000000004999,10.276
1492512904,-79.6000000005,10.8032
1492512906,-53.2000000005,9.76898
1492512908,-60.4000000005,6.77608
1492512910,-48.4000000005,7.63796
1492512912,-26.8000000004999,5.85903
1492512914,-53.2000000005,5.04804
1492512916,-62.8000000004999,5.91554
1492512918,-65.2000000005,7.44013
1492512920,-74.8000000005,9.06714
1492512922,-62.8000000004999,6.43716
1492512924,-53.2000000005,8.14437
1492512926,-41.2000000005,9.67316
1492512928,-58.0000000005,7.12496
1492512930,-38.8000000004999,8.35884
1492512932,-58.0000000005,7.82664
1492512934,-77.2000000005,6.08911
1492512936,-122.8000000005,6.85511
1492512938,-70.0000000005,8.16606
1492512940,-139.6000000005,4.42416
1492512942,-89.2000000005,4.24139
1492512944,-65.2000000005,4.08769
1492512946,-96.4000000005,6.19178
1492512948,-89.2000000005,6.98319
1492512950,-82.0000000005,7.94736
1492512952,-139.6000000005,4.81908
1492512954,-84.4000000005,6.28134
1492512956,13.9999999995,6.89545
1492512958,-89.2000000005,7.88979
1492512960,-144.4000000005,9.69665
1492512962,-58.0000000005,8.96584
1492512964,-86.8000000005,7.77015
1492512966,-118.0000000005,7.41046
1492512968,-86.8000000005,7.67982
1492512970,-60.4000000005,9.47931
1492512972,-122.8000000005,5.31547
1492512974,-53.2000000005,5.00643
1492512976,-53.2000000005,4.18462
1492512978,-53.2000000005,4.41576
1492512980,-60.4000000005,6.83372
1492512982,-70.0000000005,6.04108
1492512984,-55.6000000005,7.72999
1492512986,-67.6000000005,6.09846
1492512988,-60.4000000005,6.3871
1492512990,-17.2000000005,5.85881
1492512992,-48.4000000005,4.36654
1492512994,-55.6000000005,3.57909
1492512996,-55.6000000005,4.7117
1492512998,-46.0000000005,4.5283
1492513000,-50.8000000004999,5.50809
1492513002,-53.2000000005,4.44435
1492513004,-24.4000000005,5.40011
1492513006,-53.2000000005,7.24133
1492513008,-50.8000000004999,6.80316
1492513010,-58.0000000005,6.23026
1492513012,-24.4000000005,7.95317
1492513014,-5.20000000050004,8.87801
1492513016,-43.6000000005,6.77281
1492513018,-48.4000000005,5.92615
1492513020,-38.8000000004999,6.01656
1492513022,-55.6000000005,7.48563
1492513024,-43.6000000005,7.98912
1492513026,-38.8000000004999,8.12964
1492513028,-38.8000000004999,7.66795
1492513030,23.5999999995,10.4111
1492513032,23.5999999995,9.32665
1492513034,-26.8000000004999,3.51538
1492513036,-46.0000000005,5.10057
1492513038,-41.2000000005,6.01153
1492513040,-19.6000000005,2.90559
1492513042,-36.4000000005,4.32633
1492513044,-34.0000000005,5.59638
1492513046,18.7999999995,6.52791
1492513048,-7.60000000050002,7.76302
1492513050,-46.0000000005,9.13433
1492513052,-14.8000000004999,9.95502
1492513054,-62.8000000004999,8.5654
1492513056,-72.4000000005,9.94073
1492513058,-53.2000000005,10.9928
1492513060,-41.2000000005,11.9307
1492513062,-48.4000000005,8.98089
1492513064,-36.4000000005,7.25631
1492513066,-43.6000000005,8.73812
1492513068,-48.4000000005,11.191
1492513070,-34.0000000005,10.5587
1492513072,18.7999999995,7.77236
1492513074,-24.4000000005,6.39302
1492513076,-17.2000000005,9.37611
1492513078,-38.8000000004999,7.43662
1492513080,23.5999999995,9.20141
1492513082,35.5999999995,8.85363
1492513084,37.9999999995,6.20994
1492513086,16.3999999995,7.4723
1492513088,16.3999999995,7.14744
1492513090,30.7999999995,8.68119
1492513092,109.9999999995,6.30784
1492513094,42.7999999995,7.58804
1492513096,45.1999999994999,6.95401
1492513098,93.1999999994999,8.16598
1492513100,28.3999999995,9.26674
1492513102,47.5999999995,7.29756
1492513104,66.7999999995,7.54479
1492513106,45.1999999994999,6.58211
1492513108,90.7999999995,5.39366
1492513110,64.3999999995,7.60335
1492513112,117.1999999995,7.02681
1492513114,129.1999999995,6.90241
1492513116,102.7999999995,9.46832
1492513118,179.5999999995,9.0283
1492513120,172.3999999995,7.73581
1492513122,172.3999999995,8.31612
1492513124,181.9999999995,7.36945
1492513126,150.7999999995,7.13748
1492513128,157.9999999995,6.74616
1492513130,117.1999999995,7.18275
1492513132,148.3999999995,8.16831
1492513134,119.5999999995,5.69405
1492513136,179.5999999995,7.71712
1492513138,160.3999999995,8.73751
1492513140,119.5999999995,7.01805
1492513142,109.9999999995,4.92569
1492513144,148.3999999995,7.61498
1492513146,105.1999999995,9.8718
1492513148,229.9999999995,10.466
1492513150,177.1999999995,10.2202
1492513152,198.7999999995,10.4437
1492513154,138.7999999995,7.63977
1492513156,174.7999999995,6.09403
1492513158,42.7999999995,7.56058
1492513160,145.9999999995,6.04498
1492513162,141.1999999995,9.40239
1492513164,102.7999999995,8.65606
1492513166,71.5999999995,6.17597
1492513168,119.5999999995,7.93688
1492513170,102.7999999995,7.67086
1492513172,1.99999999950001,8.64632
1492513174,23.5999999995,8.33513
1492513176,-2.80000000049995,9.02427
1492513178,69.1999999994999,12.5572
1492513180,28.3999999995,11.3394
1492513182,25.9999999995,10.5884
1492513184,9.19999999950005,8.58157
1492513186,25.9999999995,10.5647
1492513188,49.9999999995,8.03486
1492513190,52.3999999995,9.25076
1492513192,37.9999999995,8.42818
1492513194,172.3999999995,8.08504
1492513196,52.3999999995,10.0465
1492513198,95.5999999995,9.52376
1492513200,93.1999999994999,5.33685
1492513202,33.1999999994999,8.73142
1492513204,45.1999999994999,10.7378
1492513206,71.5999999995,10.245
1492513208,107.5999999995,10.4293
1492513210,112.3999999995,6.21272
1492513212,45.1999999994999,8.55864
1492513214,35.5999999995,7.2737
1492513216,47.5999999995,8.19884
1492513218,85.9999999995,8.25282
1492513220,136.3999999995,7.66041
1492513222,124.3999999995,7.67964
1492513224,112.3999999995,8.27366
1492513226,136.3999999995,10.4593
1492513228,90.7999999995,5.07722
1492513230,124.3999999995,6.57364
1492513232,141.1999999995,10.4403
1492513234,121.9999999995,10.002
1492513236,57.1999999994999,9.21231
1492513238,93.1999999994999,7.03195
1492513240,100.3999999995,9.83728
1492513242,47.5999999995,10.0806
1492513244,64.3999999995,9.9282
1492513246,52.3999999995,8.28969
1492513248,35.5999999995,4.93605
1492513250,95.5999999995,6.51072
1492513252,30.7999999995,6.49369
1492513254,78.7999999995,9.12463
1492513256,64.3999999995,11.4691
1492513258,107.5999999995,10.2292
1492513260,47.5999999995,9.33309
1492513262,102.7999999995,9.22365
1492513264,40.3999999995,8.05815
1492513266,54.7999999995,9.9453
1492513268,95.5999999995,7.63801
1492513270,88.3999999995,8.19022
1492513272,59.5999999995,11.6744
1492513274,100.3999999995,11.7911
1492513276,90.7999999995,9.83878
1492513278,83.5999999995,8.1925
1492513280,69.1999999994999,10.0331
1492513282,93.1999999994999,9.41842
1492513284,28.3999999995,11.3461
1492513286,35.5999999995,9.64642
1492513288,114.7999999995,10.056
1492513290,33.1999999994999,9.64527
1492513292,37.9999999995,6.62171
1492513294,52.3999999995,4.87923
1492513296,88.3999999995,3.67001
1492513298,57.1999999994999,6.4242
1492513300,37.9999999995,4.59778
1492513302,45.1999999994999,7.98366
1492513304,-0.400000000499972,5.55188
1492513306,11.5999999995,5.13932
1492513308,37.9999999995,9.3277
1492513310,13.9999999995,9.72692
1492513312,-14.8000000004999,8.67185
1492513314,25.9999999995,6.05204
1492513316,1.99999999950001,9.96888
1492513318,13.9999999995,9.79813
1492513320,23.5999999995,10.4616
1492513322,4.39999999949998,11.1228
1492513324,16.3999999995,8.6566
1492513326,88.3999999995,8.64894
1492513328,30.7999999995,9.0798
1492513330,16.3999999995,9.55507
1492513332,30.7999999995,9.30465
1492513334,-2.80000000049995,9.77287
1492513336,21.1999999994999,10.8595
1492513338,9.19999999950005,11.2382
1492513340,40.3999999995,9.10207
1492513342,13.9999999995,9.86819
1492513344,-2.80000000049995,8.09218
1492513346,1.99999999950001,11.3881
1492513348,-31.6000000005,9.64942
1492513350,-46.0000000005,11.3401
1492513352,-43.6000000005,11.363
1492513354,-0.400000000499972,10.4301
1492513356,11.5999999995,11.5091
1492513358,1.99999999950001,10.6741
1492513360,-29.2000000005,10.9844
1492513362,-34.0000000005,7.09153
1492513364,16.3999999995,10.5287
1492513366,-24.4000000005,8.96809
1492513368,-67.6000000005,11.4806
1492513370,-38.8000000004999,10.4865
1492513372,-38.8000000004999,12.4684
1492513374,-82.0000000005,9.99938
1492513376,-79.6000000005,9.83343
1492513378,-31.6000000005,10.5631
1492513380,-89.2000000005,9.94857
1492513382,-84.4000000005,8.56705
1492513384,-19.6000000005,9.03218
1492513386,-72.4000000005,8.68762
1492513388,-82.0000000005,8.24972
1492513390,-36.4000000005,8.6606
1492513392,-50.8000000004999,9.72977
1492513394,-60.4000000005,9.55812
1492513396,-98.8000000005,11.6297
1492513398,-115.6000000005,10.6578
1492513400,-72.4000000005,8.73086
1492513402,-70.0000000005,9.94537
1492513404,-120.4000000005,9.28919
1492513406,-58.0000000005,10.8628
1492513408,-130.0000000005,9.82233
1492513410,-122.8000000005,11.747
1492513412,-113.2000000005,8.6592
1492513414,-74.8000000005,10.054
1492513416,-67.6000000005,9.50141
1492513418,-65.2000000005,10.8016
1492513420,-101.2000000005,10.1375
1492513422,-43.6000000005,10.9906
1492513424,-58.0000000005,8.97322
1492513426,-41.2000000005,11.0824
1492513428,-84.4000000005,10.4617
1492513430,-26.8000000004999,10.117
1492513432,-2.80000000049995,11.3147
1492513434,-31.6000000005,10.5464
1492513436,-10.0000000005,11.1303
1492513438,-36.4000000005,13.4068
1492513440,-24.4000000005,13.2512
1492513442,-46.0000000005,12.0973
1492513444,-46.0000000005,9.18846
1492513446,-43.6000000005,6.35241
1492513448,-22.0000000005,7.83957
1492513450,28.3999999995,7.05685
1492513452,11.5999999995,8.75713
1492513454,-19.6000000005,10.7877
1492513456,-43.6000000005,8.14632
1492513458,1.99999999950001,7.78623
1492513460,-46.0000000005,9.46579
1492513462,9.19999999950005,9.36846
1492513464,40.3999999995,10.4232
1492513466,-36.4000000005,10.2198
1492513468,23.5999999995,8.04972
1492513470,-41.2000000005,7.14425
1492513472,-14.8000000004999,5.9896
1492513474,-7.60000000050002,5.34412
1492513476,21.1999999994999,6.89664
1492513478,35.5999999995,8.72139
1492513480,11.5999999995,7.43311
1492513482,25.9999999995,8.00556
1492513484,13.9999999995,9.50081
1492513486,13.9999999995,11.3032
1492513488,25.9999999995,11.1752
1492513490,88.3999999995,10.5013
1492513492,21.1999999994999,11.1325
1492513494,49.9999999995,8.76364
1492513496,21.1999999994999,7.5611
1492513498,42.7999999995,8.57017
1492513500,52.3999999995,10.567
1492513502,33.1999999994999,11.0158
1492513504,64.3999999995,4.48908
1492513506,42.7999999995,3.43328
1492513508,97.9999999995,8.64918
1492513510,97.9999999995,10.44
1492513512,45.1999999994999,9.52502
1492513514,59.5999999995,9.11035
1492513516,23.5999999995,9.24329
1492513518,37.9999999995,10.6521
1492513520,18.7999999995,10.0938
1492513522,25.9999999995,8.54096
1492513524,33.1999999994999,10.1065
1492513526,28.3999999995,10.5684
1492513528,25.9999999995,7.97159
1492513530,33.1999999994999,8.9322
1492513532,33.1999999994999,9.85787
1492513534,9.19999999950005,10.3623
1492513536,30.7999999995,10.5418
1492513538,18.7999999995,9.13798
1492513540,57.1999999994999,9.38349
1492513542,33.1999999994999,8.15439
1492513544,25.9999999995,9.17925
1492513546,49.9999999995,8.07517
1492513548,13.9999999995,7.4637
1492513550,33.1999999994999,8.38896
1492513552,-7.60000000050002,7.90217
1492513554,-43.6000000005,9.58188
1492513556,-24.4000000005,8.9532
1492513558,-43.6000000005,8.26459
1492513560,-46.0000000005,11.613
1492513562,21.1999999994999,15.0811
1492513564,-34.0000000005,7.70954
1492513566,-53.2000000005,4.79062
1492513568,-36.4000000005,5.88079
1492513570,-34.0000000005,7.97755
1492513572,-55.6000000005,3.08543
1492513574,-41.2000000005,5.44066
1492513576,-43.6000000005,9.47574
1492513578,-41.2000000005,8.87775
1492513580,-89.2000000005,10.1216
1492513582,-70.0000000005,10.4451
1492513584,-50.8000000004999,10.5811
1492513586,-72.4000000005,11.6642
1492513588,-139.6000000005,11.3207
1492513590,-62.8000000004999,9.9251
1492513592,-77.2000000005,11.4865
1492513594,-55.6000000005,8.64042
1492513596,-72.4000000005,9.54245
1492513598,-31.6000000005,10.2617
1492513600,-48.4000000005,7.97303
1492513602,-62.8000000004999,9.39119
1492513604,-67.6000000005,6.95426
1492513606,-89.2000000005,5.45569
1492513608,-48.4000000005,7.53001
1492513610,1.99999999950001,9.73868
1492513612,-127.6000000005,8.90327
1492513614,-137.2000000005,8.95269
1492513616,-22.0000000005,9.32479
1492513618,-34.0000000005,10.8745
1492513620,47.5999999995,10.9414
1492513622,54.7999999995,10.0024
1492513624,66.7999999995,10.6308
1492513626,71.5999999995,7.61312
1492513628,97.9999999995,9.10226
1492513630,90.7999999995,7.25592
1492513632,69.1999999994999,12.2037
1492513634,126.7999999995,8.83528
1492513636,83.5999999995,9.05992
1492513638,57.1999999994999,6.56925
1492513640,18.7999999995,2.8356
1492513642,4.39999999949998,9.65179
1492513644,-34.0000000005,7.74789
1492513646,-24.4000000005,8.45207
1492513648,13.9999999995,7.1674
1492513650,11.5999999995,8.10597
1492513652,-43.6000000005,10.5642
1492513654,4.39999999949998,11.4266
1492513656,-26.8000000004999,11.1656
1492513658,4.39999999949998,14.1298
1492513660,35.5999999995,9.35066
1492513662,33.1999999994999,9.90789
1492513664,28.3999999995,7.76354
1492513666,4.39999999949998,7.01267
1492513668,13.9999999995,7.82973
1492513670,11.5999999995,7.5451
1492513672,-46.0000000005,9.40512
1492513674,-12.4000000005,10.2699
1492513676,6.79999999949996,8.3675
1492513678,-29.2000000005,11.3247
1492513680,9.19999999950005,11.2014
1492513682,23.5999999995,8.44576
1492513684,21.1999999994999,10.325
1492513686,-14.8000000004999,11.1396
1492513688,23.5999999995,11.7069
1492513690,28.3999999995,9.9398
1492513692,49.9999999995,7.15221
1492513694,6.79999999949996,10.1509
1492513696,13.9999999995,9.67929
1492513698,11.5999999995,8.43656
1492513700,-2.80000000049995,10.1392
1492513702,-5.20000000050004,9.81993
1492513704,-36.4000000005,12.1304
1492513706,-46.0000000005,10.9545
1492513710,-46.0000000005,5.55437
1492513712,-55.6000000005,10.7155
1492513714,-41.2000000005,11.9996
1492513716,-46.0000000005,10.4763
1492513718,-58.0000000005,12.876
1492513720,-38.8000000004999,12.1849
1492513722,-10.0000000005,13.4361
1492513724,-74.8000000005,11.4869
1492513726,-53.2000000005,12.2367
1492513728,-41.2000000005,12.232
1492513730,-60.4000000005,9.68528
1492513732,-65.2000000005,11.186
1492513734,-36.4000000005,9.73314
1492513736,-46.0000000005,8.63765
1492513738,-91.6000000005,12.9588
1492513740,-103.6000000005,9.84546
1492513742,-5.20000000050004,9.34364
1492513744,-24.4000000005,12.4313
1492513746,-74.8000000005,9.58649
1492513748,-43.6000000005,9.6955
1492513750,-67.6000000005,11.1655
1492513752,-72.4000000005,10.992
1492513754,30.7999999995,10.3348
1492513756,-36.4000000005,9.45651
1492513758,-41.2000000005,10.7397
1492513760,-26.8000000004999,9.35911
1492513762,-31.6000000005,10.8677
1492513764,-60.4000000005,8.31331
1492513766,28.3999999995,9.65793
1492513768,-31.6000000005,9.89815
1492513770,-84.4000000005,7.95024
1492513772,-43.6000000005,12.4753
1492513774,-38.8000000004999,11.4803
1492513776,-53.2000000005,11.968
1492513778,-50.8000000004999,11.4427
1492513780,28.3999999995,11.5103
1492513782,-53.2000000005,11.6932
1492513784,-46.0000000005,8.98407
1492513786,-38.8000000004999,11.6302
1492513788,-41.2000000005,11.4008
1492513790,-50.8000000004999,7.71305
1492513792,-62.8000000004999,9.48662
1492513794,-41.2000000005,11.9208
1492513796,-48.4000000005,11.1647
1492513798,-79.6000000005,11.4386
1492513800,-7.60000000050002,8.86179
1492513802,-65.2000000005,9.4355
1492513804,-62.8000000004999,11.0377
1492513806,-60.4000000005,10.8691
1492513808,-72.4000000005,9.37224
1492513810,-46.0000000005,11.1279
1492513812,-98.8000000005,10.1276
1492513814,-36.4000000005,9.85309
1492513816,-77.2000000005,9.84067
1492513818,-41.2000000005,11.4926
1492513820,-58.0000000005,10.8974
1492513822,-120.4000000005,9.763
1492513824,-173.2000000005,6.83945
1492513826,-101.2000000005,9.57922
1492513828,-48.4000000005,9.0211
1492513830,-110.8000000005,7.99526
1492513832,-149.2000000005,7.05648
1492513834,-38.8000000004999,7.80523
1492513836,-134.8000000005,9.40119
1492513838,-77.2000000005,10.2401
1492513840,-120.4000000005,10.7967
1492513842,-122.8000000005,9.94462
1492513844,-127.6000000005,7.0206
1492513846,-115.6000000005,10.3522
1492513848,-156.4000000005,9.16295
1492513850,-175.6000000005,11.2546
1492513852,-151.6000000005,10.712
1492513854,-132.4000000005,9.69599
1492513856,-70.0000000005,7.42731
1492513858,-118.0000000005,6.18142
1492513860,-115.6000000005,9.00367
1492513862,-120.4000000005,9.1001
1492513864,-127.6000000005,9.9057
1492513866,-74.8000000005,10.3526
1492513868,-67.6000000005,9.81819
1492513870,-108.4000000005,10.7896
1492513872,-65.2000000005,9.25154
1492513874,-108.4000000005,7.78718
1492513876,-82.0000000005,8.80122
1492513878,-26.8000000004999,11.6852
1492513880,16.3999999995,11.9748
1492513882,-5.20000000050004,7.81514
1492513884,-48.4000000005,8.67679
1492513886,69.1999999994999,8.58028
1492513888,21.1999999994999,7.59499
1492513890,-31.6000000005,9.08745
1492513892,-24.4000000005,6.59409
1492513894,52.3999999995,11.2672
1492513896,33.1999999994999,9.28982
1492513898,-55.6000000005,10.3305
1492513900,28.3999999995,9.78781
1492513902,-7.60000000050002,8.69986
1492513904,25.9999999995,9.23757
1492513906,1.99999999950001,10.7477
1492513908,-5.20000000050004,11.2241
1492513910,6.79999999949996,9.19588
1492513912,-31.6000000005,9.50208
1492513914,-7.60000000050002,10.4489
1492513916,11.5999999995,8.89727
1492513918,16.3999999995,8.40543
1492513920,16.3999999995,8.62578
1492513922,28.3999999995,8.26144
1492513924,-5.20000000050004,6.34962
1492513926,-26.8000000004999,8.91679
1492513928,23.5999999995,10.0297
1492513930,28.3999999995,10.0072
1492513932,42.7999999995,10.0198
1492513934,81.1999999994999,9.81214
1492513936,64.3999999995,11.4559
1492513938,90.7999999995,10.2648
1492513940,124.3999999995,7.44613
1492513942,61.9999999995,8.73548
1492513944,64.3999999995,8.48769
1492513946,150.7999999995,10.2325
1492513948,162.7999999995,12.4898
1492513950,148.3999999995,5.50016
1492513952,143.5999999995,10.1407
1492513954,121.9999999995,9.38422
1492513956,107.5999999995,7.22066
1492513958,126.7999999995,6.72637
1492513960,148.3999999995,8.1466
1492513962,64.3999999995,10.9904
1492513964,83.5999999995,9.85224
1492513966,133.9999999995,8.77272
1492513968,33.1999999994999,7.8139
1492513970,35.5999999995,9.29865
1492513972,107.5999999995,9.88316
1492513974,133.9999999995,11.3889
1492513976,49.9999999995,10.7196
1492513978,28.3999999995,7.26924
1492513980,45.1999999994999,6.55517
1492513982,30.7999999995,6.28871
1492513984,30.7999999995,7.56893
1492513986,90.7999999995,6.69912
1492513988,90.7999999995,6.91287
1492513990,119.5999999995,7.3601
1492513992,119.5999999995,7.70576
1492513994,21.1999999994999,6.62418
1492513996,64.3999999995,6.23927
1492513998,11.5999999995,7.70749
1492514000,33.1999999994999,7.44379
1492514002,35.5999999995,7.60398
1492514004,42.7999999995,7.24378
1492514006,59.5999999995,5.20949
1492514008,61.9999999995,6.06816
1492514010,49.9999999995,7.54952
1492514012,37.9999999995,6.11282
1492514014,47.5999999995,7.67249
1492514016,54.7999999995,6.26498
1492514018,121.9999999995,10.69
1492514020,64.3999999995,9.72552
1492514022,49.9999999995,9.62718
1492514024,59.5999999995,10.2364
1492514026,61.9999999995,9.33769
1492514028,-50.8000000004999,6.86708
1492514030,6.79999999949996,8.65367
1492514032,9.19999999950005,8.15383
1492514034,28.3999999995,8.17088
1492514036,28.3999999995,10.651
1492514038,40.3999999995,8.46526
1492514040,-38.8000000004999,9.58452
1492514042,33.1999999994999,8.54959
1492514044,11.5999999995,8.03221
1492514046,33.1999999994999,5.3346
1492514048,35.5999999995,7.93276
1492514050,30.7999999995,9.41436
1492514052,76.3999999995,9.12526
1492514054,23.5999999995,9.82722
1492514056,45.1999999994999,8.56812
1492514058,1.99999999950001,11.9047
1492514060,-118.0000000005,11.0217
1492514062,-144.4000000005,9.85272
1492514064,-67.6000000005,9.90517
1492514066,-120.4000000005,9.08403
1492514068,-175.6000000005,9.33496
1492514070,-139.6000000005,6.92166
1492514072,-146.8000000005,9.12476
1492514074,-77.2000000005,9.50033
1492514076,-120.4000000005,9.15768
1492514078,-139.6000000005,9.01792
1492514080,-137.2000000005,7.1642
1492514082,-134.8000000005,6.17857
1492514084,-101.2000000005,8.5265
1492514086,-113.2000000005,9.68492
1492514088,-158.8000000005,9.43727
1492514090,-132.4000000005,10.978
1492514092,-125.2000000005,9.35244
1492514094,-103.6000000005,8.13211
1492514096,-106.0000000005,7.11591
1492514098,-77.2000000005,7.49074
1492514100,-118.0000000005,9.42066
1492514102,-132.4000000005,6.43388
1492514104,-137.2000000005,3.97316
1492514106,-185.2000000005,4.61723
1492514108,-199.6000000005,3.92356
1492514110,-156.4000000005,6.98657
1492514112,-185.2000000005,8.42644
1492514114,-180.4000000005,8.8225
1492514116,-96.4000000005,6.70757
1492514118,-158.8000000005,12.2189
1492514120,-206.8000000005,12.2536
1492514122,-132.4000000005,9.13824
1492514124,-120.4000000005,9.61755
1492514126,-151.6000000005,8.01
1492514128,-185.2000000005,9.82938
1492514130,-149.2000000005,8.73282
1492514132,-230.8000000005,8.66641
1492514134,-190.0000000005,8.79386
1492514136,-168.4000000005,12.2619
1492514138,-146.8000000005,10.3872
1492514140,-137.2000000005,8.90886
1492514142,-149.2000000005,9.71343
1492514144,-96.4000000005,7.51774
1492514146,-185.2000000005,7.09247
1492514148,-182.8000000005,5.64366
1492514150,-94.0000000005,7.58593
1492514152,-199.6000000005,6.35251
1492514154,-108.4000000005,8.34469
1492514156,-103.6000000005,8.78387
1492514158,-182.8000000005,6.14697
1492514160,-206.8000000005,6.79824
1492514162,-139.6000000005,9.89917
1492514164,-108.4000000005,6.9298
1492514166,-204.4000000005,7.28469
1492514168,-125.2000000005,9.50346
1492514170,-132.4000000005,6.69172
1492514172,-175.6000000005,6.25861
1492514174,-187.6000000005,6.93047
1492514176,-137.2000000005,5.45888
1492514178,-151.6000000005,6.95277
1492514180,-163.6000000005,8.85772
1492514182,-84.4000000005,9.12294
1492514184,-79.6000000005,8.13337
1492514186,-106.0000000005,7.71141
1492514188,-98.8000000005,7.5871
1492514190,-122.8000000005,7.66964
1492514192,-142.0000000005,7.92608
1492514194,-154.0000000005,6.18233
1492514196,-122.8000000005,8.15538
1492514198,-151.6000000005,6.61467
1492514200,-58.0000000005,10.1705
1492514202,-132.4000000005,7.20591
1492514204,-115.6000000005,7.53047
1492514206,-154.0000000005,7.03514
1492514208,-170.8000000005,9.69091
1492514210,-214.0000000005,10.0681
1492514212,-197.2000000005,8.30807
1492514214,-216.4000000005,9.86696
1492514216,-221.2000000005,7.82455
1492514218,-190.0000000005,8.2552
1492514220,-146.8000000005,9.28455
1492514222,-178.0000000005,9.02585
1492514224,-235.6000000005,9.30899
1492514226,-204.4000000005,8.60722
1492514228,-202.0000000005,10.0362
1492514230,-226.0000000005,10.0085
1492514232,-211.6000000005,7.76323
1492514234,-242.8000000005,7.71975
1492514236,-250.0000000005,8.06682
1492514238,-252.4000000005,8.7369
1492514240,-214.0000000005,6.55974
1492514242,-218.8000000005,7.92658
1492514244,-185.2000000005,8.32365
1492514246,-209.2000000005,8.84107
1492514248,-221.2000000005,8.33067
1492514250,-228.4000000005,9.94184
1492514252,-137.2000000005,9.92152
1492514254,-142.0000000005,11.821
1492514256,-226.0000000005,9.33675
1492514258,-132.4000000005,8.47705
1492514260,-110.8000000005,5.61364
1492514262,-110.8000000005,3.65454
1492514264,-77.2000000005,4.36759
1492514266,-36.4000000005,3.78457
1492514268,-65.2000000005,5.60645
1492514270,-55.6000000005,10.1573
1492514272,-36.4000000005,10.4226
1492514274,-72.4000000005,9.24629
1492514276,-84.4000000005,9.8374
1492514278,-74.8000000005,8.33928
1492514280,-43.6000000005,7.1568
1492514282,-70.0000000005,9.13293
1492514284,-70.0000000005,8.27289
1492514286,-89.2000000005,5.74815
1492514288,-65.2000000005,9.30624
1492514290,-134.8000000005,10.3746
1492514292,-41.2000000005,11.0422
1492514294,-175.6000000005,11.5398
1492514296,-127.6000000005,11.1268
1492514298,-77.2000000005,6.24822
1492514300,-142.0000000005,9.32385
1492514302,-156.4000000005,7.37836
1492514304,-84.4000000005,8.39096
1492514306,-115.6000000005,9.25648
1492514308,-154.0000000005,9.2517
1492514310,-182.8000000005,8.70939
1492514312,-122.8000000005,10.7831
1492514314,-173.2000000005,9.02192
1492514316,-144.4000000005,10.2562
1492514318,-120.4000000005,10.4654
1492514320,-209.2000000005,10.6506
1492514322,-178.0000000005,8.53818
1492514324,-166.0000000005,9.21502
1492514326,-125.2000000005,7.83397
1492514328,-146.8000000005,7.88921
1492514330,-94.0000000005,6.7844
1492514332,-108.4000000005,8.44451
1492514334,-115.6000000005,5.74725
1492514336,-137.2000000005,6.08081
1492514338,-163.6000000005,7.76396
1492514340,-235.6000000005,10.1546
1492514342,-190.0000000005,9.76496
1492514344,-204.4000000005,5.37879
1492514346,-197.2000000005,6.14453
1492514348,-190.0000000005,5.94443
1492514350,-163.6000000005,3.8324
1492514352,-214.0000000005,9.21107
1492514354,-120.4000000005,9.52291
1492514356,-168.4000000005,7.98982
1492514358,-187.6000000005,8.02908
1492514360,-134.8000000005,7.47201
1492514362,-43.6000000005,9.55085
1492514364,-132.4000000005,9.74696
1492514366,-130.0000000005,10.3114
1492514368,-106.0000000005,9.91396
1492514370,-91.6000000005,10.2163
1492514372,-65.2000000005,8.76516
1492514374,-139.6000000005,7.08639
1492514376,-118.0000000005,6.85122
1492514378,-142.0000000005,7.31807
1492514380,-70.0000000005,7.30291
1492514382,-106.0000000005,7.80242
1492514384,-72.4000000005,7.24551
1492514386,-130.0000000005,9.81506
1492514388,-62.8000000004999,9.11467
1492514390,-60.4000000005,10.3695
1492514392,-46.0000000005,7.45504
1492514394,16.3999999995,9.95578
1492514396,18.7999999995,10.5349
1492514398,-31.6000000005,10.7701
1492514400,9.19999999950005,8.77249
1492514402,13.9999999995,8.53464
1492514404,37.9999999995,11.3117
1492514406,-19.6000000005,9.43697
1492514408,-43.6000000005,9.51304
1492514410,-29.2000000005,7.99338
1492514412,-46.0000000005,10.5952
1492514414,-19.6000000005,8.81024
1492514416,-19.6000000005,7.42907
1492514418,-53.2000000005,6.82544
1492514420,-46.0000000005,7.16074
1492514422,-22.0000000005,7.52349
1492514424,-29.2000000005,4.21097
1492514426,-43.6000000005,8.44261
1492514428,18.7999999995,8.07308
1492514430,28.3999999995,7.28104
1492514432,16.3999999995,6.03882
1492514434,21.1999999994999,7.15174
1492514436,-2.80000000049995,6.96948
1492514438,69.1999999994999,8.05493
1492514440,13.9999999995,7.51776
1492514442,30.7999999995,6.91992
1492514444,-12.4000000005,6.91523
1492514446,11.5999999995,8.60562
1492514448,16.3999999995,8.01514
1492514450,37.9999999995,8.07701
1492514452,-50.8000000004999,6.82586
1492514454,40.3999999995,9.48302
1492514456,25.9999999995,6.07569
1492514460,21.1999999994999,9.93264
1492514462,21.1999999994999,9.9896
1492514464,11.5999999995,8.33834
1492514466,73.9999999995,9.52498
1492514468,57.1999999994999,10.2815
1492514470,33.1999999994999,9.93922
1492514472,64.3999999995,9.48677
1492514474,131.5999999995,8.23438
1492514476,18.7999999995,11.9502
1492514478,102.7999999995,9.02037
1492514480,133.9999999995,9.5031
1492514482,97.9999999995,9.30302
1492514484,33.1999999994999,10.5667
1492514486,4.39999999949998,8.69359
1492514488,-7.60000000050002,9.41305
1492514490,6.79999999949996,9.44891
1492514492,59.5999999995,10.1091
1492514494,30.7999999995,8.06382
1492514496,4.39999999949998,8.82078
1492514498,90.7999999995,5.45781
1492514500,-29.2000000005,7.24691
1492514502,21.1999999994999,7.67941
1492514504,4.39999999949998,9.45963
1492514506,-38.8000000004999,9.89111
1492514508,-7.60000000050002,6.84955
1492514510,13.9999999995,8.46735
1492514512,18.7999999995,9.95423
1492514514,-38.8000000004999,9.20146
1492514516,-5.20000000050004,6.56601
1492514518,1.99999999950001,8.20143
1492514520,11.5999999995,9.58856
1492514522,-70.0000000005,10.1844
1492514524,21.1999999994999,10.7919
1492514526,-48.4000000005,9.67521
1492514528,-62.8000000004999,7.90051
1492514530,-38.8000000004999,10.4643
1492514532,-65.2000000005,7.88311
1492514534,-120.4000000005,9.70108
1492514536,-43.6000000005,8.8947
1492514538,-10.0000000005,7.43775
1492514540,-46.0000000005,8.13211
1492514542,-38.8000000004999,10.0211
1492514544,25.9999999995,8.5918
1492514546,18.7999999995,7.80984
1492514548,57.1999999994999,6.73176
1492514550,18.7999999995,6.73953
1492514552,-38.8000000004999,10.0995
1492514554,-58.0000000005,9.51424
1492514556,-48.4000000005,7.07833
1492514558,-91.6000000005,7.29774
1492514560,-62.8000000004999,7.91244
1492514562,-41.2000000005,8.36069
1492514564,-70.0000000005,9.65026
1492514566,-43.6000000005,8.65297
1492514568,1.99999999950001,7.38481
1492514570,-26.8000000004999,8.88474
1492514572,13.9999999995,7.49593
1492514574,6.79999999949996,9.61569
1492514576,28.3999999995,8.77779
1492514578,25.9999999995,9.87777
1492514580,13.9999999995,10.4114
1492514582,49.9999999995,9.15228
1492514584,11.5999999995,8.23377
1492514586,-43.6000000005,9.67714
1492514588,21.1999999994999,11.4081
1492514590,-29.2000000005,11.1767
1492514592,-41.2000000005,8.46619
1492514594,-48.4000000005,8.83321
1492514596,33.1999999994999,7.76852
1492514598,-36.4000000005,6.84681
1492514600,-48.4000000005,6.71018
1492514602,-43.6000000005,8.75656
1492514604,-22.0000000005,7.67167
1492514606,4.39999999949998,9.48943
1492514608,-10.0000000005,5.51183
1492514610,-48.4000000005,7.61762
1492514612,-5.20000000050004,9.40322
1492514614,11.5999999995,9.1862
1492514616,-34.0000000005,7.96117
1492514618,-43.6000000005,7.08559
1492514620,4.39999999949998,10.0005
1492514622,6.79999999949996,9.7928
1492514624,-10.0000000005,9.31469
1492514626,81.1999999994999,7.56126
1492514628,25.9999999995,7.7113
1492514630,52.3999999995,9.25641
1492514632,88.3999999995,9.02299
1492514634,33.1999999994999,6.28847
1492514636,6.79999999949996,6.15115
1492514638,25.9999999995,7.32922
1492514640,-17.2000000005,7.46589
1492514642,-58.0000000005,7.31559
1492514644,11.5999999995,9.82688
1492514646,9.19999999950005,9.04645
1492514648,-36.4000000005,6.93711
1492514650,-0.400000000499972,9.84757
1492514652,-65.2000000005,8.44026
1492514654,-58.0000000005,6.71813
1492514656,-36.4000000005,5.71656
1492514658,-53.2000000005,6.84458
1492514660,-70.0000000005,8.1169
1492514662,-74.8000000005,6.79602
1492514664,-55.6000000005,7.43412
1492514666,-67.6000000005,6.89458
1492514668,-106.0000000005,5.28234
1492514670,-62.8000000004999,7.0306
1492514672,-79.6000000005,6.50152
1492514674,-43.6000000005,6.84
1492514676,-60.4000000005,8.60941
1492514678,-137.2000000005,9.50448
1492514680,-125.2000000005,6.16415
1492514682,-79.6000000005,4.96834
1492514684,-72.4000000005,5.63247
1492514686,-137.2000000005,4.57375
1492514688,-72.4000000005,8.88861
1492514690,-58.0000000005,8.42278
1492514692,-151.6000000005,7.33414
1492514694,-101.2000000005,10.1942
1492514696,-103.6000000005,9.37346
1492514698,-122.8000000005,9.92173
1492514700,-182.8000000005,10.2821
1492514702,-204.4000000005,8.5652
1492514704,-158.8000000005,5.73657
1492514706,-211.6000000005,6.7036
1492514708,-175.6000000005,7.73527
1492514710,-216.4000000005,8.72805
1492514712,-192.4000000005,9.03438
1492514714,-142.0000000005,7.70396
1492514716,-211.6000000005,9.20473
1492514718,-199.6000000005,9.53766
1492514720,-192.4000000005,9.98375
1492514722,-180.4000000005,8.40264
1492514724,-211.6000000005,7.58324
1492514726,-211.6000000005,8.77714
1492514728,-139.6000000005,3.76029
1492514730,-154.0000000005,7.33693
1492514732,-204.4000000005,8.65743
1492514734,-120.4000000005,9.4356
1492514736,-185.2000000005,11.7228
1492514738,-206.8000000005,11.7904
1492514740,-137.2000000005,8.12686
1492514742,-125.2000000005,11.3471
1492514744,-156.4000000005,10.5066
1492514746,-137.2000000005,9.17093
1492514748,-53.2000000005,11.419
1492514750,-67.6000000005,8.93291
1492514752,-86.8000000005,10.4603
1492514754,-48.4000000005,9.43751
1492514756,-74.8000000005,5.06026
1492514758,-12.4000000005,4.34939
1492514760,-38.8000000004999,4.81412
1492514762,-12.4000000005,4.32984
1492514764,4.39999999949998,7.94801
1492514766,-12.4000000005,12.0393
1492514768,-26.8000000004999,10.5669
1492514770,1.99999999950001,9.0191
1492514772,-7.60000000050002,8.17982
1492514774,-74.8000000005,8.32519
1492514776,-72.4000000005,8.02768
1492514778,-65.2000000005,7.70046
1492514780,-58.0000000005,10.2612
1492514782,-101.2000000005,7.14428
1492514784,-55.6000000005,4.84031
1492514786,-91.6000000005,4.03187
1492514788,-48.4000000005,10.9721
1492514790,-53.2000000005,8.06776
1492514792,-41.2000000005,9.79756
1492514794,23.5999999995,9.23332
1492514796,21.1999999994999,7.99541
1492514798,21.1999999994999,9.39292
1492514800,30.7999999995,6.71261
1492514802,11.5999999995,5.14672
1492514804,28.3999999995,7.51941
1492514806,42.7999999995,5.8634
1492514808,23.5999999995,6.82606
1492514810,37.9999999995,11.5879
1492514812,73.9999999995,9.86103
1492514814,93.1999999994999,11.3802
1492514816,162.7999999995,10.8426
1492514818,201.1999999995,10.178
1492514820,133.9999999995,10.2588
1492514822,112.3999999995,10.3062
1492514824,150.7999999995,9.43703
1492514826,112.3999999995,11.2979
1492514828,42.7999999995,10.1099
1492514830,25.9999999995,6.70258
1492514832,-0.400000000499972,7.65649
1492514834,-50.8000000004999,4.59897
1492514836,-67.6000000005,9.54791
1492514838,-36.4000000005,9.26578
1492514840,-43.6000000005,7.73499
1492514842,-67.6000000005,10.2024
1492514844,-82.0000000005,7.83103
1492514846,-48.4000000005,10.5613
1492514848,-62.8000000004999,9.62242
1492514850,-98.8000000005,8.2551
1492514852,-53.2000000005,4.75878
1492514854,-48.4000000005,7.84747
1492514856,-82.0000000005,8.82769
1492514858,-31.6000000005,9.40827
1492514860,-43.6000000005,6.40553
1492514862,-48.4000000005,6.77416
1492514864,4.39999999949998,6.98746
1492514866,-41.2000000005,10.1112
1492514868,-55.6000000005,10.4136
1492514870,-31.6000000005,7.47574
1492514872,-24.4000000005,4.80209
1492514874,-67.6000000005,7.46627
1492514876,-55.6000000005,9.53763
1492514878,-58.0000000005,9.98474
1492514880,-43.6000000005,9.69736
1492514882,-101.2000000005,9.95254
1492514884,-58.0000000005,7.83497
1492514886,-127.6000000005,8.7248
1492514888,-175.6000000005,8.25141
1492514890,-146.8000000005,9.09083
1492514892,-82.0000000005,7.94303
1492514894,-122.8000000005,8.29831
1492514896,-132.4000000005,6.69556
1492514898,-144.4000000005,8.02717
1492514900,-202.0000000005,6.44344
1492514902,-170.8000000005,7.954
1492514904,-180.4000000005,9.26555
1492514906,-142.0000000005,7.23532
1492514908,-146.8000000005,7.20283
1492514910,-199.6000000005,8.94395
1492514912,-211.6000000005,9.9377
1492514914,-194.8000000005,10.1494
1492514916,-154.0000000005,8.07605
1492514918,-209.2000000005,7.72447
1492514920,-180.4000000005,8.38257
1492514922,-182.8000000005,6.91999
1492514924,-190.0000000005,7.77869
1492514926,-156.4000000005,9.06391
1492514928,-192.4000000005,7.60697
1492514930,-199.6000000005,10.4065
1492514932,-142.0000000005,9.15593
1492514934,-122.8000000005,9.44272
1492514936,-134.8000000005,7.73803
1492514938,-72.4000000005,10.1902
1492514940,-55.6000000005,9.07949
1492514942,18.7999999995,9.13306
1492514944,57.1999999994999,9.67745
1492514946,42.7999999995,11.1331
1492514948,97.9999999995,7.40074
1492514950,25.9999999995,8.57903
1492514952,9.19999999950005,7.48356
1492514954,-0.400000000499972,9.08773
1492514956,59.5999999995,8.49768
1492514958,4.39999999949998,8.76779
1492514960,-22.0000000005,8.0737
1492514962,-17.2000000005,9.56672
1492514964,-17.2000000005,9.76931
1492514966,-38.8000000004999,9.80497
1492514968,-36.4000000005,7.93466
1492514970,6.79999999949996,8.25069
1492514972,-34.0000000005,8.26813
1492514974,18.7999999995,8.68915
1492514976,6.79999999949996,5.5327
1492514978,-34.0000000005,5.4382
1492514980,-24.4000000005,8.24743
1492514982,9.19999999950005,7.68699
1492514984,-38.8000000004999,6.74255
1492514986,-58.0000000005,6.30148
1492514988,-67.6000000005,5.32248
1492514990,-41.2000000005,6.08182
1492514992,-58.0000000005,5.81391
1492514994,-72.4000000005,8.52102
1492514996,-53.2000000005,8.51931
1492514998,-77.2000000005,10.4548
1492515000,-46.0000000005,8.31655
1492515002,-74.8000000005,10.4042
1492515004,-89.2000000005,12.7151
1492515006,-139.6000000005,9.56553
1492515008,-67.6000000005,9.766
1492515010,-122.8000000005,9.64404
1492515012,-156.4000000005,10.4092
1492515014,-113.2000000005,10.7743
1492515016,-103.6000000005,10.4818
1492515018,-151.6000000005,10.4893
1492515020,-146.8000000005,9.90341
1492515022,-96.4000000005,9.38166
1492515024,-122.8000000005,10.0916
1492515026,-185.2000000005,6.65438
1492515028,-125.2000000005,7.64401
1492515030,-130.0000000005,9.62885
1492515032,-130.0000000005,9.09608
1492515034,-122.8000000005,10.6956
1492515036,-125.2000000005,9.87932
1492515038,-91.6000000005,7.79731
1492515040,-65.2000000005,6.19201
1492515042,-115.6000000005,5.5045
1492515044,-161.2000000005,7.43836
1492515046,-132.4000000005,10.0235
1492515048,-161.2000000005,9.99125
1492515050,-204.4000000005,5.72709
1492515052,-127.6000000005,4.84364
1492515054,-206.8000000005,8.45111
1492515056,-151.6000000005,3.87081
1492515058,-146.8000000005,6.63944
1492515060,-94.0000000005,8.38314
1492515062,-182.8000000005,9.33559
1492515064,-137.2000000005,8.04374
1492515066,-91.6000000005,9.07263
1492515068,-166.0000000005,9.96403
1492515070,-146.8000000005,9.54968
1492515072,-178.0000000005,10.2192
1492515074,-209.2000000005,7.09313
1492515076,-211.6000000005,6.72731
1492515078,-209.2000000005,9.79869
1492515080,-173.2000000005,9.44312
1492515082,-178.0000000005,10.3346
1492515084,-180.4000000005,9.42218
1492515086,-204.4000000005,7.76182
1492515088,-214.0000000005,10.159
1492515090,-161.2000000005,9.6796
1492515092,-214.0000000005,9.46849
1492515094,-110.8000000005,9.72761
1492515096,-235.6000000005,7.06532
1492515098,-194.8000000005,10.3778
1492515100,-211.6000000005,10.2624
1492515102,-206.8000000005,9.38241
1492515104,-228.4000000005,11.5507
1492515106,-194.8000000005,9.09669
1492515108,-211.6000000005,9.04983
1492515110,-252.4000000005,8.44735
1492515112,-202.0000000005,8.92985
1492515114,-235.6000000005,9.83047
1492515116,-271.6000000005,7.85803
1492515118,-238.0000000005,8.50173
1492515120,-202.0000000005,6.49144
1492515122,-302.8000000005,8.19958
1492515124,-192.4000000005,8.82229
1492515126,-238.0000000005,9.27772
1492515128,-218.8000000005,8.92613
1492515130,-209.2000000005,12.0906
1492515132,-206.8000000005,11.1716
1492515134,-254.8000000005,11.6487
1492515136,-230.8000000005,10.3626
1492515138,-216.4000000005,8.21236
1492515140,-218.8000000005,8.10415
1492515142,-214.0000000005,11.048
1492515144,-185.2000000005,8.57377
1492515146,-216.4000000005,9.39076
1492515148,-214.0000000005,10.2002
1492515150,-228.4000000005,9.69785
1492515152,-216.4000000005,10.8551
1492515154,-245.2000000005,11.1335
1492515156,-214.0000000005,11.0841
1492515158,-206.8000000005,9.85935
1492515160,-209.2000000005,7.89448
1492515162,-238.0000000005,6.78501
1492515164,-228.4000000005,8.20799
1492515166,-139.6000000005,8.48354
1492515168,-228.4000000005,9.06762
1492515170,-173.2000000005,9.61716
1492515172,-199.6000000005,12.3772
1492515174,-252.4000000005,9.79469
1492515176,-168.4000000005,8.38432
1492515178,-197.2000000005,10.28
1492515180,-197.2000000005,10.1085
1492515182,-274.0000000005,8.83297
1492515184,-233.2000000005,10.2415
1492515186,-175.6000000005,12.2536
1492515188,-221.2000000005,12.2036
1492515190,-209.2000000005,9.25844
1492515192,-214.0000000005,9.57605
1492515194,-226.0000000005,9.57359
1492515196,-194.8000000005,10.6567
1492515198,-216.4000000005,9.46047
1492515200,-221.2000000005,11.255
1492515202,-221.2000000005,10.002
1492515204,-230.8000000005,10.7133
1492515206,-235.6000000005,8.51323
1492515208,-278.8000000005,7.78039
1492515210,-214.0000000005,8.92057
1492515212,-194.8000000005,9.32306
1492515214,-230.8000000005,8.05436
1492515216,-214.0000000005,9.06634
1492515218,-214.0000000005,7.57143
1492515220,-218.8000000005,9.08915
1492515222,-161.2000000005,9.45477
1492515224,-173.2000000005,10.3645
1492515226,-214.0000000005,9.35542
1492515228,-228.4000000005,7.44469
1492515230,-228.4000000005,7.60429
1492515232,-221.2000000005,7.9069
1492515234,-209.2000000005,9.43553
1492515236,-161.2000000005,8.98275
1492515238,-192.4000000005,9.83079
1492515240,-173.2000000005,9.32302
1492515242,-199.6000000005,10.0897
1492515244,-161.2000000005,8.38247
1492515246,-180.4000000005,10.1527
1492515248,-187.6000000005,11.6661
1492515250,-230.8000000005,9.31475
1492515252,-175.6000000005,8.1074
1492515254,-199.6000000005,10.6378
1492515256,-149.2000000005,9.82044
1492515258,-216.4000000005,7.25888
1492515260,-173.2000000005,2.61604
