/work/sebastian/1009787-light/run1009787-light.h5  tag-1496831504// -17to-17fs
/work/sebastian/1009787-light/run1009787-light.h5  tag-1496831520// -17to-17fs
/work/sebastian/1009787-light/run1009787-light.h5  tag-1496831438// -17to-17fs
/work/sebastian/1009787-light/run1009787-light.h5  tag-1496831464// -17to-17fs
/work/sebastian/1009795-light/run1009795-light.h5  tag-1496877530// -17to-17fs
/work/sebastian/1009787-light/run1009787-light.h5  tag-1496831394// -17to-17fs
/work/sebastian/1009787-light/run1009787-light.h5  tag-1496831426// -17to-17fs
/work/sebastian/1009802-light/run1009802-light.h5  tag-1496909198// -17to-17fs
/work/sebastian/1009775-light/run1009775-light.h5  tag-1496776078// -17to-17fs
/work/sebastian/1009795-light/run1009795-light.h5  tag-1496877870// -17to-17fs
/work/sebastian/1009775-light/run1009775-light.h5  tag-1496776058// -17to-17fs
/work/sebastian/1009787-light/run1009787-light.h5  tag-1496831508// -17to-17fs
/work/sebastian/1009775-light/run1009775-light.h5  tag-1496776052// -17to-17fs
/work/sebastian/1009787-light/run1009787-light.h5  tag-1496831476// -17to-17fs
/work/sebastian/1009795-light/run1009795-light.h5  tag-1496877544// -17to-17fs
/work/sebastian/1009795-light/run1009795-light.h5  tag-1496877810// -17to-17fs
/work/sebastian/1009802-light/run1009802-light.h5  tag-1496908948// -17to-17fs
/work/sebastian/1009775-light/run1009775-light.h5  tag-1496775920// -17to-17fs
/work/sebastian/1009778-light/run1009778-light.h5  tag-1496792798// -17to-17fs
/work/sebastian/1009774-light/run1009774-light.h5  tag-1496771586// -17to-17fs
/work/sebastian/1009787-light/run1009787-light.h5  tag-1496831522// -17to-17fs
/work/sebastian/1009802-light/run1009802-light.h5  tag-1496909300// -17to-17fs
/work/sebastian/1009783-light/run1009783-light.h5  tag-1496814536// -17to-17fs
/work/sebastian/1009787-light/run1009787-light.h5  tag-1496831466// -17to-17fs
/work/sebastian/1009802-light/run1009802-light.h5  tag-1496908998// -17to-17fs
/work/sebastian/1009802-light/run1009802-light.h5  tag-1496908950// -17to-17fs
/work/sebastian/1009781-light/run1009781-light.h5  tag-1496803856// -17to-17fs
/work/sebastian/1009787-light/run1009787-light.h5  tag-1496831486// -17to-17fs
/work/sebastian/1009795-light/run1009795-light.h5  tag-1496877434// -17to-17fs
/work/sebastian/1009787-light/run1009787-light.h5  tag-1496831436// -17to-17fs
/work/sebastian/1009802-light/run1009802-light.h5  tag-1496908966// -17to-17fs
/work/sebastian/1009787-light/run1009787-light.h5  tag-1496830902// -17to-17fs
/work/sebastian/1009802-light/run1009802-light.h5  tag-1496909030// -17to-17fs
/work/sebastian/1009802-light/run1009802-light.h5  tag-1496909314// -17to-17fs
/work/sebastian/1009775-light/run1009775-light.h5  tag-1496775852// -17to-17fs
/work/sebastian/1009787-light/run1009787-light.h5  tag-1496830860// -17to-17fs
/work/sebastian/1009787-light/run1009787-light.h5  tag-1496830944// -17to-17fs
/work/sebastian/1009787-light/run1009787-light.h5  tag-1496831554// -17to-17fs
/work/sebastian/1009787-light/run1009787-light.h5  tag-1496831606// -17to-17fs
/work/sebastian/1009783-light/run1009783-light.h5  tag-1496814528// -17to-17fs
/work/sebastian/1009787-light/run1009787-light.h5  tag-1496830910// -17to-17fs
/work/sebastian/1009787-light/run1009787-light.h5  tag-1496831310// -17to-17fs
/work/sebastian/1009774-light/run1009774-light.h5  tag-1496771590// -17to-17fs
/work/sebastian/1009787-light/run1009787-light.h5  tag-1496830842// -17to-17fs
/work/sebastian/1009796-light/run1009796-light.h5  tag-1496882512// -17to-17fs
/work/sebastian/1009802-light/run1009802-light.h5  tag-1496909252// -17to-17fs
/work/sebastian/1009802-light/run1009802-light.h5  tag-1496909320// -17to-17fs
/work/sebastian/1009787-light/run1009787-light.h5  tag-1496830844// -17to-17fs
/work/sebastian/1009787-light/run1009787-light.h5  tag-1496830854// -17to-17fs
/work/sebastian/1009795-light/run1009795-light.h5  tag-1496877462// -17to-17fs
/work/sebastian/1009795-light/run1009795-light.h5  tag-1496877916// -17to-17fs
/work/sebastian/1009802-light/run1009802-light.h5  tag-1496909302// -17to-17fs
/work/sebastian/1009774-light/run1009774-light.h5  tag-1496771526// -17to-17fs
/work/sebastian/1009782-light/run1009782-light.h5  tag-1496809208// -17to-17fs
/work/sebastian/1009783-light/run1009783-light.h5  tag-1496814434// -17to-17fs
/work/sebastian/1009783-light/run1009783-light.h5  tag-1496815222// -17to-17fs
/work/sebastian/1009802-light/run1009802-light.h5  tag-1496908970// -17to-17fs
/work/sebastian/1009781-light/run1009781-light.h5  tag-1496804148// -17to-17fs
/work/sebastian/1009787-light/run1009787-light.h5  tag-1496830826// -17to-17fs
/work/sebastian/1009787-light/run1009787-light.h5  tag-1496830812// -17to-17fs
/work/sebastian/1009787-light/run1009787-light.h5  tag-1496831490// -17to-17fs
/work/sebastian/1009787-light/run1009787-light.h5  tag-1496831592// -17to-17fs
/work/sebastian/1009795-light/run1009795-light.h5  tag-1496877516// -17to-17fs
/work/sebastian/1009802-light/run1009802-light.h5  tag-1496909044// -17to-17fs
/work/sebastian/1009802-light/run1009802-light.h5  tag-1496909244// -17to-17fs
/work/sebastian/1009787-light/run1009787-light.h5  tag-1496830840// -17to-17fs
/work/sebastian/1009787-light/run1009787-light.h5  tag-1496831474// -17to-17fs
/work/sebastian/1009795-light/run1009795-light.h5  tag-1496877818// -17to-17fs
/work/sebastian/1009796-light/run1009796-light.h5  tag-1496882444// -17to-17fs
/work/sebastian/1009796-light/run1009796-light.h5  tag-1496882530// -17to-17fs
/work/sebastian/1009802-light/run1009802-light.h5  tag-1496909162// -17to-17fs
/work/sebastian/1009775-light/run1009775-light.h5  tag-1496775912// -17to-17fs
/work/sebastian/1009795-light/run1009795-light.h5  tag-1496877510// -17to-17fs
/work/sebastian/1009795-light/run1009795-light.h5  tag-1496877862// -17to-17fs
/work/sebastian/1009796-light/run1009796-light.h5  tag-1496882634// -17to-17fs
/work/sebastian/1009802-light/run1009802-light.h5  tag-1496909264// -17to-17fs
/work/sebastian/1009774-light/run1009774-light.h5  tag-1496771518// -17to-17fs
/work/sebastian/1009775-light/run1009775-light.h5  tag-1496776042// -17to-17fs
/work/sebastian/1009783-light/run1009783-light.h5  tag-1496812926// -17to-17fs
/work/sebastian/1009783-light/run1009783-light.h5  tag-1496813014// -17to-17fs
/work/sebastian/1009786-light/run1009786-light.h5  tag-1496826078// -17to-17fs
/work/sebastian/1009787-light/run1009787-light.h5  tag-1496831400// -17to-17fs
/work/sebastian/1009787-light/run1009787-light.h5  tag-1496831548// -17to-17fs
/work/sebastian/1009795-light/run1009795-light.h5  tag-1496877490// -17to-17fs
/work/sebastian/1009795-light/run1009795-light.h5  tag-1496877476// -17to-17fs
/work/sebastian/1009795-light/run1009795-light.h5  tag-1496877560// -17to-17fs
/work/sebastian/1009795-light/run1009795-light.h5  tag-1496877786// -17to-17fs
/work/sebastian/1009795-light/run1009795-light.h5  tag-1496877918// -17to-17fs
/work/sebastian/1009802-light/run1009802-light.h5  tag-1496908986// -17to-17fs
/work/sebastian/1009774-light/run1009774-light.h5  tag-1496771096// -17to-17fs
/work/sebastian/1009774-light/run1009774-light.h5  tag-1496771628// -17to-17fs
/work/sebastian/1009775-light/run1009775-light.h5  tag-1496775878// -17to-17fs
/work/sebastian/1009783-light/run1009783-light.h5  tag-1496814516// -17to-17fs
/work/sebastian/1009787-light/run1009787-light.h5  tag-1496830882// -17to-17fs
/work/sebastian/1009787-light/run1009787-light.h5  tag-1496830928// -17to-17fs
/work/sebastian/1009787-light/run1009787-light.h5  tag-1496831388// -17to-17fs
/work/sebastian/1009787-light/run1009787-light.h5  tag-1496831478// -17to-17fs
/work/sebastian/1009787-light/run1009787-light.h5  tag-1496831558// -17to-17fs
/work/sebastian/1009787-light/run1009787-light.h5  tag-1496831560// -17to-17fs
/work/sebastian/1009787-light/run1009787-light.h5  tag-1496831588// -17to-17fs
/work/sebastian/1009795-light/run1009795-light.h5  tag-1496877498// -17to-17fs
/work/sebastian/1009795-light/run1009795-light.h5  tag-1496877514// -17to-17fs
/work/sebastian/1009795-light/run1009795-light.h5  tag-1496877932// -17to-17fs
/work/sebastian/1009802-light/run1009802-light.h5  tag-1496908940// -17to-17fs
/work/sebastian/1009802-light/run1009802-light.h5  tag-1496909010// -17to-17fs
/work/sebastian/1009774-light/run1009774-light.h5  tag-1496771452// -17to-17fs
/work/sebastian/1009775-light/run1009775-light.h5  tag-1496775704// -17to-17fs
/work/sebastian/1009775-light/run1009775-light.h5  tag-1496775666// -17to-17fs
/work/sebastian/1009775-light/run1009775-light.h5  tag-1496775744// -17to-17fs
/work/sebastian/1009775-light/run1009775-light.h5  tag-1496775748// -17to-17fs
/work/sebastian/1009775-light/run1009775-light.h5  tag-1496775854// -17to-17fs
/work/sebastian/1009775-light/run1009775-light.h5  tag-1496775794// -17to-17fs
/work/sebastian/1009779-light/run1009779-light.h5  tag-1496793984// -17to-17fs
/work/sebastian/1009783-light/run1009783-light.h5  tag-1496814250// -17to-17fs
/work/sebastian/1009783-light/run1009783-light.h5  tag-1496815220// -17to-17fs
/work/sebastian/1009786-light/run1009786-light.h5  tag-1496826862// -17to-17fs
/work/sebastian/1009787-light/run1009787-light.h5  tag-1496830836// -17to-17fs
/work/sebastian/1009787-light/run1009787-light.h5  tag-1496830858// -17to-17fs
/work/sebastian/1009787-light/run1009787-light.h5  tag-1496831480// -17to-17fs
/work/sebastian/1009787-light/run1009787-light.h5  tag-1496831462// -17to-17fs
/work/sebastian/1009795-light/run1009795-light.h5  tag-1496877788// -17to-17fs
/work/sebastian/1009795-light/run1009795-light.h5  tag-1496877792// -17to-17fs
/work/sebastian/1009796-light/run1009796-light.h5  tag-1496882408// -17to-17fs
/work/sebastian/1009802-light/run1009802-light.h5  tag-1496908980// -17to-17fs
/work/sebastian/1009802-light/run1009802-light.h5  tag-1496909336// -17to-17fs
/work/sebastian/1009802-light/run1009802-light.h5  tag-1496909382// -17to-17fs
/work/sebastian/1009802-light/run1009802-light.h5  tag-1496909434// -17to-17fs
/work/sebastian/1009775-light/run1009775-light.h5  tag-1496775884// -17to-17fs
/work/sebastian/1009775-light/run1009775-light.h5  tag-1496775896// -17to-17fs
/work/sebastian/1009778-light/run1009778-light.h5  tag-1496792808// -17to-17fs
/work/sebastian/1009781-light/run1009781-light.h5  tag-1496804170// -17to-17fs
/work/sebastian/1009784-light/run1009784-light.h5  tag-1496819242// -17to-17fs
/work/sebastian/1009784-light/run1009784-light.h5  tag-1496819328// -17to-17fs
/work/sebastian/1009786-light/run1009786-light.h5  tag-1496825822// -17to-17fs
/work/sebastian/1009786-light/run1009786-light.h5  tag-1496826122// -17to-17fs
/work/sebastian/1009787-light/run1009787-light.h5  tag-1496830824// -17to-17fs
/work/sebastian/1009787-light/run1009787-light.h5  tag-1496830918// -17to-17fs
/work/sebastian/1009787-light/run1009787-light.h5  tag-1496831396// -17to-17fs
/work/sebastian/1009790-light/run1009790-light.h5  tag-1496845178// -17to-17fs
/work/sebastian/1009795-light/run1009795-light.h5  tag-1496877794// -17to-17fs
/work/sebastian/1009775-light/run1009775-light.h5  tag-1496775840// -17to-17fs
/work/sebastian/1009775-light/run1009775-light.h5  tag-1496775868// -17to-17fs
/work/sebastian/1009775-light/run1009775-light.h5  tag-1496776002// -17to-17fs
/work/sebastian/1009783-light/run1009783-light.h5  tag-1496814344// -17to-17fs
/work/sebastian/1009783-light/run1009783-light.h5  tag-1496814416// -17to-17fs
/work/sebastian/1009787-light/run1009787-light.h5  tag-1496830874// -17to-17fs
/work/sebastian/1009787-light/run1009787-light.h5  tag-1496830906// -17to-17fs
/work/sebastian/1009787-light/run1009787-light.h5  tag-1496830926// -17to-17fs
/work/sebastian/1009787-light/run1009787-light.h5  tag-1496831178// -17to-17fs
/work/sebastian/1009787-light/run1009787-light.h5  tag-1496831366// -17to-17fs
/work/sebastian/1009795-light/run1009795-light.h5  tag-1496877696// -17to-17fs
/work/sebastian/1009795-light/run1009795-light.h5  tag-1496877776// -17to-17fs
/work/sebastian/1009795-light/run1009795-light.h5  tag-1496877800// -17to-17fs
/work/sebastian/1009795-light/run1009795-light.h5  tag-1496877824// -17to-17fs
/work/sebastian/1009795-light/run1009795-light.h5  tag-1496877972// -17to-17fs
/work/sebastian/1009796-light/run1009796-light.h5  tag-1496882322// -17to-17fs
/work/sebastian/1009802-light/run1009802-light.h5  tag-1496909000// -17to-17fs
/work/sebastian/1009774-light/run1009774-light.h5  tag-1496771022// -17to-17fs
/work/sebastian/1009774-light/run1009774-light.h5  tag-1496771746// -17to-17fs
/work/sebastian/1009775-light/run1009775-light.h5  tag-1496775702// -17to-17fs
/work/sebastian/1009775-light/run1009775-light.h5  tag-1496775898// -17to-17fs
/work/sebastian/1009775-light/run1009775-light.h5  tag-1496776102// -17to-17fs
/work/sebastian/1009779-light/run1009779-light.h5  tag-1496797088// -17to-17fs
/work/sebastian/1009781-light/run1009781-light.h5  tag-1496804058// -17to-17fs
/work/sebastian/1009781-light/run1009781-light.h5  tag-1496804172// -17to-17fs
/work/sebastian/1009782-light/run1009782-light.h5  tag-1496809202// -17to-17fs
/work/sebastian/1009783-light/run1009783-light.h5  tag-1496812940// -17to-17fs
/work/sebastian/1009783-light/run1009783-light.h5  tag-1496813000// -17to-17fs
/work/sebastian/1009783-light/run1009783-light.h5  tag-1496814432// -17to-17fs
/work/sebastian/1009784-light/run1009784-light.h5  tag-1496819354// -17to-17fs
/work/sebastian/1009784-light/run1009784-light.h5  tag-1496819696// -17to-17fs
/work/sebastian/1009784-light/run1009784-light.h5  tag-1496819762// -17to-17fs
/work/sebastian/1009786-light/run1009786-light.h5  tag-1496825810// -17to-17fs
/work/sebastian/1009786-light/run1009786-light.h5  tag-1496825874// -17to-17fs
/work/sebastian/1009787-light/run1009787-light.h5  tag-1496830888// -17to-17fs
/work/sebastian/1009787-light/run1009787-light.h5  tag-1496831060// -17to-17fs
/work/sebastian/1009787-light/run1009787-light.h5  tag-1496831328// -17to-17fs
/work/sebastian/1009787-light/run1009787-light.h5  tag-1496831398// -17to-17fs
/work/sebastian/1009795-light/run1009795-light.h5  tag-1496877756// -17to-17fs
/work/sebastian/1009795-light/run1009795-light.h5  tag-1496877858// -17to-17fs
/work/sebastian/1009795-light/run1009795-light.h5  tag-1496877894// -17to-17fs
/work/sebastian/1009796-light/run1009796-light.h5  tag-1496882340// -17to-17fs
/work/sebastian/1009774-light/run1009774-light.h5  tag-1496771060// -17to-17fs
/work/sebastian/1009774-light/run1009774-light.h5  tag-1496771726// -17to-17fs
/work/sebastian/1009775-light/run1009775-light.h5  tag-1496775998// -17to-17fs
/work/sebastian/1009778-light/run1009778-light.h5  tag-1496792792// -17to-17fs
/work/sebastian/1009779-light/run1009779-light.h5  tag-1496794014// -17to-17fs
/work/sebastian/1009781-light/run1009781-light.h5  tag-1496804128// -17to-17fs
/work/sebastian/1009783-light/run1009783-light.h5  tag-1496812906// -17to-17fs
/work/sebastian/1009783-light/run1009783-light.h5  tag-1496814168// -17to-17fs
/work/sebastian/1009783-light/run1009783-light.h5  tag-1496814316// -17to-17fs
/work/sebastian/1009783-light/run1009783-light.h5  tag-1496814530// -17to-17fs
/work/sebastian/1009786-light/run1009786-light.h5  tag-1496825906// -17to-17fs
/work/sebastian/1009786-light/run1009786-light.h5  tag-1496826064// -17to-17fs
/work/sebastian/1009786-light/run1009786-light.h5  tag-1496826160// -17to-17fs
/work/sebastian/1009787-light/run1009787-light.h5  tag-1496830832// -17to-17fs
/work/sebastian/1009787-light/run1009787-light.h5  tag-1496830898// -17to-17fs
/work/sebastian/1009787-light/run1009787-light.h5  tag-1496830924// -17to-17fs
/work/sebastian/1009787-light/run1009787-light.h5  tag-1496830930// -17to-17fs
/work/sebastian/1009787-light/run1009787-light.h5  tag-1496831288// -17to-17fs
/work/sebastian/1009787-light/run1009787-light.h5  tag-1496831372// -17to-17fs
/work/sebastian/1009795-light/run1009795-light.h5  tag-1496877424// -17to-17fs
/work/sebastian/1009795-light/run1009795-light.h5  tag-1496877486// -17to-17fs
/work/sebastian/1009795-light/run1009795-light.h5  tag-1496877796// -17to-17fs
/work/sebastian/1009795-light/run1009795-light.h5  tag-1496877840// -17to-17fs
/work/sebastian/1009796-light/run1009796-light.h5  tag-1496882510// -17to-17fs
/work/sebastian/1009796-light/run1009796-light.h5  tag-1496882496// -17to-17fs
/work/sebastian/1009796-light/run1009796-light.h5  tag-1496882588// -17to-17fs
/work/sebastian/1009802-light/run1009802-light.h5  tag-1496908988// -17to-17fs
/work/sebastian/1009802-light/run1009802-light.h5  tag-1496909052// -17to-17fs
/work/sebastian/1009802-light/run1009802-light.h5  tag-1496909078// -17to-17fs
/work/sebastian/1009802-light/run1009802-light.h5  tag-1496909048// -17to-17fs
/work/sebastian/1009802-light/run1009802-light.h5  tag-1496909168// -17to-17fs
/work/sebastian/1009774-light/run1009774-light.h5  tag-1496771770// -17to-17fs
/work/sebastian/1009775-light/run1009775-light.h5  tag-1496775750// -17to-17fs
/work/sebastian/1009775-light/run1009775-light.h5  tag-1496775836// -17to-17fs
/work/sebastian/1009779-light/run1009779-light.h5  tag-1496793842// -17to-17fs
/work/sebastian/1009779-light/run1009779-light.h5  tag-1496793968// -17to-17fs
/work/sebastian/1009779-light/run1009779-light.h5  tag-1496796792// -17to-17fs
/work/sebastian/1009781-light/run1009781-light.h5  tag-1496803806// -17to-17fs
/work/sebastian/1009781-light/run1009781-light.h5  tag-1496803902// -17to-17fs
/work/sebastian/1009781-light/run1009781-light.h5  tag-1496804118// -17to-17fs
/work/sebastian/1009781-light/run1009781-light.h5  tag-1496804132// -17to-17fs
/work/sebastian/1009783-light/run1009783-light.h5  tag-1496813934// -17to-17fs
/work/sebastian/1009783-light/run1009783-light.h5  tag-1496814524// -17to-17fs
/work/sebastian/1009783-light/run1009783-light.h5  tag-1496814538// -17to-17fs
/work/sebastian/1009783-light/run1009783-light.h5  tag-1496814460// -17to-17fs
/work/sebastian/1009783-light/run1009783-light.h5  tag-1496815196// -17to-17fs
/work/sebastian/1009784-light/run1009784-light.h5  tag-1496819434// -17to-17fs
/work/sebastian/1009786-light/run1009786-light.h5  tag-1496825838// -17to-17fs
/work/sebastian/1009786-light/run1009786-light.h5  tag-1496825924// -17to-17fs
/work/sebastian/1009786-light/run1009786-light.h5  tag-1496825980// -17to-17fs
/work/sebastian/1009787-light/run1009787-light.h5  tag-1496831324// -17to-17fs
/work/sebastian/1009787-light/run1009787-light.h5  tag-1496831450// -17to-17fs
/work/sebastian/1009787-light/run1009787-light.h5  tag-1496831510// -17to-17fs
/work/sebastian/1009787-light/run1009787-light.h5  tag-1496831538// -17to-17fs
/work/sebastian/1009787-light/run1009787-light.h5  tag-1496831532// -17to-17fs
/work/sebastian/1009787-light/run1009787-light.h5  tag-1496831590// -17to-17fs
/work/sebastian/1009787-light/run1009787-light.h5  tag-1496831604// -17to-17fs
/work/sebastian/1009795-light/run1009795-light.h5  tag-1496877504// -17to-17fs
/work/sebastian/1009795-light/run1009795-light.h5  tag-1496877732// -17to-17fs
/work/sebastian/1009795-light/run1009795-light.h5  tag-1496877896// -17to-17fs
/work/sebastian/1009796-light/run1009796-light.h5  tag-1496881780// -17to-17fs
/work/sebastian/1009802-light/run1009802-light.h5  tag-1496909028// -17to-17fs
/work/sebastian/1009802-light/run1009802-light.h5  tag-1496909348// -17to-17fs
/work/sebastian/1009802-light/run1009802-light.h5  tag-1496909426// -17to-17fs
/work/sebastian/1009775-light/run1009775-light.h5  tag-1496775548// -17to-17fs
/work/sebastian/1009775-light/run1009775-light.h5  tag-1496775834// -17to-17fs
/work/sebastian/1009775-light/run1009775-light.h5  tag-1496775982// -17to-17fs
/work/sebastian/1009775-light/run1009775-light.h5  tag-1496776022// -17to-17fs
/work/sebastian/1009779-light/run1009779-light.h5  tag-1496793896// -17to-17fs
/work/sebastian/1009779-light/run1009779-light.h5  tag-1496793980// -17to-17fs
/work/sebastian/1009779-light/run1009779-light.h5  tag-1496797132// -17to-17fs
/work/sebastian/1009781-light/run1009781-light.h5  tag-1496803832// -17to-17fs
/work/sebastian/1009781-light/run1009781-light.h5  tag-1496803870// -17to-17fs
/work/sebastian/1009781-light/run1009781-light.h5  tag-1496803872// -17to-17fs
/work/sebastian/1009782-light/run1009782-light.h5  tag-1496809232// -17to-17fs
/work/sebastian/1009782-light/run1009782-light.h5  tag-1496809264// -17to-17fs
/work/sebastian/1009782-light/run1009782-light.h5  tag-1496809246// -17to-17fs
/work/sebastian/1009782-light/run1009782-light.h5  tag-1496809284// -17to-17fs
/work/sebastian/1009782-light/run1009782-light.h5  tag-1496809338// -17to-17fs
/work/sebastian/1009783-light/run1009783-light.h5  tag-1496814038// -17to-17fs
/work/sebastian/1009783-light/run1009783-light.h5  tag-1496814106// -17to-17fs
/work/sebastian/1009783-light/run1009783-light.h5  tag-1496814490// -17to-17fs
/work/sebastian/1009783-light/run1009783-light.h5  tag-1496814534// -17to-17fs
/work/sebastian/1009783-light/run1009783-light.h5  tag-1496814788// -17to-17fs
/work/sebastian/1009783-light/run1009783-light.h5  tag-1496815200// -17to-17fs
/work/sebastian/1009784-light/run1009784-light.h5  tag-1496819386// -17to-17fs
/work/sebastian/1009784-light/run1009784-light.h5  tag-1496819752// -17to-17fs
/work/sebastian/1009786-light/run1009786-light.h5  tag-1496826028// -17to-17fs
/work/sebastian/1009787-light/run1009787-light.h5  tag-1496830818// -17to-17fs
/work/sebastian/1009787-light/run1009787-light.h5  tag-1496831550// -17to-17fs
/work/sebastian/1009795-light/run1009795-light.h5  tag-1496877562// -17to-17fs
/work/sebastian/1009795-light/run1009795-light.h5  tag-1496877638// -17to-17fs
/work/sebastian/1009795-light/run1009795-light.h5  tag-1496877720// -17to-17fs
/work/sebastian/1009795-light/run1009795-light.h5  tag-1496877760// -17to-17fs
/work/sebastian/1009795-light/run1009795-light.h5  tag-1496877820// -17to-17fs
/work/sebastian/1009795-light/run1009795-light.h5  tag-1496877830// -17to-17fs
/work/sebastian/1009795-light/run1009795-light.h5  tag-1496877946// -17to-17fs
/work/sebastian/1009796-light/run1009796-light.h5  tag-1496881546// -17to-17fs
/work/sebastian/1009796-light/run1009796-light.h5  tag-1496882506// -17to-17fs
/work/sebastian/1009796-light/run1009796-light.h5  tag-1496882552// -17to-17fs
/work/sebastian/1009799-light/run1009799-light.h5  tag-1496896182// -17to-17fs
/work/sebastian/1009802-light/run1009802-light.h5  tag-1496909008// -17to-17fs
/work/sebastian/1009802-light/run1009802-light.h5  tag-1496909016// -17to-17fs
/work/sebastian/1009802-light/run1009802-light.h5  tag-1496909276// -17to-17fs
/work/sebastian/1009802-light/run1009802-light.h5  tag-1496909298// -17to-17fs
/work/sebastian/1009802-light/run1009802-light.h5  tag-1496909368// -17to-17fs
/work/sebastian/1009802-light/run1009802-light.h5  tag-1496909432// -17to-17fs
/work/sebastian/1009774-light/run1009774-light.h5  tag-1496770996// -17to-17fs
/work/sebastian/1009774-light/run1009774-light.h5  tag-1496771024// -17to-17fs
/work/sebastian/1009774-light/run1009774-light.h5  tag-1496771402// -17to-17fs
/work/sebastian/1009774-light/run1009774-light.h5  tag-1496771398// -17to-17fs
/work/sebastian/1009774-light/run1009774-light.h5  tag-1496771754// -17to-17fs
/work/sebastian/1009775-light/run1009775-light.h5  tag-1496775876// -17to-17fs
/work/sebastian/1009775-light/run1009775-light.h5  tag-1496775926// -17to-17fs
/work/sebastian/1009775-light/run1009775-light.h5  tag-1496775944// -17to-17fs
/work/sebastian/1009779-light/run1009779-light.h5  tag-1496793826// -17to-17fs
/work/sebastian/1009779-light/run1009779-light.h5  tag-1496793940// -17to-17fs
/work/sebastian/1009779-light/run1009779-light.h5  tag-1496794084// -17to-17fs
/work/sebastian/1009779-light/run1009779-light.h5  tag-1496797274// -17to-17fs
/work/sebastian/1009781-light/run1009781-light.h5  tag-1496803842// -17to-17fs
/work/sebastian/1009781-light/run1009781-light.h5  tag-1496803886// -17to-17fs
/work/sebastian/1009782-light/run1009782-light.h5  tag-1496809416// -17to-17fs
/work/sebastian/1009783-light/run1009783-light.h5  tag-1496813980// -17to-17fs
/work/sebastian/1009783-light/run1009783-light.h5  tag-1496814396// -17to-17fs
/work/sebastian/1009783-light/run1009783-light.h5  tag-1496815234// -17to-17fs
/work/sebastian/1009784-light/run1009784-light.h5  tag-1496819198// -17to-17fs
/work/sebastian/1009784-light/run1009784-light.h5  tag-1496819412// -17to-17fs
/work/sebastian/1009784-light/run1009784-light.h5  tag-1496819446// -17to-17fs
/work/sebastian/1009786-light/run1009786-light.h5  tag-1496825846// -17to-17fs
/work/sebastian/1009786-light/run1009786-light.h5  tag-1496825798// -17to-17fs
/work/sebastian/1009786-light/run1009786-light.h5  tag-1496825870// -17to-17fs
/work/sebastian/1009786-light/run1009786-light.h5  tag-1496826034// -17to-17fs
/work/sebastian/1009787-light/run1009787-light.h5  tag-1496831224// -17to-17fs
/work/sebastian/1009787-light/run1009787-light.h5  tag-1496831240// -17to-17fs
/work/sebastian/1009787-light/run1009787-light.h5  tag-1496831236// -17to-17fs
/work/sebastian/1009787-light/run1009787-light.h5  tag-1496831410// -17to-17fs
/work/sebastian/1009787-light/run1009787-light.h5  tag-1496831422// -17to-17fs
/work/sebastian/1009787-light/run1009787-light.h5  tag-1496831616// -17to-17fs
/work/sebastian/1009787-light/run1009787-light.h5  tag-1496831674// -17to-17fs
/work/sebastian/1009795-light/run1009795-light.h5  tag-1496877374// -17to-17fs
/work/sebastian/1009795-light/run1009795-light.h5  tag-1496877448// -17to-17fs
/work/sebastian/1009795-light/run1009795-light.h5  tag-1496877494// -17to-17fs
/work/sebastian/1009795-light/run1009795-light.h5  tag-1496877472// -17to-17fs
/work/sebastian/1009795-light/run1009795-light.h5  tag-1496877606// -17to-17fs
/work/sebastian/1009795-light/run1009795-light.h5  tag-1496877616// -17to-17fs
/work/sebastian/1009795-light/run1009795-light.h5  tag-1496877702// -17to-17fs
/work/sebastian/1009795-light/run1009795-light.h5  tag-1496877750// -17to-17fs
/work/sebastian/1009795-light/run1009795-light.h5  tag-1496877762// -17to-17fs
/work/sebastian/1009795-light/run1009795-light.h5  tag-1496877790// -17to-17fs
/work/sebastian/1009795-light/run1009795-light.h5  tag-1496877860// -17to-17fs
/work/sebastian/1009796-light/run1009796-light.h5  tag-1496882468// -17to-17fs
/work/sebastian/1009796-light/run1009796-light.h5  tag-1496882508// -17to-17fs
/work/sebastian/1009796-light/run1009796-light.h5  tag-1496882544// -17to-17fs
/work/sebastian/1009802-light/run1009802-light.h5  tag-1496908916// -17to-17fs
/work/sebastian/1009802-light/run1009802-light.h5  tag-1496909050// -17to-17fs
/work/sebastian/1009802-light/run1009802-light.h5  tag-1496909032// -17to-17fs
/work/sebastian/1009802-light/run1009802-light.h5  tag-1496909220// -17to-17fs
/work/sebastian/1009802-light/run1009802-light.h5  tag-1496909170// -17to-17fs
/work/sebastian/1009787-light/run1009787-light.h5  tag-1496831504// -17to-17fs
/work/sebastian/1009787-light/run1009787-light.h5  tag-1496831520// -17to-17fs
/work/sebastian/1009787-light/run1009787-light.h5  tag-1496831438// -17to-17fs
/work/sebastian/1009787-light/run1009787-light.h5  tag-1496831464// -17to-17fs
/work/sebastian/1009795-light/run1009795-light.h5  tag-1496877530// -17to-17fs
/work/sebastian/1009787-light/run1009787-light.h5  tag-1496831394// -17to-17fs
/work/sebastian/1009787-light/run1009787-light.h5  tag-1496831426// -17to-17fs
/work/sebastian/1009802-light/run1009802-light.h5  tag-1496909198// -17to-17fs
/work/sebastian/1009775-light/run1009775-light.h5  tag-1496776078// -17to-17fs
/work/sebastian/1009795-light/run1009795-light.h5  tag-1496877870// -17to-17fs
/work/sebastian/1009775-light/run1009775-light.h5  tag-1496776058// -17to-17fs
/work/sebastian/1009787-light/run1009787-light.h5  tag-1496831508// -17to-17fs
/work/sebastian/1009775-light/run1009775-light.h5  tag-1496776052// -17to-17fs
/work/sebastian/1009787-light/run1009787-light.h5  tag-1496831476// -17to-17fs
/work/sebastian/1009795-light/run1009795-light.h5  tag-1496877544// -17to-17fs
/work/sebastian/1009795-light/run1009795-light.h5  tag-1496877810// -17to-17fs
/work/sebastian/1009802-light/run1009802-light.h5  tag-1496908948// -17to-17fs
/work/sebastian/1009775-light/run1009775-light.h5  tag-1496775920// -17to-17fs
/work/sebastian/1009778-light/run1009778-light.h5  tag-1496792798// -17to-17fs
/work/sebastian/1009774-light/run1009774-light.h5  tag-1496771586// -17to-17fs
/work/sebastian/1009787-light/run1009787-light.h5  tag-1496831522// -17to-17fs
/work/sebastian/1009802-light/run1009802-light.h5  tag-1496909300// -17to-17fs
/work/sebastian/1009783-light/run1009783-light.h5  tag-1496814536// -17to-17fs
/work/sebastian/1009787-light/run1009787-light.h5  tag-1496831466// -17to-17fs
/work/sebastian/1009802-light/run1009802-light.h5  tag-1496908998// -17to-17fs
/work/sebastian/1009802-light/run1009802-light.h5  tag-1496908950// -17to-17fs
/work/sebastian/1009781-light/run1009781-light.h5  tag-1496803856// -17to-17fs
/work/sebastian/1009787-light/run1009787-light.h5  tag-1496831486// -17to-17fs
/work/sebastian/1009795-light/run1009795-light.h5  tag-1496877434// -17to-17fs
/work/sebastian/1009787-light/run1009787-light.h5  tag-1496831436// -17to-17fs
/work/sebastian/1009802-light/run1009802-light.h5  tag-1496908966// -17to-17fs
/work/sebastian/1009787-light/run1009787-light.h5  tag-1496830902// -17to-17fs
/work/sebastian/1009802-light/run1009802-light.h5  tag-1496909030// -17to-17fs
/work/sebastian/1009802-light/run1009802-light.h5  tag-1496909314// -17to-17fs
/work/sebastian/1009775-light/run1009775-light.h5  tag-1496775852// -17to-17fs
/work/sebastian/1009787-light/run1009787-light.h5  tag-1496830860// -17to-17fs
/work/sebastian/1009787-light/run1009787-light.h5  tag-1496830944// -17to-17fs
/work/sebastian/1009787-light/run1009787-light.h5  tag-1496831554// -17to-17fs
/work/sebastian/1009787-light/run1009787-light.h5  tag-1496831606// -17to-17fs
/work/sebastian/1009783-light/run1009783-light.h5  tag-1496814528// -17to-17fs
/work/sebastian/1009787-light/run1009787-light.h5  tag-1496830910// -17to-17fs
/work/sebastian/1009787-light/run1009787-light.h5  tag-1496831310// -17to-17fs
/work/sebastian/1009774-light/run1009774-light.h5  tag-1496771590// -17to-17fs
/work/sebastian/1009787-light/run1009787-light.h5  tag-1496830842// -17to-17fs
/work/sebastian/1009796-light/run1009796-light.h5  tag-1496882512// -17to-17fs
/work/sebastian/1009802-light/run1009802-light.h5  tag-1496909252// -17to-17fs
/work/sebastian/1009802-light/run1009802-light.h5  tag-1496909320// -17to-17fs
/work/sebastian/1009787-light/run1009787-light.h5  tag-1496830844// -17to-17fs
/work/sebastian/1009787-light/run1009787-light.h5  tag-1496830854// -17to-17fs
/work/sebastian/1009795-light/run1009795-light.h5  tag-1496877462// -17to-17fs
/work/sebastian/1009795-light/run1009795-light.h5  tag-1496877916// -17to-17fs
/work/sebastian/1009802-light/run1009802-light.h5  tag-1496909302// -17to-17fs
/work/sebastian/1009774-light/run1009774-light.h5  tag-1496771526// -17to-17fs
/work/sebastian/1009782-light/run1009782-light.h5  tag-1496809208// -17to-17fs
/work/sebastian/1009783-light/run1009783-light.h5  tag-1496814434// -17to-17fs
/work/sebastian/1009783-light/run1009783-light.h5  tag-1496815222// -17to-17fs
/work/sebastian/1009802-light/run1009802-light.h5  tag-1496908970// -17to-17fs
/work/sebastian/1009781-light/run1009781-light.h5  tag-1496804148// -17to-17fs
/work/sebastian/1009787-light/run1009787-light.h5  tag-1496830826// -17to-17fs
/work/sebastian/1009787-light/run1009787-light.h5  tag-1496830812// -17to-17fs
/work/sebastian/1009787-light/run1009787-light.h5  tag-1496831490// -17to-17fs
/work/sebastian/1009787-light/run1009787-light.h5  tag-1496831592// -17to-17fs
/work/sebastian/1009795-light/run1009795-light.h5  tag-1496877516// -17to-17fs
/work/sebastian/1009802-light/run1009802-light.h5  tag-1496909044// -17to-17fs
/work/sebastian/1009802-light/run1009802-light.h5  tag-1496909244// -17to-17fs
/work/sebastian/1009787-light/run1009787-light.h5  tag-1496830840// -17to-17fs
/work/sebastian/1009787-light/run1009787-light.h5  tag-1496831474// -17to-17fs
/work/sebastian/1009795-light/run1009795-light.h5  tag-1496877818// -17to-17fs
/work/sebastian/1009796-light/run1009796-light.h5  tag-1496882444// -17to-17fs
/work/sebastian/1009796-light/run1009796-light.h5  tag-1496882530// -17to-17fs
/work/sebastian/1009802-light/run1009802-light.h5  tag-1496909162// -17to-17fs
/work/sebastian/1009775-light/run1009775-light.h5  tag-1496775912// -17to-17fs
/work/sebastian/1009795-light/run1009795-light.h5  tag-1496877510// -17to-17fs
/work/sebastian/1009795-light/run1009795-light.h5  tag-1496877862// -17to-17fs
/work/sebastian/1009796-light/run1009796-light.h5  tag-1496882634// -17to-17fs
/work/sebastian/1009802-light/run1009802-light.h5  tag-1496909264// -17to-17fs
/work/sebastian/1009774-light/run1009774-light.h5  tag-1496771518// -17to-17fs
/work/sebastian/1009775-light/run1009775-light.h5  tag-1496776042// -17to-17fs
/work/sebastian/1009783-light/run1009783-light.h5  tag-1496812926// -17to-17fs
/work/sebastian/1009783-light/run1009783-light.h5  tag-1496813014// -17to-17fs
/work/sebastian/1009786-light/run1009786-light.h5  tag-1496826078// -17to-17fs
/work/sebastian/1009787-light/run1009787-light.h5  tag-1496831400// -17to-17fs
/work/sebastian/1009787-light/run1009787-light.h5  tag-1496831548// -17to-17fs
/work/sebastian/1009795-light/run1009795-light.h5  tag-1496877490// -17to-17fs
/work/sebastian/1009795-light/run1009795-light.h5  tag-1496877476// -17to-17fs
/work/sebastian/1009795-light/run1009795-light.h5  tag-1496877560// -17to-17fs
/work/sebastian/1009795-light/run1009795-light.h5  tag-1496877786// -17to-17fs
/work/sebastian/1009795-light/run1009795-light.h5  tag-1496877918// -17to-17fs
/work/sebastian/1009802-light/run1009802-light.h5  tag-1496908986// -17to-17fs
/work/sebastian/1009774-light/run1009774-light.h5  tag-1496771096// -17to-17fs
/work/sebastian/1009774-light/run1009774-light.h5  tag-1496771628// -17to-17fs
/work/sebastian/1009775-light/run1009775-light.h5  tag-1496775878// -17to-17fs
/work/sebastian/1009783-light/run1009783-light.h5  tag-1496814516// -17to-17fs
/work/sebastian/1009787-light/run1009787-light.h5  tag-1496830882// -17to-17fs
/work/sebastian/1009787-light/run1009787-light.h5  tag-1496830928// -17to-17fs
/work/sebastian/1009787-light/run1009787-light.h5  tag-1496831388// -17to-17fs
/work/sebastian/1009787-light/run1009787-light.h5  tag-1496831478// -17to-17fs
/work/sebastian/1009787-light/run1009787-light.h5  tag-1496831558// -17to-17fs
/work/sebastian/1009787-light/run1009787-light.h5  tag-1496831560// -17to-17fs
/work/sebastian/1009787-light/run1009787-light.h5  tag-1496831588// -17to-17fs
/work/sebastian/1009795-light/run1009795-light.h5  tag-1496877498// -17to-17fs
/work/sebastian/1009795-light/run1009795-light.h5  tag-1496877514// -17to-17fs
/work/sebastian/1009795-light/run1009795-light.h5  tag-1496877932// -17to-17fs
/work/sebastian/1009802-light/run1009802-light.h5  tag-1496908940// -17to-17fs
/work/sebastian/1009802-light/run1009802-light.h5  tag-1496909010// -17to-17fs
/work/sebastian/1009774-light/run1009774-light.h5  tag-1496771452// -17to-17fs
/work/sebastian/1009775-light/run1009775-light.h5  tag-1496775704// -17to-17fs
/work/sebastian/1009775-light/run1009775-light.h5  tag-1496775666// -17to-17fs
/work/sebastian/1009775-light/run1009775-light.h5  tag-1496775744// -17to-17fs
/work/sebastian/1009775-light/run1009775-light.h5  tag-1496775748// -17to-17fs
/work/sebastian/1009775-light/run1009775-light.h5  tag-1496775854// -17to-17fs
/work/sebastian/1009775-light/run1009775-light.h5  tag-1496775794// -17to-17fs
/work/sebastian/1009779-light/run1009779-light.h5  tag-1496793984// -17to-17fs
/work/sebastian/1009783-light/run1009783-light.h5  tag-1496814250// -17to-17fs
/work/sebastian/1009783-light/run1009783-light.h5  tag-1496815220// -17to-17fs
/work/sebastian/1009786-light/run1009786-light.h5  tag-1496826862// -17to-17fs
/work/sebastian/1009787-light/run1009787-light.h5  tag-1496830836// -17to-17fs
/work/sebastian/1009787-light/run1009787-light.h5  tag-1496830858// -17to-17fs
/work/sebastian/1009787-light/run1009787-light.h5  tag-1496831480// -17to-17fs
/work/sebastian/1009787-light/run1009787-light.h5  tag-1496831462// -17to-17fs
/work/sebastian/1009795-light/run1009795-light.h5  tag-1496877788// -17to-17fs
/work/sebastian/1009795-light/run1009795-light.h5  tag-1496877792// -17to-17fs
/work/sebastian/1009796-light/run1009796-light.h5  tag-1496882408// -17to-17fs
/work/sebastian/1009802-light/run1009802-light.h5  tag-1496908980// -17to-17fs
/work/sebastian/1009802-light/run1009802-light.h5  tag-1496909336// -17to-17fs
/work/sebastian/1009802-light/run1009802-light.h5  tag-1496909382// -17to-17fs
/work/sebastian/1009802-light/run1009802-light.h5  tag-1496909434// -17to-17fs
/work/sebastian/1009775-light/run1009775-light.h5  tag-1496775884// -17to-17fs
/work/sebastian/1009775-light/run1009775-light.h5  tag-1496775896// -17to-17fs
/work/sebastian/1009778-light/run1009778-light.h5  tag-1496792808// -17to-17fs
/work/sebastian/1009781-light/run1009781-light.h5  tag-1496804170// -17to-17fs
/work/sebastian/1009784-light/run1009784-light.h5  tag-1496819242// -17to-17fs
/work/sebastian/1009784-light/run1009784-light.h5  tag-1496819328// -17to-17fs
/work/sebastian/1009786-light/run1009786-light.h5  tag-1496825822// -17to-17fs
/work/sebastian/1009786-light/run1009786-light.h5  tag-1496826122// -17to-17fs
/work/sebastian/1009787-light/run1009787-light.h5  tag-1496830824// -17to-17fs
/work/sebastian/1009787-light/run1009787-light.h5  tag-1496830918// -17to-17fs
/work/sebastian/1009787-light/run1009787-light.h5  tag-1496831396// -17to-17fs
/work/sebastian/1009790-light/run1009790-light.h5  tag-1496845178// -17to-17fs
/work/sebastian/1009795-light/run1009795-light.h5  tag-1496877794// -17to-17fs
/work/sebastian/1009775-light/run1009775-light.h5  tag-1496775840// -17to-17fs
/work/sebastian/1009775-light/run1009775-light.h5  tag-1496775868// -17to-17fs
/work/sebastian/1009775-light/run1009775-light.h5  tag-1496776002// -17to-17fs
/work/sebastian/1009783-light/run1009783-light.h5  tag-1496814344// -17to-17fs
/work/sebastian/1009783-light/run1009783-light.h5  tag-1496814416// -17to-17fs
/work/sebastian/1009787-light/run1009787-light.h5  tag-1496830874// -17to-17fs
/work/sebastian/1009787-light/run1009787-light.h5  tag-1496830906// -17to-17fs
/work/sebastian/1009787-light/run1009787-light.h5  tag-1496830926// -17to-17fs
/work/sebastian/1009787-light/run1009787-light.h5  tag-1496831178// -17to-17fs
/work/sebastian/1009787-light/run1009787-light.h5  tag-1496831366// -17to-17fs
/work/sebastian/1009795-light/run1009795-light.h5  tag-1496877696// -17to-17fs
/work/sebastian/1009795-light/run1009795-light.h5  tag-1496877776// -17to-17fs
/work/sebastian/1009795-light/run1009795-light.h5  tag-1496877800// -17to-17fs
/work/sebastian/1009795-light/run1009795-light.h5  tag-1496877824// -17to-17fs
/work/sebastian/1009795-light/run1009795-light.h5  tag-1496877972// -17to-17fs
/work/sebastian/1009796-light/run1009796-light.h5  tag-1496882322// -17to-17fs
/work/sebastian/1009802-light/run1009802-light.h5  tag-1496909000// -17to-17fs
/work/sebastian/1009774-light/run1009774-light.h5  tag-1496771022// -17to-17fs
/work/sebastian/1009774-light/run1009774-light.h5  tag-1496771746// -17to-17fs
/work/sebastian/1009775-light/run1009775-light.h5  tag-1496775702// -17to-17fs
/work/sebastian/1009775-light/run1009775-light.h5  tag-1496775898// -17to-17fs
/work/sebastian/1009775-light/run1009775-light.h5  tag-1496776102// -17to-17fs
/work/sebastian/1009779-light/run1009779-light.h5  tag-1496797088// -17to-17fs
/work/sebastian/1009781-light/run1009781-light.h5  tag-1496804058// -17to-17fs
/work/sebastian/1009781-light/run1009781-light.h5  tag-1496804172// -17to-17fs
/work/sebastian/1009782-light/run1009782-light.h5  tag-1496809202// -17to-17fs
/work/sebastian/1009783-light/run1009783-light.h5  tag-1496812940// -17to-17fs
/work/sebastian/1009783-light/run1009783-light.h5  tag-1496813000// -17to-17fs
/work/sebastian/1009783-light/run1009783-light.h5  tag-1496814432// -17to-17fs
/work/sebastian/1009784-light/run1009784-light.h5  tag-1496819354// -17to-17fs
/work/sebastian/1009784-light/run1009784-light.h5  tag-1496819696// -17to-17fs
/work/sebastian/1009784-light/run1009784-light.h5  tag-1496819762// -17to-17fs
/work/sebastian/1009786-light/run1009786-light.h5  tag-1496825810// -17to-17fs
/work/sebastian/1009786-light/run1009786-light.h5  tag-1496825874// -17to-17fs
/work/sebastian/1009787-light/run1009787-light.h5  tag-1496830888// -17to-17fs
/work/sebastian/1009787-light/run1009787-light.h5  tag-1496831060// -17to-17fs
/work/sebastian/1009787-light/run1009787-light.h5  tag-1496831328// -17to-17fs
/work/sebastian/1009787-light/run1009787-light.h5  tag-1496831398// -17to-17fs
/work/sebastian/1009795-light/run1009795-light.h5  tag-1496877756// -17to-17fs
/work/sebastian/1009795-light/run1009795-light.h5  tag-1496877858// -17to-17fs
/work/sebastian/1009795-light/run1009795-light.h5  tag-1496877894// -17to-17fs
/work/sebastian/1009796-light/run1009796-light.h5  tag-1496882340// -17to-17fs
/work/sebastian/1009774-light/run1009774-light.h5  tag-1496771060// -17to-17fs
/work/sebastian/1009774-light/run1009774-light.h5  tag-1496771726// -17to-17fs
/work/sebastian/1009775-light/run1009775-light.h5  tag-1496775998// -17to-17fs
/work/sebastian/1009778-light/run1009778-light.h5  tag-1496792792// -17to-17fs
/work/sebastian/1009779-light/run1009779-light.h5  tag-1496794014// -17to-17fs
/work/sebastian/1009781-light/run1009781-light.h5  tag-1496804128// -17to-17fs
/work/sebastian/1009783-light/run1009783-light.h5  tag-1496812906// -17to-17fs
/work/sebastian/1009783-light/run1009783-light.h5  tag-1496814168// -17to-17fs
/work/sebastian/1009783-light/run1009783-light.h5  tag-1496814316// -17to-17fs
/work/sebastian/1009783-light/run1009783-light.h5  tag-1496814530// -17to-17fs
/work/sebastian/1009786-light/run1009786-light.h5  tag-1496825906// -17to-17fs
/work/sebastian/1009786-light/run1009786-light.h5  tag-1496826064// -17to-17fs
/work/sebastian/1009786-light/run1009786-light.h5  tag-1496826160// -17to-17fs
/work/sebastian/1009787-light/run1009787-light.h5  tag-1496830832// -17to-17fs
/work/sebastian/1009787-light/run1009787-light.h5  tag-1496830898// -17to-17fs
/work/sebastian/1009787-light/run1009787-light.h5  tag-1496830924// -17to-17fs
/work/sebastian/1009787-light/run1009787-light.h5  tag-1496830930// -17to-17fs
/work/sebastian/1009787-light/run1009787-light.h5  tag-1496831288// -17to-17fs
/work/sebastian/1009787-light/run1009787-light.h5  tag-1496831372// -17to-17fs
/work/sebastian/1009795-light/run1009795-light.h5  tag-1496877424// -17to-17fs
/work/sebastian/1009795-light/run1009795-light.h5  tag-1496877486// -17to-17fs
/work/sebastian/1009795-light/run1009795-light.h5  tag-1496877796// -17to-17fs
/work/sebastian/1009795-light/run1009795-light.h5  tag-1496877840// -17to-17fs
/work/sebastian/1009796-light/run1009796-light.h5  tag-1496882510// -17to-17fs
/work/sebastian/1009796-light/run1009796-light.h5  tag-1496882496// -17to-17fs
/work/sebastian/1009796-light/run1009796-light.h5  tag-1496882588// -17to-17fs
/work/sebastian/1009802-light/run1009802-light.h5  tag-1496908988// -17to-17fs
/work/sebastian/1009802-light/run1009802-light.h5  tag-1496909052// -17to-17fs
/work/sebastian/1009802-light/run1009802-light.h5  tag-1496909078// -17to-17fs
/work/sebastian/1009802-light/run1009802-light.h5  tag-1496909048// -17to-17fs
/work/sebastian/1009802-light/run1009802-light.h5  tag-1496909168// -17to-17fs
/work/sebastian/1009774-light/run1009774-light.h5  tag-1496771770// -17to-17fs
/work/sebastian/1009775-light/run1009775-light.h5  tag-1496775750// -17to-17fs
/work/sebastian/1009775-light/run1009775-light.h5  tag-1496775836// -17to-17fs
/work/sebastian/1009779-light/run1009779-light.h5  tag-1496793842// -17to-17fs
/work/sebastian/1009779-light/run1009779-light.h5  tag-1496793968// -17to-17fs
/work/sebastian/1009779-light/run1009779-light.h5  tag-1496796792// -17to-17fs
/work/sebastian/1009781-light/run1009781-light.h5  tag-1496803806// -17to-17fs
/work/sebastian/1009781-light/run1009781-light.h5  tag-1496803902// -17to-17fs
/work/sebastian/1009781-light/run1009781-light.h5  tag-1496804118// -17to-17fs
/work/sebastian/1009781-light/run1009781-light.h5  tag-1496804132// -17to-17fs
/work/sebastian/1009783-light/run1009783-light.h5  tag-1496813934// -17to-17fs
/work/sebastian/1009783-light/run1009783-light.h5  tag-1496814524// -17to-17fs
/work/sebastian/1009783-light/run1009783-light.h5  tag-1496814538// -17to-17fs
/work/sebastian/1009783-light/run1009783-light.h5  tag-1496814460// -17to-17fs
/work/sebastian/1009783-light/run1009783-light.h5  tag-1496815196// -17to-17fs
/work/sebastian/1009784-light/run1009784-light.h5  tag-1496819434// -17to-17fs
/work/sebastian/1009786-light/run1009786-light.h5  tag-1496825838// -17to-17fs
/work/sebastian/1009786-light/run1009786-light.h5  tag-1496825924// -17to-17fs
/work/sebastian/1009786-light/run1009786-light.h5  tag-1496825980// -17to-17fs
/work/sebastian/1009787-light/run1009787-light.h5  tag-1496831324// -17to-17fs
/work/sebastian/1009787-light/run1009787-light.h5  tag-1496831450// -17to-17fs
/work/sebastian/1009787-light/run1009787-light.h5  tag-1496831510// -17to-17fs
/work/sebastian/1009787-light/run1009787-light.h5  tag-1496831538// -17to-17fs
/work/sebastian/1009787-light/run1009787-light.h5  tag-1496831532// -17to-17fs
/work/sebastian/1009787-light/run1009787-light.h5  tag-1496831590// -17to-17fs
/work/sebastian/1009787-light/run1009787-light.h5  tag-1496831604// -17to-17fs
/work/sebastian/1009795-light/run1009795-light.h5  tag-1496877504// -17to-17fs
/work/sebastian/1009795-light/run1009795-light.h5  tag-1496877732// -17to-17fs
/work/sebastian/1009795-light/run1009795-light.h5  tag-1496877896// -17to-17fs
/work/sebastian/1009796-light/run1009796-light.h5  tag-1496881780// -17to-17fs
/work/sebastian/1009802-light/run1009802-light.h5  tag-1496909028// -17to-17fs
/work/sebastian/1009802-light/run1009802-light.h5  tag-1496909348// -17to-17fs
/work/sebastian/1009802-light/run1009802-light.h5  tag-1496909426// -17to-17fs
/work/sebastian/1009775-light/run1009775-light.h5  tag-1496775548// -17to-17fs
/work/sebastian/1009775-light/run1009775-light.h5  tag-1496775834// -17to-17fs
/work/sebastian/1009775-light/run1009775-light.h5  tag-1496775982// -17to-17fs
/work/sebastian/1009775-light/run1009775-light.h5  tag-1496776022// -17to-17fs
/work/sebastian/1009779-light/run1009779-light.h5  tag-1496793896// -17to-17fs
/work/sebastian/1009779-light/run1009779-light.h5  tag-1496793980// -17to-17fs
/work/sebastian/1009779-light/run1009779-light.h5  tag-1496797132// -17to-17fs
/work/sebastian/1009781-light/run1009781-light.h5  tag-1496803832// -17to-17fs
/work/sebastian/1009781-light/run1009781-light.h5  tag-1496803870// -17to-17fs
/work/sebastian/1009781-light/run1009781-light.h5  tag-1496803872// -17to-17fs
/work/sebastian/1009782-light/run1009782-light.h5  tag-1496809232// -17to-17fs
/work/sebastian/1009782-light/run1009782-light.h5  tag-1496809264// -17to-17fs
/work/sebastian/1009782-light/run1009782-light.h5  tag-1496809246// -17to-17fs
/work/sebastian/1009782-light/run1009782-light.h5  tag-1496809284// -17to-17fs
/work/sebastian/1009782-light/run1009782-light.h5  tag-1496809338// -17to-17fs
/work/sebastian/1009783-light/run1009783-light.h5  tag-1496814038// -17to-17fs
/work/sebastian/1009783-light/run1009783-light.h5  tag-1496814106// -17to-17fs
/work/sebastian/1009783-light/run1009783-light.h5  tag-1496814490// -17to-17fs
/work/sebastian/1009783-light/run1009783-light.h5  tag-1496814534// -17to-17fs
/work/sebastian/1009783-light/run1009783-light.h5  tag-1496814788// -17to-17fs
/work/sebastian/1009783-light/run1009783-light.h5  tag-1496815200// -17to-17fs
/work/sebastian/1009784-light/run1009784-light.h5  tag-1496819386// -17to-17fs
/work/sebastian/1009784-light/run1009784-light.h5  tag-1496819752// -17to-17fs
/work/sebastian/1009786-light/run1009786-light.h5  tag-1496826028// -17to-17fs
/work/sebastian/1009787-light/run1009787-light.h5  tag-1496830818// -17to-17fs
/work/sebastian/1009787-light/run1009787-light.h5  tag-1496831550// -17to-17fs
/work/sebastian/1009795-light/run1009795-light.h5  tag-1496877562// -17to-17fs
/work/sebastian/1009795-light/run1009795-light.h5  tag-1496877638// -17to-17fs
/work/sebastian/1009795-light/run1009795-light.h5  tag-1496877720// -17to-17fs
/work/sebastian/1009795-light/run1009795-light.h5  tag-1496877760// -17to-17fs
/work/sebastian/1009795-light/run1009795-light.h5  tag-1496877820// -17to-17fs
/work/sebastian/1009795-light/run1009795-light.h5  tag-1496877830// -17to-17fs
/work/sebastian/1009795-light/run1009795-light.h5  tag-1496877946// -17to-17fs
/work/sebastian/1009796-light/run1009796-light.h5  tag-1496881546// -17to-17fs
/work/sebastian/1009796-light/run1009796-light.h5  tag-1496882506// -17to-17fs
/work/sebastian/1009796-light/run1009796-light.h5  tag-1496882552// -17to-17fs
/work/sebastian/1009799-light/run1009799-light.h5  tag-1496896182// -17to-17fs
/work/sebastian/1009802-light/run1009802-light.h5  tag-1496909008// -17to-17fs
/work/sebastian/1009802-light/run1009802-light.h5  tag-1496909016// -17to-17fs
/work/sebastian/1009802-light/run1009802-light.h5  tag-1496909276// -17to-17fs
/work/sebastian/1009802-light/run1009802-light.h5  tag-1496909298// -17to-17fs
/work/sebastian/1009802-light/run1009802-light.h5  tag-1496909368// -17to-17fs
/work/sebastian/1009802-light/run1009802-light.h5  tag-1496909432// -17to-17fs
/work/sebastian/1009774-light/run1009774-light.h5  tag-1496770996// -17to-17fs
/work/sebastian/1009774-light/run1009774-light.h5  tag-1496771024// -17to-17fs
/work/sebastian/1009774-light/run1009774-light.h5  tag-1496771402// -17to-17fs
/work/sebastian/1009774-light/run1009774-light.h5  tag-1496771398// -17to-17fs
/work/sebastian/1009774-light/run1009774-light.h5  tag-1496771754// -17to-17fs
/work/sebastian/1009775-light/run1009775-light.h5  tag-1496775876// -17to-17fs
/work/sebastian/1009775-light/run1009775-light.h5  tag-1496775926// -17to-17fs
/work/sebastian/1009775-light/run1009775-light.h5  tag-1496775944// -17to-17fs
/work/sebastian/1009779-light/run1009779-light.h5  tag-1496793826// -17to-17fs
/work/sebastian/1009779-light/run1009779-light.h5  tag-1496793940// -17to-17fs
/work/sebastian/1009779-light/run1009779-light.h5  tag-1496794084// -17to-17fs
/work/sebastian/1009779-light/run1009779-light.h5  tag-1496797274// -17to-17fs
/work/sebastian/1009781-light/run1009781-light.h5  tag-1496803842// -17to-17fs
/work/sebastian/1009781-light/run1009781-light.h5  tag-1496803886// -17to-17fs
/work/sebastian/1009782-light/run1009782-light.h5  tag-1496809416// -17to-17fs
/work/sebastian/1009783-light/run1009783-light.h5  tag-1496813980// -17to-17fs
/work/sebastian/1009783-light/run1009783-light.h5  tag-1496814396// -17to-17fs
/work/sebastian/1009783-light/run1009783-light.h5  tag-1496815234// -17to-17fs
/work/sebastian/1009784-light/run1009784-light.h5  tag-1496819198// -17to-17fs
/work/sebastian/1009784-light/run1009784-light.h5  tag-1496819412// -17to-17fs
/work/sebastian/1009784-light/run1009784-light.h5  tag-1496819446// -17to-17fs
/work/sebastian/1009786-light/run1009786-light.h5  tag-1496825846// -17to-17fs
/work/sebastian/1009786-light/run1009786-light.h5  tag-1496825798// -17to-17fs
/work/sebastian/1009786-light/run1009786-light.h5  tag-1496825870// -17to-17fs
/work/sebastian/1009786-light/run1009786-light.h5  tag-1496826034// -17to-17fs
/work/sebastian/1009787-light/run1009787-light.h5  tag-1496831224// -17to-17fs
/work/sebastian/1009787-light/run1009787-light.h5  tag-1496831240// -17to-17fs
/work/sebastian/1009787-light/run1009787-light.h5  tag-1496831236// -17to-17fs
/work/sebastian/1009787-light/run1009787-light.h5  tag-1496831410// -17to-17fs
/work/sebastian/1009787-light/run1009787-light.h5  tag-1496831422// -17to-17fs
/work/sebastian/1009787-light/run1009787-light.h5  tag-1496831616// -17to-17fs
/work/sebastian/1009787-light/run1009787-light.h5  tag-1496831674// -17to-17fs
/work/sebastian/1009795-light/run1009795-light.h5  tag-1496877374// -17to-17fs
/work/sebastian/1009795-light/run1009795-light.h5  tag-1496877448// -17to-17fs
/work/sebastian/1009795-light/run1009795-light.h5  tag-1496877494// -17to-17fs
/work/sebastian/1009795-light/run1009795-light.h5  tag-1496877472// -17to-17fs
/work/sebastian/1009795-light/run1009795-light.h5  tag-1496877606// -17to-17fs
/work/sebastian/1009795-light/run1009795-light.h5  tag-1496877616// -17to-17fs
/work/sebastian/1009795-light/run1009795-light.h5  tag-1496877702// -17to-17fs
/work/sebastian/1009795-light/run1009795-light.h5  tag-1496877750// -17to-17fs
/work/sebastian/1009795-light/run1009795-light.h5  tag-1496877762// -17to-17fs
/work/sebastian/1009795-light/run1009795-light.h5  tag-1496877790// -17to-17fs
/work/sebastian/1009795-light/run1009795-light.h5  tag-1496877860// -17to-17fs
/work/sebastian/1009796-light/run1009796-light.h5  tag-1496882468// -17to-17fs
/work/sebastian/1009796-light/run1009796-light.h5  tag-1496882508// -17to-17fs
/work/sebastian/1009796-light/run1009796-light.h5  tag-1496882544// -17to-17fs
/work/sebastian/1009802-light/run1009802-light.h5  tag-1496908916// -17to-17fs
/work/sebastian/1009802-light/run1009802-light.h5  tag-1496909050// -17to-17fs
/work/sebastian/1009802-light/run1009802-light.h5  tag-1496909032// -17to-17fs
/work/sebastian/1009802-light/run1009802-light.h5  tag-1496909220// -17to-17fs
/work/sebastian/1009802-light/run1009802-light.h5  tag-1496909170// -17to-17fs
