tag_number,path,timepoints
1491471228,/work/sebastian/BT-20210625/1009383-light/run1009383-light.h5,-331.6000000023
1492432572,/work/sebastian/BT-20210625/1009555-light/run1009555-light.h5,-271.6000000005
1492432604,/work/sebastian/BT-20210625/1009555-light/run1009555-light.h5,-240.4000000005
1492500420,/work/sebastian/BT-20210625/1009570-light/run1009570-light.h5,-216.4000000005
1492428610,/work/sebastian/BT-20210625/1009554-light/run1009554-light.h5,-209.2000000005
1492349498,/work/sebastian/BT-20210625/1009542-light/run1009542-light.h5,-199.6000000005
