tag_number,path,timepoints
1492468002,/work/sebastian/BT-20210625/1009563-light/run1009563-light.h5,-91.6000000005
1492347830,/work/sebastian/BT-20210625/1009542-light/run1009542-light.h5,-86.8000000005
1496773192,/work/sebastian/BT-20210625/1009774-light/run1009774-light.h5,-86.799999999
1496829910,/work/sebastian/BT-20210625/1009787-light/run1009787-light.h5,-84.399999999
1496829914,/work/sebastian/BT-20210625/1009787-light/run1009787-light.h5,-81.999999999
1496829864,/work/sebastian/BT-20210625/1009787-light/run1009787-light.h5,-79.599999999
1496829930,/work/sebastian/BT-20210625/1009787-light/run1009787-light.h5,-79.599999999
1496876088,/work/sebastian/BT-20210625/1009795-light/run1009795-light.h5,-79.599999999
1496773196,/work/sebastian/BT-20210625/1009774-light/run1009774-light.h5,-77.199999999
1496829818,/work/sebastian/BT-20210625/1009787-light/run1009787-light.h5,-77.199999999
1496829890,/work/sebastian/BT-20210625/1009787-light/run1009787-light.h5,-74.799999999
1496907000,/work/sebastian/BT-20210625/1009802-light/run1009802-light.h5,-74.799999999
1496773354,/work/sebastian/BT-20210625/1009774-light/run1009774-light.h5,-72.399999999
1496828778,/work/sebastian/BT-20210625/1009786-light/run1009786-light.h5,-72.399999999
1496876406,/work/sebastian/BT-20210625/1009795-light/run1009795-light.h5,-72.399999999
1496773344,/work/sebastian/BT-20210625/1009774-light/run1009774-light.h5,-69.999999999
1496829928,/work/sebastian/BT-20210625/1009787-light/run1009787-light.h5,-69.999999999
1496829988,/work/sebastian/BT-20210625/1009787-light/run1009787-light.h5,-69.999999999
1496773336,/work/sebastian/BT-20210625/1009774-light/run1009774-light.h5,-67.599999999
1496829908,/work/sebastian/BT-20210625/1009787-light/run1009787-light.h5,-67.599999999
1496876084,/work/sebastian/BT-20210625/1009795-light/run1009795-light.h5,-67.599999999
1496876382,/work/sebastian/BT-20210625/1009795-light/run1009795-light.h5,-67.599999999
1496906700,/work/sebastian/BT-20210625/1009802-light/run1009802-light.h5,-65.1999999989999
1496773188,/work/sebastian/BT-20210625/1009774-light/run1009774-light.h5,-62.7999999990001
1496791214,/work/sebastian/BT-20210625/1009778-light/run1009778-light.h5,-62.7999999990001
1496654792,/work/sebastian/BT-20210625/1009773-light/run1009773-light.h5,-60.399999999
1496829918,/work/sebastian/BT-20210625/1009787-light/run1009787-light.h5,-60.399999999
1496876354,/work/sebastian/BT-20210625/1009795-light/run1009795-light.h5,-60.399999999
1496907132,/work/sebastian/BT-20210625/1009802-light/run1009802-light.h5,-60.399999999
1496813010,/work/sebastian/BT-20210625/1009783-light/run1009783-light.h5,-57.999999999
1496829896,/work/sebastian/BT-20210625/1009787-light/run1009787-light.h5,-57.999999999
1496906728,/work/sebastian/BT-20210625/1009802-light/run1009802-light.h5,-57.999999999
1496906698,/work/sebastian/BT-20210625/1009802-light/run1009802-light.h5,-55.599999999
1496801738,/work/sebastian/BT-20210625/1009780-light/run1009780-light.h5,-53.1999999989999
1496829886,/work/sebastian/BT-20210625/1009787-light/run1009787-light.h5,-53.1999999989999
1496876020,/work/sebastian/BT-20210625/1009795-light/run1009795-light.h5,-53.1999999989999
1496829866,/work/sebastian/BT-20210625/1009787-light/run1009787-light.h5,-48.399999999
1496906740,/work/sebastian/BT-20210625/1009802-light/run1009802-light.h5,-48.399999999
1496828820,/work/sebastian/BT-20210625/1009786-light/run1009786-light.h5,-45.999999999
1496829832,/work/sebastian/BT-20210625/1009787-light/run1009787-light.h5,-45.999999999
1496906824,/work/sebastian/BT-20210625/1009802-light/run1009802-light.h5,-45.999999999
1496907034,/work/sebastian/BT-20210625/1009802-light/run1009802-light.h5,-45.999999999
