# tags                 xfel_bl_3_st_2_motor_1/position xfel_bl_3_st_2_pd_user_4_fitting_peak/voltage xfel_bl_3_st_2_pd_user_4_fitting_peak/gainC
1.490667090000000000e+09 1.200000000000000000e+02 0.000000000000000000e+00 5.000000000000000311e-10
1.490667092000000000e+09 1.200000000000000000e+02 0.000000000000000000e+00 5.000000000000000311e-10
1.490667094000000000e+09 1.200000000000000000e+02 0.000000000000000000e+00 5.000000000000000311e-10
1.490667096000000000e+09 1.200000000000000000e+02 0.000000000000000000e+00 5.000000000000000311e-10
1.490667098000000000e+09 1.200000000000000000e+02 0.000000000000000000e+00 5.000000000000000311e-10
1.490667100000000000e+09 1.200000000000000000e+02 0.000000000000000000e+00 5.000000000000000311e-10
1.490667102000000000e+09 1.200000000000000000e+02 0.000000000000000000e+00 5.000000000000000311e-10
1.490667104000000000e+09 1.200000000000000000e+02 0.000000000000000000e+00 5.000000000000000311e-10
1.490667106000000000e+09 1.200000000000000000e+02 0.000000000000000000e+00 5.000000000000000311e-10
1.490667108000000000e+09 1.200000000000000000e+02 0.000000000000000000e+00 5.000000000000000311e-10
1.490667110000000000e+09 1.200000000000000000e+02 0.000000000000000000e+00 5.000000000000000311e-10
1.490667112000000000e+09 1.200000000000000000e+02 0.000000000000000000e+00 5.000000000000000311e-10
1.490667114000000000e+09 1.200000000000000000e+02 0.000000000000000000e+00 5.000000000000000311e-10
1.490667116000000000e+09 1.200000000000000000e+02 0.000000000000000000e+00 5.000000000000000311e-10
1.490667118000000000e+09 1.200000000000000000e+02 0.000000000000000000e+00 5.000000000000000311e-10
1.490667120000000000e+09 1.200000000000000000e+02 1.940719999999999945e-04 5.000000000000000311e-10
1.490667122000000000e+09 1.200000000000000000e+02 0.000000000000000000e+00 5.000000000000000311e-10
1.490667124000000000e+09 1.200000000000000000e+02 0.000000000000000000e+00 5.000000000000000311e-10
1.490667126000000000e+09 1.200000000000000000e+02 0.000000000000000000e+00 5.000000000000000311e-10
1.490667128000000000e+09 1.200000000000000000e+02 0.000000000000000000e+00 5.000000000000000311e-10
1.490667130000000000e+09 1.200000000000000000e+02 0.000000000000000000e+00 5.000000000000000311e-10
1.490667132000000000e+09 1.200000000000000000e+02 0.000000000000000000e+00 5.000000000000000311e-10
1.490667134000000000e+09 1.200000000000000000e+02 0.000000000000000000e+00 5.000000000000000311e-10
1.490667136000000000e+09 1.200000000000000000e+02 7.070149999999999655e-04 5.000000000000000311e-10
1.490667138000000000e+09 1.200000000000000000e+02 0.000000000000000000e+00 5.000000000000000311e-10
1.490667140000000000e+09 1.200000000000000000e+02 0.000000000000000000e+00 5.000000000000000311e-10
1.490667142000000000e+09 1.200000000000000000e+02 0.000000000000000000e+00 5.000000000000000311e-10
1.490667144000000000e+09 1.200000000000000000e+02 0.000000000000000000e+00 5.000000000000000311e-10
1.490667146000000000e+09 1.200000000000000000e+02 0.000000000000000000e+00 5.000000000000000311e-10
1.490667148000000000e+09 1.200000000000000000e+02 0.000000000000000000e+00 5.000000000000000311e-10
1.490667150000000000e+09 1.200000000000000000e+02 0.000000000000000000e+00 5.000000000000000311e-10
1.490667152000000000e+09 1.200000000000000000e+02 0.000000000000000000e+00 5.000000000000000311e-10
1.490667154000000000e+09 1.200000000000000000e+02 0.000000000000000000e+00 5.000000000000000311e-10
1.490667156000000000e+09 1.200000000000000000e+02 0.000000000000000000e+00 5.000000000000000311e-10
1.490667158000000000e+09 1.200000000000000000e+02 0.000000000000000000e+00 5.000000000000000311e-10
1.490667160000000000e+09 1.200000000000000000e+02 0.000000000000000000e+00 5.000000000000000311e-10
1.490667162000000000e+09 1.200000000000000000e+02 0.000000000000000000e+00 5.000000000000000311e-10
1.490667164000000000e+09 1.200000000000000000e+02 0.000000000000000000e+00 5.000000000000000311e-10
1.490667166000000000e+09 1.200000000000000000e+02 0.000000000000000000e+00 5.000000000000000311e-10
1.490667168000000000e+09 1.200000000000000000e+02 0.000000000000000000e+00 5.000000000000000311e-10
1.490667170000000000e+09 1.200000000000000000e+02 0.000000000000000000e+00 5.000000000000000311e-10
1.490667172000000000e+09 1.200000000000000000e+02 0.000000000000000000e+00 5.000000000000000311e-10
1.490667174000000000e+09 1.200000000000000000e+02 0.000000000000000000e+00 5.000000000000000311e-10
1.490667176000000000e+09 1.200000000000000000e+02 0.000000000000000000e+00 5.000000000000000311e-10
1.490667178000000000e+09 1.200000000000000000e+02 0.000000000000000000e+00 5.000000000000000311e-10
1.490667180000000000e+09 1.200000000000000000e+02 0.000000000000000000e+00 5.000000000000000311e-10
1.490667182000000000e+09 1.200000000000000000e+02 0.000000000000000000e+00 5.000000000000000311e-10
1.490667184000000000e+09 1.200000000000000000e+02 0.000000000000000000e+00 5.000000000000000311e-10
1.490667186000000000e+09 1.200000000000000000e+02 0.000000000000000000e+00 5.000000000000000311e-10
1.490667188000000000e+09 1.200000000000000000e+02 0.000000000000000000e+00 5.000000000000000311e-10
1.490667190000000000e+09 1.200000000000000000e+02 0.000000000000000000e+00 5.000000000000000311e-10
1.490667192000000000e+09 1.200000000000000000e+02 0.000000000000000000e+00 5.000000000000000311e-10
1.490667194000000000e+09 1.200000000000000000e+02 0.000000000000000000e+00 5.000000000000000311e-10
1.490667196000000000e+09 1.200000000000000000e+02 0.000000000000000000e+00 5.000000000000000311e-10
1.490667198000000000e+09 1.200000000000000000e+02 8.334019999999999872e-05 5.000000000000000311e-10
1.490667200000000000e+09 1.200000000000000000e+02 4.459740000000000232e-04 5.000000000000000311e-10
1.490667202000000000e+09 1.200000000000000000e+02 0.000000000000000000e+00 5.000000000000000311e-10
1.490667204000000000e+09 1.200000000000000000e+02 0.000000000000000000e+00 5.000000000000000311e-10
1.490667206000000000e+09 1.200000000000000000e+02 0.000000000000000000e+00 5.000000000000000311e-10
1.490667208000000000e+09 1.200000000000000000e+02 0.000000000000000000e+00 5.000000000000000311e-10
1.490667210000000000e+09 1.200000000000000000e+02 0.000000000000000000e+00 5.000000000000000311e-10
1.490667212000000000e+09 1.200000000000000000e+02 0.000000000000000000e+00 5.000000000000000311e-10
1.490667214000000000e+09 1.200000000000000000e+02 0.000000000000000000e+00 5.000000000000000311e-10
1.490667216000000000e+09 1.200000000000000000e+02 0.000000000000000000e+00 5.000000000000000311e-10
1.490667218000000000e+09 1.200000000000000000e+02 0.000000000000000000e+00 5.000000000000000311e-10
1.490667220000000000e+09 1.200000000000000000e+02 0.000000000000000000e+00 5.000000000000000311e-10
1.490667222000000000e+09 1.200000000000000000e+02 0.000000000000000000e+00 5.000000000000000311e-10
1.490667224000000000e+09 1.200000000000000000e+02 0.000000000000000000e+00 5.000000000000000311e-10
1.490667226000000000e+09 1.200000000000000000e+02 0.000000000000000000e+00 5.000000000000000311e-10
1.490667228000000000e+09 1.200000000000000000e+02 0.000000000000000000e+00 5.000000000000000311e-10
1.490667230000000000e+09 1.200000000000000000e+02 0.000000000000000000e+00 5.000000000000000311e-10
1.490667232000000000e+09 1.200000000000000000e+02 0.000000000000000000e+00 5.000000000000000311e-10
1.490667234000000000e+09 1.200000000000000000e+02 0.000000000000000000e+00 5.000000000000000311e-10
1.490667236000000000e+09 1.200000000000000000e+02 0.000000000000000000e+00 5.000000000000000311e-10
1.490667238000000000e+09 1.200000000000000000e+02 0.000000000000000000e+00 5.000000000000000311e-10
1.490667240000000000e+09 1.200000000000000000e+02 0.000000000000000000e+00 5.000000000000000311e-10
1.490667242000000000e+09 1.200000000000000000e+02 0.000000000000000000e+00 5.000000000000000311e-10
1.490667244000000000e+09 1.200000000000000000e+02 0.000000000000000000e+00 5.000000000000000311e-10
1.490667246000000000e+09 1.200000000000000000e+02 0.000000000000000000e+00 5.000000000000000311e-10
1.490667248000000000e+09 1.200000000000000000e+02 0.000000000000000000e+00 5.000000000000000311e-10
1.490667250000000000e+09 1.200000000000000000e+02 0.000000000000000000e+00 5.000000000000000311e-10
1.490667252000000000e+09 1.200000000000000000e+02 0.000000000000000000e+00 5.000000000000000311e-10
1.490667254000000000e+09 1.200000000000000000e+02 0.000000000000000000e+00 5.000000000000000311e-10
1.490667256000000000e+09 1.200000000000000000e+02 0.000000000000000000e+00 5.000000000000000311e-10
1.490667258000000000e+09 1.200000000000000000e+02 0.000000000000000000e+00 5.000000000000000311e-10
1.490667260000000000e+09 1.200000000000000000e+02 0.000000000000000000e+00 5.000000000000000311e-10
1.490667262000000000e+09 1.200000000000000000e+02 0.000000000000000000e+00 5.000000000000000311e-10
1.490667264000000000e+09 1.200000000000000000e+02 0.000000000000000000e+00 5.000000000000000311e-10
1.490667266000000000e+09 1.200000000000000000e+02 0.000000000000000000e+00 5.000000000000000311e-10
1.490667268000000000e+09 1.200000000000000000e+02 0.000000000000000000e+00 5.000000000000000311e-10
1.490667270000000000e+09 1.200000000000000000e+02 1.603460000000000128e-04 5.000000000000000311e-10
1.490667272000000000e+09 1.200000000000000000e+02 0.000000000000000000e+00 5.000000000000000311e-10
1.490667274000000000e+09 1.200000000000000000e+02 0.000000000000000000e+00 5.000000000000000311e-10
1.490667276000000000e+09 1.200000000000000000e+02 0.000000000000000000e+00 5.000000000000000311e-10
1.490667278000000000e+09 1.200000000000000000e+02 0.000000000000000000e+00 5.000000000000000311e-10
1.490667280000000000e+09 1.200000000000000000e+02 0.000000000000000000e+00 5.000000000000000311e-10
1.490667282000000000e+09 1.200000000000000000e+02 0.000000000000000000e+00 5.000000000000000311e-10
1.490667284000000000e+09 1.200000000000000000e+02 0.000000000000000000e+00 5.000000000000000311e-10
1.490667286000000000e+09 1.200000000000000000e+02 0.000000000000000000e+00 5.000000000000000311e-10
1.490667288000000000e+09 1.200000000000000000e+02 0.000000000000000000e+00 5.000000000000000311e-10
1.490667290000000000e+09 1.200000000000000000e+02 0.000000000000000000e+00 5.000000000000000311e-10
1.490667292000000000e+09 1.200000000000000000e+02 0.000000000000000000e+00 5.000000000000000311e-10
1.490667294000000000e+09 1.200000000000000000e+02 0.000000000000000000e+00 5.000000000000000311e-10
1.490667296000000000e+09 1.200000000000000000e+02 0.000000000000000000e+00 5.000000000000000311e-10
1.490667298000000000e+09 1.200000000000000000e+02 0.000000000000000000e+00 5.000000000000000311e-10
1.490667300000000000e+09 1.200000000000000000e+02 0.000000000000000000e+00 5.000000000000000311e-10
1.490667302000000000e+09 1.200000000000000000e+02 2.918910000000000146e-04 5.000000000000000311e-10
1.490667304000000000e+09 1.200000000000000000e+02 0.000000000000000000e+00 5.000000000000000311e-10
1.490667306000000000e+09 1.200000000000000000e+02 0.000000000000000000e+00 5.000000000000000311e-10
1.490667308000000000e+09 1.200000000000000000e+02 0.000000000000000000e+00 5.000000000000000311e-10
1.490667310000000000e+09 1.200000000000000000e+02 0.000000000000000000e+00 5.000000000000000311e-10
1.490667312000000000e+09 1.200000000000000000e+02 0.000000000000000000e+00 5.000000000000000311e-10
1.490667314000000000e+09 1.200000000000000000e+02 0.000000000000000000e+00 5.000000000000000311e-10
1.490667316000000000e+09 1.200000000000000000e+02 0.000000000000000000e+00 5.000000000000000311e-10
1.490667318000000000e+09 1.200000000000000000e+02 0.000000000000000000e+00 5.000000000000000311e-10
1.490667320000000000e+09 1.200000000000000000e+02 0.000000000000000000e+00 5.000000000000000311e-10
1.490667322000000000e+09 1.200000000000000000e+02 0.000000000000000000e+00 5.000000000000000311e-10
1.490667324000000000e+09 1.200000000000000000e+02 0.000000000000000000e+00 5.000000000000000311e-10
1.490667326000000000e+09 1.200000000000000000e+02 0.000000000000000000e+00 5.000000000000000311e-10
1.490667328000000000e+09 1.200000000000000000e+02 4.017039999999999744e-05 5.000000000000000311e-10
1.490667330000000000e+09 1.200000000000000000e+02 0.000000000000000000e+00 5.000000000000000311e-10
1.490667332000000000e+09 1.200000000000000000e+02 0.000000000000000000e+00 5.000000000000000311e-10
1.490667334000000000e+09 1.200000000000000000e+02 0.000000000000000000e+00 5.000000000000000311e-10
1.490667336000000000e+09 1.200000000000000000e+02 0.000000000000000000e+00 5.000000000000000311e-10
1.490667338000000000e+09 1.200000000000000000e+02 0.000000000000000000e+00 5.000000000000000311e-10
1.490667340000000000e+09 1.200000000000000000e+02 0.000000000000000000e+00 5.000000000000000311e-10
1.490667342000000000e+09 1.200000000000000000e+02 0.000000000000000000e+00 5.000000000000000311e-10
1.490667344000000000e+09 1.200000000000000000e+02 0.000000000000000000e+00 5.000000000000000311e-10
1.490667346000000000e+09 1.200000000000000000e+02 0.000000000000000000e+00 5.000000000000000311e-10
1.490667348000000000e+09 1.200000000000000000e+02 0.000000000000000000e+00 5.000000000000000311e-10
1.490667350000000000e+09 1.200000000000000000e+02 6.106360000000000130e-04 5.000000000000000311e-10
1.490667352000000000e+09 1.200000000000000000e+02 0.000000000000000000e+00 5.000000000000000311e-10
1.490667354000000000e+09 1.200000000000000000e+02 0.000000000000000000e+00 5.000000000000000311e-10
1.490667356000000000e+09 1.200000000000000000e+02 3.818729999999999943e-05 5.000000000000000311e-10
1.490667358000000000e+09 1.200000000000000000e+02 0.000000000000000000e+00 5.000000000000000311e-10
1.490667360000000000e+09 1.200000000000000000e+02 0.000000000000000000e+00 5.000000000000000311e-10
1.490667362000000000e+09 1.200000000000000000e+02 0.000000000000000000e+00 5.000000000000000311e-10
1.490667364000000000e+09 1.200000000000000000e+02 0.000000000000000000e+00 5.000000000000000311e-10
1.490667366000000000e+09 1.200000000000000000e+02 0.000000000000000000e+00 5.000000000000000311e-10
1.490667368000000000e+09 1.200000000000000000e+02 3.676559999999999914e-05 5.000000000000000311e-10
1.490667370000000000e+09 1.200000000000000000e+02 0.000000000000000000e+00 5.000000000000000311e-10
1.490667372000000000e+09 1.200000000000000000e+02 0.000000000000000000e+00 5.000000000000000311e-10
1.490667374000000000e+09 1.200000000000000000e+02 0.000000000000000000e+00 5.000000000000000311e-10
1.490667376000000000e+09 1.200000000000000000e+02 0.000000000000000000e+00 5.000000000000000311e-10
1.490667378000000000e+09 1.200000000000000000e+02 0.000000000000000000e+00 5.000000000000000311e-10
1.490667380000000000e+09 1.200000000000000000e+02 0.000000000000000000e+00 5.000000000000000311e-10
1.490667382000000000e+09 1.200000000000000000e+02 0.000000000000000000e+00 5.000000000000000311e-10
1.490667384000000000e+09 1.200000000000000000e+02 0.000000000000000000e+00 5.000000000000000311e-10
1.490667386000000000e+09 1.200000000000000000e+02 0.000000000000000000e+00 5.000000000000000311e-10
1.490667388000000000e+09 1.200000000000000000e+02 0.000000000000000000e+00 5.000000000000000311e-10
1.490667390000000000e+09 1.200000000000000000e+02 0.000000000000000000e+00 5.000000000000000311e-10
1.490667392000000000e+09 1.200000000000000000e+02 0.000000000000000000e+00 5.000000000000000311e-10
1.490667394000000000e+09 1.200000000000000000e+02 0.000000000000000000e+00 5.000000000000000311e-10
1.490667396000000000e+09 1.200000000000000000e+02 0.000000000000000000e+00 5.000000000000000311e-10
1.490667398000000000e+09 1.200000000000000000e+02 0.000000000000000000e+00 5.000000000000000311e-10
1.490667400000000000e+09 1.200000000000000000e+02 0.000000000000000000e+00 5.000000000000000311e-10
1.490667402000000000e+09 1.200000000000000000e+02 8.633789999999999477e-04 5.000000000000000311e-10
1.490667404000000000e+09 1.200000000000000000e+02 0.000000000000000000e+00 5.000000000000000311e-10
1.490667406000000000e+09 1.200000000000000000e+02 0.000000000000000000e+00 5.000000000000000311e-10
1.490667408000000000e+09 1.200000000000000000e+02 0.000000000000000000e+00 5.000000000000000311e-10
1.490667410000000000e+09 1.200000000000000000e+02 0.000000000000000000e+00 5.000000000000000311e-10
1.490667412000000000e+09 1.200000000000000000e+02 0.000000000000000000e+00 5.000000000000000311e-10
1.490667414000000000e+09 1.200000000000000000e+02 0.000000000000000000e+00 5.000000000000000311e-10
1.490667416000000000e+09 1.200000000000000000e+02 0.000000000000000000e+00 5.000000000000000311e-10
1.490667418000000000e+09 1.200000000000000000e+02 0.000000000000000000e+00 5.000000000000000311e-10
1.490667420000000000e+09 1.200000000000000000e+02 0.000000000000000000e+00 5.000000000000000311e-10
1.490667422000000000e+09 1.200000000000000000e+02 0.000000000000000000e+00 5.000000000000000311e-10
1.490667424000000000e+09 1.200000000000000000e+02 0.000000000000000000e+00 5.000000000000000311e-10
1.490667426000000000e+09 1.200000000000000000e+02 1.338149999999999919e-04 5.000000000000000311e-10
1.490667428000000000e+09 1.200000000000000000e+02 0.000000000000000000e+00 5.000000000000000311e-10
1.490667430000000000e+09 1.200000000000000000e+02 0.000000000000000000e+00 5.000000000000000311e-10
1.490667432000000000e+09 1.200000000000000000e+02 0.000000000000000000e+00 5.000000000000000311e-10
1.490667434000000000e+09 1.200000000000000000e+02 0.000000000000000000e+00 5.000000000000000311e-10
1.490667436000000000e+09 1.200000000000000000e+02 0.000000000000000000e+00 5.000000000000000311e-10
1.490667438000000000e+09 1.200000000000000000e+02 0.000000000000000000e+00 5.000000000000000311e-10
1.490667440000000000e+09 1.200000000000000000e+02 3.942549999999999852e-04 5.000000000000000311e-10
1.490667442000000000e+09 1.200000000000000000e+02 0.000000000000000000e+00 5.000000000000000311e-10
1.490667444000000000e+09 1.200000000000000000e+02 0.000000000000000000e+00 5.000000000000000311e-10
1.490667446000000000e+09 1.200000000000000000e+02 0.000000000000000000e+00 5.000000000000000311e-10
1.490667448000000000e+09 1.200000000000000000e+02 0.000000000000000000e+00 5.000000000000000311e-10
1.490667450000000000e+09 1.200000000000000000e+02 0.000000000000000000e+00 5.000000000000000311e-10
1.490667452000000000e+09 1.200000000000000000e+02 1.054930000000000012e-04 5.000000000000000311e-10
1.490667454000000000e+09 1.200000000000000000e+02 0.000000000000000000e+00 5.000000000000000311e-10
1.490667456000000000e+09 1.200000000000000000e+02 0.000000000000000000e+00 5.000000000000000311e-10
1.490667458000000000e+09 1.200000000000000000e+02 0.000000000000000000e+00 5.000000000000000311e-10
1.490667460000000000e+09 1.200000000000000000e+02 0.000000000000000000e+00 5.000000000000000311e-10
1.490667462000000000e+09 1.200000000000000000e+02 0.000000000000000000e+00 5.000000000000000311e-10
1.490667464000000000e+09 1.200000000000000000e+02 0.000000000000000000e+00 5.000000000000000311e-10
1.490667466000000000e+09 1.200000000000000000e+02 0.000000000000000000e+00 5.000000000000000311e-10
1.490667468000000000e+09 1.200000000000000000e+02 0.000000000000000000e+00 5.000000000000000311e-10
1.490667470000000000e+09 1.200000000000000000e+02 0.000000000000000000e+00 5.000000000000000311e-10
1.490667472000000000e+09 1.200000000000000000e+02 0.000000000000000000e+00 5.000000000000000311e-10
1.490667474000000000e+09 1.200000000000000000e+02 0.000000000000000000e+00 5.000000000000000311e-10
1.490667476000000000e+09 1.200000000000000000e+02 0.000000000000000000e+00 5.000000000000000311e-10
1.490667478000000000e+09 1.200000000000000000e+02 1.619140000000000087e-04 5.000000000000000311e-10
1.490667480000000000e+09 1.200000000000000000e+02 0.000000000000000000e+00 5.000000000000000311e-10
1.490667482000000000e+09 1.200000000000000000e+02 0.000000000000000000e+00 5.000000000000000311e-10
1.490667484000000000e+09 1.200000000000000000e+02 0.000000000000000000e+00 5.000000000000000311e-10
1.490667486000000000e+09 1.200000000000000000e+02 0.000000000000000000e+00 5.000000000000000311e-10
1.490667488000000000e+09 1.200000000000000000e+02 0.000000000000000000e+00 5.000000000000000311e-10
1.490667490000000000e+09 1.200000000000000000e+02 0.000000000000000000e+00 5.000000000000000311e-10
1.490667492000000000e+09 1.200000000000000000e+02 0.000000000000000000e+00 5.000000000000000311e-10
1.490667494000000000e+09 1.200000000000000000e+02 3.849939999999999938e-05 5.000000000000000311e-10
1.490667496000000000e+09 1.200000000000000000e+02 0.000000000000000000e+00 5.000000000000000311e-10
1.490667498000000000e+09 1.200000000000000000e+02 0.000000000000000000e+00 5.000000000000000311e-10
1.490667500000000000e+09 1.200000000000000000e+02 4.306550000000000298e-05 5.000000000000000311e-10
1.490667502000000000e+09 1.200000000000000000e+02 0.000000000000000000e+00 5.000000000000000311e-10
1.490667504000000000e+09 1.200000000000000000e+02 0.000000000000000000e+00 5.000000000000000311e-10
1.490667506000000000e+09 1.200000000000000000e+02 0.000000000000000000e+00 5.000000000000000311e-10
1.490667508000000000e+09 1.200000000000000000e+02 0.000000000000000000e+00 5.000000000000000311e-10
1.490667510000000000e+09 1.200000000000000000e+02 0.000000000000000000e+00 5.000000000000000311e-10
1.490667512000000000e+09 1.200000000000000000e+02 0.000000000000000000e+00 5.000000000000000311e-10
1.490667514000000000e+09 1.200000000000000000e+02 0.000000000000000000e+00 5.000000000000000311e-10
1.490667516000000000e+09 1.200000000000000000e+02 0.000000000000000000e+00 5.000000000000000311e-10
1.490667518000000000e+09 1.200000000000000000e+02 5.384269999999999866e-05 5.000000000000000311e-10
1.490667520000000000e+09 1.200000000000000000e+02 1.937150000000000113e-04 5.000000000000000311e-10
1.490667522000000000e+09 1.200000000000000000e+02 0.000000000000000000e+00 5.000000000000000311e-10
1.490667524000000000e+09 1.200000000000000000e+02 0.000000000000000000e+00 5.000000000000000311e-10
1.490667526000000000e+09 1.200000000000000000e+02 0.000000000000000000e+00 5.000000000000000311e-10
1.490667528000000000e+09 1.200000000000000000e+02 2.573850000000000031e-04 5.000000000000000311e-10
1.490667530000000000e+09 1.200000000000000000e+02 0.000000000000000000e+00 5.000000000000000311e-10
1.490667532000000000e+09 1.200000000000000000e+02 9.410829999999999478e-05 5.000000000000000311e-10
1.490667534000000000e+09 1.200000000000000000e+02 0.000000000000000000e+00 5.000000000000000311e-10
1.490667536000000000e+09 1.200000000000000000e+02 1.069700000000000007e-04 5.000000000000000311e-10
1.490667538000000000e+09 1.200000000000000000e+02 0.000000000000000000e+00 5.000000000000000311e-10
1.490667540000000000e+09 1.200000000000000000e+02 0.000000000000000000e+00 5.000000000000000311e-10
1.490667542000000000e+09 1.200000000000000000e+02 0.000000000000000000e+00 5.000000000000000311e-10
1.490667544000000000e+09 1.200000000000000000e+02 0.000000000000000000e+00 5.000000000000000311e-10
1.490667546000000000e+09 1.200000000000000000e+02 0.000000000000000000e+00 5.000000000000000311e-10
1.490667548000000000e+09 1.200000000000000000e+02 0.000000000000000000e+00 5.000000000000000311e-10
1.490667550000000000e+09 1.200000000000000000e+02 8.127220000000000429e-05 5.000000000000000311e-10
1.490667552000000000e+09 1.200000000000000000e+02 0.000000000000000000e+00 5.000000000000000311e-10
1.490667554000000000e+09 1.200000000000000000e+02 0.000000000000000000e+00 5.000000000000000311e-10
1.490667556000000000e+09 1.200000000000000000e+02 0.000000000000000000e+00 5.000000000000000311e-10
1.490667558000000000e+09 1.200000000000000000e+02 0.000000000000000000e+00 5.000000000000000311e-10
1.490667560000000000e+09 1.200000000000000000e+02 0.000000000000000000e+00 5.000000000000000311e-10
1.490667562000000000e+09 1.200000000000000000e+02 0.000000000000000000e+00 5.000000000000000311e-10
1.490667564000000000e+09 1.200000000000000000e+02 0.000000000000000000e+00 5.000000000000000311e-10
1.490667566000000000e+09 1.200000000000000000e+02 0.000000000000000000e+00 5.000000000000000311e-10
1.490667568000000000e+09 1.200000000000000000e+02 0.000000000000000000e+00 5.000000000000000311e-10
1.490667570000000000e+09 1.200000000000000000e+02 0.000000000000000000e+00 5.000000000000000311e-10
1.490667572000000000e+09 1.200000000000000000e+02 0.000000000000000000e+00 5.000000000000000311e-10
1.490667574000000000e+09 1.200000000000000000e+02 0.000000000000000000e+00 5.000000000000000311e-10
1.490667576000000000e+09 1.200000000000000000e+02 1.795699999999999900e-04 5.000000000000000311e-10
1.490667578000000000e+09 1.200000000000000000e+02 0.000000000000000000e+00 5.000000000000000311e-10
1.490667580000000000e+09 1.200000000000000000e+02 0.000000000000000000e+00 5.000000000000000311e-10
1.490667582000000000e+09 1.200000000000000000e+02 0.000000000000000000e+00 5.000000000000000311e-10
1.490667584000000000e+09 1.200000000000000000e+02 0.000000000000000000e+00 5.000000000000000311e-10
1.490667586000000000e+09 1.200000000000000000e+02 0.000000000000000000e+00 5.000000000000000311e-10
1.490667588000000000e+09 1.200000000000000000e+02 0.000000000000000000e+00 5.000000000000000311e-10
1.490667590000000000e+09 1.200000000000000000e+02 0.000000000000000000e+00 5.000000000000000311e-10
1.490667592000000000e+09 1.200000000000000000e+02 3.338740000000000089e-04 5.000000000000000311e-10
1.490667594000000000e+09 1.200000000000000000e+02 0.000000000000000000e+00 5.000000000000000311e-10
1.490667596000000000e+09 1.200000000000000000e+02 0.000000000000000000e+00 5.000000000000000311e-10
1.490667598000000000e+09 1.200000000000000000e+02 0.000000000000000000e+00 5.000000000000000311e-10
1.490667600000000000e+09 1.200000000000000000e+02 0.000000000000000000e+00 5.000000000000000311e-10
1.490667602000000000e+09 1.200000000000000000e+02 0.000000000000000000e+00 5.000000000000000311e-10
1.490667604000000000e+09 1.200000000000000000e+02 0.000000000000000000e+00 5.000000000000000311e-10
1.490667606000000000e+09 1.200000000000000000e+02 0.000000000000000000e+00 5.000000000000000311e-10
1.490667608000000000e+09 1.200000000000000000e+02 0.000000000000000000e+00 5.000000000000000311e-10
1.490667610000000000e+09 1.200000000000000000e+02 0.000000000000000000e+00 5.000000000000000311e-10
1.490667612000000000e+09 1.200000000000000000e+02 0.000000000000000000e+00 5.000000000000000311e-10
1.490667614000000000e+09 1.200000000000000000e+02 0.000000000000000000e+00 5.000000000000000311e-10
1.490667616000000000e+09 1.200000000000000000e+02 0.000000000000000000e+00 5.000000000000000311e-10
1.490667618000000000e+09 1.200000000000000000e+02 0.000000000000000000e+00 5.000000000000000311e-10
1.490667620000000000e+09 1.200000000000000000e+02 0.000000000000000000e+00 5.000000000000000311e-10
1.490667622000000000e+09 1.200000000000000000e+02 0.000000000000000000e+00 5.000000000000000311e-10
1.490667624000000000e+09 1.200000000000000000e+02 0.000000000000000000e+00 5.000000000000000311e-10
1.490667626000000000e+09 1.200000000000000000e+02 0.000000000000000000e+00 5.000000000000000311e-10
1.490667628000000000e+09 1.200000000000000000e+02 0.000000000000000000e+00 5.000000000000000311e-10
1.490667630000000000e+09 1.200000000000000000e+02 7.757680000000000305e-04 5.000000000000000311e-10
1.490667632000000000e+09 1.200000000000000000e+02 0.000000000000000000e+00 5.000000000000000311e-10
1.490667634000000000e+09 1.200000000000000000e+02 0.000000000000000000e+00 5.000000000000000311e-10
1.490667636000000000e+09 1.200000000000000000e+02 0.000000000000000000e+00 5.000000000000000311e-10
1.490667638000000000e+09 1.200000000000000000e+02 0.000000000000000000e+00 5.000000000000000311e-10
1.490667640000000000e+09 1.200000000000000000e+02 0.000000000000000000e+00 5.000000000000000311e-10
1.490667642000000000e+09 1.200000000000000000e+02 0.000000000000000000e+00 5.000000000000000311e-10
1.490667644000000000e+09 1.200000000000000000e+02 0.000000000000000000e+00 5.000000000000000311e-10
1.490667646000000000e+09 1.200000000000000000e+02 0.000000000000000000e+00 5.000000000000000311e-10
1.490667648000000000e+09 1.200000000000000000e+02 0.000000000000000000e+00 5.000000000000000311e-10
1.490667650000000000e+09 1.200000000000000000e+02 0.000000000000000000e+00 5.000000000000000311e-10
1.490667652000000000e+09 1.200000000000000000e+02 0.000000000000000000e+00 5.000000000000000311e-10
1.490667654000000000e+09 1.200000000000000000e+02 0.000000000000000000e+00 5.000000000000000311e-10
1.490667656000000000e+09 1.200000000000000000e+02 0.000000000000000000e+00 5.000000000000000311e-10
1.490667658000000000e+09 1.200000000000000000e+02 0.000000000000000000e+00 5.000000000000000311e-10
1.490667660000000000e+09 1.200000000000000000e+02 0.000000000000000000e+00 5.000000000000000311e-10
1.490667662000000000e+09 1.200000000000000000e+02 0.000000000000000000e+00 5.000000000000000311e-10
1.490667664000000000e+09 1.200000000000000000e+02 0.000000000000000000e+00 5.000000000000000311e-10
1.490667666000000000e+09 1.200000000000000000e+02 0.000000000000000000e+00 5.000000000000000311e-10
1.490667668000000000e+09 1.200000000000000000e+02 0.000000000000000000e+00 5.000000000000000311e-10
1.490667670000000000e+09 1.200000000000000000e+02 0.000000000000000000e+00 5.000000000000000311e-10
1.490667672000000000e+09 1.200000000000000000e+02 0.000000000000000000e+00 5.000000000000000311e-10
1.490667674000000000e+09 1.200000000000000000e+02 0.000000000000000000e+00 5.000000000000000311e-10
1.490667676000000000e+09 1.200000000000000000e+02 0.000000000000000000e+00 5.000000000000000311e-10
1.490667678000000000e+09 1.200000000000000000e+02 0.000000000000000000e+00 5.000000000000000311e-10
1.490667680000000000e+09 1.200000000000000000e+02 0.000000000000000000e+00 5.000000000000000311e-10
1.490667682000000000e+09 1.200000000000000000e+02 0.000000000000000000e+00 5.000000000000000311e-10
1.490667684000000000e+09 1.200000000000000000e+02 0.000000000000000000e+00 5.000000000000000311e-10
1.490667686000000000e+09 1.200000000000000000e+02 0.000000000000000000e+00 5.000000000000000311e-10
1.490667688000000000e+09 1.200000000000000000e+02 0.000000000000000000e+00 5.000000000000000311e-10
