# tags                 xfel_bl_3_st_2_motor_1/position xfel_bl_3_st_2_pd_user_4_fitting_peak/voltage xfel_bl_3_st_2_pd_user_4_fitting_peak/gainC
1.486861312000000000e+09 -1.200000000000000000e+02 0.000000000000000000e+00 5.000000000000000182e-11
1.486861314000000000e+09 -1.200000000000000000e+02 0.000000000000000000e+00 5.000000000000000182e-11
1.486861316000000000e+09 -1.200000000000000000e+02 0.000000000000000000e+00 5.000000000000000182e-11
1.486861318000000000e+09 -1.200000000000000000e+02 0.000000000000000000e+00 5.000000000000000182e-11
1.486861320000000000e+09 -1.200000000000000000e+02 0.000000000000000000e+00 5.000000000000000182e-11
1.486861322000000000e+09 -1.200000000000000000e+02 0.000000000000000000e+00 5.000000000000000182e-11
1.486861324000000000e+09 -1.200000000000000000e+02 0.000000000000000000e+00 5.000000000000000182e-11
1.486861326000000000e+09 -1.200000000000000000e+02 0.000000000000000000e+00 5.000000000000000182e-11
1.486861328000000000e+09 -1.200000000000000000e+02 0.000000000000000000e+00 5.000000000000000182e-11
1.486861330000000000e+09 -1.200000000000000000e+02 0.000000000000000000e+00 5.000000000000000182e-11
1.486861332000000000e+09 -1.200000000000000000e+02 0.000000000000000000e+00 5.000000000000000182e-11
1.486861334000000000e+09 -1.200000000000000000e+02 0.000000000000000000e+00 5.000000000000000182e-11
1.486861336000000000e+09 -1.200000000000000000e+02 0.000000000000000000e+00 5.000000000000000182e-11
1.486861338000000000e+09 -1.200000000000000000e+02 0.000000000000000000e+00 5.000000000000000182e-11
1.486861340000000000e+09 -1.200000000000000000e+02 0.000000000000000000e+00 5.000000000000000182e-11
1.486861342000000000e+09 -1.200000000000000000e+02 0.000000000000000000e+00 5.000000000000000182e-11
1.486861344000000000e+09 -1.200000000000000000e+02 0.000000000000000000e+00 5.000000000000000182e-11
1.486861346000000000e+09 -1.200000000000000000e+02 0.000000000000000000e+00 5.000000000000000182e-11
1.486861348000000000e+09 -1.200000000000000000e+02 0.000000000000000000e+00 5.000000000000000182e-11
1.486861350000000000e+09 -1.200000000000000000e+02 0.000000000000000000e+00 5.000000000000000182e-11
1.486861352000000000e+09 -1.200000000000000000e+02 0.000000000000000000e+00 5.000000000000000182e-11
1.486861354000000000e+09 -1.200000000000000000e+02 0.000000000000000000e+00 5.000000000000000182e-11
1.486861356000000000e+09 -1.200000000000000000e+02 0.000000000000000000e+00 5.000000000000000182e-11
1.486861358000000000e+09 -1.200000000000000000e+02 3.876769999999999869e-03 5.000000000000000182e-11
1.486861360000000000e+09 -1.200000000000000000e+02 0.000000000000000000e+00 5.000000000000000182e-11
1.486861362000000000e+09 -1.200000000000000000e+02 0.000000000000000000e+00 5.000000000000000182e-11
1.486861364000000000e+09 -1.200000000000000000e+02 0.000000000000000000e+00 5.000000000000000182e-11
1.486861366000000000e+09 -1.200000000000000000e+02 0.000000000000000000e+00 5.000000000000000182e-11
1.486861368000000000e+09 -1.200000000000000000e+02 0.000000000000000000e+00 5.000000000000000182e-11
1.486861370000000000e+09 -1.200000000000000000e+02 0.000000000000000000e+00 5.000000000000000182e-11
1.486861372000000000e+09 -1.200000000000000000e+02 0.000000000000000000e+00 5.000000000000000182e-11
1.486861374000000000e+09 -1.200000000000000000e+02 0.000000000000000000e+00 5.000000000000000182e-11
1.486861376000000000e+09 -1.200000000000000000e+02 0.000000000000000000e+00 5.000000000000000182e-11
1.486861378000000000e+09 -1.200000000000000000e+02 0.000000000000000000e+00 5.000000000000000182e-11
1.486861380000000000e+09 -1.200000000000000000e+02 0.000000000000000000e+00 5.000000000000000182e-11
1.486861382000000000e+09 -1.200000000000000000e+02 0.000000000000000000e+00 5.000000000000000182e-11
1.486861384000000000e+09 -1.200000000000000000e+02 0.000000000000000000e+00 5.000000000000000182e-11
1.486861386000000000e+09 -1.200000000000000000e+02 0.000000000000000000e+00 5.000000000000000182e-11
1.486861388000000000e+09 -1.200000000000000000e+02 0.000000000000000000e+00 5.000000000000000182e-11
1.486861390000000000e+09 -1.200000000000000000e+02 0.000000000000000000e+00 5.000000000000000182e-11
1.486861392000000000e+09 -1.200000000000000000e+02 0.000000000000000000e+00 5.000000000000000182e-11
1.486861394000000000e+09 -1.200000000000000000e+02 0.000000000000000000e+00 5.000000000000000182e-11
1.486861396000000000e+09 -1.200000000000000000e+02 0.000000000000000000e+00 5.000000000000000182e-11
1.486861398000000000e+09 -1.200000000000000000e+02 0.000000000000000000e+00 5.000000000000000182e-11
1.486861400000000000e+09 -1.200000000000000000e+02 0.000000000000000000e+00 5.000000000000000182e-11
1.486861402000000000e+09 -1.200000000000000000e+02 0.000000000000000000e+00 5.000000000000000182e-11
1.486861404000000000e+09 -1.200000000000000000e+02 0.000000000000000000e+00 5.000000000000000182e-11
1.486861406000000000e+09 -1.200000000000000000e+02 0.000000000000000000e+00 5.000000000000000182e-11
1.486861408000000000e+09 -1.200000000000000000e+02 0.000000000000000000e+00 5.000000000000000182e-11
1.486861410000000000e+09 -1.200000000000000000e+02 0.000000000000000000e+00 5.000000000000000182e-11
1.486861412000000000e+09 -1.200000000000000000e+02 0.000000000000000000e+00 5.000000000000000182e-11
1.486861414000000000e+09 -1.200000000000000000e+02 0.000000000000000000e+00 5.000000000000000182e-11
1.486861416000000000e+09 -1.200000000000000000e+02 0.000000000000000000e+00 5.000000000000000182e-11
1.486861418000000000e+09 -1.200000000000000000e+02 0.000000000000000000e+00 5.000000000000000182e-11
1.486861420000000000e+09 -1.200000000000000000e+02 0.000000000000000000e+00 5.000000000000000182e-11
1.486861422000000000e+09 -1.200000000000000000e+02 0.000000000000000000e+00 5.000000000000000182e-11
1.486861424000000000e+09 -1.200000000000000000e+02 0.000000000000000000e+00 5.000000000000000182e-11
1.486861426000000000e+09 -1.200000000000000000e+02 0.000000000000000000e+00 5.000000000000000182e-11
1.486861428000000000e+09 -1.200000000000000000e+02 0.000000000000000000e+00 5.000000000000000182e-11
1.486861430000000000e+09 -1.200000000000000000e+02 0.000000000000000000e+00 5.000000000000000182e-11
1.486861432000000000e+09 -1.200000000000000000e+02 0.000000000000000000e+00 5.000000000000000182e-11
1.486861434000000000e+09 -1.200000000000000000e+02 0.000000000000000000e+00 5.000000000000000182e-11
1.486861436000000000e+09 -1.200000000000000000e+02 0.000000000000000000e+00 5.000000000000000182e-11
1.486861438000000000e+09 -1.200000000000000000e+02 0.000000000000000000e+00 5.000000000000000182e-11
1.486861440000000000e+09 -1.200000000000000000e+02 0.000000000000000000e+00 5.000000000000000182e-11
1.486861442000000000e+09 -1.200000000000000000e+02 0.000000000000000000e+00 5.000000000000000182e-11
1.486861444000000000e+09 -1.200000000000000000e+02 0.000000000000000000e+00 5.000000000000000182e-11
1.486861446000000000e+09 -1.200000000000000000e+02 0.000000000000000000e+00 5.000000000000000182e-11
1.486861448000000000e+09 -1.200000000000000000e+02 0.000000000000000000e+00 5.000000000000000182e-11
1.486861450000000000e+09 -1.200000000000000000e+02 0.000000000000000000e+00 5.000000000000000182e-11
1.486861452000000000e+09 -1.200000000000000000e+02 0.000000000000000000e+00 5.000000000000000182e-11
1.486861454000000000e+09 -1.200000000000000000e+02 0.000000000000000000e+00 5.000000000000000182e-11
1.486861456000000000e+09 -1.200000000000000000e+02 0.000000000000000000e+00 5.000000000000000182e-11
1.486861458000000000e+09 -1.200000000000000000e+02 9.722500000000000239e-04 5.000000000000000182e-11
1.486861460000000000e+09 -1.200000000000000000e+02 0.000000000000000000e+00 5.000000000000000182e-11
1.486861462000000000e+09 -1.200000000000000000e+02 0.000000000000000000e+00 5.000000000000000182e-11
1.486861464000000000e+09 -1.200000000000000000e+02 0.000000000000000000e+00 5.000000000000000182e-11
1.486861466000000000e+09 -1.200000000000000000e+02 0.000000000000000000e+00 5.000000000000000182e-11
1.486861468000000000e+09 -1.200000000000000000e+02 0.000000000000000000e+00 5.000000000000000182e-11
1.486861470000000000e+09 -1.200000000000000000e+02 0.000000000000000000e+00 5.000000000000000182e-11
1.486861472000000000e+09 -1.200000000000000000e+02 0.000000000000000000e+00 5.000000000000000182e-11
1.486861474000000000e+09 -1.200000000000000000e+02 0.000000000000000000e+00 5.000000000000000182e-11
1.486861476000000000e+09 -1.200000000000000000e+02 0.000000000000000000e+00 5.000000000000000182e-11
1.486861478000000000e+09 -1.200000000000000000e+02 0.000000000000000000e+00 5.000000000000000182e-11
1.486861480000000000e+09 -1.200000000000000000e+02 0.000000000000000000e+00 5.000000000000000182e-11
1.486861482000000000e+09 -1.200000000000000000e+02 0.000000000000000000e+00 5.000000000000000182e-11
1.486861484000000000e+09 -1.200000000000000000e+02 0.000000000000000000e+00 5.000000000000000182e-11
1.486861486000000000e+09 -1.200000000000000000e+02 0.000000000000000000e+00 5.000000000000000182e-11
1.486861488000000000e+09 -1.200000000000000000e+02 0.000000000000000000e+00 5.000000000000000182e-11
1.486861490000000000e+09 -1.200000000000000000e+02 0.000000000000000000e+00 5.000000000000000182e-11
1.486861492000000000e+09 -1.200000000000000000e+02 0.000000000000000000e+00 5.000000000000000182e-11
1.486861494000000000e+09 -1.200000000000000000e+02 0.000000000000000000e+00 5.000000000000000182e-11
1.486861496000000000e+09 -1.200000000000000000e+02 1.218359999999999929e-03 5.000000000000000182e-11
1.486861498000000000e+09 -1.200000000000000000e+02 0.000000000000000000e+00 5.000000000000000182e-11
1.486861500000000000e+09 -1.200000000000000000e+02 0.000000000000000000e+00 5.000000000000000182e-11
1.486861502000000000e+09 -1.200000000000000000e+02 0.000000000000000000e+00 5.000000000000000182e-11
1.486861504000000000e+09 -1.200000000000000000e+02 0.000000000000000000e+00 5.000000000000000182e-11
1.486861506000000000e+09 -1.200000000000000000e+02 0.000000000000000000e+00 5.000000000000000182e-11
1.486861508000000000e+09 -1.200000000000000000e+02 0.000000000000000000e+00 5.000000000000000182e-11
1.486861510000000000e+09 -1.200000000000000000e+02 0.000000000000000000e+00 5.000000000000000182e-11
1.486861512000000000e+09 -1.200000000000000000e+02 0.000000000000000000e+00 5.000000000000000182e-11
1.486861514000000000e+09 -1.200000000000000000e+02 0.000000000000000000e+00 5.000000000000000182e-11
1.486861516000000000e+09 -1.200000000000000000e+02 0.000000000000000000e+00 5.000000000000000182e-11
1.486861518000000000e+09 -1.200000000000000000e+02 0.000000000000000000e+00 5.000000000000000182e-11
1.486861520000000000e+09 -1.200000000000000000e+02 1.624430000000000058e-03 5.000000000000000182e-11
1.486861522000000000e+09 -1.200000000000000000e+02 0.000000000000000000e+00 5.000000000000000182e-11
1.486861524000000000e+09 -1.200000000000000000e+02 7.157850000000000323e-03 5.000000000000000182e-11
1.486861526000000000e+09 -1.200000000000000000e+02 0.000000000000000000e+00 5.000000000000000182e-11
1.486861528000000000e+09 -1.200000000000000000e+02 0.000000000000000000e+00 5.000000000000000182e-11
1.486861530000000000e+09 -1.200000000000000000e+02 0.000000000000000000e+00 5.000000000000000182e-11
1.486861532000000000e+09 -1.200000000000000000e+02 0.000000000000000000e+00 5.000000000000000182e-11
1.486861534000000000e+09 -1.200000000000000000e+02 0.000000000000000000e+00 5.000000000000000182e-11
1.486861536000000000e+09 -1.200000000000000000e+02 1.067620000000000027e-03 5.000000000000000182e-11
1.486861538000000000e+09 -1.200000000000000000e+02 0.000000000000000000e+00 5.000000000000000182e-11
1.486861540000000000e+09 -1.200000000000000000e+02 0.000000000000000000e+00 5.000000000000000182e-11
1.486861542000000000e+09 -1.200000000000000000e+02 0.000000000000000000e+00 5.000000000000000182e-11
1.486861544000000000e+09 -1.200000000000000000e+02 0.000000000000000000e+00 5.000000000000000182e-11
1.486861546000000000e+09 -1.200000000000000000e+02 0.000000000000000000e+00 5.000000000000000182e-11
1.486861548000000000e+09 -1.200000000000000000e+02 0.000000000000000000e+00 5.000000000000000182e-11
1.486861550000000000e+09 -1.200000000000000000e+02 0.000000000000000000e+00 5.000000000000000182e-11
1.486861552000000000e+09 -1.200000000000000000e+02 0.000000000000000000e+00 5.000000000000000182e-11
1.486861554000000000e+09 -1.200000000000000000e+02 0.000000000000000000e+00 5.000000000000000182e-11
1.486861556000000000e+09 -1.200000000000000000e+02 0.000000000000000000e+00 5.000000000000000182e-11
1.486861558000000000e+09 -1.200000000000000000e+02 0.000000000000000000e+00 5.000000000000000182e-11
1.486861560000000000e+09 -1.200000000000000000e+02 0.000000000000000000e+00 5.000000000000000182e-11
1.486861562000000000e+09 -1.200000000000000000e+02 0.000000000000000000e+00 5.000000000000000182e-11
1.486861564000000000e+09 -1.200000000000000000e+02 0.000000000000000000e+00 5.000000000000000182e-11
1.486861566000000000e+09 -1.200000000000000000e+02 0.000000000000000000e+00 5.000000000000000182e-11
1.486861568000000000e+09 -1.200000000000000000e+02 0.000000000000000000e+00 5.000000000000000182e-11
1.486861570000000000e+09 -1.200000000000000000e+02 4.992319999999999663e-05 5.000000000000000182e-11
1.486861572000000000e+09 -1.200000000000000000e+02 0.000000000000000000e+00 5.000000000000000182e-11
1.486861574000000000e+09 -1.200000000000000000e+02 0.000000000000000000e+00 5.000000000000000182e-11
1.486861576000000000e+09 -1.200000000000000000e+02 0.000000000000000000e+00 5.000000000000000182e-11
1.486861578000000000e+09 -1.200000000000000000e+02 0.000000000000000000e+00 5.000000000000000182e-11
1.486861580000000000e+09 -1.200000000000000000e+02 0.000000000000000000e+00 5.000000000000000182e-11
1.486861582000000000e+09 -1.200000000000000000e+02 0.000000000000000000e+00 5.000000000000000182e-11
1.486861584000000000e+09 -1.200000000000000000e+02 0.000000000000000000e+00 5.000000000000000182e-11
1.486861586000000000e+09 -1.200000000000000000e+02 0.000000000000000000e+00 5.000000000000000182e-11
1.486861588000000000e+09 -1.200000000000000000e+02 0.000000000000000000e+00 5.000000000000000182e-11
1.486861590000000000e+09 -1.200000000000000000e+02 0.000000000000000000e+00 5.000000000000000182e-11
1.486861592000000000e+09 -1.200000000000000000e+02 0.000000000000000000e+00 5.000000000000000182e-11
1.486861594000000000e+09 -1.200000000000000000e+02 0.000000000000000000e+00 5.000000000000000182e-11
1.486861596000000000e+09 -1.200000000000000000e+02 5.973190000000000183e-04 5.000000000000000182e-11
1.486861598000000000e+09 -1.200000000000000000e+02 0.000000000000000000e+00 5.000000000000000182e-11
1.486861600000000000e+09 -1.200000000000000000e+02 7.169400000000000252e-03 5.000000000000000182e-11
1.486861602000000000e+09 -1.200000000000000000e+02 0.000000000000000000e+00 5.000000000000000182e-11
1.486861604000000000e+09 -1.200000000000000000e+02 0.000000000000000000e+00 5.000000000000000182e-11
1.486861606000000000e+09 -1.200000000000000000e+02 0.000000000000000000e+00 5.000000000000000182e-11
1.486861608000000000e+09 -1.200000000000000000e+02 0.000000000000000000e+00 5.000000000000000182e-11
1.486861610000000000e+09 -1.200000000000000000e+02 0.000000000000000000e+00 5.000000000000000182e-11
1.486861612000000000e+09 -1.200000000000000000e+02 0.000000000000000000e+00 5.000000000000000182e-11
1.486861614000000000e+09 -1.200000000000000000e+02 0.000000000000000000e+00 5.000000000000000182e-11
1.486861616000000000e+09 -1.200000000000000000e+02 0.000000000000000000e+00 5.000000000000000182e-11
1.486861618000000000e+09 -1.200000000000000000e+02 0.000000000000000000e+00 5.000000000000000182e-11
1.486861620000000000e+09 -1.200000000000000000e+02 0.000000000000000000e+00 5.000000000000000182e-11
1.486861622000000000e+09 -1.200000000000000000e+02 0.000000000000000000e+00 5.000000000000000182e-11
1.486861624000000000e+09 -1.200000000000000000e+02 0.000000000000000000e+00 5.000000000000000182e-11
1.486861626000000000e+09 -1.200000000000000000e+02 0.000000000000000000e+00 5.000000000000000182e-11
1.486861628000000000e+09 -1.200000000000000000e+02 0.000000000000000000e+00 5.000000000000000182e-11
1.486861630000000000e+09 -1.200000000000000000e+02 0.000000000000000000e+00 5.000000000000000182e-11
1.486861632000000000e+09 -1.200000000000000000e+02 0.000000000000000000e+00 5.000000000000000182e-11
1.486861634000000000e+09 -1.200000000000000000e+02 6.854260000000000474e-04 5.000000000000000182e-11
1.486861636000000000e+09 -1.200000000000000000e+02 0.000000000000000000e+00 5.000000000000000182e-11
1.486861638000000000e+09 -1.200000000000000000e+02 0.000000000000000000e+00 5.000000000000000182e-11
1.486861640000000000e+09 -1.200000000000000000e+02 0.000000000000000000e+00 5.000000000000000182e-11
1.486861642000000000e+09 -1.200000000000000000e+02 7.779359999999999921e-03 5.000000000000000182e-11
1.486861644000000000e+09 -1.200000000000000000e+02 0.000000000000000000e+00 5.000000000000000182e-11
1.486861646000000000e+09 -1.200000000000000000e+02 0.000000000000000000e+00 5.000000000000000182e-11
1.486861648000000000e+09 -1.200000000000000000e+02 0.000000000000000000e+00 5.000000000000000182e-11
1.486861650000000000e+09 -1.200000000000000000e+02 0.000000000000000000e+00 5.000000000000000182e-11
1.486861652000000000e+09 -1.200000000000000000e+02 0.000000000000000000e+00 5.000000000000000182e-11
1.486861654000000000e+09 -1.200000000000000000e+02 0.000000000000000000e+00 5.000000000000000182e-11
1.486861656000000000e+09 -1.200000000000000000e+02 0.000000000000000000e+00 5.000000000000000182e-11
1.486861658000000000e+09 -1.200000000000000000e+02 0.000000000000000000e+00 5.000000000000000182e-11
1.486861660000000000e+09 -1.200000000000000000e+02 0.000000000000000000e+00 5.000000000000000182e-11
1.486861662000000000e+09 -1.200000000000000000e+02 0.000000000000000000e+00 5.000000000000000182e-11
1.486861664000000000e+09 -1.200000000000000000e+02 0.000000000000000000e+00 5.000000000000000182e-11
1.486861666000000000e+09 -1.200000000000000000e+02 0.000000000000000000e+00 5.000000000000000182e-11
1.486861668000000000e+09 -1.200000000000000000e+02 0.000000000000000000e+00 5.000000000000000182e-11
1.486861670000000000e+09 -1.200000000000000000e+02 0.000000000000000000e+00 5.000000000000000182e-11
1.486861672000000000e+09 -1.200000000000000000e+02 0.000000000000000000e+00 5.000000000000000182e-11
1.486861674000000000e+09 -1.200000000000000000e+02 0.000000000000000000e+00 5.000000000000000182e-11
1.486861676000000000e+09 -1.200000000000000000e+02 0.000000000000000000e+00 5.000000000000000182e-11
1.486861678000000000e+09 -1.200000000000000000e+02 0.000000000000000000e+00 5.000000000000000182e-11
1.486861680000000000e+09 -1.200000000000000000e+02 0.000000000000000000e+00 5.000000000000000182e-11
1.486861682000000000e+09 -1.200000000000000000e+02 0.000000000000000000e+00 5.000000000000000182e-11
1.486861684000000000e+09 -1.200000000000000000e+02 0.000000000000000000e+00 5.000000000000000182e-11
1.486861686000000000e+09 -1.200000000000000000e+02 0.000000000000000000e+00 5.000000000000000182e-11
1.486861688000000000e+09 -1.200000000000000000e+02 0.000000000000000000e+00 5.000000000000000182e-11
1.486861690000000000e+09 -1.200000000000000000e+02 0.000000000000000000e+00 5.000000000000000182e-11
1.486861692000000000e+09 -1.200000000000000000e+02 0.000000000000000000e+00 5.000000000000000182e-11
1.486861694000000000e+09 -1.200000000000000000e+02 0.000000000000000000e+00 5.000000000000000182e-11
1.486861696000000000e+09 -1.200000000000000000e+02 0.000000000000000000e+00 5.000000000000000182e-11
1.486861698000000000e+09 -1.200000000000000000e+02 0.000000000000000000e+00 5.000000000000000182e-11
1.486861700000000000e+09 -1.200000000000000000e+02 0.000000000000000000e+00 5.000000000000000182e-11
1.486861702000000000e+09 -1.200000000000000000e+02 0.000000000000000000e+00 5.000000000000000182e-11
1.486861704000000000e+09 -1.200000000000000000e+02 0.000000000000000000e+00 5.000000000000000182e-11
1.486861706000000000e+09 -1.200000000000000000e+02 0.000000000000000000e+00 5.000000000000000182e-11
1.486861708000000000e+09 -1.200000000000000000e+02 0.000000000000000000e+00 5.000000000000000182e-11
1.486861710000000000e+09 -1.200000000000000000e+02 0.000000000000000000e+00 5.000000000000000182e-11
1.486861712000000000e+09 -1.200000000000000000e+02 0.000000000000000000e+00 5.000000000000000182e-11
1.486861714000000000e+09 -1.200000000000000000e+02 0.000000000000000000e+00 5.000000000000000182e-11
1.486861716000000000e+09 -1.200000000000000000e+02 0.000000000000000000e+00 5.000000000000000182e-11
1.486861718000000000e+09 -1.200000000000000000e+02 0.000000000000000000e+00 5.000000000000000182e-11
1.486861720000000000e+09 -1.200000000000000000e+02 0.000000000000000000e+00 5.000000000000000182e-11
1.486861722000000000e+09 -1.200000000000000000e+02 0.000000000000000000e+00 5.000000000000000182e-11
1.486861724000000000e+09 -1.200000000000000000e+02 0.000000000000000000e+00 5.000000000000000182e-11
1.486861726000000000e+09 -1.200000000000000000e+02 0.000000000000000000e+00 5.000000000000000182e-11
1.486861728000000000e+09 -1.200000000000000000e+02 0.000000000000000000e+00 5.000000000000000182e-11
1.486861730000000000e+09 -1.200000000000000000e+02 0.000000000000000000e+00 5.000000000000000182e-11
1.486861732000000000e+09 -1.200000000000000000e+02 0.000000000000000000e+00 5.000000000000000182e-11
1.486861734000000000e+09 -1.200000000000000000e+02 0.000000000000000000e+00 5.000000000000000182e-11
1.486861736000000000e+09 -1.200000000000000000e+02 0.000000000000000000e+00 5.000000000000000182e-11
1.486861738000000000e+09 -1.200000000000000000e+02 0.000000000000000000e+00 5.000000000000000182e-11
1.486861740000000000e+09 -1.200000000000000000e+02 0.000000000000000000e+00 5.000000000000000182e-11
1.486861742000000000e+09 -1.200000000000000000e+02 0.000000000000000000e+00 5.000000000000000182e-11
1.486861744000000000e+09 -1.200000000000000000e+02 0.000000000000000000e+00 5.000000000000000182e-11
1.486861746000000000e+09 -1.200000000000000000e+02 0.000000000000000000e+00 5.000000000000000182e-11
1.486861748000000000e+09 -1.200000000000000000e+02 0.000000000000000000e+00 5.000000000000000182e-11
1.486861750000000000e+09 -1.200000000000000000e+02 0.000000000000000000e+00 5.000000000000000182e-11
1.486861752000000000e+09 -1.200000000000000000e+02 0.000000000000000000e+00 5.000000000000000182e-11
1.486861754000000000e+09 -1.200000000000000000e+02 3.791489999999999791e-03 5.000000000000000182e-11
1.486861756000000000e+09 -1.200000000000000000e+02 0.000000000000000000e+00 5.000000000000000182e-11
1.486861758000000000e+09 -1.200000000000000000e+02 0.000000000000000000e+00 5.000000000000000182e-11
1.486861760000000000e+09 -1.200000000000000000e+02 0.000000000000000000e+00 5.000000000000000182e-11
1.486861762000000000e+09 -1.200000000000000000e+02 0.000000000000000000e+00 5.000000000000000182e-11
1.486861764000000000e+09 -1.200000000000000000e+02 0.000000000000000000e+00 5.000000000000000182e-11
1.486861766000000000e+09 -1.200000000000000000e+02 0.000000000000000000e+00 5.000000000000000182e-11
1.486861768000000000e+09 -1.200000000000000000e+02 6.798049999999999926e-03 5.000000000000000182e-11
1.486861770000000000e+09 -1.200000000000000000e+02 0.000000000000000000e+00 5.000000000000000182e-11
1.486861772000000000e+09 -1.200000000000000000e+02 0.000000000000000000e+00 5.000000000000000182e-11
1.486861774000000000e+09 -1.200000000000000000e+02 0.000000000000000000e+00 5.000000000000000182e-11
1.486861776000000000e+09 -1.200000000000000000e+02 0.000000000000000000e+00 5.000000000000000182e-11
1.486861778000000000e+09 -1.200000000000000000e+02 2.300949999999999957e-03 5.000000000000000182e-11
1.486861780000000000e+09 -1.200000000000000000e+02 0.000000000000000000e+00 5.000000000000000182e-11
1.486861782000000000e+09 -1.200000000000000000e+02 0.000000000000000000e+00 5.000000000000000182e-11
1.486861784000000000e+09 -1.200000000000000000e+02 0.000000000000000000e+00 5.000000000000000182e-11
1.486861786000000000e+09 -1.200000000000000000e+02 0.000000000000000000e+00 5.000000000000000182e-11
1.486861788000000000e+09 -1.200000000000000000e+02 4.734140000000000180e-04 5.000000000000000182e-11
1.486861790000000000e+09 -1.200000000000000000e+02 0.000000000000000000e+00 5.000000000000000182e-11
1.486861792000000000e+09 -1.200000000000000000e+02 0.000000000000000000e+00 5.000000000000000182e-11
1.486861794000000000e+09 -1.200000000000000000e+02 0.000000000000000000e+00 5.000000000000000182e-11
1.486861796000000000e+09 -1.200000000000000000e+02 0.000000000000000000e+00 5.000000000000000182e-11
1.486861798000000000e+09 -1.200000000000000000e+02 0.000000000000000000e+00 5.000000000000000182e-11
1.486861800000000000e+09 -1.200000000000000000e+02 0.000000000000000000e+00 5.000000000000000182e-11
1.486861802000000000e+09 -1.200000000000000000e+02 0.000000000000000000e+00 5.000000000000000182e-11
1.486861804000000000e+09 -1.200000000000000000e+02 0.000000000000000000e+00 5.000000000000000182e-11
1.486861806000000000e+09 -1.200000000000000000e+02 0.000000000000000000e+00 5.000000000000000182e-11
1.486861808000000000e+09 -1.200000000000000000e+02 0.000000000000000000e+00 5.000000000000000182e-11
1.486861810000000000e+09 -1.200000000000000000e+02 0.000000000000000000e+00 5.000000000000000182e-11
1.486861812000000000e+09 -1.200000000000000000e+02 0.000000000000000000e+00 5.000000000000000182e-11
1.486861814000000000e+09 -1.200000000000000000e+02 0.000000000000000000e+00 5.000000000000000182e-11
1.486861816000000000e+09 -1.200000000000000000e+02 0.000000000000000000e+00 5.000000000000000182e-11
1.486861818000000000e+09 -1.200000000000000000e+02 0.000000000000000000e+00 5.000000000000000182e-11
1.486861820000000000e+09 -1.200000000000000000e+02 0.000000000000000000e+00 5.000000000000000182e-11
1.486861822000000000e+09 -1.200000000000000000e+02 0.000000000000000000e+00 5.000000000000000182e-11
1.486861824000000000e+09 -1.200000000000000000e+02 0.000000000000000000e+00 5.000000000000000182e-11
1.486861826000000000e+09 -1.200000000000000000e+02 0.000000000000000000e+00 5.000000000000000182e-11
1.486861828000000000e+09 -1.200000000000000000e+02 0.000000000000000000e+00 5.000000000000000182e-11
1.486861830000000000e+09 -1.200000000000000000e+02 0.000000000000000000e+00 5.000000000000000182e-11
1.486861832000000000e+09 -1.200000000000000000e+02 0.000000000000000000e+00 5.000000000000000182e-11
1.486861834000000000e+09 -1.200000000000000000e+02 0.000000000000000000e+00 5.000000000000000182e-11
1.486861836000000000e+09 -1.200000000000000000e+02 1.078460000000000052e-03 5.000000000000000182e-11
1.486861838000000000e+09 -1.200000000000000000e+02 0.000000000000000000e+00 5.000000000000000182e-11
1.486861840000000000e+09 -1.200000000000000000e+02 0.000000000000000000e+00 5.000000000000000182e-11
1.486861842000000000e+09 -1.200000000000000000e+02 0.000000000000000000e+00 5.000000000000000182e-11
1.486861844000000000e+09 -1.200000000000000000e+02 0.000000000000000000e+00 5.000000000000000182e-11
1.486861846000000000e+09 -1.200000000000000000e+02 0.000000000000000000e+00 5.000000000000000182e-11
1.486861848000000000e+09 -1.200000000000000000e+02 0.000000000000000000e+00 5.000000000000000182e-11
1.486861850000000000e+09 -1.200000000000000000e+02 0.000000000000000000e+00 5.000000000000000182e-11
1.486861852000000000e+09 -1.200000000000000000e+02 5.122869999999999854e-03 5.000000000000000182e-11
1.486861854000000000e+09 -1.200000000000000000e+02 0.000000000000000000e+00 5.000000000000000182e-11
1.486861856000000000e+09 -1.200000000000000000e+02 0.000000000000000000e+00 5.000000000000000182e-11
1.486861858000000000e+09 -1.200000000000000000e+02 0.000000000000000000e+00 5.000000000000000182e-11
1.486861860000000000e+09 -1.200000000000000000e+02 0.000000000000000000e+00 5.000000000000000182e-11
1.486861862000000000e+09 -1.200000000000000000e+02 0.000000000000000000e+00 5.000000000000000182e-11
1.486861864000000000e+09 -1.200000000000000000e+02 0.000000000000000000e+00 5.000000000000000182e-11
1.486861866000000000e+09 -1.200000000000000000e+02 0.000000000000000000e+00 5.000000000000000182e-11
1.486861868000000000e+09 -1.200000000000000000e+02 0.000000000000000000e+00 5.000000000000000182e-11
1.486861870000000000e+09 -1.200000000000000000e+02 0.000000000000000000e+00 5.000000000000000182e-11
1.486861872000000000e+09 -1.200000000000000000e+02 0.000000000000000000e+00 5.000000000000000182e-11
1.486861874000000000e+09 -1.200000000000000000e+02 0.000000000000000000e+00 5.000000000000000182e-11
1.486861876000000000e+09 -1.200000000000000000e+02 0.000000000000000000e+00 5.000000000000000182e-11
1.486861878000000000e+09 -1.200000000000000000e+02 0.000000000000000000e+00 5.000000000000000182e-11
1.486861880000000000e+09 -1.200000000000000000e+02 0.000000000000000000e+00 5.000000000000000182e-11
1.486861882000000000e+09 -1.200000000000000000e+02 0.000000000000000000e+00 5.000000000000000182e-11
1.486861884000000000e+09 -1.200000000000000000e+02 0.000000000000000000e+00 5.000000000000000182e-11
1.486861886000000000e+09 -1.200000000000000000e+02 2.113859999999999958e-03 5.000000000000000182e-11
1.486861888000000000e+09 -1.200000000000000000e+02 0.000000000000000000e+00 5.000000000000000182e-11
1.486861890000000000e+09 -1.200000000000000000e+02 0.000000000000000000e+00 5.000000000000000182e-11
1.486861892000000000e+09 -1.200000000000000000e+02 0.000000000000000000e+00 5.000000000000000182e-11
1.486861894000000000e+09 -1.200000000000000000e+02 0.000000000000000000e+00 5.000000000000000182e-11
1.486861896000000000e+09 -1.200000000000000000e+02 0.000000000000000000e+00 5.000000000000000182e-11
1.486861898000000000e+09 -1.200000000000000000e+02 0.000000000000000000e+00 5.000000000000000182e-11
1.486861900000000000e+09 -1.200000000000000000e+02 0.000000000000000000e+00 5.000000000000000182e-11
1.486861902000000000e+09 -1.200000000000000000e+02 5.301730000000000158e-03 5.000000000000000182e-11
1.486861904000000000e+09 -1.200000000000000000e+02 0.000000000000000000e+00 5.000000000000000182e-11
1.486861906000000000e+09 -1.200000000000000000e+02 0.000000000000000000e+00 5.000000000000000182e-11
1.486861908000000000e+09 -1.200000000000000000e+02 0.000000000000000000e+00 5.000000000000000182e-11
1.486861910000000000e+09 -1.200000000000000000e+02 0.000000000000000000e+00 5.000000000000000182e-11
