# tags                 xfel_bl_3_st_2_motor_1/position xfel_bl_3_st_2_pd_user_4_fitting_peak/voltage xfel_bl_3_st_2_pd_user_4_fitting_peak/gainC
1.490637204000000000e+09 4.000000000000000000e+01 8.363510000000000388e-02 5.000000000000000311e-10
1.490637206000000000e+09 4.000000000000000000e+01 8.949369999999999548e-02 5.000000000000000311e-10
1.490637208000000000e+09 4.000000000000000000e+01 8.484930000000000250e-02 5.000000000000000311e-10
1.490637210000000000e+09 4.000000000000000000e+01 8.484319999999999362e-02 5.000000000000000311e-10
1.490637212000000000e+09 4.000000000000000000e+01 8.723709999999999798e-02 5.000000000000000311e-10
1.490637214000000000e+09 4.000000000000000000e+01 8.450620000000000354e-02 5.000000000000000311e-10
1.490637216000000000e+09 4.000000000000000000e+01 8.403289999999999371e-02 5.000000000000000311e-10
1.490637218000000000e+09 4.000000000000000000e+01 9.167880000000000473e-02 5.000000000000000311e-10
1.490637220000000000e+09 4.000000000000000000e+01 8.669989999999999641e-02 5.000000000000000311e-10
1.490637222000000000e+09 4.000000000000000000e+01 8.229720000000000091e-02 5.000000000000000311e-10
1.490637224000000000e+09 4.000000000000000000e+01 8.268699999999999661e-02 5.000000000000000311e-10
1.490637226000000000e+09 4.000000000000000000e+01 8.181090000000000584e-02 5.000000000000000311e-10
1.490637228000000000e+09 4.000000000000000000e+01 8.330269999999999342e-02 5.000000000000000311e-10
1.490637230000000000e+09 4.000000000000000000e+01 8.520640000000000158e-02 5.000000000000000311e-10
1.490637232000000000e+09 4.000000000000000000e+01 8.503700000000000148e-02 5.000000000000000311e-10
1.490637234000000000e+09 4.000000000000000000e+01 9.213140000000000218e-02 5.000000000000000311e-10
1.490637236000000000e+09 4.000000000000000000e+01 8.817429999999999712e-02 5.000000000000000311e-10
1.490637238000000000e+09 4.000000000000000000e+01 8.899089999999999778e-02 5.000000000000000311e-10
1.490637240000000000e+09 4.000000000000000000e+01 9.058019999999999960e-02 5.000000000000000311e-10
1.490637242000000000e+09 4.000000000000000000e+01 8.759759999999999769e-02 5.000000000000000311e-10
1.490637244000000000e+09 4.000000000000000000e+01 9.028970000000000051e-02 5.000000000000000311e-10
1.490637246000000000e+09 4.000000000000000000e+01 8.851050000000000584e-02 5.000000000000000311e-10
1.490637248000000000e+09 4.000000000000000000e+01 8.753629999999999745e-02 5.000000000000000311e-10
1.490637250000000000e+09 4.000000000000000000e+01 8.685890000000000277e-02 5.000000000000000311e-10
1.490637252000000000e+09 4.000000000000000000e+01 8.516210000000000446e-02 5.000000000000000311e-10
1.490637254000000000e+09 4.000000000000000000e+01 8.273419999999999386e-02 5.000000000000000311e-10
1.490637256000000000e+09 4.000000000000000000e+01 8.554639999999999467e-02 5.000000000000000311e-10
1.490637258000000000e+09 4.000000000000000000e+01 8.186749999999999583e-02 5.000000000000000311e-10
1.490637260000000000e+09 4.000000000000000000e+01 8.411449999999999483e-02 5.000000000000000311e-10
1.490637262000000000e+09 4.000000000000000000e+01 8.379319999999999824e-02 5.000000000000000311e-10
1.490637264000000000e+09 4.000000000000000000e+01 8.277360000000000273e-02 5.000000000000000311e-10
1.490637266000000000e+09 4.000000000000000000e+01 8.486420000000000075e-02 5.000000000000000311e-10
1.490637268000000000e+09 4.000000000000000000e+01 8.686280000000000390e-02 5.000000000000000311e-10
1.490637270000000000e+09 4.000000000000000000e+01 8.419909999999999894e-02 5.000000000000000311e-10
1.490637272000000000e+09 4.000000000000000000e+01 8.591870000000000063e-02 5.000000000000000311e-10
1.490637274000000000e+09 4.000000000000000000e+01 9.200060000000000182e-02 5.000000000000000311e-10
1.490637276000000000e+09 4.000000000000000000e+01 9.189089999999999758e-02 5.000000000000000311e-10
1.490637278000000000e+09 4.000000000000000000e+01 8.930970000000000575e-02 5.000000000000000311e-10
1.490637280000000000e+09 4.000000000000000000e+01 9.033019999999999938e-02 5.000000000000000311e-10
1.490637282000000000e+09 4.000000000000000000e+01 8.197619999999999907e-02 5.000000000000000311e-10
1.490637284000000000e+09 4.000000000000000000e+01 8.375760000000000149e-02 5.000000000000000311e-10
1.490637286000000000e+09 4.000000000000000000e+01 8.378629999999999411e-02 5.000000000000000311e-10
1.490637288000000000e+09 4.000000000000000000e+01 9.301320000000000421e-02 5.000000000000000311e-10
1.490637290000000000e+09 4.000000000000000000e+01 9.239590000000000303e-02 5.000000000000000311e-10
1.490637292000000000e+09 4.000000000000000000e+01 8.641139999999999932e-02 5.000000000000000311e-10
1.490637294000000000e+09 4.000000000000000000e+01 9.715310000000000612e-02 5.000000000000000311e-10
1.490637296000000000e+09 4.000000000000000000e+01 8.665760000000000129e-02 5.000000000000000311e-10
1.490637298000000000e+09 4.000000000000000000e+01 8.517900000000000471e-02 5.000000000000000311e-10
1.490637300000000000e+09 4.000000000000000000e+01 8.435589999999999755e-02 5.000000000000000311e-10
1.490637302000000000e+09 4.000000000000000000e+01 8.940689999999999749e-02 5.000000000000000311e-10
1.490637304000000000e+09 4.000000000000000000e+01 9.122990000000000266e-02 5.000000000000000311e-10
1.490637306000000000e+09 4.000000000000000000e+01 8.588709999999999400e-02 5.000000000000000311e-10
1.490637308000000000e+09 4.000000000000000000e+01 8.141249999999999876e-02 5.000000000000000311e-10
1.490637310000000000e+09 4.000000000000000000e+01 8.258500000000000563e-02 5.000000000000000311e-10
1.490637312000000000e+09 4.000000000000000000e+01 8.234389999999999765e-02 5.000000000000000311e-10
1.490637314000000000e+09 4.000000000000000000e+01 8.184049999999999658e-02 5.000000000000000311e-10
1.490637316000000000e+09 4.000000000000000000e+01 8.527519999999999545e-02 5.000000000000000311e-10
1.490637318000000000e+09 4.000000000000000000e+01 7.997379999999999767e-02 5.000000000000000311e-10
1.490637320000000000e+09 4.000000000000000000e+01 8.346539999999999515e-02 5.000000000000000311e-10
1.490637322000000000e+09 4.000000000000000000e+01 8.402519999999999434e-02 5.000000000000000311e-10
1.490637324000000000e+09 4.000000000000000000e+01 8.367879999999999763e-02 5.000000000000000311e-10
1.490637326000000000e+09 4.000000000000000000e+01 8.683230000000000115e-02 5.000000000000000311e-10
1.490637328000000000e+09 4.000000000000000000e+01 8.446739999999999804e-02 5.000000000000000311e-10
1.490637330000000000e+09 4.000000000000000000e+01 8.291650000000000409e-02 5.000000000000000311e-10
1.490637332000000000e+09 4.000000000000000000e+01 8.661560000000000092e-02 5.000000000000000311e-10
1.490637334000000000e+09 4.000000000000000000e+01 8.633180000000000021e-02 5.000000000000000311e-10
1.490637336000000000e+09 4.000000000000000000e+01 8.786869999999999403e-02 5.000000000000000311e-10
1.490637338000000000e+09 4.000000000000000000e+01 8.610120000000000273e-02 5.000000000000000311e-10
1.490637340000000000e+09 4.000000000000000000e+01 8.370650000000000313e-02 5.000000000000000311e-10
1.490637342000000000e+09 4.000000000000000000e+01 8.933230000000000337e-02 5.000000000000000311e-10
1.490637344000000000e+09 4.000000000000000000e+01 8.773010000000000530e-02 5.000000000000000311e-10
1.490637346000000000e+09 4.000000000000000000e+01 8.864089999999999470e-02 5.000000000000000311e-10
1.490637348000000000e+09 4.000000000000000000e+01 8.729049999999999310e-02 5.000000000000000311e-10
1.490637350000000000e+09 4.000000000000000000e+01 8.952509999999999635e-02 5.000000000000000311e-10
1.490637352000000000e+09 4.000000000000000000e+01 8.855920000000000458e-02 5.000000000000000311e-10
1.490637354000000000e+09 4.000000000000000000e+01 8.662179999999999880e-02 5.000000000000000311e-10
1.490637356000000000e+09 4.000000000000000000e+01 9.312829999999999719e-02 5.000000000000000311e-10
1.490637358000000000e+09 4.000000000000000000e+01 9.230810000000000404e-02 5.000000000000000311e-10
1.490637360000000000e+09 4.000000000000000000e+01 9.010730000000000128e-02 5.000000000000000311e-10
1.490637362000000000e+09 4.000000000000000000e+01 9.292699999999999572e-02 5.000000000000000311e-10
1.490637364000000000e+09 4.000000000000000000e+01 9.074050000000000171e-02 5.000000000000000311e-10
1.490637366000000000e+09 4.000000000000000000e+01 8.995259999999999367e-02 5.000000000000000311e-10
1.490637368000000000e+09 4.000000000000000000e+01 8.777310000000000667e-02 5.000000000000000311e-10
1.490637370000000000e+09 4.000000000000000000e+01 9.088259999999999394e-02 5.000000000000000311e-10
1.490637372000000000e+09 4.000000000000000000e+01 8.521639999999999771e-02 5.000000000000000311e-10
1.490637374000000000e+09 4.000000000000000000e+01 8.378770000000000662e-02 5.000000000000000311e-10
1.490637376000000000e+09 4.000000000000000000e+01 8.583119999999999639e-02 5.000000000000000311e-10
1.490637378000000000e+09 4.000000000000000000e+01 9.212040000000000506e-02 5.000000000000000311e-10
1.490637380000000000e+09 4.000000000000000000e+01 8.920100000000000251e-02 5.000000000000000311e-10
1.490637382000000000e+09 4.000000000000000000e+01 9.215950000000000530e-02 5.000000000000000311e-10
1.490637384000000000e+09 4.000000000000000000e+01 8.848240000000000272e-02 5.000000000000000311e-10
1.490637386000000000e+09 4.000000000000000000e+01 9.003039999999999654e-02 5.000000000000000311e-10
1.490637388000000000e+09 4.000000000000000000e+01 9.091430000000000344e-02 5.000000000000000311e-10
1.490637390000000000e+09 4.000000000000000000e+01 9.146100000000000063e-02 5.000000000000000311e-10
1.490637392000000000e+09 4.000000000000000000e+01 8.704000000000000625e-02 5.000000000000000311e-10
1.490637394000000000e+09 4.000000000000000000e+01 8.485030000000000350e-02 5.000000000000000311e-10
1.490637396000000000e+09 4.000000000000000000e+01 8.638780000000000070e-02 5.000000000000000311e-10
1.490637398000000000e+09 4.000000000000000000e+01 8.359949999999999326e-02 5.000000000000000311e-10
1.490637400000000000e+09 4.000000000000000000e+01 8.888250000000000317e-02 5.000000000000000311e-10
1.490637402000000000e+09 4.000000000000000000e+01 8.933750000000000024e-02 5.000000000000000311e-10
1.490637404000000000e+09 4.000000000000000000e+01 8.423029999999999407e-02 5.000000000000000311e-10
1.490637406000000000e+09 4.000000000000000000e+01 9.212829999999999631e-02 5.000000000000000311e-10
1.490637408000000000e+09 4.000000000000000000e+01 9.009680000000000466e-02 5.000000000000000311e-10
1.490637410000000000e+09 4.000000000000000000e+01 8.713479999999999837e-02 5.000000000000000311e-10
1.490637412000000000e+09 4.000000000000000000e+01 8.920300000000000451e-02 5.000000000000000311e-10
1.490637414000000000e+09 4.000000000000000000e+01 9.300200000000000133e-02 5.000000000000000311e-10
1.490637416000000000e+09 4.000000000000000000e+01 8.885200000000000042e-02 5.000000000000000311e-10
1.490637418000000000e+09 4.000000000000000000e+01 8.696170000000000289e-02 5.000000000000000311e-10
1.490637420000000000e+09 4.000000000000000000e+01 8.801630000000000564e-02 5.000000000000000311e-10
1.490637422000000000e+09 4.000000000000000000e+01 8.611470000000000236e-02 5.000000000000000311e-10
1.490637424000000000e+09 4.000000000000000000e+01 8.801069999999999727e-02 5.000000000000000311e-10
1.490637426000000000e+09 4.000000000000000000e+01 8.732650000000000134e-02 5.000000000000000311e-10
1.490637428000000000e+09 4.000000000000000000e+01 8.913649999999999352e-02 5.000000000000000311e-10
1.490637430000000000e+09 4.000000000000000000e+01 8.404399999999999371e-02 5.000000000000000311e-10
1.490637432000000000e+09 4.000000000000000000e+01 8.531629999999999769e-02 5.000000000000000311e-10
1.490637434000000000e+09 4.000000000000000000e+01 9.429319999999999369e-02 5.000000000000000311e-10
1.490637436000000000e+09 4.000000000000000000e+01 9.491360000000000074e-02 5.000000000000000311e-10
1.490637438000000000e+09 4.000000000000000000e+01 8.777870000000000117e-02 5.000000000000000311e-10
1.490637440000000000e+09 4.000000000000000000e+01 8.808480000000000476e-02 5.000000000000000311e-10
1.490637442000000000e+09 4.000000000000000000e+01 8.536449999999999594e-02 5.000000000000000311e-10
1.490637444000000000e+09 4.000000000000000000e+01 8.527650000000000508e-02 5.000000000000000311e-10
1.490637446000000000e+09 4.000000000000000000e+01 8.775489999999999680e-02 5.000000000000000311e-10
1.490637448000000000e+09 4.000000000000000000e+01 8.792850000000000665e-02 5.000000000000000311e-10
1.490637450000000000e+09 4.000000000000000000e+01 8.653210000000000068e-02 5.000000000000000311e-10
1.490637452000000000e+09 4.000000000000000000e+01 8.420560000000000545e-02 5.000000000000000311e-10
1.490637454000000000e+09 4.000000000000000000e+01 8.529009999999999370e-02 5.000000000000000311e-10
1.490637456000000000e+09 4.000000000000000000e+01 8.250949999999999951e-02 5.000000000000000311e-10
1.490637458000000000e+09 4.000000000000000000e+01 8.493359999999999799e-02 5.000000000000000311e-10
1.490637460000000000e+09 4.000000000000000000e+01 8.652590000000000281e-02 5.000000000000000311e-10
1.490637462000000000e+09 4.000000000000000000e+01 8.906079999999999552e-02 5.000000000000000311e-10
1.490637464000000000e+09 4.000000000000000000e+01 8.336720000000000241e-02 5.000000000000000311e-10
1.490637466000000000e+09 4.000000000000000000e+01 9.053179999999999561e-02 5.000000000000000311e-10
1.490637468000000000e+09 4.000000000000000000e+01 8.888459999999999417e-02 5.000000000000000311e-10
1.490637470000000000e+09 4.000000000000000000e+01 9.230750000000000066e-02 5.000000000000000311e-10
1.490637472000000000e+09 4.000000000000000000e+01 8.705350000000000588e-02 5.000000000000000311e-10
1.490637474000000000e+09 4.000000000000000000e+01 8.952279999999999960e-02 5.000000000000000311e-10
1.490637476000000000e+09 4.000000000000000000e+01 8.883570000000000355e-02 5.000000000000000311e-10
1.490637478000000000e+09 4.000000000000000000e+01 8.635900000000000520e-02 5.000000000000000311e-10
1.490637480000000000e+09 4.000000000000000000e+01 8.779689999999999717e-02 5.000000000000000311e-10
1.490637482000000000e+09 4.000000000000000000e+01 8.666949999999999654e-02 5.000000000000000311e-10
1.490637484000000000e+09 4.000000000000000000e+01 9.142229999999999801e-02 5.000000000000000311e-10
1.490637486000000000e+09 4.000000000000000000e+01 9.616120000000000223e-02 5.000000000000000311e-10
1.490637488000000000e+09 4.000000000000000000e+01 8.531700000000000395e-02 5.000000000000000311e-10
1.490637490000000000e+09 4.000000000000000000e+01 8.399829999999999797e-02 5.000000000000000311e-10
1.490637492000000000e+09 4.000000000000000000e+01 8.807610000000000439e-02 5.000000000000000311e-10
1.490637494000000000e+09 4.000000000000000000e+01 8.758219999999999894e-02 5.000000000000000311e-10
1.490637496000000000e+09 4.000000000000000000e+01 9.314369999999999594e-02 5.000000000000000311e-10
1.490637498000000000e+09 4.000000000000000000e+01 8.887599999999999667e-02 5.000000000000000311e-10
1.490637500000000000e+09 4.000000000000000000e+01 8.513120000000000409e-02 5.000000000000000311e-10
1.490637502000000000e+09 4.000000000000000000e+01 8.944560000000000011e-02 5.000000000000000311e-10
1.490637504000000000e+09 4.000000000000000000e+01 8.368520000000000125e-02 5.000000000000000311e-10
1.490637506000000000e+09 4.000000000000000000e+01 9.032500000000000251e-02 5.000000000000000311e-10
1.490637508000000000e+09 4.000000000000000000e+01 8.768140000000000656e-02 5.000000000000000311e-10
1.490637510000000000e+09 4.000000000000000000e+01 8.663730000000000042e-02 5.000000000000000311e-10
1.490637512000000000e+09 4.000000000000000000e+01 8.740240000000000509e-02 5.000000000000000311e-10
1.490637514000000000e+09 4.000000000000000000e+01 8.832869999999999611e-02 5.000000000000000311e-10
1.490637516000000000e+09 4.000000000000000000e+01 9.337199999999999667e-02 5.000000000000000311e-10
1.490637518000000000e+09 4.000000000000000000e+01 8.839130000000000598e-02 5.000000000000000311e-10
1.490637520000000000e+09 4.000000000000000000e+01 9.263770000000000338e-02 5.000000000000000311e-10
1.490637522000000000e+09 4.000000000000000000e+01 9.022070000000000090e-02 5.000000000000000311e-10
1.490637524000000000e+09 4.000000000000000000e+01 8.375689999999999524e-02 5.000000000000000311e-10
1.490637526000000000e+09 4.000000000000000000e+01 8.739089999999999359e-02 5.000000000000000311e-10
1.490637528000000000e+09 4.000000000000000000e+01 8.522359999999999658e-02 5.000000000000000311e-10
1.490637530000000000e+09 4.000000000000000000e+01 9.327290000000000580e-02 5.000000000000000311e-10
1.490637532000000000e+09 4.000000000000000000e+01 9.319790000000000019e-02 5.000000000000000311e-10
1.490637534000000000e+09 4.000000000000000000e+01 8.628139999999999421e-02 5.000000000000000311e-10
1.490637536000000000e+09 4.000000000000000000e+01 8.890579999999999317e-02 5.000000000000000311e-10
1.490637538000000000e+09 4.000000000000000000e+01 8.700969999999999538e-02 5.000000000000000311e-10
1.490637540000000000e+09 4.000000000000000000e+01 9.177340000000000497e-02 5.000000000000000311e-10
1.490637542000000000e+09 4.000000000000000000e+01 9.173729999999999385e-02 5.000000000000000311e-10
1.490637544000000000e+09 4.000000000000000000e+01 8.897650000000000003e-02 5.000000000000000311e-10
1.490637546000000000e+09 4.000000000000000000e+01 8.738440000000000096e-02 5.000000000000000311e-10
1.490637548000000000e+09 4.000000000000000000e+01 8.622109999999999497e-02 5.000000000000000311e-10
1.490637550000000000e+09 4.000000000000000000e+01 9.044879999999999587e-02 5.000000000000000311e-10
1.490637552000000000e+09 4.000000000000000000e+01 8.777859999999999829e-02 5.000000000000000311e-10
1.490637554000000000e+09 4.000000000000000000e+01 8.964740000000000208e-02 5.000000000000000311e-10
1.490637556000000000e+09 4.000000000000000000e+01 8.778199999999999892e-02 5.000000000000000311e-10
1.490637558000000000e+09 4.000000000000000000e+01 8.576609999999999789e-02 5.000000000000000311e-10
1.490637560000000000e+09 4.000000000000000000e+01 8.778450000000000142e-02 5.000000000000000311e-10
1.490637562000000000e+09 4.000000000000000000e+01 8.280220000000000635e-02 5.000000000000000311e-10
1.490637564000000000e+09 4.000000000000000000e+01 8.855689999999999396e-02 5.000000000000000311e-10
1.490637566000000000e+09 4.000000000000000000e+01 8.408730000000000371e-02 5.000000000000000311e-10
1.490637568000000000e+09 4.000000000000000000e+01 8.676250000000000628e-02 5.000000000000000311e-10
1.490637570000000000e+09 4.000000000000000000e+01 8.499170000000000336e-02 5.000000000000000311e-10
1.490637572000000000e+09 4.000000000000000000e+01 8.115780000000000216e-02 5.000000000000000311e-10
1.490637574000000000e+09 4.000000000000000000e+01 8.514589999999999659e-02 5.000000000000000311e-10
1.490637576000000000e+09 4.000000000000000000e+01 8.530759999999999732e-02 5.000000000000000311e-10
1.490637578000000000e+09 4.000000000000000000e+01 8.325200000000000655e-02 5.000000000000000311e-10
1.490637580000000000e+09 4.000000000000000000e+01 8.373830000000000162e-02 5.000000000000000311e-10
1.490637582000000000e+09 4.000000000000000000e+01 8.571520000000000528e-02 5.000000000000000311e-10
1.490637584000000000e+09 4.000000000000000000e+01 8.629470000000000196e-02 5.000000000000000311e-10
1.490637586000000000e+09 4.000000000000000000e+01 8.491279999999999661e-02 5.000000000000000311e-10
1.490637588000000000e+09 4.000000000000000000e+01 8.326870000000000105e-02 5.000000000000000311e-10
1.490637590000000000e+09 4.000000000000000000e+01 8.834409999999999485e-02 5.000000000000000311e-10
1.490637592000000000e+09 4.000000000000000000e+01 8.338299999999999879e-02 5.000000000000000311e-10
1.490637594000000000e+09 4.000000000000000000e+01 8.677930000000000366e-02 5.000000000000000311e-10
1.490637596000000000e+09 4.000000000000000000e+01 9.133850000000000302e-02 5.000000000000000311e-10
1.490637598000000000e+09 4.000000000000000000e+01 8.370470000000000688e-02 5.000000000000000311e-10
1.490637600000000000e+09 4.000000000000000000e+01 8.736059999999999659e-02 5.000000000000000311e-10
1.490637602000000000e+09 4.000000000000000000e+01 8.581289999999999751e-02 5.000000000000000311e-10
1.490637604000000000e+09 4.000000000000000000e+01 8.154440000000000299e-02 5.000000000000000311e-10
1.490637606000000000e+09 4.000000000000000000e+01 8.366990000000000538e-02 5.000000000000000311e-10
1.490637608000000000e+09 4.000000000000000000e+01 8.220180000000000542e-02 5.000000000000000311e-10
1.490637610000000000e+09 4.000000000000000000e+01 8.603139999999999399e-02 5.000000000000000311e-10
1.490637612000000000e+09 4.000000000000000000e+01 8.564389999999999503e-02 5.000000000000000311e-10
1.490637614000000000e+09 4.000000000000000000e+01 8.270810000000000661e-02 5.000000000000000311e-10
1.490637616000000000e+09 4.000000000000000000e+01 8.522240000000000371e-02 5.000000000000000311e-10
1.490637618000000000e+09 4.000000000000000000e+01 8.647689999999999544e-02 5.000000000000000311e-10
1.490637620000000000e+09 4.000000000000000000e+01 9.022429999999999339e-02 5.000000000000000311e-10
1.490637622000000000e+09 4.000000000000000000e+01 8.981050000000000144e-02 5.000000000000000311e-10
1.490637624000000000e+09 4.000000000000000000e+01 8.651659999999999906e-02 5.000000000000000311e-10
1.490637626000000000e+09 4.000000000000000000e+01 9.063469999999999860e-02 5.000000000000000311e-10
1.490637628000000000e+09 4.000000000000000000e+01 8.759820000000000106e-02 5.000000000000000311e-10
1.490637630000000000e+09 4.000000000000000000e+01 8.967780000000000196e-02 5.000000000000000311e-10
1.490637632000000000e+09 4.000000000000000000e+01 8.907080000000000553e-02 5.000000000000000311e-10
1.490637634000000000e+09 4.000000000000000000e+01 8.431710000000000593e-02 5.000000000000000311e-10
1.490637636000000000e+09 4.000000000000000000e+01 9.297339999999999771e-02 5.000000000000000311e-10
1.490637638000000000e+09 4.000000000000000000e+01 8.758290000000000519e-02 5.000000000000000311e-10
1.490637640000000000e+09 4.000000000000000000e+01 8.061749999999999472e-02 5.000000000000000311e-10
1.490637642000000000e+09 4.000000000000000000e+01 9.032339999999999813e-02 5.000000000000000311e-10
1.490637644000000000e+09 4.000000000000000000e+01 8.815789999999999738e-02 5.000000000000000311e-10
1.490637646000000000e+09 4.000000000000000000e+01 8.305300000000000182e-02 5.000000000000000311e-10
1.490637648000000000e+09 4.000000000000000000e+01 8.941530000000000311e-02 5.000000000000000311e-10
1.490637650000000000e+09 4.000000000000000000e+01 8.764660000000000506e-02 5.000000000000000311e-10
1.490637652000000000e+09 4.000000000000000000e+01 8.601079999999999837e-02 5.000000000000000311e-10
1.490637654000000000e+09 4.000000000000000000e+01 8.728950000000000597e-02 5.000000000000000311e-10
1.490637656000000000e+09 4.000000000000000000e+01 8.726689999999999447e-02 5.000000000000000311e-10
1.490637658000000000e+09 4.000000000000000000e+01 8.821859999999999424e-02 5.000000000000000311e-10
1.490637660000000000e+09 4.000000000000000000e+01 9.454360000000000541e-02 5.000000000000000311e-10
1.490637662000000000e+09 4.000000000000000000e+01 8.922130000000000338e-02 5.000000000000000311e-10
1.490637664000000000e+09 4.000000000000000000e+01 8.622319999999999984e-02 5.000000000000000311e-10
1.490637666000000000e+09 4.000000000000000000e+01 9.141190000000000426e-02 5.000000000000000311e-10
1.490637668000000000e+09 4.000000000000000000e+01 8.955829999999999347e-02 5.000000000000000311e-10
1.490637670000000000e+09 4.000000000000000000e+01 9.470309999999999839e-02 5.000000000000000311e-10
1.490637672000000000e+09 4.000000000000000000e+01 9.439379999999999993e-02 5.000000000000000311e-10
1.490637674000000000e+09 4.000000000000000000e+01 8.910120000000000540e-02 5.000000000000000311e-10
1.490637676000000000e+09 4.000000000000000000e+01 8.885229999999999517e-02 5.000000000000000311e-10
1.490637678000000000e+09 4.000000000000000000e+01 9.084810000000000108e-02 5.000000000000000311e-10
1.490637680000000000e+09 4.000000000000000000e+01 8.974699999999999345e-02 5.000000000000000311e-10
1.490637682000000000e+09 4.000000000000000000e+01 8.707059999999999800e-02 5.000000000000000311e-10
1.490637684000000000e+09 4.000000000000000000e+01 8.692489999999999939e-02 5.000000000000000311e-10
1.490637686000000000e+09 4.000000000000000000e+01 9.158449999999999924e-02 5.000000000000000311e-10
1.490637688000000000e+09 4.000000000000000000e+01 9.308760000000000645e-02 5.000000000000000311e-10
1.490637690000000000e+09 4.000000000000000000e+01 8.438030000000000530e-02 5.000000000000000311e-10
1.490637692000000000e+09 4.000000000000000000e+01 8.884889999999999455e-02 5.000000000000000311e-10
1.490637694000000000e+09 4.000000000000000000e+01 8.520759999999999446e-02 5.000000000000000311e-10
1.490637696000000000e+09 4.000000000000000000e+01 8.641899999999999582e-02 5.000000000000000311e-10
1.490637698000000000e+09 4.000000000000000000e+01 8.329799999999999705e-02 5.000000000000000311e-10
1.490637700000000000e+09 4.000000000000000000e+01 8.518989999999999896e-02 5.000000000000000311e-10
1.490637702000000000e+09 4.000000000000000000e+01 8.616989999999999372e-02 5.000000000000000311e-10
1.490637704000000000e+09 4.000000000000000000e+01 9.145860000000000101e-02 5.000000000000000311e-10
1.490637706000000000e+09 4.000000000000000000e+01 8.535669999999999369e-02 5.000000000000000311e-10
1.490637708000000000e+09 4.000000000000000000e+01 8.789750000000000341e-02 5.000000000000000311e-10
1.490637710000000000e+09 4.000000000000000000e+01 8.385829999999999673e-02 5.000000000000000311e-10
1.490637712000000000e+09 4.000000000000000000e+01 8.984520000000000006e-02 5.000000000000000311e-10
1.490637714000000000e+09 4.000000000000000000e+01 8.675969999999999516e-02 5.000000000000000311e-10
1.490637716000000000e+09 4.000000000000000000e+01 8.625249999999999584e-02 5.000000000000000311e-10
1.490637718000000000e+09 4.000000000000000000e+01 8.787129999999999941e-02 5.000000000000000311e-10
1.490637720000000000e+09 4.000000000000000000e+01 9.012219999999999953e-02 5.000000000000000311e-10
1.490637722000000000e+09 4.000000000000000000e+01 8.934430000000000149e-02 5.000000000000000311e-10
1.490637724000000000e+09 4.000000000000000000e+01 9.031379999999999963e-02 5.000000000000000311e-10
1.490637726000000000e+09 4.000000000000000000e+01 8.981450000000000544e-02 5.000000000000000311e-10
1.490637728000000000e+09 4.000000000000000000e+01 8.652469999999999606e-02 5.000000000000000311e-10
1.490637730000000000e+09 4.000000000000000000e+01 8.934949999999999837e-02 5.000000000000000311e-10
1.490637732000000000e+09 4.000000000000000000e+01 8.834920000000000273e-02 5.000000000000000311e-10
1.490637734000000000e+09 4.000000000000000000e+01 9.064560000000000672e-02 5.000000000000000311e-10
1.490637736000000000e+09 4.000000000000000000e+01 8.681170000000000553e-02 5.000000000000000311e-10
1.490637738000000000e+09 4.000000000000000000e+01 8.412830000000000308e-02 5.000000000000000311e-10
1.490637740000000000e+09 4.000000000000000000e+01 9.171590000000000298e-02 5.000000000000000311e-10
1.490637742000000000e+09 4.000000000000000000e+01 9.002490000000000492e-02 5.000000000000000311e-10
1.490637744000000000e+09 4.000000000000000000e+01 8.475589999999999513e-02 5.000000000000000311e-10
1.490637746000000000e+09 4.000000000000000000e+01 9.082519999999999483e-02 5.000000000000000311e-10
1.490637748000000000e+09 4.000000000000000000e+01 9.043710000000000637e-02 5.000000000000000311e-10
1.490637750000000000e+09 4.000000000000000000e+01 8.495320000000000649e-02 5.000000000000000311e-10
1.490637752000000000e+09 4.000000000000000000e+01 8.902459999999999540e-02 5.000000000000000311e-10
1.490637754000000000e+09 4.000000000000000000e+01 8.717479999999999674e-02 5.000000000000000311e-10
1.490637756000000000e+09 4.000000000000000000e+01 9.611590000000000411e-02 5.000000000000000311e-10
1.490637758000000000e+09 4.000000000000000000e+01 8.651390000000000469e-02 5.000000000000000311e-10
1.490637760000000000e+09 4.000000000000000000e+01 8.839189999999999547e-02 5.000000000000000311e-10
1.490637762000000000e+09 4.000000000000000000e+01 9.455500000000000016e-02 5.000000000000000311e-10
1.490637764000000000e+09 4.000000000000000000e+01 9.316939999999999944e-02 5.000000000000000311e-10
1.490637766000000000e+09 4.000000000000000000e+01 9.158499999999999974e-02 5.000000000000000311e-10
1.490637768000000000e+09 4.000000000000000000e+01 8.416919999999999957e-02 5.000000000000000311e-10
1.490637770000000000e+09 4.000000000000000000e+01 8.893629999999999591e-02 5.000000000000000311e-10
1.490637772000000000e+09 4.000000000000000000e+01 8.787970000000000503e-02 5.000000000000000311e-10
1.490637774000000000e+09 4.000000000000000000e+01 8.690929999999999489e-02 5.000000000000000311e-10
1.490637776000000000e+09 4.000000000000000000e+01 8.469759999999999789e-02 5.000000000000000311e-10
1.490637778000000000e+09 4.000000000000000000e+01 8.430279999999999718e-02 5.000000000000000311e-10
1.490637780000000000e+09 4.000000000000000000e+01 8.479109999999999425e-02 5.000000000000000311e-10
1.490637782000000000e+09 4.000000000000000000e+01 8.763340000000000019e-02 5.000000000000000311e-10
1.490637784000000000e+09 4.000000000000000000e+01 8.750090000000000645e-02 5.000000000000000311e-10
1.490637786000000000e+09 4.000000000000000000e+01 9.268830000000000124e-02 5.000000000000000311e-10
1.490637788000000000e+09 4.000000000000000000e+01 8.473289999999999988e-02 5.000000000000000311e-10
1.490637790000000000e+09 4.000000000000000000e+01 8.415300000000000558e-02 5.000000000000000311e-10
1.490637792000000000e+09 4.000000000000000000e+01 8.644490000000000507e-02 5.000000000000000311e-10
1.490637794000000000e+09 4.000000000000000000e+01 8.969630000000000658e-02 5.000000000000000311e-10
1.490637796000000000e+09 4.000000000000000000e+01 8.892999999999999516e-02 5.000000000000000311e-10
1.490637798000000000e+09 4.000000000000000000e+01 9.177929999999999422e-02 5.000000000000000311e-10
1.490637800000000000e+09 4.000000000000000000e+01 8.446750000000000091e-02 5.000000000000000311e-10
1.490637802000000000e+09 4.000000000000000000e+01 9.273059999999999636e-02 5.000000000000000311e-10
