# tags                 xfel_bl_3_st_2_motor_1/position xfel_bl_3_st_2_pd_user_4_fitting_peak/voltage xfel_bl_3_st_2_pd_user_4_fitting_peak/gainC
1.490667840000000000e+09 1.400000000000000000e+02 0.000000000000000000e+00 5.000000000000000311e-10
1.490667842000000000e+09 1.400000000000000000e+02 0.000000000000000000e+00 5.000000000000000311e-10
1.490667844000000000e+09 1.400000000000000000e+02 9.294760000000000435e-04 5.000000000000000311e-10
1.490667846000000000e+09 1.400000000000000000e+02 2.731799999999999832e-04 5.000000000000000311e-10
1.490667848000000000e+09 1.400000000000000000e+02 0.000000000000000000e+00 5.000000000000000311e-10
1.490667850000000000e+09 1.400000000000000000e+02 0.000000000000000000e+00 5.000000000000000311e-10
1.490667852000000000e+09 1.400000000000000000e+02 0.000000000000000000e+00 5.000000000000000311e-10
1.490667854000000000e+09 1.400000000000000000e+02 3.879020000000000005e-05 5.000000000000000311e-10
1.490667856000000000e+09 1.400000000000000000e+02 0.000000000000000000e+00 5.000000000000000311e-10
1.490667858000000000e+09 1.400000000000000000e+02 0.000000000000000000e+00 5.000000000000000311e-10
1.490667860000000000e+09 1.400000000000000000e+02 0.000000000000000000e+00 5.000000000000000311e-10
1.490667862000000000e+09 1.400000000000000000e+02 0.000000000000000000e+00 5.000000000000000311e-10
1.490667864000000000e+09 1.400000000000000000e+02 0.000000000000000000e+00 5.000000000000000311e-10
1.490667866000000000e+09 1.400000000000000000e+02 0.000000000000000000e+00 5.000000000000000311e-10
1.490667868000000000e+09 1.400000000000000000e+02 0.000000000000000000e+00 5.000000000000000311e-10
1.490667870000000000e+09 1.400000000000000000e+02 0.000000000000000000e+00 5.000000000000000311e-10
1.490667872000000000e+09 1.400000000000000000e+02 0.000000000000000000e+00 5.000000000000000311e-10
1.490667874000000000e+09 1.400000000000000000e+02 0.000000000000000000e+00 5.000000000000000311e-10
1.490667876000000000e+09 1.400000000000000000e+02 0.000000000000000000e+00 5.000000000000000311e-10
1.490667878000000000e+09 1.400000000000000000e+02 0.000000000000000000e+00 5.000000000000000311e-10
1.490667880000000000e+09 1.400000000000000000e+02 0.000000000000000000e+00 5.000000000000000311e-10
1.490667882000000000e+09 1.400000000000000000e+02 0.000000000000000000e+00 5.000000000000000311e-10
1.490667884000000000e+09 1.400000000000000000e+02 6.210830000000000300e-04 5.000000000000000311e-10
1.490667886000000000e+09 1.400000000000000000e+02 0.000000000000000000e+00 5.000000000000000311e-10
1.490667888000000000e+09 1.400000000000000000e+02 0.000000000000000000e+00 5.000000000000000311e-10
1.490667890000000000e+09 1.400000000000000000e+02 0.000000000000000000e+00 5.000000000000000311e-10
1.490667892000000000e+09 1.400000000000000000e+02 0.000000000000000000e+00 5.000000000000000311e-10
1.490667894000000000e+09 1.400000000000000000e+02 0.000000000000000000e+00 5.000000000000000311e-10
1.490667896000000000e+09 1.400000000000000000e+02 0.000000000000000000e+00 5.000000000000000311e-10
1.490667898000000000e+09 1.400000000000000000e+02 0.000000000000000000e+00 5.000000000000000311e-10
1.490667900000000000e+09 1.400000000000000000e+02 0.000000000000000000e+00 5.000000000000000311e-10
1.490667902000000000e+09 1.400000000000000000e+02 0.000000000000000000e+00 5.000000000000000311e-10
1.490667904000000000e+09 1.400000000000000000e+02 0.000000000000000000e+00 5.000000000000000311e-10
1.490667906000000000e+09 1.400000000000000000e+02 0.000000000000000000e+00 5.000000000000000311e-10
1.490667908000000000e+09 1.400000000000000000e+02 0.000000000000000000e+00 5.000000000000000311e-10
1.490667910000000000e+09 1.400000000000000000e+02 0.000000000000000000e+00 5.000000000000000311e-10
1.490667912000000000e+09 1.400000000000000000e+02 0.000000000000000000e+00 5.000000000000000311e-10
1.490667914000000000e+09 1.400000000000000000e+02 8.253740000000000295e-04 5.000000000000000311e-10
1.490667916000000000e+09 1.400000000000000000e+02 0.000000000000000000e+00 5.000000000000000311e-10
1.490667918000000000e+09 1.400000000000000000e+02 0.000000000000000000e+00 5.000000000000000311e-10
1.490667920000000000e+09 1.400000000000000000e+02 0.000000000000000000e+00 5.000000000000000311e-10
1.490667922000000000e+09 1.400000000000000000e+02 0.000000000000000000e+00 5.000000000000000311e-10
1.490667924000000000e+09 1.400000000000000000e+02 0.000000000000000000e+00 5.000000000000000311e-10
1.490667926000000000e+09 1.400000000000000000e+02 0.000000000000000000e+00 5.000000000000000311e-10
1.490667928000000000e+09 1.400000000000000000e+02 0.000000000000000000e+00 5.000000000000000311e-10
1.490667930000000000e+09 1.400000000000000000e+02 0.000000000000000000e+00 5.000000000000000311e-10
1.490667932000000000e+09 1.400000000000000000e+02 0.000000000000000000e+00 5.000000000000000311e-10
1.490667934000000000e+09 1.400000000000000000e+02 0.000000000000000000e+00 5.000000000000000311e-10
1.490667936000000000e+09 1.400000000000000000e+02 6.431780000000000006e-04 5.000000000000000311e-10
1.490667938000000000e+09 1.400000000000000000e+02 0.000000000000000000e+00 5.000000000000000311e-10
1.490667940000000000e+09 1.400000000000000000e+02 0.000000000000000000e+00 5.000000000000000311e-10
1.490667942000000000e+09 1.400000000000000000e+02 0.000000000000000000e+00 5.000000000000000311e-10
1.490667944000000000e+09 1.400000000000000000e+02 8.264130000000000445e-05 5.000000000000000311e-10
1.490667946000000000e+09 1.400000000000000000e+02 0.000000000000000000e+00 5.000000000000000311e-10
1.490667948000000000e+09 1.400000000000000000e+02 0.000000000000000000e+00 5.000000000000000311e-10
1.490667950000000000e+09 1.400000000000000000e+02 1.495509999999999917e-04 5.000000000000000311e-10
1.490667952000000000e+09 1.400000000000000000e+02 0.000000000000000000e+00 5.000000000000000311e-10
1.490667954000000000e+09 1.400000000000000000e+02 0.000000000000000000e+00 5.000000000000000311e-10
1.490667956000000000e+09 1.400000000000000000e+02 0.000000000000000000e+00 5.000000000000000311e-10
1.490667958000000000e+09 1.400000000000000000e+02 0.000000000000000000e+00 5.000000000000000311e-10
1.490667960000000000e+09 1.400000000000000000e+02 0.000000000000000000e+00 5.000000000000000311e-10
1.490667962000000000e+09 1.400000000000000000e+02 0.000000000000000000e+00 5.000000000000000311e-10
1.490667964000000000e+09 1.400000000000000000e+02 0.000000000000000000e+00 5.000000000000000311e-10
1.490667966000000000e+09 1.400000000000000000e+02 0.000000000000000000e+00 5.000000000000000311e-10
1.490667968000000000e+09 1.400000000000000000e+02 0.000000000000000000e+00 5.000000000000000311e-10
1.490667970000000000e+09 1.400000000000000000e+02 0.000000000000000000e+00 5.000000000000000311e-10
1.490667972000000000e+09 1.400000000000000000e+02 0.000000000000000000e+00 5.000000000000000311e-10
1.490667974000000000e+09 1.400000000000000000e+02 0.000000000000000000e+00 5.000000000000000311e-10
1.490667976000000000e+09 1.400000000000000000e+02 0.000000000000000000e+00 5.000000000000000311e-10
1.490667978000000000e+09 1.400000000000000000e+02 0.000000000000000000e+00 5.000000000000000311e-10
1.490667980000000000e+09 1.400000000000000000e+02 0.000000000000000000e+00 5.000000000000000311e-10
1.490667982000000000e+09 1.400000000000000000e+02 0.000000000000000000e+00 5.000000000000000311e-10
1.490667984000000000e+09 1.400000000000000000e+02 0.000000000000000000e+00 5.000000000000000311e-10
1.490667986000000000e+09 1.400000000000000000e+02 0.000000000000000000e+00 5.000000000000000311e-10
1.490667988000000000e+09 1.400000000000000000e+02 0.000000000000000000e+00 5.000000000000000311e-10
1.490667990000000000e+09 1.400000000000000000e+02 0.000000000000000000e+00 5.000000000000000311e-10
1.490667992000000000e+09 1.400000000000000000e+02 0.000000000000000000e+00 5.000000000000000311e-10
1.490667994000000000e+09 1.400000000000000000e+02 0.000000000000000000e+00 5.000000000000000311e-10
1.490667996000000000e+09 1.400000000000000000e+02 0.000000000000000000e+00 5.000000000000000311e-10
1.490667998000000000e+09 1.400000000000000000e+02 0.000000000000000000e+00 5.000000000000000311e-10
1.490668000000000000e+09 1.400000000000000000e+02 0.000000000000000000e+00 5.000000000000000311e-10
1.490668002000000000e+09 1.400000000000000000e+02 0.000000000000000000e+00 5.000000000000000311e-10
1.490668004000000000e+09 1.400000000000000000e+02 0.000000000000000000e+00 5.000000000000000311e-10
1.490668006000000000e+09 1.400000000000000000e+02 0.000000000000000000e+00 5.000000000000000311e-10
1.490668008000000000e+09 1.400000000000000000e+02 0.000000000000000000e+00 5.000000000000000311e-10
1.490668010000000000e+09 1.400000000000000000e+02 5.700949999999999686e-05 5.000000000000000311e-10
1.490668012000000000e+09 1.400000000000000000e+02 0.000000000000000000e+00 5.000000000000000311e-10
1.490668014000000000e+09 1.400000000000000000e+02 0.000000000000000000e+00 5.000000000000000311e-10
1.490668016000000000e+09 1.400000000000000000e+02 0.000000000000000000e+00 5.000000000000000311e-10
1.490668018000000000e+09 1.400000000000000000e+02 0.000000000000000000e+00 5.000000000000000311e-10
1.490668020000000000e+09 1.400000000000000000e+02 0.000000000000000000e+00 5.000000000000000311e-10
1.490668022000000000e+09 1.400000000000000000e+02 0.000000000000000000e+00 5.000000000000000311e-10
1.490668024000000000e+09 1.400000000000000000e+02 0.000000000000000000e+00 5.000000000000000311e-10
1.490668026000000000e+09 1.400000000000000000e+02 0.000000000000000000e+00 5.000000000000000311e-10
1.490668028000000000e+09 1.400000000000000000e+02 0.000000000000000000e+00 5.000000000000000311e-10
1.490668030000000000e+09 1.400000000000000000e+02 0.000000000000000000e+00 5.000000000000000311e-10
1.490668032000000000e+09 1.400000000000000000e+02 0.000000000000000000e+00 5.000000000000000311e-10
1.490668034000000000e+09 1.400000000000000000e+02 0.000000000000000000e+00 5.000000000000000311e-10
1.490668036000000000e+09 1.400000000000000000e+02 0.000000000000000000e+00 5.000000000000000311e-10
1.490668038000000000e+09 1.400000000000000000e+02 0.000000000000000000e+00 5.000000000000000311e-10
1.490668040000000000e+09 1.400000000000000000e+02 0.000000000000000000e+00 5.000000000000000311e-10
1.490668042000000000e+09 1.400000000000000000e+02 0.000000000000000000e+00 5.000000000000000311e-10
1.490668044000000000e+09 1.400000000000000000e+02 0.000000000000000000e+00 5.000000000000000311e-10
1.490668046000000000e+09 1.400000000000000000e+02 0.000000000000000000e+00 5.000000000000000311e-10
1.490668048000000000e+09 1.400000000000000000e+02 0.000000000000000000e+00 5.000000000000000311e-10
1.490668050000000000e+09 1.400000000000000000e+02 0.000000000000000000e+00 5.000000000000000311e-10
1.490668052000000000e+09 1.400000000000000000e+02 0.000000000000000000e+00 5.000000000000000311e-10
1.490668054000000000e+09 1.400000000000000000e+02 0.000000000000000000e+00 5.000000000000000311e-10
1.490668056000000000e+09 1.400000000000000000e+02 0.000000000000000000e+00 5.000000000000000311e-10
1.490668058000000000e+09 1.400000000000000000e+02 0.000000000000000000e+00 5.000000000000000311e-10
1.490668060000000000e+09 1.400000000000000000e+02 0.000000000000000000e+00 5.000000000000000311e-10
1.490668062000000000e+09 1.400000000000000000e+02 0.000000000000000000e+00 5.000000000000000311e-10
1.490668064000000000e+09 1.400000000000000000e+02 0.000000000000000000e+00 5.000000000000000311e-10
1.490668066000000000e+09 1.400000000000000000e+02 0.000000000000000000e+00 5.000000000000000311e-10
1.490668068000000000e+09 1.400000000000000000e+02 0.000000000000000000e+00 5.000000000000000311e-10
1.490668070000000000e+09 1.400000000000000000e+02 0.000000000000000000e+00 5.000000000000000311e-10
1.490668072000000000e+09 1.400000000000000000e+02 0.000000000000000000e+00 5.000000000000000311e-10
1.490668074000000000e+09 1.400000000000000000e+02 3.994469999999999857e-04 5.000000000000000311e-10
1.490668076000000000e+09 1.400000000000000000e+02 0.000000000000000000e+00 5.000000000000000311e-10
1.490668078000000000e+09 1.400000000000000000e+02 0.000000000000000000e+00 5.000000000000000311e-10
1.490668080000000000e+09 1.400000000000000000e+02 0.000000000000000000e+00 5.000000000000000311e-10
1.490668082000000000e+09 1.400000000000000000e+02 0.000000000000000000e+00 5.000000000000000311e-10
1.490668084000000000e+09 1.400000000000000000e+02 0.000000000000000000e+00 5.000000000000000311e-10
1.490668086000000000e+09 1.400000000000000000e+02 0.000000000000000000e+00 5.000000000000000311e-10
1.490668088000000000e+09 1.400000000000000000e+02 0.000000000000000000e+00 5.000000000000000311e-10
1.490668090000000000e+09 1.400000000000000000e+02 0.000000000000000000e+00 5.000000000000000311e-10
1.490668092000000000e+09 1.400000000000000000e+02 0.000000000000000000e+00 5.000000000000000311e-10
1.490668094000000000e+09 1.400000000000000000e+02 0.000000000000000000e+00 5.000000000000000311e-10
1.490668096000000000e+09 1.400000000000000000e+02 0.000000000000000000e+00 5.000000000000000311e-10
1.490668098000000000e+09 1.400000000000000000e+02 0.000000000000000000e+00 5.000000000000000311e-10
1.490668100000000000e+09 1.400000000000000000e+02 0.000000000000000000e+00 5.000000000000000311e-10
1.490668102000000000e+09 1.400000000000000000e+02 0.000000000000000000e+00 5.000000000000000311e-10
1.490668104000000000e+09 1.400000000000000000e+02 0.000000000000000000e+00 5.000000000000000311e-10
1.490668106000000000e+09 1.400000000000000000e+02 0.000000000000000000e+00 5.000000000000000311e-10
1.490668108000000000e+09 1.400000000000000000e+02 0.000000000000000000e+00 5.000000000000000311e-10
1.490668110000000000e+09 1.400000000000000000e+02 0.000000000000000000e+00 5.000000000000000311e-10
1.490668112000000000e+09 1.400000000000000000e+02 0.000000000000000000e+00 5.000000000000000311e-10
1.490668114000000000e+09 1.400000000000000000e+02 0.000000000000000000e+00 5.000000000000000311e-10
1.490668116000000000e+09 1.400000000000000000e+02 0.000000000000000000e+00 5.000000000000000311e-10
1.490668118000000000e+09 1.400000000000000000e+02 0.000000000000000000e+00 5.000000000000000311e-10
1.490668120000000000e+09 1.400000000000000000e+02 0.000000000000000000e+00 5.000000000000000311e-10
1.490668122000000000e+09 1.400000000000000000e+02 0.000000000000000000e+00 5.000000000000000311e-10
1.490668124000000000e+09 1.400000000000000000e+02 0.000000000000000000e+00 5.000000000000000311e-10
1.490668126000000000e+09 1.400000000000000000e+02 0.000000000000000000e+00 5.000000000000000311e-10
1.490668128000000000e+09 1.400000000000000000e+02 0.000000000000000000e+00 5.000000000000000311e-10
1.490668130000000000e+09 1.400000000000000000e+02 0.000000000000000000e+00 5.000000000000000311e-10
1.490668132000000000e+09 1.400000000000000000e+02 0.000000000000000000e+00 5.000000000000000311e-10
1.490668134000000000e+09 1.400000000000000000e+02 0.000000000000000000e+00 5.000000000000000311e-10
1.490668136000000000e+09 1.400000000000000000e+02 0.000000000000000000e+00 5.000000000000000311e-10
1.490668138000000000e+09 1.400000000000000000e+02 0.000000000000000000e+00 5.000000000000000311e-10
1.490668140000000000e+09 1.400000000000000000e+02 0.000000000000000000e+00 5.000000000000000311e-10
1.490668142000000000e+09 1.400000000000000000e+02 0.000000000000000000e+00 5.000000000000000311e-10
1.490668144000000000e+09 1.400000000000000000e+02 0.000000000000000000e+00 5.000000000000000311e-10
1.490668146000000000e+09 1.400000000000000000e+02 0.000000000000000000e+00 5.000000000000000311e-10
1.490668148000000000e+09 1.400000000000000000e+02 0.000000000000000000e+00 5.000000000000000311e-10
1.490668150000000000e+09 1.400000000000000000e+02 0.000000000000000000e+00 5.000000000000000311e-10
1.490668152000000000e+09 1.400000000000000000e+02 0.000000000000000000e+00 5.000000000000000311e-10
1.490668154000000000e+09 1.400000000000000000e+02 0.000000000000000000e+00 5.000000000000000311e-10
1.490668156000000000e+09 1.400000000000000000e+02 0.000000000000000000e+00 5.000000000000000311e-10
1.490668158000000000e+09 1.400000000000000000e+02 0.000000000000000000e+00 5.000000000000000311e-10
1.490668160000000000e+09 1.400000000000000000e+02 0.000000000000000000e+00 5.000000000000000311e-10
1.490668162000000000e+09 1.400000000000000000e+02 0.000000000000000000e+00 5.000000000000000311e-10
1.490668164000000000e+09 1.400000000000000000e+02 0.000000000000000000e+00 5.000000000000000311e-10
1.490668166000000000e+09 1.400000000000000000e+02 0.000000000000000000e+00 5.000000000000000311e-10
1.490668168000000000e+09 1.400000000000000000e+02 0.000000000000000000e+00 5.000000000000000311e-10
1.490668170000000000e+09 1.400000000000000000e+02 0.000000000000000000e+00 5.000000000000000311e-10
1.490668172000000000e+09 1.400000000000000000e+02 0.000000000000000000e+00 5.000000000000000311e-10
1.490668174000000000e+09 1.400000000000000000e+02 0.000000000000000000e+00 5.000000000000000311e-10
1.490668176000000000e+09 1.400000000000000000e+02 0.000000000000000000e+00 5.000000000000000311e-10
1.490668178000000000e+09 1.400000000000000000e+02 0.000000000000000000e+00 5.000000000000000311e-10
1.490668180000000000e+09 1.400000000000000000e+02 0.000000000000000000e+00 5.000000000000000311e-10
1.490668182000000000e+09 1.400000000000000000e+02 0.000000000000000000e+00 5.000000000000000311e-10
1.490668184000000000e+09 1.400000000000000000e+02 0.000000000000000000e+00 5.000000000000000311e-10
1.490668186000000000e+09 1.400000000000000000e+02 0.000000000000000000e+00 5.000000000000000311e-10
1.490668188000000000e+09 1.400000000000000000e+02 0.000000000000000000e+00 5.000000000000000311e-10
1.490668190000000000e+09 1.400000000000000000e+02 0.000000000000000000e+00 5.000000000000000311e-10
1.490668192000000000e+09 1.400000000000000000e+02 0.000000000000000000e+00 5.000000000000000311e-10
1.490668194000000000e+09 1.400000000000000000e+02 0.000000000000000000e+00 5.000000000000000311e-10
1.490668196000000000e+09 1.400000000000000000e+02 1.277609999999999987e-04 5.000000000000000311e-10
1.490668198000000000e+09 1.400000000000000000e+02 0.000000000000000000e+00 5.000000000000000311e-10
1.490668200000000000e+09 1.400000000000000000e+02 0.000000000000000000e+00 5.000000000000000311e-10
1.490668202000000000e+09 1.400000000000000000e+02 0.000000000000000000e+00 5.000000000000000311e-10
1.490668204000000000e+09 1.400000000000000000e+02 0.000000000000000000e+00 5.000000000000000311e-10
1.490668206000000000e+09 1.400000000000000000e+02 0.000000000000000000e+00 5.000000000000000311e-10
1.490668208000000000e+09 1.400000000000000000e+02 0.000000000000000000e+00 5.000000000000000311e-10
1.490668210000000000e+09 1.400000000000000000e+02 0.000000000000000000e+00 5.000000000000000311e-10
1.490668212000000000e+09 1.400000000000000000e+02 0.000000000000000000e+00 5.000000000000000311e-10
1.490668214000000000e+09 1.400000000000000000e+02 0.000000000000000000e+00 5.000000000000000311e-10
1.490668216000000000e+09 1.400000000000000000e+02 0.000000000000000000e+00 5.000000000000000311e-10
1.490668218000000000e+09 1.400000000000000000e+02 0.000000000000000000e+00 5.000000000000000311e-10
1.490668220000000000e+09 1.400000000000000000e+02 0.000000000000000000e+00 5.000000000000000311e-10
1.490668222000000000e+09 1.400000000000000000e+02 0.000000000000000000e+00 5.000000000000000311e-10
1.490668224000000000e+09 1.400000000000000000e+02 0.000000000000000000e+00 5.000000000000000311e-10
1.490668226000000000e+09 1.400000000000000000e+02 0.000000000000000000e+00 5.000000000000000311e-10
1.490668228000000000e+09 1.400000000000000000e+02 0.000000000000000000e+00 5.000000000000000311e-10
1.490668230000000000e+09 1.400000000000000000e+02 0.000000000000000000e+00 5.000000000000000311e-10
1.490668232000000000e+09 1.400000000000000000e+02 0.000000000000000000e+00 5.000000000000000311e-10
1.490668234000000000e+09 1.400000000000000000e+02 0.000000000000000000e+00 5.000000000000000311e-10
1.490668236000000000e+09 1.400000000000000000e+02 0.000000000000000000e+00 5.000000000000000311e-10
1.490668238000000000e+09 1.400000000000000000e+02 0.000000000000000000e+00 5.000000000000000311e-10
1.490668240000000000e+09 1.400000000000000000e+02 0.000000000000000000e+00 5.000000000000000311e-10
1.490668242000000000e+09 1.400000000000000000e+02 0.000000000000000000e+00 5.000000000000000311e-10
1.490668244000000000e+09 1.400000000000000000e+02 0.000000000000000000e+00 5.000000000000000311e-10
1.490668246000000000e+09 1.400000000000000000e+02 0.000000000000000000e+00 5.000000000000000311e-10
1.490668248000000000e+09 1.400000000000000000e+02 0.000000000000000000e+00 5.000000000000000311e-10
1.490668250000000000e+09 1.400000000000000000e+02 0.000000000000000000e+00 5.000000000000000311e-10
1.490668252000000000e+09 1.400000000000000000e+02 0.000000000000000000e+00 5.000000000000000311e-10
1.490668254000000000e+09 1.400000000000000000e+02 0.000000000000000000e+00 5.000000000000000311e-10
1.490668256000000000e+09 1.400000000000000000e+02 0.000000000000000000e+00 5.000000000000000311e-10
1.490668258000000000e+09 1.400000000000000000e+02 0.000000000000000000e+00 5.000000000000000311e-10
1.490668260000000000e+09 1.400000000000000000e+02 0.000000000000000000e+00 5.000000000000000311e-10
1.490668262000000000e+09 1.400000000000000000e+02 0.000000000000000000e+00 5.000000000000000311e-10
1.490668264000000000e+09 1.400000000000000000e+02 5.390089999999999752e-05 5.000000000000000311e-10
1.490668266000000000e+09 1.400000000000000000e+02 0.000000000000000000e+00 5.000000000000000311e-10
1.490668268000000000e+09 1.400000000000000000e+02 1.246789999999999899e-04 5.000000000000000311e-10
1.490668270000000000e+09 1.400000000000000000e+02 0.000000000000000000e+00 5.000000000000000311e-10
1.490668272000000000e+09 1.400000000000000000e+02 0.000000000000000000e+00 5.000000000000000311e-10
1.490668274000000000e+09 1.400000000000000000e+02 0.000000000000000000e+00 5.000000000000000311e-10
1.490668276000000000e+09 1.400000000000000000e+02 0.000000000000000000e+00 5.000000000000000311e-10
1.490668278000000000e+09 1.400000000000000000e+02 0.000000000000000000e+00 5.000000000000000311e-10
1.490668280000000000e+09 1.400000000000000000e+02 0.000000000000000000e+00 5.000000000000000311e-10
1.490668282000000000e+09 1.400000000000000000e+02 0.000000000000000000e+00 5.000000000000000311e-10
1.490668284000000000e+09 1.400000000000000000e+02 7.715839999999999635e-04 5.000000000000000311e-10
1.490668286000000000e+09 1.400000000000000000e+02 0.000000000000000000e+00 5.000000000000000311e-10
1.490668288000000000e+09 1.400000000000000000e+02 0.000000000000000000e+00 5.000000000000000311e-10
1.490668290000000000e+09 1.400000000000000000e+02 0.000000000000000000e+00 5.000000000000000311e-10
1.490668292000000000e+09 1.400000000000000000e+02 0.000000000000000000e+00 5.000000000000000311e-10
1.490668294000000000e+09 1.400000000000000000e+02 0.000000000000000000e+00 5.000000000000000311e-10
1.490668296000000000e+09 1.400000000000000000e+02 0.000000000000000000e+00 5.000000000000000311e-10
1.490668298000000000e+09 1.400000000000000000e+02 0.000000000000000000e+00 5.000000000000000311e-10
1.490668300000000000e+09 1.400000000000000000e+02 0.000000000000000000e+00 5.000000000000000311e-10
1.490668302000000000e+09 1.400000000000000000e+02 0.000000000000000000e+00 5.000000000000000311e-10
1.490668304000000000e+09 1.400000000000000000e+02 0.000000000000000000e+00 5.000000000000000311e-10
1.490668306000000000e+09 1.400000000000000000e+02 0.000000000000000000e+00 5.000000000000000311e-10
1.490668308000000000e+09 1.400000000000000000e+02 0.000000000000000000e+00 5.000000000000000311e-10
1.490668310000000000e+09 1.400000000000000000e+02 0.000000000000000000e+00 5.000000000000000311e-10
1.490668312000000000e+09 1.400000000000000000e+02 0.000000000000000000e+00 5.000000000000000311e-10
1.490668314000000000e+09 1.400000000000000000e+02 0.000000000000000000e+00 5.000000000000000311e-10
1.490668316000000000e+09 1.400000000000000000e+02 0.000000000000000000e+00 5.000000000000000311e-10
1.490668318000000000e+09 1.400000000000000000e+02 0.000000000000000000e+00 5.000000000000000311e-10
1.490668320000000000e+09 1.400000000000000000e+02 0.000000000000000000e+00 5.000000000000000311e-10
1.490668322000000000e+09 1.400000000000000000e+02 0.000000000000000000e+00 5.000000000000000311e-10
1.490668324000000000e+09 1.400000000000000000e+02 0.000000000000000000e+00 5.000000000000000311e-10
1.490668326000000000e+09 1.400000000000000000e+02 0.000000000000000000e+00 5.000000000000000311e-10
1.490668328000000000e+09 1.400000000000000000e+02 0.000000000000000000e+00 5.000000000000000311e-10
1.490668330000000000e+09 1.400000000000000000e+02 0.000000000000000000e+00 5.000000000000000311e-10
1.490668332000000000e+09 1.400000000000000000e+02 0.000000000000000000e+00 5.000000000000000311e-10
1.490668334000000000e+09 1.400000000000000000e+02 0.000000000000000000e+00 5.000000000000000311e-10
1.490668336000000000e+09 1.400000000000000000e+02 0.000000000000000000e+00 5.000000000000000311e-10
1.490668338000000000e+09 1.400000000000000000e+02 0.000000000000000000e+00 5.000000000000000311e-10
1.490668340000000000e+09 1.400000000000000000e+02 0.000000000000000000e+00 5.000000000000000311e-10
1.490668342000000000e+09 1.400000000000000000e+02 0.000000000000000000e+00 5.000000000000000311e-10
1.490668344000000000e+09 1.400000000000000000e+02 0.000000000000000000e+00 5.000000000000000311e-10
1.490668346000000000e+09 1.400000000000000000e+02 0.000000000000000000e+00 5.000000000000000311e-10
1.490668348000000000e+09 1.400000000000000000e+02 0.000000000000000000e+00 5.000000000000000311e-10
1.490668350000000000e+09 1.400000000000000000e+02 0.000000000000000000e+00 5.000000000000000311e-10
1.490668352000000000e+09 1.400000000000000000e+02 0.000000000000000000e+00 5.000000000000000311e-10
1.490668354000000000e+09 1.400000000000000000e+02 0.000000000000000000e+00 5.000000000000000311e-10
1.490668356000000000e+09 1.400000000000000000e+02 0.000000000000000000e+00 5.000000000000000311e-10
1.490668358000000000e+09 1.400000000000000000e+02 0.000000000000000000e+00 5.000000000000000311e-10
1.490668360000000000e+09 1.400000000000000000e+02 0.000000000000000000e+00 5.000000000000000311e-10
1.490668362000000000e+09 1.400000000000000000e+02 0.000000000000000000e+00 5.000000000000000311e-10
1.490668364000000000e+09 1.400000000000000000e+02 0.000000000000000000e+00 5.000000000000000311e-10
1.490668366000000000e+09 1.400000000000000000e+02 0.000000000000000000e+00 5.000000000000000311e-10
1.490668368000000000e+09 1.400000000000000000e+02 0.000000000000000000e+00 5.000000000000000311e-10
1.490668370000000000e+09 1.400000000000000000e+02 8.206599999999999659e-05 5.000000000000000311e-10
1.490668372000000000e+09 1.400000000000000000e+02 0.000000000000000000e+00 5.000000000000000311e-10
1.490668374000000000e+09 1.400000000000000000e+02 0.000000000000000000e+00 5.000000000000000311e-10
1.490668376000000000e+09 1.400000000000000000e+02 0.000000000000000000e+00 5.000000000000000311e-10
1.490668378000000000e+09 1.400000000000000000e+02 0.000000000000000000e+00 5.000000000000000311e-10
1.490668380000000000e+09 1.400000000000000000e+02 0.000000000000000000e+00 5.000000000000000311e-10
1.490668382000000000e+09 1.400000000000000000e+02 0.000000000000000000e+00 5.000000000000000311e-10
1.490668384000000000e+09 1.400000000000000000e+02 0.000000000000000000e+00 5.000000000000000311e-10
1.490668386000000000e+09 1.400000000000000000e+02 0.000000000000000000e+00 5.000000000000000311e-10
1.490668388000000000e+09 1.400000000000000000e+02 0.000000000000000000e+00 5.000000000000000311e-10
1.490668390000000000e+09 1.400000000000000000e+02 0.000000000000000000e+00 5.000000000000000311e-10
1.490668392000000000e+09 1.400000000000000000e+02 0.000000000000000000e+00 5.000000000000000311e-10
1.490668394000000000e+09 1.400000000000000000e+02 0.000000000000000000e+00 5.000000000000000311e-10
1.490668396000000000e+09 1.400000000000000000e+02 0.000000000000000000e+00 5.000000000000000311e-10
1.490668398000000000e+09 1.400000000000000000e+02 0.000000000000000000e+00 5.000000000000000311e-10
1.490668400000000000e+09 1.400000000000000000e+02 0.000000000000000000e+00 5.000000000000000311e-10
1.490668402000000000e+09 1.400000000000000000e+02 0.000000000000000000e+00 5.000000000000000311e-10
1.490668404000000000e+09 1.400000000000000000e+02 0.000000000000000000e+00 5.000000000000000311e-10
1.490668406000000000e+09 1.400000000000000000e+02 0.000000000000000000e+00 5.000000000000000311e-10
1.490668408000000000e+09 1.400000000000000000e+02 0.000000000000000000e+00 5.000000000000000311e-10
1.490668410000000000e+09 1.400000000000000000e+02 0.000000000000000000e+00 5.000000000000000311e-10
1.490668412000000000e+09 1.400000000000000000e+02 0.000000000000000000e+00 5.000000000000000311e-10
1.490668414000000000e+09 1.400000000000000000e+02 0.000000000000000000e+00 5.000000000000000311e-10
1.490668416000000000e+09 1.400000000000000000e+02 1.124889999999999918e-03 5.000000000000000311e-10
1.490668418000000000e+09 1.400000000000000000e+02 0.000000000000000000e+00 5.000000000000000311e-10
1.490668420000000000e+09 1.400000000000000000e+02 0.000000000000000000e+00 5.000000000000000311e-10
1.490668422000000000e+09 1.400000000000000000e+02 0.000000000000000000e+00 5.000000000000000311e-10
1.490668424000000000e+09 1.400000000000000000e+02 0.000000000000000000e+00 5.000000000000000311e-10
1.490668426000000000e+09 1.400000000000000000e+02 0.000000000000000000e+00 5.000000000000000311e-10
1.490668428000000000e+09 1.400000000000000000e+02 0.000000000000000000e+00 5.000000000000000311e-10
1.490668430000000000e+09 1.400000000000000000e+02 0.000000000000000000e+00 5.000000000000000311e-10
1.490668432000000000e+09 1.400000000000000000e+02 0.000000000000000000e+00 5.000000000000000311e-10
1.490668434000000000e+09 1.400000000000000000e+02 0.000000000000000000e+00 5.000000000000000311e-10
1.490668436000000000e+09 1.400000000000000000e+02 0.000000000000000000e+00 5.000000000000000311e-10
1.490668438000000000e+09 1.400000000000000000e+02 0.000000000000000000e+00 5.000000000000000311e-10
