# tags                 xfel_bl_3_st_2_motor_1/position xfel_bl_3_st_2_pd_user_4_fitting_peak/voltage xfel_bl_3_st_2_pd_user_4_fitting_peak/gainC
1.493004562000000000e+09 8.700000000000000000e+01 9.144650000000000001e-02 5.000000000000000311e-10
1.493004564000000000e+09 8.700000000000000000e+01 0.000000000000000000e+00 5.000000000000000311e-10
1.493004566000000000e+09 8.700000000000000000e+01 9.583089999999999664e-02 5.000000000000000311e-10
1.493004568000000000e+09 8.700000000000000000e+01 0.000000000000000000e+00 5.000000000000000311e-10
1.493004570000000000e+09 8.700000000000000000e+01 8.684469999999999690e-02 5.000000000000000311e-10
1.493004572000000000e+09 8.700000000000000000e+01 0.000000000000000000e+00 5.000000000000000311e-10
1.493004574000000000e+09 8.700000000000000000e+01 1.106680000000000025e-01 5.000000000000000311e-10
1.493004576000000000e+09 8.700000000000000000e+01 0.000000000000000000e+00 5.000000000000000311e-10
1.493004578000000000e+09 8.700000000000000000e+01 1.007050000000000028e-01 5.000000000000000311e-10
1.493004580000000000e+09 8.700000000000000000e+01 0.000000000000000000e+00 5.000000000000000311e-10
1.493004582000000000e+09 8.700000000000000000e+01 8.453380000000000616e-02 5.000000000000000311e-10
1.493004584000000000e+09 8.700000000000000000e+01 0.000000000000000000e+00 5.000000000000000311e-10
1.493004586000000000e+09 8.700000000000000000e+01 1.039380000000000026e-01 5.000000000000000311e-10
1.493004588000000000e+09 8.700000000000000000e+01 0.000000000000000000e+00 5.000000000000000311e-10
1.493004590000000000e+09 8.700000000000000000e+01 1.022419999999999995e-01 5.000000000000000311e-10
1.493004592000000000e+09 8.700000000000000000e+01 0.000000000000000000e+00 5.000000000000000311e-10
1.493004594000000000e+09 8.700000000000000000e+01 7.078080000000000482e-02 5.000000000000000311e-10
1.493004596000000000e+09 8.700000000000000000e+01 0.000000000000000000e+00 5.000000000000000311e-10
1.493004598000000000e+09 8.700000000000000000e+01 8.863959999999999895e-02 5.000000000000000311e-10
1.493004600000000000e+09 8.700000000000000000e+01 0.000000000000000000e+00 5.000000000000000311e-10
1.493004602000000000e+09 8.700000000000000000e+01 1.078709999999999947e-01 5.000000000000000311e-10
1.493004604000000000e+09 8.700000000000000000e+01 0.000000000000000000e+00 5.000000000000000311e-10
1.493004606000000000e+09 8.700000000000000000e+01 7.677570000000000228e-02 5.000000000000000311e-10
1.493004608000000000e+09 8.700000000000000000e+01 0.000000000000000000e+00 5.000000000000000311e-10
1.493004610000000000e+09 8.700000000000000000e+01 8.588360000000000438e-02 5.000000000000000311e-10
1.493004612000000000e+09 8.700000000000000000e+01 0.000000000000000000e+00 5.000000000000000311e-10
1.493004614000000000e+09 8.700000000000000000e+01 6.920719999999999650e-02 5.000000000000000311e-10
1.493004616000000000e+09 8.700000000000000000e+01 0.000000000000000000e+00 5.000000000000000311e-10
1.493004618000000000e+09 8.700000000000000000e+01 1.026610000000000023e-01 5.000000000000000311e-10
1.493004620000000000e+09 8.700000000000000000e+01 0.000000000000000000e+00 5.000000000000000311e-10
1.493004622000000000e+09 8.700000000000000000e+01 9.050890000000000324e-02 5.000000000000000311e-10
1.493004624000000000e+09 8.700000000000000000e+01 0.000000000000000000e+00 5.000000000000000311e-10
1.493004626000000000e+09 8.700000000000000000e+01 8.424550000000000094e-02 5.000000000000000311e-10
1.493004628000000000e+09 8.700000000000000000e+01 0.000000000000000000e+00 5.000000000000000311e-10
1.493004630000000000e+09 8.700000000000000000e+01 9.451030000000000542e-02 5.000000000000000311e-10
1.493004632000000000e+09 8.700000000000000000e+01 0.000000000000000000e+00 5.000000000000000311e-10
1.493004634000000000e+09 8.700000000000000000e+01 8.674210000000000254e-02 5.000000000000000311e-10
1.493004636000000000e+09 8.700000000000000000e+01 0.000000000000000000e+00 5.000000000000000311e-10
1.493004638000000000e+09 8.700000000000000000e+01 1.017190000000000039e-01 5.000000000000000311e-10
1.493004640000000000e+09 8.700000000000000000e+01 0.000000000000000000e+00 5.000000000000000311e-10
1.493004642000000000e+09 8.700000000000000000e+01 9.494779999999999887e-02 5.000000000000000311e-10
1.493004644000000000e+09 8.700000000000000000e+01 0.000000000000000000e+00 5.000000000000000311e-10
1.493004646000000000e+09 8.700000000000000000e+01 1.131250000000000033e-01 5.000000000000000311e-10
1.493004648000000000e+09 8.700000000000000000e+01 0.000000000000000000e+00 5.000000000000000311e-10
1.493004650000000000e+09 8.700000000000000000e+01 6.956370000000000609e-02 5.000000000000000311e-10
1.493004652000000000e+09 8.700000000000000000e+01 0.000000000000000000e+00 5.000000000000000311e-10
1.493004654000000000e+09 8.700000000000000000e+01 1.041780000000000067e-01 5.000000000000000311e-10
1.493004656000000000e+09 8.700000000000000000e+01 0.000000000000000000e+00 5.000000000000000311e-10
1.493004658000000000e+09 8.700000000000000000e+01 1.042499999999999954e-01 5.000000000000000311e-10
1.493004660000000000e+09 8.700000000000000000e+01 0.000000000000000000e+00 5.000000000000000311e-10
1.493004662000000000e+09 8.700000000000000000e+01 9.464999999999999802e-02 5.000000000000000311e-10
1.493004664000000000e+09 8.700000000000000000e+01 0.000000000000000000e+00 5.000000000000000311e-10
1.493004666000000000e+09 8.700000000000000000e+01 1.024990000000000068e-01 5.000000000000000311e-10
1.493004668000000000e+09 8.700000000000000000e+01 0.000000000000000000e+00 5.000000000000000311e-10
1.493004670000000000e+09 8.700000000000000000e+01 1.036920000000000064e-01 5.000000000000000311e-10
1.493004672000000000e+09 8.700000000000000000e+01 0.000000000000000000e+00 5.000000000000000311e-10
1.493004674000000000e+09 8.700000000000000000e+01 1.031939999999999941e-01 5.000000000000000311e-10
1.493004676000000000e+09 8.700000000000000000e+01 0.000000000000000000e+00 5.000000000000000311e-10
1.493004678000000000e+09 8.700000000000000000e+01 8.741799999999999571e-02 5.000000000000000311e-10
1.493004680000000000e+09 8.700000000000000000e+01 0.000000000000000000e+00 5.000000000000000311e-10
1.493004682000000000e+09 8.700000000000000000e+01 8.796969999999999790e-02 5.000000000000000311e-10
1.493004684000000000e+09 8.700000000000000000e+01 0.000000000000000000e+00 5.000000000000000311e-10
1.493004686000000000e+09 8.700000000000000000e+01 9.331100000000000505e-02 5.000000000000000311e-10
1.493004688000000000e+09 8.700000000000000000e+01 0.000000000000000000e+00 5.000000000000000311e-10
1.493004690000000000e+09 8.700000000000000000e+01 8.761209999999999831e-02 5.000000000000000311e-10
1.493004692000000000e+09 8.700000000000000000e+01 6.733230000000000584e-05 5.000000000000000311e-10
1.493004694000000000e+09 8.700000000000000000e+01 9.470090000000000452e-02 5.000000000000000311e-10
1.493004696000000000e+09 8.700000000000000000e+01 0.000000000000000000e+00 5.000000000000000311e-10
1.493004698000000000e+09 8.700000000000000000e+01 1.052600000000000063e-01 5.000000000000000311e-10
1.493004700000000000e+09 8.700000000000000000e+01 0.000000000000000000e+00 5.000000000000000311e-10
1.493004702000000000e+09 8.700000000000000000e+01 9.948010000000000186e-02 5.000000000000000311e-10
1.493004704000000000e+09 8.700000000000000000e+01 0.000000000000000000e+00 5.000000000000000311e-10
1.493004706000000000e+09 8.700000000000000000e+01 9.907870000000000565e-02 5.000000000000000311e-10
1.493004708000000000e+09 8.700000000000000000e+01 1.024330000000000000e-04 5.000000000000000311e-10
1.493004710000000000e+09 8.700000000000000000e+01 9.256200000000000538e-02 5.000000000000000311e-10
1.493004712000000000e+09 8.700000000000000000e+01 0.000000000000000000e+00 5.000000000000000311e-10
1.493004714000000000e+09 8.700000000000000000e+01 1.015839999999999937e-01 5.000000000000000311e-10
1.493004716000000000e+09 8.700000000000000000e+01 0.000000000000000000e+00 5.000000000000000311e-10
1.493004718000000000e+09 8.700000000000000000e+01 6.646979999999999555e-02 5.000000000000000311e-10
1.493004720000000000e+09 8.700000000000000000e+01 0.000000000000000000e+00 5.000000000000000311e-10
1.493004722000000000e+09 8.700000000000000000e+01 9.258220000000000338e-02 5.000000000000000311e-10
1.493004724000000000e+09 8.700000000000000000e+01 0.000000000000000000e+00 5.000000000000000311e-10
1.493004726000000000e+09 8.700000000000000000e+01 7.950740000000000585e-02 5.000000000000000311e-10
1.493004728000000000e+09 8.700000000000000000e+01 0.000000000000000000e+00 5.000000000000000311e-10
1.493004730000000000e+09 8.700000000000000000e+01 1.099119999999999958e-01 5.000000000000000311e-10
1.493004732000000000e+09 8.700000000000000000e+01 9.449639999999999874e-05 5.000000000000000311e-10
1.493004734000000000e+09 8.700000000000000000e+01 1.069959999999999939e-01 5.000000000000000311e-10
1.493004736000000000e+09 8.700000000000000000e+01 0.000000000000000000e+00 5.000000000000000311e-10
1.493004738000000000e+09 8.700000000000000000e+01 8.390390000000000348e-02 5.000000000000000311e-10
1.493004740000000000e+09 8.700000000000000000e+01 0.000000000000000000e+00 5.000000000000000311e-10
1.493004742000000000e+09 8.700000000000000000e+01 1.175569999999999948e-01 5.000000000000000311e-10
1.493004744000000000e+09 8.700000000000000000e+01 0.000000000000000000e+00 5.000000000000000311e-10
1.493004746000000000e+09 8.700000000000000000e+01 1.181890000000000024e-01 5.000000000000000311e-10
1.493004748000000000e+09 8.700000000000000000e+01 0.000000000000000000e+00 5.000000000000000311e-10
1.493004750000000000e+09 8.700000000000000000e+01 1.135010000000000047e-01 5.000000000000000311e-10
1.493004752000000000e+09 8.700000000000000000e+01 0.000000000000000000e+00 5.000000000000000311e-10
1.493004754000000000e+09 8.700000000000000000e+01 9.950130000000000086e-02 5.000000000000000311e-10
1.493004756000000000e+09 8.700000000000000000e+01 0.000000000000000000e+00 5.000000000000000311e-10
1.493004758000000000e+09 8.700000000000000000e+01 1.036949999999999955e-01 5.000000000000000311e-10
1.493004760000000000e+09 8.700000000000000000e+01 0.000000000000000000e+00 5.000000000000000311e-10
1.493004762000000000e+09 8.700000000000000000e+01 8.665820000000000467e-02 5.000000000000000311e-10
1.493004764000000000e+09 8.700000000000000000e+01 0.000000000000000000e+00 5.000000000000000311e-10
1.493004766000000000e+09 8.700000000000000000e+01 8.442370000000000430e-02 5.000000000000000311e-10
1.493004768000000000e+09 8.700000000000000000e+01 0.000000000000000000e+00 5.000000000000000311e-10
1.493004770000000000e+09 8.700000000000000000e+01 9.563460000000000016e-02 5.000000000000000311e-10
1.493004772000000000e+09 8.700000000000000000e+01 0.000000000000000000e+00 5.000000000000000311e-10
1.493004774000000000e+09 8.700000000000000000e+01 1.008890000000000065e-01 5.000000000000000311e-10
1.493004776000000000e+09 8.700000000000000000e+01 0.000000000000000000e+00 5.000000000000000311e-10
1.493004778000000000e+09 8.700000000000000000e+01 1.014960000000000029e-01 5.000000000000000311e-10
1.493004780000000000e+09 8.700000000000000000e+01 0.000000000000000000e+00 5.000000000000000311e-10
1.493004782000000000e+09 8.700000000000000000e+01 1.004509999999999986e-01 5.000000000000000311e-10
1.493004784000000000e+09 8.700000000000000000e+01 0.000000000000000000e+00 5.000000000000000311e-10
1.493004786000000000e+09 8.700000000000000000e+01 8.669889999999999541e-02 5.000000000000000311e-10
1.493004788000000000e+09 8.700000000000000000e+01 0.000000000000000000e+00 5.000000000000000311e-10
1.493004790000000000e+09 8.700000000000000000e+01 8.389720000000000510e-02 5.000000000000000311e-10
1.493004792000000000e+09 8.700000000000000000e+01 0.000000000000000000e+00 5.000000000000000311e-10
1.493004794000000000e+09 8.700000000000000000e+01 8.039150000000000462e-02 5.000000000000000311e-10
1.493004796000000000e+09 8.700000000000000000e+01 5.090739999999999849e-04 5.000000000000000311e-10
1.493004798000000000e+09 8.700000000000000000e+01 7.720870000000000510e-02 5.000000000000000311e-10
1.493004800000000000e+09 8.700000000000000000e+01 0.000000000000000000e+00 5.000000000000000311e-10
1.493004802000000000e+09 8.700000000000000000e+01 1.111359999999999987e-01 5.000000000000000311e-10
1.493004804000000000e+09 8.700000000000000000e+01 0.000000000000000000e+00 5.000000000000000311e-10
1.493004806000000000e+09 8.700000000000000000e+01 8.745129999999999570e-02 5.000000000000000311e-10
1.493004808000000000e+09 8.700000000000000000e+01 0.000000000000000000e+00 5.000000000000000311e-10
1.493004810000000000e+09 8.700000000000000000e+01 1.219299999999999967e-01 5.000000000000000311e-10
1.493004812000000000e+09 8.700000000000000000e+01 0.000000000000000000e+00 5.000000000000000311e-10
1.493004814000000000e+09 8.700000000000000000e+01 1.056700000000000000e-01 5.000000000000000311e-10
1.493004816000000000e+09 8.700000000000000000e+01 0.000000000000000000e+00 5.000000000000000311e-10
1.493004818000000000e+09 8.700000000000000000e+01 1.058589999999999948e-01 5.000000000000000311e-10
1.493004820000000000e+09 8.700000000000000000e+01 0.000000000000000000e+00 5.000000000000000311e-10
1.493004822000000000e+09 8.700000000000000000e+01 9.538449999999999707e-02 5.000000000000000311e-10
1.493004824000000000e+09 8.700000000000000000e+01 0.000000000000000000e+00 5.000000000000000311e-10
1.493004826000000000e+09 8.700000000000000000e+01 8.640710000000000057e-02 5.000000000000000311e-10
1.493004828000000000e+09 8.700000000000000000e+01 0.000000000000000000e+00 5.000000000000000311e-10
1.493004830000000000e+09 8.700000000000000000e+01 9.851719999999999922e-02 5.000000000000000311e-10
1.493004832000000000e+09 8.700000000000000000e+01 1.321759999999999895e-04 5.000000000000000311e-10
1.493004834000000000e+09 8.700000000000000000e+01 8.978260000000000407e-02 5.000000000000000311e-10
1.493004836000000000e+09 8.700000000000000000e+01 0.000000000000000000e+00 5.000000000000000311e-10
1.493004838000000000e+09 8.700000000000000000e+01 6.985959999999999392e-02 5.000000000000000311e-10
1.493004840000000000e+09 8.700000000000000000e+01 0.000000000000000000e+00 5.000000000000000311e-10
1.493004842000000000e+09 8.700000000000000000e+01 1.107520000000000032e-01 5.000000000000000311e-10
1.493004844000000000e+09 8.700000000000000000e+01 0.000000000000000000e+00 5.000000000000000311e-10
1.493004846000000000e+09 8.700000000000000000e+01 1.120909999999999962e-01 5.000000000000000311e-10
1.493004848000000000e+09 8.700000000000000000e+01 0.000000000000000000e+00 5.000000000000000311e-10
1.493004850000000000e+09 8.700000000000000000e+01 1.138320000000000026e-01 5.000000000000000311e-10
1.493004852000000000e+09 8.700000000000000000e+01 0.000000000000000000e+00 5.000000000000000311e-10
1.493004854000000000e+09 8.700000000000000000e+01 9.135459999999999414e-02 5.000000000000000311e-10
1.493004856000000000e+09 8.700000000000000000e+01 0.000000000000000000e+00 5.000000000000000311e-10
1.493004858000000000e+09 8.700000000000000000e+01 1.121909999999999991e-01 5.000000000000000311e-10
1.493004860000000000e+09 8.700000000000000000e+01 0.000000000000000000e+00 5.000000000000000311e-10
1.493004862000000000e+09 8.700000000000000000e+01 1.094730000000000009e-01 5.000000000000000311e-10
1.493004864000000000e+09 8.700000000000000000e+01 0.000000000000000000e+00 5.000000000000000311e-10
1.493004866000000000e+09 8.700000000000000000e+01 1.063820000000000043e-01 5.000000000000000311e-10
1.493004868000000000e+09 8.700000000000000000e+01 0.000000000000000000e+00 5.000000000000000311e-10
1.493004870000000000e+09 8.700000000000000000e+01 7.923040000000000638e-02 5.000000000000000311e-10
1.493004872000000000e+09 8.700000000000000000e+01 0.000000000000000000e+00 5.000000000000000311e-10
1.493004874000000000e+09 8.700000000000000000e+01 1.102670000000000039e-01 5.000000000000000311e-10
1.493004876000000000e+09 8.700000000000000000e+01 0.000000000000000000e+00 5.000000000000000311e-10
1.493004878000000000e+09 8.700000000000000000e+01 1.153300000000000020e-01 5.000000000000000311e-10
1.493004880000000000e+09 8.700000000000000000e+01 0.000000000000000000e+00 5.000000000000000311e-10
1.493004882000000000e+09 8.700000000000000000e+01 1.079920000000000047e-01 5.000000000000000311e-10
1.493004884000000000e+09 8.700000000000000000e+01 0.000000000000000000e+00 5.000000000000000311e-10
1.493004886000000000e+09 8.700000000000000000e+01 1.131439999999999946e-01 5.000000000000000311e-10
1.493004888000000000e+09 8.700000000000000000e+01 0.000000000000000000e+00 5.000000000000000311e-10
1.493004890000000000e+09 8.700000000000000000e+01 8.942100000000000048e-02 5.000000000000000311e-10
1.493004892000000000e+09 8.700000000000000000e+01 0.000000000000000000e+00 5.000000000000000311e-10
1.493004894000000000e+09 8.700000000000000000e+01 1.066799999999999971e-01 5.000000000000000311e-10
1.493004896000000000e+09 8.700000000000000000e+01 1.472610000000000065e-03 5.000000000000000311e-10
1.493004898000000000e+09 8.700000000000000000e+01 1.085519999999999957e-01 5.000000000000000311e-10
1.493004900000000000e+09 8.700000000000000000e+01 0.000000000000000000e+00 5.000000000000000311e-10
1.493004902000000000e+09 8.700000000000000000e+01 1.073370000000000019e-01 5.000000000000000311e-10
1.493004904000000000e+09 8.700000000000000000e+01 0.000000000000000000e+00 5.000000000000000311e-10
1.493004906000000000e+09 8.700000000000000000e+01 9.584969999999999601e-02 5.000000000000000311e-10
1.493004908000000000e+09 8.700000000000000000e+01 0.000000000000000000e+00 5.000000000000000311e-10
1.493004910000000000e+09 8.700000000000000000e+01 1.171230000000000049e-01 5.000000000000000311e-10
1.493004912000000000e+09 8.700000000000000000e+01 0.000000000000000000e+00 5.000000000000000311e-10
1.493004914000000000e+09 8.700000000000000000e+01 1.138850000000000001e-01 5.000000000000000311e-10
1.493004916000000000e+09 8.700000000000000000e+01 0.000000000000000000e+00 5.000000000000000311e-10
1.493004918000000000e+09 8.700000000000000000e+01 1.188850000000000046e-01 5.000000000000000311e-10
1.493004920000000000e+09 8.700000000000000000e+01 0.000000000000000000e+00 5.000000000000000311e-10
1.493004922000000000e+09 8.700000000000000000e+01 1.069800000000000056e-01 5.000000000000000311e-10
1.493004924000000000e+09 8.700000000000000000e+01 0.000000000000000000e+00 5.000000000000000311e-10
1.493004926000000000e+09 8.700000000000000000e+01 1.096339999999999953e-01 5.000000000000000311e-10
1.493004928000000000e+09 8.700000000000000000e+01 0.000000000000000000e+00 5.000000000000000311e-10
1.493004930000000000e+09 8.700000000000000000e+01 1.158669999999999978e-01 5.000000000000000311e-10
1.493004932000000000e+09 8.700000000000000000e+01 4.326930000000000262e-05 5.000000000000000311e-10
1.493004934000000000e+09 8.700000000000000000e+01 8.148829999999999962e-02 5.000000000000000311e-10
1.493004936000000000e+09 8.700000000000000000e+01 0.000000000000000000e+00 5.000000000000000311e-10
1.493004938000000000e+09 8.700000000000000000e+01 1.000859999999999944e-01 5.000000000000000311e-10
1.493004940000000000e+09 8.700000000000000000e+01 0.000000000000000000e+00 5.000000000000000311e-10
1.493004942000000000e+09 8.700000000000000000e+01 9.230610000000000204e-02 5.000000000000000311e-10
1.493004944000000000e+09 8.700000000000000000e+01 1.132619999999999981e-03 5.000000000000000311e-10
1.493004946000000000e+09 8.700000000000000000e+01 9.463140000000000440e-02 5.000000000000000311e-10
1.493004948000000000e+09 8.700000000000000000e+01 0.000000000000000000e+00 5.000000000000000311e-10
1.493004950000000000e+09 8.700000000000000000e+01 9.685159999999999603e-02 5.000000000000000311e-10
1.493004952000000000e+09 8.700000000000000000e+01 0.000000000000000000e+00 5.000000000000000311e-10
1.493004954000000000e+09 8.700000000000000000e+01 7.914759999999999851e-02 5.000000000000000311e-10
1.493004956000000000e+09 8.700000000000000000e+01 0.000000000000000000e+00 5.000000000000000311e-10
1.493004958000000000e+09 8.700000000000000000e+01 1.062970000000000026e-01 5.000000000000000311e-10
1.493004960000000000e+09 8.700000000000000000e+01 0.000000000000000000e+00 5.000000000000000311e-10
1.493004962000000000e+09 8.700000000000000000e+01 8.738750000000000684e-02 5.000000000000000311e-10
1.493004964000000000e+09 8.700000000000000000e+01 0.000000000000000000e+00 5.000000000000000311e-10
1.493004966000000000e+09 8.700000000000000000e+01 9.472020000000000439e-02 5.000000000000000311e-10
1.493004968000000000e+09 8.700000000000000000e+01 0.000000000000000000e+00 5.000000000000000311e-10
1.493004970000000000e+09 8.700000000000000000e+01 9.078060000000000296e-02 5.000000000000000311e-10
1.493004972000000000e+09 8.700000000000000000e+01 0.000000000000000000e+00 5.000000000000000311e-10
1.493004974000000000e+09 8.700000000000000000e+01 1.153789999999999955e-01 5.000000000000000311e-10
1.493004976000000000e+09 8.700000000000000000e+01 1.554639999999999874e-04 5.000000000000000311e-10
1.493004978000000000e+09 8.700000000000000000e+01 8.242739999999999789e-02 5.000000000000000311e-10
1.493004980000000000e+09 8.700000000000000000e+01 0.000000000000000000e+00 5.000000000000000311e-10
1.493004982000000000e+09 8.700000000000000000e+01 1.049930000000000030e-01 5.000000000000000311e-10
1.493004984000000000e+09 8.700000000000000000e+01 0.000000000000000000e+00 5.000000000000000311e-10
1.493004986000000000e+09 8.700000000000000000e+01 1.088350000000000012e-01 5.000000000000000311e-10
1.493004988000000000e+09 8.700000000000000000e+01 0.000000000000000000e+00 5.000000000000000311e-10
1.493004990000000000e+09 8.700000000000000000e+01 1.058510000000000006e-01 5.000000000000000311e-10
1.493004992000000000e+09 8.700000000000000000e+01 0.000000000000000000e+00 5.000000000000000311e-10
1.493004994000000000e+09 8.700000000000000000e+01 1.038869999999999932e-01 5.000000000000000311e-10
1.493004996000000000e+09 8.700000000000000000e+01 0.000000000000000000e+00 5.000000000000000311e-10
1.493004998000000000e+09 8.700000000000000000e+01 1.065289999999999987e-01 5.000000000000000311e-10
1.493005000000000000e+09 8.700000000000000000e+01 8.154719999999999742e-05 5.000000000000000311e-10
1.493005002000000000e+09 8.700000000000000000e+01 1.180199999999999999e-01 5.000000000000000311e-10
1.493005004000000000e+09 8.700000000000000000e+01 0.000000000000000000e+00 5.000000000000000311e-10
1.493005006000000000e+09 8.700000000000000000e+01 1.060320000000000012e-01 5.000000000000000311e-10
1.493005008000000000e+09 8.700000000000000000e+01 0.000000000000000000e+00 5.000000000000000311e-10
1.493005010000000000e+09 8.700000000000000000e+01 8.706170000000000575e-02 5.000000000000000311e-10
1.493005012000000000e+09 8.700000000000000000e+01 0.000000000000000000e+00 5.000000000000000311e-10
1.493005014000000000e+09 8.700000000000000000e+01 1.087359999999999993e-01 5.000000000000000311e-10
1.493005016000000000e+09 8.700000000000000000e+01 0.000000000000000000e+00 5.000000000000000311e-10
1.493005018000000000e+09 8.700000000000000000e+01 1.139570000000000027e-01 5.000000000000000311e-10
1.493005020000000000e+09 8.700000000000000000e+01 0.000000000000000000e+00 5.000000000000000311e-10
1.493005022000000000e+09 8.700000000000000000e+01 1.244139999999999968e-01 5.000000000000000311e-10
1.493005024000000000e+09 8.700000000000000000e+01 0.000000000000000000e+00 5.000000000000000311e-10
1.493005026000000000e+09 8.700000000000000000e+01 7.632550000000000445e-02 5.000000000000000311e-10
1.493005028000000000e+09 8.700000000000000000e+01 0.000000000000000000e+00 5.000000000000000311e-10
1.493005030000000000e+09 8.700000000000000000e+01 1.031180000000000013e-01 5.000000000000000311e-10
1.493005032000000000e+09 8.700000000000000000e+01 3.717100000000000037e-05 5.000000000000000311e-10
1.493005034000000000e+09 8.700000000000000000e+01 1.060090000000000060e-01 5.000000000000000311e-10
1.493005036000000000e+09 8.700000000000000000e+01 0.000000000000000000e+00 5.000000000000000311e-10
1.493005038000000000e+09 8.700000000000000000e+01 9.861810000000000020e-02 5.000000000000000311e-10
1.493005040000000000e+09 8.700000000000000000e+01 0.000000000000000000e+00 5.000000000000000311e-10
1.493005042000000000e+09 8.700000000000000000e+01 1.093380000000000046e-01 5.000000000000000311e-10
1.493005044000000000e+09 8.700000000000000000e+01 0.000000000000000000e+00 5.000000000000000311e-10
1.493005046000000000e+09 8.700000000000000000e+01 9.217340000000000255e-02 5.000000000000000311e-10
1.493005048000000000e+09 8.700000000000000000e+01 0.000000000000000000e+00 5.000000000000000311e-10
1.493005050000000000e+09 8.700000000000000000e+01 8.860819999999999808e-02 5.000000000000000311e-10
1.493005052000000000e+09 8.700000000000000000e+01 0.000000000000000000e+00 5.000000000000000311e-10
1.493005054000000000e+09 8.700000000000000000e+01 1.003109999999999974e-01 5.000000000000000311e-10
1.493005056000000000e+09 8.700000000000000000e+01 0.000000000000000000e+00 5.000000000000000311e-10
1.493005058000000000e+09 8.700000000000000000e+01 1.108819999999999945e-01 5.000000000000000311e-10
1.493005060000000000e+09 8.700000000000000000e+01 0.000000000000000000e+00 5.000000000000000311e-10
1.493005062000000000e+09 8.700000000000000000e+01 9.802990000000000315e-02 5.000000000000000311e-10
1.493005064000000000e+09 8.700000000000000000e+01 1.785930000000000026e-03 5.000000000000000311e-10
1.493005066000000000e+09 8.700000000000000000e+01 1.114099999999999951e-01 5.000000000000000311e-10
1.493005068000000000e+09 8.700000000000000000e+01 0.000000000000000000e+00 5.000000000000000311e-10
1.493005070000000000e+09 8.700000000000000000e+01 1.036659999999999943e-01 5.000000000000000311e-10
1.493005072000000000e+09 8.700000000000000000e+01 0.000000000000000000e+00 5.000000000000000311e-10
1.493005074000000000e+09 8.700000000000000000e+01 1.177590000000000026e-01 5.000000000000000311e-10
1.493005076000000000e+09 8.700000000000000000e+01 0.000000000000000000e+00 5.000000000000000311e-10
1.493005078000000000e+09 8.700000000000000000e+01 1.010260000000000047e-01 5.000000000000000311e-10
1.493005080000000000e+09 8.700000000000000000e+01 0.000000000000000000e+00 5.000000000000000311e-10
1.493005082000000000e+09 8.700000000000000000e+01 8.836059999999999748e-02 5.000000000000000311e-10
1.493005084000000000e+09 8.700000000000000000e+01 0.000000000000000000e+00 5.000000000000000311e-10
1.493005086000000000e+09 8.700000000000000000e+01 9.763410000000000144e-02 5.000000000000000311e-10
1.493005088000000000e+09 8.700000000000000000e+01 0.000000000000000000e+00 5.000000000000000311e-10
1.493005090000000000e+09 8.700000000000000000e+01 1.071160000000000029e-01 5.000000000000000311e-10
1.493005092000000000e+09 8.700000000000000000e+01 0.000000000000000000e+00 5.000000000000000311e-10
1.493005094000000000e+09 8.700000000000000000e+01 1.271120000000000028e-01 5.000000000000000311e-10
1.493005096000000000e+09 8.700000000000000000e+01 0.000000000000000000e+00 5.000000000000000311e-10
1.493005098000000000e+09 8.700000000000000000e+01 1.309869999999999923e-01 5.000000000000000311e-10
1.493005100000000000e+09 8.700000000000000000e+01 1.638280000000000042e-04 5.000000000000000311e-10
1.493005102000000000e+09 8.700000000000000000e+01 1.304599999999999926e-01 5.000000000000000311e-10
1.493005104000000000e+09 8.700000000000000000e+01 0.000000000000000000e+00 5.000000000000000311e-10
1.493005106000000000e+09 8.700000000000000000e+01 1.182300000000000018e-01 5.000000000000000311e-10
1.493005108000000000e+09 8.700000000000000000e+01 0.000000000000000000e+00 5.000000000000000311e-10
1.493005110000000000e+09 8.700000000000000000e+01 1.098009999999999958e-01 5.000000000000000311e-10
1.493005112000000000e+09 8.700000000000000000e+01 2.887160000000000052e-04 5.000000000000000311e-10
1.493005114000000000e+09 8.700000000000000000e+01 1.132930000000000048e-01 5.000000000000000311e-10
1.493005116000000000e+09 8.700000000000000000e+01 0.000000000000000000e+00 5.000000000000000311e-10
1.493005118000000000e+09 8.700000000000000000e+01 1.045220000000000038e-01 5.000000000000000311e-10
1.493005120000000000e+09 8.700000000000000000e+01 0.000000000000000000e+00 5.000000000000000311e-10
1.493005122000000000e+09 8.700000000000000000e+01 1.281400000000000039e-01 5.000000000000000311e-10
1.493005124000000000e+09 8.700000000000000000e+01 0.000000000000000000e+00 5.000000000000000311e-10
1.493005126000000000e+09 8.700000000000000000e+01 1.153809999999999975e-01 5.000000000000000311e-10
1.493005128000000000e+09 8.700000000000000000e+01 0.000000000000000000e+00 5.000000000000000311e-10
1.493005130000000000e+09 8.700000000000000000e+01 9.877389999999999781e-02 5.000000000000000311e-10
1.493005132000000000e+09 8.700000000000000000e+01 0.000000000000000000e+00 5.000000000000000311e-10
1.493005134000000000e+09 8.700000000000000000e+01 1.154840000000000033e-01 5.000000000000000311e-10
1.493005136000000000e+09 8.700000000000000000e+01 0.000000000000000000e+00 5.000000000000000311e-10
1.493005138000000000e+09 8.700000000000000000e+01 1.053650000000000003e-01 5.000000000000000311e-10
1.493005140000000000e+09 8.700000000000000000e+01 0.000000000000000000e+00 5.000000000000000311e-10
1.493005142000000000e+09 8.700000000000000000e+01 8.954520000000000535e-02 5.000000000000000311e-10
1.493005144000000000e+09 8.700000000000000000e+01 0.000000000000000000e+00 5.000000000000000311e-10
1.493005146000000000e+09 8.700000000000000000e+01 8.764489999999999781e-02 5.000000000000000311e-10
1.493005148000000000e+09 8.700000000000000000e+01 0.000000000000000000e+00 5.000000000000000311e-10
1.493005150000000000e+09 8.700000000000000000e+01 1.112749999999999989e-01 5.000000000000000311e-10
1.493005152000000000e+09 8.700000000000000000e+01 0.000000000000000000e+00 5.000000000000000311e-10
1.493005154000000000e+09 8.700000000000000000e+01 1.001419999999999949e-01 5.000000000000000311e-10
1.493005156000000000e+09 8.700000000000000000e+01 4.292809999999999985e-04 5.000000000000000311e-10
1.493005158000000000e+09 8.700000000000000000e+01 1.202339999999999937e-01 5.000000000000000311e-10
1.493005160000000000e+09 8.700000000000000000e+01 0.000000000000000000e+00 5.000000000000000311e-10
1.493005162000000000e+09 8.700000000000000000e+01 1.041350000000000053e-01 5.000000000000000311e-10
1.493005164000000000e+09 8.700000000000000000e+01 0.000000000000000000e+00 5.000000000000000311e-10
1.493005166000000000e+09 8.700000000000000000e+01 1.052769999999999956e-01 5.000000000000000311e-10
1.493005168000000000e+09 8.700000000000000000e+01 0.000000000000000000e+00 5.000000000000000311e-10
1.493005170000000000e+09 8.700000000000000000e+01 1.019869999999999943e-01 5.000000000000000311e-10
1.493005172000000000e+09 8.700000000000000000e+01 0.000000000000000000e+00 5.000000000000000311e-10
1.493005174000000000e+09 8.700000000000000000e+01 1.181129999999999958e-01 5.000000000000000311e-10
1.493005176000000000e+09 8.700000000000000000e+01 0.000000000000000000e+00 5.000000000000000311e-10
1.493005178000000000e+09 8.700000000000000000e+01 1.072700000000000042e-01 5.000000000000000311e-10
1.493005180000000000e+09 8.700000000000000000e+01 0.000000000000000000e+00 5.000000000000000311e-10
1.493005182000000000e+09 8.700000000000000000e+01 6.852819999999999745e-02 5.000000000000000311e-10
1.493005184000000000e+09 8.700000000000000000e+01 0.000000000000000000e+00 5.000000000000000311e-10
1.493005186000000000e+09 8.700000000000000000e+01 9.362929999999999864e-02 5.000000000000000311e-10
1.493005188000000000e+09 8.700000000000000000e+01 0.000000000000000000e+00 5.000000000000000311e-10
1.493005190000000000e+09 8.700000000000000000e+01 9.867800000000000182e-02 5.000000000000000311e-10
1.493005192000000000e+09 8.700000000000000000e+01 0.000000000000000000e+00 5.000000000000000311e-10
1.493005194000000000e+09 8.700000000000000000e+01 9.666260000000000130e-02 5.000000000000000311e-10
1.493005196000000000e+09 8.700000000000000000e+01 0.000000000000000000e+00 5.000000000000000311e-10
1.493005198000000000e+09 8.700000000000000000e+01 9.534739999999999882e-02 5.000000000000000311e-10
1.493005200000000000e+09 8.700000000000000000e+01 0.000000000000000000e+00 5.000000000000000311e-10
1.493005202000000000e+09 8.700000000000000000e+01 1.024390000000000023e-01 5.000000000000000311e-10
1.493005204000000000e+09 8.700000000000000000e+01 0.000000000000000000e+00 5.000000000000000311e-10
1.493005206000000000e+09 8.700000000000000000e+01 8.985269999999999369e-02 5.000000000000000311e-10
1.493005208000000000e+09 8.700000000000000000e+01 0.000000000000000000e+00 5.000000000000000311e-10
1.493005210000000000e+09 8.700000000000000000e+01 9.806439999999999602e-02 5.000000000000000311e-10
1.493005212000000000e+09 8.700000000000000000e+01 9.669809999999999495e-05 5.000000000000000311e-10
1.493005214000000000e+09 8.700000000000000000e+01 1.227390000000000009e-01 5.000000000000000311e-10
1.493005216000000000e+09 8.700000000000000000e+01 0.000000000000000000e+00 5.000000000000000311e-10
1.493005218000000000e+09 8.700000000000000000e+01 1.293710000000000138e-01 5.000000000000000311e-10
1.493005220000000000e+09 8.700000000000000000e+01 5.896649999999999862e-05 5.000000000000000311e-10
1.493005222000000000e+09 8.700000000000000000e+01 1.211190000000000044e-01 5.000000000000000311e-10
1.493005224000000000e+09 8.700000000000000000e+01 0.000000000000000000e+00 5.000000000000000311e-10
1.493005226000000000e+09 8.700000000000000000e+01 1.108910000000000035e-01 5.000000000000000311e-10
1.493005228000000000e+09 8.700000000000000000e+01 0.000000000000000000e+00 5.000000000000000311e-10
1.493005230000000000e+09 8.700000000000000000e+01 9.702890000000000126e-02 5.000000000000000311e-10
1.493005232000000000e+09 8.700000000000000000e+01 0.000000000000000000e+00 5.000000000000000311e-10
1.493005234000000000e+09 8.700000000000000000e+01 1.107699999999999935e-01 5.000000000000000311e-10
1.493005236000000000e+09 8.700000000000000000e+01 0.000000000000000000e+00 5.000000000000000311e-10
1.493005238000000000e+09 8.700000000000000000e+01 1.052320000000000061e-01 5.000000000000000311e-10
1.493005240000000000e+09 8.700000000000000000e+01 0.000000000000000000e+00 5.000000000000000311e-10
1.493005242000000000e+09 8.700000000000000000e+01 1.032519999999999966e-01 5.000000000000000311e-10
1.493005244000000000e+09 8.700000000000000000e+01 1.032310000000000042e-03 5.000000000000000311e-10
1.493005246000000000e+09 8.700000000000000000e+01 1.097140000000000060e-01 5.000000000000000311e-10
1.493005248000000000e+09 8.700000000000000000e+01 6.815390000000000489e-05 5.000000000000000311e-10
1.493005250000000000e+09 8.700000000000000000e+01 1.024940000000000018e-01 5.000000000000000311e-10
1.493005252000000000e+09 8.700000000000000000e+01 0.000000000000000000e+00 5.000000000000000311e-10
1.493005254000000000e+09 8.700000000000000000e+01 1.035549999999999943e-01 5.000000000000000311e-10
1.493005256000000000e+09 8.700000000000000000e+01 0.000000000000000000e+00 5.000000000000000311e-10
1.493005258000000000e+09 8.700000000000000000e+01 4.809370000000000311e-02 5.000000000000000311e-10
1.493005260000000000e+09 8.700000000000000000e+01 0.000000000000000000e+00 5.000000000000000311e-10
1.493005262000000000e+09 8.700000000000000000e+01 1.044970000000000065e-01 5.000000000000000311e-10
1.493005264000000000e+09 8.700000000000000000e+01 0.000000000000000000e+00 5.000000000000000311e-10
1.493005266000000000e+09 8.700000000000000000e+01 1.075239999999999946e-01 5.000000000000000311e-10
1.493005268000000000e+09 8.700000000000000000e+01 0.000000000000000000e+00 5.000000000000000311e-10
1.493005270000000000e+09 8.700000000000000000e+01 1.121970000000000051e-01 5.000000000000000311e-10
1.493005272000000000e+09 8.700000000000000000e+01 0.000000000000000000e+00 5.000000000000000311e-10
1.493005274000000000e+09 8.700000000000000000e+01 9.690550000000000552e-02 5.000000000000000311e-10
1.493005276000000000e+09 8.700000000000000000e+01 0.000000000000000000e+00 5.000000000000000311e-10
1.493005278000000000e+09 8.700000000000000000e+01 9.966460000000000596e-02 5.000000000000000311e-10
1.493005280000000000e+09 8.700000000000000000e+01 0.000000000000000000e+00 5.000000000000000311e-10
1.493005282000000000e+09 8.700000000000000000e+01 8.589049999999999463e-02 5.000000000000000311e-10
1.493005284000000000e+09 8.700000000000000000e+01 0.000000000000000000e+00 5.000000000000000311e-10
1.493005286000000000e+09 8.700000000000000000e+01 1.160039999999999960e-01 5.000000000000000311e-10
1.493005288000000000e+09 8.700000000000000000e+01 0.000000000000000000e+00 5.000000000000000311e-10
1.493005290000000000e+09 8.700000000000000000e+01 8.454180000000000028e-02 5.000000000000000311e-10
1.493005292000000000e+09 8.700000000000000000e+01 0.000000000000000000e+00 5.000000000000000311e-10
1.493005294000000000e+09 8.700000000000000000e+01 9.698410000000000364e-02 5.000000000000000311e-10
1.493005296000000000e+09 8.700000000000000000e+01 0.000000000000000000e+00 5.000000000000000311e-10
1.493005298000000000e+09 8.700000000000000000e+01 8.897470000000000379e-02 5.000000000000000311e-10
1.493005300000000000e+09 8.700000000000000000e+01 0.000000000000000000e+00 5.000000000000000311e-10
1.493005302000000000e+09 8.700000000000000000e+01 1.101810000000000012e-01 5.000000000000000311e-10
1.493005304000000000e+09 8.700000000000000000e+01 0.000000000000000000e+00 5.000000000000000311e-10
1.493005306000000000e+09 8.700000000000000000e+01 1.008710000000000023e-01 5.000000000000000311e-10
1.493005308000000000e+09 8.700000000000000000e+01 0.000000000000000000e+00 5.000000000000000311e-10
1.493005310000000000e+09 8.700000000000000000e+01 8.743040000000000533e-02 5.000000000000000311e-10
1.493005312000000000e+09 8.700000000000000000e+01 1.498399999999999884e-04 5.000000000000000311e-10
1.493005314000000000e+09 8.700000000000000000e+01 1.007620000000000043e-01 5.000000000000000311e-10
1.493005316000000000e+09 8.700000000000000000e+01 0.000000000000000000e+00 5.000000000000000311e-10
1.493005318000000000e+09 8.700000000000000000e+01 1.135140000000000038e-01 5.000000000000000311e-10
1.493005320000000000e+09 8.700000000000000000e+01 0.000000000000000000e+00 5.000000000000000311e-10
1.493005322000000000e+09 8.700000000000000000e+01 1.095760000000000067e-01 5.000000000000000311e-10
1.493005324000000000e+09 8.700000000000000000e+01 0.000000000000000000e+00 5.000000000000000311e-10
1.493005326000000000e+09 8.700000000000000000e+01 1.203639999999999988e-01 5.000000000000000311e-10
1.493005328000000000e+09 8.700000000000000000e+01 0.000000000000000000e+00 5.000000000000000311e-10
1.493005330000000000e+09 8.700000000000000000e+01 1.082189999999999958e-01 5.000000000000000311e-10
1.493005332000000000e+09 8.700000000000000000e+01 0.000000000000000000e+00 5.000000000000000311e-10
1.493005334000000000e+09 8.700000000000000000e+01 1.005520000000000025e-01 5.000000000000000311e-10
1.493005336000000000e+09 8.700000000000000000e+01 3.447160000000000111e-04 5.000000000000000311e-10
1.493005338000000000e+09 8.700000000000000000e+01 1.001610000000000000e-01 5.000000000000000311e-10
1.493005340000000000e+09 8.700000000000000000e+01 0.000000000000000000e+00 5.000000000000000311e-10
1.493005342000000000e+09 8.700000000000000000e+01 8.977730000000000432e-02 5.000000000000000311e-10
1.493005344000000000e+09 8.700000000000000000e+01 0.000000000000000000e+00 5.000000000000000311e-10
1.493005346000000000e+09 8.700000000000000000e+01 1.066860000000000031e-01 5.000000000000000311e-10
1.493005348000000000e+09 8.700000000000000000e+01 0.000000000000000000e+00 5.000000000000000311e-10
1.493005350000000000e+09 8.700000000000000000e+01 9.251170000000000226e-02 5.000000000000000311e-10
1.493005352000000000e+09 8.700000000000000000e+01 0.000000000000000000e+00 5.000000000000000311e-10
1.493005354000000000e+09 8.700000000000000000e+01 8.344590000000000340e-02 5.000000000000000311e-10
1.493005356000000000e+09 8.700000000000000000e+01 0.000000000000000000e+00 5.000000000000000311e-10
1.493005358000000000e+09 8.700000000000000000e+01 8.315329999999999944e-02 5.000000000000000311e-10
1.493005360000000000e+09 8.700000000000000000e+01 0.000000000000000000e+00 5.000000000000000311e-10
1.493005362000000000e+09 8.700000000000000000e+01 9.749900000000000233e-02 5.000000000000000311e-10
1.493005364000000000e+09 8.700000000000000000e+01 0.000000000000000000e+00 5.000000000000000311e-10
1.493005366000000000e+09 8.700000000000000000e+01 9.029030000000000389e-02 5.000000000000000311e-10
1.493005368000000000e+09 8.700000000000000000e+01 0.000000000000000000e+00 5.000000000000000311e-10
1.493005370000000000e+09 8.700000000000000000e+01 9.502339999999999398e-02 5.000000000000000311e-10
1.493005372000000000e+09 8.700000000000000000e+01 0.000000000000000000e+00 5.000000000000000311e-10
1.493005374000000000e+09 8.700000000000000000e+01 9.463050000000000628e-02 5.000000000000000311e-10
1.493005376000000000e+09 8.700000000000000000e+01 0.000000000000000000e+00 5.000000000000000311e-10
1.493005378000000000e+09 8.700000000000000000e+01 7.665049999999999641e-02 5.000000000000000311e-10
1.493005380000000000e+09 8.700000000000000000e+01 0.000000000000000000e+00 5.000000000000000311e-10
1.493005382000000000e+09 8.700000000000000000e+01 8.978559999999999319e-02 5.000000000000000311e-10
1.493005384000000000e+09 8.700000000000000000e+01 0.000000000000000000e+00 5.000000000000000311e-10
1.493005386000000000e+09 8.700000000000000000e+01 9.232619999999999716e-02 5.000000000000000311e-10
1.493005388000000000e+09 8.700000000000000000e+01 0.000000000000000000e+00 5.000000000000000311e-10
1.493005390000000000e+09 8.700000000000000000e+01 1.085259999999999975e-01 5.000000000000000311e-10
1.493005392000000000e+09 8.700000000000000000e+01 0.000000000000000000e+00 5.000000000000000311e-10
1.493005394000000000e+09 8.700000000000000000e+01 9.618899999999999673e-02 5.000000000000000311e-10
1.493005396000000000e+09 8.700000000000000000e+01 0.000000000000000000e+00 5.000000000000000311e-10
1.493005398000000000e+09 8.700000000000000000e+01 1.038010000000000044e-01 5.000000000000000311e-10
1.493005400000000000e+09 8.700000000000000000e+01 0.000000000000000000e+00 5.000000000000000311e-10
1.493005402000000000e+09 8.700000000000000000e+01 1.076740000000000058e-01 5.000000000000000311e-10
1.493005404000000000e+09 8.700000000000000000e+01 0.000000000000000000e+00 5.000000000000000311e-10
1.493005406000000000e+09 8.700000000000000000e+01 8.564420000000000366e-02 5.000000000000000311e-10
1.493005408000000000e+09 8.700000000000000000e+01 0.000000000000000000e+00 5.000000000000000311e-10
1.493005410000000000e+09 8.700000000000000000e+01 9.459389999999999465e-02 5.000000000000000311e-10
1.493005412000000000e+09 8.700000000000000000e+01 0.000000000000000000e+00 5.000000000000000311e-10
1.493005414000000000e+09 8.700000000000000000e+01 9.783650000000000679e-02 5.000000000000000311e-10
1.493005416000000000e+09 8.700000000000000000e+01 0.000000000000000000e+00 5.000000000000000311e-10
1.493005418000000000e+09 8.700000000000000000e+01 1.041170000000000012e-01 5.000000000000000311e-10
1.493005420000000000e+09 8.700000000000000000e+01 0.000000000000000000e+00 5.000000000000000311e-10
1.493005422000000000e+09 8.700000000000000000e+01 1.193560000000000038e-01 5.000000000000000311e-10
1.493005424000000000e+09 8.700000000000000000e+01 0.000000000000000000e+00 5.000000000000000311e-10
1.493005426000000000e+09 8.700000000000000000e+01 1.080269999999999980e-01 5.000000000000000311e-10
1.493005428000000000e+09 8.700000000000000000e+01 0.000000000000000000e+00 5.000000000000000311e-10
1.493005430000000000e+09 8.700000000000000000e+01 1.130670000000000008e-01 5.000000000000000311e-10
1.493005432000000000e+09 8.700000000000000000e+01 0.000000000000000000e+00 5.000000000000000311e-10
1.493005434000000000e+09 8.700000000000000000e+01 9.274440000000000461e-02 5.000000000000000311e-10
1.493005436000000000e+09 8.700000000000000000e+01 0.000000000000000000e+00 5.000000000000000311e-10
1.493005438000000000e+09 8.700000000000000000e+01 9.843300000000000660e-02 5.000000000000000311e-10
1.493005440000000000e+09 8.700000000000000000e+01 0.000000000000000000e+00 5.000000000000000311e-10
1.493005442000000000e+09 8.700000000000000000e+01 1.012089999999999934e-01 5.000000000000000311e-10
1.493005444000000000e+09 8.700000000000000000e+01 0.000000000000000000e+00 5.000000000000000311e-10
1.493005446000000000e+09 8.700000000000000000e+01 9.087420000000000220e-02 5.000000000000000311e-10
1.493005448000000000e+09 8.700000000000000000e+01 0.000000000000000000e+00 5.000000000000000311e-10
1.493005450000000000e+09 8.700000000000000000e+01 9.474660000000000026e-02 5.000000000000000311e-10
1.493005452000000000e+09 8.700000000000000000e+01 0.000000000000000000e+00 5.000000000000000311e-10
1.493005454000000000e+09 8.700000000000000000e+01 7.635540000000000382e-02 5.000000000000000311e-10
1.493005456000000000e+09 8.700000000000000000e+01 0.000000000000000000e+00 5.000000000000000311e-10
1.493005458000000000e+09 8.700000000000000000e+01 9.081999999999999795e-02 5.000000000000000311e-10
1.493005460000000000e+09 8.700000000000000000e+01 0.000000000000000000e+00 5.000000000000000311e-10
1.493005462000000000e+09 8.700000000000000000e+01 8.109479999999999467e-02 5.000000000000000311e-10
1.493005464000000000e+09 8.700000000000000000e+01 1.162170000000000022e-04 5.000000000000000311e-10
1.493005466000000000e+09 8.700000000000000000e+01 9.774670000000000580e-02 5.000000000000000311e-10
1.493005468000000000e+09 8.700000000000000000e+01 0.000000000000000000e+00 5.000000000000000311e-10
1.493005470000000000e+09 8.700000000000000000e+01 8.607159999999999811e-02 5.000000000000000311e-10
1.493005472000000000e+09 8.700000000000000000e+01 0.000000000000000000e+00 5.000000000000000311e-10
1.493005474000000000e+09 8.700000000000000000e+01 7.663470000000000004e-02 5.000000000000000311e-10
1.493005476000000000e+09 8.700000000000000000e+01 0.000000000000000000e+00 5.000000000000000311e-10
1.493005478000000000e+09 8.700000000000000000e+01 9.577230000000000465e-02 5.000000000000000311e-10
1.493005480000000000e+09 8.700000000000000000e+01 0.000000000000000000e+00 5.000000000000000311e-10
1.493005482000000000e+09 8.700000000000000000e+01 7.953960000000000197e-02 5.000000000000000311e-10
1.493005484000000000e+09 8.700000000000000000e+01 0.000000000000000000e+00 5.000000000000000311e-10
1.493005486000000000e+09 8.700000000000000000e+01 1.034110000000000029e-01 5.000000000000000311e-10
1.493005488000000000e+09 8.700000000000000000e+01 0.000000000000000000e+00 5.000000000000000311e-10
1.493005490000000000e+09 8.700000000000000000e+01 9.594700000000000450e-02 5.000000000000000311e-10
1.493005492000000000e+09 8.700000000000000000e+01 0.000000000000000000e+00 5.000000000000000311e-10
1.493005494000000000e+09 8.700000000000000000e+01 8.590409999999999713e-02 5.000000000000000311e-10
1.493005496000000000e+09 8.700000000000000000e+01 0.000000000000000000e+00 5.000000000000000311e-10
1.493005498000000000e+09 8.700000000000000000e+01 1.120529999999999998e-01 5.000000000000000311e-10
1.493005500000000000e+09 8.700000000000000000e+01 0.000000000000000000e+00 5.000000000000000311e-10
1.493005502000000000e+09 8.700000000000000000e+01 1.102240000000000025e-01 5.000000000000000311e-10
1.493005504000000000e+09 8.700000000000000000e+01 0.000000000000000000e+00 5.000000000000000311e-10
1.493005506000000000e+09 8.700000000000000000e+01 1.157939999999999942e-01 5.000000000000000311e-10
1.493005508000000000e+09 8.700000000000000000e+01 0.000000000000000000e+00 5.000000000000000311e-10
1.493005510000000000e+09 8.700000000000000000e+01 1.184570000000000067e-01 5.000000000000000311e-10
1.493005512000000000e+09 8.700000000000000000e+01 0.000000000000000000e+00 5.000000000000000311e-10
1.493005514000000000e+09 8.700000000000000000e+01 1.097110000000000030e-01 5.000000000000000311e-10
1.493005516000000000e+09 8.700000000000000000e+01 0.000000000000000000e+00 5.000000000000000311e-10
1.493005518000000000e+09 8.700000000000000000e+01 1.091670000000000001e-01 5.000000000000000311e-10
1.493005520000000000e+09 8.700000000000000000e+01 0.000000000000000000e+00 5.000000000000000311e-10
1.493005522000000000e+09 8.700000000000000000e+01 1.080310000000000020e-01 5.000000000000000311e-10
1.493005524000000000e+09 8.700000000000000000e+01 1.028810000000000065e-04 5.000000000000000311e-10
1.493005526000000000e+09 8.700000000000000000e+01 1.043099999999999999e-01 5.000000000000000311e-10
1.493005528000000000e+09 8.700000000000000000e+01 0.000000000000000000e+00 5.000000000000000311e-10
1.493005530000000000e+09 8.700000000000000000e+01 9.674549999999999816e-02 5.000000000000000311e-10
1.493005532000000000e+09 8.700000000000000000e+01 0.000000000000000000e+00 5.000000000000000311e-10
1.493005534000000000e+09 8.700000000000000000e+01 1.041559999999999986e-01 5.000000000000000311e-10
1.493005536000000000e+09 8.700000000000000000e+01 3.726980000000000017e-05 5.000000000000000311e-10
1.493005538000000000e+09 8.700000000000000000e+01 1.016729999999999995e-01 5.000000000000000311e-10
1.493005540000000000e+09 8.700000000000000000e+01 0.000000000000000000e+00 5.000000000000000311e-10
1.493005542000000000e+09 8.700000000000000000e+01 9.725939999999999586e-02 5.000000000000000311e-10
1.493005544000000000e+09 8.700000000000000000e+01 0.000000000000000000e+00 5.000000000000000311e-10
1.493005546000000000e+09 8.700000000000000000e+01 8.457119999999999915e-02 5.000000000000000311e-10
1.493005548000000000e+09 8.700000000000000000e+01 1.078259999999999939e-04 5.000000000000000311e-10
1.493005550000000000e+09 8.700000000000000000e+01 8.875520000000000631e-02 5.000000000000000311e-10
1.493005552000000000e+09 8.700000000000000000e+01 0.000000000000000000e+00 5.000000000000000311e-10
1.493005554000000000e+09 8.700000000000000000e+01 9.017250000000000265e-02 5.000000000000000311e-10
1.493005556000000000e+09 8.700000000000000000e+01 0.000000000000000000e+00 5.000000000000000311e-10
1.493005558000000000e+09 8.700000000000000000e+01 8.830050000000000399e-02 5.000000000000000311e-10
1.493005560000000000e+09 8.700000000000000000e+01 0.000000000000000000e+00 5.000000000000000311e-10
1.493005562000000000e+09 8.700000000000000000e+01 8.761190000000000644e-02 5.000000000000000311e-10
1.493005564000000000e+09 8.700000000000000000e+01 0.000000000000000000e+00 5.000000000000000311e-10
1.493005566000000000e+09 8.700000000000000000e+01 9.434649999999999981e-02 5.000000000000000311e-10
1.493005568000000000e+09 8.700000000000000000e+01 0.000000000000000000e+00 5.000000000000000311e-10
1.493005570000000000e+09 8.700000000000000000e+01 5.544489999999999835e-02 5.000000000000000311e-10
1.493005572000000000e+09 8.700000000000000000e+01 0.000000000000000000e+00 5.000000000000000311e-10
1.493005574000000000e+09 8.700000000000000000e+01 9.277050000000000574e-02 5.000000000000000311e-10
1.493005576000000000e+09 8.700000000000000000e+01 0.000000000000000000e+00 5.000000000000000311e-10
1.493005578000000000e+09 8.700000000000000000e+01 1.178260000000000002e-01 5.000000000000000311e-10
1.493005580000000000e+09 8.700000000000000000e+01 0.000000000000000000e+00 5.000000000000000311e-10
1.493005582000000000e+09 8.700000000000000000e+01 1.104300000000000004e-01 5.000000000000000311e-10
1.493005584000000000e+09 8.700000000000000000e+01 0.000000000000000000e+00 5.000000000000000311e-10
1.493005586000000000e+09 8.700000000000000000e+01 1.108679999999999943e-01 5.000000000000000311e-10
1.493005588000000000e+09 8.700000000000000000e+01 0.000000000000000000e+00 5.000000000000000311e-10
1.493005590000000000e+09 8.700000000000000000e+01 1.191799999999999943e-01 5.000000000000000311e-10
1.493005592000000000e+09 8.700000000000000000e+01 1.979840000000000072e-04 5.000000000000000311e-10
1.493005594000000000e+09 8.700000000000000000e+01 9.614939999999999598e-02 5.000000000000000311e-10
1.493005596000000000e+09 8.700000000000000000e+01 0.000000000000000000e+00 5.000000000000000311e-10
1.493005598000000000e+09 8.700000000000000000e+01 1.066099999999999964e-01 5.000000000000000311e-10
1.493005600000000000e+09 8.700000000000000000e+01 0.000000000000000000e+00 5.000000000000000311e-10
1.493005602000000000e+09 8.700000000000000000e+01 1.189449999999999952e-01 5.000000000000000311e-10
1.493005604000000000e+09 8.700000000000000000e+01 0.000000000000000000e+00 5.000000000000000311e-10
1.493005606000000000e+09 8.700000000000000000e+01 8.264749999999999874e-02 5.000000000000000311e-10
1.493005608000000000e+09 8.700000000000000000e+01 0.000000000000000000e+00 5.000000000000000311e-10
1.493005610000000000e+09 8.700000000000000000e+01 1.120260000000000006e-01 5.000000000000000311e-10
1.493005612000000000e+09 8.700000000000000000e+01 0.000000000000000000e+00 5.000000000000000311e-10
1.493005614000000000e+09 8.700000000000000000e+01 7.959339999999999471e-02 5.000000000000000311e-10
1.493005616000000000e+09 8.700000000000000000e+01 0.000000000000000000e+00 5.000000000000000311e-10
1.493005618000000000e+09 8.700000000000000000e+01 8.225309999999999566e-02 5.000000000000000311e-10
1.493005620000000000e+09 8.700000000000000000e+01 0.000000000000000000e+00 5.000000000000000311e-10
1.493005622000000000e+09 8.700000000000000000e+01 8.681600000000000428e-02 5.000000000000000311e-10
1.493005624000000000e+09 8.700000000000000000e+01 0.000000000000000000e+00 5.000000000000000311e-10
1.493005626000000000e+09 8.700000000000000000e+01 1.101319999999999938e-01 5.000000000000000311e-10
1.493005628000000000e+09 8.700000000000000000e+01 0.000000000000000000e+00 5.000000000000000311e-10
1.493005630000000000e+09 8.700000000000000000e+01 6.869110000000000493e-02 5.000000000000000311e-10
1.493005632000000000e+09 8.700000000000000000e+01 0.000000000000000000e+00 5.000000000000000311e-10
1.493005634000000000e+09 8.700000000000000000e+01 1.163819999999999993e-01 5.000000000000000311e-10
1.493005636000000000e+09 8.700000000000000000e+01 0.000000000000000000e+00 5.000000000000000311e-10
1.493005638000000000e+09 8.700000000000000000e+01 1.091059999999999947e-01 5.000000000000000311e-10
1.493005640000000000e+09 8.700000000000000000e+01 0.000000000000000000e+00 5.000000000000000311e-10
1.493005642000000000e+09 8.700000000000000000e+01 8.994149999999999368e-02 5.000000000000000311e-10
1.493005644000000000e+09 8.700000000000000000e+01 0.000000000000000000e+00 5.000000000000000311e-10
1.493005646000000000e+09 8.700000000000000000e+01 9.577080000000000315e-02 5.000000000000000311e-10
1.493005648000000000e+09 8.700000000000000000e+01 0.000000000000000000e+00 5.000000000000000311e-10
1.493005650000000000e+09 8.700000000000000000e+01 1.116499999999999992e-01 5.000000000000000311e-10
1.493005652000000000e+09 8.700000000000000000e+01 0.000000000000000000e+00 5.000000000000000311e-10
1.493005654000000000e+09 8.700000000000000000e+01 1.214360000000000023e-01 5.000000000000000311e-10
1.493005656000000000e+09 8.700000000000000000e+01 0.000000000000000000e+00 5.000000000000000311e-10
1.493005658000000000e+09 8.700000000000000000e+01 1.202830000000000010e-01 5.000000000000000311e-10
1.493005660000000000e+09 8.700000000000000000e+01 0.000000000000000000e+00 5.000000000000000311e-10
1.493005662000000000e+09 8.700000000000000000e+01 1.076259999999999994e-01 5.000000000000000311e-10
1.493005664000000000e+09 8.700000000000000000e+01 0.000000000000000000e+00 5.000000000000000311e-10
1.493005666000000000e+09 8.700000000000000000e+01 1.155589999999999951e-01 5.000000000000000311e-10
1.493005668000000000e+09 8.700000000000000000e+01 0.000000000000000000e+00 5.000000000000000311e-10
1.493005670000000000e+09 8.700000000000000000e+01 1.045869999999999994e-01 5.000000000000000311e-10
1.493005672000000000e+09 8.700000000000000000e+01 0.000000000000000000e+00 5.000000000000000311e-10
1.493005674000000000e+09 8.700000000000000000e+01 1.225409999999999971e-01 5.000000000000000311e-10
1.493005676000000000e+09 8.700000000000000000e+01 0.000000000000000000e+00 5.000000000000000311e-10
1.493005678000000000e+09 8.700000000000000000e+01 1.075880000000000031e-01 5.000000000000000311e-10
1.493005680000000000e+09 8.700000000000000000e+01 0.000000000000000000e+00 5.000000000000000311e-10
1.493005682000000000e+09 8.700000000000000000e+01 9.148660000000000125e-02 5.000000000000000311e-10
1.493005684000000000e+09 8.700000000000000000e+01 0.000000000000000000e+00 5.000000000000000311e-10
1.493005686000000000e+09 8.700000000000000000e+01 8.633240000000000358e-02 5.000000000000000311e-10
1.493005688000000000e+09 8.700000000000000000e+01 0.000000000000000000e+00 5.000000000000000311e-10
1.493005690000000000e+09 8.700000000000000000e+01 9.517359999999999709e-02 5.000000000000000311e-10
1.493005692000000000e+09 8.700000000000000000e+01 0.000000000000000000e+00 5.000000000000000311e-10
1.493005694000000000e+09 8.700000000000000000e+01 8.845889999999999309e-02 5.000000000000000311e-10
1.493005696000000000e+09 8.700000000000000000e+01 1.258800000000000077e-04 5.000000000000000311e-10
1.493005698000000000e+09 8.700000000000000000e+01 9.115629999999999566e-02 5.000000000000000311e-10
1.493005700000000000e+09 8.700000000000000000e+01 0.000000000000000000e+00 5.000000000000000311e-10
1.493005702000000000e+09 8.700000000000000000e+01 8.876080000000000081e-02 5.000000000000000311e-10
1.493005704000000000e+09 8.700000000000000000e+01 8.971560000000000548e-05 5.000000000000000311e-10
1.493005706000000000e+09 8.700000000000000000e+01 1.119180000000000036e-01 5.000000000000000311e-10
1.493005708000000000e+09 8.700000000000000000e+01 0.000000000000000000e+00 5.000000000000000311e-10
1.493005710000000000e+09 8.700000000000000000e+01 9.979280000000000095e-02 5.000000000000000311e-10
1.493005712000000000e+09 8.700000000000000000e+01 0.000000000000000000e+00 5.000000000000000311e-10
1.493005714000000000e+09 8.700000000000000000e+01 1.115840000000000026e-01 5.000000000000000311e-10
1.493005716000000000e+09 8.700000000000000000e+01 0.000000000000000000e+00 5.000000000000000311e-10
1.493005718000000000e+09 8.700000000000000000e+01 1.025790000000000035e-01 5.000000000000000311e-10
1.493005720000000000e+09 8.700000000000000000e+01 0.000000000000000000e+00 5.000000000000000311e-10
1.493005722000000000e+09 8.700000000000000000e+01 7.248739999999999351e-02 5.000000000000000311e-10
1.493005724000000000e+09 8.700000000000000000e+01 0.000000000000000000e+00 5.000000000000000311e-10
1.493005726000000000e+09 8.700000000000000000e+01 9.230689999999999729e-02 5.000000000000000311e-10
1.493005728000000000e+09 8.700000000000000000e+01 0.000000000000000000e+00 5.000000000000000311e-10
1.493005730000000000e+09 8.700000000000000000e+01 7.819990000000000274e-02 5.000000000000000311e-10
1.493005732000000000e+09 8.700000000000000000e+01 0.000000000000000000e+00 5.000000000000000311e-10
1.493005734000000000e+09 8.700000000000000000e+01 7.824659999999999949e-02 5.000000000000000311e-10
1.493005736000000000e+09 8.700000000000000000e+01 0.000000000000000000e+00 5.000000000000000311e-10
1.493005738000000000e+09 8.700000000000000000e+01 7.911300000000000276e-02 5.000000000000000311e-10
1.493005740000000000e+09 8.700000000000000000e+01 0.000000000000000000e+00 5.000000000000000311e-10
1.493005742000000000e+09 8.700000000000000000e+01 7.453959999999999753e-02 5.000000000000000311e-10
1.493005744000000000e+09 8.700000000000000000e+01 0.000000000000000000e+00 5.000000000000000311e-10
1.493005746000000000e+09 8.700000000000000000e+01 7.010089999999999377e-02 5.000000000000000311e-10
1.493005748000000000e+09 8.700000000000000000e+01 0.000000000000000000e+00 5.000000000000000311e-10
1.493005750000000000e+09 8.700000000000000000e+01 8.963959999999999984e-02 5.000000000000000311e-10
1.493005752000000000e+09 8.700000000000000000e+01 0.000000000000000000e+00 5.000000000000000311e-10
1.493005754000000000e+09 8.700000000000000000e+01 7.283820000000000572e-02 5.000000000000000311e-10
1.493005756000000000e+09 8.700000000000000000e+01 0.000000000000000000e+00 5.000000000000000311e-10
1.493005758000000000e+09 8.700000000000000000e+01 8.917200000000000126e-02 5.000000000000000311e-10
1.493005760000000000e+09 8.700000000000000000e+01 0.000000000000000000e+00 5.000000000000000311e-10
1.493005762000000000e+09 8.700000000000000000e+01 8.553260000000000030e-02 5.000000000000000311e-10
1.493005764000000000e+09 8.700000000000000000e+01 0.000000000000000000e+00 5.000000000000000311e-10
1.493005766000000000e+09 8.700000000000000000e+01 1.076410000000000006e-01 5.000000000000000311e-10
1.493005768000000000e+09 8.700000000000000000e+01 0.000000000000000000e+00 5.000000000000000311e-10
1.493005770000000000e+09 8.700000000000000000e+01 1.179589999999999944e-01 5.000000000000000311e-10
1.493005772000000000e+09 8.700000000000000000e+01 0.000000000000000000e+00 5.000000000000000311e-10
1.493005774000000000e+09 8.700000000000000000e+01 8.243609999999999827e-02 5.000000000000000311e-10
1.493005776000000000e+09 8.700000000000000000e+01 0.000000000000000000e+00 5.000000000000000311e-10
1.493005778000000000e+09 8.700000000000000000e+01 7.124469999999999414e-02 5.000000000000000311e-10
1.493005780000000000e+09 8.700000000000000000e+01 5.958149999999999731e-04 5.000000000000000311e-10
1.493005782000000000e+09 8.700000000000000000e+01 7.092179999999999318e-02 5.000000000000000311e-10
1.493005784000000000e+09 8.700000000000000000e+01 6.299880000000000540e-04 5.000000000000000311e-10
1.493005786000000000e+09 8.700000000000000000e+01 5.028300000000000131e-02 5.000000000000000311e-10
1.493005788000000000e+09 8.700000000000000000e+01 0.000000000000000000e+00 5.000000000000000311e-10
1.493005790000000000e+09 8.700000000000000000e+01 8.909699999999999565e-02 5.000000000000000311e-10
1.493005792000000000e+09 8.700000000000000000e+01 0.000000000000000000e+00 5.000000000000000311e-10
1.493005794000000000e+09 8.700000000000000000e+01 6.523379999999999457e-02 5.000000000000000311e-10
1.493005796000000000e+09 8.700000000000000000e+01 0.000000000000000000e+00 5.000000000000000311e-10
1.493005798000000000e+09 8.700000000000000000e+01 6.232279999999999764e-02 5.000000000000000311e-10
1.493005800000000000e+09 8.700000000000000000e+01 0.000000000000000000e+00 5.000000000000000311e-10
1.493005802000000000e+09 8.700000000000000000e+01 9.315350000000000019e-02 5.000000000000000311e-10
1.493005804000000000e+09 8.700000000000000000e+01 0.000000000000000000e+00 5.000000000000000311e-10
1.493005806000000000e+09 8.700000000000000000e+01 9.020309999999999440e-02 5.000000000000000311e-10
1.493005808000000000e+09 8.700000000000000000e+01 0.000000000000000000e+00 5.000000000000000311e-10
1.493005810000000000e+09 8.700000000000000000e+01 9.357609999999999539e-02 5.000000000000000311e-10
1.493005812000000000e+09 8.700000000000000000e+01 0.000000000000000000e+00 5.000000000000000311e-10
1.493005814000000000e+09 8.700000000000000000e+01 1.146829999999999933e-01 5.000000000000000311e-10
1.493005816000000000e+09 8.700000000000000000e+01 0.000000000000000000e+00 5.000000000000000311e-10
1.493005818000000000e+09 8.700000000000000000e+01 1.141139999999999932e-01 5.000000000000000311e-10
1.493005820000000000e+09 8.700000000000000000e+01 1.693019999999999996e-04 5.000000000000000311e-10
1.493005822000000000e+09 8.700000000000000000e+01 8.846070000000000322e-02 5.000000000000000311e-10
1.493005824000000000e+09 8.700000000000000000e+01 0.000000000000000000e+00 5.000000000000000311e-10
1.493005826000000000e+09 8.700000000000000000e+01 1.179919999999999997e-01 5.000000000000000311e-10
1.493005828000000000e+09 8.700000000000000000e+01 0.000000000000000000e+00 5.000000000000000311e-10
1.493005830000000000e+09 8.700000000000000000e+01 8.356260000000000077e-02 5.000000000000000311e-10
1.493005832000000000e+09 8.700000000000000000e+01 0.000000000000000000e+00 5.000000000000000311e-10
1.493005834000000000e+09 8.700000000000000000e+01 1.017220000000000069e-01 5.000000000000000311e-10
1.493005836000000000e+09 8.700000000000000000e+01 0.000000000000000000e+00 5.000000000000000311e-10
1.493005838000000000e+09 8.700000000000000000e+01 8.701920000000000488e-02 5.000000000000000311e-10
1.493005840000000000e+09 8.700000000000000000e+01 0.000000000000000000e+00 5.000000000000000311e-10
1.493005842000000000e+09 8.700000000000000000e+01 8.089989999999999681e-02 5.000000000000000311e-10
1.493005844000000000e+09 8.700000000000000000e+01 0.000000000000000000e+00 5.000000000000000311e-10
1.493005846000000000e+09 8.700000000000000000e+01 7.312430000000000319e-02 5.000000000000000311e-10
1.493005848000000000e+09 8.700000000000000000e+01 0.000000000000000000e+00 5.000000000000000311e-10
1.493005850000000000e+09 8.700000000000000000e+01 8.209829999999999905e-02 5.000000000000000311e-10
1.493005852000000000e+09 8.700000000000000000e+01 0.000000000000000000e+00 5.000000000000000311e-10
1.493005854000000000e+09 8.700000000000000000e+01 9.216749999999999943e-02 5.000000000000000311e-10
1.493005856000000000e+09 8.700000000000000000e+01 0.000000000000000000e+00 5.000000000000000311e-10
1.493005858000000000e+09 8.700000000000000000e+01 9.954000000000000348e-02 5.000000000000000311e-10
1.493005860000000000e+09 8.700000000000000000e+01 0.000000000000000000e+00 5.000000000000000311e-10
1.493005862000000000e+09 8.700000000000000000e+01 8.804259999999999864e-02 5.000000000000000311e-10
1.493005864000000000e+09 8.700000000000000000e+01 9.604650000000000275e-05 5.000000000000000311e-10
1.493005866000000000e+09 8.700000000000000000e+01 8.324360000000000093e-02 5.000000000000000311e-10
1.493005868000000000e+09 8.700000000000000000e+01 4.098770000000000061e-05 5.000000000000000311e-10
1.493005870000000000e+09 8.700000000000000000e+01 9.913869999999999627e-02 5.000000000000000311e-10
1.493005872000000000e+09 8.700000000000000000e+01 0.000000000000000000e+00 5.000000000000000311e-10
1.493005874000000000e+09 8.700000000000000000e+01 1.066349999999999937e-01 5.000000000000000311e-10
1.493005876000000000e+09 8.700000000000000000e+01 0.000000000000000000e+00 5.000000000000000311e-10
1.493005878000000000e+09 8.700000000000000000e+01 8.668069999999999942e-02 5.000000000000000311e-10
1.493005880000000000e+09 8.700000000000000000e+01 9.632619999999999941e-05 5.000000000000000311e-10
1.493005882000000000e+09 8.700000000000000000e+01 9.245580000000000465e-02 5.000000000000000311e-10
1.493005884000000000e+09 8.700000000000000000e+01 0.000000000000000000e+00 5.000000000000000311e-10
1.493005886000000000e+09 8.700000000000000000e+01 9.310200000000000420e-02 5.000000000000000311e-10
1.493005888000000000e+09 8.700000000000000000e+01 0.000000000000000000e+00 5.000000000000000311e-10
1.493005890000000000e+09 8.700000000000000000e+01 9.886200000000000543e-02 5.000000000000000311e-10
1.493005892000000000e+09 8.700000000000000000e+01 0.000000000000000000e+00 5.000000000000000311e-10
1.493005894000000000e+09 8.700000000000000000e+01 9.655840000000000256e-02 5.000000000000000311e-10
1.493005896000000000e+09 8.700000000000000000e+01 0.000000000000000000e+00 5.000000000000000311e-10
1.493005898000000000e+09 8.700000000000000000e+01 9.064049999999999885e-02 5.000000000000000311e-10
1.493005900000000000e+09 8.700000000000000000e+01 0.000000000000000000e+00 5.000000000000000311e-10
1.493005902000000000e+09 8.700000000000000000e+01 8.173660000000000647e-02 5.000000000000000311e-10
1.493005904000000000e+09 8.700000000000000000e+01 0.000000000000000000e+00 5.000000000000000311e-10
1.493005906000000000e+09 8.700000000000000000e+01 1.167170000000000013e-01 5.000000000000000311e-10
1.493005908000000000e+09 8.700000000000000000e+01 0.000000000000000000e+00 5.000000000000000311e-10
1.493005910000000000e+09 8.700000000000000000e+01 9.678699999999999803e-02 5.000000000000000311e-10
1.493005912000000000e+09 8.700000000000000000e+01 0.000000000000000000e+00 5.000000000000000311e-10
1.493005914000000000e+09 8.700000000000000000e+01 9.683049999999999990e-02 5.000000000000000311e-10
1.493005916000000000e+09 8.700000000000000000e+01 0.000000000000000000e+00 5.000000000000000311e-10
1.493005918000000000e+09 8.700000000000000000e+01 8.484150000000000025e-02 5.000000000000000311e-10
1.493005920000000000e+09 8.700000000000000000e+01 0.000000000000000000e+00 5.000000000000000311e-10
1.493005922000000000e+09 8.700000000000000000e+01 7.714719999999999911e-02 5.000000000000000311e-10
1.493005924000000000e+09 8.700000000000000000e+01 0.000000000000000000e+00 5.000000000000000311e-10
1.493005926000000000e+09 8.700000000000000000e+01 9.362919999999999576e-02 5.000000000000000311e-10
1.493005928000000000e+09 8.700000000000000000e+01 0.000000000000000000e+00 5.000000000000000311e-10
1.493005930000000000e+09 8.700000000000000000e+01 9.061080000000000523e-02 5.000000000000000311e-10
1.493005932000000000e+09 8.700000000000000000e+01 0.000000000000000000e+00 5.000000000000000311e-10
1.493005934000000000e+09 8.700000000000000000e+01 9.096089999999999731e-02 5.000000000000000311e-10
1.493005936000000000e+09 8.700000000000000000e+01 0.000000000000000000e+00 5.000000000000000311e-10
1.493005938000000000e+09 8.700000000000000000e+01 9.938629999999999687e-02 5.000000000000000311e-10
1.493005940000000000e+09 8.700000000000000000e+01 0.000000000000000000e+00 5.000000000000000311e-10
1.493005942000000000e+09 8.700000000000000000e+01 1.206109999999999960e-01 5.000000000000000311e-10
1.493005944000000000e+09 8.700000000000000000e+01 0.000000000000000000e+00 5.000000000000000311e-10
1.493005946000000000e+09 8.700000000000000000e+01 1.017770000000000064e-01 5.000000000000000311e-10
1.493005948000000000e+09 8.700000000000000000e+01 0.000000000000000000e+00 5.000000000000000311e-10
1.493005950000000000e+09 8.700000000000000000e+01 1.018130000000000007e-01 5.000000000000000311e-10
