# tags                 xfel_bl_3_st_2_motor_1/position xfel_bl_3_st_2_pd_user_4_fitting_peak/voltage xfel_bl_3_st_2_pd_user_4_fitting_peak/gainC
1.486828496000000000e+09 8.000000000000000000e+01 0.000000000000000000e+00 5.000000000000000182e-11
1.486828498000000000e+09 8.000000000000000000e+01 0.000000000000000000e+00 5.000000000000000182e-11
1.486828500000000000e+09 8.000000000000000000e+01 0.000000000000000000e+00 5.000000000000000182e-11
1.486828502000000000e+09 8.000000000000000000e+01 0.000000000000000000e+00 5.000000000000000182e-11
1.486828504000000000e+09 8.000000000000000000e+01 0.000000000000000000e+00 5.000000000000000182e-11
1.486828506000000000e+09 8.000000000000000000e+01 0.000000000000000000e+00 5.000000000000000182e-11
1.486828508000000000e+09 8.000000000000000000e+01 0.000000000000000000e+00 5.000000000000000182e-11
1.486828510000000000e+09 8.000000000000000000e+01 0.000000000000000000e+00 5.000000000000000182e-11
1.486828512000000000e+09 8.000000000000000000e+01 0.000000000000000000e+00 5.000000000000000182e-11
1.486828514000000000e+09 8.000000000000000000e+01 0.000000000000000000e+00 5.000000000000000182e-11
1.486828516000000000e+09 8.000000000000000000e+01 0.000000000000000000e+00 5.000000000000000182e-11
1.486828518000000000e+09 8.000000000000000000e+01 0.000000000000000000e+00 5.000000000000000182e-11
1.486828520000000000e+09 8.000000000000000000e+01 0.000000000000000000e+00 5.000000000000000182e-11
1.486828522000000000e+09 8.000000000000000000e+01 0.000000000000000000e+00 5.000000000000000182e-11
1.486828524000000000e+09 8.000000000000000000e+01 0.000000000000000000e+00 5.000000000000000182e-11
1.486828526000000000e+09 8.000000000000000000e+01 0.000000000000000000e+00 5.000000000000000182e-11
1.486828528000000000e+09 8.000000000000000000e+01 0.000000000000000000e+00 5.000000000000000182e-11
1.486828530000000000e+09 8.000000000000000000e+01 0.000000000000000000e+00 5.000000000000000182e-11
1.486828532000000000e+09 8.000000000000000000e+01 0.000000000000000000e+00 5.000000000000000182e-11
1.486828534000000000e+09 8.000000000000000000e+01 0.000000000000000000e+00 5.000000000000000182e-11
1.486828536000000000e+09 8.000000000000000000e+01 0.000000000000000000e+00 5.000000000000000182e-11
1.486828538000000000e+09 8.000000000000000000e+01 0.000000000000000000e+00 5.000000000000000182e-11
1.486828540000000000e+09 8.000000000000000000e+01 0.000000000000000000e+00 5.000000000000000182e-11
1.486828542000000000e+09 8.000000000000000000e+01 0.000000000000000000e+00 5.000000000000000182e-11
1.486828544000000000e+09 8.000000000000000000e+01 0.000000000000000000e+00 5.000000000000000182e-11
1.486828546000000000e+09 8.000000000000000000e+01 0.000000000000000000e+00 5.000000000000000182e-11
1.486828548000000000e+09 8.000000000000000000e+01 0.000000000000000000e+00 5.000000000000000182e-11
1.486828550000000000e+09 8.000000000000000000e+01 0.000000000000000000e+00 5.000000000000000182e-11
1.486828552000000000e+09 8.000000000000000000e+01 0.000000000000000000e+00 5.000000000000000182e-11
1.486828554000000000e+09 8.000000000000000000e+01 0.000000000000000000e+00 5.000000000000000182e-11
1.486828556000000000e+09 8.000000000000000000e+01 0.000000000000000000e+00 5.000000000000000182e-11
1.486828558000000000e+09 8.000000000000000000e+01 0.000000000000000000e+00 5.000000000000000182e-11
1.486828560000000000e+09 8.000000000000000000e+01 0.000000000000000000e+00 5.000000000000000182e-11
1.486828562000000000e+09 8.000000000000000000e+01 0.000000000000000000e+00 5.000000000000000182e-11
1.486828564000000000e+09 8.000000000000000000e+01 0.000000000000000000e+00 5.000000000000000182e-11
1.486828566000000000e+09 8.000000000000000000e+01 0.000000000000000000e+00 5.000000000000000182e-11
1.486828568000000000e+09 8.000000000000000000e+01 0.000000000000000000e+00 5.000000000000000182e-11
1.486828570000000000e+09 8.000000000000000000e+01 0.000000000000000000e+00 5.000000000000000182e-11
1.486828572000000000e+09 8.000000000000000000e+01 0.000000000000000000e+00 5.000000000000000182e-11
1.486828574000000000e+09 8.000000000000000000e+01 0.000000000000000000e+00 5.000000000000000182e-11
1.486828576000000000e+09 8.000000000000000000e+01 0.000000000000000000e+00 5.000000000000000182e-11
1.486828578000000000e+09 8.000000000000000000e+01 0.000000000000000000e+00 5.000000000000000182e-11
1.486828580000000000e+09 8.000000000000000000e+01 0.000000000000000000e+00 5.000000000000000182e-11
1.486828582000000000e+09 8.000000000000000000e+01 0.000000000000000000e+00 5.000000000000000182e-11
1.486828584000000000e+09 8.000000000000000000e+01 0.000000000000000000e+00 5.000000000000000182e-11
1.486828586000000000e+09 8.000000000000000000e+01 0.000000000000000000e+00 5.000000000000000182e-11
1.486828588000000000e+09 8.000000000000000000e+01 0.000000000000000000e+00 5.000000000000000182e-11
1.486828590000000000e+09 8.000000000000000000e+01 0.000000000000000000e+00 5.000000000000000182e-11
1.486828592000000000e+09 8.000000000000000000e+01 1.689949999999999959e-03 5.000000000000000182e-11
1.486828594000000000e+09 8.000000000000000000e+01 0.000000000000000000e+00 5.000000000000000182e-11
1.486828596000000000e+09 8.000000000000000000e+01 0.000000000000000000e+00 5.000000000000000182e-11
1.486828598000000000e+09 8.000000000000000000e+01 0.000000000000000000e+00 5.000000000000000182e-11
1.486828600000000000e+09 8.000000000000000000e+01 0.000000000000000000e+00 5.000000000000000182e-11
1.486828602000000000e+09 8.000000000000000000e+01 0.000000000000000000e+00 5.000000000000000182e-11
1.486828604000000000e+09 8.000000000000000000e+01 0.000000000000000000e+00 5.000000000000000182e-11
1.486828606000000000e+09 8.000000000000000000e+01 0.000000000000000000e+00 5.000000000000000182e-11
1.486828608000000000e+09 8.000000000000000000e+01 0.000000000000000000e+00 5.000000000000000182e-11
1.486828610000000000e+09 8.000000000000000000e+01 0.000000000000000000e+00 5.000000000000000182e-11
1.486828612000000000e+09 8.000000000000000000e+01 0.000000000000000000e+00 5.000000000000000182e-11
1.486828614000000000e+09 8.000000000000000000e+01 0.000000000000000000e+00 5.000000000000000182e-11
1.486828616000000000e+09 8.000000000000000000e+01 0.000000000000000000e+00 5.000000000000000182e-11
1.486828618000000000e+09 8.000000000000000000e+01 0.000000000000000000e+00 5.000000000000000182e-11
1.486828620000000000e+09 8.000000000000000000e+01 0.000000000000000000e+00 5.000000000000000182e-11
1.486828622000000000e+09 8.000000000000000000e+01 0.000000000000000000e+00 5.000000000000000182e-11
1.486828624000000000e+09 8.000000000000000000e+01 0.000000000000000000e+00 5.000000000000000182e-11
1.486828626000000000e+09 8.000000000000000000e+01 0.000000000000000000e+00 5.000000000000000182e-11
1.486828628000000000e+09 8.000000000000000000e+01 9.191149999999999711e-04 5.000000000000000182e-11
1.486828630000000000e+09 8.000000000000000000e+01 0.000000000000000000e+00 5.000000000000000182e-11
1.486828632000000000e+09 8.000000000000000000e+01 0.000000000000000000e+00 5.000000000000000182e-11
1.486828634000000000e+09 8.000000000000000000e+01 0.000000000000000000e+00 5.000000000000000182e-11
1.486828636000000000e+09 8.000000000000000000e+01 0.000000000000000000e+00 5.000000000000000182e-11
1.486828638000000000e+09 8.000000000000000000e+01 0.000000000000000000e+00 5.000000000000000182e-11
1.486828640000000000e+09 8.000000000000000000e+01 0.000000000000000000e+00 5.000000000000000182e-11
1.486828642000000000e+09 8.000000000000000000e+01 0.000000000000000000e+00 5.000000000000000182e-11
1.486828644000000000e+09 8.000000000000000000e+01 0.000000000000000000e+00 5.000000000000000182e-11
1.486828646000000000e+09 8.000000000000000000e+01 0.000000000000000000e+00 5.000000000000000182e-11
1.486828648000000000e+09 8.000000000000000000e+01 0.000000000000000000e+00 5.000000000000000182e-11
1.486828650000000000e+09 8.000000000000000000e+01 0.000000000000000000e+00 5.000000000000000182e-11
1.486828652000000000e+09 8.000000000000000000e+01 0.000000000000000000e+00 5.000000000000000182e-11
1.486828654000000000e+09 8.000000000000000000e+01 0.000000000000000000e+00 5.000000000000000182e-11
1.486828656000000000e+09 8.000000000000000000e+01 0.000000000000000000e+00 5.000000000000000182e-11
1.486828658000000000e+09 8.000000000000000000e+01 0.000000000000000000e+00 5.000000000000000182e-11
1.486828660000000000e+09 8.000000000000000000e+01 0.000000000000000000e+00 5.000000000000000182e-11
1.486828662000000000e+09 8.000000000000000000e+01 0.000000000000000000e+00 5.000000000000000182e-11
1.486828664000000000e+09 8.000000000000000000e+01 0.000000000000000000e+00 5.000000000000000182e-11
1.486828666000000000e+09 8.000000000000000000e+01 0.000000000000000000e+00 5.000000000000000182e-11
1.486828668000000000e+09 8.000000000000000000e+01 0.000000000000000000e+00 5.000000000000000182e-11
1.486828670000000000e+09 8.000000000000000000e+01 0.000000000000000000e+00 5.000000000000000182e-11
1.486828672000000000e+09 8.000000000000000000e+01 0.000000000000000000e+00 5.000000000000000182e-11
1.486828674000000000e+09 8.000000000000000000e+01 0.000000000000000000e+00 5.000000000000000182e-11
1.486828676000000000e+09 8.000000000000000000e+01 0.000000000000000000e+00 5.000000000000000182e-11
1.486828678000000000e+09 8.000000000000000000e+01 0.000000000000000000e+00 5.000000000000000182e-11
1.486828680000000000e+09 8.000000000000000000e+01 0.000000000000000000e+00 5.000000000000000182e-11
1.486828682000000000e+09 8.000000000000000000e+01 0.000000000000000000e+00 5.000000000000000182e-11
1.486828684000000000e+09 8.000000000000000000e+01 0.000000000000000000e+00 5.000000000000000182e-11
1.486828686000000000e+09 8.000000000000000000e+01 0.000000000000000000e+00 5.000000000000000182e-11
1.486828688000000000e+09 8.000000000000000000e+01 0.000000000000000000e+00 5.000000000000000182e-11
1.486828690000000000e+09 8.000000000000000000e+01 0.000000000000000000e+00 5.000000000000000182e-11
1.486828692000000000e+09 8.000000000000000000e+01 0.000000000000000000e+00 5.000000000000000182e-11
1.486828694000000000e+09 8.000000000000000000e+01 0.000000000000000000e+00 5.000000000000000182e-11
1.486828696000000000e+09 8.000000000000000000e+01 0.000000000000000000e+00 5.000000000000000182e-11
1.486828698000000000e+09 8.000000000000000000e+01 0.000000000000000000e+00 5.000000000000000182e-11
1.486828700000000000e+09 8.000000000000000000e+01 0.000000000000000000e+00 5.000000000000000182e-11
1.486828702000000000e+09 8.000000000000000000e+01 0.000000000000000000e+00 5.000000000000000182e-11
1.486828704000000000e+09 8.000000000000000000e+01 0.000000000000000000e+00 5.000000000000000182e-11
1.486828706000000000e+09 8.000000000000000000e+01 0.000000000000000000e+00 5.000000000000000182e-11
1.486828708000000000e+09 8.000000000000000000e+01 6.185119999999999681e-03 5.000000000000000182e-11
1.486828710000000000e+09 8.000000000000000000e+01 0.000000000000000000e+00 5.000000000000000182e-11
1.486828712000000000e+09 8.000000000000000000e+01 0.000000000000000000e+00 5.000000000000000182e-11
1.486828714000000000e+09 8.000000000000000000e+01 0.000000000000000000e+00 5.000000000000000182e-11
1.486828716000000000e+09 8.000000000000000000e+01 0.000000000000000000e+00 5.000000000000000182e-11
1.486828718000000000e+09 8.000000000000000000e+01 0.000000000000000000e+00 5.000000000000000182e-11
1.486828720000000000e+09 8.000000000000000000e+01 0.000000000000000000e+00 5.000000000000000182e-11
1.486828722000000000e+09 8.000000000000000000e+01 0.000000000000000000e+00 5.000000000000000182e-11
1.486828724000000000e+09 8.000000000000000000e+01 0.000000000000000000e+00 5.000000000000000182e-11
1.486828726000000000e+09 8.000000000000000000e+01 0.000000000000000000e+00 5.000000000000000182e-11
1.486828728000000000e+09 8.000000000000000000e+01 0.000000000000000000e+00 5.000000000000000182e-11
1.486828730000000000e+09 8.000000000000000000e+01 0.000000000000000000e+00 5.000000000000000182e-11
1.486828732000000000e+09 8.000000000000000000e+01 0.000000000000000000e+00 5.000000000000000182e-11
1.486828734000000000e+09 8.000000000000000000e+01 0.000000000000000000e+00 5.000000000000000182e-11
1.486828736000000000e+09 8.000000000000000000e+01 0.000000000000000000e+00 5.000000000000000182e-11
1.486828738000000000e+09 8.000000000000000000e+01 0.000000000000000000e+00 5.000000000000000182e-11
1.486828740000000000e+09 8.000000000000000000e+01 0.000000000000000000e+00 5.000000000000000182e-11
1.486828742000000000e+09 8.000000000000000000e+01 0.000000000000000000e+00 5.000000000000000182e-11
1.486828744000000000e+09 8.000000000000000000e+01 0.000000000000000000e+00 5.000000000000000182e-11
1.486828746000000000e+09 8.000000000000000000e+01 0.000000000000000000e+00 5.000000000000000182e-11
1.486828748000000000e+09 8.000000000000000000e+01 0.000000000000000000e+00 5.000000000000000182e-11
1.486828750000000000e+09 8.000000000000000000e+01 0.000000000000000000e+00 5.000000000000000182e-11
1.486828752000000000e+09 8.000000000000000000e+01 0.000000000000000000e+00 5.000000000000000182e-11
1.486828754000000000e+09 8.000000000000000000e+01 0.000000000000000000e+00 5.000000000000000182e-11
1.486828756000000000e+09 8.000000000000000000e+01 0.000000000000000000e+00 5.000000000000000182e-11
1.486828758000000000e+09 8.000000000000000000e+01 0.000000000000000000e+00 5.000000000000000182e-11
1.486828760000000000e+09 8.000000000000000000e+01 0.000000000000000000e+00 5.000000000000000182e-11
1.486828762000000000e+09 8.000000000000000000e+01 0.000000000000000000e+00 5.000000000000000182e-11
1.486828764000000000e+09 8.000000000000000000e+01 6.518999999999999621e-03 5.000000000000000182e-11
1.486828766000000000e+09 8.000000000000000000e+01 0.000000000000000000e+00 5.000000000000000182e-11
1.486828768000000000e+09 8.000000000000000000e+01 0.000000000000000000e+00 5.000000000000000182e-11
1.486828770000000000e+09 8.000000000000000000e+01 0.000000000000000000e+00 5.000000000000000182e-11
1.486828772000000000e+09 8.000000000000000000e+01 0.000000000000000000e+00 5.000000000000000182e-11
1.486828774000000000e+09 8.000000000000000000e+01 0.000000000000000000e+00 5.000000000000000182e-11
1.486828776000000000e+09 8.000000000000000000e+01 0.000000000000000000e+00 5.000000000000000182e-11
1.486828778000000000e+09 8.000000000000000000e+01 0.000000000000000000e+00 5.000000000000000182e-11
1.486828780000000000e+09 8.000000000000000000e+01 0.000000000000000000e+00 5.000000000000000182e-11
1.486828782000000000e+09 8.000000000000000000e+01 0.000000000000000000e+00 5.000000000000000182e-11
1.486828784000000000e+09 8.000000000000000000e+01 0.000000000000000000e+00 5.000000000000000182e-11
1.486828786000000000e+09 8.000000000000000000e+01 0.000000000000000000e+00 5.000000000000000182e-11
1.486828788000000000e+09 8.000000000000000000e+01 0.000000000000000000e+00 5.000000000000000182e-11
1.486828790000000000e+09 8.000000000000000000e+01 0.000000000000000000e+00 5.000000000000000182e-11
1.486828792000000000e+09 8.000000000000000000e+01 0.000000000000000000e+00 5.000000000000000182e-11
1.486828794000000000e+09 8.000000000000000000e+01 0.000000000000000000e+00 5.000000000000000182e-11
1.486828796000000000e+09 8.000000000000000000e+01 0.000000000000000000e+00 5.000000000000000182e-11
1.486828798000000000e+09 8.000000000000000000e+01 0.000000000000000000e+00 5.000000000000000182e-11
1.486828800000000000e+09 8.000000000000000000e+01 0.000000000000000000e+00 5.000000000000000182e-11
1.486828802000000000e+09 8.000000000000000000e+01 0.000000000000000000e+00 5.000000000000000182e-11
1.486828804000000000e+09 8.000000000000000000e+01 0.000000000000000000e+00 5.000000000000000182e-11
1.486828806000000000e+09 8.000000000000000000e+01 0.000000000000000000e+00 5.000000000000000182e-11
1.486828808000000000e+09 8.000000000000000000e+01 1.996149999999999921e-03 5.000000000000000182e-11
1.486828810000000000e+09 8.000000000000000000e+01 0.000000000000000000e+00 5.000000000000000182e-11
1.486828812000000000e+09 8.000000000000000000e+01 0.000000000000000000e+00 5.000000000000000182e-11
1.486828814000000000e+09 8.000000000000000000e+01 0.000000000000000000e+00 5.000000000000000182e-11
1.486828816000000000e+09 8.000000000000000000e+01 0.000000000000000000e+00 5.000000000000000182e-11
1.486828818000000000e+09 8.000000000000000000e+01 2.527279999999999804e-03 5.000000000000000182e-11
1.486828820000000000e+09 8.000000000000000000e+01 1.200019999999999993e-03 5.000000000000000182e-11
1.486828822000000000e+09 8.000000000000000000e+01 0.000000000000000000e+00 5.000000000000000182e-11
1.486828824000000000e+09 8.000000000000000000e+01 0.000000000000000000e+00 5.000000000000000182e-11
1.486828826000000000e+09 8.000000000000000000e+01 0.000000000000000000e+00 5.000000000000000182e-11
1.486828828000000000e+09 8.000000000000000000e+01 0.000000000000000000e+00 5.000000000000000182e-11
1.486828830000000000e+09 8.000000000000000000e+01 0.000000000000000000e+00 5.000000000000000182e-11
1.486828832000000000e+09 8.000000000000000000e+01 0.000000000000000000e+00 5.000000000000000182e-11
1.486828834000000000e+09 8.000000000000000000e+01 0.000000000000000000e+00 5.000000000000000182e-11
1.486828836000000000e+09 8.000000000000000000e+01 0.000000000000000000e+00 5.000000000000000182e-11
1.486828838000000000e+09 8.000000000000000000e+01 0.000000000000000000e+00 5.000000000000000182e-11
1.486828840000000000e+09 8.000000000000000000e+01 0.000000000000000000e+00 5.000000000000000182e-11
1.486828842000000000e+09 8.000000000000000000e+01 0.000000000000000000e+00 5.000000000000000182e-11
1.486828844000000000e+09 8.000000000000000000e+01 0.000000000000000000e+00 5.000000000000000182e-11
1.486828846000000000e+09 8.000000000000000000e+01 0.000000000000000000e+00 5.000000000000000182e-11
1.486828848000000000e+09 8.000000000000000000e+01 0.000000000000000000e+00 5.000000000000000182e-11
1.486828850000000000e+09 8.000000000000000000e+01 0.000000000000000000e+00 5.000000000000000182e-11
1.486828852000000000e+09 8.000000000000000000e+01 0.000000000000000000e+00 5.000000000000000182e-11
1.486828854000000000e+09 8.000000000000000000e+01 7.246190000000000226e-04 5.000000000000000182e-11
1.486828856000000000e+09 8.000000000000000000e+01 0.000000000000000000e+00 5.000000000000000182e-11
1.486828858000000000e+09 8.000000000000000000e+01 0.000000000000000000e+00 5.000000000000000182e-11
1.486828860000000000e+09 8.000000000000000000e+01 0.000000000000000000e+00 5.000000000000000182e-11
1.486828862000000000e+09 8.000000000000000000e+01 0.000000000000000000e+00 5.000000000000000182e-11
1.486828864000000000e+09 8.000000000000000000e+01 0.000000000000000000e+00 5.000000000000000182e-11
1.486828866000000000e+09 8.000000000000000000e+01 0.000000000000000000e+00 5.000000000000000182e-11
1.486828868000000000e+09 8.000000000000000000e+01 0.000000000000000000e+00 5.000000000000000182e-11
1.486828870000000000e+09 8.000000000000000000e+01 0.000000000000000000e+00 5.000000000000000182e-11
1.486828872000000000e+09 8.000000000000000000e+01 4.290430000000000188e-05 5.000000000000000182e-11
1.486828874000000000e+09 8.000000000000000000e+01 0.000000000000000000e+00 5.000000000000000182e-11
1.486828876000000000e+09 8.000000000000000000e+01 0.000000000000000000e+00 5.000000000000000182e-11
1.486828878000000000e+09 8.000000000000000000e+01 0.000000000000000000e+00 5.000000000000000182e-11
1.486828880000000000e+09 8.000000000000000000e+01 0.000000000000000000e+00 5.000000000000000182e-11
1.486828882000000000e+09 8.000000000000000000e+01 0.000000000000000000e+00 5.000000000000000182e-11
1.486828884000000000e+09 8.000000000000000000e+01 0.000000000000000000e+00 5.000000000000000182e-11
1.486828886000000000e+09 8.000000000000000000e+01 0.000000000000000000e+00 5.000000000000000182e-11
1.486828888000000000e+09 8.000000000000000000e+01 0.000000000000000000e+00 5.000000000000000182e-11
1.486828890000000000e+09 8.000000000000000000e+01 0.000000000000000000e+00 5.000000000000000182e-11
1.486828892000000000e+09 8.000000000000000000e+01 0.000000000000000000e+00 5.000000000000000182e-11
1.486828894000000000e+09 8.000000000000000000e+01 0.000000000000000000e+00 5.000000000000000182e-11
1.486828896000000000e+09 8.000000000000000000e+01 0.000000000000000000e+00 5.000000000000000182e-11
1.486828898000000000e+09 8.000000000000000000e+01 0.000000000000000000e+00 5.000000000000000182e-11
1.486828900000000000e+09 8.000000000000000000e+01 0.000000000000000000e+00 5.000000000000000182e-11
1.486828902000000000e+09 8.000000000000000000e+01 0.000000000000000000e+00 5.000000000000000182e-11
1.486828904000000000e+09 8.000000000000000000e+01 0.000000000000000000e+00 5.000000000000000182e-11
1.486828906000000000e+09 8.000000000000000000e+01 0.000000000000000000e+00 5.000000000000000182e-11
1.486828908000000000e+09 8.000000000000000000e+01 0.000000000000000000e+00 5.000000000000000182e-11
1.486828910000000000e+09 8.000000000000000000e+01 0.000000000000000000e+00 5.000000000000000182e-11
1.486828912000000000e+09 8.000000000000000000e+01 0.000000000000000000e+00 5.000000000000000182e-11
1.486828914000000000e+09 8.000000000000000000e+01 0.000000000000000000e+00 5.000000000000000182e-11
1.486828916000000000e+09 8.000000000000000000e+01 0.000000000000000000e+00 5.000000000000000182e-11
1.486828918000000000e+09 8.000000000000000000e+01 0.000000000000000000e+00 5.000000000000000182e-11
1.486828920000000000e+09 8.000000000000000000e+01 0.000000000000000000e+00 5.000000000000000182e-11
1.486828922000000000e+09 8.000000000000000000e+01 0.000000000000000000e+00 5.000000000000000182e-11
1.486828924000000000e+09 8.000000000000000000e+01 0.000000000000000000e+00 5.000000000000000182e-11
1.486828926000000000e+09 8.000000000000000000e+01 0.000000000000000000e+00 5.000000000000000182e-11
1.486828928000000000e+09 8.000000000000000000e+01 0.000000000000000000e+00 5.000000000000000182e-11
1.486828930000000000e+09 8.000000000000000000e+01 0.000000000000000000e+00 5.000000000000000182e-11
1.486828932000000000e+09 8.000000000000000000e+01 0.000000000000000000e+00 5.000000000000000182e-11
1.486828934000000000e+09 8.000000000000000000e+01 0.000000000000000000e+00 5.000000000000000182e-11
1.486828936000000000e+09 8.000000000000000000e+01 0.000000000000000000e+00 5.000000000000000182e-11
1.486828938000000000e+09 8.000000000000000000e+01 0.000000000000000000e+00 5.000000000000000182e-11
1.486828940000000000e+09 8.000000000000000000e+01 0.000000000000000000e+00 5.000000000000000182e-11
1.486828942000000000e+09 8.000000000000000000e+01 0.000000000000000000e+00 5.000000000000000182e-11
1.486828944000000000e+09 8.000000000000000000e+01 0.000000000000000000e+00 5.000000000000000182e-11
1.486828946000000000e+09 8.000000000000000000e+01 0.000000000000000000e+00 5.000000000000000182e-11
1.486828948000000000e+09 8.000000000000000000e+01 0.000000000000000000e+00 5.000000000000000182e-11
1.486828950000000000e+09 8.000000000000000000e+01 0.000000000000000000e+00 5.000000000000000182e-11
1.486828952000000000e+09 8.000000000000000000e+01 0.000000000000000000e+00 5.000000000000000182e-11
1.486828954000000000e+09 8.000000000000000000e+01 0.000000000000000000e+00 5.000000000000000182e-11
1.486828956000000000e+09 8.000000000000000000e+01 0.000000000000000000e+00 5.000000000000000182e-11
1.486828958000000000e+09 8.000000000000000000e+01 0.000000000000000000e+00 5.000000000000000182e-11
1.486828960000000000e+09 8.000000000000000000e+01 0.000000000000000000e+00 5.000000000000000182e-11
1.486828962000000000e+09 8.000000000000000000e+01 0.000000000000000000e+00 5.000000000000000182e-11
1.486828964000000000e+09 8.000000000000000000e+01 0.000000000000000000e+00 5.000000000000000182e-11
1.486828966000000000e+09 8.000000000000000000e+01 0.000000000000000000e+00 5.000000000000000182e-11
1.486828968000000000e+09 8.000000000000000000e+01 0.000000000000000000e+00 5.000000000000000182e-11
1.486828970000000000e+09 8.000000000000000000e+01 0.000000000000000000e+00 5.000000000000000182e-11
1.486828972000000000e+09 8.000000000000000000e+01 0.000000000000000000e+00 5.000000000000000182e-11
1.486828974000000000e+09 8.000000000000000000e+01 0.000000000000000000e+00 5.000000000000000182e-11
1.486828976000000000e+09 8.000000000000000000e+01 0.000000000000000000e+00 5.000000000000000182e-11
1.486828978000000000e+09 8.000000000000000000e+01 0.000000000000000000e+00 5.000000000000000182e-11
1.486828980000000000e+09 8.000000000000000000e+01 1.444430000000000128e-04 5.000000000000000182e-11
1.486828982000000000e+09 8.000000000000000000e+01 0.000000000000000000e+00 5.000000000000000182e-11
1.486828984000000000e+09 8.000000000000000000e+01 0.000000000000000000e+00 5.000000000000000182e-11
1.486828986000000000e+09 8.000000000000000000e+01 0.000000000000000000e+00 5.000000000000000182e-11
1.486828988000000000e+09 8.000000000000000000e+01 0.000000000000000000e+00 5.000000000000000182e-11
1.486828990000000000e+09 8.000000000000000000e+01 0.000000000000000000e+00 5.000000000000000182e-11
1.486828992000000000e+09 8.000000000000000000e+01 0.000000000000000000e+00 5.000000000000000182e-11
1.486828994000000000e+09 8.000000000000000000e+01 0.000000000000000000e+00 5.000000000000000182e-11
1.486828996000000000e+09 8.000000000000000000e+01 2.953289999999999908e-03 5.000000000000000182e-11
1.486828998000000000e+09 8.000000000000000000e+01 0.000000000000000000e+00 5.000000000000000182e-11
1.486829000000000000e+09 8.000000000000000000e+01 0.000000000000000000e+00 5.000000000000000182e-11
1.486829002000000000e+09 8.000000000000000000e+01 0.000000000000000000e+00 5.000000000000000182e-11
1.486829004000000000e+09 8.000000000000000000e+01 0.000000000000000000e+00 5.000000000000000182e-11
1.486829006000000000e+09 8.000000000000000000e+01 0.000000000000000000e+00 5.000000000000000182e-11
1.486829008000000000e+09 8.000000000000000000e+01 0.000000000000000000e+00 5.000000000000000182e-11
1.486829010000000000e+09 8.000000000000000000e+01 0.000000000000000000e+00 5.000000000000000182e-11
1.486829012000000000e+09 8.000000000000000000e+01 0.000000000000000000e+00 5.000000000000000182e-11
1.486829014000000000e+09 8.000000000000000000e+01 0.000000000000000000e+00 5.000000000000000182e-11
1.486829016000000000e+09 8.000000000000000000e+01 0.000000000000000000e+00 5.000000000000000182e-11
1.486829018000000000e+09 8.000000000000000000e+01 0.000000000000000000e+00 5.000000000000000182e-11
1.486829020000000000e+09 8.000000000000000000e+01 0.000000000000000000e+00 5.000000000000000182e-11
1.486829022000000000e+09 8.000000000000000000e+01 0.000000000000000000e+00 5.000000000000000182e-11
1.486829024000000000e+09 8.000000000000000000e+01 0.000000000000000000e+00 5.000000000000000182e-11
1.486829026000000000e+09 8.000000000000000000e+01 0.000000000000000000e+00 5.000000000000000182e-11
1.486829028000000000e+09 8.000000000000000000e+01 0.000000000000000000e+00 5.000000000000000182e-11
1.486829030000000000e+09 8.000000000000000000e+01 0.000000000000000000e+00 5.000000000000000182e-11
1.486829032000000000e+09 8.000000000000000000e+01 0.000000000000000000e+00 5.000000000000000182e-11
1.486829034000000000e+09 8.000000000000000000e+01 0.000000000000000000e+00 5.000000000000000182e-11
1.486829036000000000e+09 8.000000000000000000e+01 0.000000000000000000e+00 5.000000000000000182e-11
1.486829038000000000e+09 8.000000000000000000e+01 0.000000000000000000e+00 5.000000000000000182e-11
1.486829040000000000e+09 8.000000000000000000e+01 0.000000000000000000e+00 5.000000000000000182e-11
1.486829042000000000e+09 8.000000000000000000e+01 0.000000000000000000e+00 5.000000000000000182e-11
1.486829044000000000e+09 8.000000000000000000e+01 0.000000000000000000e+00 5.000000000000000182e-11
1.486829046000000000e+09 8.000000000000000000e+01 0.000000000000000000e+00 5.000000000000000182e-11
1.486829048000000000e+09 8.000000000000000000e+01 0.000000000000000000e+00 5.000000000000000182e-11
1.486829050000000000e+09 8.000000000000000000e+01 0.000000000000000000e+00 5.000000000000000182e-11
1.486829052000000000e+09 8.000000000000000000e+01 0.000000000000000000e+00 5.000000000000000182e-11
1.486829054000000000e+09 8.000000000000000000e+01 0.000000000000000000e+00 5.000000000000000182e-11
1.486829056000000000e+09 8.000000000000000000e+01 0.000000000000000000e+00 5.000000000000000182e-11
1.486829058000000000e+09 8.000000000000000000e+01 0.000000000000000000e+00 5.000000000000000182e-11
1.486829060000000000e+09 8.000000000000000000e+01 0.000000000000000000e+00 5.000000000000000182e-11
1.486829062000000000e+09 8.000000000000000000e+01 0.000000000000000000e+00 5.000000000000000182e-11
1.486829064000000000e+09 8.000000000000000000e+01 0.000000000000000000e+00 5.000000000000000182e-11
1.486829066000000000e+09 8.000000000000000000e+01 0.000000000000000000e+00 5.000000000000000182e-11
1.486829068000000000e+09 8.000000000000000000e+01 0.000000000000000000e+00 5.000000000000000182e-11
1.486829070000000000e+09 8.000000000000000000e+01 0.000000000000000000e+00 5.000000000000000182e-11
1.486829072000000000e+09 8.000000000000000000e+01 0.000000000000000000e+00 5.000000000000000182e-11
1.486829074000000000e+09 8.000000000000000000e+01 0.000000000000000000e+00 5.000000000000000182e-11
1.486829076000000000e+09 8.000000000000000000e+01 0.000000000000000000e+00 5.000000000000000182e-11
1.486829078000000000e+09 8.000000000000000000e+01 0.000000000000000000e+00 5.000000000000000182e-11
1.486829080000000000e+09 8.000000000000000000e+01 0.000000000000000000e+00 5.000000000000000182e-11
1.486829082000000000e+09 8.000000000000000000e+01 0.000000000000000000e+00 5.000000000000000182e-11
1.486829084000000000e+09 8.000000000000000000e+01 0.000000000000000000e+00 5.000000000000000182e-11
1.486829086000000000e+09 8.000000000000000000e+01 0.000000000000000000e+00 5.000000000000000182e-11
1.486829088000000000e+09 8.000000000000000000e+01 0.000000000000000000e+00 5.000000000000000182e-11
1.486829090000000000e+09 8.000000000000000000e+01 0.000000000000000000e+00 5.000000000000000182e-11
1.486829092000000000e+09 8.000000000000000000e+01 4.107009999999999833e-05 5.000000000000000182e-11
1.486829094000000000e+09 8.000000000000000000e+01 0.000000000000000000e+00 5.000000000000000182e-11
