# tags                 xfel_bl_3_st_2_motor_1/position xfel_bl_3_st_2_pd_user_4_fitting_peak/voltage xfel_bl_3_st_2_pd_user_4_fitting_peak/gainC
1.486842810000000000e+09 -8.000000000000000000e+01 2.154220000000000093e-02 5.000000000000000182e-11
1.486842812000000000e+09 -8.000000000000000000e+01 2.752419999999999867e-02 5.000000000000000182e-11
1.486842814000000000e+09 -8.000000000000000000e+01 0.000000000000000000e+00 5.000000000000000182e-11
1.486842816000000000e+09 -8.000000000000000000e+01 2.034180000000000016e-02 5.000000000000000182e-11
1.486842818000000000e+09 -8.000000000000000000e+01 2.718239999999999892e-02 5.000000000000000182e-11
1.486842820000000000e+09 -8.000000000000000000e+01 0.000000000000000000e+00 5.000000000000000182e-11
1.486842822000000000e+09 -8.000000000000000000e+01 2.139860000000000026e-02 5.000000000000000182e-11
1.486842824000000000e+09 -8.000000000000000000e+01 2.975200000000000067e-02 5.000000000000000182e-11
1.486842826000000000e+09 -8.000000000000000000e+01 0.000000000000000000e+00 5.000000000000000182e-11
1.486842828000000000e+09 -8.000000000000000000e+01 1.987960000000000074e-02 5.000000000000000182e-11
1.486842830000000000e+09 -8.000000000000000000e+01 2.818860000000000116e-02 5.000000000000000182e-11
1.486842832000000000e+09 -8.000000000000000000e+01 0.000000000000000000e+00 5.000000000000000182e-11
1.486842834000000000e+09 -8.000000000000000000e+01 1.938619999999999927e-02 5.000000000000000182e-11
1.486842836000000000e+09 -8.000000000000000000e+01 2.393730000000000163e-02 5.000000000000000182e-11
1.486842838000000000e+09 -8.000000000000000000e+01 0.000000000000000000e+00 5.000000000000000182e-11
1.486842840000000000e+09 -8.000000000000000000e+01 1.997200000000000017e-02 5.000000000000000182e-11
1.486842842000000000e+09 -8.000000000000000000e+01 3.009660000000000113e-02 5.000000000000000182e-11
1.486842844000000000e+09 -8.000000000000000000e+01 0.000000000000000000e+00 5.000000000000000182e-11
1.486842846000000000e+09 -8.000000000000000000e+01 2.022329999999999961e-02 5.000000000000000182e-11
1.486842848000000000e+09 -8.000000000000000000e+01 2.051079999999999917e-02 5.000000000000000182e-11
1.486842850000000000e+09 -8.000000000000000000e+01 0.000000000000000000e+00 5.000000000000000182e-11
1.486842852000000000e+09 -8.000000000000000000e+01 1.878650000000000111e-02 5.000000000000000182e-11
1.486842854000000000e+09 -8.000000000000000000e+01 2.132519999999999902e-02 5.000000000000000182e-11
1.486842856000000000e+09 -8.000000000000000000e+01 0.000000000000000000e+00 5.000000000000000182e-11
1.486842858000000000e+09 -8.000000000000000000e+01 2.174740000000000006e-02 5.000000000000000182e-11
1.486842860000000000e+09 -8.000000000000000000e+01 2.809209999999999832e-02 5.000000000000000182e-11
1.486842862000000000e+09 -8.000000000000000000e+01 0.000000000000000000e+00 5.000000000000000182e-11
1.486842864000000000e+09 -8.000000000000000000e+01 2.150569999999999912e-02 5.000000000000000182e-11
1.486842866000000000e+09 -8.000000000000000000e+01 0.000000000000000000e+00 5.000000000000000182e-11
1.486842868000000000e+09 -8.000000000000000000e+01 2.275519999999999973e-02 5.000000000000000182e-11
1.486842870000000000e+09 -8.000000000000000000e+01 2.010239999999999944e-02 5.000000000000000182e-11
1.486842872000000000e+09 -8.000000000000000000e+01 0.000000000000000000e+00 5.000000000000000182e-11
1.486842874000000000e+09 -8.000000000000000000e+01 0.000000000000000000e+00 5.000000000000000182e-11
1.486842876000000000e+09 -8.000000000000000000e+01 2.137460000000000054e-02 5.000000000000000182e-11
1.486842878000000000e+09 -8.000000000000000000e+01 0.000000000000000000e+00 5.000000000000000182e-11
1.486842880000000000e+09 -8.000000000000000000e+01 0.000000000000000000e+00 5.000000000000000182e-11
1.486842882000000000e+09 -8.000000000000000000e+01 2.076420000000000002e-02 5.000000000000000182e-11
1.486842884000000000e+09 -8.000000000000000000e+01 2.708819999999999978e-02 5.000000000000000182e-11
1.486842886000000000e+09 -8.000000000000000000e+01 0.000000000000000000e+00 5.000000000000000182e-11
1.486842888000000000e+09 -8.000000000000000000e+01 2.197500000000000148e-02 5.000000000000000182e-11
1.486842890000000000e+09 -8.000000000000000000e+01 0.000000000000000000e+00 5.000000000000000182e-11
1.486842892000000000e+09 -8.000000000000000000e+01 2.233869999999999953e-02 5.000000000000000182e-11
1.486842894000000000e+09 -8.000000000000000000e+01 2.069580000000000031e-02 5.000000000000000182e-11
1.486842896000000000e+09 -8.000000000000000000e+01 0.000000000000000000e+00 5.000000000000000182e-11
1.486842898000000000e+09 -8.000000000000000000e+01 0.000000000000000000e+00 5.000000000000000182e-11
1.486842900000000000e+09 -8.000000000000000000e+01 1.953699999999999881e-02 5.000000000000000182e-11
1.486842902000000000e+09 -8.000000000000000000e+01 0.000000000000000000e+00 5.000000000000000182e-11
1.486842904000000000e+09 -8.000000000000000000e+01 2.181469999999999937e-02 5.000000000000000182e-11
1.486842906000000000e+09 -8.000000000000000000e+01 2.734369999999999856e-02 5.000000000000000182e-11
1.486842908000000000e+09 -8.000000000000000000e+01 2.393740000000000104e-02 5.000000000000000182e-11
1.486842910000000000e+09 -8.000000000000000000e+01 2.217859999999999970e-02 5.000000000000000182e-11
1.486842912000000000e+09 -8.000000000000000000e+01 2.655470000000000053e-02 5.000000000000000182e-11
1.486842914000000000e+09 -8.000000000000000000e+01 0.000000000000000000e+00 5.000000000000000182e-11
1.486842916000000000e+09 -8.000000000000000000e+01 2.002479999999999885e-02 5.000000000000000182e-11
1.486842918000000000e+09 -8.000000000000000000e+01 0.000000000000000000e+00 5.000000000000000182e-11
1.486842920000000000e+09 -8.000000000000000000e+01 0.000000000000000000e+00 5.000000000000000182e-11
1.486842922000000000e+09 -8.000000000000000000e+01 1.992220000000000102e-02 5.000000000000000182e-11
1.486842924000000000e+09 -8.000000000000000000e+01 2.279410000000000117e-02 5.000000000000000182e-11
1.486842926000000000e+09 -8.000000000000000000e+01 2.293320000000000081e-02 5.000000000000000182e-11
1.486842928000000000e+09 -8.000000000000000000e+01 2.505670000000000119e-02 5.000000000000000182e-11
1.486842930000000000e+09 -8.000000000000000000e+01 0.000000000000000000e+00 5.000000000000000182e-11
1.486842932000000000e+09 -8.000000000000000000e+01 2.303670000000000023e-02 5.000000000000000182e-11
1.486842934000000000e+09 -8.000000000000000000e+01 2.076060000000000058e-02 5.000000000000000182e-11
1.486842936000000000e+09 -8.000000000000000000e+01 0.000000000000000000e+00 5.000000000000000182e-11
1.486842938000000000e+09 -8.000000000000000000e+01 0.000000000000000000e+00 5.000000000000000182e-11
1.486842940000000000e+09 -8.000000000000000000e+01 1.883980000000000030e-02 5.000000000000000182e-11
1.486842942000000000e+09 -8.000000000000000000e+01 0.000000000000000000e+00 5.000000000000000182e-11
1.486842944000000000e+09 -8.000000000000000000e+01 2.711239999999999831e-02 5.000000000000000182e-11
1.486842946000000000e+09 -8.000000000000000000e+01 2.129560000000000133e-02 5.000000000000000182e-11
1.486842948000000000e+09 -8.000000000000000000e+01 0.000000000000000000e+00 5.000000000000000182e-11
1.486842950000000000e+09 -8.000000000000000000e+01 2.239299999999999971e-02 5.000000000000000182e-11
1.486842952000000000e+09 -8.000000000000000000e+01 2.420030000000000098e-02 5.000000000000000182e-11
1.486842954000000000e+09 -8.000000000000000000e+01 0.000000000000000000e+00 5.000000000000000182e-11
1.486842956000000000e+09 -8.000000000000000000e+01 2.412479999999999833e-02 5.000000000000000182e-11
1.486842958000000000e+09 -8.000000000000000000e+01 2.108480000000000076e-02 5.000000000000000182e-11
1.486842960000000000e+09 -8.000000000000000000e+01 2.971539999999999945e-02 5.000000000000000182e-11
1.486842962000000000e+09 -8.000000000000000000e+01 0.000000000000000000e+00 5.000000000000000182e-11
1.486842964000000000e+09 -8.000000000000000000e+01 2.335150000000000073e-02 5.000000000000000182e-11
1.486842966000000000e+09 -8.000000000000000000e+01 2.262279999999999847e-02 5.000000000000000182e-11
1.486842968000000000e+09 -8.000000000000000000e+01 0.000000000000000000e+00 5.000000000000000182e-11
1.486842970000000000e+09 -8.000000000000000000e+01 0.000000000000000000e+00 5.000000000000000182e-11
1.486842972000000000e+09 -8.000000000000000000e+01 2.165610000000000104e-02 5.000000000000000182e-11
1.486842974000000000e+09 -8.000000000000000000e+01 1.265119999999999960e-02 5.000000000000000182e-11
1.486842976000000000e+09 -8.000000000000000000e+01 2.109950000000000020e-02 5.000000000000000182e-11
1.486842978000000000e+09 -8.000000000000000000e+01 2.884690000000000171e-02 5.000000000000000182e-11
1.486842980000000000e+09 -8.000000000000000000e+01 0.000000000000000000e+00 5.000000000000000182e-11
1.486842982000000000e+09 -8.000000000000000000e+01 2.075629999999999836e-02 5.000000000000000182e-11
1.486842984000000000e+09 -8.000000000000000000e+01 2.838950000000000154e-02 5.000000000000000182e-11
1.486842986000000000e+09 -8.000000000000000000e+01 2.811419999999999891e-02 5.000000000000000182e-11
1.486842988000000000e+09 -8.000000000000000000e+01 2.433540000000000009e-02 5.000000000000000182e-11
1.486842990000000000e+09 -8.000000000000000000e+01 3.030079999999999926e-02 5.000000000000000182e-11
1.486842992000000000e+09 -8.000000000000000000e+01 0.000000000000000000e+00 5.000000000000000182e-11
1.486842994000000000e+09 -8.000000000000000000e+01 2.089480000000000157e-02 5.000000000000000182e-11
1.486842996000000000e+09 -8.000000000000000000e+01 3.004300000000000026e-02 5.000000000000000182e-11
1.486842998000000000e+09 -8.000000000000000000e+01 0.000000000000000000e+00 5.000000000000000182e-11
1.486843000000000000e+09 -8.000000000000000000e+01 2.417570000000000136e-02 5.000000000000000182e-11
1.486843002000000000e+09 -8.000000000000000000e+01 3.016020000000000159e-02 5.000000000000000182e-11
1.486843004000000000e+09 -8.000000000000000000e+01 2.918420000000000042e-02 5.000000000000000182e-11
1.486843006000000000e+09 -8.000000000000000000e+01 2.308589999999999948e-02 5.000000000000000182e-11
1.486843008000000000e+09 -8.000000000000000000e+01 2.495769999999999933e-02 5.000000000000000182e-11
1.486843010000000000e+09 -8.000000000000000000e+01 0.000000000000000000e+00 5.000000000000000182e-11
1.486843012000000000e+09 -8.000000000000000000e+01 2.127249999999999974e-02 5.000000000000000182e-11
1.486843014000000000e+09 -8.000000000000000000e+01 3.191480000000000011e-02 5.000000000000000182e-11
1.486843016000000000e+09 -8.000000000000000000e+01 0.000000000000000000e+00 5.000000000000000182e-11
1.486843018000000000e+09 -8.000000000000000000e+01 2.208929999999999921e-02 5.000000000000000182e-11
1.486843020000000000e+09 -8.000000000000000000e+01 2.235710000000000128e-02 5.000000000000000182e-11
1.486843022000000000e+09 -8.000000000000000000e+01 0.000000000000000000e+00 5.000000000000000182e-11
1.486843024000000000e+09 -8.000000000000000000e+01 2.616960000000000119e-02 5.000000000000000182e-11
1.486843026000000000e+09 -8.000000000000000000e+01 2.272419999999999995e-02 5.000000000000000182e-11
1.486843028000000000e+09 -8.000000000000000000e+01 2.989160000000000081e-02 5.000000000000000182e-11
1.486843030000000000e+09 -8.000000000000000000e+01 0.000000000000000000e+00 5.000000000000000182e-11
1.486843032000000000e+09 -8.000000000000000000e+01 2.389290000000000164e-02 5.000000000000000182e-11
1.486843034000000000e+09 -8.000000000000000000e+01 2.484839999999999965e-02 5.000000000000000182e-11
1.486843036000000000e+09 -8.000000000000000000e+01 0.000000000000000000e+00 5.000000000000000182e-11
1.486843038000000000e+09 -8.000000000000000000e+01 2.293720000000000134e-02 5.000000000000000182e-11
1.486843040000000000e+09 -8.000000000000000000e+01 2.513649999999999912e-02 5.000000000000000182e-11
1.486843042000000000e+09 -8.000000000000000000e+01 0.000000000000000000e+00 5.000000000000000182e-11
1.486843044000000000e+09 -8.000000000000000000e+01 0.000000000000000000e+00 5.000000000000000182e-11
1.486843046000000000e+09 -8.000000000000000000e+01 2.339360000000000051e-02 5.000000000000000182e-11
1.486843048000000000e+09 -8.000000000000000000e+01 0.000000000000000000e+00 5.000000000000000182e-11
1.486843050000000000e+09 -8.000000000000000000e+01 2.713470000000000118e-02 5.000000000000000182e-11
1.486843052000000000e+09 -8.000000000000000000e+01 2.211909999999999918e-02 5.000000000000000182e-11
1.486843054000000000e+09 -8.000000000000000000e+01 2.986209999999999906e-02 5.000000000000000182e-11
1.486843056000000000e+09 -8.000000000000000000e+01 2.368349999999999969e-02 5.000000000000000182e-11
1.486843058000000000e+09 -8.000000000000000000e+01 2.063020000000000131e-02 5.000000000000000182e-11
1.486843060000000000e+09 -8.000000000000000000e+01 3.033160000000000023e-02 5.000000000000000182e-11
1.486843062000000000e+09 -8.000000000000000000e+01 0.000000000000000000e+00 5.000000000000000182e-11
1.486843064000000000e+09 -8.000000000000000000e+01 2.594549999999999981e-02 5.000000000000000182e-11
1.486843066000000000e+09 -8.000000000000000000e+01 2.144149999999999875e-02 5.000000000000000182e-11
1.486843068000000000e+09 -8.000000000000000000e+01 2.375539999999999943e-02 5.000000000000000182e-11
1.486843070000000000e+09 -8.000000000000000000e+01 2.367860000000000104e-02 5.000000000000000182e-11
1.486843072000000000e+09 -8.000000000000000000e+01 2.075319999999999943e-02 5.000000000000000182e-11
1.486843074000000000e+09 -8.000000000000000000e+01 2.900029999999999969e-02 5.000000000000000182e-11
1.486843076000000000e+09 -8.000000000000000000e+01 0.000000000000000000e+00 5.000000000000000182e-11
1.486843078000000000e+09 -8.000000000000000000e+01 2.391520000000000104e-02 5.000000000000000182e-11
1.486843080000000000e+09 -8.000000000000000000e+01 2.255139999999999922e-02 5.000000000000000182e-11
1.486843082000000000e+09 -8.000000000000000000e+01 0.000000000000000000e+00 5.000000000000000182e-11
1.486843084000000000e+09 -8.000000000000000000e+01 0.000000000000000000e+00 5.000000000000000182e-11
1.486843086000000000e+09 -8.000000000000000000e+01 2.222230000000000039e-02 5.000000000000000182e-11
1.486843088000000000e+09 -8.000000000000000000e+01 3.077339999999999937e-02 5.000000000000000182e-11
1.486843090000000000e+09 -8.000000000000000000e+01 2.432840000000000003e-02 5.000000000000000182e-11
1.486843092000000000e+09 -8.000000000000000000e+01 2.069330000000000128e-02 5.000000000000000182e-11
1.486843094000000000e+09 -8.000000000000000000e+01 2.075079999999999980e-02 5.000000000000000182e-11
1.486843096000000000e+09 -8.000000000000000000e+01 0.000000000000000000e+00 5.000000000000000182e-11
1.486843098000000000e+09 -8.000000000000000000e+01 2.261969999999999953e-02 5.000000000000000182e-11
1.486843100000000000e+09 -8.000000000000000000e+01 2.157939999999999858e-02 5.000000000000000182e-11
1.486843102000000000e+09 -8.000000000000000000e+01 2.608090000000000061e-02 5.000000000000000182e-11
1.486843104000000000e+09 -8.000000000000000000e+01 0.000000000000000000e+00 5.000000000000000182e-11
1.486843106000000000e+09 -8.000000000000000000e+01 2.089680000000000010e-02 5.000000000000000182e-11
1.486843108000000000e+09 -8.000000000000000000e+01 2.260430000000000078e-02 5.000000000000000182e-11
1.486843110000000000e+09 -8.000000000000000000e+01 1.163759999999999968e-02 5.000000000000000182e-11
1.486843112000000000e+09 -8.000000000000000000e+01 2.175530000000000172e-02 5.000000000000000182e-11
1.486843114000000000e+09 -8.000000000000000000e+01 1.972099999999999895e-02 5.000000000000000182e-11
1.486843116000000000e+09 -8.000000000000000000e+01 0.000000000000000000e+00 5.000000000000000182e-11
1.486843118000000000e+09 -8.000000000000000000e+01 0.000000000000000000e+00 5.000000000000000182e-11
1.486843120000000000e+09 -8.000000000000000000e+01 2.315909999999999844e-02 5.000000000000000182e-11
1.486843122000000000e+09 -8.000000000000000000e+01 2.622239999999999988e-02 5.000000000000000182e-11
1.486843124000000000e+09 -8.000000000000000000e+01 1.231890000000000068e-02 5.000000000000000182e-11
1.486843126000000000e+09 -8.000000000000000000e+01 2.524969999999999992e-02 5.000000000000000182e-11
1.486843128000000000e+09 -8.000000000000000000e+01 2.235229999999999856e-02 5.000000000000000182e-11
1.486843130000000000e+09 -8.000000000000000000e+01 2.817390000000000172e-02 5.000000000000000182e-11
1.486843132000000000e+09 -8.000000000000000000e+01 0.000000000000000000e+00 5.000000000000000182e-11
1.486843134000000000e+09 -8.000000000000000000e+01 2.033859999999999835e-02 5.000000000000000182e-11
1.486843136000000000e+09 -8.000000000000000000e+01 2.780329999999999954e-02 5.000000000000000182e-11
1.486843138000000000e+09 -8.000000000000000000e+01 2.549150000000000027e-02 5.000000000000000182e-11
1.486843140000000000e+09 -8.000000000000000000e+01 2.351280000000000037e-02 5.000000000000000182e-11
1.486843142000000000e+09 -8.000000000000000000e+01 2.109250000000000014e-02 5.000000000000000182e-11
1.486843144000000000e+09 -8.000000000000000000e+01 2.443520000000000067e-02 5.000000000000000182e-11
1.486843146000000000e+09 -8.000000000000000000e+01 0.000000000000000000e+00 5.000000000000000182e-11
1.486843148000000000e+09 -8.000000000000000000e+01 2.262890000000000040e-02 5.000000000000000182e-11
1.486843150000000000e+09 -8.000000000000000000e+01 2.153860000000000149e-02 5.000000000000000182e-11
1.486843152000000000e+09 -8.000000000000000000e+01 2.696120000000000114e-02 5.000000000000000182e-11
1.486843154000000000e+09 -8.000000000000000000e+01 0.000000000000000000e+00 5.000000000000000182e-11
1.486843156000000000e+09 -8.000000000000000000e+01 2.280149999999999885e-02 5.000000000000000182e-11
1.486843158000000000e+09 -8.000000000000000000e+01 2.146990000000000010e-02 5.000000000000000182e-11
1.486843160000000000e+09 -8.000000000000000000e+01 2.668339999999999948e-02 5.000000000000000182e-11
1.486843162000000000e+09 -8.000000000000000000e+01 0.000000000000000000e+00 5.000000000000000182e-11
1.486843164000000000e+09 -8.000000000000000000e+01 2.073039999999999952e-02 5.000000000000000182e-11
1.486843166000000000e+09 -8.000000000000000000e+01 2.101820000000000077e-02 5.000000000000000182e-11
1.486843168000000000e+09 -8.000000000000000000e+01 2.389070000000000082e-02 5.000000000000000182e-11
1.486843170000000000e+09 -8.000000000000000000e+01 0.000000000000000000e+00 5.000000000000000182e-11
1.486843172000000000e+09 -8.000000000000000000e+01 1.967479999999999923e-02 5.000000000000000182e-11
1.486843174000000000e+09 -8.000000000000000000e+01 2.517039999999999902e-02 5.000000000000000182e-11
1.486843176000000000e+09 -8.000000000000000000e+01 0.000000000000000000e+00 5.000000000000000182e-11
1.486843178000000000e+09 -8.000000000000000000e+01 2.751829999999999901e-02 5.000000000000000182e-11
1.486843180000000000e+09 -8.000000000000000000e+01 1.976309999999999872e-02 5.000000000000000182e-11
1.486843182000000000e+09 -8.000000000000000000e+01 2.702119999999999869e-02 5.000000000000000182e-11
1.486843184000000000e+09 -8.000000000000000000e+01 0.000000000000000000e+00 5.000000000000000182e-11
1.486843186000000000e+09 -8.000000000000000000e+01 2.365599999999999994e-02 5.000000000000000182e-11
1.486843188000000000e+09 -8.000000000000000000e+01 2.201820000000000166e-02 5.000000000000000182e-11
1.486843190000000000e+09 -8.000000000000000000e+01 2.825379999999999905e-02 5.000000000000000182e-11
1.486843192000000000e+09 -8.000000000000000000e+01 0.000000000000000000e+00 5.000000000000000182e-11
1.486843194000000000e+09 -8.000000000000000000e+01 2.428009999999999891e-02 5.000000000000000182e-11
1.486843196000000000e+09 -8.000000000000000000e+01 2.182620000000000046e-02 5.000000000000000182e-11
1.486843198000000000e+09 -8.000000000000000000e+01 2.257779999999999856e-02 5.000000000000000182e-11
1.486843200000000000e+09 -8.000000000000000000e+01 0.000000000000000000e+00 5.000000000000000182e-11
1.486843202000000000e+09 -8.000000000000000000e+01 2.618809999999999888e-02 5.000000000000000182e-11
1.486843204000000000e+09 -8.000000000000000000e+01 2.354099999999999943e-02 5.000000000000000182e-11
1.486843206000000000e+09 -8.000000000000000000e+01 1.921890000000000057e-02 5.000000000000000182e-11
1.486843208000000000e+09 -8.000000000000000000e+01 0.000000000000000000e+00 5.000000000000000182e-11
1.486843210000000000e+09 -8.000000000000000000e+01 0.000000000000000000e+00 5.000000000000000182e-11
1.486843212000000000e+09 -8.000000000000000000e+01 2.159890000000000074e-02 5.000000000000000182e-11
1.486843214000000000e+09 -8.000000000000000000e+01 2.262470000000000106e-02 5.000000000000000182e-11
1.486843216000000000e+09 -8.000000000000000000e+01 0.000000000000000000e+00 5.000000000000000182e-11
1.486843218000000000e+09 -8.000000000000000000e+01 0.000000000000000000e+00 5.000000000000000182e-11
1.486843220000000000e+09 -8.000000000000000000e+01 2.230709999999999985e-02 5.000000000000000182e-11
1.486843222000000000e+09 -8.000000000000000000e+01 2.540299999999999850e-02 5.000000000000000182e-11
1.486843224000000000e+09 -8.000000000000000000e+01 0.000000000000000000e+00 5.000000000000000182e-11
1.486843226000000000e+09 -8.000000000000000000e+01 2.439530000000000171e-02 5.000000000000000182e-11
1.486843228000000000e+09 -8.000000000000000000e+01 2.167619999999999963e-02 5.000000000000000182e-11
1.486843230000000000e+09 -8.000000000000000000e+01 2.694020000000000095e-02 5.000000000000000182e-11
1.486843232000000000e+09 -8.000000000000000000e+01 0.000000000000000000e+00 5.000000000000000182e-11
1.486843234000000000e+09 -8.000000000000000000e+01 0.000000000000000000e+00 5.000000000000000182e-11
1.486843236000000000e+09 -8.000000000000000000e+01 2.155299999999999924e-02 5.000000000000000182e-11
1.486843238000000000e+09 -8.000000000000000000e+01 2.494410000000000030e-02 5.000000000000000182e-11
1.486843240000000000e+09 -8.000000000000000000e+01 0.000000000000000000e+00 5.000000000000000182e-11
1.486843242000000000e+09 -8.000000000000000000e+01 0.000000000000000000e+00 5.000000000000000182e-11
1.486843244000000000e+09 -8.000000000000000000e+01 2.209979999999999931e-02 5.000000000000000182e-11
1.486843246000000000e+09 -8.000000000000000000e+01 3.056949999999999945e-02 5.000000000000000182e-11
1.486843248000000000e+09 -8.000000000000000000e+01 0.000000000000000000e+00 5.000000000000000182e-11
1.486843250000000000e+09 -8.000000000000000000e+01 2.054469999999999907e-02 5.000000000000000182e-11
1.486843252000000000e+09 -8.000000000000000000e+01 2.261379999999999987e-02 5.000000000000000182e-11
1.486843254000000000e+09 -8.000000000000000000e+01 0.000000000000000000e+00 5.000000000000000182e-11
1.486843256000000000e+09 -8.000000000000000000e+01 0.000000000000000000e+00 5.000000000000000182e-11
1.486843258000000000e+09 -8.000000000000000000e+01 1.992139999999999883e-02 5.000000000000000182e-11
1.486843260000000000e+09 -8.000000000000000000e+01 2.918779999999999986e-02 5.000000000000000182e-11
1.486843262000000000e+09 -8.000000000000000000e+01 0.000000000000000000e+00 5.000000000000000182e-11
1.486843264000000000e+09 -8.000000000000000000e+01 2.400400000000000103e-02 5.000000000000000182e-11
1.486843266000000000e+09 -8.000000000000000000e+01 1.978610000000000091e-02 5.000000000000000182e-11
1.486843268000000000e+09 -8.000000000000000000e+01 2.697530000000000067e-02 5.000000000000000182e-11
1.486843270000000000e+09 -8.000000000000000000e+01 2.194600000000000023e-02 5.000000000000000182e-11
1.486843272000000000e+09 -8.000000000000000000e+01 2.200480000000000144e-02 5.000000000000000182e-11
1.486843274000000000e+09 -8.000000000000000000e+01 2.413229999999999889e-02 5.000000000000000182e-11
1.486843276000000000e+09 -8.000000000000000000e+01 0.000000000000000000e+00 5.000000000000000182e-11
1.486843278000000000e+09 -8.000000000000000000e+01 0.000000000000000000e+00 5.000000000000000182e-11
1.486843280000000000e+09 -8.000000000000000000e+01 2.169959999999999944e-02 5.000000000000000182e-11
1.486843282000000000e+09 -8.000000000000000000e+01 2.184619999999999965e-02 5.000000000000000182e-11
1.486843284000000000e+09 -8.000000000000000000e+01 0.000000000000000000e+00 5.000000000000000182e-11
1.486843286000000000e+09 -8.000000000000000000e+01 0.000000000000000000e+00 5.000000000000000182e-11
1.486843288000000000e+09 -8.000000000000000000e+01 2.038200000000000081e-02 5.000000000000000182e-11
1.486843290000000000e+09 -8.000000000000000000e+01 2.265359999999999943e-02 5.000000000000000182e-11
1.486843292000000000e+09 -8.000000000000000000e+01 0.000000000000000000e+00 5.000000000000000182e-11
1.486843294000000000e+09 -8.000000000000000000e+01 0.000000000000000000e+00 5.000000000000000182e-11
1.486843296000000000e+09 -8.000000000000000000e+01 1.924439999999999831e-02 5.000000000000000182e-11
1.486843298000000000e+09 -8.000000000000000000e+01 2.739909999999999915e-02 5.000000000000000182e-11
1.486843300000000000e+09 -8.000000000000000000e+01 0.000000000000000000e+00 5.000000000000000182e-11
1.486843302000000000e+09 -8.000000000000000000e+01 2.217809999999999920e-02 5.000000000000000182e-11
1.486843304000000000e+09 -8.000000000000000000e+01 2.728130000000000138e-02 5.000000000000000182e-11
1.486843306000000000e+09 -8.000000000000000000e+01 1.128919999999999924e-02 5.000000000000000182e-11
1.486843308000000000e+09 -8.000000000000000000e+01 0.000000000000000000e+00 5.000000000000000182e-11
1.486843310000000000e+09 -8.000000000000000000e+01 2.101300000000000043e-02 5.000000000000000182e-11
1.486843312000000000e+09 -8.000000000000000000e+01 2.919389999999999832e-02 5.000000000000000182e-11
1.486843314000000000e+09 -8.000000000000000000e+01 2.123900000000000093e-02 5.000000000000000182e-11
1.486843316000000000e+09 -8.000000000000000000e+01 1.924889999999999934e-02 5.000000000000000182e-11
1.486843318000000000e+09 -8.000000000000000000e+01 1.976110000000000019e-02 5.000000000000000182e-11
1.486843320000000000e+09 -8.000000000000000000e+01 2.457360000000000100e-02 5.000000000000000182e-11
1.486843322000000000e+09 -8.000000000000000000e+01 0.000000000000000000e+00 5.000000000000000182e-11
1.486843324000000000e+09 -8.000000000000000000e+01 0.000000000000000000e+00 5.000000000000000182e-11
1.486843326000000000e+09 -8.000000000000000000e+01 1.741370000000000071e-02 5.000000000000000182e-11
1.486843328000000000e+09 -8.000000000000000000e+01 2.690559999999999827e-02 5.000000000000000182e-11
1.486843330000000000e+09 -8.000000000000000000e+01 0.000000000000000000e+00 5.000000000000000182e-11
1.486843332000000000e+09 -8.000000000000000000e+01 2.152280000000000165e-02 5.000000000000000182e-11
1.486843334000000000e+09 -8.000000000000000000e+01 2.069910000000000153e-02 5.000000000000000182e-11
1.486843336000000000e+09 -8.000000000000000000e+01 0.000000000000000000e+00 5.000000000000000182e-11
1.486843338000000000e+09 -8.000000000000000000e+01 1.954490000000000047e-02 5.000000000000000182e-11
1.486843340000000000e+09 -8.000000000000000000e+01 2.022590000000000152e-02 5.000000000000000182e-11
1.486843342000000000e+09 -8.000000000000000000e+01 2.472740000000000007e-02 5.000000000000000182e-11
1.486843344000000000e+09 -8.000000000000000000e+01 2.381809999999999830e-02 5.000000000000000182e-11
1.486843346000000000e+09 -8.000000000000000000e+01 1.906870000000000093e-02 5.000000000000000182e-11
1.486843348000000000e+09 -8.000000000000000000e+01 2.026920000000000111e-02 5.000000000000000182e-11
1.486843350000000000e+09 -8.000000000000000000e+01 0.000000000000000000e+00 5.000000000000000182e-11
1.486843352000000000e+09 -8.000000000000000000e+01 2.417570000000000136e-02 5.000000000000000182e-11
1.486843354000000000e+09 -8.000000000000000000e+01 1.896180000000000088e-02 5.000000000000000182e-11
1.486843356000000000e+09 -8.000000000000000000e+01 2.306240000000000026e-02 5.000000000000000182e-11
1.486843358000000000e+09 -8.000000000000000000e+01 0.000000000000000000e+00 5.000000000000000182e-11
1.486843360000000000e+09 -8.000000000000000000e+01 2.039149999999999990e-02 5.000000000000000182e-11
1.486843362000000000e+09 -8.000000000000000000e+01 2.080479999999999829e-02 5.000000000000000182e-11
1.486843364000000000e+09 -8.000000000000000000e+01 0.000000000000000000e+00 5.000000000000000182e-11
1.486843366000000000e+09 -8.000000000000000000e+01 2.132749999999999924e-02 5.000000000000000182e-11
1.486843368000000000e+09 -8.000000000000000000e+01 1.999849999999999892e-02 5.000000000000000182e-11
1.486843370000000000e+09 -8.000000000000000000e+01 2.335620000000000057e-02 5.000000000000000182e-11
1.486843372000000000e+09 -8.000000000000000000e+01 0.000000000000000000e+00 5.000000000000000182e-11
1.486843374000000000e+09 -8.000000000000000000e+01 2.254139999999999963e-02 5.000000000000000182e-11
1.486843376000000000e+09 -8.000000000000000000e+01 2.164829999999999879e-02 5.000000000000000182e-11
1.486843378000000000e+09 -8.000000000000000000e+01 0.000000000000000000e+00 5.000000000000000182e-11
1.486843380000000000e+09 -8.000000000000000000e+01 0.000000000000000000e+00 5.000000000000000182e-11
1.486843382000000000e+09 -8.000000000000000000e+01 1.889209999999999848e-02 5.000000000000000182e-11
1.486843384000000000e+09 -8.000000000000000000e+01 0.000000000000000000e+00 5.000000000000000182e-11
1.486843386000000000e+09 -8.000000000000000000e+01 0.000000000000000000e+00 5.000000000000000182e-11
1.486843388000000000e+09 -8.000000000000000000e+01 2.244430000000000036e-02 5.000000000000000182e-11
1.486843390000000000e+09 -8.000000000000000000e+01 2.612940000000000054e-02 5.000000000000000182e-11
1.486843392000000000e+09 -8.000000000000000000e+01 0.000000000000000000e+00 5.000000000000000182e-11
1.486843394000000000e+09 -8.000000000000000000e+01 2.202899999999999997e-02 5.000000000000000182e-11
1.486843396000000000e+09 -8.000000000000000000e+01 2.572249999999999884e-02 5.000000000000000182e-11
1.486843398000000000e+09 -8.000000000000000000e+01 0.000000000000000000e+00 5.000000000000000182e-11
1.486843400000000000e+09 -8.000000000000000000e+01 2.339230000000000129e-02 5.000000000000000182e-11
1.486843402000000000e+09 -8.000000000000000000e+01 2.070050000000000015e-02 5.000000000000000182e-11
1.486843404000000000e+09 -8.000000000000000000e+01 9.534789999999999585e-03 5.000000000000000182e-11
1.486843406000000000e+09 -8.000000000000000000e+01 2.278250000000000067e-02 5.000000000000000182e-11
1.486843408000000000e+09 -8.000000000000000000e+01 2.140420000000000170e-02 5.000000000000000182e-11
