# tags                 xfel_bl_3_st_2_motor_1/position xfel_bl_3_st_2_pd_user_4_fitting_peak/voltage xfel_bl_3_st_2_pd_user_4_fitting_peak/gainC
1.490610922000000000e+09 -1.200000000000000000e+02 0.000000000000000000e+00 5.000000000000000311e-10
1.490610924000000000e+09 -1.200000000000000000e+02 0.000000000000000000e+00 5.000000000000000311e-10
1.490610926000000000e+09 -1.200000000000000000e+02 0.000000000000000000e+00 5.000000000000000311e-10
1.490610928000000000e+09 -1.200000000000000000e+02 0.000000000000000000e+00 5.000000000000000311e-10
1.490610930000000000e+09 -1.200000000000000000e+02 0.000000000000000000e+00 5.000000000000000311e-10
1.490610932000000000e+09 -1.200000000000000000e+02 0.000000000000000000e+00 5.000000000000000311e-10
1.490610934000000000e+09 -1.200000000000000000e+02 0.000000000000000000e+00 5.000000000000000311e-10
1.490610936000000000e+09 -1.200000000000000000e+02 0.000000000000000000e+00 5.000000000000000311e-10
1.490610938000000000e+09 -1.200000000000000000e+02 2.401770000000000012e-04 5.000000000000000311e-10
1.490610940000000000e+09 -1.200000000000000000e+02 0.000000000000000000e+00 5.000000000000000311e-10
1.490610942000000000e+09 -1.200000000000000000e+02 0.000000000000000000e+00 5.000000000000000311e-10
1.490610944000000000e+09 -1.200000000000000000e+02 7.733129999999999735e-04 5.000000000000000311e-10
1.490610946000000000e+09 -1.200000000000000000e+02 3.466780000000000035e-04 5.000000000000000311e-10
1.490610948000000000e+09 -1.200000000000000000e+02 0.000000000000000000e+00 5.000000000000000311e-10
1.490610950000000000e+09 -1.200000000000000000e+02 0.000000000000000000e+00 5.000000000000000311e-10
1.490610952000000000e+09 -1.200000000000000000e+02 0.000000000000000000e+00 5.000000000000000311e-10
1.490610954000000000e+09 -1.200000000000000000e+02 0.000000000000000000e+00 5.000000000000000311e-10
1.490610956000000000e+09 -1.200000000000000000e+02 0.000000000000000000e+00 5.000000000000000311e-10
1.490610958000000000e+09 -1.200000000000000000e+02 0.000000000000000000e+00 5.000000000000000311e-10
1.490610960000000000e+09 -1.200000000000000000e+02 0.000000000000000000e+00 5.000000000000000311e-10
1.490610962000000000e+09 -1.200000000000000000e+02 0.000000000000000000e+00 5.000000000000000311e-10
1.490610964000000000e+09 -1.200000000000000000e+02 0.000000000000000000e+00 5.000000000000000311e-10
1.490610966000000000e+09 -1.200000000000000000e+02 2.936050000000000053e-04 5.000000000000000311e-10
1.490610968000000000e+09 -1.200000000000000000e+02 0.000000000000000000e+00 5.000000000000000311e-10
1.490610970000000000e+09 -1.200000000000000000e+02 0.000000000000000000e+00 5.000000000000000311e-10
1.490610972000000000e+09 -1.200000000000000000e+02 0.000000000000000000e+00 5.000000000000000311e-10
1.490610974000000000e+09 -1.200000000000000000e+02 0.000000000000000000e+00 5.000000000000000311e-10
1.490610976000000000e+09 -1.200000000000000000e+02 6.401040000000000636e-05 5.000000000000000311e-10
1.490610978000000000e+09 -1.200000000000000000e+02 0.000000000000000000e+00 5.000000000000000311e-10
1.490610980000000000e+09 -1.200000000000000000e+02 0.000000000000000000e+00 5.000000000000000311e-10
1.490610982000000000e+09 -1.200000000000000000e+02 6.636839999999999970e-04 5.000000000000000311e-10
1.490610984000000000e+09 -1.200000000000000000e+02 0.000000000000000000e+00 5.000000000000000311e-10
1.490610986000000000e+09 -1.200000000000000000e+02 0.000000000000000000e+00 5.000000000000000311e-10
1.490610988000000000e+09 -1.200000000000000000e+02 0.000000000000000000e+00 5.000000000000000311e-10
1.490610990000000000e+09 -1.200000000000000000e+02 0.000000000000000000e+00 5.000000000000000311e-10
1.490610992000000000e+09 -1.200000000000000000e+02 0.000000000000000000e+00 5.000000000000000311e-10
1.490610994000000000e+09 -1.200000000000000000e+02 0.000000000000000000e+00 5.000000000000000311e-10
1.490610996000000000e+09 -1.200000000000000000e+02 0.000000000000000000e+00 5.000000000000000311e-10
1.490610998000000000e+09 -1.200000000000000000e+02 0.000000000000000000e+00 5.000000000000000311e-10
1.490611000000000000e+09 -1.200000000000000000e+02 0.000000000000000000e+00 5.000000000000000311e-10
1.490611002000000000e+09 -1.200000000000000000e+02 0.000000000000000000e+00 5.000000000000000311e-10
1.490611004000000000e+09 -1.200000000000000000e+02 0.000000000000000000e+00 5.000000000000000311e-10
1.490611006000000000e+09 -1.200000000000000000e+02 0.000000000000000000e+00 5.000000000000000311e-10
1.490611008000000000e+09 -1.200000000000000000e+02 0.000000000000000000e+00 5.000000000000000311e-10
1.490611010000000000e+09 -1.200000000000000000e+02 8.164740000000000029e-05 5.000000000000000311e-10
1.490611012000000000e+09 -1.200000000000000000e+02 0.000000000000000000e+00 5.000000000000000311e-10
1.490611014000000000e+09 -1.200000000000000000e+02 0.000000000000000000e+00 5.000000000000000311e-10
1.490611016000000000e+09 -1.200000000000000000e+02 0.000000000000000000e+00 5.000000000000000311e-10
1.490611018000000000e+09 -1.200000000000000000e+02 0.000000000000000000e+00 5.000000000000000311e-10
1.490611020000000000e+09 -1.200000000000000000e+02 0.000000000000000000e+00 5.000000000000000311e-10
1.490611022000000000e+09 -1.200000000000000000e+02 0.000000000000000000e+00 5.000000000000000311e-10
1.490611024000000000e+09 -1.200000000000000000e+02 0.000000000000000000e+00 5.000000000000000311e-10
1.490611026000000000e+09 -1.200000000000000000e+02 0.000000000000000000e+00 5.000000000000000311e-10
1.490611028000000000e+09 -1.200000000000000000e+02 0.000000000000000000e+00 5.000000000000000311e-10
1.490611030000000000e+09 -1.200000000000000000e+02 0.000000000000000000e+00 5.000000000000000311e-10
1.490611032000000000e+09 -1.200000000000000000e+02 0.000000000000000000e+00 5.000000000000000311e-10
1.490611034000000000e+09 -1.200000000000000000e+02 0.000000000000000000e+00 5.000000000000000311e-10
1.490611036000000000e+09 -1.200000000000000000e+02 0.000000000000000000e+00 5.000000000000000311e-10
1.490611038000000000e+09 -1.200000000000000000e+02 0.000000000000000000e+00 5.000000000000000311e-10
1.490611040000000000e+09 -1.200000000000000000e+02 0.000000000000000000e+00 5.000000000000000311e-10
1.490611042000000000e+09 -1.200000000000000000e+02 0.000000000000000000e+00 5.000000000000000311e-10
1.490611044000000000e+09 -1.200000000000000000e+02 0.000000000000000000e+00 5.000000000000000311e-10
1.490611046000000000e+09 -1.200000000000000000e+02 4.761150000000000316e-05 5.000000000000000311e-10
1.490611048000000000e+09 -1.200000000000000000e+02 3.611360000000000199e-04 5.000000000000000311e-10
1.490611050000000000e+09 -1.200000000000000000e+02 0.000000000000000000e+00 5.000000000000000311e-10
1.490611052000000000e+09 -1.200000000000000000e+02 0.000000000000000000e+00 5.000000000000000311e-10
1.490611054000000000e+09 -1.200000000000000000e+02 9.927700000000000511e-05 5.000000000000000311e-10
1.490611056000000000e+09 -1.200000000000000000e+02 0.000000000000000000e+00 5.000000000000000311e-10
1.490611058000000000e+09 -1.200000000000000000e+02 0.000000000000000000e+00 5.000000000000000311e-10
1.490611060000000000e+09 -1.200000000000000000e+02 0.000000000000000000e+00 5.000000000000000311e-10
1.490611062000000000e+09 -1.200000000000000000e+02 0.000000000000000000e+00 5.000000000000000311e-10
1.490611064000000000e+09 -1.200000000000000000e+02 0.000000000000000000e+00 5.000000000000000311e-10
1.490611066000000000e+09 -1.200000000000000000e+02 0.000000000000000000e+00 5.000000000000000311e-10
1.490611068000000000e+09 -1.200000000000000000e+02 2.535440000000000241e-04 5.000000000000000311e-10
1.490611070000000000e+09 -1.200000000000000000e+02 1.987160000000000131e-04 5.000000000000000311e-10
1.490611072000000000e+09 -1.200000000000000000e+02 0.000000000000000000e+00 5.000000000000000311e-10
1.490611074000000000e+09 -1.200000000000000000e+02 0.000000000000000000e+00 5.000000000000000311e-10
1.490611076000000000e+09 -1.200000000000000000e+02 0.000000000000000000e+00 5.000000000000000311e-10
1.490611078000000000e+09 -1.200000000000000000e+02 0.000000000000000000e+00 5.000000000000000311e-10
1.490611080000000000e+09 -1.200000000000000000e+02 0.000000000000000000e+00 5.000000000000000311e-10
1.490611082000000000e+09 -1.200000000000000000e+02 0.000000000000000000e+00 5.000000000000000311e-10
1.490611084000000000e+09 -1.200000000000000000e+02 6.479370000000000138e-04 5.000000000000000311e-10
1.490611086000000000e+09 -1.200000000000000000e+02 0.000000000000000000e+00 5.000000000000000311e-10
1.490611088000000000e+09 -1.200000000000000000e+02 0.000000000000000000e+00 5.000000000000000311e-10
1.490611090000000000e+09 -1.200000000000000000e+02 0.000000000000000000e+00 5.000000000000000311e-10
1.490611092000000000e+09 -1.200000000000000000e+02 0.000000000000000000e+00 5.000000000000000311e-10
1.490611094000000000e+09 -1.200000000000000000e+02 0.000000000000000000e+00 5.000000000000000311e-10
1.490611096000000000e+09 -1.200000000000000000e+02 0.000000000000000000e+00 5.000000000000000311e-10
1.490611098000000000e+09 -1.200000000000000000e+02 0.000000000000000000e+00 5.000000000000000311e-10
1.490611100000000000e+09 -1.200000000000000000e+02 0.000000000000000000e+00 5.000000000000000311e-10
1.490611102000000000e+09 -1.200000000000000000e+02 0.000000000000000000e+00 5.000000000000000311e-10
1.490611104000000000e+09 -1.200000000000000000e+02 0.000000000000000000e+00 5.000000000000000311e-10
1.490611106000000000e+09 -1.200000000000000000e+02 0.000000000000000000e+00 5.000000000000000311e-10
1.490611108000000000e+09 -1.200000000000000000e+02 0.000000000000000000e+00 5.000000000000000311e-10
1.490611110000000000e+09 -1.200000000000000000e+02 0.000000000000000000e+00 5.000000000000000311e-10
1.490611112000000000e+09 -1.200000000000000000e+02 0.000000000000000000e+00 5.000000000000000311e-10
1.490611114000000000e+09 -1.200000000000000000e+02 8.664960000000000468e-05 5.000000000000000311e-10
1.490611116000000000e+09 -1.200000000000000000e+02 0.000000000000000000e+00 5.000000000000000311e-10
1.490611118000000000e+09 -1.200000000000000000e+02 1.820860000000000046e-04 5.000000000000000311e-10
1.490611120000000000e+09 -1.200000000000000000e+02 2.198350000000000120e-04 5.000000000000000311e-10
1.490611122000000000e+09 -1.200000000000000000e+02 0.000000000000000000e+00 5.000000000000000311e-10
1.490611124000000000e+09 -1.200000000000000000e+02 0.000000000000000000e+00 5.000000000000000311e-10
1.490611126000000000e+09 -1.200000000000000000e+02 0.000000000000000000e+00 5.000000000000000311e-10
1.490611128000000000e+09 -1.200000000000000000e+02 0.000000000000000000e+00 5.000000000000000311e-10
1.490611130000000000e+09 -1.200000000000000000e+02 0.000000000000000000e+00 5.000000000000000311e-10
1.490611132000000000e+09 -1.200000000000000000e+02 0.000000000000000000e+00 5.000000000000000311e-10
1.490611134000000000e+09 -1.200000000000000000e+02 0.000000000000000000e+00 5.000000000000000311e-10
1.490611136000000000e+09 -1.200000000000000000e+02 0.000000000000000000e+00 5.000000000000000311e-10
1.490611138000000000e+09 -1.200000000000000000e+02 0.000000000000000000e+00 5.000000000000000311e-10
1.490611140000000000e+09 -1.200000000000000000e+02 0.000000000000000000e+00 5.000000000000000311e-10
1.490611142000000000e+09 -1.200000000000000000e+02 0.000000000000000000e+00 5.000000000000000311e-10
1.490611144000000000e+09 -1.200000000000000000e+02 0.000000000000000000e+00 5.000000000000000311e-10
1.490611146000000000e+09 -1.200000000000000000e+02 0.000000000000000000e+00 5.000000000000000311e-10
1.490611148000000000e+09 -1.200000000000000000e+02 0.000000000000000000e+00 5.000000000000000311e-10
1.490611150000000000e+09 -1.200000000000000000e+02 1.074099999999999925e-03 5.000000000000000311e-10
1.490611152000000000e+09 -1.200000000000000000e+02 9.571140000000000658e-05 5.000000000000000311e-10
1.490611154000000000e+09 -1.200000000000000000e+02 0.000000000000000000e+00 5.000000000000000311e-10
1.490611156000000000e+09 -1.200000000000000000e+02 0.000000000000000000e+00 5.000000000000000311e-10
1.490611158000000000e+09 -1.200000000000000000e+02 0.000000000000000000e+00 5.000000000000000311e-10
1.490611160000000000e+09 -1.200000000000000000e+02 0.000000000000000000e+00 5.000000000000000311e-10
1.490611162000000000e+09 -1.200000000000000000e+02 0.000000000000000000e+00 5.000000000000000311e-10
1.490611164000000000e+09 -1.200000000000000000e+02 0.000000000000000000e+00 5.000000000000000311e-10
1.490611166000000000e+09 -1.200000000000000000e+02 0.000000000000000000e+00 5.000000000000000311e-10
1.490611168000000000e+09 -1.200000000000000000e+02 0.000000000000000000e+00 5.000000000000000311e-10
1.490611170000000000e+09 -1.200000000000000000e+02 0.000000000000000000e+00 5.000000000000000311e-10
1.490611172000000000e+09 -1.200000000000000000e+02 0.000000000000000000e+00 5.000000000000000311e-10
1.490611174000000000e+09 -1.200000000000000000e+02 0.000000000000000000e+00 5.000000000000000311e-10
1.490611176000000000e+09 -1.200000000000000000e+02 0.000000000000000000e+00 5.000000000000000311e-10
1.490611178000000000e+09 -1.200000000000000000e+02 0.000000000000000000e+00 5.000000000000000311e-10
1.490611180000000000e+09 -1.200000000000000000e+02 0.000000000000000000e+00 5.000000000000000311e-10
1.490611182000000000e+09 -1.200000000000000000e+02 0.000000000000000000e+00 5.000000000000000311e-10
1.490611184000000000e+09 -1.200000000000000000e+02 0.000000000000000000e+00 5.000000000000000311e-10
1.490611186000000000e+09 -1.200000000000000000e+02 0.000000000000000000e+00 5.000000000000000311e-10
1.490611188000000000e+09 -1.200000000000000000e+02 0.000000000000000000e+00 5.000000000000000311e-10
1.490611190000000000e+09 -1.200000000000000000e+02 0.000000000000000000e+00 5.000000000000000311e-10
1.490611192000000000e+09 -1.200000000000000000e+02 0.000000000000000000e+00 5.000000000000000311e-10
1.490611194000000000e+09 -1.200000000000000000e+02 0.000000000000000000e+00 5.000000000000000311e-10
1.490611196000000000e+09 -1.200000000000000000e+02 0.000000000000000000e+00 5.000000000000000311e-10
1.490611198000000000e+09 -1.200000000000000000e+02 0.000000000000000000e+00 5.000000000000000311e-10
1.490611200000000000e+09 -1.200000000000000000e+02 0.000000000000000000e+00 5.000000000000000311e-10
1.490611202000000000e+09 -1.200000000000000000e+02 0.000000000000000000e+00 5.000000000000000311e-10
1.490611204000000000e+09 -1.200000000000000000e+02 0.000000000000000000e+00 5.000000000000000311e-10
1.490611206000000000e+09 -1.200000000000000000e+02 0.000000000000000000e+00 5.000000000000000311e-10
1.490611208000000000e+09 -1.200000000000000000e+02 0.000000000000000000e+00 5.000000000000000311e-10
1.490611210000000000e+09 -1.200000000000000000e+02 0.000000000000000000e+00 5.000000000000000311e-10
1.490611212000000000e+09 -1.200000000000000000e+02 0.000000000000000000e+00 5.000000000000000311e-10
1.490611214000000000e+09 -1.200000000000000000e+02 0.000000000000000000e+00 5.000000000000000311e-10
1.490611216000000000e+09 -1.200000000000000000e+02 0.000000000000000000e+00 5.000000000000000311e-10
1.490611218000000000e+09 -1.200000000000000000e+02 2.147910000000000108e-04 5.000000000000000311e-10
1.490611220000000000e+09 -1.200000000000000000e+02 0.000000000000000000e+00 5.000000000000000311e-10
1.490611222000000000e+09 -1.200000000000000000e+02 0.000000000000000000e+00 5.000000000000000311e-10
1.490611224000000000e+09 -1.200000000000000000e+02 0.000000000000000000e+00 5.000000000000000311e-10
1.490611226000000000e+09 -1.200000000000000000e+02 1.449079999999999889e-04 5.000000000000000311e-10
1.490611228000000000e+09 -1.200000000000000000e+02 0.000000000000000000e+00 5.000000000000000311e-10
1.490611230000000000e+09 -1.200000000000000000e+02 0.000000000000000000e+00 5.000000000000000311e-10
1.490611232000000000e+09 -1.200000000000000000e+02 0.000000000000000000e+00 5.000000000000000311e-10
1.490611234000000000e+09 -1.200000000000000000e+02 0.000000000000000000e+00 5.000000000000000311e-10
1.490611236000000000e+09 -1.200000000000000000e+02 0.000000000000000000e+00 5.000000000000000311e-10
1.490611238000000000e+09 -1.200000000000000000e+02 0.000000000000000000e+00 5.000000000000000311e-10
1.490611240000000000e+09 -1.200000000000000000e+02 0.000000000000000000e+00 5.000000000000000311e-10
1.490611242000000000e+09 -1.200000000000000000e+02 0.000000000000000000e+00 5.000000000000000311e-10
1.490611244000000000e+09 -1.200000000000000000e+02 0.000000000000000000e+00 5.000000000000000311e-10
1.490611246000000000e+09 -1.200000000000000000e+02 0.000000000000000000e+00 5.000000000000000311e-10
1.490611248000000000e+09 -1.200000000000000000e+02 0.000000000000000000e+00 5.000000000000000311e-10
1.490611250000000000e+09 -1.200000000000000000e+02 0.000000000000000000e+00 5.000000000000000311e-10
1.490611252000000000e+09 -1.200000000000000000e+02 0.000000000000000000e+00 5.000000000000000311e-10
1.490611254000000000e+09 -1.200000000000000000e+02 0.000000000000000000e+00 5.000000000000000311e-10
1.490611256000000000e+09 -1.200000000000000000e+02 0.000000000000000000e+00 5.000000000000000311e-10
1.490611258000000000e+09 -1.200000000000000000e+02 0.000000000000000000e+00 5.000000000000000311e-10
1.490611260000000000e+09 -1.200000000000000000e+02 0.000000000000000000e+00 5.000000000000000311e-10
1.490611262000000000e+09 -1.200000000000000000e+02 0.000000000000000000e+00 5.000000000000000311e-10
1.490611264000000000e+09 -1.200000000000000000e+02 0.000000000000000000e+00 5.000000000000000311e-10
1.490611266000000000e+09 -1.200000000000000000e+02 0.000000000000000000e+00 5.000000000000000311e-10
1.490611268000000000e+09 -1.200000000000000000e+02 0.000000000000000000e+00 5.000000000000000311e-10
1.490611270000000000e+09 -1.200000000000000000e+02 0.000000000000000000e+00 5.000000000000000311e-10
1.490611272000000000e+09 -1.200000000000000000e+02 0.000000000000000000e+00 5.000000000000000311e-10
1.490611274000000000e+09 -1.200000000000000000e+02 0.000000000000000000e+00 5.000000000000000311e-10
1.490611276000000000e+09 -1.200000000000000000e+02 0.000000000000000000e+00 5.000000000000000311e-10
1.490611278000000000e+09 -1.200000000000000000e+02 0.000000000000000000e+00 5.000000000000000311e-10
1.490611280000000000e+09 -1.200000000000000000e+02 0.000000000000000000e+00 5.000000000000000311e-10
1.490611282000000000e+09 -1.200000000000000000e+02 0.000000000000000000e+00 5.000000000000000311e-10
1.490611284000000000e+09 -1.200000000000000000e+02 0.000000000000000000e+00 5.000000000000000311e-10
1.490611286000000000e+09 -1.200000000000000000e+02 2.417150000000000125e-04 5.000000000000000311e-10
1.490611288000000000e+09 -1.200000000000000000e+02 0.000000000000000000e+00 5.000000000000000311e-10
1.490611290000000000e+09 -1.200000000000000000e+02 8.747559999999999982e-05 5.000000000000000311e-10
1.490611292000000000e+09 -1.200000000000000000e+02 0.000000000000000000e+00 5.000000000000000311e-10
1.490611294000000000e+09 -1.200000000000000000e+02 0.000000000000000000e+00 5.000000000000000311e-10
1.490611296000000000e+09 -1.200000000000000000e+02 0.000000000000000000e+00 5.000000000000000311e-10
1.490611298000000000e+09 -1.200000000000000000e+02 0.000000000000000000e+00 5.000000000000000311e-10
1.490611300000000000e+09 -1.200000000000000000e+02 0.000000000000000000e+00 5.000000000000000311e-10
1.490611302000000000e+09 -1.200000000000000000e+02 0.000000000000000000e+00 5.000000000000000311e-10
1.490611304000000000e+09 -1.200000000000000000e+02 0.000000000000000000e+00 5.000000000000000311e-10
1.490611306000000000e+09 -1.200000000000000000e+02 0.000000000000000000e+00 5.000000000000000311e-10
1.490611308000000000e+09 -1.200000000000000000e+02 0.000000000000000000e+00 5.000000000000000311e-10
1.490611310000000000e+09 -1.200000000000000000e+02 0.000000000000000000e+00 5.000000000000000311e-10
1.490611312000000000e+09 -1.200000000000000000e+02 0.000000000000000000e+00 5.000000000000000311e-10
1.490611314000000000e+09 -1.200000000000000000e+02 0.000000000000000000e+00 5.000000000000000311e-10
1.490611316000000000e+09 -1.200000000000000000e+02 0.000000000000000000e+00 5.000000000000000311e-10
1.490611318000000000e+09 -1.200000000000000000e+02 0.000000000000000000e+00 5.000000000000000311e-10
1.490611320000000000e+09 -1.200000000000000000e+02 0.000000000000000000e+00 5.000000000000000311e-10
1.490611322000000000e+09 -1.200000000000000000e+02 0.000000000000000000e+00 5.000000000000000311e-10
1.490611324000000000e+09 -1.200000000000000000e+02 0.000000000000000000e+00 5.000000000000000311e-10
1.490611326000000000e+09 -1.200000000000000000e+02 0.000000000000000000e+00 5.000000000000000311e-10
1.490611328000000000e+09 -1.200000000000000000e+02 0.000000000000000000e+00 5.000000000000000311e-10
1.490611330000000000e+09 -1.200000000000000000e+02 0.000000000000000000e+00 5.000000000000000311e-10
1.490611332000000000e+09 -1.200000000000000000e+02 0.000000000000000000e+00 5.000000000000000311e-10
1.490611334000000000e+09 -1.200000000000000000e+02 4.870349999999999745e-04 5.000000000000000311e-10
1.490611336000000000e+09 -1.200000000000000000e+02 0.000000000000000000e+00 5.000000000000000311e-10
1.490611338000000000e+09 -1.200000000000000000e+02 0.000000000000000000e+00 5.000000000000000311e-10
1.490611340000000000e+09 -1.200000000000000000e+02 0.000000000000000000e+00 5.000000000000000311e-10
1.490611342000000000e+09 -1.200000000000000000e+02 0.000000000000000000e+00 5.000000000000000311e-10
1.490611344000000000e+09 -1.200000000000000000e+02 0.000000000000000000e+00 5.000000000000000311e-10
1.490611346000000000e+09 -1.200000000000000000e+02 0.000000000000000000e+00 5.000000000000000311e-10
1.490611348000000000e+09 -1.200000000000000000e+02 0.000000000000000000e+00 5.000000000000000311e-10
1.490611350000000000e+09 -1.200000000000000000e+02 0.000000000000000000e+00 5.000000000000000311e-10
1.490611352000000000e+09 -1.200000000000000000e+02 0.000000000000000000e+00 5.000000000000000311e-10
1.490611354000000000e+09 -1.200000000000000000e+02 0.000000000000000000e+00 5.000000000000000311e-10
1.490611356000000000e+09 -1.200000000000000000e+02 0.000000000000000000e+00 5.000000000000000311e-10
1.490611358000000000e+09 -1.200000000000000000e+02 0.000000000000000000e+00 5.000000000000000311e-10
1.490611360000000000e+09 -1.200000000000000000e+02 0.000000000000000000e+00 5.000000000000000311e-10
1.490611362000000000e+09 -1.200000000000000000e+02 0.000000000000000000e+00 5.000000000000000311e-10
1.490611364000000000e+09 -1.200000000000000000e+02 8.405030000000000400e-05 5.000000000000000311e-10
1.490611366000000000e+09 -1.200000000000000000e+02 0.000000000000000000e+00 5.000000000000000311e-10
1.490611368000000000e+09 -1.200000000000000000e+02 8.411279999999999874e-05 5.000000000000000311e-10
1.490611370000000000e+09 -1.200000000000000000e+02 0.000000000000000000e+00 5.000000000000000311e-10
1.490611372000000000e+09 -1.200000000000000000e+02 0.000000000000000000e+00 5.000000000000000311e-10
1.490611374000000000e+09 -1.200000000000000000e+02 0.000000000000000000e+00 5.000000000000000311e-10
1.490611376000000000e+09 -1.200000000000000000e+02 1.566069999999999865e-04 5.000000000000000311e-10
1.490611378000000000e+09 -1.200000000000000000e+02 0.000000000000000000e+00 5.000000000000000311e-10
1.490611380000000000e+09 -1.200000000000000000e+02 9.747860000000000552e-05 5.000000000000000311e-10
1.490611382000000000e+09 -1.200000000000000000e+02 0.000000000000000000e+00 5.000000000000000311e-10
1.490611384000000000e+09 -1.200000000000000000e+02 0.000000000000000000e+00 5.000000000000000311e-10
1.490611386000000000e+09 -1.200000000000000000e+02 0.000000000000000000e+00 5.000000000000000311e-10
1.490611388000000000e+09 -1.200000000000000000e+02 0.000000000000000000e+00 5.000000000000000311e-10
1.490611390000000000e+09 -1.200000000000000000e+02 0.000000000000000000e+00 5.000000000000000311e-10
1.490611392000000000e+09 -1.200000000000000000e+02 0.000000000000000000e+00 5.000000000000000311e-10
1.490611394000000000e+09 -1.200000000000000000e+02 0.000000000000000000e+00 5.000000000000000311e-10
1.490611396000000000e+09 -1.200000000000000000e+02 0.000000000000000000e+00 5.000000000000000311e-10
1.490611398000000000e+09 -1.200000000000000000e+02 0.000000000000000000e+00 5.000000000000000311e-10
1.490611400000000000e+09 -1.200000000000000000e+02 0.000000000000000000e+00 5.000000000000000311e-10
1.490611402000000000e+09 -1.200000000000000000e+02 0.000000000000000000e+00 5.000000000000000311e-10
1.490611404000000000e+09 -1.200000000000000000e+02 0.000000000000000000e+00 5.000000000000000311e-10
1.490611406000000000e+09 -1.200000000000000000e+02 0.000000000000000000e+00 5.000000000000000311e-10
1.490611408000000000e+09 -1.200000000000000000e+02 0.000000000000000000e+00 5.000000000000000311e-10
1.490611410000000000e+09 -1.200000000000000000e+02 0.000000000000000000e+00 5.000000000000000311e-10
1.490611412000000000e+09 -1.200000000000000000e+02 0.000000000000000000e+00 5.000000000000000311e-10
1.490611414000000000e+09 -1.200000000000000000e+02 0.000000000000000000e+00 5.000000000000000311e-10
1.490611416000000000e+09 -1.200000000000000000e+02 0.000000000000000000e+00 5.000000000000000311e-10
1.490611418000000000e+09 -1.200000000000000000e+02 0.000000000000000000e+00 5.000000000000000311e-10
1.490611420000000000e+09 -1.200000000000000000e+02 2.524219999999999763e-04 5.000000000000000311e-10
1.490611422000000000e+09 -1.200000000000000000e+02 0.000000000000000000e+00 5.000000000000000311e-10
1.490611424000000000e+09 -1.200000000000000000e+02 0.000000000000000000e+00 5.000000000000000311e-10
1.490611426000000000e+09 -1.200000000000000000e+02 0.000000000000000000e+00 5.000000000000000311e-10
1.490611428000000000e+09 -1.200000000000000000e+02 0.000000000000000000e+00 5.000000000000000311e-10
1.490611430000000000e+09 -1.200000000000000000e+02 0.000000000000000000e+00 5.000000000000000311e-10
1.490611432000000000e+09 -1.200000000000000000e+02 0.000000000000000000e+00 5.000000000000000311e-10
1.490611434000000000e+09 -1.200000000000000000e+02 0.000000000000000000e+00 5.000000000000000311e-10
1.490611436000000000e+09 -1.200000000000000000e+02 0.000000000000000000e+00 5.000000000000000311e-10
1.490611438000000000e+09 -1.200000000000000000e+02 0.000000000000000000e+00 5.000000000000000311e-10
1.490611440000000000e+09 -1.200000000000000000e+02 0.000000000000000000e+00 5.000000000000000311e-10
1.490611442000000000e+09 -1.200000000000000000e+02 0.000000000000000000e+00 5.000000000000000311e-10
1.490611444000000000e+09 -1.200000000000000000e+02 0.000000000000000000e+00 5.000000000000000311e-10
1.490611446000000000e+09 -1.200000000000000000e+02 0.000000000000000000e+00 5.000000000000000311e-10
1.490611448000000000e+09 -1.200000000000000000e+02 0.000000000000000000e+00 5.000000000000000311e-10
1.490611450000000000e+09 -1.200000000000000000e+02 0.000000000000000000e+00 5.000000000000000311e-10
1.490611452000000000e+09 -1.200000000000000000e+02 0.000000000000000000e+00 5.000000000000000311e-10
1.490611454000000000e+09 -1.200000000000000000e+02 0.000000000000000000e+00 5.000000000000000311e-10
1.490611456000000000e+09 -1.200000000000000000e+02 0.000000000000000000e+00 5.000000000000000311e-10
1.490611458000000000e+09 -1.200000000000000000e+02 0.000000000000000000e+00 5.000000000000000311e-10
1.490611460000000000e+09 -1.200000000000000000e+02 0.000000000000000000e+00 5.000000000000000311e-10
1.490611462000000000e+09 -1.200000000000000000e+02 0.000000000000000000e+00 5.000000000000000311e-10
1.490611464000000000e+09 -1.200000000000000000e+02 0.000000000000000000e+00 5.000000000000000311e-10
1.490611466000000000e+09 -1.200000000000000000e+02 5.909259999999999730e-05 5.000000000000000311e-10
1.490611468000000000e+09 -1.200000000000000000e+02 0.000000000000000000e+00 5.000000000000000311e-10
1.490611470000000000e+09 -1.200000000000000000e+02 0.000000000000000000e+00 5.000000000000000311e-10
1.490611472000000000e+09 -1.200000000000000000e+02 0.000000000000000000e+00 5.000000000000000311e-10
1.490611474000000000e+09 -1.200000000000000000e+02 0.000000000000000000e+00 5.000000000000000311e-10
1.490611476000000000e+09 -1.200000000000000000e+02 0.000000000000000000e+00 5.000000000000000311e-10
1.490611478000000000e+09 -1.200000000000000000e+02 0.000000000000000000e+00 5.000000000000000311e-10
1.490611480000000000e+09 -1.200000000000000000e+02 0.000000000000000000e+00 5.000000000000000311e-10
1.490611482000000000e+09 -1.200000000000000000e+02 0.000000000000000000e+00 5.000000000000000311e-10
1.490611484000000000e+09 -1.200000000000000000e+02 0.000000000000000000e+00 5.000000000000000311e-10
1.490611486000000000e+09 -1.200000000000000000e+02 0.000000000000000000e+00 5.000000000000000311e-10
1.490611488000000000e+09 -1.200000000000000000e+02 0.000000000000000000e+00 5.000000000000000311e-10
1.490611490000000000e+09 -1.200000000000000000e+02 0.000000000000000000e+00 5.000000000000000311e-10
1.490611492000000000e+09 -1.200000000000000000e+02 0.000000000000000000e+00 5.000000000000000311e-10
1.490611494000000000e+09 -1.200000000000000000e+02 0.000000000000000000e+00 5.000000000000000311e-10
1.490611496000000000e+09 -1.200000000000000000e+02 0.000000000000000000e+00 5.000000000000000311e-10
1.490611498000000000e+09 -1.200000000000000000e+02 0.000000000000000000e+00 5.000000000000000311e-10
1.490611500000000000e+09 -1.200000000000000000e+02 0.000000000000000000e+00 5.000000000000000311e-10
1.490611502000000000e+09 -1.200000000000000000e+02 0.000000000000000000e+00 5.000000000000000311e-10
1.490611504000000000e+09 -1.200000000000000000e+02 0.000000000000000000e+00 5.000000000000000311e-10
1.490611506000000000e+09 -1.200000000000000000e+02 0.000000000000000000e+00 5.000000000000000311e-10
1.490611508000000000e+09 -1.200000000000000000e+02 0.000000000000000000e+00 5.000000000000000311e-10
1.490611510000000000e+09 -1.200000000000000000e+02 0.000000000000000000e+00 5.000000000000000311e-10
1.490611512000000000e+09 -1.200000000000000000e+02 0.000000000000000000e+00 5.000000000000000311e-10
1.490611514000000000e+09 -1.200000000000000000e+02 0.000000000000000000e+00 5.000000000000000311e-10
1.490611516000000000e+09 -1.200000000000000000e+02 0.000000000000000000e+00 5.000000000000000311e-10
1.490611518000000000e+09 -1.200000000000000000e+02 7.226029999999999660e-05 5.000000000000000311e-10
1.490611520000000000e+09 -1.200000000000000000e+02 0.000000000000000000e+00 5.000000000000000311e-10
