# tags                 xfel_bl_3_st_2_motor_1/position xfel_bl_3_st_2_pd_user_4_fitting_peak/voltage xfel_bl_3_st_2_pd_user_4_fitting_peak/gainC
1.487570342000000000e+09 2.000000000000000000e+01 0.000000000000000000e+00 5.000000000000000182e-11
1.487570344000000000e+09 2.000000000000000000e+01 0.000000000000000000e+00 5.000000000000000182e-11
1.487570346000000000e+09 2.000000000000000000e+01 0.000000000000000000e+00 5.000000000000000182e-11
1.487570348000000000e+09 2.000000000000000000e+01 0.000000000000000000e+00 5.000000000000000182e-11
1.487570350000000000e+09 2.000000000000000000e+01 0.000000000000000000e+00 5.000000000000000182e-11
1.487570352000000000e+09 2.000000000000000000e+01 0.000000000000000000e+00 5.000000000000000182e-11
1.487570354000000000e+09 2.000000000000000000e+01 0.000000000000000000e+00 5.000000000000000182e-11
1.487570356000000000e+09 2.000000000000000000e+01 0.000000000000000000e+00 5.000000000000000182e-11
1.487570358000000000e+09 2.000000000000000000e+01 0.000000000000000000e+00 5.000000000000000182e-11
1.487570360000000000e+09 2.000000000000000000e+01 0.000000000000000000e+00 5.000000000000000182e-11
1.487570362000000000e+09 2.000000000000000000e+01 0.000000000000000000e+00 5.000000000000000182e-11
1.487570364000000000e+09 2.000000000000000000e+01 0.000000000000000000e+00 5.000000000000000182e-11
1.487570366000000000e+09 2.000000000000000000e+01 0.000000000000000000e+00 5.000000000000000182e-11
1.487570368000000000e+09 2.000000000000000000e+01 0.000000000000000000e+00 5.000000000000000182e-11
1.487570370000000000e+09 2.000000000000000000e+01 0.000000000000000000e+00 5.000000000000000182e-11
1.487570372000000000e+09 2.000000000000000000e+01 0.000000000000000000e+00 5.000000000000000182e-11
1.487570374000000000e+09 2.000000000000000000e+01 0.000000000000000000e+00 5.000000000000000182e-11
1.487570376000000000e+09 2.000000000000000000e+01 0.000000000000000000e+00 5.000000000000000182e-11
1.487570378000000000e+09 2.000000000000000000e+01 0.000000000000000000e+00 5.000000000000000182e-11
1.487570380000000000e+09 2.000000000000000000e+01 0.000000000000000000e+00 5.000000000000000182e-11
1.487570382000000000e+09 2.000000000000000000e+01 0.000000000000000000e+00 5.000000000000000182e-11
1.487570384000000000e+09 2.000000000000000000e+01 0.000000000000000000e+00 5.000000000000000182e-11
1.487570386000000000e+09 2.000000000000000000e+01 0.000000000000000000e+00 5.000000000000000182e-11
1.487570388000000000e+09 2.000000000000000000e+01 0.000000000000000000e+00 5.000000000000000182e-11
1.487570390000000000e+09 2.000000000000000000e+01 0.000000000000000000e+00 5.000000000000000182e-11
1.487570392000000000e+09 2.000000000000000000e+01 0.000000000000000000e+00 5.000000000000000182e-11
