# tags                 xfel_bl_3_st_2_motor_1/position xfel_bl_3_st_2_pd_user_4_fitting_peak/voltage xfel_bl_3_st_2_pd_user_4_fitting_peak/gainC
1.490640262000000000e+09 1.200000000000000000e+02 9.137820000000000664e-02 5.000000000000000311e-10
1.490640264000000000e+09 1.200000000000000000e+02 8.410610000000000308e-02 5.000000000000000311e-10
1.490640266000000000e+09 1.200000000000000000e+02 8.750890000000000057e-02 5.000000000000000311e-10
1.490640268000000000e+09 1.200000000000000000e+02 8.259959999999999525e-02 5.000000000000000311e-10
1.490640270000000000e+09 1.200000000000000000e+02 8.780899999999999817e-02 5.000000000000000311e-10
1.490640272000000000e+09 1.200000000000000000e+02 8.253660000000000163e-02 5.000000000000000311e-10
1.490640274000000000e+09 1.200000000000000000e+02 8.250720000000000276e-02 5.000000000000000311e-10
1.490640276000000000e+09 1.200000000000000000e+02 8.398469999999999547e-02 5.000000000000000311e-10
1.490640278000000000e+09 1.200000000000000000e+02 8.759569999999999856e-02 5.000000000000000311e-10
1.490640280000000000e+09 1.200000000000000000e+02 8.567180000000000628e-02 5.000000000000000311e-10
1.490640282000000000e+09 1.200000000000000000e+02 8.541459999999999331e-02 5.000000000000000311e-10
1.490640284000000000e+09 1.200000000000000000e+02 8.331650000000000167e-02 5.000000000000000311e-10
1.490640286000000000e+09 1.200000000000000000e+02 8.112370000000000692e-02 5.000000000000000311e-10
1.490640288000000000e+09 1.200000000000000000e+02 8.587000000000000188e-02 5.000000000000000311e-10
1.490640290000000000e+09 1.200000000000000000e+02 8.094419999999999393e-02 5.000000000000000311e-10
1.490640292000000000e+09 1.200000000000000000e+02 8.325119999999999743e-02 5.000000000000000311e-10
1.490640294000000000e+09 1.200000000000000000e+02 8.097379999999999856e-02 5.000000000000000311e-10
1.490640296000000000e+09 1.200000000000000000e+02 8.264190000000000424e-02 5.000000000000000311e-10
1.490640298000000000e+09 1.200000000000000000e+02 8.028490000000000626e-02 5.000000000000000311e-10
1.490640300000000000e+09 1.200000000000000000e+02 8.240089999999999915e-02 5.000000000000000311e-10
1.490640302000000000e+09 1.200000000000000000e+02 8.565480000000000316e-02 5.000000000000000311e-10
1.490640304000000000e+09 1.200000000000000000e+02 8.507130000000000247e-02 5.000000000000000311e-10
1.490640306000000000e+09 1.200000000000000000e+02 8.026899999999999313e-02 5.000000000000000311e-10
1.490640308000000000e+09 1.200000000000000000e+02 7.972279999999999645e-02 5.000000000000000311e-10
1.490640310000000000e+09 1.200000000000000000e+02 8.299239999999999395e-02 5.000000000000000311e-10
1.490640312000000000e+09 1.200000000000000000e+02 8.424619999999999331e-02 5.000000000000000311e-10
1.490640314000000000e+09 1.200000000000000000e+02 8.646769999999999456e-02 5.000000000000000311e-10
1.490640316000000000e+09 1.200000000000000000e+02 8.747030000000000083e-02 5.000000000000000311e-10
1.490640318000000000e+09 1.200000000000000000e+02 8.468119999999999814e-02 5.000000000000000311e-10
1.490640320000000000e+09 1.200000000000000000e+02 8.269469999999999599e-02 5.000000000000000311e-10
1.490640322000000000e+09 1.200000000000000000e+02 7.794470000000000565e-02 5.000000000000000311e-10
1.490640324000000000e+09 1.200000000000000000e+02 8.485660000000000425e-02 5.000000000000000311e-10
1.490640326000000000e+09 1.200000000000000000e+02 7.895209999999999728e-02 5.000000000000000311e-10
1.490640328000000000e+09 1.200000000000000000e+02 7.926779999999999937e-02 5.000000000000000311e-10
1.490640330000000000e+09 1.200000000000000000e+02 7.770390000000000630e-02 5.000000000000000311e-10
1.490640332000000000e+09 1.200000000000000000e+02 8.144579999999999875e-02 5.000000000000000311e-10
1.490640334000000000e+09 1.200000000000000000e+02 8.354730000000000489e-02 5.000000000000000311e-10
1.490640336000000000e+09 1.200000000000000000e+02 8.502999999999999448e-02 5.000000000000000311e-10
1.490640338000000000e+09 1.200000000000000000e+02 8.370020000000000238e-02 5.000000000000000311e-10
1.490640340000000000e+09 1.200000000000000000e+02 8.489170000000000049e-02 5.000000000000000311e-10
1.490640342000000000e+09 1.200000000000000000e+02 8.634669999999999845e-02 5.000000000000000311e-10
1.490640344000000000e+09 1.200000000000000000e+02 8.464280000000000415e-02 5.000000000000000311e-10
1.490640346000000000e+09 1.200000000000000000e+02 8.858149999999999358e-02 5.000000000000000311e-10
1.490640348000000000e+09 1.200000000000000000e+02 8.590760000000000063e-02 5.000000000000000311e-10
1.490640350000000000e+09 1.200000000000000000e+02 8.549110000000000043e-02 5.000000000000000311e-10
1.490640352000000000e+09 1.200000000000000000e+02 7.813779999999999337e-02 5.000000000000000311e-10
1.490640354000000000e+09 1.200000000000000000e+02 8.267589999999999661e-02 5.000000000000000311e-10
1.490640356000000000e+09 1.200000000000000000e+02 8.354490000000000527e-02 5.000000000000000311e-10
1.490640358000000000e+09 1.200000000000000000e+02 7.880660000000000442e-02 5.000000000000000311e-10
1.490640360000000000e+09 1.200000000000000000e+02 8.161069999999999436e-02 5.000000000000000311e-10
1.490640362000000000e+09 1.200000000000000000e+02 8.524610000000000520e-02 5.000000000000000311e-10
1.490640364000000000e+09 1.200000000000000000e+02 8.962699999999999834e-02 5.000000000000000311e-10
1.490640366000000000e+09 1.200000000000000000e+02 8.887660000000000005e-02 5.000000000000000311e-10
1.490640368000000000e+09 1.200000000000000000e+02 8.344959999999999878e-02 5.000000000000000311e-10
1.490640370000000000e+09 1.200000000000000000e+02 8.411259999999999570e-02 5.000000000000000311e-10
1.490640372000000000e+09 1.200000000000000000e+02 8.150810000000000000e-02 5.000000000000000311e-10
1.490640374000000000e+09 1.200000000000000000e+02 8.036029999999999562e-02 5.000000000000000311e-10
1.490640376000000000e+09 1.200000000000000000e+02 8.372169999999999612e-02 5.000000000000000311e-10
1.490640378000000000e+09 1.200000000000000000e+02 7.648560000000000081e-02 5.000000000000000311e-10
1.490640380000000000e+09 1.200000000000000000e+02 7.928250000000000575e-02 5.000000000000000311e-10
1.490640382000000000e+09 1.200000000000000000e+02 8.613640000000000185e-02 5.000000000000000311e-10
1.490640384000000000e+09 1.200000000000000000e+02 8.062229999999999397e-02 5.000000000000000311e-10
1.490640386000000000e+09 1.200000000000000000e+02 8.248540000000000039e-02 5.000000000000000311e-10
1.490640388000000000e+09 1.200000000000000000e+02 8.552640000000000242e-02 5.000000000000000311e-10
1.490640390000000000e+09 1.200000000000000000e+02 7.933769999999999711e-02 5.000000000000000311e-10
1.490640392000000000e+09 1.200000000000000000e+02 7.484770000000000312e-02 5.000000000000000311e-10
1.490640394000000000e+09 1.200000000000000000e+02 8.702650000000000663e-02 5.000000000000000311e-10
1.490640396000000000e+09 1.200000000000000000e+02 8.331800000000000317e-02 5.000000000000000311e-10
1.490640398000000000e+09 1.200000000000000000e+02 8.507679999999999410e-02 5.000000000000000311e-10
1.490640400000000000e+09 1.200000000000000000e+02 8.711889999999999912e-02 5.000000000000000311e-10
1.490640402000000000e+09 1.200000000000000000e+02 8.634500000000000508e-02 5.000000000000000311e-10
1.490640404000000000e+09 1.200000000000000000e+02 8.233029999999999515e-02 5.000000000000000311e-10
1.490640406000000000e+09 1.200000000000000000e+02 8.268780000000000574e-02 5.000000000000000311e-10
1.490640408000000000e+09 1.200000000000000000e+02 8.590169999999999750e-02 5.000000000000000311e-10
1.490640410000000000e+09 1.200000000000000000e+02 8.542230000000000656e-02 5.000000000000000311e-10
1.490640412000000000e+09 1.200000000000000000e+02 8.173610000000000597e-02 5.000000000000000311e-10
1.490640414000000000e+09 1.200000000000000000e+02 8.735990000000000422e-02 5.000000000000000311e-10
1.490640416000000000e+09 1.200000000000000000e+02 8.415290000000000270e-02 5.000000000000000311e-10
1.490640418000000000e+09 1.200000000000000000e+02 8.594469999999999887e-02 5.000000000000000311e-10
1.490640420000000000e+09 1.200000000000000000e+02 8.105560000000000542e-02 5.000000000000000311e-10
1.490640422000000000e+09 1.200000000000000000e+02 8.428099999999999481e-02 5.000000000000000311e-10
1.490640424000000000e+09 1.200000000000000000e+02 8.917289999999999939e-02 5.000000000000000311e-10
1.490640426000000000e+09 1.200000000000000000e+02 8.381769999999999499e-02 5.000000000000000311e-10
1.490640428000000000e+09 1.200000000000000000e+02 8.596310000000000062e-02 5.000000000000000311e-10
1.490640430000000000e+09 1.200000000000000000e+02 8.352880000000000027e-02 5.000000000000000311e-10
1.490640432000000000e+09 1.200000000000000000e+02 8.630019999999999358e-02 5.000000000000000311e-10
1.490640434000000000e+09 1.200000000000000000e+02 8.220639999999999892e-02 5.000000000000000311e-10
1.490640436000000000e+09 1.200000000000000000e+02 8.324860000000000593e-02 5.000000000000000311e-10
1.490640438000000000e+09 1.200000000000000000e+02 9.153740000000000487e-02 5.000000000000000311e-10
1.490640440000000000e+09 1.200000000000000000e+02 8.688469999999999527e-02 5.000000000000000311e-10
1.490640442000000000e+09 1.200000000000000000e+02 8.768439999999999568e-02 5.000000000000000311e-10
1.490640444000000000e+09 1.200000000000000000e+02 8.284500000000000197e-02 5.000000000000000311e-10
1.490640446000000000e+09 1.200000000000000000e+02 8.775829999999999742e-02 5.000000000000000311e-10
1.490640448000000000e+09 1.200000000000000000e+02 8.422219999999999707e-02 5.000000000000000311e-10
1.490640450000000000e+09 1.200000000000000000e+02 8.098450000000000093e-02 5.000000000000000311e-10
1.490640452000000000e+09 1.200000000000000000e+02 8.631769999999999721e-02 5.000000000000000311e-10
1.490640454000000000e+09 1.200000000000000000e+02 8.692759999999999376e-02 5.000000000000000311e-10
1.490640456000000000e+09 1.200000000000000000e+02 8.799809999999999577e-02 5.000000000000000311e-10
1.490640458000000000e+09 1.200000000000000000e+02 8.076250000000000095e-02 5.000000000000000311e-10
1.490640460000000000e+09 1.200000000000000000e+02 8.785410000000000441e-02 5.000000000000000311e-10
1.490640462000000000e+09 1.200000000000000000e+02 8.332249999999999379e-02 5.000000000000000311e-10
1.490640464000000000e+09 1.200000000000000000e+02 8.509419999999999484e-02 5.000000000000000311e-10
1.490640466000000000e+09 1.200000000000000000e+02 8.433870000000000255e-02 5.000000000000000311e-10
1.490640468000000000e+09 1.200000000000000000e+02 8.265889999999999349e-02 5.000000000000000311e-10
1.490640470000000000e+09 1.200000000000000000e+02 8.625069999999999959e-02 5.000000000000000311e-10
1.490640472000000000e+09 1.200000000000000000e+02 8.465649999999999564e-02 5.000000000000000311e-10
1.490640474000000000e+09 1.200000000000000000e+02 8.716920000000000224e-02 5.000000000000000311e-10
1.490640476000000000e+09 1.200000000000000000e+02 8.719390000000000474e-02 5.000000000000000311e-10
1.490640478000000000e+09 1.200000000000000000e+02 8.076819999999999833e-02 5.000000000000000311e-10
1.490640480000000000e+09 1.200000000000000000e+02 8.461050000000000515e-02 5.000000000000000311e-10
1.490640482000000000e+09 1.200000000000000000e+02 8.562029999999999641e-02 5.000000000000000311e-10
1.490640484000000000e+09 1.200000000000000000e+02 8.527780000000000082e-02 5.000000000000000311e-10
1.490640486000000000e+09 1.200000000000000000e+02 8.051030000000000686e-02 5.000000000000000311e-10
1.490640488000000000e+09 1.200000000000000000e+02 7.888069999999999804e-02 5.000000000000000311e-10
1.490640490000000000e+09 1.200000000000000000e+02 8.325699999999999767e-02 5.000000000000000311e-10
1.490640492000000000e+09 1.200000000000000000e+02 8.290880000000000472e-02 5.000000000000000311e-10
1.490640494000000000e+09 1.200000000000000000e+02 8.379639999999999311e-02 5.000000000000000311e-10
1.490640496000000000e+09 1.200000000000000000e+02 8.038860000000000450e-02 5.000000000000000311e-10
1.490640498000000000e+09 1.200000000000000000e+02 8.687519999999999964e-02 5.000000000000000311e-10
1.490640500000000000e+09 1.200000000000000000e+02 8.248890000000000389e-02 5.000000000000000311e-10
1.490640502000000000e+09 1.200000000000000000e+02 8.377969999999999862e-02 5.000000000000000311e-10
1.490640504000000000e+09 1.200000000000000000e+02 8.281850000000000322e-02 5.000000000000000311e-10
1.490640506000000000e+09 1.200000000000000000e+02 8.587820000000000176e-02 5.000000000000000311e-10
1.490640508000000000e+09 1.200000000000000000e+02 8.131549999999999889e-02 5.000000000000000311e-10
1.490640510000000000e+09 1.200000000000000000e+02 7.912890000000000201e-02 5.000000000000000311e-10
1.490640512000000000e+09 1.200000000000000000e+02 8.456940000000000290e-02 5.000000000000000311e-10
1.490640514000000000e+09 1.200000000000000000e+02 8.816319999999999713e-02 5.000000000000000311e-10
1.490640516000000000e+09 1.200000000000000000e+02 8.297970000000000346e-02 5.000000000000000311e-10
1.490640518000000000e+09 1.200000000000000000e+02 8.254910000000000025e-02 5.000000000000000311e-10
1.490640520000000000e+09 1.200000000000000000e+02 8.227089999999999403e-02 5.000000000000000311e-10
1.490640522000000000e+09 1.200000000000000000e+02 9.142799999999999538e-02 5.000000000000000311e-10
1.490640524000000000e+09 1.200000000000000000e+02 8.954360000000000097e-02 5.000000000000000311e-10
1.490640526000000000e+09 1.200000000000000000e+02 8.888770000000000004e-02 5.000000000000000311e-10
1.490640528000000000e+09 1.200000000000000000e+02 9.319800000000000306e-02 5.000000000000000311e-10
1.490640530000000000e+09 1.200000000000000000e+02 8.876639999999999531e-02 5.000000000000000311e-10
1.490640532000000000e+09 1.200000000000000000e+02 9.120340000000000391e-02 5.000000000000000311e-10
1.490640534000000000e+09 1.200000000000000000e+02 9.049350000000000449e-02 5.000000000000000311e-10
1.490640536000000000e+09 1.200000000000000000e+02 9.528499999999999470e-02 5.000000000000000311e-10
1.490640538000000000e+09 1.200000000000000000e+02 9.132490000000000052e-02 5.000000000000000311e-10
1.490640540000000000e+09 1.200000000000000000e+02 8.619459999999999622e-02 5.000000000000000311e-10
1.490640542000000000e+09 1.200000000000000000e+02 9.127549999999999553e-02 5.000000000000000311e-10
1.490640544000000000e+09 1.200000000000000000e+02 9.457599999999999341e-02 5.000000000000000311e-10
1.490640546000000000e+09 1.200000000000000000e+02 8.591260000000000563e-02 5.000000000000000311e-10
1.490640548000000000e+09 1.200000000000000000e+02 9.151940000000000075e-02 5.000000000000000311e-10
1.490640550000000000e+09 1.200000000000000000e+02 8.924940000000000651e-02 5.000000000000000311e-10
1.490640552000000000e+09 1.200000000000000000e+02 8.871030000000000582e-02 5.000000000000000311e-10
1.490640554000000000e+09 1.200000000000000000e+02 9.112870000000000692e-02 5.000000000000000311e-10
1.490640556000000000e+09 1.200000000000000000e+02 9.175850000000000672e-02 5.000000000000000311e-10
1.490640558000000000e+09 1.200000000000000000e+02 9.008389999999999453e-02 5.000000000000000311e-10
1.490640560000000000e+09 1.200000000000000000e+02 8.627930000000000321e-02 5.000000000000000311e-10
1.490640562000000000e+09 1.200000000000000000e+02 8.484189999999999787e-02 5.000000000000000311e-10
1.490640564000000000e+09 1.200000000000000000e+02 8.768430000000000668e-02 5.000000000000000311e-10
1.490640566000000000e+09 1.200000000000000000e+02 8.898860000000000103e-02 5.000000000000000311e-10
1.490640568000000000e+09 1.200000000000000000e+02 8.647509999999999919e-02 5.000000000000000311e-10
1.490640570000000000e+09 1.200000000000000000e+02 8.681719999999999715e-02 5.000000000000000311e-10
1.490640572000000000e+09 1.200000000000000000e+02 8.794949999999999990e-02 5.000000000000000311e-10
1.490640574000000000e+09 1.200000000000000000e+02 8.853300000000000058e-02 5.000000000000000311e-10
1.490640576000000000e+09 1.200000000000000000e+02 8.717300000000000049e-02 5.000000000000000311e-10
1.490640578000000000e+09 1.200000000000000000e+02 9.083019999999999983e-02 5.000000000000000311e-10
1.490640580000000000e+09 1.200000000000000000e+02 8.165920000000000123e-02 5.000000000000000311e-10
1.490640582000000000e+09 1.200000000000000000e+02 9.187199999999999533e-02 5.000000000000000311e-10
1.490640584000000000e+09 1.200000000000000000e+02 9.032179999999999376e-02 5.000000000000000311e-10
1.490640586000000000e+09 1.200000000000000000e+02 8.951380000000000448e-02 5.000000000000000311e-10
1.490640588000000000e+09 1.200000000000000000e+02 8.402700000000000446e-02 5.000000000000000311e-10
1.490640590000000000e+09 1.200000000000000000e+02 8.345740000000000103e-02 5.000000000000000311e-10
1.490640592000000000e+09 1.200000000000000000e+02 8.591890000000000638e-02 5.000000000000000311e-10
1.490640594000000000e+09 1.200000000000000000e+02 8.643159999999999732e-02 5.000000000000000311e-10
1.490640596000000000e+09 1.200000000000000000e+02 8.980660000000000032e-02 5.000000000000000311e-10
1.490640598000000000e+09 1.200000000000000000e+02 8.716250000000000386e-02 5.000000000000000311e-10
1.490640600000000000e+09 1.200000000000000000e+02 8.312100000000000044e-02 5.000000000000000311e-10
1.490640602000000000e+09 1.200000000000000000e+02 9.096650000000000569e-02 5.000000000000000311e-10
1.490640604000000000e+09 1.200000000000000000e+02 9.289500000000000535e-02 5.000000000000000311e-10
1.490640606000000000e+09 1.200000000000000000e+02 9.146519999999999651e-02 5.000000000000000311e-10
1.490640608000000000e+09 1.200000000000000000e+02 8.655279999999999918e-02 5.000000000000000311e-10
1.490640610000000000e+09 1.200000000000000000e+02 9.382179999999999687e-02 5.000000000000000311e-10
1.490640612000000000e+09 1.200000000000000000e+02 9.140850000000000364e-02 5.000000000000000311e-10
1.490640614000000000e+09 1.200000000000000000e+02 8.574600000000000277e-02 5.000000000000000311e-10
1.490640616000000000e+09 1.200000000000000000e+02 9.128150000000000153e-02 5.000000000000000311e-10
1.490640618000000000e+09 1.200000000000000000e+02 8.717339999999999811e-02 5.000000000000000311e-10
1.490640620000000000e+09 1.200000000000000000e+02 9.495059999999999611e-02 5.000000000000000311e-10
1.490640622000000000e+09 1.200000000000000000e+02 9.244689999999999852e-02 5.000000000000000311e-10
1.490640624000000000e+09 1.200000000000000000e+02 8.856210000000000471e-02 5.000000000000000311e-10
1.490640626000000000e+09 1.200000000000000000e+02 8.543599999999999806e-02 5.000000000000000311e-10
1.490640628000000000e+09 1.200000000000000000e+02 8.690900000000000014e-02 5.000000000000000311e-10
1.490640630000000000e+09 1.200000000000000000e+02 9.121650000000000591e-02 5.000000000000000311e-10
1.490640632000000000e+09 1.200000000000000000e+02 8.459500000000000353e-02 5.000000000000000311e-10
1.490640634000000000e+09 1.200000000000000000e+02 8.282620000000000260e-02 5.000000000000000311e-10
1.490640636000000000e+09 1.200000000000000000e+02 8.437809999999999755e-02 5.000000000000000311e-10
1.490640638000000000e+09 1.200000000000000000e+02 9.162700000000000011e-02 5.000000000000000311e-10
1.490640640000000000e+09 1.200000000000000000e+02 9.003809999999999591e-02 5.000000000000000311e-10
1.490640642000000000e+09 1.200000000000000000e+02 8.382149999999999324e-02 5.000000000000000311e-10
1.490640644000000000e+09 1.200000000000000000e+02 8.757289999999999519e-02 5.000000000000000311e-10
1.490640646000000000e+09 1.200000000000000000e+02 8.740630000000000621e-02 5.000000000000000311e-10
1.490640648000000000e+09 1.200000000000000000e+02 8.760179999999999356e-02 5.000000000000000311e-10
1.490640650000000000e+09 1.200000000000000000e+02 8.690009999999999402e-02 5.000000000000000311e-10
1.490640652000000000e+09 1.200000000000000000e+02 8.576390000000000402e-02 5.000000000000000311e-10
1.490640654000000000e+09 1.200000000000000000e+02 9.056290000000000173e-02 5.000000000000000311e-10
1.490640656000000000e+09 1.200000000000000000e+02 9.462479999999999503e-02 5.000000000000000311e-10
1.490640658000000000e+09 1.200000000000000000e+02 8.489380000000000537e-02 5.000000000000000311e-10
1.490640660000000000e+09 1.200000000000000000e+02 8.630730000000000346e-02 5.000000000000000311e-10
1.490640662000000000e+09 1.200000000000000000e+02 8.671460000000000279e-02 5.000000000000000311e-10
1.490640664000000000e+09 1.200000000000000000e+02 8.327850000000000530e-02 5.000000000000000311e-10
1.490640666000000000e+09 1.200000000000000000e+02 8.112940000000000429e-02 5.000000000000000311e-10
1.490640668000000000e+09 1.200000000000000000e+02 8.381639999999999924e-02 5.000000000000000311e-10
1.490640670000000000e+09 1.200000000000000000e+02 8.661870000000000680e-02 5.000000000000000311e-10
1.490640672000000000e+09 1.200000000000000000e+02 8.878229999999999456e-02 5.000000000000000311e-10
1.490640674000000000e+09 1.200000000000000000e+02 9.011230000000000628e-02 5.000000000000000311e-10
1.490640676000000000e+09 1.200000000000000000e+02 8.126070000000000515e-02 5.000000000000000311e-10
1.490640678000000000e+09 1.200000000000000000e+02 8.295810000000000684e-02 5.000000000000000311e-10
1.490640680000000000e+09 1.200000000000000000e+02 8.361449999999999438e-02 5.000000000000000311e-10
1.490640682000000000e+09 1.200000000000000000e+02 8.816920000000000313e-02 5.000000000000000311e-10
1.490640684000000000e+09 1.200000000000000000e+02 8.232299999999999340e-02 5.000000000000000311e-10
1.490640686000000000e+09 1.200000000000000000e+02 8.574919999999999765e-02 5.000000000000000311e-10
1.490640688000000000e+09 1.200000000000000000e+02 8.451839999999999353e-02 5.000000000000000311e-10
1.490640690000000000e+09 1.200000000000000000e+02 8.553349999999999842e-02 5.000000000000000311e-10
1.490640692000000000e+09 1.200000000000000000e+02 8.706790000000000362e-02 5.000000000000000311e-10
1.490640694000000000e+09 1.200000000000000000e+02 8.379390000000000449e-02 5.000000000000000311e-10
1.490640696000000000e+09 1.200000000000000000e+02 8.916330000000000089e-02 5.000000000000000311e-10
1.490640698000000000e+09 1.200000000000000000e+02 8.030130000000000601e-02 5.000000000000000311e-10
1.490640700000000000e+09 1.200000000000000000e+02 8.397090000000000110e-02 5.000000000000000311e-10
1.490640702000000000e+09 1.200000000000000000e+02 8.683630000000000515e-02 5.000000000000000311e-10
1.490640704000000000e+09 1.200000000000000000e+02 8.924100000000000088e-02 5.000000000000000311e-10
1.490640706000000000e+09 1.200000000000000000e+02 9.362969999999999626e-02 5.000000000000000311e-10
1.490640708000000000e+09 1.200000000000000000e+02 9.086779999999999857e-02 5.000000000000000311e-10
1.490640710000000000e+09 1.200000000000000000e+02 8.886610000000000342e-02 5.000000000000000311e-10
1.490640712000000000e+09 1.200000000000000000e+02 9.689620000000000177e-02 5.000000000000000311e-10
1.490640714000000000e+09 1.200000000000000000e+02 8.632159999999999833e-02 5.000000000000000311e-10
1.490640716000000000e+09 1.200000000000000000e+02 8.924799999999999400e-02 5.000000000000000311e-10
1.490640718000000000e+09 1.200000000000000000e+02 9.164440000000000086e-02 5.000000000000000311e-10
1.490640720000000000e+09 1.200000000000000000e+02 9.257780000000000176e-02 5.000000000000000311e-10
1.490640722000000000e+09 1.200000000000000000e+02 8.549629999999999730e-02 5.000000000000000311e-10
1.490640724000000000e+09 1.200000000000000000e+02 8.495550000000000324e-02 5.000000000000000311e-10
1.490640726000000000e+09 1.200000000000000000e+02 9.269560000000000299e-02 5.000000000000000311e-10
1.490640728000000000e+09 1.200000000000000000e+02 8.514080000000000259e-02 5.000000000000000311e-10
1.490640730000000000e+09 1.200000000000000000e+02 8.844449999999999534e-02 5.000000000000000311e-10
1.490640732000000000e+09 1.200000000000000000e+02 8.885579999999999867e-02 5.000000000000000311e-10
1.490640734000000000e+09 1.200000000000000000e+02 8.983220000000000094e-02 5.000000000000000311e-10
1.490640736000000000e+09 1.200000000000000000e+02 8.730259999999999410e-02 5.000000000000000311e-10
1.490640738000000000e+09 1.200000000000000000e+02 8.233110000000000428e-02 5.000000000000000311e-10
1.490640740000000000e+09 1.200000000000000000e+02 8.572499999999999565e-02 5.000000000000000311e-10
1.490640742000000000e+09 1.200000000000000000e+02 8.677219999999999378e-02 5.000000000000000311e-10
1.490640744000000000e+09 1.200000000000000000e+02 8.583419999999999939e-02 5.000000000000000311e-10
1.490640746000000000e+09 1.200000000000000000e+02 8.529680000000000595e-02 5.000000000000000311e-10
1.490640748000000000e+09 1.200000000000000000e+02 9.070640000000000647e-02 5.000000000000000311e-10
1.490640750000000000e+09 1.200000000000000000e+02 8.923219999999999763e-02 5.000000000000000311e-10
1.490640752000000000e+09 1.200000000000000000e+02 8.417750000000000232e-02 5.000000000000000311e-10
1.490640754000000000e+09 1.200000000000000000e+02 8.540820000000000356e-02 5.000000000000000311e-10
1.490640756000000000e+09 1.200000000000000000e+02 8.474819999999999576e-02 5.000000000000000311e-10
1.490640758000000000e+09 1.200000000000000000e+02 8.138570000000000526e-02 5.000000000000000311e-10
1.490640760000000000e+09 1.200000000000000000e+02 8.581869999999999776e-02 5.000000000000000311e-10
1.490640762000000000e+09 1.200000000000000000e+02 9.097600000000000131e-02 5.000000000000000311e-10
1.490640764000000000e+09 1.200000000000000000e+02 8.434690000000000243e-02 5.000000000000000311e-10
1.490640766000000000e+09 1.200000000000000000e+02 8.649629999999999819e-02 5.000000000000000311e-10
1.490640768000000000e+09 1.200000000000000000e+02 8.467260000000000064e-02 5.000000000000000311e-10
1.490640770000000000e+09 1.200000000000000000e+02 9.092219999999999469e-02 5.000000000000000311e-10
1.490640772000000000e+09 1.200000000000000000e+02 9.000650000000000317e-02 5.000000000000000311e-10
1.490640774000000000e+09 1.200000000000000000e+02 8.855040000000000133e-02 5.000000000000000311e-10
1.490640776000000000e+09 1.200000000000000000e+02 8.710389999999999799e-02 5.000000000000000311e-10
1.490640778000000000e+09 1.200000000000000000e+02 8.631060000000000121e-02 5.000000000000000311e-10
1.490640780000000000e+09 1.200000000000000000e+02 8.886099999999999555e-02 5.000000000000000311e-10
1.490640782000000000e+09 1.200000000000000000e+02 8.625330000000000497e-02 5.000000000000000311e-10
1.490640784000000000e+09 1.200000000000000000e+02 8.686979999999999702e-02 5.000000000000000311e-10
1.490640786000000000e+09 1.200000000000000000e+02 9.428190000000000182e-02 5.000000000000000311e-10
1.490640788000000000e+09 1.200000000000000000e+02 8.944140000000000423e-02 5.000000000000000311e-10
1.490640790000000000e+09 1.200000000000000000e+02 8.682900000000000340e-02 5.000000000000000311e-10
1.490640792000000000e+09 1.200000000000000000e+02 9.193030000000000646e-02 5.000000000000000311e-10
1.490640794000000000e+09 1.200000000000000000e+02 8.810210000000000263e-02 5.000000000000000311e-10
1.490640796000000000e+09 1.200000000000000000e+02 8.969100000000000683e-02 5.000000000000000311e-10
1.490640798000000000e+09 1.200000000000000000e+02 8.793499999999999928e-02 5.000000000000000311e-10
1.490640800000000000e+09 1.200000000000000000e+02 9.452460000000000029e-02 5.000000000000000311e-10
1.490640802000000000e+09 1.200000000000000000e+02 8.316809999999999481e-02 5.000000000000000311e-10
1.490640804000000000e+09 1.200000000000000000e+02 8.769639999999999380e-02 5.000000000000000311e-10
1.490640806000000000e+09 1.200000000000000000e+02 8.772720000000000518e-02 5.000000000000000311e-10
1.490640808000000000e+09 1.200000000000000000e+02 8.486200000000000687e-02 5.000000000000000311e-10
1.490640810000000000e+09 1.200000000000000000e+02 8.458350000000000590e-02 5.000000000000000311e-10
1.490640812000000000e+09 1.200000000000000000e+02 8.537759999999999794e-02 5.000000000000000311e-10
1.490640814000000000e+09 1.200000000000000000e+02 8.214620000000000255e-02 5.000000000000000311e-10
1.490640816000000000e+09 1.200000000000000000e+02 8.381879999999999886e-02 5.000000000000000311e-10
1.490640818000000000e+09 1.200000000000000000e+02 8.726730000000000598e-02 5.000000000000000311e-10
1.490640820000000000e+09 1.200000000000000000e+02 8.787570000000000103e-02 5.000000000000000311e-10
1.490640822000000000e+09 1.200000000000000000e+02 9.445829999999999504e-02 5.000000000000000311e-10
1.490640824000000000e+09 1.200000000000000000e+02 8.414580000000000670e-02 5.000000000000000311e-10
1.490640826000000000e+09 1.200000000000000000e+02 8.625270000000000159e-02 5.000000000000000311e-10
1.490640828000000000e+09 1.200000000000000000e+02 8.532750000000000057e-02 5.000000000000000311e-10
1.490640830000000000e+09 1.200000000000000000e+02 8.938060000000000449e-02 5.000000000000000311e-10
1.490640832000000000e+09 1.200000000000000000e+02 8.053349999999999398e-02 5.000000000000000311e-10
1.490640834000000000e+09 1.200000000000000000e+02 8.603800000000000336e-02 5.000000000000000311e-10
1.490640836000000000e+09 1.200000000000000000e+02 8.819000000000000450e-02 5.000000000000000311e-10
1.490640838000000000e+09 1.200000000000000000e+02 8.136300000000000476e-02 5.000000000000000311e-10
1.490640840000000000e+09 1.200000000000000000e+02 8.482860000000000400e-02 5.000000000000000311e-10
1.490640842000000000e+09 1.200000000000000000e+02 8.119949999999999390e-02 5.000000000000000311e-10
1.490640844000000000e+09 1.200000000000000000e+02 8.824329999999999674e-02 5.000000000000000311e-10
1.490640846000000000e+09 1.200000000000000000e+02 8.411019999999999608e-02 5.000000000000000311e-10
1.490640848000000000e+09 1.200000000000000000e+02 8.062179999999999347e-02 5.000000000000000311e-10
1.490640850000000000e+09 1.200000000000000000e+02 8.262279999999999625e-02 5.000000000000000311e-10
1.490640852000000000e+09 1.200000000000000000e+02 8.144750000000000600e-02 5.000000000000000311e-10
1.490640854000000000e+09 1.200000000000000000e+02 8.728360000000000285e-02 5.000000000000000311e-10
1.490640856000000000e+09 1.200000000000000000e+02 8.594269999999999687e-02 5.000000000000000311e-10
1.490640858000000000e+09 1.200000000000000000e+02 8.457889999999999853e-02 5.000000000000000311e-10
1.490640860000000000e+09 1.200000000000000000e+02 8.879520000000000468e-02 5.000000000000000311e-10
