# tags                 xfel_bl_3_st_2_motor_1/position xfel_bl_3_st_2_pd_user_4_fitting_peak/voltage xfel_bl_3_st_2_pd_user_4_fitting_peak/gainC
1.490644822000000000e+09 2.400000000000000000e+02 8.945000000000000173e-02 5.000000000000000311e-10
1.490644824000000000e+09 2.400000000000000000e+02 8.912150000000000627e-02 5.000000000000000311e-10
1.490644826000000000e+09 2.400000000000000000e+02 9.081509999999999583e-02 5.000000000000000311e-10
1.490644828000000000e+09 2.400000000000000000e+02 8.731120000000000547e-02 5.000000000000000311e-10
1.490644830000000000e+09 2.400000000000000000e+02 8.842289999999999872e-02 5.000000000000000311e-10
1.490644832000000000e+09 2.400000000000000000e+02 8.820550000000000612e-02 5.000000000000000311e-10
1.490644834000000000e+09 2.400000000000000000e+02 8.634089999999999820e-02 5.000000000000000311e-10
1.490644836000000000e+09 2.400000000000000000e+02 9.171540000000000248e-02 5.000000000000000311e-10
1.490644838000000000e+09 2.400000000000000000e+02 8.352700000000000402e-02 5.000000000000000311e-10
1.490644840000000000e+09 2.400000000000000000e+02 8.621679999999999622e-02 5.000000000000000311e-10
1.490644842000000000e+09 2.400000000000000000e+02 8.921769999999999701e-02 5.000000000000000311e-10
1.490644844000000000e+09 2.400000000000000000e+02 8.666770000000000029e-02 5.000000000000000311e-10
1.490644846000000000e+09 2.400000000000000000e+02 8.583340000000000414e-02 5.000000000000000311e-10
1.490644848000000000e+09 2.400000000000000000e+02 9.011280000000000678e-02 5.000000000000000311e-10
1.490644850000000000e+09 2.400000000000000000e+02 8.619060000000000610e-02 5.000000000000000311e-10
1.490644852000000000e+09 2.400000000000000000e+02 8.736689999999999734e-02 5.000000000000000311e-10
1.490644854000000000e+09 2.400000000000000000e+02 9.260409999999999475e-02 5.000000000000000311e-10
1.490644856000000000e+09 2.400000000000000000e+02 8.707990000000000175e-02 5.000000000000000311e-10
1.490644858000000000e+09 2.400000000000000000e+02 8.809989999999999488e-02 5.000000000000000311e-10
1.490644860000000000e+09 2.400000000000000000e+02 8.765820000000000556e-02 5.000000000000000311e-10
1.490644862000000000e+09 2.400000000000000000e+02 9.142359999999999376e-02 5.000000000000000311e-10
1.490644864000000000e+09 2.400000000000000000e+02 8.882719999999999505e-02 5.000000000000000311e-10
1.490644866000000000e+09 2.400000000000000000e+02 8.609300000000000286e-02 5.000000000000000311e-10
1.490644868000000000e+09 2.400000000000000000e+02 8.540280000000000094e-02 5.000000000000000311e-10
1.490644870000000000e+09 2.400000000000000000e+02 8.998459999999999792e-02 5.000000000000000311e-10
1.490644872000000000e+09 2.400000000000000000e+02 8.595239999999999825e-02 5.000000000000000311e-10
1.490644874000000000e+09 2.400000000000000000e+02 9.249989999999999601e-02 5.000000000000000311e-10
1.490644876000000000e+09 2.400000000000000000e+02 8.628239999999999521e-02 5.000000000000000311e-10
1.490644878000000000e+09 2.400000000000000000e+02 8.722789999999999710e-02 5.000000000000000311e-10
1.490644880000000000e+09 2.400000000000000000e+02 8.757220000000000282e-02 5.000000000000000311e-10
1.490644882000000000e+09 2.400000000000000000e+02 8.732030000000000347e-02 5.000000000000000311e-10
1.490644884000000000e+09 2.400000000000000000e+02 8.375580000000000525e-02 5.000000000000000311e-10
1.490644886000000000e+09 2.400000000000000000e+02 8.316669999999999618e-02 5.000000000000000311e-10
1.490644888000000000e+09 2.400000000000000000e+02 8.327270000000000505e-02 5.000000000000000311e-10
1.490644890000000000e+09 2.400000000000000000e+02 8.461330000000000240e-02 5.000000000000000311e-10
1.490644892000000000e+09 2.400000000000000000e+02 8.785519999999999441e-02 5.000000000000000311e-10
1.490644894000000000e+09 2.400000000000000000e+02 8.275409999999999711e-02 5.000000000000000311e-10
1.490644896000000000e+09 2.400000000000000000e+02 8.535460000000000269e-02 5.000000000000000311e-10
1.490644898000000000e+09 2.400000000000000000e+02 8.542929999999999968e-02 5.000000000000000311e-10
1.490644900000000000e+09 2.400000000000000000e+02 8.700869999999999438e-02 5.000000000000000311e-10
1.490644902000000000e+09 2.400000000000000000e+02 8.201329999999999731e-02 5.000000000000000311e-10
1.490644904000000000e+09 2.400000000000000000e+02 8.278800000000000048e-02 5.000000000000000311e-10
1.490644906000000000e+09 2.400000000000000000e+02 7.923470000000000513e-02 5.000000000000000311e-10
1.490644908000000000e+09 2.400000000000000000e+02 8.522770000000000346e-02 5.000000000000000311e-10
1.490644910000000000e+09 2.400000000000000000e+02 8.397469999999999934e-02 5.000000000000000311e-10
1.490644912000000000e+09 2.400000000000000000e+02 8.529839999999999645e-02 5.000000000000000311e-10
1.490644914000000000e+09 2.400000000000000000e+02 8.082509999999999695e-02 5.000000000000000311e-10
1.490644916000000000e+09 2.400000000000000000e+02 8.588890000000000413e-02 5.000000000000000311e-10
1.490644918000000000e+09 2.400000000000000000e+02 9.349899999999999878e-02 5.000000000000000311e-10
1.490644920000000000e+09 2.400000000000000000e+02 8.998530000000000417e-02 5.000000000000000311e-10
1.490644922000000000e+09 2.400000000000000000e+02 8.205980000000000218e-02 5.000000000000000311e-10
1.490644924000000000e+09 2.400000000000000000e+02 8.654820000000000568e-02 5.000000000000000311e-10
1.490644926000000000e+09 2.400000000000000000e+02 8.498139999999999861e-02 5.000000000000000311e-10
1.490644928000000000e+09 2.400000000000000000e+02 8.287429999999999797e-02 5.000000000000000311e-10
1.490644930000000000e+09 2.400000000000000000e+02 8.467089999999999339e-02 5.000000000000000311e-10
1.490644932000000000e+09 2.400000000000000000e+02 8.353760000000000352e-02 5.000000000000000311e-10
1.490644934000000000e+09 2.400000000000000000e+02 8.457299999999999540e-02 5.000000000000000311e-10
1.490644936000000000e+09 2.400000000000000000e+02 8.460320000000000340e-02 5.000000000000000311e-10
1.490644938000000000e+09 2.400000000000000000e+02 8.374239999999999462e-02 5.000000000000000311e-10
1.490644940000000000e+09 2.400000000000000000e+02 8.620279999999999609e-02 5.000000000000000311e-10
1.490644942000000000e+09 2.400000000000000000e+02 8.553479999999999417e-02 5.000000000000000311e-10
1.490644944000000000e+09 2.400000000000000000e+02 8.877830000000000443e-02 5.000000000000000311e-10
1.490644946000000000e+09 2.400000000000000000e+02 8.727450000000000485e-02 5.000000000000000311e-10
1.490644948000000000e+09 2.400000000000000000e+02 9.264809999999999712e-02 5.000000000000000311e-10
1.490644950000000000e+09 2.400000000000000000e+02 9.383339999999999737e-02 5.000000000000000311e-10
1.490644952000000000e+09 2.400000000000000000e+02 8.744340000000000446e-02 5.000000000000000311e-10
1.490644954000000000e+09 2.400000000000000000e+02 8.661570000000000380e-02 5.000000000000000311e-10
1.490644956000000000e+09 2.400000000000000000e+02 8.658589999999999343e-02 5.000000000000000311e-10
1.490644958000000000e+09 2.400000000000000000e+02 8.354960000000000164e-02 5.000000000000000311e-10
1.490644960000000000e+09 2.400000000000000000e+02 8.708689999999999487e-02 5.000000000000000311e-10
1.490644962000000000e+09 2.400000000000000000e+02 8.682399999999999840e-02 5.000000000000000311e-10
1.490644964000000000e+09 2.400000000000000000e+02 8.793299999999999728e-02 5.000000000000000311e-10
1.490644966000000000e+09 2.400000000000000000e+02 9.209320000000000006e-02 5.000000000000000311e-10
1.490644968000000000e+09 2.400000000000000000e+02 8.438210000000000155e-02 5.000000000000000311e-10
1.490644970000000000e+09 2.400000000000000000e+02 8.986220000000000319e-02 5.000000000000000311e-10
1.490644972000000000e+09 2.400000000000000000e+02 8.146249999999999325e-02 5.000000000000000311e-10
1.490644974000000000e+09 2.400000000000000000e+02 8.897779999999999578e-02 5.000000000000000311e-10
1.490644976000000000e+09 2.400000000000000000e+02 8.418950000000000045e-02 5.000000000000000311e-10
1.490644978000000000e+09 2.400000000000000000e+02 9.224019999999999442e-02 5.000000000000000311e-10
1.490644980000000000e+09 2.400000000000000000e+02 8.957439999999999847e-02 5.000000000000000311e-10
1.490644982000000000e+09 2.400000000000000000e+02 8.981300000000000394e-02 5.000000000000000311e-10
1.490644984000000000e+09 2.400000000000000000e+02 8.647090000000000332e-02 5.000000000000000311e-10
1.490644986000000000e+09 2.400000000000000000e+02 8.875349999999999906e-02 5.000000000000000311e-10
1.490644988000000000e+09 2.400000000000000000e+02 8.767650000000000443e-02 5.000000000000000311e-10
1.490644990000000000e+09 2.400000000000000000e+02 8.416200000000000070e-02 5.000000000000000311e-10
1.490644992000000000e+09 2.400000000000000000e+02 8.775779999999999692e-02 5.000000000000000311e-10
1.490644994000000000e+09 2.400000000000000000e+02 8.388110000000000011e-02 5.000000000000000311e-10
1.490644996000000000e+09 2.400000000000000000e+02 8.803510000000000502e-02 5.000000000000000311e-10
1.490644998000000000e+09 2.400000000000000000e+02 8.719090000000000173e-02 5.000000000000000311e-10
1.490645000000000000e+09 2.400000000000000000e+02 8.774859999999999605e-02 5.000000000000000311e-10
1.490645002000000000e+09 2.400000000000000000e+02 8.064630000000000409e-02 5.000000000000000311e-10
1.490645004000000000e+09 2.400000000000000000e+02 8.693929999999999714e-02 5.000000000000000311e-10
1.490645006000000000e+09 2.400000000000000000e+02 8.541559999999999431e-02 5.000000000000000311e-10
1.490645008000000000e+09 2.400000000000000000e+02 8.238959999999999340e-02 5.000000000000000311e-10
1.490645010000000000e+09 2.400000000000000000e+02 8.768990000000000118e-02 5.000000000000000311e-10
1.490645012000000000e+09 2.400000000000000000e+02 8.727260000000000573e-02 5.000000000000000311e-10
1.490645014000000000e+09 2.400000000000000000e+02 9.338739999999999541e-02 5.000000000000000311e-10
1.490645016000000000e+09 2.400000000000000000e+02 8.620189999999999797e-02 5.000000000000000311e-10
1.490645018000000000e+09 2.400000000000000000e+02 9.042129999999999612e-02 5.000000000000000311e-10
1.490645020000000000e+09 2.400000000000000000e+02 8.889220000000000454e-02 5.000000000000000311e-10
1.490645022000000000e+09 2.400000000000000000e+02 9.333790000000000142e-02 5.000000000000000311e-10
1.490645024000000000e+09 2.400000000000000000e+02 9.003460000000000629e-02 5.000000000000000311e-10
1.490645026000000000e+09 2.400000000000000000e+02 9.089319999999999344e-02 5.000000000000000311e-10
1.490645028000000000e+09 2.400000000000000000e+02 8.854969999999999508e-02 5.000000000000000311e-10
1.490645030000000000e+09 2.400000000000000000e+02 8.672720000000000429e-02 5.000000000000000311e-10
1.490645032000000000e+09 2.400000000000000000e+02 8.882589999999999930e-02 5.000000000000000311e-10
1.490645034000000000e+09 2.400000000000000000e+02 8.365060000000000551e-02 5.000000000000000311e-10
1.490645036000000000e+09 2.400000000000000000e+02 8.758610000000000007e-02 5.000000000000000311e-10
1.490645038000000000e+09 2.400000000000000000e+02 9.131530000000000202e-02 5.000000000000000311e-10
1.490645040000000000e+09 2.400000000000000000e+02 8.843550000000000022e-02 5.000000000000000311e-10
1.490645042000000000e+09 2.400000000000000000e+02 8.882550000000000168e-02 5.000000000000000311e-10
1.490645044000000000e+09 2.400000000000000000e+02 8.238470000000000515e-02 5.000000000000000311e-10
1.490645046000000000e+09 2.400000000000000000e+02 8.689080000000000414e-02 5.000000000000000311e-10
1.490645048000000000e+09 2.400000000000000000e+02 8.590680000000000538e-02 5.000000000000000311e-10
1.490645050000000000e+09 2.400000000000000000e+02 8.501960000000000073e-02 5.000000000000000311e-10
1.490645052000000000e+09 2.400000000000000000e+02 9.050270000000000536e-02 5.000000000000000311e-10
1.490645054000000000e+09 2.400000000000000000e+02 8.889690000000000092e-02 5.000000000000000311e-10
1.490645056000000000e+09 2.400000000000000000e+02 8.794430000000000303e-02 5.000000000000000311e-10
1.490645058000000000e+09 2.400000000000000000e+02 9.378659999999999775e-02 5.000000000000000311e-10
1.490645060000000000e+09 2.400000000000000000e+02 9.192599999999999383e-02 5.000000000000000311e-10
1.490645062000000000e+09 2.400000000000000000e+02 8.845039999999999847e-02 5.000000000000000311e-10
1.490645064000000000e+09 2.400000000000000000e+02 9.032900000000000651e-02 5.000000000000000311e-10
1.490645066000000000e+09 2.400000000000000000e+02 8.889859999999999429e-02 5.000000000000000311e-10
1.490645068000000000e+09 2.400000000000000000e+02 9.285140000000000060e-02 5.000000000000000311e-10
1.490645070000000000e+09 2.400000000000000000e+02 8.348010000000000153e-02 5.000000000000000311e-10
1.490645072000000000e+09 2.400000000000000000e+02 8.697140000000000426e-02 5.000000000000000311e-10
1.490645074000000000e+09 2.400000000000000000e+02 8.998490000000000655e-02 5.000000000000000311e-10
1.490645076000000000e+09 2.400000000000000000e+02 8.777999999999999692e-02 5.000000000000000311e-10
1.490645078000000000e+09 2.400000000000000000e+02 9.342910000000000104e-02 5.000000000000000311e-10
1.490645080000000000e+09 2.400000000000000000e+02 8.981020000000000669e-02 5.000000000000000311e-10
1.490645082000000000e+09 2.400000000000000000e+02 8.512780000000000347e-02 5.000000000000000311e-10
1.490645084000000000e+09 2.400000000000000000e+02 8.705799999999999650e-02 5.000000000000000311e-10
1.490645086000000000e+09 2.400000000000000000e+02 9.056409999999999461e-02 5.000000000000000311e-10
1.490645088000000000e+09 2.400000000000000000e+02 8.179089999999999971e-02 5.000000000000000311e-10
1.490645090000000000e+09 2.400000000000000000e+02 9.036189999999999500e-02 5.000000000000000311e-10
1.490645092000000000e+09 2.400000000000000000e+02 9.071410000000000584e-02 5.000000000000000311e-10
1.490645094000000000e+09 2.400000000000000000e+02 8.748480000000000145e-02 5.000000000000000311e-10
1.490645096000000000e+09 2.400000000000000000e+02 8.485499999999999987e-02 5.000000000000000311e-10
1.490645098000000000e+09 2.400000000000000000e+02 8.483949999999999825e-02 5.000000000000000311e-10
1.490645100000000000e+09 2.400000000000000000e+02 9.114170000000000604e-02 5.000000000000000311e-10
1.490645102000000000e+09 2.400000000000000000e+02 8.615340000000000498e-02 5.000000000000000311e-10
1.490645104000000000e+09 2.400000000000000000e+02 8.573980000000000490e-02 5.000000000000000311e-10
1.490645106000000000e+09 2.400000000000000000e+02 9.314509999999999457e-02 5.000000000000000311e-10
1.490645108000000000e+09 2.400000000000000000e+02 9.095459999999999656e-02 5.000000000000000311e-10
1.490645110000000000e+09 2.400000000000000000e+02 9.001130000000000242e-02 5.000000000000000311e-10
1.490645112000000000e+09 2.400000000000000000e+02 9.869360000000000632e-02 5.000000000000000311e-10
1.490645114000000000e+09 2.400000000000000000e+02 8.617170000000000385e-02 5.000000000000000311e-10
1.490645116000000000e+09 2.400000000000000000e+02 8.745690000000000408e-02 5.000000000000000311e-10
1.490645118000000000e+09 2.400000000000000000e+02 8.900070000000000203e-02 5.000000000000000311e-10
1.490645120000000000e+09 2.400000000000000000e+02 8.961560000000000359e-02 5.000000000000000311e-10
1.490645122000000000e+09 2.400000000000000000e+02 8.753450000000000120e-02 5.000000000000000311e-10
1.490645124000000000e+09 2.400000000000000000e+02 9.239700000000000690e-02 5.000000000000000311e-10
1.490645126000000000e+09 2.400000000000000000e+02 8.347839999999999427e-02 5.000000000000000311e-10
1.490645128000000000e+09 2.400000000000000000e+02 9.175120000000000497e-02 5.000000000000000311e-10
1.490645130000000000e+09 2.400000000000000000e+02 9.113649999999999529e-02 5.000000000000000311e-10
1.490645132000000000e+09 2.400000000000000000e+02 9.279869999999999786e-02 5.000000000000000311e-10
1.490645134000000000e+09 2.400000000000000000e+02 9.361619999999999664e-02 5.000000000000000311e-10
1.490645136000000000e+09 2.400000000000000000e+02 8.946990000000000498e-02 5.000000000000000311e-10
1.490645138000000000e+09 2.400000000000000000e+02 9.540590000000000181e-02 5.000000000000000311e-10
1.490645140000000000e+09 2.400000000000000000e+02 8.252950000000000563e-02 5.000000000000000311e-10
1.490645142000000000e+09 2.400000000000000000e+02 8.890670000000000517e-02 5.000000000000000311e-10
1.490645144000000000e+09 2.400000000000000000e+02 8.925579999999999625e-02 5.000000000000000311e-10
1.490645146000000000e+09 2.400000000000000000e+02 9.156079999999999774e-02 5.000000000000000311e-10
1.490645148000000000e+09 2.400000000000000000e+02 8.614479999999999360e-02 5.000000000000000311e-10
1.490645150000000000e+09 2.400000000000000000e+02 9.139740000000000364e-02 5.000000000000000311e-10
1.490645152000000000e+09 2.400000000000000000e+02 8.988649999999999418e-02 5.000000000000000311e-10
1.490645154000000000e+09 2.400000000000000000e+02 8.688680000000000014e-02 5.000000000000000311e-10
1.490645156000000000e+09 2.400000000000000000e+02 8.813479999999999925e-02 5.000000000000000311e-10
1.490645158000000000e+09 2.400000000000000000e+02 8.788650000000000628e-02 5.000000000000000311e-10
1.490645160000000000e+09 2.400000000000000000e+02 8.653139999999999443e-02 5.000000000000000311e-10
1.490645162000000000e+09 2.400000000000000000e+02 8.856600000000000583e-02 5.000000000000000311e-10
1.490645164000000000e+09 2.400000000000000000e+02 8.556479999999999642e-02 5.000000000000000311e-10
1.490645166000000000e+09 2.400000000000000000e+02 8.378049999999999387e-02 5.000000000000000311e-10
1.490645168000000000e+09 2.400000000000000000e+02 8.272880000000000511e-02 5.000000000000000311e-10
1.490645170000000000e+09 2.400000000000000000e+02 8.336019999999999541e-02 5.000000000000000311e-10
1.490645172000000000e+09 2.400000000000000000e+02 8.491060000000000274e-02 5.000000000000000311e-10
1.490645174000000000e+09 2.400000000000000000e+02 8.149389999999999412e-02 5.000000000000000311e-10
1.490645176000000000e+09 2.400000000000000000e+02 8.521850000000000258e-02 5.000000000000000311e-10
1.490645178000000000e+09 2.400000000000000000e+02 7.964319999999999733e-02 5.000000000000000311e-10
1.490645180000000000e+09 2.400000000000000000e+02 8.334080000000000654e-02 5.000000000000000311e-10
1.490645182000000000e+09 2.400000000000000000e+02 8.358859999999999901e-02 5.000000000000000311e-10
1.490645184000000000e+09 2.400000000000000000e+02 8.080130000000000645e-02 5.000000000000000311e-10
1.490645186000000000e+09 2.400000000000000000e+02 8.120679999999999565e-02 5.000000000000000311e-10
1.490645188000000000e+09 2.400000000000000000e+02 8.701359999999999650e-02 5.000000000000000311e-10
1.490645190000000000e+09 2.400000000000000000e+02 7.943989999999999385e-02 5.000000000000000311e-10
1.490645192000000000e+09 2.400000000000000000e+02 7.707200000000000162e-02 5.000000000000000311e-10
1.490645194000000000e+09 2.400000000000000000e+02 8.066829999999999834e-02 5.000000000000000311e-10
1.490645196000000000e+09 2.400000000000000000e+02 8.323369999999999380e-02 5.000000000000000311e-10
1.490645198000000000e+09 2.400000000000000000e+02 8.331869999999999554e-02 5.000000000000000311e-10
1.490645200000000000e+09 2.400000000000000000e+02 8.294250000000000234e-02 5.000000000000000311e-10
1.490645202000000000e+09 2.400000000000000000e+02 8.642160000000000120e-02 5.000000000000000311e-10
1.490645204000000000e+09 2.400000000000000000e+02 8.888719999999999954e-02 5.000000000000000311e-10
1.490645206000000000e+09 2.400000000000000000e+02 9.007099999999999829e-02 5.000000000000000311e-10
1.490645208000000000e+09 2.400000000000000000e+02 9.097660000000000469e-02 5.000000000000000311e-10
1.490645210000000000e+09 2.400000000000000000e+02 8.128040000000000265e-02 5.000000000000000311e-10
1.490645212000000000e+09 2.400000000000000000e+02 9.044549999999999812e-02 5.000000000000000311e-10
1.490645214000000000e+09 2.400000000000000000e+02 8.260530000000000650e-02 5.000000000000000311e-10
1.490645216000000000e+09 2.400000000000000000e+02 8.417209999999999970e-02 5.000000000000000311e-10
1.490645218000000000e+09 2.400000000000000000e+02 8.634239999999999970e-02 5.000000000000000311e-10
1.490645220000000000e+09 2.400000000000000000e+02 8.490440000000000487e-02 5.000000000000000311e-10
1.490645222000000000e+09 2.400000000000000000e+02 8.735940000000000372e-02 5.000000000000000311e-10
1.490645224000000000e+09 2.400000000000000000e+02 8.082870000000000332e-02 5.000000000000000311e-10
1.490645226000000000e+09 2.400000000000000000e+02 8.736919999999999409e-02 5.000000000000000311e-10
1.490645228000000000e+09 2.400000000000000000e+02 8.079329999999999845e-02 5.000000000000000311e-10
1.490645230000000000e+09 2.400000000000000000e+02 8.775789999999999980e-02 5.000000000000000311e-10
1.490645232000000000e+09 2.400000000000000000e+02 8.622730000000000672e-02 5.000000000000000311e-10
1.490645234000000000e+09 2.400000000000000000e+02 9.120330000000000104e-02 5.000000000000000311e-10
1.490645236000000000e+09 2.400000000000000000e+02 8.348609999999999365e-02 5.000000000000000311e-10
1.490645238000000000e+09 2.400000000000000000e+02 7.681770000000000265e-02 5.000000000000000311e-10
1.490645240000000000e+09 2.400000000000000000e+02 7.890220000000000566e-02 5.000000000000000311e-10
1.490645242000000000e+09 2.400000000000000000e+02 8.020770000000000677e-02 5.000000000000000311e-10
1.490645244000000000e+09 2.400000000000000000e+02 8.131249999999999589e-02 5.000000000000000311e-10
1.490645246000000000e+09 2.400000000000000000e+02 7.997150000000000092e-02 5.000000000000000311e-10
1.490645248000000000e+09 2.400000000000000000e+02 8.289019999999999722e-02 5.000000000000000311e-10
1.490645250000000000e+09 2.400000000000000000e+02 8.984749999999999681e-02 5.000000000000000311e-10
1.490645252000000000e+09 2.400000000000000000e+02 8.783169999999999866e-02 5.000000000000000311e-10
1.490645254000000000e+09 2.400000000000000000e+02 8.481279999999999375e-02 5.000000000000000311e-10
1.490645256000000000e+09 2.400000000000000000e+02 8.597660000000000025e-02 5.000000000000000311e-10
1.490645258000000000e+09 2.400000000000000000e+02 8.622509999999999897e-02 5.000000000000000311e-10
1.490645260000000000e+09 2.400000000000000000e+02 8.658059999999999368e-02 5.000000000000000311e-10
1.490645262000000000e+09 2.400000000000000000e+02 8.670970000000000066e-02 5.000000000000000311e-10
1.490645264000000000e+09 2.400000000000000000e+02 8.608680000000000498e-02 5.000000000000000311e-10
1.490645266000000000e+09 2.400000000000000000e+02 9.208769999999999456e-02 5.000000000000000311e-10
1.490645268000000000e+09 2.400000000000000000e+02 8.578850000000000364e-02 5.000000000000000311e-10
1.490645270000000000e+09 2.400000000000000000e+02 8.825289999999999524e-02 5.000000000000000311e-10
1.490645272000000000e+09 2.400000000000000000e+02 8.952209999999999335e-02 5.000000000000000311e-10
1.490645274000000000e+09 2.400000000000000000e+02 8.918420000000000514e-02 5.000000000000000311e-10
1.490645276000000000e+09 2.400000000000000000e+02 8.634890000000000621e-02 5.000000000000000311e-10
1.490645278000000000e+09 2.400000000000000000e+02 9.046600000000000474e-02 5.000000000000000311e-10
1.490645280000000000e+09 2.400000000000000000e+02 8.590129999999999988e-02 5.000000000000000311e-10
1.490645282000000000e+09 2.400000000000000000e+02 8.822090000000000487e-02 5.000000000000000311e-10
1.490645284000000000e+09 2.400000000000000000e+02 8.562590000000000479e-02 5.000000000000000311e-10
1.490645286000000000e+09 2.400000000000000000e+02 9.095920000000000394e-02 5.000000000000000311e-10
1.490645288000000000e+09 2.400000000000000000e+02 8.841770000000000185e-02 5.000000000000000311e-10
1.490645290000000000e+09 2.400000000000000000e+02 8.593320000000000125e-02 5.000000000000000311e-10
1.490645292000000000e+09 2.400000000000000000e+02 8.614220000000000210e-02 5.000000000000000311e-10
1.490645294000000000e+09 2.400000000000000000e+02 8.761240000000000694e-02 5.000000000000000311e-10
1.490645296000000000e+09 2.400000000000000000e+02 8.558190000000000242e-02 5.000000000000000311e-10
1.490645298000000000e+09 2.400000000000000000e+02 8.555139999999999967e-02 5.000000000000000311e-10
1.490645300000000000e+09 2.400000000000000000e+02 9.148040000000000338e-02 5.000000000000000311e-10
1.490645302000000000e+09 2.400000000000000000e+02 8.212060000000000193e-02 5.000000000000000311e-10
1.490645304000000000e+09 2.400000000000000000e+02 8.592629999999999713e-02 5.000000000000000311e-10
1.490645306000000000e+09 2.400000000000000000e+02 8.510660000000000447e-02 5.000000000000000311e-10
1.490645308000000000e+09 2.400000000000000000e+02 8.194840000000000457e-02 5.000000000000000311e-10
1.490645310000000000e+09 2.400000000000000000e+02 8.015529999999999877e-02 5.000000000000000311e-10
1.490645312000000000e+09 2.400000000000000000e+02 8.316510000000000569e-02 5.000000000000000311e-10
1.490645314000000000e+09 2.400000000000000000e+02 8.718720000000000636e-02 5.000000000000000311e-10
1.490645316000000000e+09 2.400000000000000000e+02 8.502110000000000223e-02 5.000000000000000311e-10
1.490645318000000000e+09 2.400000000000000000e+02 8.715349999999999486e-02 5.000000000000000311e-10
1.490645320000000000e+09 2.400000000000000000e+02 8.909400000000000652e-02 5.000000000000000311e-10
1.490645322000000000e+09 2.400000000000000000e+02 8.893360000000000154e-02 5.000000000000000311e-10
1.490645324000000000e+09 2.400000000000000000e+02 8.660729999999999817e-02 5.000000000000000311e-10
1.490645326000000000e+09 2.400000000000000000e+02 8.517059999999999909e-02 5.000000000000000311e-10
1.490645328000000000e+09 2.400000000000000000e+02 8.340770000000000128e-02 5.000000000000000311e-10
1.490645330000000000e+09 2.400000000000000000e+02 8.032179999999999875e-02 5.000000000000000311e-10
1.490645332000000000e+09 2.400000000000000000e+02 8.145869999999999500e-02 5.000000000000000311e-10
1.490645334000000000e+09 2.400000000000000000e+02 8.462980000000000502e-02 5.000000000000000311e-10
1.490645336000000000e+09 2.400000000000000000e+02 7.733729999999999771e-02 5.000000000000000311e-10
1.490645338000000000e+09 2.400000000000000000e+02 8.315870000000000206e-02 5.000000000000000311e-10
1.490645340000000000e+09 2.400000000000000000e+02 8.288310000000000122e-02 5.000000000000000311e-10
1.490645342000000000e+09 2.400000000000000000e+02 8.473120000000000651e-02 5.000000000000000311e-10
1.490645344000000000e+09 2.400000000000000000e+02 8.502419999999999423e-02 5.000000000000000311e-10
1.490645346000000000e+09 2.400000000000000000e+02 8.240859999999999852e-02 5.000000000000000311e-10
1.490645348000000000e+09 2.400000000000000000e+02 7.938330000000000386e-02 5.000000000000000311e-10
1.490645350000000000e+09 2.400000000000000000e+02 8.410750000000000171e-02 5.000000000000000311e-10
1.490645352000000000e+09 2.400000000000000000e+02 8.395410000000000372e-02 5.000000000000000311e-10
1.490645354000000000e+09 2.400000000000000000e+02 8.442330000000000667e-02 5.000000000000000311e-10
1.490645356000000000e+09 2.400000000000000000e+02 8.581070000000000364e-02 5.000000000000000311e-10
1.490645358000000000e+09 2.400000000000000000e+02 8.472739999999999438e-02 5.000000000000000311e-10
1.490645360000000000e+09 2.400000000000000000e+02 8.790389999999999315e-02 5.000000000000000311e-10
1.490645362000000000e+09 2.400000000000000000e+02 8.097530000000000006e-02 5.000000000000000311e-10
1.490645364000000000e+09 2.400000000000000000e+02 8.656110000000000193e-02 5.000000000000000311e-10
1.490645366000000000e+09 2.400000000000000000e+02 8.730839999999999435e-02 5.000000000000000311e-10
1.490645368000000000e+09 2.400000000000000000e+02 8.793259999999999965e-02 5.000000000000000311e-10
1.490645370000000000e+09 2.400000000000000000e+02 8.057960000000000123e-02 5.000000000000000311e-10
1.490645372000000000e+09 2.400000000000000000e+02 8.723670000000000035e-02 5.000000000000000311e-10
1.490645374000000000e+09 2.400000000000000000e+02 8.289960000000000384e-02 5.000000000000000311e-10
1.490645376000000000e+09 2.400000000000000000e+02 8.801040000000000252e-02 5.000000000000000311e-10
1.490645378000000000e+09 2.400000000000000000e+02 8.894820000000000504e-02 5.000000000000000311e-10
1.490645380000000000e+09 2.400000000000000000e+02 8.489530000000000687e-02 5.000000000000000311e-10
1.490645382000000000e+09 2.400000000000000000e+02 7.699749999999999650e-02 5.000000000000000311e-10
1.490645384000000000e+09 2.400000000000000000e+02 8.834430000000000061e-02 5.000000000000000311e-10
1.490645386000000000e+09 2.400000000000000000e+02 8.515670000000000184e-02 5.000000000000000311e-10
1.490645388000000000e+09 2.400000000000000000e+02 8.772040000000000393e-02 5.000000000000000311e-10
1.490645390000000000e+09 2.400000000000000000e+02 8.732339999999999547e-02 5.000000000000000311e-10
1.490645392000000000e+09 2.400000000000000000e+02 8.938690000000000524e-02 5.000000000000000311e-10
1.490645394000000000e+09 2.400000000000000000e+02 8.502800000000000635e-02 5.000000000000000311e-10
1.490645396000000000e+09 2.400000000000000000e+02 8.758520000000000194e-02 5.000000000000000311e-10
1.490645398000000000e+09 2.400000000000000000e+02 8.993470000000000630e-02 5.000000000000000311e-10
1.490645400000000000e+09 2.400000000000000000e+02 8.427819999999999756e-02 5.000000000000000311e-10
1.490645402000000000e+09 2.400000000000000000e+02 8.221080000000000054e-02 5.000000000000000311e-10
1.490645404000000000e+09 2.400000000000000000e+02 8.785709999999999353e-02 5.000000000000000311e-10
1.490645406000000000e+09 2.400000000000000000e+02 8.180819999999999759e-02 5.000000000000000311e-10
1.490645408000000000e+09 2.400000000000000000e+02 8.343100000000000516e-02 5.000000000000000311e-10
1.490645410000000000e+09 2.400000000000000000e+02 8.312340000000000007e-02 5.000000000000000311e-10
1.490645412000000000e+09 2.400000000000000000e+02 7.925980000000000525e-02 5.000000000000000311e-10
1.490645414000000000e+09 2.400000000000000000e+02 8.630290000000000183e-02 5.000000000000000311e-10
1.490645416000000000e+09 2.400000000000000000e+02 8.634949999999999570e-02 5.000000000000000311e-10
1.490645418000000000e+09 2.400000000000000000e+02 7.994030000000000580e-02 5.000000000000000311e-10
1.490645420000000000e+09 2.400000000000000000e+02 8.749869999999999870e-02 5.000000000000000311e-10
