# tags                 xfel_bl_3_st_2_motor_1/position xfel_bl_3_st_2_pd_user_4_fitting_peak/voltage xfel_bl_3_st_2_pd_user_4_fitting_peak/gainC
1.486860596000000000e+09 -1.400000000000000000e+02 0.000000000000000000e+00 5.000000000000000182e-11
1.486860598000000000e+09 -1.400000000000000000e+02 0.000000000000000000e+00 5.000000000000000182e-11
1.486860600000000000e+09 -1.400000000000000000e+02 0.000000000000000000e+00 5.000000000000000182e-11
1.486860602000000000e+09 -1.400000000000000000e+02 0.000000000000000000e+00 5.000000000000000182e-11
1.486860604000000000e+09 -1.400000000000000000e+02 0.000000000000000000e+00 5.000000000000000182e-11
1.486860606000000000e+09 -1.400000000000000000e+02 0.000000000000000000e+00 5.000000000000000182e-11
1.486860608000000000e+09 -1.400000000000000000e+02 0.000000000000000000e+00 5.000000000000000182e-11
1.486860610000000000e+09 -1.400000000000000000e+02 0.000000000000000000e+00 5.000000000000000182e-11
1.486860612000000000e+09 -1.400000000000000000e+02 0.000000000000000000e+00 5.000000000000000182e-11
1.486860614000000000e+09 -1.400000000000000000e+02 0.000000000000000000e+00 5.000000000000000182e-11
1.486860616000000000e+09 -1.400000000000000000e+02 0.000000000000000000e+00 5.000000000000000182e-11
1.486860618000000000e+09 -1.400000000000000000e+02 0.000000000000000000e+00 5.000000000000000182e-11
1.486860620000000000e+09 -1.400000000000000000e+02 0.000000000000000000e+00 5.000000000000000182e-11
1.486860622000000000e+09 -1.400000000000000000e+02 0.000000000000000000e+00 5.000000000000000182e-11
1.486860624000000000e+09 -1.400000000000000000e+02 0.000000000000000000e+00 5.000000000000000182e-11
1.486860626000000000e+09 -1.400000000000000000e+02 0.000000000000000000e+00 5.000000000000000182e-11
1.486860628000000000e+09 -1.400000000000000000e+02 0.000000000000000000e+00 5.000000000000000182e-11
1.486860630000000000e+09 -1.400000000000000000e+02 0.000000000000000000e+00 5.000000000000000182e-11
1.486860632000000000e+09 -1.400000000000000000e+02 0.000000000000000000e+00 5.000000000000000182e-11
1.486860634000000000e+09 -1.400000000000000000e+02 0.000000000000000000e+00 5.000000000000000182e-11
1.486860636000000000e+09 -1.400000000000000000e+02 0.000000000000000000e+00 5.000000000000000182e-11
1.486860638000000000e+09 -1.400000000000000000e+02 0.000000000000000000e+00 5.000000000000000182e-11
1.486860640000000000e+09 -1.400000000000000000e+02 0.000000000000000000e+00 5.000000000000000182e-11
1.486860642000000000e+09 -1.400000000000000000e+02 0.000000000000000000e+00 5.000000000000000182e-11
1.486860644000000000e+09 -1.400000000000000000e+02 0.000000000000000000e+00 5.000000000000000182e-11
1.486860646000000000e+09 -1.400000000000000000e+02 0.000000000000000000e+00 5.000000000000000182e-11
1.486860648000000000e+09 -1.400000000000000000e+02 0.000000000000000000e+00 5.000000000000000182e-11
1.486860650000000000e+09 -1.400000000000000000e+02 0.000000000000000000e+00 5.000000000000000182e-11
1.486860652000000000e+09 -1.400000000000000000e+02 0.000000000000000000e+00 5.000000000000000182e-11
1.486860654000000000e+09 -1.400000000000000000e+02 0.000000000000000000e+00 5.000000000000000182e-11
1.486860656000000000e+09 -1.400000000000000000e+02 0.000000000000000000e+00 5.000000000000000182e-11
1.486860658000000000e+09 -1.400000000000000000e+02 0.000000000000000000e+00 5.000000000000000182e-11
1.486860660000000000e+09 -1.400000000000000000e+02 0.000000000000000000e+00 5.000000000000000182e-11
1.486860662000000000e+09 -1.400000000000000000e+02 0.000000000000000000e+00 5.000000000000000182e-11
1.486860664000000000e+09 -1.400000000000000000e+02 0.000000000000000000e+00 5.000000000000000182e-11
1.486860666000000000e+09 -1.400000000000000000e+02 0.000000000000000000e+00 5.000000000000000182e-11
1.486860668000000000e+09 -1.400000000000000000e+02 0.000000000000000000e+00 5.000000000000000182e-11
1.486860670000000000e+09 -1.400000000000000000e+02 0.000000000000000000e+00 5.000000000000000182e-11
1.486860672000000000e+09 -1.400000000000000000e+02 0.000000000000000000e+00 5.000000000000000182e-11
1.486860674000000000e+09 -1.400000000000000000e+02 0.000000000000000000e+00 5.000000000000000182e-11
1.486860676000000000e+09 -1.400000000000000000e+02 0.000000000000000000e+00 5.000000000000000182e-11
1.486860678000000000e+09 -1.400000000000000000e+02 0.000000000000000000e+00 5.000000000000000182e-11
1.486860680000000000e+09 -1.400000000000000000e+02 0.000000000000000000e+00 5.000000000000000182e-11
1.486860682000000000e+09 -1.400000000000000000e+02 0.000000000000000000e+00 5.000000000000000182e-11
1.486860684000000000e+09 -1.400000000000000000e+02 0.000000000000000000e+00 5.000000000000000182e-11
1.486860686000000000e+09 -1.400000000000000000e+02 0.000000000000000000e+00 5.000000000000000182e-11
1.486860688000000000e+09 -1.400000000000000000e+02 0.000000000000000000e+00 5.000000000000000182e-11
1.486860690000000000e+09 -1.400000000000000000e+02 0.000000000000000000e+00 5.000000000000000182e-11
1.486860692000000000e+09 -1.400000000000000000e+02 0.000000000000000000e+00 5.000000000000000182e-11
1.486860694000000000e+09 -1.400000000000000000e+02 0.000000000000000000e+00 5.000000000000000182e-11
1.486860696000000000e+09 -1.400000000000000000e+02 0.000000000000000000e+00 5.000000000000000182e-11
1.486860698000000000e+09 -1.400000000000000000e+02 2.124440000000000009e-03 5.000000000000000182e-11
1.486860700000000000e+09 -1.400000000000000000e+02 0.000000000000000000e+00 5.000000000000000182e-11
1.486860702000000000e+09 -1.400000000000000000e+02 0.000000000000000000e+00 5.000000000000000182e-11
1.486860704000000000e+09 -1.400000000000000000e+02 0.000000000000000000e+00 5.000000000000000182e-11
1.486860706000000000e+09 -1.400000000000000000e+02 0.000000000000000000e+00 5.000000000000000182e-11
1.486860708000000000e+09 -1.400000000000000000e+02 0.000000000000000000e+00 5.000000000000000182e-11
1.486860710000000000e+09 -1.400000000000000000e+02 0.000000000000000000e+00 5.000000000000000182e-11
1.486860712000000000e+09 -1.400000000000000000e+02 0.000000000000000000e+00 5.000000000000000182e-11
1.486860714000000000e+09 -1.400000000000000000e+02 0.000000000000000000e+00 5.000000000000000182e-11
1.486860716000000000e+09 -1.400000000000000000e+02 0.000000000000000000e+00 5.000000000000000182e-11
1.486860718000000000e+09 -1.400000000000000000e+02 0.000000000000000000e+00 5.000000000000000182e-11
1.486860720000000000e+09 -1.400000000000000000e+02 0.000000000000000000e+00 5.000000000000000182e-11
1.486860722000000000e+09 -1.400000000000000000e+02 0.000000000000000000e+00 5.000000000000000182e-11
1.486860724000000000e+09 -1.400000000000000000e+02 0.000000000000000000e+00 5.000000000000000182e-11
1.486860726000000000e+09 -1.400000000000000000e+02 0.000000000000000000e+00 5.000000000000000182e-11
1.486860728000000000e+09 -1.400000000000000000e+02 0.000000000000000000e+00 5.000000000000000182e-11
1.486860730000000000e+09 -1.400000000000000000e+02 0.000000000000000000e+00 5.000000000000000182e-11
1.486860732000000000e+09 -1.400000000000000000e+02 0.000000000000000000e+00 5.000000000000000182e-11
1.486860734000000000e+09 -1.400000000000000000e+02 0.000000000000000000e+00 5.000000000000000182e-11
1.486860736000000000e+09 -1.400000000000000000e+02 0.000000000000000000e+00 5.000000000000000182e-11
1.486860738000000000e+09 -1.400000000000000000e+02 0.000000000000000000e+00 5.000000000000000182e-11
1.486860740000000000e+09 -1.400000000000000000e+02 0.000000000000000000e+00 5.000000000000000182e-11
1.486860742000000000e+09 -1.400000000000000000e+02 0.000000000000000000e+00 5.000000000000000182e-11
1.486860744000000000e+09 -1.400000000000000000e+02 0.000000000000000000e+00 5.000000000000000182e-11
1.486860746000000000e+09 -1.400000000000000000e+02 0.000000000000000000e+00 5.000000000000000182e-11
1.486860748000000000e+09 -1.400000000000000000e+02 0.000000000000000000e+00 5.000000000000000182e-11
1.486860750000000000e+09 -1.400000000000000000e+02 0.000000000000000000e+00 5.000000000000000182e-11
1.486860752000000000e+09 -1.400000000000000000e+02 0.000000000000000000e+00 5.000000000000000182e-11
1.486860754000000000e+09 -1.400000000000000000e+02 3.532630000000000145e-03 5.000000000000000182e-11
1.486860756000000000e+09 -1.400000000000000000e+02 0.000000000000000000e+00 5.000000000000000182e-11
1.486860758000000000e+09 -1.400000000000000000e+02 0.000000000000000000e+00 5.000000000000000182e-11
1.486860760000000000e+09 -1.400000000000000000e+02 0.000000000000000000e+00 5.000000000000000182e-11
1.486860762000000000e+09 -1.400000000000000000e+02 0.000000000000000000e+00 5.000000000000000182e-11
1.486860764000000000e+09 -1.400000000000000000e+02 0.000000000000000000e+00 5.000000000000000182e-11
1.486860766000000000e+09 -1.400000000000000000e+02 0.000000000000000000e+00 5.000000000000000182e-11
1.486860768000000000e+09 -1.400000000000000000e+02 4.367730000000000278e-05 5.000000000000000182e-11
1.486860770000000000e+09 -1.400000000000000000e+02 0.000000000000000000e+00 5.000000000000000182e-11
1.486860772000000000e+09 -1.400000000000000000e+02 0.000000000000000000e+00 5.000000000000000182e-11
1.486860774000000000e+09 -1.400000000000000000e+02 0.000000000000000000e+00 5.000000000000000182e-11
1.486860776000000000e+09 -1.400000000000000000e+02 0.000000000000000000e+00 5.000000000000000182e-11
1.486860778000000000e+09 -1.400000000000000000e+02 0.000000000000000000e+00 5.000000000000000182e-11
1.486860780000000000e+09 -1.400000000000000000e+02 0.000000000000000000e+00 5.000000000000000182e-11
1.486860782000000000e+09 -1.400000000000000000e+02 0.000000000000000000e+00 5.000000000000000182e-11
1.486860784000000000e+09 -1.400000000000000000e+02 0.000000000000000000e+00 5.000000000000000182e-11
1.486860786000000000e+09 -1.400000000000000000e+02 0.000000000000000000e+00 5.000000000000000182e-11
1.486860788000000000e+09 -1.400000000000000000e+02 0.000000000000000000e+00 5.000000000000000182e-11
1.486860790000000000e+09 -1.400000000000000000e+02 0.000000000000000000e+00 5.000000000000000182e-11
1.486860792000000000e+09 -1.400000000000000000e+02 0.000000000000000000e+00 5.000000000000000182e-11
1.486860794000000000e+09 -1.400000000000000000e+02 8.986829999999999471e-05 5.000000000000000182e-11
1.486860796000000000e+09 -1.400000000000000000e+02 0.000000000000000000e+00 5.000000000000000182e-11
1.486860798000000000e+09 -1.400000000000000000e+02 0.000000000000000000e+00 5.000000000000000182e-11
1.486860800000000000e+09 -1.400000000000000000e+02 0.000000000000000000e+00 5.000000000000000182e-11
1.486860802000000000e+09 -1.400000000000000000e+02 0.000000000000000000e+00 5.000000000000000182e-11
1.486860804000000000e+09 -1.400000000000000000e+02 0.000000000000000000e+00 5.000000000000000182e-11
1.486860806000000000e+09 -1.400000000000000000e+02 0.000000000000000000e+00 5.000000000000000182e-11
1.486860808000000000e+09 -1.400000000000000000e+02 0.000000000000000000e+00 5.000000000000000182e-11
1.486860810000000000e+09 -1.400000000000000000e+02 0.000000000000000000e+00 5.000000000000000182e-11
1.486860812000000000e+09 -1.400000000000000000e+02 0.000000000000000000e+00 5.000000000000000182e-11
1.486860814000000000e+09 -1.400000000000000000e+02 0.000000000000000000e+00 5.000000000000000182e-11
1.486860816000000000e+09 -1.400000000000000000e+02 0.000000000000000000e+00 5.000000000000000182e-11
1.486860818000000000e+09 -1.400000000000000000e+02 2.328429999999999931e-04 5.000000000000000182e-11
1.486860820000000000e+09 -1.400000000000000000e+02 0.000000000000000000e+00 5.000000000000000182e-11
1.486860822000000000e+09 -1.400000000000000000e+02 0.000000000000000000e+00 5.000000000000000182e-11
1.486860824000000000e+09 -1.400000000000000000e+02 0.000000000000000000e+00 5.000000000000000182e-11
1.486860826000000000e+09 -1.400000000000000000e+02 0.000000000000000000e+00 5.000000000000000182e-11
1.486860828000000000e+09 -1.400000000000000000e+02 0.000000000000000000e+00 5.000000000000000182e-11
1.486860830000000000e+09 -1.400000000000000000e+02 0.000000000000000000e+00 5.000000000000000182e-11
1.486860832000000000e+09 -1.400000000000000000e+02 0.000000000000000000e+00 5.000000000000000182e-11
1.486860834000000000e+09 -1.400000000000000000e+02 0.000000000000000000e+00 5.000000000000000182e-11
1.486860836000000000e+09 -1.400000000000000000e+02 0.000000000000000000e+00 5.000000000000000182e-11
1.486860838000000000e+09 -1.400000000000000000e+02 0.000000000000000000e+00 5.000000000000000182e-11
1.486860840000000000e+09 -1.400000000000000000e+02 0.000000000000000000e+00 5.000000000000000182e-11
1.486860842000000000e+09 -1.400000000000000000e+02 0.000000000000000000e+00 5.000000000000000182e-11
1.486860844000000000e+09 -1.400000000000000000e+02 0.000000000000000000e+00 5.000000000000000182e-11
1.486860846000000000e+09 -1.400000000000000000e+02 0.000000000000000000e+00 5.000000000000000182e-11
1.486860848000000000e+09 -1.400000000000000000e+02 3.997960000000000055e-03 5.000000000000000182e-11
1.486860850000000000e+09 -1.400000000000000000e+02 0.000000000000000000e+00 5.000000000000000182e-11
1.486860852000000000e+09 -1.400000000000000000e+02 0.000000000000000000e+00 5.000000000000000182e-11
1.486860854000000000e+09 -1.400000000000000000e+02 0.000000000000000000e+00 5.000000000000000182e-11
1.486860856000000000e+09 -1.400000000000000000e+02 0.000000000000000000e+00 5.000000000000000182e-11
1.486860858000000000e+09 -1.400000000000000000e+02 0.000000000000000000e+00 5.000000000000000182e-11
1.486860860000000000e+09 -1.400000000000000000e+02 0.000000000000000000e+00 5.000000000000000182e-11
1.486860862000000000e+09 -1.400000000000000000e+02 0.000000000000000000e+00 5.000000000000000182e-11
1.486860864000000000e+09 -1.400000000000000000e+02 0.000000000000000000e+00 5.000000000000000182e-11
1.486860866000000000e+09 -1.400000000000000000e+02 0.000000000000000000e+00 5.000000000000000182e-11
1.486860868000000000e+09 -1.400000000000000000e+02 0.000000000000000000e+00 5.000000000000000182e-11
1.486860870000000000e+09 -1.400000000000000000e+02 0.000000000000000000e+00 5.000000000000000182e-11
1.486860872000000000e+09 -1.400000000000000000e+02 0.000000000000000000e+00 5.000000000000000182e-11
1.486860874000000000e+09 -1.400000000000000000e+02 0.000000000000000000e+00 5.000000000000000182e-11
1.486860876000000000e+09 -1.400000000000000000e+02 0.000000000000000000e+00 5.000000000000000182e-11
1.486860878000000000e+09 -1.400000000000000000e+02 5.750850000000000059e-03 5.000000000000000182e-11
1.486860880000000000e+09 -1.400000000000000000e+02 0.000000000000000000e+00 5.000000000000000182e-11
1.486860882000000000e+09 -1.400000000000000000e+02 0.000000000000000000e+00 5.000000000000000182e-11
1.486860884000000000e+09 -1.400000000000000000e+02 0.000000000000000000e+00 5.000000000000000182e-11
1.486860886000000000e+09 -1.400000000000000000e+02 0.000000000000000000e+00 5.000000000000000182e-11
1.486860888000000000e+09 -1.400000000000000000e+02 0.000000000000000000e+00 5.000000000000000182e-11
1.486860890000000000e+09 -1.400000000000000000e+02 0.000000000000000000e+00 5.000000000000000182e-11
1.486860892000000000e+09 -1.400000000000000000e+02 0.000000000000000000e+00 5.000000000000000182e-11
1.486860894000000000e+09 -1.400000000000000000e+02 0.000000000000000000e+00 5.000000000000000182e-11
1.486860896000000000e+09 -1.400000000000000000e+02 0.000000000000000000e+00 5.000000000000000182e-11
1.486860898000000000e+09 -1.400000000000000000e+02 0.000000000000000000e+00 5.000000000000000182e-11
1.486860900000000000e+09 -1.400000000000000000e+02 0.000000000000000000e+00 5.000000000000000182e-11
1.486860902000000000e+09 -1.400000000000000000e+02 0.000000000000000000e+00 5.000000000000000182e-11
1.486860904000000000e+09 -1.400000000000000000e+02 0.000000000000000000e+00 5.000000000000000182e-11
1.486860906000000000e+09 -1.400000000000000000e+02 0.000000000000000000e+00 5.000000000000000182e-11
1.486860908000000000e+09 -1.400000000000000000e+02 0.000000000000000000e+00 5.000000000000000182e-11
1.486860910000000000e+09 -1.400000000000000000e+02 0.000000000000000000e+00 5.000000000000000182e-11
1.486860912000000000e+09 -1.400000000000000000e+02 0.000000000000000000e+00 5.000000000000000182e-11
1.486860914000000000e+09 -1.400000000000000000e+02 0.000000000000000000e+00 5.000000000000000182e-11
1.486860916000000000e+09 -1.400000000000000000e+02 0.000000000000000000e+00 5.000000000000000182e-11
1.486860918000000000e+09 -1.400000000000000000e+02 0.000000000000000000e+00 5.000000000000000182e-11
1.486860920000000000e+09 -1.400000000000000000e+02 0.000000000000000000e+00 5.000000000000000182e-11
1.486860922000000000e+09 -1.400000000000000000e+02 0.000000000000000000e+00 5.000000000000000182e-11
1.486860924000000000e+09 -1.400000000000000000e+02 0.000000000000000000e+00 5.000000000000000182e-11
1.486860926000000000e+09 -1.400000000000000000e+02 0.000000000000000000e+00 5.000000000000000182e-11
1.486860928000000000e+09 -1.400000000000000000e+02 5.762980000000000012e-03 5.000000000000000182e-11
1.486860930000000000e+09 -1.400000000000000000e+02 0.000000000000000000e+00 5.000000000000000182e-11
1.486860932000000000e+09 -1.400000000000000000e+02 0.000000000000000000e+00 5.000000000000000182e-11
1.486860934000000000e+09 -1.400000000000000000e+02 0.000000000000000000e+00 5.000000000000000182e-11
1.486860936000000000e+09 -1.400000000000000000e+02 0.000000000000000000e+00 5.000000000000000182e-11
1.486860938000000000e+09 -1.400000000000000000e+02 0.000000000000000000e+00 5.000000000000000182e-11
1.486860940000000000e+09 -1.400000000000000000e+02 0.000000000000000000e+00 5.000000000000000182e-11
1.486860942000000000e+09 -1.400000000000000000e+02 0.000000000000000000e+00 5.000000000000000182e-11
1.486860944000000000e+09 -1.400000000000000000e+02 0.000000000000000000e+00 5.000000000000000182e-11
1.486860946000000000e+09 -1.400000000000000000e+02 0.000000000000000000e+00 5.000000000000000182e-11
1.486860948000000000e+09 -1.400000000000000000e+02 0.000000000000000000e+00 5.000000000000000182e-11
1.486860950000000000e+09 -1.400000000000000000e+02 0.000000000000000000e+00 5.000000000000000182e-11
1.486860952000000000e+09 -1.400000000000000000e+02 7.289620000000000127e-03 5.000000000000000182e-11
1.486860954000000000e+09 -1.400000000000000000e+02 0.000000000000000000e+00 5.000000000000000182e-11
1.486860956000000000e+09 -1.400000000000000000e+02 0.000000000000000000e+00 5.000000000000000182e-11
1.486860958000000000e+09 -1.400000000000000000e+02 0.000000000000000000e+00 5.000000000000000182e-11
1.486860960000000000e+09 -1.400000000000000000e+02 0.000000000000000000e+00 5.000000000000000182e-11
1.486860962000000000e+09 -1.400000000000000000e+02 0.000000000000000000e+00 5.000000000000000182e-11
1.486860964000000000e+09 -1.400000000000000000e+02 0.000000000000000000e+00 5.000000000000000182e-11
1.486860966000000000e+09 -1.400000000000000000e+02 0.000000000000000000e+00 5.000000000000000182e-11
1.486860968000000000e+09 -1.400000000000000000e+02 0.000000000000000000e+00 5.000000000000000182e-11
1.486860970000000000e+09 -1.400000000000000000e+02 0.000000000000000000e+00 5.000000000000000182e-11
1.486860972000000000e+09 -1.400000000000000000e+02 0.000000000000000000e+00 5.000000000000000182e-11
1.486860974000000000e+09 -1.400000000000000000e+02 0.000000000000000000e+00 5.000000000000000182e-11
1.486860976000000000e+09 -1.400000000000000000e+02 0.000000000000000000e+00 5.000000000000000182e-11
1.486860978000000000e+09 -1.400000000000000000e+02 0.000000000000000000e+00 5.000000000000000182e-11
1.486860980000000000e+09 -1.400000000000000000e+02 6.955839999999999593e-03 5.000000000000000182e-11
1.486860982000000000e+09 -1.400000000000000000e+02 0.000000000000000000e+00 5.000000000000000182e-11
1.486860984000000000e+09 -1.400000000000000000e+02 0.000000000000000000e+00 5.000000000000000182e-11
1.486860986000000000e+09 -1.400000000000000000e+02 0.000000000000000000e+00 5.000000000000000182e-11
1.486860988000000000e+09 -1.400000000000000000e+02 0.000000000000000000e+00 5.000000000000000182e-11
1.486860990000000000e+09 -1.400000000000000000e+02 0.000000000000000000e+00 5.000000000000000182e-11
1.486860992000000000e+09 -1.400000000000000000e+02 0.000000000000000000e+00 5.000000000000000182e-11
1.486860994000000000e+09 -1.400000000000000000e+02 0.000000000000000000e+00 5.000000000000000182e-11
1.486860996000000000e+09 -1.400000000000000000e+02 0.000000000000000000e+00 5.000000000000000182e-11
1.486860998000000000e+09 -1.400000000000000000e+02 1.538979999999999905e-03 5.000000000000000182e-11
1.486861000000000000e+09 -1.400000000000000000e+02 0.000000000000000000e+00 5.000000000000000182e-11
1.486861002000000000e+09 -1.400000000000000000e+02 0.000000000000000000e+00 5.000000000000000182e-11
1.486861004000000000e+09 -1.400000000000000000e+02 0.000000000000000000e+00 5.000000000000000182e-11
1.486861006000000000e+09 -1.400000000000000000e+02 0.000000000000000000e+00 5.000000000000000182e-11
1.486861008000000000e+09 -1.400000000000000000e+02 0.000000000000000000e+00 5.000000000000000182e-11
1.486861010000000000e+09 -1.400000000000000000e+02 0.000000000000000000e+00 5.000000000000000182e-11
1.486861012000000000e+09 -1.400000000000000000e+02 0.000000000000000000e+00 5.000000000000000182e-11
1.486861014000000000e+09 -1.400000000000000000e+02 0.000000000000000000e+00 5.000000000000000182e-11
1.486861016000000000e+09 -1.400000000000000000e+02 0.000000000000000000e+00 5.000000000000000182e-11
1.486861018000000000e+09 -1.400000000000000000e+02 0.000000000000000000e+00 5.000000000000000182e-11
1.486861020000000000e+09 -1.400000000000000000e+02 0.000000000000000000e+00 5.000000000000000182e-11
1.486861022000000000e+09 -1.400000000000000000e+02 0.000000000000000000e+00 5.000000000000000182e-11
1.486861024000000000e+09 -1.400000000000000000e+02 0.000000000000000000e+00 5.000000000000000182e-11
1.486861026000000000e+09 -1.400000000000000000e+02 0.000000000000000000e+00 5.000000000000000182e-11
1.486861028000000000e+09 -1.400000000000000000e+02 0.000000000000000000e+00 5.000000000000000182e-11
1.486861030000000000e+09 -1.400000000000000000e+02 0.000000000000000000e+00 5.000000000000000182e-11
1.486861032000000000e+09 -1.400000000000000000e+02 0.000000000000000000e+00 5.000000000000000182e-11
1.486861034000000000e+09 -1.400000000000000000e+02 0.000000000000000000e+00 5.000000000000000182e-11
1.486861036000000000e+09 -1.400000000000000000e+02 0.000000000000000000e+00 5.000000000000000182e-11
1.486861038000000000e+09 -1.400000000000000000e+02 0.000000000000000000e+00 5.000000000000000182e-11
1.486861040000000000e+09 -1.400000000000000000e+02 0.000000000000000000e+00 5.000000000000000182e-11
1.486861042000000000e+09 -1.400000000000000000e+02 0.000000000000000000e+00 5.000000000000000182e-11
1.486861044000000000e+09 -1.400000000000000000e+02 0.000000000000000000e+00 5.000000000000000182e-11
1.486861046000000000e+09 -1.400000000000000000e+02 0.000000000000000000e+00 5.000000000000000182e-11
1.486861048000000000e+09 -1.400000000000000000e+02 0.000000000000000000e+00 5.000000000000000182e-11
1.486861050000000000e+09 -1.400000000000000000e+02 0.000000000000000000e+00 5.000000000000000182e-11
1.486861052000000000e+09 -1.400000000000000000e+02 0.000000000000000000e+00 5.000000000000000182e-11
1.486861054000000000e+09 -1.400000000000000000e+02 0.000000000000000000e+00 5.000000000000000182e-11
1.486861056000000000e+09 -1.400000000000000000e+02 0.000000000000000000e+00 5.000000000000000182e-11
1.486861058000000000e+09 -1.400000000000000000e+02 0.000000000000000000e+00 5.000000000000000182e-11
1.486861060000000000e+09 -1.400000000000000000e+02 0.000000000000000000e+00 5.000000000000000182e-11
1.486861062000000000e+09 -1.400000000000000000e+02 0.000000000000000000e+00 5.000000000000000182e-11
1.486861064000000000e+09 -1.400000000000000000e+02 1.961080000000000028e-03 5.000000000000000182e-11
1.486861066000000000e+09 -1.400000000000000000e+02 0.000000000000000000e+00 5.000000000000000182e-11
1.486861068000000000e+09 -1.400000000000000000e+02 0.000000000000000000e+00 5.000000000000000182e-11
1.486861070000000000e+09 -1.400000000000000000e+02 0.000000000000000000e+00 5.000000000000000182e-11
1.486861072000000000e+09 -1.400000000000000000e+02 0.000000000000000000e+00 5.000000000000000182e-11
1.486861074000000000e+09 -1.400000000000000000e+02 0.000000000000000000e+00 5.000000000000000182e-11
1.486861076000000000e+09 -1.400000000000000000e+02 0.000000000000000000e+00 5.000000000000000182e-11
1.486861078000000000e+09 -1.400000000000000000e+02 0.000000000000000000e+00 5.000000000000000182e-11
1.486861080000000000e+09 -1.400000000000000000e+02 0.000000000000000000e+00 5.000000000000000182e-11
1.486861082000000000e+09 -1.400000000000000000e+02 0.000000000000000000e+00 5.000000000000000182e-11
1.486861084000000000e+09 -1.400000000000000000e+02 0.000000000000000000e+00 5.000000000000000182e-11
1.486861086000000000e+09 -1.400000000000000000e+02 0.000000000000000000e+00 5.000000000000000182e-11
1.486861088000000000e+09 -1.400000000000000000e+02 0.000000000000000000e+00 5.000000000000000182e-11
1.486861090000000000e+09 -1.400000000000000000e+02 0.000000000000000000e+00 5.000000000000000182e-11
1.486861092000000000e+09 -1.400000000000000000e+02 0.000000000000000000e+00 5.000000000000000182e-11
1.486861094000000000e+09 -1.400000000000000000e+02 0.000000000000000000e+00 5.000000000000000182e-11
1.486861096000000000e+09 -1.400000000000000000e+02 0.000000000000000000e+00 5.000000000000000182e-11
1.486861098000000000e+09 -1.400000000000000000e+02 0.000000000000000000e+00 5.000000000000000182e-11
1.486861100000000000e+09 -1.400000000000000000e+02 2.235599999999999914e-03 5.000000000000000182e-11
1.486861102000000000e+09 -1.400000000000000000e+02 0.000000000000000000e+00 5.000000000000000182e-11
1.486861104000000000e+09 -1.400000000000000000e+02 0.000000000000000000e+00 5.000000000000000182e-11
1.486861106000000000e+09 -1.400000000000000000e+02 0.000000000000000000e+00 5.000000000000000182e-11
1.486861108000000000e+09 -1.400000000000000000e+02 0.000000000000000000e+00 5.000000000000000182e-11
1.486861110000000000e+09 -1.400000000000000000e+02 0.000000000000000000e+00 5.000000000000000182e-11
1.486861112000000000e+09 -1.400000000000000000e+02 0.000000000000000000e+00 5.000000000000000182e-11
1.486861114000000000e+09 -1.400000000000000000e+02 7.265139999999999793e-03 5.000000000000000182e-11
1.486861116000000000e+09 -1.400000000000000000e+02 0.000000000000000000e+00 5.000000000000000182e-11
1.486861118000000000e+09 -1.400000000000000000e+02 0.000000000000000000e+00 5.000000000000000182e-11
1.486861120000000000e+09 -1.400000000000000000e+02 7.358599999999999863e-02 5.000000000000000182e-11
1.486861122000000000e+09 -1.400000000000000000e+02 0.000000000000000000e+00 5.000000000000000182e-11
1.486861124000000000e+09 -1.400000000000000000e+02 0.000000000000000000e+00 5.000000000000000182e-11
1.486861126000000000e+09 -1.400000000000000000e+02 0.000000000000000000e+00 5.000000000000000182e-11
1.486861128000000000e+09 -1.400000000000000000e+02 0.000000000000000000e+00 5.000000000000000182e-11
1.486861130000000000e+09 -1.400000000000000000e+02 0.000000000000000000e+00 5.000000000000000182e-11
1.486861132000000000e+09 -1.400000000000000000e+02 0.000000000000000000e+00 5.000000000000000182e-11
1.486861134000000000e+09 -1.400000000000000000e+02 0.000000000000000000e+00 5.000000000000000182e-11
1.486861136000000000e+09 -1.400000000000000000e+02 0.000000000000000000e+00 5.000000000000000182e-11
1.486861138000000000e+09 -1.400000000000000000e+02 0.000000000000000000e+00 5.000000000000000182e-11
1.486861140000000000e+09 -1.400000000000000000e+02 0.000000000000000000e+00 5.000000000000000182e-11
1.486861142000000000e+09 -1.400000000000000000e+02 0.000000000000000000e+00 5.000000000000000182e-11
1.486861144000000000e+09 -1.400000000000000000e+02 0.000000000000000000e+00 5.000000000000000182e-11
1.486861146000000000e+09 -1.400000000000000000e+02 0.000000000000000000e+00 5.000000000000000182e-11
1.486861148000000000e+09 -1.400000000000000000e+02 0.000000000000000000e+00 5.000000000000000182e-11
1.486861150000000000e+09 -1.400000000000000000e+02 0.000000000000000000e+00 5.000000000000000182e-11
1.486861152000000000e+09 -1.400000000000000000e+02 0.000000000000000000e+00 5.000000000000000182e-11
1.486861154000000000e+09 -1.400000000000000000e+02 0.000000000000000000e+00 5.000000000000000182e-11
1.486861156000000000e+09 -1.400000000000000000e+02 0.000000000000000000e+00 5.000000000000000182e-11
1.486861158000000000e+09 -1.400000000000000000e+02 0.000000000000000000e+00 5.000000000000000182e-11
1.486861160000000000e+09 -1.400000000000000000e+02 0.000000000000000000e+00 5.000000000000000182e-11
1.486861162000000000e+09 -1.400000000000000000e+02 0.000000000000000000e+00 5.000000000000000182e-11
1.486861164000000000e+09 -1.400000000000000000e+02 0.000000000000000000e+00 5.000000000000000182e-11
1.486861166000000000e+09 -1.400000000000000000e+02 1.955800000000000160e-03 5.000000000000000182e-11
1.486861168000000000e+09 -1.400000000000000000e+02 0.000000000000000000e+00 5.000000000000000182e-11
1.486861170000000000e+09 -1.400000000000000000e+02 0.000000000000000000e+00 5.000000000000000182e-11
1.486861172000000000e+09 -1.400000000000000000e+02 0.000000000000000000e+00 5.000000000000000182e-11
1.486861174000000000e+09 -1.400000000000000000e+02 0.000000000000000000e+00 5.000000000000000182e-11
1.486861176000000000e+09 -1.400000000000000000e+02 0.000000000000000000e+00 5.000000000000000182e-11
1.486861178000000000e+09 -1.400000000000000000e+02 0.000000000000000000e+00 5.000000000000000182e-11
1.486861180000000000e+09 -1.400000000000000000e+02 0.000000000000000000e+00 5.000000000000000182e-11
1.486861182000000000e+09 -1.400000000000000000e+02 0.000000000000000000e+00 5.000000000000000182e-11
1.486861184000000000e+09 -1.400000000000000000e+02 0.000000000000000000e+00 5.000000000000000182e-11
1.486861186000000000e+09 -1.400000000000000000e+02 0.000000000000000000e+00 5.000000000000000182e-11
1.486861188000000000e+09 -1.400000000000000000e+02 0.000000000000000000e+00 5.000000000000000182e-11
1.486861190000000000e+09 -1.400000000000000000e+02 0.000000000000000000e+00 5.000000000000000182e-11
1.486861192000000000e+09 -1.400000000000000000e+02 0.000000000000000000e+00 5.000000000000000182e-11
1.486861194000000000e+09 -1.400000000000000000e+02 0.000000000000000000e+00 5.000000000000000182e-11
