# tags                 xfel_bl_3_st_2_motor_1/position xfel_bl_3_st_2_pd_user_4_fitting_peak/voltage xfel_bl_3_st_2_pd_user_4_fitting_peak/gainC
1.490609398000000000e+09 -1.600000000000000000e+02 0.000000000000000000e+00 5.000000000000000311e-10
1.490609400000000000e+09 -1.600000000000000000e+02 0.000000000000000000e+00 5.000000000000000311e-10
1.490609402000000000e+09 -1.600000000000000000e+02 0.000000000000000000e+00 5.000000000000000311e-10
1.490609404000000000e+09 -1.600000000000000000e+02 1.853830000000000105e-04 5.000000000000000311e-10
1.490609406000000000e+09 -1.600000000000000000e+02 0.000000000000000000e+00 5.000000000000000311e-10
1.490609408000000000e+09 -1.600000000000000000e+02 0.000000000000000000e+00 5.000000000000000311e-10
1.490609410000000000e+09 -1.600000000000000000e+02 0.000000000000000000e+00 5.000000000000000311e-10
1.490609412000000000e+09 -1.600000000000000000e+02 0.000000000000000000e+00 5.000000000000000311e-10
1.490609414000000000e+09 -1.600000000000000000e+02 0.000000000000000000e+00 5.000000000000000311e-10
1.490609416000000000e+09 -1.600000000000000000e+02 0.000000000000000000e+00 5.000000000000000311e-10
1.490609418000000000e+09 -1.600000000000000000e+02 0.000000000000000000e+00 5.000000000000000311e-10
1.490609420000000000e+09 -1.600000000000000000e+02 0.000000000000000000e+00 5.000000000000000311e-10
1.490609422000000000e+09 -1.600000000000000000e+02 0.000000000000000000e+00 5.000000000000000311e-10
1.490609424000000000e+09 -1.600000000000000000e+02 0.000000000000000000e+00 5.000000000000000311e-10
1.490609426000000000e+09 -1.600000000000000000e+02 4.192029999999999910e-05 5.000000000000000311e-10
1.490609428000000000e+09 -1.600000000000000000e+02 0.000000000000000000e+00 5.000000000000000311e-10
1.490609430000000000e+09 -1.600000000000000000e+02 0.000000000000000000e+00 5.000000000000000311e-10
1.490609432000000000e+09 -1.600000000000000000e+02 0.000000000000000000e+00 5.000000000000000311e-10
1.490609434000000000e+09 -1.600000000000000000e+02 0.000000000000000000e+00 5.000000000000000311e-10
1.490609436000000000e+09 -1.600000000000000000e+02 0.000000000000000000e+00 5.000000000000000311e-10
1.490609438000000000e+09 -1.600000000000000000e+02 1.539849999999999943e-03 5.000000000000000311e-10
1.490609440000000000e+09 -1.600000000000000000e+02 0.000000000000000000e+00 5.000000000000000311e-10
1.490609442000000000e+09 -1.600000000000000000e+02 0.000000000000000000e+00 5.000000000000000311e-10
1.490609444000000000e+09 -1.600000000000000000e+02 0.000000000000000000e+00 5.000000000000000311e-10
1.490609446000000000e+09 -1.600000000000000000e+02 0.000000000000000000e+00 5.000000000000000311e-10
1.490609448000000000e+09 -1.600000000000000000e+02 0.000000000000000000e+00 5.000000000000000311e-10
1.490609450000000000e+09 -1.600000000000000000e+02 0.000000000000000000e+00 5.000000000000000311e-10
1.490609452000000000e+09 -1.600000000000000000e+02 0.000000000000000000e+00 5.000000000000000311e-10
1.490609454000000000e+09 -1.600000000000000000e+02 0.000000000000000000e+00 5.000000000000000311e-10
1.490609456000000000e+09 -1.600000000000000000e+02 0.000000000000000000e+00 5.000000000000000311e-10
1.490609458000000000e+09 -1.600000000000000000e+02 0.000000000000000000e+00 5.000000000000000311e-10
1.490609460000000000e+09 -1.600000000000000000e+02 0.000000000000000000e+00 5.000000000000000311e-10
1.490609462000000000e+09 -1.600000000000000000e+02 0.000000000000000000e+00 5.000000000000000311e-10
1.490609464000000000e+09 -1.600000000000000000e+02 0.000000000000000000e+00 5.000000000000000311e-10
1.490609466000000000e+09 -1.600000000000000000e+02 1.351649999999999976e-04 5.000000000000000311e-10
1.490609468000000000e+09 -1.600000000000000000e+02 0.000000000000000000e+00 5.000000000000000311e-10
1.490609470000000000e+09 -1.600000000000000000e+02 0.000000000000000000e+00 5.000000000000000311e-10
1.490609472000000000e+09 -1.600000000000000000e+02 0.000000000000000000e+00 5.000000000000000311e-10
1.490609474000000000e+09 -1.600000000000000000e+02 0.000000000000000000e+00 5.000000000000000311e-10
1.490609476000000000e+09 -1.600000000000000000e+02 0.000000000000000000e+00 5.000000000000000311e-10
1.490609478000000000e+09 -1.600000000000000000e+02 0.000000000000000000e+00 5.000000000000000311e-10
1.490609480000000000e+09 -1.600000000000000000e+02 0.000000000000000000e+00 5.000000000000000311e-10
1.490609482000000000e+09 -1.600000000000000000e+02 0.000000000000000000e+00 5.000000000000000311e-10
1.490609484000000000e+09 -1.600000000000000000e+02 0.000000000000000000e+00 5.000000000000000311e-10
1.490609486000000000e+09 -1.600000000000000000e+02 0.000000000000000000e+00 5.000000000000000311e-10
1.490609488000000000e+09 -1.600000000000000000e+02 0.000000000000000000e+00 5.000000000000000311e-10
1.490609490000000000e+09 -1.600000000000000000e+02 0.000000000000000000e+00 5.000000000000000311e-10
1.490609492000000000e+09 -1.600000000000000000e+02 0.000000000000000000e+00 5.000000000000000311e-10
1.490609494000000000e+09 -1.600000000000000000e+02 0.000000000000000000e+00 5.000000000000000311e-10
1.490609496000000000e+09 -1.600000000000000000e+02 7.472620000000000293e-05 5.000000000000000311e-10
1.490609498000000000e+09 -1.600000000000000000e+02 0.000000000000000000e+00 5.000000000000000311e-10
1.490609500000000000e+09 -1.600000000000000000e+02 0.000000000000000000e+00 5.000000000000000311e-10
1.490609502000000000e+09 -1.600000000000000000e+02 5.080650000000000357e-04 5.000000000000000311e-10
1.490609504000000000e+09 -1.600000000000000000e+02 0.000000000000000000e+00 5.000000000000000311e-10
1.490609506000000000e+09 -1.600000000000000000e+02 0.000000000000000000e+00 5.000000000000000311e-10
1.490609508000000000e+09 -1.600000000000000000e+02 0.000000000000000000e+00 5.000000000000000311e-10
1.490609510000000000e+09 -1.600000000000000000e+02 0.000000000000000000e+00 5.000000000000000311e-10
1.490609512000000000e+09 -1.600000000000000000e+02 0.000000000000000000e+00 5.000000000000000311e-10
1.490609514000000000e+09 -1.600000000000000000e+02 0.000000000000000000e+00 5.000000000000000311e-10
1.490609516000000000e+09 -1.600000000000000000e+02 0.000000000000000000e+00 5.000000000000000311e-10
1.490609518000000000e+09 -1.600000000000000000e+02 0.000000000000000000e+00 5.000000000000000311e-10
1.490609520000000000e+09 -1.600000000000000000e+02 0.000000000000000000e+00 5.000000000000000311e-10
1.490609522000000000e+09 -1.600000000000000000e+02 0.000000000000000000e+00 5.000000000000000311e-10
1.490609524000000000e+09 -1.600000000000000000e+02 0.000000000000000000e+00 5.000000000000000311e-10
1.490609526000000000e+09 -1.600000000000000000e+02 0.000000000000000000e+00 5.000000000000000311e-10
1.490609528000000000e+09 -1.600000000000000000e+02 0.000000000000000000e+00 5.000000000000000311e-10
1.490609530000000000e+09 -1.600000000000000000e+02 0.000000000000000000e+00 5.000000000000000311e-10
1.490609532000000000e+09 -1.600000000000000000e+02 1.520419999999999975e-03 5.000000000000000311e-10
1.490609534000000000e+09 -1.600000000000000000e+02 0.000000000000000000e+00 5.000000000000000311e-10
1.490609536000000000e+09 -1.600000000000000000e+02 0.000000000000000000e+00 5.000000000000000311e-10
1.490609538000000000e+09 -1.600000000000000000e+02 0.000000000000000000e+00 5.000000000000000311e-10
1.490609540000000000e+09 -1.600000000000000000e+02 0.000000000000000000e+00 5.000000000000000311e-10
1.490609542000000000e+09 -1.600000000000000000e+02 0.000000000000000000e+00 5.000000000000000311e-10
1.490609544000000000e+09 -1.600000000000000000e+02 0.000000000000000000e+00 5.000000000000000311e-10
1.490609546000000000e+09 -1.600000000000000000e+02 0.000000000000000000e+00 5.000000000000000311e-10
1.490609548000000000e+09 -1.600000000000000000e+02 0.000000000000000000e+00 5.000000000000000311e-10
1.490609550000000000e+09 -1.600000000000000000e+02 0.000000000000000000e+00 5.000000000000000311e-10
1.490609552000000000e+09 -1.600000000000000000e+02 0.000000000000000000e+00 5.000000000000000311e-10
1.490609554000000000e+09 -1.600000000000000000e+02 0.000000000000000000e+00 5.000000000000000311e-10
1.490609556000000000e+09 -1.600000000000000000e+02 0.000000000000000000e+00 5.000000000000000311e-10
1.490609558000000000e+09 -1.600000000000000000e+02 0.000000000000000000e+00 5.000000000000000311e-10
1.490609560000000000e+09 -1.600000000000000000e+02 0.000000000000000000e+00 5.000000000000000311e-10
1.490609562000000000e+09 -1.600000000000000000e+02 0.000000000000000000e+00 5.000000000000000311e-10
1.490609564000000000e+09 -1.600000000000000000e+02 0.000000000000000000e+00 5.000000000000000311e-10
1.490609566000000000e+09 -1.600000000000000000e+02 0.000000000000000000e+00 5.000000000000000311e-10
1.490609568000000000e+09 -1.600000000000000000e+02 0.000000000000000000e+00 5.000000000000000311e-10
1.490609570000000000e+09 -1.600000000000000000e+02 0.000000000000000000e+00 5.000000000000000311e-10
1.490609572000000000e+09 -1.600000000000000000e+02 0.000000000000000000e+00 5.000000000000000311e-10
1.490609574000000000e+09 -1.600000000000000000e+02 0.000000000000000000e+00 5.000000000000000311e-10
1.490609576000000000e+09 -1.600000000000000000e+02 0.000000000000000000e+00 5.000000000000000311e-10
1.490609578000000000e+09 -1.600000000000000000e+02 0.000000000000000000e+00 5.000000000000000311e-10
1.490609580000000000e+09 -1.600000000000000000e+02 5.913449999999999566e-04 5.000000000000000311e-10
1.490609582000000000e+09 -1.600000000000000000e+02 1.988399999999999868e-04 5.000000000000000311e-10
1.490609584000000000e+09 -1.600000000000000000e+02 0.000000000000000000e+00 5.000000000000000311e-10
1.490609586000000000e+09 -1.600000000000000000e+02 0.000000000000000000e+00 5.000000000000000311e-10
1.490609588000000000e+09 -1.600000000000000000e+02 0.000000000000000000e+00 5.000000000000000311e-10
1.490609590000000000e+09 -1.600000000000000000e+02 0.000000000000000000e+00 5.000000000000000311e-10
1.490609592000000000e+09 -1.600000000000000000e+02 3.517980000000000087e-04 5.000000000000000311e-10
1.490609594000000000e+09 -1.600000000000000000e+02 0.000000000000000000e+00 5.000000000000000311e-10
1.490609596000000000e+09 -1.600000000000000000e+02 0.000000000000000000e+00 5.000000000000000311e-10
1.490609598000000000e+09 -1.600000000000000000e+02 3.727310000000000063e-05 5.000000000000000311e-10
1.490609600000000000e+09 -1.600000000000000000e+02 0.000000000000000000e+00 5.000000000000000311e-10
1.490609602000000000e+09 -1.600000000000000000e+02 4.970470000000000270e-04 5.000000000000000311e-10
1.490609604000000000e+09 -1.600000000000000000e+02 0.000000000000000000e+00 5.000000000000000311e-10
1.490609606000000000e+09 -1.600000000000000000e+02 0.000000000000000000e+00 5.000000000000000311e-10
1.490609608000000000e+09 -1.600000000000000000e+02 0.000000000000000000e+00 5.000000000000000311e-10
1.490609610000000000e+09 -1.600000000000000000e+02 0.000000000000000000e+00 5.000000000000000311e-10
1.490609612000000000e+09 -1.600000000000000000e+02 0.000000000000000000e+00 5.000000000000000311e-10
1.490609614000000000e+09 -1.600000000000000000e+02 0.000000000000000000e+00 5.000000000000000311e-10
1.490609616000000000e+09 -1.600000000000000000e+02 0.000000000000000000e+00 5.000000000000000311e-10
1.490609618000000000e+09 -1.600000000000000000e+02 0.000000000000000000e+00 5.000000000000000311e-10
1.490609620000000000e+09 -1.600000000000000000e+02 0.000000000000000000e+00 5.000000000000000311e-10
1.490609622000000000e+09 -1.600000000000000000e+02 1.993850000000000028e-04 5.000000000000000311e-10
1.490609624000000000e+09 -1.600000000000000000e+02 0.000000000000000000e+00 5.000000000000000311e-10
1.490609626000000000e+09 -1.600000000000000000e+02 0.000000000000000000e+00 5.000000000000000311e-10
1.490609628000000000e+09 -1.600000000000000000e+02 0.000000000000000000e+00 5.000000000000000311e-10
1.490609630000000000e+09 -1.600000000000000000e+02 0.000000000000000000e+00 5.000000000000000311e-10
1.490609632000000000e+09 -1.600000000000000000e+02 0.000000000000000000e+00 5.000000000000000311e-10
1.490609634000000000e+09 -1.600000000000000000e+02 0.000000000000000000e+00 5.000000000000000311e-10
1.490609636000000000e+09 -1.600000000000000000e+02 0.000000000000000000e+00 5.000000000000000311e-10
1.490609638000000000e+09 -1.600000000000000000e+02 0.000000000000000000e+00 5.000000000000000311e-10
1.490609640000000000e+09 -1.600000000000000000e+02 0.000000000000000000e+00 5.000000000000000311e-10
1.490609642000000000e+09 -1.600000000000000000e+02 0.000000000000000000e+00 5.000000000000000311e-10
1.490609644000000000e+09 -1.600000000000000000e+02 0.000000000000000000e+00 5.000000000000000311e-10
1.490609646000000000e+09 -1.600000000000000000e+02 0.000000000000000000e+00 5.000000000000000311e-10
1.490609648000000000e+09 -1.600000000000000000e+02 0.000000000000000000e+00 5.000000000000000311e-10
1.490609650000000000e+09 -1.600000000000000000e+02 0.000000000000000000e+00 5.000000000000000311e-10
1.490609652000000000e+09 -1.600000000000000000e+02 0.000000000000000000e+00 5.000000000000000311e-10
1.490609654000000000e+09 -1.600000000000000000e+02 0.000000000000000000e+00 5.000000000000000311e-10
1.490609656000000000e+09 -1.600000000000000000e+02 0.000000000000000000e+00 5.000000000000000311e-10
1.490609658000000000e+09 -1.600000000000000000e+02 8.635969999999999920e-05 5.000000000000000311e-10
1.490609660000000000e+09 -1.600000000000000000e+02 0.000000000000000000e+00 5.000000000000000311e-10
1.490609662000000000e+09 -1.600000000000000000e+02 0.000000000000000000e+00 5.000000000000000311e-10
1.490609664000000000e+09 -1.600000000000000000e+02 0.000000000000000000e+00 5.000000000000000311e-10
1.490609666000000000e+09 -1.600000000000000000e+02 7.036320000000000421e-04 5.000000000000000311e-10
1.490609668000000000e+09 -1.600000000000000000e+02 0.000000000000000000e+00 5.000000000000000311e-10
1.490609670000000000e+09 -1.600000000000000000e+02 0.000000000000000000e+00 5.000000000000000311e-10
1.490609672000000000e+09 -1.600000000000000000e+02 0.000000000000000000e+00 5.000000000000000311e-10
1.490609674000000000e+09 -1.600000000000000000e+02 0.000000000000000000e+00 5.000000000000000311e-10
1.490609676000000000e+09 -1.600000000000000000e+02 0.000000000000000000e+00 5.000000000000000311e-10
1.490609678000000000e+09 -1.600000000000000000e+02 0.000000000000000000e+00 5.000000000000000311e-10
1.490609680000000000e+09 -1.600000000000000000e+02 0.000000000000000000e+00 5.000000000000000311e-10
1.490609682000000000e+09 -1.600000000000000000e+02 0.000000000000000000e+00 5.000000000000000311e-10
1.490609684000000000e+09 -1.600000000000000000e+02 0.000000000000000000e+00 5.000000000000000311e-10
1.490609686000000000e+09 -1.600000000000000000e+02 0.000000000000000000e+00 5.000000000000000311e-10
1.490609688000000000e+09 -1.600000000000000000e+02 0.000000000000000000e+00 5.000000000000000311e-10
1.490609690000000000e+09 -1.600000000000000000e+02 0.000000000000000000e+00 5.000000000000000311e-10
1.490609692000000000e+09 -1.600000000000000000e+02 0.000000000000000000e+00 5.000000000000000311e-10
1.490609694000000000e+09 -1.600000000000000000e+02 0.000000000000000000e+00 5.000000000000000311e-10
1.490609696000000000e+09 -1.600000000000000000e+02 0.000000000000000000e+00 5.000000000000000311e-10
1.490609698000000000e+09 -1.600000000000000000e+02 0.000000000000000000e+00 5.000000000000000311e-10
1.490609700000000000e+09 -1.600000000000000000e+02 0.000000000000000000e+00 5.000000000000000311e-10
1.490609702000000000e+09 -1.600000000000000000e+02 0.000000000000000000e+00 5.000000000000000311e-10
1.490609704000000000e+09 -1.600000000000000000e+02 0.000000000000000000e+00 5.000000000000000311e-10
1.490609706000000000e+09 -1.600000000000000000e+02 0.000000000000000000e+00 5.000000000000000311e-10
1.490609708000000000e+09 -1.600000000000000000e+02 0.000000000000000000e+00 5.000000000000000311e-10
1.490609710000000000e+09 -1.600000000000000000e+02 0.000000000000000000e+00 5.000000000000000311e-10
1.490609712000000000e+09 -1.600000000000000000e+02 0.000000000000000000e+00 5.000000000000000311e-10
1.490609714000000000e+09 -1.600000000000000000e+02 0.000000000000000000e+00 5.000000000000000311e-10
1.490609716000000000e+09 -1.600000000000000000e+02 0.000000000000000000e+00 5.000000000000000311e-10
1.490609718000000000e+09 -1.600000000000000000e+02 0.000000000000000000e+00 5.000000000000000311e-10
1.490609720000000000e+09 -1.600000000000000000e+02 4.055649999999999701e-05 5.000000000000000311e-10
1.490609722000000000e+09 -1.600000000000000000e+02 0.000000000000000000e+00 5.000000000000000311e-10
1.490609724000000000e+09 -1.600000000000000000e+02 0.000000000000000000e+00 5.000000000000000311e-10
1.490609726000000000e+09 -1.600000000000000000e+02 0.000000000000000000e+00 5.000000000000000311e-10
1.490609728000000000e+09 -1.600000000000000000e+02 0.000000000000000000e+00 5.000000000000000311e-10
1.490609730000000000e+09 -1.600000000000000000e+02 0.000000000000000000e+00 5.000000000000000311e-10
1.490609732000000000e+09 -1.600000000000000000e+02 0.000000000000000000e+00 5.000000000000000311e-10
1.490609734000000000e+09 -1.600000000000000000e+02 0.000000000000000000e+00 5.000000000000000311e-10
1.490609736000000000e+09 -1.600000000000000000e+02 0.000000000000000000e+00 5.000000000000000311e-10
1.490609738000000000e+09 -1.600000000000000000e+02 1.041950000000000011e-04 5.000000000000000311e-10
1.490609740000000000e+09 -1.600000000000000000e+02 0.000000000000000000e+00 5.000000000000000311e-10
1.490609742000000000e+09 -1.600000000000000000e+02 0.000000000000000000e+00 5.000000000000000311e-10
1.490609744000000000e+09 -1.600000000000000000e+02 0.000000000000000000e+00 5.000000000000000311e-10
1.490609746000000000e+09 -1.600000000000000000e+02 0.000000000000000000e+00 5.000000000000000311e-10
1.490609748000000000e+09 -1.600000000000000000e+02 0.000000000000000000e+00 5.000000000000000311e-10
1.490609750000000000e+09 -1.600000000000000000e+02 0.000000000000000000e+00 5.000000000000000311e-10
1.490609752000000000e+09 -1.600000000000000000e+02 0.000000000000000000e+00 5.000000000000000311e-10
1.490609754000000000e+09 -1.600000000000000000e+02 0.000000000000000000e+00 5.000000000000000311e-10
1.490609756000000000e+09 -1.600000000000000000e+02 0.000000000000000000e+00 5.000000000000000311e-10
1.490609758000000000e+09 -1.600000000000000000e+02 0.000000000000000000e+00 5.000000000000000311e-10
1.490609760000000000e+09 -1.600000000000000000e+02 0.000000000000000000e+00 5.000000000000000311e-10
1.490609762000000000e+09 -1.600000000000000000e+02 2.320889999999999932e-04 5.000000000000000311e-10
1.490609764000000000e+09 -1.600000000000000000e+02 5.043270000000000522e-04 5.000000000000000311e-10
1.490609766000000000e+09 -1.600000000000000000e+02 0.000000000000000000e+00 5.000000000000000311e-10
1.490609768000000000e+09 -1.600000000000000000e+02 0.000000000000000000e+00 5.000000000000000311e-10
1.490609770000000000e+09 -1.600000000000000000e+02 0.000000000000000000e+00 5.000000000000000311e-10
1.490609772000000000e+09 -1.600000000000000000e+02 0.000000000000000000e+00 5.000000000000000311e-10
1.490609774000000000e+09 -1.600000000000000000e+02 0.000000000000000000e+00 5.000000000000000311e-10
1.490609776000000000e+09 -1.600000000000000000e+02 0.000000000000000000e+00 5.000000000000000311e-10
1.490609778000000000e+09 -1.600000000000000000e+02 0.000000000000000000e+00 5.000000000000000311e-10
1.490609780000000000e+09 -1.600000000000000000e+02 5.712459999999999852e-05 5.000000000000000311e-10
1.490609782000000000e+09 -1.600000000000000000e+02 0.000000000000000000e+00 5.000000000000000311e-10
1.490609784000000000e+09 -1.600000000000000000e+02 0.000000000000000000e+00 5.000000000000000311e-10
1.490609786000000000e+09 -1.600000000000000000e+02 0.000000000000000000e+00 5.000000000000000311e-10
1.490609788000000000e+09 -1.600000000000000000e+02 0.000000000000000000e+00 5.000000000000000311e-10
1.490609790000000000e+09 -1.600000000000000000e+02 0.000000000000000000e+00 5.000000000000000311e-10
1.490609792000000000e+09 -1.600000000000000000e+02 0.000000000000000000e+00 5.000000000000000311e-10
1.490609794000000000e+09 -1.600000000000000000e+02 0.000000000000000000e+00 5.000000000000000311e-10
1.490609796000000000e+09 -1.600000000000000000e+02 0.000000000000000000e+00 5.000000000000000311e-10
1.490609798000000000e+09 -1.600000000000000000e+02 0.000000000000000000e+00 5.000000000000000311e-10
1.490609800000000000e+09 -1.600000000000000000e+02 0.000000000000000000e+00 5.000000000000000311e-10
1.490609802000000000e+09 -1.600000000000000000e+02 0.000000000000000000e+00 5.000000000000000311e-10
1.490609804000000000e+09 -1.600000000000000000e+02 9.440500000000000161e-05 5.000000000000000311e-10
1.490609806000000000e+09 -1.600000000000000000e+02 0.000000000000000000e+00 5.000000000000000311e-10
1.490609808000000000e+09 -1.600000000000000000e+02 0.000000000000000000e+00 5.000000000000000311e-10
1.490609810000000000e+09 -1.600000000000000000e+02 4.781470000000000013e-04 5.000000000000000311e-10
1.490609812000000000e+09 -1.600000000000000000e+02 0.000000000000000000e+00 5.000000000000000311e-10
1.490609814000000000e+09 -1.600000000000000000e+02 0.000000000000000000e+00 5.000000000000000311e-10
1.490609816000000000e+09 -1.600000000000000000e+02 0.000000000000000000e+00 5.000000000000000311e-10
1.490609818000000000e+09 -1.600000000000000000e+02 0.000000000000000000e+00 5.000000000000000311e-10
1.490609820000000000e+09 -1.600000000000000000e+02 0.000000000000000000e+00 5.000000000000000311e-10
1.490609822000000000e+09 -1.600000000000000000e+02 0.000000000000000000e+00 5.000000000000000311e-10
1.490609824000000000e+09 -1.600000000000000000e+02 0.000000000000000000e+00 5.000000000000000311e-10
1.490609826000000000e+09 -1.600000000000000000e+02 0.000000000000000000e+00 5.000000000000000311e-10
1.490609828000000000e+09 -1.600000000000000000e+02 6.566040000000000580e-05 5.000000000000000311e-10
1.490609830000000000e+09 -1.600000000000000000e+02 0.000000000000000000e+00 5.000000000000000311e-10
1.490609832000000000e+09 -1.600000000000000000e+02 0.000000000000000000e+00 5.000000000000000311e-10
1.490609834000000000e+09 -1.600000000000000000e+02 0.000000000000000000e+00 5.000000000000000311e-10
1.490609836000000000e+09 -1.600000000000000000e+02 0.000000000000000000e+00 5.000000000000000311e-10
1.490609838000000000e+09 -1.600000000000000000e+02 0.000000000000000000e+00 5.000000000000000311e-10
1.490609840000000000e+09 -1.600000000000000000e+02 0.000000000000000000e+00 5.000000000000000311e-10
1.490609842000000000e+09 -1.600000000000000000e+02 0.000000000000000000e+00 5.000000000000000311e-10
1.490609844000000000e+09 -1.600000000000000000e+02 0.000000000000000000e+00 5.000000000000000311e-10
1.490609846000000000e+09 -1.600000000000000000e+02 0.000000000000000000e+00 5.000000000000000311e-10
1.490609848000000000e+09 -1.600000000000000000e+02 0.000000000000000000e+00 5.000000000000000311e-10
1.490609850000000000e+09 -1.600000000000000000e+02 0.000000000000000000e+00 5.000000000000000311e-10
1.490609852000000000e+09 -1.600000000000000000e+02 0.000000000000000000e+00 5.000000000000000311e-10
1.490609854000000000e+09 -1.600000000000000000e+02 0.000000000000000000e+00 5.000000000000000311e-10
1.490609856000000000e+09 -1.600000000000000000e+02 0.000000000000000000e+00 5.000000000000000311e-10
1.490609858000000000e+09 -1.600000000000000000e+02 0.000000000000000000e+00 5.000000000000000311e-10
1.490609860000000000e+09 -1.600000000000000000e+02 0.000000000000000000e+00 5.000000000000000311e-10
1.490609862000000000e+09 -1.600000000000000000e+02 0.000000000000000000e+00 5.000000000000000311e-10
1.490609864000000000e+09 -1.600000000000000000e+02 0.000000000000000000e+00 5.000000000000000311e-10
1.490609866000000000e+09 -1.600000000000000000e+02 0.000000000000000000e+00 5.000000000000000311e-10
1.490609868000000000e+09 -1.600000000000000000e+02 0.000000000000000000e+00 5.000000000000000311e-10
1.490609870000000000e+09 -1.600000000000000000e+02 0.000000000000000000e+00 5.000000000000000311e-10
1.490609872000000000e+09 -1.600000000000000000e+02 0.000000000000000000e+00 5.000000000000000311e-10
1.490609874000000000e+09 -1.600000000000000000e+02 0.000000000000000000e+00 5.000000000000000311e-10
1.490609876000000000e+09 -1.600000000000000000e+02 0.000000000000000000e+00 5.000000000000000311e-10
1.490609878000000000e+09 -1.600000000000000000e+02 0.000000000000000000e+00 5.000000000000000311e-10
1.490609880000000000e+09 -1.600000000000000000e+02 0.000000000000000000e+00 5.000000000000000311e-10
1.490609882000000000e+09 -1.600000000000000000e+02 7.299219999999999548e-05 5.000000000000000311e-10
1.490609884000000000e+09 -1.600000000000000000e+02 0.000000000000000000e+00 5.000000000000000311e-10
1.490609886000000000e+09 -1.600000000000000000e+02 0.000000000000000000e+00 5.000000000000000311e-10
1.490609888000000000e+09 -1.600000000000000000e+02 1.144010000000000046e-04 5.000000000000000311e-10
1.490609890000000000e+09 -1.600000000000000000e+02 0.000000000000000000e+00 5.000000000000000311e-10
1.490609892000000000e+09 -1.600000000000000000e+02 0.000000000000000000e+00 5.000000000000000311e-10
1.490609894000000000e+09 -1.600000000000000000e+02 0.000000000000000000e+00 5.000000000000000311e-10
1.490609896000000000e+09 -1.600000000000000000e+02 0.000000000000000000e+00 5.000000000000000311e-10
1.490609898000000000e+09 -1.600000000000000000e+02 0.000000000000000000e+00 5.000000000000000311e-10
1.490609900000000000e+09 -1.600000000000000000e+02 0.000000000000000000e+00 5.000000000000000311e-10
1.490609902000000000e+09 -1.600000000000000000e+02 0.000000000000000000e+00 5.000000000000000311e-10
1.490609904000000000e+09 -1.600000000000000000e+02 0.000000000000000000e+00 5.000000000000000311e-10
1.490609906000000000e+09 -1.600000000000000000e+02 0.000000000000000000e+00 5.000000000000000311e-10
1.490609908000000000e+09 -1.600000000000000000e+02 0.000000000000000000e+00 5.000000000000000311e-10
1.490609910000000000e+09 -1.600000000000000000e+02 0.000000000000000000e+00 5.000000000000000311e-10
1.490609912000000000e+09 -1.600000000000000000e+02 0.000000000000000000e+00 5.000000000000000311e-10
1.490609914000000000e+09 -1.600000000000000000e+02 0.000000000000000000e+00 5.000000000000000311e-10
1.490609916000000000e+09 -1.600000000000000000e+02 0.000000000000000000e+00 5.000000000000000311e-10
1.490609918000000000e+09 -1.600000000000000000e+02 0.000000000000000000e+00 5.000000000000000311e-10
1.490609920000000000e+09 -1.600000000000000000e+02 0.000000000000000000e+00 5.000000000000000311e-10
1.490609922000000000e+09 -1.600000000000000000e+02 0.000000000000000000e+00 5.000000000000000311e-10
1.490609924000000000e+09 -1.600000000000000000e+02 0.000000000000000000e+00 5.000000000000000311e-10
1.490609926000000000e+09 -1.600000000000000000e+02 0.000000000000000000e+00 5.000000000000000311e-10
1.490609928000000000e+09 -1.600000000000000000e+02 0.000000000000000000e+00 5.000000000000000311e-10
1.490609930000000000e+09 -1.600000000000000000e+02 0.000000000000000000e+00 5.000000000000000311e-10
1.490609932000000000e+09 -1.600000000000000000e+02 0.000000000000000000e+00 5.000000000000000311e-10
1.490609934000000000e+09 -1.600000000000000000e+02 0.000000000000000000e+00 5.000000000000000311e-10
1.490609936000000000e+09 -1.600000000000000000e+02 0.000000000000000000e+00 5.000000000000000311e-10
1.490609938000000000e+09 -1.600000000000000000e+02 0.000000000000000000e+00 5.000000000000000311e-10
1.490609940000000000e+09 -1.600000000000000000e+02 0.000000000000000000e+00 5.000000000000000311e-10
1.490609942000000000e+09 -1.600000000000000000e+02 0.000000000000000000e+00 5.000000000000000311e-10
1.490609944000000000e+09 -1.600000000000000000e+02 0.000000000000000000e+00 5.000000000000000311e-10
1.490609946000000000e+09 -1.600000000000000000e+02 0.000000000000000000e+00 5.000000000000000311e-10
1.490609948000000000e+09 -1.600000000000000000e+02 0.000000000000000000e+00 5.000000000000000311e-10
1.490609950000000000e+09 -1.600000000000000000e+02 0.000000000000000000e+00 5.000000000000000311e-10
1.490609952000000000e+09 -1.600000000000000000e+02 0.000000000000000000e+00 5.000000000000000311e-10
1.490609954000000000e+09 -1.600000000000000000e+02 0.000000000000000000e+00 5.000000000000000311e-10
1.490609956000000000e+09 -1.600000000000000000e+02 0.000000000000000000e+00 5.000000000000000311e-10
1.490609958000000000e+09 -1.600000000000000000e+02 0.000000000000000000e+00 5.000000000000000311e-10
1.490609960000000000e+09 -1.600000000000000000e+02 0.000000000000000000e+00 5.000000000000000311e-10
1.490609962000000000e+09 -1.600000000000000000e+02 4.715549999999999939e-05 5.000000000000000311e-10
1.490609964000000000e+09 -1.600000000000000000e+02 0.000000000000000000e+00 5.000000000000000311e-10
1.490609966000000000e+09 -1.600000000000000000e+02 0.000000000000000000e+00 5.000000000000000311e-10
1.490609968000000000e+09 -1.600000000000000000e+02 0.000000000000000000e+00 5.000000000000000311e-10
1.490609970000000000e+09 -1.600000000000000000e+02 0.000000000000000000e+00 5.000000000000000311e-10
1.490609972000000000e+09 -1.600000000000000000e+02 0.000000000000000000e+00 5.000000000000000311e-10
1.490609974000000000e+09 -1.600000000000000000e+02 0.000000000000000000e+00 5.000000000000000311e-10
1.490609976000000000e+09 -1.600000000000000000e+02 0.000000000000000000e+00 5.000000000000000311e-10
1.490609978000000000e+09 -1.600000000000000000e+02 0.000000000000000000e+00 5.000000000000000311e-10
1.490609980000000000e+09 -1.600000000000000000e+02 0.000000000000000000e+00 5.000000000000000311e-10
1.490609982000000000e+09 -1.600000000000000000e+02 0.000000000000000000e+00 5.000000000000000311e-10
1.490609984000000000e+09 -1.600000000000000000e+02 0.000000000000000000e+00 5.000000000000000311e-10
1.490609986000000000e+09 -1.600000000000000000e+02 0.000000000000000000e+00 5.000000000000000311e-10
1.490609988000000000e+09 -1.600000000000000000e+02 0.000000000000000000e+00 5.000000000000000311e-10
1.490609990000000000e+09 -1.600000000000000000e+02 0.000000000000000000e+00 5.000000000000000311e-10
1.490609992000000000e+09 -1.600000000000000000e+02 0.000000000000000000e+00 5.000000000000000311e-10
1.490609994000000000e+09 -1.600000000000000000e+02 0.000000000000000000e+00 5.000000000000000311e-10
1.490609996000000000e+09 -1.600000000000000000e+02 0.000000000000000000e+00 5.000000000000000311e-10
