# tags                 xfel_bl_3_st_2_motor_1/position xfel_bl_3_st_2_pd_user_4_fitting_peak/voltage xfel_bl_3_st_2_pd_user_4_fitting_peak/gainC
1.490613208000000000e+09 -6.000000000000000000e+01 3.286869999999999787e-04 5.000000000000000311e-10
1.490613210000000000e+09 -6.000000000000000000e+01 6.327770000000000573e-05 5.000000000000000311e-10
1.490613212000000000e+09 -6.000000000000000000e+01 0.000000000000000000e+00 5.000000000000000311e-10
1.490613214000000000e+09 -6.000000000000000000e+01 0.000000000000000000e+00 5.000000000000000311e-10
1.490613216000000000e+09 -6.000000000000000000e+01 0.000000000000000000e+00 5.000000000000000311e-10
1.490613218000000000e+09 -6.000000000000000000e+01 0.000000000000000000e+00 5.000000000000000311e-10
1.490613220000000000e+09 -6.000000000000000000e+01 3.874929999999999846e-05 5.000000000000000311e-10
1.490613222000000000e+09 -6.000000000000000000e+01 0.000000000000000000e+00 5.000000000000000311e-10
1.490613224000000000e+09 -6.000000000000000000e+01 0.000000000000000000e+00 5.000000000000000311e-10
1.490613226000000000e+09 -6.000000000000000000e+01 3.858970000000000087e-05 5.000000000000000311e-10
1.490613228000000000e+09 -6.000000000000000000e+01 9.651790000000000369e-04 5.000000000000000311e-10
1.490613230000000000e+09 -6.000000000000000000e+01 0.000000000000000000e+00 5.000000000000000311e-10
1.490613232000000000e+09 -6.000000000000000000e+01 0.000000000000000000e+00 5.000000000000000311e-10
1.490613234000000000e+09 -6.000000000000000000e+01 0.000000000000000000e+00 5.000000000000000311e-10
1.490613236000000000e+09 -6.000000000000000000e+01 0.000000000000000000e+00 5.000000000000000311e-10
1.490613238000000000e+09 -6.000000000000000000e+01 0.000000000000000000e+00 5.000000000000000311e-10
1.490613240000000000e+09 -6.000000000000000000e+01 0.000000000000000000e+00 5.000000000000000311e-10
1.490613242000000000e+09 -6.000000000000000000e+01 0.000000000000000000e+00 5.000000000000000311e-10
1.490613244000000000e+09 -6.000000000000000000e+01 0.000000000000000000e+00 5.000000000000000311e-10
1.490613246000000000e+09 -6.000000000000000000e+01 0.000000000000000000e+00 5.000000000000000311e-10
1.490613248000000000e+09 -6.000000000000000000e+01 0.000000000000000000e+00 5.000000000000000311e-10
1.490613250000000000e+09 -6.000000000000000000e+01 6.644030000000000422e-04 5.000000000000000311e-10
1.490613252000000000e+09 -6.000000000000000000e+01 0.000000000000000000e+00 5.000000000000000311e-10
1.490613254000000000e+09 -6.000000000000000000e+01 0.000000000000000000e+00 5.000000000000000311e-10
1.490613256000000000e+09 -6.000000000000000000e+01 0.000000000000000000e+00 5.000000000000000311e-10
1.490613258000000000e+09 -6.000000000000000000e+01 0.000000000000000000e+00 5.000000000000000311e-10
1.490613260000000000e+09 -6.000000000000000000e+01 0.000000000000000000e+00 5.000000000000000311e-10
1.490613262000000000e+09 -6.000000000000000000e+01 0.000000000000000000e+00 5.000000000000000311e-10
1.490613264000000000e+09 -6.000000000000000000e+01 0.000000000000000000e+00 5.000000000000000311e-10
1.490613266000000000e+09 -6.000000000000000000e+01 0.000000000000000000e+00 5.000000000000000311e-10
1.490613268000000000e+09 -6.000000000000000000e+01 0.000000000000000000e+00 5.000000000000000311e-10
1.490613270000000000e+09 -6.000000000000000000e+01 7.828649999999999661e-05 5.000000000000000311e-10
1.490613272000000000e+09 -6.000000000000000000e+01 0.000000000000000000e+00 5.000000000000000311e-10
1.490613274000000000e+09 -6.000000000000000000e+01 0.000000000000000000e+00 5.000000000000000311e-10
1.490613276000000000e+09 -6.000000000000000000e+01 0.000000000000000000e+00 5.000000000000000311e-10
1.490613278000000000e+09 -6.000000000000000000e+01 0.000000000000000000e+00 5.000000000000000311e-10
1.490613280000000000e+09 -6.000000000000000000e+01 0.000000000000000000e+00 5.000000000000000311e-10
1.490613282000000000e+09 -6.000000000000000000e+01 0.000000000000000000e+00 5.000000000000000311e-10
1.490613284000000000e+09 -6.000000000000000000e+01 3.182829999999999882e-04 5.000000000000000311e-10
1.490613286000000000e+09 -6.000000000000000000e+01 0.000000000000000000e+00 5.000000000000000311e-10
1.490613288000000000e+09 -6.000000000000000000e+01 0.000000000000000000e+00 5.000000000000000311e-10
1.490613290000000000e+09 -6.000000000000000000e+01 0.000000000000000000e+00 5.000000000000000311e-10
1.490613292000000000e+09 -6.000000000000000000e+01 8.692680000000000263e-05 5.000000000000000311e-10
1.490613294000000000e+09 -6.000000000000000000e+01 0.000000000000000000e+00 5.000000000000000311e-10
1.490613296000000000e+09 -6.000000000000000000e+01 0.000000000000000000e+00 5.000000000000000311e-10
1.490613298000000000e+09 -6.000000000000000000e+01 0.000000000000000000e+00 5.000000000000000311e-10
1.490613300000000000e+09 -6.000000000000000000e+01 0.000000000000000000e+00 5.000000000000000311e-10
1.490613302000000000e+09 -6.000000000000000000e+01 2.038890000000000125e-04 5.000000000000000311e-10
1.490613304000000000e+09 -6.000000000000000000e+01 0.000000000000000000e+00 5.000000000000000311e-10
1.490613306000000000e+09 -6.000000000000000000e+01 0.000000000000000000e+00 5.000000000000000311e-10
1.490613308000000000e+09 -6.000000000000000000e+01 0.000000000000000000e+00 5.000000000000000311e-10
1.490613310000000000e+09 -6.000000000000000000e+01 0.000000000000000000e+00 5.000000000000000311e-10
1.490613312000000000e+09 -6.000000000000000000e+01 0.000000000000000000e+00 5.000000000000000311e-10
1.490613314000000000e+09 -6.000000000000000000e+01 8.478999999999999558e-04 5.000000000000000311e-10
1.490613316000000000e+09 -6.000000000000000000e+01 0.000000000000000000e+00 5.000000000000000311e-10
1.490613318000000000e+09 -6.000000000000000000e+01 0.000000000000000000e+00 5.000000000000000311e-10
1.490613320000000000e+09 -6.000000000000000000e+01 0.000000000000000000e+00 5.000000000000000311e-10
1.490613322000000000e+09 -6.000000000000000000e+01 0.000000000000000000e+00 5.000000000000000311e-10
1.490613324000000000e+09 -6.000000000000000000e+01 0.000000000000000000e+00 5.000000000000000311e-10
1.490613326000000000e+09 -6.000000000000000000e+01 0.000000000000000000e+00 5.000000000000000311e-10
1.490613328000000000e+09 -6.000000000000000000e+01 0.000000000000000000e+00 5.000000000000000311e-10
1.490613330000000000e+09 -6.000000000000000000e+01 0.000000000000000000e+00 5.000000000000000311e-10
1.490613332000000000e+09 -6.000000000000000000e+01 0.000000000000000000e+00 5.000000000000000311e-10
1.490613334000000000e+09 -6.000000000000000000e+01 0.000000000000000000e+00 5.000000000000000311e-10
1.490613336000000000e+09 -6.000000000000000000e+01 0.000000000000000000e+00 5.000000000000000311e-10
1.490613338000000000e+09 -6.000000000000000000e+01 0.000000000000000000e+00 5.000000000000000311e-10
1.490613340000000000e+09 -6.000000000000000000e+01 0.000000000000000000e+00 5.000000000000000311e-10
1.490613342000000000e+09 -6.000000000000000000e+01 8.728469999999999458e-05 5.000000000000000311e-10
1.490613344000000000e+09 -6.000000000000000000e+01 0.000000000000000000e+00 5.000000000000000311e-10
1.490613346000000000e+09 -6.000000000000000000e+01 0.000000000000000000e+00 5.000000000000000311e-10
1.490613348000000000e+09 -6.000000000000000000e+01 0.000000000000000000e+00 5.000000000000000311e-10
1.490613350000000000e+09 -6.000000000000000000e+01 0.000000000000000000e+00 5.000000000000000311e-10
1.490613352000000000e+09 -6.000000000000000000e+01 0.000000000000000000e+00 5.000000000000000311e-10
1.490613354000000000e+09 -6.000000000000000000e+01 0.000000000000000000e+00 5.000000000000000311e-10
1.490613356000000000e+09 -6.000000000000000000e+01 0.000000000000000000e+00 5.000000000000000311e-10
1.490613358000000000e+09 -6.000000000000000000e+01 0.000000000000000000e+00 5.000000000000000311e-10
1.490613360000000000e+09 -6.000000000000000000e+01 0.000000000000000000e+00 5.000000000000000311e-10
1.490613362000000000e+09 -6.000000000000000000e+01 0.000000000000000000e+00 5.000000000000000311e-10
1.490613364000000000e+09 -6.000000000000000000e+01 0.000000000000000000e+00 5.000000000000000311e-10
1.490613366000000000e+09 -6.000000000000000000e+01 0.000000000000000000e+00 5.000000000000000311e-10
1.490613368000000000e+09 -6.000000000000000000e+01 0.000000000000000000e+00 5.000000000000000311e-10
1.490613370000000000e+09 -6.000000000000000000e+01 0.000000000000000000e+00 5.000000000000000311e-10
1.490613372000000000e+09 -6.000000000000000000e+01 0.000000000000000000e+00 5.000000000000000311e-10
1.490613374000000000e+09 -6.000000000000000000e+01 0.000000000000000000e+00 5.000000000000000311e-10
1.490613376000000000e+09 -6.000000000000000000e+01 0.000000000000000000e+00 5.000000000000000311e-10
1.490613378000000000e+09 -6.000000000000000000e+01 0.000000000000000000e+00 5.000000000000000311e-10
1.490613380000000000e+09 -6.000000000000000000e+01 7.089340000000000398e-04 5.000000000000000311e-10
1.490613382000000000e+09 -6.000000000000000000e+01 0.000000000000000000e+00 5.000000000000000311e-10
1.490613384000000000e+09 -6.000000000000000000e+01 0.000000000000000000e+00 5.000000000000000311e-10
1.490613386000000000e+09 -6.000000000000000000e+01 0.000000000000000000e+00 5.000000000000000311e-10
1.490613388000000000e+09 -6.000000000000000000e+01 0.000000000000000000e+00 5.000000000000000311e-10
1.490613390000000000e+09 -6.000000000000000000e+01 0.000000000000000000e+00 5.000000000000000311e-10
1.490613392000000000e+09 -6.000000000000000000e+01 0.000000000000000000e+00 5.000000000000000311e-10
1.490613394000000000e+09 -6.000000000000000000e+01 0.000000000000000000e+00 5.000000000000000311e-10
1.490613396000000000e+09 -6.000000000000000000e+01 0.000000000000000000e+00 5.000000000000000311e-10
1.490613398000000000e+09 -6.000000000000000000e+01 0.000000000000000000e+00 5.000000000000000311e-10
1.490613400000000000e+09 -6.000000000000000000e+01 0.000000000000000000e+00 5.000000000000000311e-10
1.490613402000000000e+09 -6.000000000000000000e+01 0.000000000000000000e+00 5.000000000000000311e-10
1.490613404000000000e+09 -6.000000000000000000e+01 0.000000000000000000e+00 5.000000000000000311e-10
1.490613406000000000e+09 -6.000000000000000000e+01 0.000000000000000000e+00 5.000000000000000311e-10
1.490613408000000000e+09 -6.000000000000000000e+01 0.000000000000000000e+00 5.000000000000000311e-10
1.490613410000000000e+09 -6.000000000000000000e+01 0.000000000000000000e+00 5.000000000000000311e-10
1.490613412000000000e+09 -6.000000000000000000e+01 0.000000000000000000e+00 5.000000000000000311e-10
1.490613414000000000e+09 -6.000000000000000000e+01 0.000000000000000000e+00 5.000000000000000311e-10
1.490613416000000000e+09 -6.000000000000000000e+01 0.000000000000000000e+00 5.000000000000000311e-10
1.490613418000000000e+09 -6.000000000000000000e+01 5.260380000000000481e-04 5.000000000000000311e-10
1.490613420000000000e+09 -6.000000000000000000e+01 0.000000000000000000e+00 5.000000000000000311e-10
1.490613422000000000e+09 -6.000000000000000000e+01 0.000000000000000000e+00 5.000000000000000311e-10
1.490613424000000000e+09 -6.000000000000000000e+01 0.000000000000000000e+00 5.000000000000000311e-10
1.490613426000000000e+09 -6.000000000000000000e+01 0.000000000000000000e+00 5.000000000000000311e-10
1.490613428000000000e+09 -6.000000000000000000e+01 0.000000000000000000e+00 5.000000000000000311e-10
1.490613430000000000e+09 -6.000000000000000000e+01 0.000000000000000000e+00 5.000000000000000311e-10
1.490613432000000000e+09 -6.000000000000000000e+01 0.000000000000000000e+00 5.000000000000000311e-10
1.490613434000000000e+09 -6.000000000000000000e+01 0.000000000000000000e+00 5.000000000000000311e-10
1.490613436000000000e+09 -6.000000000000000000e+01 0.000000000000000000e+00 5.000000000000000311e-10
1.490613438000000000e+09 -6.000000000000000000e+01 0.000000000000000000e+00 5.000000000000000311e-10
1.490613440000000000e+09 -6.000000000000000000e+01 0.000000000000000000e+00 5.000000000000000311e-10
1.490613442000000000e+09 -6.000000000000000000e+01 0.000000000000000000e+00 5.000000000000000311e-10
1.490613444000000000e+09 -6.000000000000000000e+01 0.000000000000000000e+00 5.000000000000000311e-10
1.490613446000000000e+09 -6.000000000000000000e+01 0.000000000000000000e+00 5.000000000000000311e-10
1.490613448000000000e+09 -6.000000000000000000e+01 0.000000000000000000e+00 5.000000000000000311e-10
1.490613450000000000e+09 -6.000000000000000000e+01 0.000000000000000000e+00 5.000000000000000311e-10
1.490613452000000000e+09 -6.000000000000000000e+01 0.000000000000000000e+00 5.000000000000000311e-10
1.490613454000000000e+09 -6.000000000000000000e+01 0.000000000000000000e+00 5.000000000000000311e-10
1.490613456000000000e+09 -6.000000000000000000e+01 0.000000000000000000e+00 5.000000000000000311e-10
1.490613458000000000e+09 -6.000000000000000000e+01 0.000000000000000000e+00 5.000000000000000311e-10
1.490613460000000000e+09 -6.000000000000000000e+01 0.000000000000000000e+00 5.000000000000000311e-10
1.490613462000000000e+09 -6.000000000000000000e+01 0.000000000000000000e+00 5.000000000000000311e-10
1.490613464000000000e+09 -6.000000000000000000e+01 0.000000000000000000e+00 5.000000000000000311e-10
1.490613466000000000e+09 -6.000000000000000000e+01 0.000000000000000000e+00 5.000000000000000311e-10
1.490613468000000000e+09 -6.000000000000000000e+01 0.000000000000000000e+00 5.000000000000000311e-10
1.490613470000000000e+09 -6.000000000000000000e+01 0.000000000000000000e+00 5.000000000000000311e-10
1.490613472000000000e+09 -6.000000000000000000e+01 0.000000000000000000e+00 5.000000000000000311e-10
1.490613474000000000e+09 -6.000000000000000000e+01 0.000000000000000000e+00 5.000000000000000311e-10
1.490613476000000000e+09 -6.000000000000000000e+01 0.000000000000000000e+00 5.000000000000000311e-10
1.490613478000000000e+09 -6.000000000000000000e+01 0.000000000000000000e+00 5.000000000000000311e-10
1.490613480000000000e+09 -6.000000000000000000e+01 0.000000000000000000e+00 5.000000000000000311e-10
1.490613482000000000e+09 -6.000000000000000000e+01 0.000000000000000000e+00 5.000000000000000311e-10
1.490613484000000000e+09 -6.000000000000000000e+01 0.000000000000000000e+00 5.000000000000000311e-10
1.490613486000000000e+09 -6.000000000000000000e+01 0.000000000000000000e+00 5.000000000000000311e-10
1.490613488000000000e+09 -6.000000000000000000e+01 0.000000000000000000e+00 5.000000000000000311e-10
1.490613490000000000e+09 -6.000000000000000000e+01 0.000000000000000000e+00 5.000000000000000311e-10
1.490613492000000000e+09 -6.000000000000000000e+01 8.699560000000000441e-05 5.000000000000000311e-10
1.490613494000000000e+09 -6.000000000000000000e+01 0.000000000000000000e+00 5.000000000000000311e-10
1.490613496000000000e+09 -6.000000000000000000e+01 0.000000000000000000e+00 5.000000000000000311e-10
1.490613498000000000e+09 -6.000000000000000000e+01 0.000000000000000000e+00 5.000000000000000311e-10
1.490613500000000000e+09 -6.000000000000000000e+01 1.016530000000000081e-03 5.000000000000000311e-10
1.490613502000000000e+09 -6.000000000000000000e+01 0.000000000000000000e+00 5.000000000000000311e-10
1.490613504000000000e+09 -6.000000000000000000e+01 0.000000000000000000e+00 5.000000000000000311e-10
1.490613506000000000e+09 -6.000000000000000000e+01 0.000000000000000000e+00 5.000000000000000311e-10
1.490613508000000000e+09 -6.000000000000000000e+01 0.000000000000000000e+00 5.000000000000000311e-10
1.490613510000000000e+09 -6.000000000000000000e+01 0.000000000000000000e+00 5.000000000000000311e-10
1.490613512000000000e+09 -6.000000000000000000e+01 0.000000000000000000e+00 5.000000000000000311e-10
1.490613514000000000e+09 -6.000000000000000000e+01 0.000000000000000000e+00 5.000000000000000311e-10
1.490613516000000000e+09 -6.000000000000000000e+01 0.000000000000000000e+00 5.000000000000000311e-10
1.490613518000000000e+09 -6.000000000000000000e+01 0.000000000000000000e+00 5.000000000000000311e-10
1.490613520000000000e+09 -6.000000000000000000e+01 0.000000000000000000e+00 5.000000000000000311e-10
1.490613522000000000e+09 -6.000000000000000000e+01 0.000000000000000000e+00 5.000000000000000311e-10
1.490613524000000000e+09 -6.000000000000000000e+01 0.000000000000000000e+00 5.000000000000000311e-10
1.490613526000000000e+09 -6.000000000000000000e+01 0.000000000000000000e+00 5.000000000000000311e-10
1.490613528000000000e+09 -6.000000000000000000e+01 0.000000000000000000e+00 5.000000000000000311e-10
1.490613530000000000e+09 -6.000000000000000000e+01 0.000000000000000000e+00 5.000000000000000311e-10
1.490613532000000000e+09 -6.000000000000000000e+01 0.000000000000000000e+00 5.000000000000000311e-10
1.490613534000000000e+09 -6.000000000000000000e+01 0.000000000000000000e+00 5.000000000000000311e-10
1.490613536000000000e+09 -6.000000000000000000e+01 4.232239999999999987e-05 5.000000000000000311e-10
1.490613538000000000e+09 -6.000000000000000000e+01 0.000000000000000000e+00 5.000000000000000311e-10
1.490613540000000000e+09 -6.000000000000000000e+01 2.842109999999999797e-04 5.000000000000000311e-10
1.490613542000000000e+09 -6.000000000000000000e+01 0.000000000000000000e+00 5.000000000000000311e-10
1.490613544000000000e+09 -6.000000000000000000e+01 0.000000000000000000e+00 5.000000000000000311e-10
1.490613546000000000e+09 -6.000000000000000000e+01 0.000000000000000000e+00 5.000000000000000311e-10
1.490613548000000000e+09 -6.000000000000000000e+01 0.000000000000000000e+00 5.000000000000000311e-10
1.490613550000000000e+09 -6.000000000000000000e+01 0.000000000000000000e+00 5.000000000000000311e-10
1.490613552000000000e+09 -6.000000000000000000e+01 0.000000000000000000e+00 5.000000000000000311e-10
1.490613554000000000e+09 -6.000000000000000000e+01 0.000000000000000000e+00 5.000000000000000311e-10
1.490613556000000000e+09 -6.000000000000000000e+01 0.000000000000000000e+00 5.000000000000000311e-10
1.490613558000000000e+09 -6.000000000000000000e+01 0.000000000000000000e+00 5.000000000000000311e-10
1.490613560000000000e+09 -6.000000000000000000e+01 8.950289999999999852e-04 5.000000000000000311e-10
1.490613562000000000e+09 -6.000000000000000000e+01 0.000000000000000000e+00 5.000000000000000311e-10
1.490613564000000000e+09 -6.000000000000000000e+01 0.000000000000000000e+00 5.000000000000000311e-10
1.490613566000000000e+09 -6.000000000000000000e+01 0.000000000000000000e+00 5.000000000000000311e-10
1.490613568000000000e+09 -6.000000000000000000e+01 0.000000000000000000e+00 5.000000000000000311e-10
1.490613570000000000e+09 -6.000000000000000000e+01 0.000000000000000000e+00 5.000000000000000311e-10
1.490613572000000000e+09 -6.000000000000000000e+01 0.000000000000000000e+00 5.000000000000000311e-10
1.490613574000000000e+09 -6.000000000000000000e+01 4.735019999999999941e-04 5.000000000000000311e-10
1.490613576000000000e+09 -6.000000000000000000e+01 0.000000000000000000e+00 5.000000000000000311e-10
1.490613578000000000e+09 -6.000000000000000000e+01 0.000000000000000000e+00 5.000000000000000311e-10
1.490613580000000000e+09 -6.000000000000000000e+01 0.000000000000000000e+00 5.000000000000000311e-10
1.490613582000000000e+09 -6.000000000000000000e+01 0.000000000000000000e+00 5.000000000000000311e-10
1.490613584000000000e+09 -6.000000000000000000e+01 0.000000000000000000e+00 5.000000000000000311e-10
1.490613586000000000e+09 -6.000000000000000000e+01 0.000000000000000000e+00 5.000000000000000311e-10
1.490613588000000000e+09 -6.000000000000000000e+01 0.000000000000000000e+00 5.000000000000000311e-10
1.490613590000000000e+09 -6.000000000000000000e+01 0.000000000000000000e+00 5.000000000000000311e-10
1.490613592000000000e+09 -6.000000000000000000e+01 3.582960000000000268e-04 5.000000000000000311e-10
1.490613594000000000e+09 -6.000000000000000000e+01 0.000000000000000000e+00 5.000000000000000311e-10
1.490613596000000000e+09 -6.000000000000000000e+01 0.000000000000000000e+00 5.000000000000000311e-10
1.490613598000000000e+09 -6.000000000000000000e+01 0.000000000000000000e+00 5.000000000000000311e-10
1.490613600000000000e+09 -6.000000000000000000e+01 2.286610000000000118e-04 5.000000000000000311e-10
1.490613602000000000e+09 -6.000000000000000000e+01 0.000000000000000000e+00 5.000000000000000311e-10
1.490613604000000000e+09 -6.000000000000000000e+01 0.000000000000000000e+00 5.000000000000000311e-10
1.490613606000000000e+09 -6.000000000000000000e+01 0.000000000000000000e+00 5.000000000000000311e-10
1.490613608000000000e+09 -6.000000000000000000e+01 0.000000000000000000e+00 5.000000000000000311e-10
1.490613610000000000e+09 -6.000000000000000000e+01 0.000000000000000000e+00 5.000000000000000311e-10
1.490613612000000000e+09 -6.000000000000000000e+01 0.000000000000000000e+00 5.000000000000000311e-10
1.490613614000000000e+09 -6.000000000000000000e+01 0.000000000000000000e+00 5.000000000000000311e-10
1.490613616000000000e+09 -6.000000000000000000e+01 0.000000000000000000e+00 5.000000000000000311e-10
1.490613618000000000e+09 -6.000000000000000000e+01 0.000000000000000000e+00 5.000000000000000311e-10
1.490613620000000000e+09 -6.000000000000000000e+01 0.000000000000000000e+00 5.000000000000000311e-10
1.490613622000000000e+09 -6.000000000000000000e+01 0.000000000000000000e+00 5.000000000000000311e-10
1.490613624000000000e+09 -6.000000000000000000e+01 0.000000000000000000e+00 5.000000000000000311e-10
1.490613626000000000e+09 -6.000000000000000000e+01 0.000000000000000000e+00 5.000000000000000311e-10
1.490613628000000000e+09 -6.000000000000000000e+01 0.000000000000000000e+00 5.000000000000000311e-10
1.490613630000000000e+09 -6.000000000000000000e+01 0.000000000000000000e+00 5.000000000000000311e-10
1.490613632000000000e+09 -6.000000000000000000e+01 0.000000000000000000e+00 5.000000000000000311e-10
1.490613634000000000e+09 -6.000000000000000000e+01 1.000360000000000051e-03 5.000000000000000311e-10
1.490613636000000000e+09 -6.000000000000000000e+01 3.431649999999999848e-04 5.000000000000000311e-10
1.490613638000000000e+09 -6.000000000000000000e+01 0.000000000000000000e+00 5.000000000000000311e-10
1.490613640000000000e+09 -6.000000000000000000e+01 3.831800000000000006e-04 5.000000000000000311e-10
1.490613642000000000e+09 -6.000000000000000000e+01 0.000000000000000000e+00 5.000000000000000311e-10
1.490613644000000000e+09 -6.000000000000000000e+01 0.000000000000000000e+00 5.000000000000000311e-10
1.490613646000000000e+09 -6.000000000000000000e+01 0.000000000000000000e+00 5.000000000000000311e-10
1.490613648000000000e+09 -6.000000000000000000e+01 0.000000000000000000e+00 5.000000000000000311e-10
1.490613650000000000e+09 -6.000000000000000000e+01 0.000000000000000000e+00 5.000000000000000311e-10
1.490613652000000000e+09 -6.000000000000000000e+01 0.000000000000000000e+00 5.000000000000000311e-10
1.490613654000000000e+09 -6.000000000000000000e+01 0.000000000000000000e+00 5.000000000000000311e-10
1.490613656000000000e+09 -6.000000000000000000e+01 1.180040000000000039e-04 5.000000000000000311e-10
1.490613658000000000e+09 -6.000000000000000000e+01 0.000000000000000000e+00 5.000000000000000311e-10
1.490613660000000000e+09 -6.000000000000000000e+01 0.000000000000000000e+00 5.000000000000000311e-10
1.490613662000000000e+09 -6.000000000000000000e+01 0.000000000000000000e+00 5.000000000000000311e-10
1.490613664000000000e+09 -6.000000000000000000e+01 0.000000000000000000e+00 5.000000000000000311e-10
1.490613666000000000e+09 -6.000000000000000000e+01 0.000000000000000000e+00 5.000000000000000311e-10
1.490613668000000000e+09 -6.000000000000000000e+01 0.000000000000000000e+00 5.000000000000000311e-10
1.490613670000000000e+09 -6.000000000000000000e+01 7.444320000000000581e-05 5.000000000000000311e-10
1.490613672000000000e+09 -6.000000000000000000e+01 0.000000000000000000e+00 5.000000000000000311e-10
1.490613674000000000e+09 -6.000000000000000000e+01 0.000000000000000000e+00 5.000000000000000311e-10
1.490613676000000000e+09 -6.000000000000000000e+01 0.000000000000000000e+00 5.000000000000000311e-10
1.490613678000000000e+09 -6.000000000000000000e+01 0.000000000000000000e+00 5.000000000000000311e-10
1.490613680000000000e+09 -6.000000000000000000e+01 0.000000000000000000e+00 5.000000000000000311e-10
1.490613682000000000e+09 -6.000000000000000000e+01 2.987859999999999952e-04 5.000000000000000311e-10
1.490613684000000000e+09 -6.000000000000000000e+01 0.000000000000000000e+00 5.000000000000000311e-10
1.490613686000000000e+09 -6.000000000000000000e+01 0.000000000000000000e+00 5.000000000000000311e-10
1.490613688000000000e+09 -6.000000000000000000e+01 0.000000000000000000e+00 5.000000000000000311e-10
1.490613690000000000e+09 -6.000000000000000000e+01 0.000000000000000000e+00 5.000000000000000311e-10
1.490613692000000000e+09 -6.000000000000000000e+01 0.000000000000000000e+00 5.000000000000000311e-10
1.490613694000000000e+09 -6.000000000000000000e+01 0.000000000000000000e+00 5.000000000000000311e-10
1.490613696000000000e+09 -6.000000000000000000e+01 0.000000000000000000e+00 5.000000000000000311e-10
1.490613698000000000e+09 -6.000000000000000000e+01 0.000000000000000000e+00 5.000000000000000311e-10
1.490613700000000000e+09 -6.000000000000000000e+01 0.000000000000000000e+00 5.000000000000000311e-10
1.490613702000000000e+09 -6.000000000000000000e+01 0.000000000000000000e+00 5.000000000000000311e-10
1.490613704000000000e+09 -6.000000000000000000e+01 0.000000000000000000e+00 5.000000000000000311e-10
1.490613706000000000e+09 -6.000000000000000000e+01 0.000000000000000000e+00 5.000000000000000311e-10
1.490613708000000000e+09 -6.000000000000000000e+01 0.000000000000000000e+00 5.000000000000000311e-10
1.490613710000000000e+09 -6.000000000000000000e+01 0.000000000000000000e+00 5.000000000000000311e-10
1.490613712000000000e+09 -6.000000000000000000e+01 0.000000000000000000e+00 5.000000000000000311e-10
1.490613714000000000e+09 -6.000000000000000000e+01 0.000000000000000000e+00 5.000000000000000311e-10
1.490613716000000000e+09 -6.000000000000000000e+01 0.000000000000000000e+00 5.000000000000000311e-10
1.490613718000000000e+09 -6.000000000000000000e+01 0.000000000000000000e+00 5.000000000000000311e-10
1.490613720000000000e+09 -6.000000000000000000e+01 0.000000000000000000e+00 5.000000000000000311e-10
1.490613722000000000e+09 -6.000000000000000000e+01 0.000000000000000000e+00 5.000000000000000311e-10
1.490613724000000000e+09 -6.000000000000000000e+01 0.000000000000000000e+00 5.000000000000000311e-10
1.490613726000000000e+09 -6.000000000000000000e+01 0.000000000000000000e+00 5.000000000000000311e-10
1.490613728000000000e+09 -6.000000000000000000e+01 0.000000000000000000e+00 5.000000000000000311e-10
1.490613730000000000e+09 -6.000000000000000000e+01 0.000000000000000000e+00 5.000000000000000311e-10
1.490613732000000000e+09 -6.000000000000000000e+01 0.000000000000000000e+00 5.000000000000000311e-10
1.490613734000000000e+09 -6.000000000000000000e+01 0.000000000000000000e+00 5.000000000000000311e-10
1.490613736000000000e+09 -6.000000000000000000e+01 0.000000000000000000e+00 5.000000000000000311e-10
1.490613738000000000e+09 -6.000000000000000000e+01 0.000000000000000000e+00 5.000000000000000311e-10
1.490613740000000000e+09 -6.000000000000000000e+01 0.000000000000000000e+00 5.000000000000000311e-10
1.490613742000000000e+09 -6.000000000000000000e+01 0.000000000000000000e+00 5.000000000000000311e-10
1.490613744000000000e+09 -6.000000000000000000e+01 0.000000000000000000e+00 5.000000000000000311e-10
1.490613746000000000e+09 -6.000000000000000000e+01 0.000000000000000000e+00 5.000000000000000311e-10
1.490613748000000000e+09 -6.000000000000000000e+01 3.766220000000000001e-05 5.000000000000000311e-10
1.490613750000000000e+09 -6.000000000000000000e+01 0.000000000000000000e+00 5.000000000000000311e-10
1.490613752000000000e+09 -6.000000000000000000e+01 0.000000000000000000e+00 5.000000000000000311e-10
1.490613754000000000e+09 -6.000000000000000000e+01 0.000000000000000000e+00 5.000000000000000311e-10
1.490613756000000000e+09 -6.000000000000000000e+01 0.000000000000000000e+00 5.000000000000000311e-10
1.490613758000000000e+09 -6.000000000000000000e+01 0.000000000000000000e+00 5.000000000000000311e-10
1.490613760000000000e+09 -6.000000000000000000e+01 1.955609999999999933e-04 5.000000000000000311e-10
1.490613762000000000e+09 -6.000000000000000000e+01 0.000000000000000000e+00 5.000000000000000311e-10
1.490613764000000000e+09 -6.000000000000000000e+01 0.000000000000000000e+00 5.000000000000000311e-10
1.490613766000000000e+09 -6.000000000000000000e+01 3.250559999999999995e-04 5.000000000000000311e-10
1.490613768000000000e+09 -6.000000000000000000e+01 0.000000000000000000e+00 5.000000000000000311e-10
1.490613770000000000e+09 -6.000000000000000000e+01 0.000000000000000000e+00 5.000000000000000311e-10
1.490613772000000000e+09 -6.000000000000000000e+01 0.000000000000000000e+00 5.000000000000000311e-10
1.490613774000000000e+09 -6.000000000000000000e+01 0.000000000000000000e+00 5.000000000000000311e-10
1.490613776000000000e+09 -6.000000000000000000e+01 0.000000000000000000e+00 5.000000000000000311e-10
1.490613778000000000e+09 -6.000000000000000000e+01 0.000000000000000000e+00 5.000000000000000311e-10
1.490613780000000000e+09 -6.000000000000000000e+01 0.000000000000000000e+00 5.000000000000000311e-10
1.490613782000000000e+09 -6.000000000000000000e+01 0.000000000000000000e+00 5.000000000000000311e-10
1.490613784000000000e+09 -6.000000000000000000e+01 0.000000000000000000e+00 5.000000000000000311e-10
1.490613786000000000e+09 -6.000000000000000000e+01 0.000000000000000000e+00 5.000000000000000311e-10
1.490613788000000000e+09 -6.000000000000000000e+01 0.000000000000000000e+00 5.000000000000000311e-10
1.490613790000000000e+09 -6.000000000000000000e+01 0.000000000000000000e+00 5.000000000000000311e-10
1.490613792000000000e+09 -6.000000000000000000e+01 0.000000000000000000e+00 5.000000000000000311e-10
1.490613794000000000e+09 -6.000000000000000000e+01 0.000000000000000000e+00 5.000000000000000311e-10
1.490613796000000000e+09 -6.000000000000000000e+01 0.000000000000000000e+00 5.000000000000000311e-10
1.490613798000000000e+09 -6.000000000000000000e+01 0.000000000000000000e+00 5.000000000000000311e-10
1.490613800000000000e+09 -6.000000000000000000e+01 0.000000000000000000e+00 5.000000000000000311e-10
1.490613802000000000e+09 -6.000000000000000000e+01 0.000000000000000000e+00 5.000000000000000311e-10
1.490613804000000000e+09 -6.000000000000000000e+01 0.000000000000000000e+00 5.000000000000000311e-10
1.490613806000000000e+09 -6.000000000000000000e+01 0.000000000000000000e+00 5.000000000000000311e-10
