/work/sebastian/BT-20210625/1009328-light/run1009328-light.h5 tag-1490958126//
/work/sebastian/BT-20210625/1009328-light/run1009328-light.h5 tag-1490958130//
/work/sebastian/BT-20210625/1009328-light/run1009328-light.h5 tag-1490958144//
/work/sebastian/BT-20210625/1009328-light/run1009328-light.h5 tag-1490958146//
/work/sebastian/BT-20210625/1009328-light/run1009328-light.h5 tag-1490958152//
/work/sebastian/BT-20210625/1009328-light/run1009328-light.h5 tag-1490958154//
/work/sebastian/BT-20210625/1009328-light/run1009328-light.h5 tag-1490958156//
/work/sebastian/BT-20210625/1009328-light/run1009328-light.h5 tag-1490958164//
/work/sebastian/BT-20210625/1009328-light/run1009328-light.h5 tag-1490958170//
/work/sebastian/BT-20210625/1009328-light/run1009328-light.h5 tag-1490958180//
/work/sebastian/BT-20210625/1009328-light/run1009328-light.h5 tag-1490958184//
/work/sebastian/BT-20210625/1009328-light/run1009328-light.h5 tag-1490958186//
/work/sebastian/BT-20210625/1009328-light/run1009328-light.h5 tag-1490958206//
/work/sebastian/BT-20210625/1009328-light/run1009328-light.h5 tag-1490958210//
/work/sebastian/BT-20210625/1009328-light/run1009328-light.h5 tag-1490958212//
/work/sebastian/BT-20210625/1009328-light/run1009328-light.h5 tag-1490958214//
/work/sebastian/BT-20210625/1009328-light/run1009328-light.h5 tag-1490958218//
/work/sebastian/BT-20210625/1009328-light/run1009328-light.h5 tag-1490958230//
/work/sebastian/BT-20210625/1009328-light/run1009328-light.h5 tag-1490958232//
/work/sebastian/BT-20210625/1009328-light/run1009328-light.h5 tag-1490958240//
/work/sebastian/BT-20210625/1009328-light/run1009328-light.h5 tag-1490958254//
/work/sebastian/BT-20210625/1009328-light/run1009328-light.h5 tag-1490958256//
/work/sebastian/BT-20210625/1009328-light/run1009328-light.h5 tag-1490958260//
/work/sebastian/BT-20210625/1009328-light/run1009328-light.h5 tag-1490958262//
/work/sebastian/BT-20210625/1009328-light/run1009328-light.h5 tag-1490958270//
/work/sebastian/BT-20210625/1009328-light/run1009328-light.h5 tag-1490958272//
/work/sebastian/BT-20210625/1009328-light/run1009328-light.h5 tag-1490958276//
/work/sebastian/BT-20210625/1009328-light/run1009328-light.h5 tag-1490958284//
/work/sebastian/BT-20210625/1009328-light/run1009328-light.h5 tag-1490958294//
/work/sebastian/BT-20210625/1009328-light/run1009328-light.h5 tag-1490958306//
/work/sebastian/BT-20210625/1009328-light/run1009328-light.h5 tag-1490958314//
/work/sebastian/BT-20210625/1009328-light/run1009328-light.h5 tag-1490958318//
/work/sebastian/BT-20210625/1009328-light/run1009328-light.h5 tag-1490958326//
/work/sebastian/BT-20210625/1009328-light/run1009328-light.h5 tag-1490958328//
/work/sebastian/BT-20210625/1009328-light/run1009328-light.h5 tag-1490958334//
/work/sebastian/BT-20210625/1009328-light/run1009328-light.h5 tag-1490958338//
/work/sebastian/BT-20210625/1009328-light/run1009328-light.h5 tag-1490958340//
/work/sebastian/BT-20210625/1009328-light/run1009328-light.h5 tag-1490958348//
/work/sebastian/BT-20210625/1009328-light/run1009328-light.h5 tag-1490958350//
/work/sebastian/BT-20210625/1009328-light/run1009328-light.h5 tag-1490958358//
/work/sebastian/BT-20210625/1009328-light/run1009328-light.h5 tag-1490958364//
/work/sebastian/BT-20210625/1009328-light/run1009328-light.h5 tag-1490958370//
/work/sebastian/BT-20210625/1009328-light/run1009328-light.h5 tag-1490958376//
/work/sebastian/BT-20210625/1009328-light/run1009328-light.h5 tag-1490958388//
/work/sebastian/BT-20210625/1009328-light/run1009328-light.h5 tag-1490958392//
/work/sebastian/BT-20210625/1009328-light/run1009328-light.h5 tag-1490958394//
/work/sebastian/BT-20210625/1009328-light/run1009328-light.h5 tag-1490958406//
/work/sebastian/BT-20210625/1009328-light/run1009328-light.h5 tag-1490958408//
/work/sebastian/BT-20210625/1009328-light/run1009328-light.h5 tag-1490958410//
/work/sebastian/BT-20210625/1009328-light/run1009328-light.h5 tag-1490958412//
/work/sebastian/BT-20210625/1009328-light/run1009328-light.h5 tag-1490958414//
/work/sebastian/BT-20210625/1009328-light/run1009328-light.h5 tag-1490958416//
/work/sebastian/BT-20210625/1009328-light/run1009328-light.h5 tag-1490958418//
/work/sebastian/BT-20210625/1009328-light/run1009328-light.h5 tag-1490958424//
/work/sebastian/BT-20210625/1009328-light/run1009328-light.h5 tag-1490958432//
/work/sebastian/BT-20210625/1009328-light/run1009328-light.h5 tag-1490958434//
/work/sebastian/BT-20210625/1009328-light/run1009328-light.h5 tag-1490958436//
/work/sebastian/BT-20210625/1009328-light/run1009328-light.h5 tag-1490958444//
/work/sebastian/BT-20210625/1009328-light/run1009328-light.h5 tag-1490958448//
/work/sebastian/BT-20210625/1009328-light/run1009328-light.h5 tag-1490958452//
/work/sebastian/BT-20210625/1009328-light/run1009328-light.h5 tag-1490958456//
/work/sebastian/BT-20210625/1009328-light/run1009328-light.h5 tag-1490958458//
/work/sebastian/BT-20210625/1009328-light/run1009328-light.h5 tag-1490958468//
/work/sebastian/BT-20210625/1009328-light/run1009328-light.h5 tag-1490958474//
/work/sebastian/BT-20210625/1009328-light/run1009328-light.h5 tag-1490958488//
/work/sebastian/BT-20210625/1009328-light/run1009328-light.h5 tag-1490958490//
/work/sebastian/BT-20210625/1009328-light/run1009328-light.h5 tag-1490958496//
/work/sebastian/BT-20210625/1009328-light/run1009328-light.h5 tag-1490958502//
/work/sebastian/BT-20210625/1009328-light/run1009328-light.h5 tag-1490958506//
/work/sebastian/BT-20210625/1009328-light/run1009328-light.h5 tag-1490958512//
/work/sebastian/BT-20210625/1009328-light/run1009328-light.h5 tag-1490958514//
/work/sebastian/BT-20210625/1009328-light/run1009328-light.h5 tag-1490958516//
/work/sebastian/BT-20210625/1009328-light/run1009328-light.h5 tag-1490958520//
/work/sebastian/BT-20210625/1009328-light/run1009328-light.h5 tag-1490958522//
/work/sebastian/BT-20210625/1009328-light/run1009328-light.h5 tag-1490958526//
/work/sebastian/BT-20210625/1009328-light/run1009328-light.h5 tag-1490958528//
/work/sebastian/BT-20210625/1009328-light/run1009328-light.h5 tag-1490958536//
/work/sebastian/BT-20210625/1009328-light/run1009328-light.h5 tag-1490958540//
/work/sebastian/BT-20210625/1009328-light/run1009328-light.h5 tag-1490958548//
/work/sebastian/BT-20210625/1009328-light/run1009328-light.h5 tag-1490958550//
/work/sebastian/BT-20210625/1009328-light/run1009328-light.h5 tag-1490958552//
/work/sebastian/BT-20210625/1009328-light/run1009328-light.h5 tag-1490958560//
/work/sebastian/BT-20210625/1009328-light/run1009328-light.h5 tag-1490958564//
/work/sebastian/BT-20210625/1009328-light/run1009328-light.h5 tag-1490958566//
/work/sebastian/BT-20210625/1009328-light/run1009328-light.h5 tag-1490958568//
/work/sebastian/BT-20210625/1009328-light/run1009328-light.h5 tag-1490958570//
/work/sebastian/BT-20210625/1009328-light/run1009328-light.h5 tag-1490958576//
/work/sebastian/BT-20210625/1009328-light/run1009328-light.h5 tag-1490958582//
/work/sebastian/BT-20210625/1009328-light/run1009328-light.h5 tag-1490958584//
/work/sebastian/BT-20210625/1009328-light/run1009328-light.h5 tag-1490958588//
/work/sebastian/BT-20210625/1009328-light/run1009328-light.h5 tag-1490958594//
/work/sebastian/BT-20210625/1009328-light/run1009328-light.h5 tag-1490958596//
/work/sebastian/BT-20210625/1009328-light/run1009328-light.h5 tag-1490958602//
/work/sebastian/BT-20210625/1009328-light/run1009328-light.h5 tag-1490958610//
/work/sebastian/BT-20210625/1009328-light/run1009328-light.h5 tag-1490958616//
/work/sebastian/BT-20210625/1009328-light/run1009328-light.h5 tag-1490958626//
/work/sebastian/BT-20210625/1009328-light/run1009328-light.h5 tag-1490958634//
/work/sebastian/BT-20210625/1009328-light/run1009328-light.h5 tag-1490958636//
/work/sebastian/BT-20210625/1009328-light/run1009328-light.h5 tag-1490958648//
/work/sebastian/BT-20210625/1009328-light/run1009328-light.h5 tag-1490958656//
/work/sebastian/BT-20210625/1009328-light/run1009328-light.h5 tag-1490958664//
/work/sebastian/BT-20210625/1009328-light/run1009328-light.h5 tag-1490958668//
/work/sebastian/BT-20210625/1009328-light/run1009328-light.h5 tag-1490958670//
/work/sebastian/BT-20210625/1009328-light/run1009328-light.h5 tag-1490958686//
/work/sebastian/BT-20210625/1009328-light/run1009328-light.h5 tag-1490958694//
/work/sebastian/BT-20210625/1009328-light/run1009328-light.h5 tag-1490958698//
/work/sebastian/BT-20210625/1009328-light/run1009328-light.h5 tag-1490958700//
/work/sebastian/BT-20210625/1009328-light/run1009328-light.h5 tag-1490958704//
/work/sebastian/BT-20210625/1009328-light/run1009328-light.h5 tag-1490958712//
/work/sebastian/BT-20210625/1009328-light/run1009328-light.h5 tag-1490958714//
/work/sebastian/BT-20210625/1009328-light/run1009328-light.h5 tag-1490958716//
/work/sebastian/BT-20210625/1009328-light/run1009328-light.h5 tag-1490958724//
/work/sebastian/BT-20210625/1009328-light/run1009328-light.h5 tag-1490958726//
/work/sebastian/BT-20210625/1009328-light/run1009328-light.h5 tag-1490958730//
/work/sebastian/BT-20210625/1009328-light/run1009328-light.h5 tag-1490958736//
/work/sebastian/BT-20210625/1009328-light/run1009328-light.h5 tag-1490958750//
/work/sebastian/BT-20210625/1009328-light/run1009328-light.h5 tag-1490958756//
/work/sebastian/BT-20210625/1009328-light/run1009328-light.h5 tag-1490958762//
/work/sebastian/BT-20210625/1009328-light/run1009328-light.h5 tag-1490958774//
/work/sebastian/BT-20210625/1009328-light/run1009328-light.h5 tag-1490958776//
/work/sebastian/BT-20210625/1009328-light/run1009328-light.h5 tag-1490958778//
/work/sebastian/BT-20210625/1009328-light/run1009328-light.h5 tag-1490958780//
/work/sebastian/BT-20210625/1009328-light/run1009328-light.h5 tag-1490958784//
/work/sebastian/BT-20210625/1009328-light/run1009328-light.h5 tag-1490958786//
/work/sebastian/BT-20210625/1009328-light/run1009328-light.h5 tag-1490958792//
/work/sebastian/BT-20210625/1009328-light/run1009328-light.h5 tag-1490958794//
/work/sebastian/BT-20210625/1009328-light/run1009328-light.h5 tag-1490958798//
/work/sebastian/BT-20210625/1009328-light/run1009328-light.h5 tag-1490958800//
/work/sebastian/BT-20210625/1009328-light/run1009328-light.h5 tag-1490958806//
/work/sebastian/BT-20210625/1009328-light/run1009328-light.h5 tag-1490958814//
/work/sebastian/BT-20210625/1009328-light/run1009328-light.h5 tag-1490958822//
/work/sebastian/BT-20210625/1009328-light/run1009328-light.h5 tag-1490958824//
/work/sebastian/BT-20210625/1009328-light/run1009328-light.h5 tag-1490958826//
/work/sebastian/BT-20210625/1009328-light/run1009328-light.h5 tag-1490958828//
/work/sebastian/BT-20210625/1009328-light/run1009328-light.h5 tag-1490958834//
/work/sebastian/BT-20210625/1009328-light/run1009328-light.h5 tag-1490958840//
/work/sebastian/BT-20210625/1009328-light/run1009328-light.h5 tag-1490958844//
/work/sebastian/BT-20210625/1009328-light/run1009328-light.h5 tag-1490958846//
/work/sebastian/BT-20210625/1009328-light/run1009328-light.h5 tag-1490958862//
/work/sebastian/BT-20210625/1009328-light/run1009328-light.h5 tag-1490958874//
/work/sebastian/BT-20210625/1009328-light/run1009328-light.h5 tag-1490958876//
/work/sebastian/BT-20210625/1009328-light/run1009328-light.h5 tag-1490958880//
/work/sebastian/BT-20210625/1009328-light/run1009328-light.h5 tag-1490958888//
/work/sebastian/BT-20210625/1009328-light/run1009328-light.h5 tag-1490958892//
/work/sebastian/BT-20210625/1009328-light/run1009328-light.h5 tag-1490958896//
/work/sebastian/BT-20210625/1009328-light/run1009328-light.h5 tag-1490958900//
/work/sebastian/BT-20210625/1009328-light/run1009328-light.h5 tag-1490958902//
/work/sebastian/BT-20210625/1009328-light/run1009328-light.h5 tag-1490958916//
/work/sebastian/BT-20210625/1009328-light/run1009328-light.h5 tag-1490958926//
/work/sebastian/BT-20210625/1009328-light/run1009328-light.h5 tag-1490958934//
/work/sebastian/BT-20210625/1009328-light/run1009328-light.h5 tag-1490958940//
/work/sebastian/BT-20210625/1009328-light/run1009328-light.h5 tag-1490958942//
/work/sebastian/BT-20210625/1009328-light/run1009328-light.h5 tag-1490958944//
/work/sebastian/BT-20210625/1009328-light/run1009328-light.h5 tag-1490958948//
/work/sebastian/BT-20210625/1009328-light/run1009328-light.h5 tag-1490958950//
/work/sebastian/BT-20210625/1009328-light/run1009328-light.h5 tag-1490958954//
/work/sebastian/BT-20210625/1009328-light/run1009328-light.h5 tag-1490958966//
/work/sebastian/BT-20210625/1009328-light/run1009328-light.h5 tag-1490958978//
/work/sebastian/BT-20210625/1009328-light/run1009328-light.h5 tag-1490958980//
/work/sebastian/BT-20210625/1009328-light/run1009328-light.h5 tag-1490958986//
/work/sebastian/BT-20210625/1009328-light/run1009328-light.h5 tag-1490958990//
/work/sebastian/BT-20210625/1009328-light/run1009328-light.h5 tag-1490958996//
/work/sebastian/BT-20210625/1009328-light/run1009328-light.h5 tag-1490959006//
/work/sebastian/BT-20210625/1009328-light/run1009328-light.h5 tag-1490959010//
/work/sebastian/BT-20210625/1009328-light/run1009328-light.h5 tag-1490959014//
/work/sebastian/BT-20210625/1009328-light/run1009328-light.h5 tag-1490959018//
/work/sebastian/BT-20210625/1009328-light/run1009328-light.h5 tag-1490959024//
/work/sebastian/BT-20210625/1009328-light/run1009328-light.h5 tag-1490959032//
/work/sebastian/BT-20210625/1009328-light/run1009328-light.h5 tag-1490959036//
/work/sebastian/BT-20210625/1009328-light/run1009328-light.h5 tag-1490959040//
/work/sebastian/BT-20210625/1009328-light/run1009328-light.h5 tag-1490959042//
/work/sebastian/BT-20210625/1009328-light/run1009328-light.h5 tag-1490959050//
/work/sebastian/BT-20210625/1009328-light/run1009328-light.h5 tag-1490959054//
/work/sebastian/BT-20210625/1009328-light/run1009328-light.h5 tag-1490959056//
/work/sebastian/BT-20210625/1009328-light/run1009328-light.h5 tag-1490959058//
/work/sebastian/BT-20210625/1009328-light/run1009328-light.h5 tag-1490959066//
/work/sebastian/BT-20210625/1009328-light/run1009328-light.h5 tag-1490959068//
/work/sebastian/BT-20210625/1009328-light/run1009328-light.h5 tag-1490959070//
/work/sebastian/BT-20210625/1009328-light/run1009328-light.h5 tag-1490959074//
/work/sebastian/BT-20210625/1009328-light/run1009328-light.h5 tag-1490959076//
/work/sebastian/BT-20210625/1009328-light/run1009328-light.h5 tag-1490959078//
/work/sebastian/BT-20210625/1009328-light/run1009328-light.h5 tag-1490959082//
/work/sebastian/BT-20210625/1009328-light/run1009328-light.h5 tag-1490959084//
/work/sebastian/BT-20210625/1009328-light/run1009328-light.h5 tag-1490959090//
/work/sebastian/BT-20210625/1009328-light/run1009328-light.h5 tag-1490959102//
/work/sebastian/BT-20210625/1009328-light/run1009328-light.h5 tag-1490959104//
/work/sebastian/BT-20210625/1009328-light/run1009328-light.h5 tag-1490959114//
/work/sebastian/BT-20210625/1009328-light/run1009328-light.h5 tag-1490959116//
/work/sebastian/BT-20210625/1009328-light/run1009328-light.h5 tag-1490959120//
/work/sebastian/BT-20210625/1009328-light/run1009328-light.h5 tag-1490959126//
/work/sebastian/BT-20210625/1009328-light/run1009328-light.h5 tag-1490959132//
/work/sebastian/BT-20210625/1009328-light/run1009328-light.h5 tag-1490959136//
/work/sebastian/BT-20210625/1009328-light/run1009328-light.h5 tag-1490959138//
/work/sebastian/BT-20210625/1009328-light/run1009328-light.h5 tag-1490959142//
/work/sebastian/BT-20210625/1009328-light/run1009328-light.h5 tag-1490959152//
/work/sebastian/BT-20210625/1009328-light/run1009328-light.h5 tag-1490959164//
/work/sebastian/BT-20210625/1009328-light/run1009328-light.h5 tag-1490959166//
/work/sebastian/BT-20210625/1009328-light/run1009328-light.h5 tag-1490959168//
/work/sebastian/BT-20210625/1009328-light/run1009328-light.h5 tag-1490959170//
/work/sebastian/BT-20210625/1009328-light/run1009328-light.h5 tag-1490959172//
/work/sebastian/BT-20210625/1009328-light/run1009328-light.h5 tag-1490959178//
/work/sebastian/BT-20210625/1009328-light/run1009328-light.h5 tag-1490959182//
/work/sebastian/BT-20210625/1009328-light/run1009328-light.h5 tag-1490959184//
/work/sebastian/BT-20210625/1009328-light/run1009328-light.h5 tag-1490959198//
/work/sebastian/BT-20210625/1009328-light/run1009328-light.h5 tag-1490959210//
/work/sebastian/BT-20210625/1009328-light/run1009328-light.h5 tag-1490959212//
/work/sebastian/BT-20210625/1009328-light/run1009328-light.h5 tag-1490959214//
/work/sebastian/BT-20210625/1009328-light/run1009328-light.h5 tag-1490959216//
/work/sebastian/BT-20210625/1009328-light/run1009328-light.h5 tag-1490959224//
/work/sebastian/BT-20210625/1009328-light/run1009328-light.h5 tag-1490959226//
/work/sebastian/BT-20210625/1009328-light/run1009328-light.h5 tag-1490959228//
/work/sebastian/BT-20210625/1009328-light/run1009328-light.h5 tag-1490959230//
/work/sebastian/BT-20210625/1009328-light/run1009328-light.h5 tag-1490959232//
/work/sebastian/BT-20210625/1009328-light/run1009328-light.h5 tag-1490959234//
/work/sebastian/BT-20210625/1009328-light/run1009328-light.h5 tag-1490959236//
/work/sebastian/BT-20210625/1009328-light/run1009328-light.h5 tag-1490959240//
/work/sebastian/BT-20210625/1009328-light/run1009328-light.h5 tag-1490959244//
/work/sebastian/BT-20210625/1009328-light/run1009328-light.h5 tag-1490959250//
/work/sebastian/BT-20210625/1009328-light/run1009328-light.h5 tag-1490959258//
/work/sebastian/BT-20210625/1009328-light/run1009328-light.h5 tag-1490959264//
/work/sebastian/BT-20210625/1009328-light/run1009328-light.h5 tag-1490959266//
/work/sebastian/BT-20210625/1009328-light/run1009328-light.h5 tag-1490959270//
/work/sebastian/BT-20210625/1009328-light/run1009328-light.h5 tag-1490959274//
/work/sebastian/BT-20210625/1009328-light/run1009328-light.h5 tag-1490959282//
/work/sebastian/BT-20210625/1009328-light/run1009328-light.h5 tag-1490959284//
/work/sebastian/BT-20210625/1009328-light/run1009328-light.h5 tag-1490959286//
/work/sebastian/BT-20210625/1009328-light/run1009328-light.h5 tag-1490959290//
/work/sebastian/BT-20210625/1009328-light/run1009328-light.h5 tag-1490959292//
/work/sebastian/BT-20210625/1009328-light/run1009328-light.h5 tag-1490959294//
/work/sebastian/BT-20210625/1009328-light/run1009328-light.h5 tag-1490959300//
/work/sebastian/BT-20210625/1009328-light/run1009328-light.h5 tag-1490959302//
/work/sebastian/BT-20210625/1009328-light/run1009328-light.h5 tag-1490959304//
/work/sebastian/BT-20210625/1009328-light/run1009328-light.h5 tag-1490959306//
/work/sebastian/BT-20210625/1009328-light/run1009328-light.h5 tag-1490959312//
/work/sebastian/BT-20210625/1009328-light/run1009328-light.h5 tag-1490959316//
/work/sebastian/BT-20210625/1009328-light/run1009328-light.h5 tag-1490959322//
/work/sebastian/BT-20210625/1009328-light/run1009328-light.h5 tag-1490959332//
/work/sebastian/BT-20210625/1009328-light/run1009328-light.h5 tag-1490959336//
/work/sebastian/BT-20210625/1009328-light/run1009328-light.h5 tag-1490959350//
/work/sebastian/BT-20210625/1009328-light/run1009328-light.h5 tag-1490959356//
/work/sebastian/BT-20210625/1009328-light/run1009328-light.h5 tag-1490959360//
/work/sebastian/BT-20210625/1009328-light/run1009328-light.h5 tag-1490959364//
/work/sebastian/BT-20210625/1009328-light/run1009328-light.h5 tag-1490959368//
/work/sebastian/BT-20210625/1009328-light/run1009328-light.h5 tag-1490959370//
/work/sebastian/BT-20210625/1009328-light/run1009328-light.h5 tag-1490959374//
/work/sebastian/BT-20210625/1009328-light/run1009328-light.h5 tag-1490959376//
/work/sebastian/BT-20210625/1009328-light/run1009328-light.h5 tag-1490959382//
/work/sebastian/BT-20210625/1009328-light/run1009328-light.h5 tag-1490959390//
/work/sebastian/BT-20210625/1009328-light/run1009328-light.h5 tag-1490959392//
/work/sebastian/BT-20210625/1009328-light/run1009328-light.h5 tag-1490959394//
/work/sebastian/BT-20210625/1009328-light/run1009328-light.h5 tag-1490959398//
/work/sebastian/BT-20210625/1009328-light/run1009328-light.h5 tag-1490959404//
/work/sebastian/BT-20210625/1009328-light/run1009328-light.h5 tag-1490959408//
/work/sebastian/BT-20210625/1009328-light/run1009328-light.h5 tag-1490959412//
/work/sebastian/BT-20210625/1009328-light/run1009328-light.h5 tag-1490959414//
/work/sebastian/BT-20210625/1009328-light/run1009328-light.h5 tag-1490959418//
/work/sebastian/BT-20210625/1009328-light/run1009328-light.h5 tag-1490959422//
/work/sebastian/BT-20210625/1009328-light/run1009328-light.h5 tag-1490959432//
/work/sebastian/BT-20210625/1009328-light/run1009328-light.h5 tag-1490959446//
/work/sebastian/BT-20210625/1009328-light/run1009328-light.h5 tag-1490959452//
/work/sebastian/BT-20210625/1009328-light/run1009328-light.h5 tag-1490959468//
/work/sebastian/BT-20210625/1009328-light/run1009328-light.h5 tag-1490959476//
/work/sebastian/BT-20210625/1009328-light/run1009328-light.h5 tag-1490959494//
/work/sebastian/BT-20210625/1009328-light/run1009328-light.h5 tag-1490959496//
/work/sebastian/BT-20210625/1009328-light/run1009328-light.h5 tag-1490959502//
/work/sebastian/BT-20210625/1009328-light/run1009328-light.h5 tag-1490959504//
/work/sebastian/BT-20210625/1009328-light/run1009328-light.h5 tag-1490959512//
/work/sebastian/BT-20210625/1009328-light/run1009328-light.h5 tag-1490959516//
/work/sebastian/BT-20210625/1009328-light/run1009328-light.h5 tag-1490959522//
/work/sebastian/BT-20210625/1009328-light/run1009328-light.h5 tag-1490959524//
/work/sebastian/BT-20210625/1009328-light/run1009328-light.h5 tag-1490959536//
/work/sebastian/BT-20210625/1009328-light/run1009328-light.h5 tag-1490959538//
/work/sebastian/BT-20210625/1009328-light/run1009328-light.h5 tag-1490959542//
/work/sebastian/BT-20210625/1009328-light/run1009328-light.h5 tag-1490959546//
/work/sebastian/BT-20210625/1009328-light/run1009328-light.h5 tag-1490959548//
/work/sebastian/BT-20210625/1009328-light/run1009328-light.h5 tag-1490959552//
/work/sebastian/BT-20210625/1009328-light/run1009328-light.h5 tag-1490959554//
/work/sebastian/BT-20210625/1009328-light/run1009328-light.h5 tag-1490959558//
/work/sebastian/BT-20210625/1009328-light/run1009328-light.h5 tag-1490959560//
/work/sebastian/BT-20210625/1009328-light/run1009328-light.h5 tag-1490959568//
/work/sebastian/BT-20210625/1009328-light/run1009328-light.h5 tag-1490959570//
/work/sebastian/BT-20210625/1009328-light/run1009328-light.h5 tag-1490959574//
/work/sebastian/BT-20210625/1009328-light/run1009328-light.h5 tag-1490959578//
/work/sebastian/BT-20210625/1009328-light/run1009328-light.h5 tag-1490959580//
/work/sebastian/BT-20210625/1009328-light/run1009328-light.h5 tag-1490959586//
/work/sebastian/BT-20210625/1009328-light/run1009328-light.h5 tag-1490959590//
/work/sebastian/BT-20210625/1009328-light/run1009328-light.h5 tag-1490959594//
/work/sebastian/BT-20210625/1009328-light/run1009328-light.h5 tag-1490959602//
/work/sebastian/BT-20210625/1009328-light/run1009328-light.h5 tag-1490959604//
/work/sebastian/BT-20210625/1009328-light/run1009328-light.h5 tag-1490959610//
/work/sebastian/BT-20210625/1009328-light/run1009328-light.h5 tag-1490959612//
/work/sebastian/BT-20210625/1009328-light/run1009328-light.h5 tag-1490959616//
/work/sebastian/BT-20210625/1009328-light/run1009328-light.h5 tag-1490959622//
/work/sebastian/BT-20210625/1009328-light/run1009328-light.h5 tag-1490959626//
/work/sebastian/BT-20210625/1009328-light/run1009328-light.h5 tag-1490959628//
/work/sebastian/BT-20210625/1009328-light/run1009328-light.h5 tag-1490959632//
/work/sebastian/BT-20210625/1009328-light/run1009328-light.h5 tag-1490959640//
/work/sebastian/BT-20210625/1009328-light/run1009328-light.h5 tag-1490959644//
/work/sebastian/BT-20210625/1009328-light/run1009328-light.h5 tag-1490959658//
/work/sebastian/BT-20210625/1009328-light/run1009328-light.h5 tag-1490959662//
/work/sebastian/BT-20210625/1009328-light/run1009328-light.h5 tag-1490959664//
/work/sebastian/BT-20210625/1009328-light/run1009328-light.h5 tag-1490959670//
/work/sebastian/BT-20210625/1009328-light/run1009328-light.h5 tag-1490959674//
/work/sebastian/BT-20210625/1009328-light/run1009328-light.h5 tag-1490959682//
/work/sebastian/BT-20210625/1009328-light/run1009328-light.h5 tag-1490959684//
/work/sebastian/BT-20210625/1009328-light/run1009328-light.h5 tag-1490959686//
/work/sebastian/BT-20210625/1009328-light/run1009328-light.h5 tag-1490959688//
/work/sebastian/BT-20210625/1009328-light/run1009328-light.h5 tag-1490959694//
/work/sebastian/BT-20210625/1009328-light/run1009328-light.h5 tag-1490959698//
/work/sebastian/BT-20210625/1009328-light/run1009328-light.h5 tag-1490959714//
/work/sebastian/BT-20210625/1009328-light/run1009328-light.h5 tag-1490959718//
/work/sebastian/BT-20210625/1009328-light/run1009328-light.h5 tag-1490959726//
/work/sebastian/BT-20210625/1009328-light/run1009328-light.h5 tag-1490959728//
/work/sebastian/BT-20210625/1009328-light/run1009328-light.h5 tag-1490959734//
/work/sebastian/BT-20210625/1009328-light/run1009328-light.h5 tag-1490959738//
/work/sebastian/BT-20210625/1009328-light/run1009328-light.h5 tag-1490959740//
/work/sebastian/BT-20210625/1009328-light/run1009328-light.h5 tag-1490959742//
/work/sebastian/BT-20210625/1009328-light/run1009328-light.h5 tag-1490959746//
/work/sebastian/BT-20210625/1009328-light/run1009328-light.h5 tag-1490959748//
/work/sebastian/BT-20210625/1009328-light/run1009328-light.h5 tag-1490959752//
/work/sebastian/BT-20210625/1009328-light/run1009328-light.h5 tag-1490959758//
/work/sebastian/BT-20210625/1009328-light/run1009328-light.h5 tag-1490959760//
/work/sebastian/BT-20210625/1009328-light/run1009328-light.h5 tag-1490959768//
/work/sebastian/BT-20210625/1009328-light/run1009328-light.h5 tag-1490959774//
/work/sebastian/BT-20210625/1009328-light/run1009328-light.h5 tag-1490959776//
/work/sebastian/BT-20210625/1009328-light/run1009328-light.h5 tag-1490959778//
/work/sebastian/BT-20210625/1009328-light/run1009328-light.h5 tag-1490959788//
/work/sebastian/BT-20210625/1009328-light/run1009328-light.h5 tag-1490959790//
/work/sebastian/BT-20210625/1009328-light/run1009328-light.h5 tag-1490959792//
/work/sebastian/BT-20210625/1009328-light/run1009328-light.h5 tag-1490959796//
/work/sebastian/BT-20210625/1009328-light/run1009328-light.h5 tag-1490959802//
/work/sebastian/BT-20210625/1009328-light/run1009328-light.h5 tag-1490959814//
/work/sebastian/BT-20210625/1009328-light/run1009328-light.h5 tag-1490959818//
/work/sebastian/BT-20210625/1009328-light/run1009328-light.h5 tag-1490959820//
/work/sebastian/BT-20210625/1009328-light/run1009328-light.h5 tag-1490959824//
/work/sebastian/BT-20210625/1009328-light/run1009328-light.h5 tag-1490959826//
/work/sebastian/BT-20210625/1009328-light/run1009328-light.h5 tag-1490959834//
/work/sebastian/BT-20210625/1009328-light/run1009328-light.h5 tag-1490959838//
/work/sebastian/BT-20210625/1009328-light/run1009328-light.h5 tag-1490959842//
/work/sebastian/BT-20210625/1009328-light/run1009328-light.h5 tag-1490959844//
/work/sebastian/BT-20210625/1009328-light/run1009328-light.h5 tag-1490959846//
/work/sebastian/BT-20210625/1009328-light/run1009328-light.h5 tag-1490959848//
/work/sebastian/BT-20210625/1009328-light/run1009328-light.h5 tag-1490959850//
/work/sebastian/BT-20210625/1009328-light/run1009328-light.h5 tag-1490959852//
/work/sebastian/BT-20210625/1009328-light/run1009328-light.h5 tag-1490959862//
/work/sebastian/BT-20210625/1009328-light/run1009328-light.h5 tag-1490959868//
/work/sebastian/BT-20210625/1009328-light/run1009328-light.h5 tag-1490959870//
/work/sebastian/BT-20210625/1009328-light/run1009328-light.h5 tag-1490959874//
/work/sebastian/BT-20210625/1009328-light/run1009328-light.h5 tag-1490959876//
/work/sebastian/BT-20210625/1009328-light/run1009328-light.h5 tag-1490959880//
/work/sebastian/BT-20210625/1009328-light/run1009328-light.h5 tag-1490959888//
/work/sebastian/BT-20210625/1009328-light/run1009328-light.h5 tag-1490959890//
/work/sebastian/BT-20210625/1009328-light/run1009328-light.h5 tag-1490959892//
/work/sebastian/BT-20210625/1009328-light/run1009328-light.h5 tag-1490959894//
/work/sebastian/BT-20210625/1009328-light/run1009328-light.h5 tag-1490959898//
/work/sebastian/BT-20210625/1009328-light/run1009328-light.h5 tag-1490959900//
/work/sebastian/BT-20210625/1009328-light/run1009328-light.h5 tag-1490959904//
/work/sebastian/BT-20210625/1009328-light/run1009328-light.h5 tag-1490959908//
/work/sebastian/BT-20210625/1009328-light/run1009328-light.h5 tag-1490959914//
/work/sebastian/BT-20210625/1009328-light/run1009328-light.h5 tag-1490959916//
/work/sebastian/BT-20210625/1009328-light/run1009328-light.h5 tag-1490959920//
/work/sebastian/BT-20210625/1009328-light/run1009328-light.h5 tag-1490959922//
/work/sebastian/BT-20210625/1009328-light/run1009328-light.h5 tag-1490959926//
/work/sebastian/BT-20210625/1009328-light/run1009328-light.h5 tag-1490959928//
/work/sebastian/BT-20210625/1009328-light/run1009328-light.h5 tag-1490959940//
/work/sebastian/BT-20210625/1009328-light/run1009328-light.h5 tag-1490959944//
/work/sebastian/BT-20210625/1009328-light/run1009328-light.h5 tag-1490959946//
/work/sebastian/BT-20210625/1009328-light/run1009328-light.h5 tag-1490959948//
/work/sebastian/BT-20210625/1009328-light/run1009328-light.h5 tag-1490959950//
/work/sebastian/BT-20210625/1009328-light/run1009328-light.h5 tag-1490959952//
/work/sebastian/BT-20210625/1009328-light/run1009328-light.h5 tag-1490959954//
/work/sebastian/BT-20210625/1009328-light/run1009328-light.h5 tag-1490959956//
/work/sebastian/BT-20210625/1009328-light/run1009328-light.h5 tag-1490959958//
/work/sebastian/BT-20210625/1009328-light/run1009328-light.h5 tag-1490959964//
/work/sebastian/BT-20210625/1009328-light/run1009328-light.h5 tag-1490959976//
/work/sebastian/BT-20210625/1009328-light/run1009328-light.h5 tag-1490959984//
/work/sebastian/BT-20210625/1009328-light/run1009328-light.h5 tag-1490959986//
/work/sebastian/BT-20210625/1009328-light/run1009328-light.h5 tag-1490959992//
/work/sebastian/BT-20210625/1009328-light/run1009328-light.h5 tag-1490959996//
/work/sebastian/BT-20210625/1009328-light/run1009328-light.h5 tag-1490960004//
/work/sebastian/BT-20210625/1009328-light/run1009328-light.h5 tag-1490960014//
/work/sebastian/BT-20210625/1009328-light/run1009328-light.h5 tag-1490960020//
/work/sebastian/BT-20210625/1009328-light/run1009328-light.h5 tag-1490960024//
/work/sebastian/BT-20210625/1009328-light/run1009328-light.h5 tag-1490960032//
/work/sebastian/BT-20210625/1009328-light/run1009328-light.h5 tag-1490960050//
/work/sebastian/BT-20210625/1009328-light/run1009328-light.h5 tag-1490960056//
/work/sebastian/BT-20210625/1009328-light/run1009328-light.h5 tag-1490960058//
/work/sebastian/BT-20210625/1009328-light/run1009328-light.h5 tag-1490960070//
/work/sebastian/BT-20210625/1009328-light/run1009328-light.h5 tag-1490960090//
/work/sebastian/BT-20210625/1009328-light/run1009328-light.h5 tag-1490960094//
/work/sebastian/BT-20210625/1009328-light/run1009328-light.h5 tag-1490960096//
/work/sebastian/BT-20210625/1009328-light/run1009328-light.h5 tag-1490960098//
/work/sebastian/BT-20210625/1009328-light/run1009328-light.h5 tag-1490960100//
/work/sebastian/BT-20210625/1009328-light/run1009328-light.h5 tag-1490960102//
/work/sebastian/BT-20210625/1009328-light/run1009328-light.h5 tag-1490960104//
/work/sebastian/BT-20210625/1009328-light/run1009328-light.h5 tag-1490960112//
/work/sebastian/BT-20210625/1009328-light/run1009328-light.h5 tag-1490960120//
/work/sebastian/BT-20210625/1009328-light/run1009328-light.h5 tag-1490960124//
/work/sebastian/BT-20210625/1009328-light/run1009328-light.h5 tag-1490960128//
/work/sebastian/BT-20210625/1009328-light/run1009328-light.h5 tag-1490960130//
/work/sebastian/BT-20210625/1009328-light/run1009328-light.h5 tag-1490960134//
/work/sebastian/BT-20210625/1009328-light/run1009328-light.h5 tag-1490960138//
/work/sebastian/BT-20210625/1009328-light/run1009328-light.h5 tag-1490960144//
/work/sebastian/BT-20210625/1009328-light/run1009328-light.h5 tag-1490960150//
/work/sebastian/BT-20210625/1009328-light/run1009328-light.h5 tag-1490960152//
/work/sebastian/BT-20210625/1009328-light/run1009328-light.h5 tag-1490960158//
/work/sebastian/BT-20210625/1009328-light/run1009328-light.h5 tag-1490960160//
/work/sebastian/BT-20210625/1009328-light/run1009328-light.h5 tag-1490960162//
/work/sebastian/BT-20210625/1009328-light/run1009328-light.h5 tag-1490960166//
/work/sebastian/BT-20210625/1009328-light/run1009328-light.h5 tag-1490960168//
/work/sebastian/BT-20210625/1009328-light/run1009328-light.h5 tag-1490960172//
/work/sebastian/BT-20210625/1009328-light/run1009328-light.h5 tag-1490960174//
/work/sebastian/BT-20210625/1009328-light/run1009328-light.h5 tag-1490960188//
/work/sebastian/BT-20210625/1009328-light/run1009328-light.h5 tag-1490960198//
/work/sebastian/BT-20210625/1009328-light/run1009328-light.h5 tag-1490960202//
/work/sebastian/BT-20210625/1009328-light/run1009328-light.h5 tag-1490960208//
/work/sebastian/BT-20210625/1009328-light/run1009328-light.h5 tag-1490960210//
/work/sebastian/BT-20210625/1009328-light/run1009328-light.h5 tag-1490960216//
/work/sebastian/BT-20210625/1009328-light/run1009328-light.h5 tag-1490960222//
/work/sebastian/BT-20210625/1009328-light/run1009328-light.h5 tag-1490960224//
/work/sebastian/BT-20210625/1009328-light/run1009328-light.h5 tag-1490960226//
/work/sebastian/BT-20210625/1009328-light/run1009328-light.h5 tag-1490960228//
/work/sebastian/BT-20210625/1009328-light/run1009328-light.h5 tag-1490960232//
/work/sebastian/BT-20210625/1009328-light/run1009328-light.h5 tag-1490960234//
/work/sebastian/BT-20210625/1009328-light/run1009328-light.h5 tag-1490960238//
/work/sebastian/BT-20210625/1009328-light/run1009328-light.h5 tag-1490960246//
/work/sebastian/BT-20210625/1009328-light/run1009328-light.h5 tag-1490960248//
/work/sebastian/BT-20210625/1009328-light/run1009328-light.h5 tag-1490960252//
/work/sebastian/BT-20210625/1009328-light/run1009328-light.h5 tag-1490960254//
/work/sebastian/BT-20210625/1009328-light/run1009328-light.h5 tag-1490960258//
/work/sebastian/BT-20210625/1009328-light/run1009328-light.h5 tag-1490960264//
/work/sebastian/BT-20210625/1009328-light/run1009328-light.h5 tag-1490960272//
/work/sebastian/BT-20210625/1009328-light/run1009328-light.h5 tag-1490960284//
/work/sebastian/BT-20210625/1009328-light/run1009328-light.h5 tag-1490960290//
/work/sebastian/BT-20210625/1009328-light/run1009328-light.h5 tag-1490960302//
/work/sebastian/BT-20210625/1009328-light/run1009328-light.h5 tag-1490960308//
/work/sebastian/BT-20210625/1009328-light/run1009328-light.h5 tag-1490960318//
/work/sebastian/BT-20210625/1009328-light/run1009328-light.h5 tag-1490960320//
/work/sebastian/BT-20210625/1009328-light/run1009328-light.h5 tag-1490960322//
/work/sebastian/BT-20210625/1009328-light/run1009328-light.h5 tag-1490960326//
/work/sebastian/BT-20210625/1009328-light/run1009328-light.h5 tag-1490960328//
/work/sebastian/BT-20210625/1009328-light/run1009328-light.h5 tag-1490960334//
/work/sebastian/BT-20210625/1009328-light/run1009328-light.h5 tag-1490960336//
/work/sebastian/BT-20210625/1009328-light/run1009328-light.h5 tag-1490960342//
/work/sebastian/BT-20210625/1009328-light/run1009328-light.h5 tag-1490960352//
/work/sebastian/BT-20210625/1009328-light/run1009328-light.h5 tag-1490960358//
/work/sebastian/BT-20210625/1009328-light/run1009328-light.h5 tag-1490960366//
/work/sebastian/BT-20210625/1009328-light/run1009328-light.h5 tag-1490960368//
/work/sebastian/BT-20210625/1009328-light/run1009328-light.h5 tag-1490960376//
/work/sebastian/BT-20210625/1009328-light/run1009328-light.h5 tag-1490960378//
/work/sebastian/BT-20210625/1009328-light/run1009328-light.h5 tag-1490960386//
/work/sebastian/BT-20210625/1009328-light/run1009328-light.h5 tag-1490960390//
/work/sebastian/BT-20210625/1009328-light/run1009328-light.h5 tag-1490960392//
/work/sebastian/BT-20210625/1009328-light/run1009328-light.h5 tag-1490960394//
/work/sebastian/BT-20210625/1009328-light/run1009328-light.h5 tag-1490960396//
/work/sebastian/BT-20210625/1009328-light/run1009328-light.h5 tag-1490960398//
/work/sebastian/BT-20210625/1009328-light/run1009328-light.h5 tag-1490960400//
/work/sebastian/BT-20210625/1009328-light/run1009328-light.h5 tag-1490960402//
/work/sebastian/BT-20210625/1009328-light/run1009328-light.h5 tag-1490960408//
/work/sebastian/BT-20210625/1009328-light/run1009328-light.h5 tag-1490960412//
/work/sebastian/BT-20210625/1009328-light/run1009328-light.h5 tag-1490960416//
/work/sebastian/BT-20210625/1009328-light/run1009328-light.h5 tag-1490960418//
/work/sebastian/BT-20210625/1009328-light/run1009328-light.h5 tag-1490960424//
/work/sebastian/BT-20210625/1009328-light/run1009328-light.h5 tag-1490960426//
/work/sebastian/BT-20210625/1009328-light/run1009328-light.h5 tag-1490960432//
/work/sebastian/BT-20210625/1009328-light/run1009328-light.h5 tag-1490960438//
/work/sebastian/BT-20210625/1009328-light/run1009328-light.h5 tag-1490960442//
/work/sebastian/BT-20210625/1009328-light/run1009328-light.h5 tag-1490960444//
/work/sebastian/BT-20210625/1009328-light/run1009328-light.h5 tag-1490960446//
/work/sebastian/BT-20210625/1009328-light/run1009328-light.h5 tag-1490960454//
/work/sebastian/BT-20210625/1009328-light/run1009328-light.h5 tag-1490960462//
/work/sebastian/BT-20210625/1009328-light/run1009328-light.h5 tag-1490960464//
/work/sebastian/BT-20210625/1009328-light/run1009328-light.h5 tag-1490960468//
/work/sebastian/BT-20210625/1009328-light/run1009328-light.h5 tag-1490960472//
/work/sebastian/BT-20210625/1009328-light/run1009328-light.h5 tag-1490960474//
/work/sebastian/BT-20210625/1009328-light/run1009328-light.h5 tag-1490960494//
/work/sebastian/BT-20210625/1009328-light/run1009328-light.h5 tag-1490960500//
/work/sebastian/BT-20210625/1009328-light/run1009328-light.h5 tag-1490960502//
/work/sebastian/BT-20210625/1009328-light/run1009328-light.h5 tag-1490960504//
/work/sebastian/BT-20210625/1009328-light/run1009328-light.h5 tag-1490960506//
/work/sebastian/BT-20210625/1009328-light/run1009328-light.h5 tag-1490960512//
/work/sebastian/BT-20210625/1009328-light/run1009328-light.h5 tag-1490960520//
/work/sebastian/BT-20210625/1009328-light/run1009328-light.h5 tag-1490960526//
/work/sebastian/BT-20210625/1009328-light/run1009328-light.h5 tag-1490960532//
/work/sebastian/BT-20210625/1009328-light/run1009328-light.h5 tag-1490960538//
/work/sebastian/BT-20210625/1009328-light/run1009328-light.h5 tag-1490960540//
/work/sebastian/BT-20210625/1009328-light/run1009328-light.h5 tag-1490960544//
/work/sebastian/BT-20210625/1009328-light/run1009328-light.h5 tag-1490960550//
/work/sebastian/BT-20210625/1009328-light/run1009328-light.h5 tag-1490960552//
/work/sebastian/BT-20210625/1009328-light/run1009328-light.h5 tag-1490960560//
/work/sebastian/BT-20210625/1009328-light/run1009328-light.h5 tag-1490960564//
/work/sebastian/BT-20210625/1009328-light/run1009328-light.h5 tag-1490960568//
/work/sebastian/BT-20210625/1009328-light/run1009328-light.h5 tag-1490960572//
/work/sebastian/BT-20210625/1009328-light/run1009328-light.h5 tag-1490960574//
/work/sebastian/BT-20210625/1009328-light/run1009328-light.h5 tag-1490960576//
/work/sebastian/BT-20210625/1009328-light/run1009328-light.h5 tag-1490960578//
/work/sebastian/BT-20210625/1009328-light/run1009328-light.h5 tag-1490960580//
/work/sebastian/BT-20210625/1009328-light/run1009328-light.h5 tag-1490960582//
/work/sebastian/BT-20210625/1009328-light/run1009328-light.h5 tag-1490960584//
/work/sebastian/BT-20210625/1009328-light/run1009328-light.h5 tag-1490960586//
/work/sebastian/BT-20210625/1009328-light/run1009328-light.h5 tag-1490960596//
/work/sebastian/BT-20210625/1009328-light/run1009328-light.h5 tag-1490960600//
/work/sebastian/BT-20210625/1009328-light/run1009328-light.h5 tag-1490960606//
/work/sebastian/BT-20210625/1009328-light/run1009328-light.h5 tag-1490960610//
/work/sebastian/BT-20210625/1009328-light/run1009328-light.h5 tag-1490960612//
/work/sebastian/BT-20210625/1009328-light/run1009328-light.h5 tag-1490960614//
/work/sebastian/BT-20210625/1009328-light/run1009328-light.h5 tag-1490960618//
/work/sebastian/BT-20210625/1009328-light/run1009328-light.h5 tag-1490960620//
/work/sebastian/BT-20210625/1009328-light/run1009328-light.h5 tag-1490960622//
/work/sebastian/BT-20210625/1009328-light/run1009328-light.h5 tag-1490960624//
/work/sebastian/BT-20210625/1009328-light/run1009328-light.h5 tag-1490960634//
/work/sebastian/BT-20210625/1009328-light/run1009328-light.h5 tag-1490960638//
/work/sebastian/BT-20210625/1009328-light/run1009328-light.h5 tag-1490960644//
/work/sebastian/BT-20210625/1009328-light/run1009328-light.h5 tag-1490960646//
/work/sebastian/BT-20210625/1009328-light/run1009328-light.h5 tag-1490960648//
/work/sebastian/BT-20210625/1009328-light/run1009328-light.h5 tag-1490960654//
/work/sebastian/BT-20210625/1009328-light/run1009328-light.h5 tag-1490960658//
/work/sebastian/BT-20210625/1009328-light/run1009328-light.h5 tag-1490960660//
/work/sebastian/BT-20210625/1009328-light/run1009328-light.h5 tag-1490960664//
/work/sebastian/BT-20210625/1009328-light/run1009328-light.h5 tag-1490960670//
/work/sebastian/BT-20210625/1009328-light/run1009328-light.h5 tag-1490960674//
/work/sebastian/BT-20210625/1009328-light/run1009328-light.h5 tag-1490960684//
/work/sebastian/BT-20210625/1009328-light/run1009328-light.h5 tag-1490960686//
/work/sebastian/BT-20210625/1009328-light/run1009328-light.h5 tag-1490960688//
/work/sebastian/BT-20210625/1009328-light/run1009328-light.h5 tag-1490960692//
/work/sebastian/BT-20210625/1009328-light/run1009328-light.h5 tag-1490960694//
/work/sebastian/BT-20210625/1009328-light/run1009328-light.h5 tag-1490960696//
/work/sebastian/BT-20210625/1009328-light/run1009328-light.h5 tag-1490960698//
/work/sebastian/BT-20210625/1009328-light/run1009328-light.h5 tag-1490960700//
/work/sebastian/BT-20210625/1009328-light/run1009328-light.h5 tag-1490960704//
/work/sebastian/BT-20210625/1009328-light/run1009328-light.h5 tag-1490960706//
/work/sebastian/BT-20210625/1009328-light/run1009328-light.h5 tag-1490960708//
/work/sebastian/BT-20210625/1009328-light/run1009328-light.h5 tag-1490960710//
/work/sebastian/BT-20210625/1009328-light/run1009328-light.h5 tag-1490960712//
/work/sebastian/BT-20210625/1009328-light/run1009328-light.h5 tag-1490960722//
/work/sebastian/BT-20210625/1009328-light/run1009328-light.h5 tag-1490960726//
/work/sebastian/BT-20210625/1009328-light/run1009328-light.h5 tag-1490960728//
/work/sebastian/BT-20210625/1009328-light/run1009328-light.h5 tag-1490960734//
/work/sebastian/BT-20210625/1009328-light/run1009328-light.h5 tag-1490960736//
/work/sebastian/BT-20210625/1009328-light/run1009328-light.h5 tag-1490960738//
/work/sebastian/BT-20210625/1009328-light/run1009328-light.h5 tag-1490960748//
/work/sebastian/BT-20210625/1009328-light/run1009328-light.h5 tag-1490960750//
/work/sebastian/BT-20210625/1009328-light/run1009328-light.h5 tag-1490960754//
/work/sebastian/BT-20210625/1009328-light/run1009328-light.h5 tag-1490960758//
/work/sebastian/BT-20210625/1009328-light/run1009328-light.h5 tag-1490960764//
/work/sebastian/BT-20210625/1009328-light/run1009328-light.h5 tag-1490960768//
/work/sebastian/BT-20210625/1009328-light/run1009328-light.h5 tag-1490960776//
/work/sebastian/BT-20210625/1009328-light/run1009328-light.h5 tag-1490960784//
/work/sebastian/BT-20210625/1009328-light/run1009328-light.h5 tag-1490960786//
/work/sebastian/BT-20210625/1009328-light/run1009328-light.h5 tag-1490960788//
/work/sebastian/BT-20210625/1009328-light/run1009328-light.h5 tag-1490960790//
/work/sebastian/BT-20210625/1009328-light/run1009328-light.h5 tag-1490960792//
/work/sebastian/BT-20210625/1009328-light/run1009328-light.h5 tag-1490960794//
/work/sebastian/BT-20210625/1009328-light/run1009328-light.h5 tag-1490960802//
/work/sebastian/BT-20210625/1009328-light/run1009328-light.h5 tag-1490960806//
/work/sebastian/BT-20210625/1009328-light/run1009328-light.h5 tag-1490960818//
/work/sebastian/BT-20210625/1009328-light/run1009328-light.h5 tag-1490960820//
/work/sebastian/BT-20210625/1009328-light/run1009328-light.h5 tag-1490960822//
/work/sebastian/BT-20210625/1009328-light/run1009328-light.h5 tag-1490960824//
/work/sebastian/BT-20210625/1009328-light/run1009328-light.h5 tag-1490960832//
/work/sebastian/BT-20210625/1009328-light/run1009328-light.h5 tag-1490960838//
/work/sebastian/BT-20210625/1009328-light/run1009328-light.h5 tag-1490960842//
/work/sebastian/BT-20210625/1009328-light/run1009328-light.h5 tag-1490960846//
/work/sebastian/BT-20210625/1009328-light/run1009328-light.h5 tag-1490960852//
/work/sebastian/BT-20210625/1009328-light/run1009328-light.h5 tag-1490960854//
/work/sebastian/BT-20210625/1009328-light/run1009328-light.h5 tag-1490960860//
/work/sebastian/BT-20210625/1009328-light/run1009328-light.h5 tag-1490960868//
/work/sebastian/BT-20210625/1009328-light/run1009328-light.h5 tag-1490960874//
/work/sebastian/BT-20210625/1009328-light/run1009328-light.h5 tag-1490960878//
/work/sebastian/BT-20210625/1009328-light/run1009328-light.h5 tag-1490960880//
/work/sebastian/BT-20210625/1009328-light/run1009328-light.h5 tag-1490960886//
/work/sebastian/BT-20210625/1009328-light/run1009328-light.h5 tag-1490960890//
/work/sebastian/BT-20210625/1009328-light/run1009328-light.h5 tag-1490960892//
/work/sebastian/BT-20210625/1009328-light/run1009328-light.h5 tag-1490960896//
/work/sebastian/BT-20210625/1009328-light/run1009328-light.h5 tag-1490960898//
/work/sebastian/BT-20210625/1009328-light/run1009328-light.h5 tag-1490960900//
/work/sebastian/BT-20210625/1009328-light/run1009328-light.h5 tag-1490960906//
/work/sebastian/BT-20210625/1009328-light/run1009328-light.h5 tag-1490960910//
/work/sebastian/BT-20210625/1009328-light/run1009328-light.h5 tag-1490960916//
/work/sebastian/BT-20210625/1009328-light/run1009328-light.h5 tag-1490960918//
/work/sebastian/BT-20210625/1009328-light/run1009328-light.h5 tag-1490960920//
/work/sebastian/BT-20210625/1009328-light/run1009328-light.h5 tag-1490960934//
/work/sebastian/BT-20210625/1009328-light/run1009328-light.h5 tag-1490960936//
/work/sebastian/BT-20210625/1009328-light/run1009328-light.h5 tag-1490960954//
/work/sebastian/BT-20210625/1009328-light/run1009328-light.h5 tag-1490960964//
/work/sebastian/BT-20210625/1009328-light/run1009328-light.h5 tag-1490960970//
/work/sebastian/BT-20210625/1009328-light/run1009328-light.h5 tag-1490960974//
/work/sebastian/BT-20210625/1009328-light/run1009328-light.h5 tag-1490960980//
/work/sebastian/BT-20210625/1009328-light/run1009328-light.h5 tag-1490960992//
/work/sebastian/BT-20210625/1009328-light/run1009328-light.h5 tag-1490960994//
/work/sebastian/BT-20210625/1009328-light/run1009328-light.h5 tag-1490960998//
/work/sebastian/BT-20210625/1009328-light/run1009328-light.h5 tag-1490961000//
/work/sebastian/BT-20210625/1009328-light/run1009328-light.h5 tag-1490961004//
/work/sebastian/BT-20210625/1009328-light/run1009328-light.h5 tag-1490961006//
/work/sebastian/BT-20210625/1009328-light/run1009328-light.h5 tag-1490961008//
/work/sebastian/BT-20210625/1009328-light/run1009328-light.h5 tag-1490961014//
/work/sebastian/BT-20210625/1009328-light/run1009328-light.h5 tag-1490961016//
/work/sebastian/BT-20210625/1009328-light/run1009328-light.h5 tag-1490961020//
/work/sebastian/BT-20210625/1009328-light/run1009328-light.h5 tag-1490961028//
/work/sebastian/BT-20210625/1009328-light/run1009328-light.h5 tag-1490961030//
/work/sebastian/BT-20210625/1009328-light/run1009328-light.h5 tag-1490961032//
/work/sebastian/BT-20210625/1009328-light/run1009328-light.h5 tag-1490961038//
/work/sebastian/BT-20210625/1009328-light/run1009328-light.h5 tag-1490961040//
/work/sebastian/BT-20210625/1009328-light/run1009328-light.h5 tag-1490961042//
/work/sebastian/BT-20210625/1009328-light/run1009328-light.h5 tag-1490961054//
/work/sebastian/BT-20210625/1009328-light/run1009328-light.h5 tag-1490961056//
/work/sebastian/BT-20210625/1009328-light/run1009328-light.h5 tag-1490961070//
/work/sebastian/BT-20210625/1009328-light/run1009328-light.h5 tag-1490961074//
/work/sebastian/BT-20210625/1009328-light/run1009328-light.h5 tag-1490961076//
/work/sebastian/BT-20210625/1009328-light/run1009328-light.h5 tag-1490961078//
/work/sebastian/BT-20210625/1009328-light/run1009328-light.h5 tag-1490961080//
/work/sebastian/BT-20210625/1009328-light/run1009328-light.h5 tag-1490961084//
/work/sebastian/BT-20210625/1009328-light/run1009328-light.h5 tag-1490961088//
/work/sebastian/BT-20210625/1009328-light/run1009328-light.h5 tag-1490961090//
/work/sebastian/BT-20210625/1009328-light/run1009328-light.h5 tag-1490961092//
/work/sebastian/BT-20210625/1009328-light/run1009328-light.h5 tag-1490961094//
/work/sebastian/BT-20210625/1009328-light/run1009328-light.h5 tag-1490961096//
/work/sebastian/BT-20210625/1009328-light/run1009328-light.h5 tag-1490961098//
/work/sebastian/BT-20210625/1009328-light/run1009328-light.h5 tag-1490961100//
/work/sebastian/BT-20210625/1009328-light/run1009328-light.h5 tag-1490961106//
/work/sebastian/BT-20210625/1009328-light/run1009328-light.h5 tag-1490961110//
/work/sebastian/BT-20210625/1009328-light/run1009328-light.h5 tag-1490961120//
/work/sebastian/BT-20210625/1009328-light/run1009328-light.h5 tag-1490961126//
/work/sebastian/BT-20210625/1009328-light/run1009328-light.h5 tag-1490961128//
/work/sebastian/BT-20210625/1009328-light/run1009328-light.h5 tag-1490961130//
/work/sebastian/BT-20210625/1009328-light/run1009328-light.h5 tag-1490961134//
/work/sebastian/BT-20210625/1009328-light/run1009328-light.h5 tag-1490961140//
/work/sebastian/BT-20210625/1009328-light/run1009328-light.h5 tag-1490961152//
/work/sebastian/BT-20210625/1009328-light/run1009328-light.h5 tag-1490961158//
/work/sebastian/BT-20210625/1009328-light/run1009328-light.h5 tag-1490961162//
/work/sebastian/BT-20210625/1009328-light/run1009328-light.h5 tag-1490961166//
/work/sebastian/BT-20210625/1009328-light/run1009328-light.h5 tag-1490961176//
/work/sebastian/BT-20210625/1009328-light/run1009328-light.h5 tag-1490961190//
/work/sebastian/BT-20210625/1009328-light/run1009328-light.h5 tag-1490961192//
/work/sebastian/BT-20210625/1009328-light/run1009328-light.h5 tag-1490961196//
/work/sebastian/BT-20210625/1009328-light/run1009328-light.h5 tag-1490961198//
/work/sebastian/BT-20210625/1009328-light/run1009328-light.h5 tag-1490961200//
/work/sebastian/BT-20210625/1009328-light/run1009328-light.h5 tag-1490961204//
/work/sebastian/BT-20210625/1009328-light/run1009328-light.h5 tag-1490961218//
/work/sebastian/BT-20210625/1009328-light/run1009328-light.h5 tag-1490961222//
/work/sebastian/BT-20210625/1009328-light/run1009328-light.h5 tag-1490961224//
/work/sebastian/BT-20210625/1009328-light/run1009328-light.h5 tag-1490961230//
/work/sebastian/BT-20210625/1009328-light/run1009328-light.h5 tag-1490961236//
/work/sebastian/BT-20210625/1009328-light/run1009328-light.h5 tag-1490961238//
/work/sebastian/BT-20210625/1009328-light/run1009328-light.h5 tag-1490961242//
/work/sebastian/BT-20210625/1009328-light/run1009328-light.h5 tag-1490961244//
/work/sebastian/BT-20210625/1009328-light/run1009328-light.h5 tag-1490961248//
/work/sebastian/BT-20210625/1009328-light/run1009328-light.h5 tag-1490961250//
/work/sebastian/BT-20210625/1009328-light/run1009328-light.h5 tag-1490961254//
/work/sebastian/BT-20210625/1009328-light/run1009328-light.h5 tag-1490961270//
/work/sebastian/BT-20210625/1009328-light/run1009328-light.h5 tag-1490961274//
/work/sebastian/BT-20210625/1009328-light/run1009328-light.h5 tag-1490961282//
/work/sebastian/BT-20210625/1009328-light/run1009328-light.h5 tag-1490961286//
/work/sebastian/BT-20210625/1009328-light/run1009328-light.h5 tag-1490961290//
/work/sebastian/BT-20210625/1009328-light/run1009328-light.h5 tag-1490961296//
/work/sebastian/BT-20210625/1009328-light/run1009328-light.h5 tag-1490961300//
/work/sebastian/BT-20210625/1009328-light/run1009328-light.h5 tag-1490961302//
/work/sebastian/BT-20210625/1009328-light/run1009328-light.h5 tag-1490961308//
/work/sebastian/BT-20210625/1009328-light/run1009328-light.h5 tag-1490961320//
/work/sebastian/BT-20210625/1009328-light/run1009328-light.h5 tag-1490961322//
/work/sebastian/BT-20210625/1009328-light/run1009328-light.h5 tag-1490961324//
/work/sebastian/BT-20210625/1009328-light/run1009328-light.h5 tag-1490961326//
/work/sebastian/BT-20210625/1009328-light/run1009328-light.h5 tag-1490961328//
/work/sebastian/BT-20210625/1009328-light/run1009328-light.h5 tag-1490961344//
/work/sebastian/BT-20210625/1009328-light/run1009328-light.h5 tag-1490961350//
/work/sebastian/BT-20210625/1009328-light/run1009328-light.h5 tag-1490961362//
/work/sebastian/BT-20210625/1009328-light/run1009328-light.h5 tag-1490961364//
/work/sebastian/BT-20210625/1009328-light/run1009328-light.h5 tag-1490961366//
/work/sebastian/BT-20210625/1009328-light/run1009328-light.h5 tag-1490961374//
/work/sebastian/BT-20210625/1009328-light/run1009328-light.h5 tag-1490961376//
/work/sebastian/BT-20210625/1009328-light/run1009328-light.h5 tag-1490961378//
/work/sebastian/BT-20210625/1009328-light/run1009328-light.h5 tag-1490961384//
/work/sebastian/BT-20210625/1009328-light/run1009328-light.h5 tag-1490961386//
/work/sebastian/BT-20210625/1009328-light/run1009328-light.h5 tag-1490961390//
/work/sebastian/BT-20210625/1009328-light/run1009328-light.h5 tag-1490961392//
/work/sebastian/BT-20210625/1009328-light/run1009328-light.h5 tag-1490961398//
/work/sebastian/BT-20210625/1009328-light/run1009328-light.h5 tag-1490961408//
/work/sebastian/BT-20210625/1009328-light/run1009328-light.h5 tag-1490961410//
/work/sebastian/BT-20210625/1009328-light/run1009328-light.h5 tag-1490961418//
/work/sebastian/BT-20210625/1009328-light/run1009328-light.h5 tag-1490961420//
/work/sebastian/BT-20210625/1009328-light/run1009328-light.h5 tag-1490961422//
/work/sebastian/BT-20210625/1009328-light/run1009328-light.h5 tag-1490961436//
/work/sebastian/BT-20210625/1009328-light/run1009328-light.h5 tag-1490961438//
/work/sebastian/BT-20210625/1009328-light/run1009328-light.h5 tag-1490961446//
/work/sebastian/BT-20210625/1009328-light/run1009328-light.h5 tag-1490961448//
/work/sebastian/BT-20210625/1009328-light/run1009328-light.h5 tag-1490961452//
/work/sebastian/BT-20210625/1009328-light/run1009328-light.h5 tag-1490961460//
/work/sebastian/BT-20210625/1009328-light/run1009328-light.h5 tag-1490961462//
/work/sebastian/BT-20210625/1009328-light/run1009328-light.h5 tag-1490961464//
/work/sebastian/BT-20210625/1009328-light/run1009328-light.h5 tag-1490961472//
/work/sebastian/BT-20210625/1009328-light/run1009328-light.h5 tag-1490961474//
/work/sebastian/BT-20210625/1009328-light/run1009328-light.h5 tag-1490961476//
/work/sebastian/BT-20210625/1009328-light/run1009328-light.h5 tag-1490961488//
/work/sebastian/BT-20210625/1009328-light/run1009328-light.h5 tag-1490961492//
/work/sebastian/BT-20210625/1009328-light/run1009328-light.h5 tag-1490961494//
/work/sebastian/BT-20210625/1009328-light/run1009328-light.h5 tag-1490961498//
/work/sebastian/BT-20210625/1009328-light/run1009328-light.h5 tag-1490961500//
/work/sebastian/BT-20210625/1009328-light/run1009328-light.h5 tag-1490961502//
/work/sebastian/BT-20210625/1009328-light/run1009328-light.h5 tag-1490961512//
/work/sebastian/BT-20210625/1009328-light/run1009328-light.h5 tag-1490961514//
/work/sebastian/BT-20210625/1009328-light/run1009328-light.h5 tag-1490961522//
/work/sebastian/BT-20210625/1009328-light/run1009328-light.h5 tag-1490961526//
/work/sebastian/BT-20210625/1009328-light/run1009328-light.h5 tag-1490961534//
/work/sebastian/BT-20210625/1009328-light/run1009328-light.h5 tag-1490961536//
/work/sebastian/BT-20210625/1009328-light/run1009328-light.h5 tag-1490961542//
/work/sebastian/BT-20210625/1009328-light/run1009328-light.h5 tag-1490961554//
/work/sebastian/BT-20210625/1009328-light/run1009328-light.h5 tag-1490961556//
/work/sebastian/BT-20210625/1009328-light/run1009328-light.h5 tag-1490961564//
/work/sebastian/BT-20210625/1009328-light/run1009328-light.h5 tag-1490961572//
/work/sebastian/BT-20210625/1009328-light/run1009328-light.h5 tag-1490961574//
/work/sebastian/BT-20210625/1009328-light/run1009328-light.h5 tag-1490961576//
/work/sebastian/BT-20210625/1009328-light/run1009328-light.h5 tag-1490961598//
/work/sebastian/BT-20210625/1009328-light/run1009328-light.h5 tag-1490961602//
/work/sebastian/BT-20210625/1009328-light/run1009328-light.h5 tag-1490961606//
/work/sebastian/BT-20210625/1009328-light/run1009328-light.h5 tag-1490961608//
/work/sebastian/BT-20210625/1009328-light/run1009328-light.h5 tag-1490961622//
/work/sebastian/BT-20210625/1009328-light/run1009328-light.h5 tag-1490961624//
/work/sebastian/BT-20210625/1009328-light/run1009328-light.h5 tag-1490961626//
/work/sebastian/BT-20210625/1009328-light/run1009328-light.h5 tag-1490961634//
/work/sebastian/BT-20210625/1009328-light/run1009328-light.h5 tag-1490961638//
/work/sebastian/BT-20210625/1009328-light/run1009328-light.h5 tag-1490961640//
/work/sebastian/BT-20210625/1009328-light/run1009328-light.h5 tag-1490961650//
/work/sebastian/BT-20210625/1009328-light/run1009328-light.h5 tag-1490961652//
/work/sebastian/BT-20210625/1009328-light/run1009328-light.h5 tag-1490961664//
/work/sebastian/BT-20210625/1009328-light/run1009328-light.h5 tag-1490961676//
/work/sebastian/BT-20210625/1009328-light/run1009328-light.h5 tag-1490961684//
/work/sebastian/BT-20210625/1009328-light/run1009328-light.h5 tag-1490961694//
/work/sebastian/BT-20210625/1009328-light/run1009328-light.h5 tag-1490961696//
/work/sebastian/BT-20210625/1009328-light/run1009328-light.h5 tag-1490961702//
/work/sebastian/BT-20210625/1009328-light/run1009328-light.h5 tag-1490961704//
/work/sebastian/BT-20210625/1009328-light/run1009328-light.h5 tag-1490961708//
/work/sebastian/BT-20210625/1009328-light/run1009328-light.h5 tag-1490961716//
/work/sebastian/BT-20210625/1009328-light/run1009328-light.h5 tag-1490961722//
/work/sebastian/BT-20210625/1009328-light/run1009328-light.h5 tag-1490961724//
/work/sebastian/BT-20210625/1009328-light/run1009328-light.h5 tag-1490961748//
/work/sebastian/BT-20210625/1009328-light/run1009328-light.h5 tag-1490961758//
/work/sebastian/BT-20210625/1009328-light/run1009328-light.h5 tag-1490961770//
/work/sebastian/BT-20210625/1009328-light/run1009328-light.h5 tag-1490961772//
/work/sebastian/BT-20210625/1009328-light/run1009328-light.h5 tag-1490961774//
/work/sebastian/BT-20210625/1009328-light/run1009328-light.h5 tag-1490961776//
/work/sebastian/BT-20210625/1009328-light/run1009328-light.h5 tag-1490961778//
/work/sebastian/BT-20210625/1009328-light/run1009328-light.h5 tag-1490961786//
/work/sebastian/BT-20210625/1009328-light/run1009328-light.h5 tag-1490961788//
/work/sebastian/BT-20210625/1009328-light/run1009328-light.h5 tag-1490961790//
/work/sebastian/BT-20210625/1009328-light/run1009328-light.h5 tag-1490961796//
/work/sebastian/BT-20210625/1009328-light/run1009328-light.h5 tag-1490961800//
/work/sebastian/BT-20210625/1009328-light/run1009328-light.h5 tag-1490961806//
/work/sebastian/BT-20210625/1009328-light/run1009328-light.h5 tag-1490961818//
/work/sebastian/BT-20210625/1009328-light/run1009328-light.h5 tag-1490961824//
/work/sebastian/BT-20210625/1009328-light/run1009328-light.h5 tag-1490961838//
/work/sebastian/BT-20210625/1009328-light/run1009328-light.h5 tag-1490961840//
/work/sebastian/BT-20210625/1009328-light/run1009328-light.h5 tag-1490961842//
/work/sebastian/BT-20210625/1009328-light/run1009328-light.h5 tag-1490961848//
/work/sebastian/BT-20210625/1009328-light/run1009328-light.h5 tag-1490961854//
/work/sebastian/BT-20210625/1009328-light/run1009328-light.h5 tag-1490961856//
/work/sebastian/BT-20210625/1009328-light/run1009328-light.h5 tag-1490961860//
/work/sebastian/BT-20210625/1009328-light/run1009328-light.h5 tag-1490961862//
/work/sebastian/BT-20210625/1009328-light/run1009328-light.h5 tag-1490961896//
/work/sebastian/BT-20210625/1009328-light/run1009328-light.h5 tag-1490961898//
/work/sebastian/BT-20210625/1009328-light/run1009328-light.h5 tag-1490961904//
/work/sebastian/BT-20210625/1009328-light/run1009328-light.h5 tag-1490961912//
/work/sebastian/BT-20210625/1009328-light/run1009328-light.h5 tag-1490961914//
/work/sebastian/BT-20210625/1009328-light/run1009328-light.h5 tag-1490961918//
/work/sebastian/BT-20210625/1009328-light/run1009328-light.h5 tag-1490961922//
/work/sebastian/BT-20210625/1009328-light/run1009328-light.h5 tag-1490961924//
/work/sebastian/BT-20210625/1009328-light/run1009328-light.h5 tag-1490961928//
/work/sebastian/BT-20210625/1009328-light/run1009328-light.h5 tag-1490961932//
/work/sebastian/BT-20210625/1009328-light/run1009328-light.h5 tag-1490961936//
/work/sebastian/BT-20210625/1009328-light/run1009328-light.h5 tag-1490961948//
/work/sebastian/BT-20210625/1009328-light/run1009328-light.h5 tag-1490961954//
/work/sebastian/BT-20210625/1009328-light/run1009328-light.h5 tag-1490961958//
/work/sebastian/BT-20210625/1009328-light/run1009328-light.h5 tag-1490961968//
/work/sebastian/BT-20210625/1009328-light/run1009328-light.h5 tag-1490961970//
/work/sebastian/BT-20210625/1009328-light/run1009328-light.h5 tag-1490961976//
/work/sebastian/BT-20210625/1009328-light/run1009328-light.h5 tag-1490961980//
/work/sebastian/BT-20210625/1009328-light/run1009328-light.h5 tag-1490961982//
/work/sebastian/BT-20210625/1009328-light/run1009328-light.h5 tag-1490961990//
/work/sebastian/BT-20210625/1009328-light/run1009328-light.h5 tag-1490961998//
/work/sebastian/BT-20210625/1009328-light/run1009328-light.h5 tag-1490962002//
/work/sebastian/BT-20210625/1009328-light/run1009328-light.h5 tag-1490962006//
/work/sebastian/BT-20210625/1009328-light/run1009328-light.h5 tag-1490962008//
/work/sebastian/BT-20210625/1009328-light/run1009328-light.h5 tag-1490962012//
/work/sebastian/BT-20210625/1009328-light/run1009328-light.h5 tag-1490962018//
/work/sebastian/BT-20210625/1009328-light/run1009328-light.h5 tag-1490962020//
/work/sebastian/BT-20210625/1009328-light/run1009328-light.h5 tag-1490962024//
/work/sebastian/BT-20210625/1009328-light/run1009328-light.h5 tag-1490962032//
/work/sebastian/BT-20210625/1009328-light/run1009328-light.h5 tag-1490962034//
/work/sebastian/BT-20210625/1009328-light/run1009328-light.h5 tag-1490962036//
/work/sebastian/BT-20210625/1009328-light/run1009328-light.h5 tag-1490962042//
/work/sebastian/BT-20210625/1009328-light/run1009328-light.h5 tag-1490962048//
/work/sebastian/BT-20210625/1009328-light/run1009328-light.h5 tag-1490962052//
/work/sebastian/BT-20210625/1009328-light/run1009328-light.h5 tag-1490962054//
/work/sebastian/BT-20210625/1009328-light/run1009328-light.h5 tag-1490962060//
/work/sebastian/BT-20210625/1009328-light/run1009328-light.h5 tag-1490962062//
/work/sebastian/BT-20210625/1009328-light/run1009328-light.h5 tag-1490962068//
/work/sebastian/BT-20210625/1009328-light/run1009328-light.h5 tag-1490962072//
/work/sebastian/BT-20210625/1009328-light/run1009328-light.h5 tag-1490962074//
/work/sebastian/BT-20210625/1009328-light/run1009328-light.h5 tag-1490962088//
/work/sebastian/BT-20210625/1009328-light/run1009328-light.h5 tag-1490962094//
/work/sebastian/BT-20210625/1009328-light/run1009328-light.h5 tag-1490962096//
/work/sebastian/BT-20210625/1009328-light/run1009328-light.h5 tag-1490962110//
/work/sebastian/BT-20210625/1009328-light/run1009328-light.h5 tag-1490962118//
