/work/sebastian/BT-20210625/1009996-light/run1009996-light.h5 tag-1498410604//
/work/sebastian/BT-20210625/1009996-light/run1009996-light.h5 tag-1498410608//
/work/sebastian/BT-20210625/1009996-light/run1009996-light.h5 tag-1498410610//
/work/sebastian/BT-20210625/1009996-light/run1009996-light.h5 tag-1498410622//
/work/sebastian/BT-20210625/1009996-light/run1009996-light.h5 tag-1498410626//
/work/sebastian/BT-20210625/1009996-light/run1009996-light.h5 tag-1498410632//
/work/sebastian/BT-20210625/1009996-light/run1009996-light.h5 tag-1498410638//
/work/sebastian/BT-20210625/1009996-light/run1009996-light.h5 tag-1498410656//
/work/sebastian/BT-20210625/1009996-light/run1009996-light.h5 tag-1498410660//
/work/sebastian/BT-20210625/1009996-light/run1009996-light.h5 tag-1498410662//
/work/sebastian/BT-20210625/1009996-light/run1009996-light.h5 tag-1498410670//
/work/sebastian/BT-20210625/1009996-light/run1009996-light.h5 tag-1498410674//
/work/sebastian/BT-20210625/1009996-light/run1009996-light.h5 tag-1498410678//
/work/sebastian/BT-20210625/1009996-light/run1009996-light.h5 tag-1498410680//
/work/sebastian/BT-20210625/1009996-light/run1009996-light.h5 tag-1498410684//
/work/sebastian/BT-20210625/1009996-light/run1009996-light.h5 tag-1498410686//
/work/sebastian/BT-20210625/1009996-light/run1009996-light.h5 tag-1498410690//
/work/sebastian/BT-20210625/1009996-light/run1009996-light.h5 tag-1498410702//
/work/sebastian/BT-20210625/1009996-light/run1009996-light.h5 tag-1498410706//
/work/sebastian/BT-20210625/1009996-light/run1009996-light.h5 tag-1498410712//
/work/sebastian/BT-20210625/1009996-light/run1009996-light.h5 tag-1498410716//
/work/sebastian/BT-20210625/1009996-light/run1009996-light.h5 tag-1498410720//
/work/sebastian/BT-20210625/1009996-light/run1009996-light.h5 tag-1498410722//
/work/sebastian/BT-20210625/1009996-light/run1009996-light.h5 tag-1498410726//
/work/sebastian/BT-20210625/1009996-light/run1009996-light.h5 tag-1498410730//
/work/sebastian/BT-20210625/1009996-light/run1009996-light.h5 tag-1498410734//
/work/sebastian/BT-20210625/1009996-light/run1009996-light.h5 tag-1498410736//
/work/sebastian/BT-20210625/1009996-light/run1009996-light.h5 tag-1498410740//
/work/sebastian/BT-20210625/1009996-light/run1009996-light.h5 tag-1498410742//
/work/sebastian/BT-20210625/1009996-light/run1009996-light.h5 tag-1498410746//
/work/sebastian/BT-20210625/1009996-light/run1009996-light.h5 tag-1498410750//
/work/sebastian/BT-20210625/1009996-light/run1009996-light.h5 tag-1498410754//
/work/sebastian/BT-20210625/1009996-light/run1009996-light.h5 tag-1498410760//
/work/sebastian/BT-20210625/1009996-light/run1009996-light.h5 tag-1498410764//
/work/sebastian/BT-20210625/1009996-light/run1009996-light.h5 tag-1498410766//
/work/sebastian/BT-20210625/1009996-light/run1009996-light.h5 tag-1498410768//
/work/sebastian/BT-20210625/1009996-light/run1009996-light.h5 tag-1498410774//
/work/sebastian/BT-20210625/1009996-light/run1009996-light.h5 tag-1498410780//
/work/sebastian/BT-20210625/1009996-light/run1009996-light.h5 tag-1498410784//
/work/sebastian/BT-20210625/1009996-light/run1009996-light.h5 tag-1498410788//
/work/sebastian/BT-20210625/1009996-light/run1009996-light.h5 tag-1498410790//
/work/sebastian/BT-20210625/1009996-light/run1009996-light.h5 tag-1498410798//
/work/sebastian/BT-20210625/1009996-light/run1009996-light.h5 tag-1498410800//
/work/sebastian/BT-20210625/1009996-light/run1009996-light.h5 tag-1498410804//
/work/sebastian/BT-20210625/1009996-light/run1009996-light.h5 tag-1498410806//
/work/sebastian/BT-20210625/1009996-light/run1009996-light.h5 tag-1498410826//
/work/sebastian/BT-20210625/1009996-light/run1009996-light.h5 tag-1498410832//
/work/sebastian/BT-20210625/1009996-light/run1009996-light.h5 tag-1498410834//
/work/sebastian/BT-20210625/1009996-light/run1009996-light.h5 tag-1498410844//
/work/sebastian/BT-20210625/1009996-light/run1009996-light.h5 tag-1498410852//
/work/sebastian/BT-20210625/1009996-light/run1009996-light.h5 tag-1498410854//
/work/sebastian/BT-20210625/1009996-light/run1009996-light.h5 tag-1498410856//
/work/sebastian/BT-20210625/1009996-light/run1009996-light.h5 tag-1498410868//
/work/sebastian/BT-20210625/1009996-light/run1009996-light.h5 tag-1498410876//
/work/sebastian/BT-20210625/1009996-light/run1009996-light.h5 tag-1498410880//
/work/sebastian/BT-20210625/1009996-light/run1009996-light.h5 tag-1498410884//
/work/sebastian/BT-20210625/1009996-light/run1009996-light.h5 tag-1498410886//
/work/sebastian/BT-20210625/1009996-light/run1009996-light.h5 tag-1498410890//
/work/sebastian/BT-20210625/1009996-light/run1009996-light.h5 tag-1498410898//
/work/sebastian/BT-20210625/1009996-light/run1009996-light.h5 tag-1498410900//
/work/sebastian/BT-20210625/1009996-light/run1009996-light.h5 tag-1498410904//
/work/sebastian/BT-20210625/1009996-light/run1009996-light.h5 tag-1498410908//
/work/sebastian/BT-20210625/1009996-light/run1009996-light.h5 tag-1498410910//
/work/sebastian/BT-20210625/1009996-light/run1009996-light.h5 tag-1498410914//
/work/sebastian/BT-20210625/1009996-light/run1009996-light.h5 tag-1498410918//
/work/sebastian/BT-20210625/1009996-light/run1009996-light.h5 tag-1498410920//
/work/sebastian/BT-20210625/1009996-light/run1009996-light.h5 tag-1498410922//
/work/sebastian/BT-20210625/1009996-light/run1009996-light.h5 tag-1498410932//
/work/sebastian/BT-20210625/1009996-light/run1009996-light.h5 tag-1498410934//
/work/sebastian/BT-20210625/1009996-light/run1009996-light.h5 tag-1498410938//
/work/sebastian/BT-20210625/1009996-light/run1009996-light.h5 tag-1498410942//
/work/sebastian/BT-20210625/1009996-light/run1009996-light.h5 tag-1498410944//
/work/sebastian/BT-20210625/1009996-light/run1009996-light.h5 tag-1498410946//
/work/sebastian/BT-20210625/1009996-light/run1009996-light.h5 tag-1498410948//
/work/sebastian/BT-20210625/1009996-light/run1009996-light.h5 tag-1498410952//
/work/sebastian/BT-20210625/1009996-light/run1009996-light.h5 tag-1498410956//
/work/sebastian/BT-20210625/1009996-light/run1009996-light.h5 tag-1498410958//
/work/sebastian/BT-20210625/1009996-light/run1009996-light.h5 tag-1498410962//
/work/sebastian/BT-20210625/1009996-light/run1009996-light.h5 tag-1498410966//
/work/sebastian/BT-20210625/1009996-light/run1009996-light.h5 tag-1498410970//
/work/sebastian/BT-20210625/1009996-light/run1009996-light.h5 tag-1498410972//
/work/sebastian/BT-20210625/1009996-light/run1009996-light.h5 tag-1498410980//
/work/sebastian/BT-20210625/1009996-light/run1009996-light.h5 tag-1498410986//
/work/sebastian/BT-20210625/1009996-light/run1009996-light.h5 tag-1498410988//
/work/sebastian/BT-20210625/1009996-light/run1009996-light.h5 tag-1498410990//
/work/sebastian/BT-20210625/1009996-light/run1009996-light.h5 tag-1498410992//
/work/sebastian/BT-20210625/1009996-light/run1009996-light.h5 tag-1498411000//
/work/sebastian/BT-20210625/1009996-light/run1009996-light.h5 tag-1498411002//
/work/sebastian/BT-20210625/1009996-light/run1009996-light.h5 tag-1498411006//
/work/sebastian/BT-20210625/1009996-light/run1009996-light.h5 tag-1498411012//
/work/sebastian/BT-20210625/1009996-light/run1009996-light.h5 tag-1498411014//
/work/sebastian/BT-20210625/1009996-light/run1009996-light.h5 tag-1498411016//
/work/sebastian/BT-20210625/1009996-light/run1009996-light.h5 tag-1498411022//
/work/sebastian/BT-20210625/1009996-light/run1009996-light.h5 tag-1498411032//
/work/sebastian/BT-20210625/1009996-light/run1009996-light.h5 tag-1498411042//
/work/sebastian/BT-20210625/1009996-light/run1009996-light.h5 tag-1498411046//
/work/sebastian/BT-20210625/1009996-light/run1009996-light.h5 tag-1498411048//
/work/sebastian/BT-20210625/1009996-light/run1009996-light.h5 tag-1498411060//
/work/sebastian/BT-20210625/1009996-light/run1009996-light.h5 tag-1498411064//
/work/sebastian/BT-20210625/1009996-light/run1009996-light.h5 tag-1498411066//
/work/sebastian/BT-20210625/1009996-light/run1009996-light.h5 tag-1498411072//
/work/sebastian/BT-20210625/1009996-light/run1009996-light.h5 tag-1498411076//
/work/sebastian/BT-20210625/1009996-light/run1009996-light.h5 tag-1498411078//
/work/sebastian/BT-20210625/1009996-light/run1009996-light.h5 tag-1498411080//
/work/sebastian/BT-20210625/1009996-light/run1009996-light.h5 tag-1498411084//
/work/sebastian/BT-20210625/1009996-light/run1009996-light.h5 tag-1498411090//
/work/sebastian/BT-20210625/1009996-light/run1009996-light.h5 tag-1498411094//
/work/sebastian/BT-20210625/1009996-light/run1009996-light.h5 tag-1498411110//
/work/sebastian/BT-20210625/1009996-light/run1009996-light.h5 tag-1498411112//
/work/sebastian/BT-20210625/1009996-light/run1009996-light.h5 tag-1498411114//
/work/sebastian/BT-20210625/1009996-light/run1009996-light.h5 tag-1498411118//
/work/sebastian/BT-20210625/1009996-light/run1009996-light.h5 tag-1498411122//
/work/sebastian/BT-20210625/1009996-light/run1009996-light.h5 tag-1498411126//
/work/sebastian/BT-20210625/1009996-light/run1009996-light.h5 tag-1498411128//
/work/sebastian/BT-20210625/1009996-light/run1009996-light.h5 tag-1498411138//
/work/sebastian/BT-20210625/1009996-light/run1009996-light.h5 tag-1498411142//
/work/sebastian/BT-20210625/1009996-light/run1009996-light.h5 tag-1498411144//
/work/sebastian/BT-20210625/1009996-light/run1009996-light.h5 tag-1498411152//
/work/sebastian/BT-20210625/1009996-light/run1009996-light.h5 tag-1498411154//
/work/sebastian/BT-20210625/1009996-light/run1009996-light.h5 tag-1498411158//
/work/sebastian/BT-20210625/1009996-light/run1009996-light.h5 tag-1498411162//
/work/sebastian/BT-20210625/1009996-light/run1009996-light.h5 tag-1498411166//
/work/sebastian/BT-20210625/1009996-light/run1009996-light.h5 tag-1498411170//
/work/sebastian/BT-20210625/1009996-light/run1009996-light.h5 tag-1498411176//
/work/sebastian/BT-20210625/1009996-light/run1009996-light.h5 tag-1498411182//
/work/sebastian/BT-20210625/1009996-light/run1009996-light.h5 tag-1498411188//
/work/sebastian/BT-20210625/1009996-light/run1009996-light.h5 tag-1498411190//
/work/sebastian/BT-20210625/1009996-light/run1009996-light.h5 tag-1498411194//
/work/sebastian/BT-20210625/1009996-light/run1009996-light.h5 tag-1498411198//
/work/sebastian/BT-20210625/1009996-light/run1009996-light.h5 tag-1498411202//
/work/sebastian/BT-20210625/1009996-light/run1009996-light.h5 tag-1498411206//
/work/sebastian/BT-20210625/1009996-light/run1009996-light.h5 tag-1498411212//
/work/sebastian/BT-20210625/1009996-light/run1009996-light.h5 tag-1498411214//
/work/sebastian/BT-20210625/1009996-light/run1009996-light.h5 tag-1498411216//
/work/sebastian/BT-20210625/1009996-light/run1009996-light.h5 tag-1498411226//
/work/sebastian/BT-20210625/1009996-light/run1009996-light.h5 tag-1498411230//
/work/sebastian/BT-20210625/1009996-light/run1009996-light.h5 tag-1498411234//
/work/sebastian/BT-20210625/1009996-light/run1009996-light.h5 tag-1498411238//
/work/sebastian/BT-20210625/1009996-light/run1009996-light.h5 tag-1498411240//
/work/sebastian/BT-20210625/1009996-light/run1009996-light.h5 tag-1498411244//
/work/sebastian/BT-20210625/1009996-light/run1009996-light.h5 tag-1498411260//
/work/sebastian/BT-20210625/1009996-light/run1009996-light.h5 tag-1498411264//
/work/sebastian/BT-20210625/1009996-light/run1009996-light.h5 tag-1498411274//
/work/sebastian/BT-20210625/1009996-light/run1009996-light.h5 tag-1498411278//
/work/sebastian/BT-20210625/1009996-light/run1009996-light.h5 tag-1498411282//
/work/sebastian/BT-20210625/1009996-light/run1009996-light.h5 tag-1498411292//
/work/sebastian/BT-20210625/1009996-light/run1009996-light.h5 tag-1498411298//
/work/sebastian/BT-20210625/1009996-light/run1009996-light.h5 tag-1498411304//
/work/sebastian/BT-20210625/1009996-light/run1009996-light.h5 tag-1498411306//
/work/sebastian/BT-20210625/1009996-light/run1009996-light.h5 tag-1498411308//
/work/sebastian/BT-20210625/1009996-light/run1009996-light.h5 tag-1498411312//
/work/sebastian/BT-20210625/1009996-light/run1009996-light.h5 tag-1498411316//
/work/sebastian/BT-20210625/1009996-light/run1009996-light.h5 tag-1498411318//
/work/sebastian/BT-20210625/1009996-light/run1009996-light.h5 tag-1498411328//
/work/sebastian/BT-20210625/1009996-light/run1009996-light.h5 tag-1498411334//
/work/sebastian/BT-20210625/1009996-light/run1009996-light.h5 tag-1498411336//
/work/sebastian/BT-20210625/1009996-light/run1009996-light.h5 tag-1498411340//
/work/sebastian/BT-20210625/1009996-light/run1009996-light.h5 tag-1498411342//
/work/sebastian/BT-20210625/1009996-light/run1009996-light.h5 tag-1498411350//
/work/sebastian/BT-20210625/1009996-light/run1009996-light.h5 tag-1498411356//
/work/sebastian/BT-20210625/1009996-light/run1009996-light.h5 tag-1498411360//
/work/sebastian/BT-20210625/1009996-light/run1009996-light.h5 tag-1498411364//
/work/sebastian/BT-20210625/1009996-light/run1009996-light.h5 tag-1498411370//
/work/sebastian/BT-20210625/1009996-light/run1009996-light.h5 tag-1498411372//
/work/sebastian/BT-20210625/1009996-light/run1009996-light.h5 tag-1498411380//
/work/sebastian/BT-20210625/1009996-light/run1009996-light.h5 tag-1498411388//
/work/sebastian/BT-20210625/1009996-light/run1009996-light.h5 tag-1498411390//
/work/sebastian/BT-20210625/1009996-light/run1009996-light.h5 tag-1498411392//
/work/sebastian/BT-20210625/1009996-light/run1009996-light.h5 tag-1498411396//
/work/sebastian/BT-20210625/1009996-light/run1009996-light.h5 tag-1498411398//
/work/sebastian/BT-20210625/1009996-light/run1009996-light.h5 tag-1498411416//
/work/sebastian/BT-20210625/1009996-light/run1009996-light.h5 tag-1498411422//
/work/sebastian/BT-20210625/1009996-light/run1009996-light.h5 tag-1498411426//
/work/sebastian/BT-20210625/1009996-light/run1009996-light.h5 tag-1498411434//
/work/sebastian/BT-20210625/1009996-light/run1009996-light.h5 tag-1498411444//
/work/sebastian/BT-20210625/1009996-light/run1009996-light.h5 tag-1498411446//
/work/sebastian/BT-20210625/1009996-light/run1009996-light.h5 tag-1498411450//
/work/sebastian/BT-20210625/1009996-light/run1009996-light.h5 tag-1498411454//
/work/sebastian/BT-20210625/1009996-light/run1009996-light.h5 tag-1498411460//
/work/sebastian/BT-20210625/1009996-light/run1009996-light.h5 tag-1498411472//
/work/sebastian/BT-20210625/1009996-light/run1009996-light.h5 tag-1498411484//
/work/sebastian/BT-20210625/1009996-light/run1009996-light.h5 tag-1498411488//
/work/sebastian/BT-20210625/1009996-light/run1009996-light.h5 tag-1498411492//
/work/sebastian/BT-20210625/1009996-light/run1009996-light.h5 tag-1498411494//
/work/sebastian/BT-20210625/1009996-light/run1009996-light.h5 tag-1498411498//
/work/sebastian/BT-20210625/1009996-light/run1009996-light.h5 tag-1498411502//
/work/sebastian/BT-20210625/1009996-light/run1009996-light.h5 tag-1498411506//
/work/sebastian/BT-20210625/1009996-light/run1009996-light.h5 tag-1498411508//
/work/sebastian/BT-20210625/1009996-light/run1009996-light.h5 tag-1498411512//
/work/sebastian/BT-20210625/1009996-light/run1009996-light.h5 tag-1498411516//
/work/sebastian/BT-20210625/1009996-light/run1009996-light.h5 tag-1498411522//
/work/sebastian/BT-20210625/1009996-light/run1009996-light.h5 tag-1498411530//
/work/sebastian/BT-20210625/1009996-light/run1009996-light.h5 tag-1498411540//
/work/sebastian/BT-20210625/1009996-light/run1009996-light.h5 tag-1498411542//
/work/sebastian/BT-20210625/1009996-light/run1009996-light.h5 tag-1498411546//
/work/sebastian/BT-20210625/1009996-light/run1009996-light.h5 tag-1498411550//
/work/sebastian/BT-20210625/1009996-light/run1009996-light.h5 tag-1498411554//
/work/sebastian/BT-20210625/1009996-light/run1009996-light.h5 tag-1498411556//
/work/sebastian/BT-20210625/1009996-light/run1009996-light.h5 tag-1498411560//
/work/sebastian/BT-20210625/1009996-light/run1009996-light.h5 tag-1498411564//
/work/sebastian/BT-20210625/1009996-light/run1009996-light.h5 tag-1498411570//
/work/sebastian/BT-20210625/1009996-light/run1009996-light.h5 tag-1498411578//
/work/sebastian/BT-20210625/1009996-light/run1009996-light.h5 tag-1498411580//
/work/sebastian/BT-20210625/1009996-light/run1009996-light.h5 tag-1498411588//
/work/sebastian/BT-20210625/1009996-light/run1009996-light.h5 tag-1498411592//
/work/sebastian/BT-20210625/1009996-light/run1009996-light.h5 tag-1498411598//
/work/sebastian/BT-20210625/1009996-light/run1009996-light.h5 tag-1498411600//
/work/sebastian/BT-20210625/1009996-light/run1009996-light.h5 tag-1498411604//
/work/sebastian/BT-20210625/1009996-light/run1009996-light.h5 tag-1498411608//
/work/sebastian/BT-20210625/1009996-light/run1009996-light.h5 tag-1498411622//
/work/sebastian/BT-20210625/1009996-light/run1009996-light.h5 tag-1498411626//
/work/sebastian/BT-20210625/1009996-light/run1009996-light.h5 tag-1498411630//
/work/sebastian/BT-20210625/1009996-light/run1009996-light.h5 tag-1498411638//
/work/sebastian/BT-20210625/1009996-light/run1009996-light.h5 tag-1498411642//
/work/sebastian/BT-20210625/1009996-light/run1009996-light.h5 tag-1498411646//
/work/sebastian/BT-20210625/1009996-light/run1009996-light.h5 tag-1498411650//
/work/sebastian/BT-20210625/1009996-light/run1009996-light.h5 tag-1498411660//
/work/sebastian/BT-20210625/1009996-light/run1009996-light.h5 tag-1498411662//
/work/sebastian/BT-20210625/1009996-light/run1009996-light.h5 tag-1498411664//
/work/sebastian/BT-20210625/1009996-light/run1009996-light.h5 tag-1498411666//
/work/sebastian/BT-20210625/1009996-light/run1009996-light.h5 tag-1498411670//
/work/sebastian/BT-20210625/1009996-light/run1009996-light.h5 tag-1498411674//
/work/sebastian/BT-20210625/1009996-light/run1009996-light.h5 tag-1498411676//
/work/sebastian/BT-20210625/1009996-light/run1009996-light.h5 tag-1498411678//
/work/sebastian/BT-20210625/1009996-light/run1009996-light.h5 tag-1498411684//
/work/sebastian/BT-20210625/1009996-light/run1009996-light.h5 tag-1498411702//
/work/sebastian/BT-20210625/1009996-light/run1009996-light.h5 tag-1498411706//
/work/sebastian/BT-20210625/1009996-light/run1009996-light.h5 tag-1498411718//
/work/sebastian/BT-20210625/1009996-light/run1009996-light.h5 tag-1498411720//
/work/sebastian/BT-20210625/1009996-light/run1009996-light.h5 tag-1498411724//
/work/sebastian/BT-20210625/1009996-light/run1009996-light.h5 tag-1498411738//
/work/sebastian/BT-20210625/1009996-light/run1009996-light.h5 tag-1498411742//
/work/sebastian/BT-20210625/1009996-light/run1009996-light.h5 tag-1498411746//
/work/sebastian/BT-20210625/1009996-light/run1009996-light.h5 tag-1498411752//
/work/sebastian/BT-20210625/1009996-light/run1009996-light.h5 tag-1498411758//
/work/sebastian/BT-20210625/1009996-light/run1009996-light.h5 tag-1498411760//
/work/sebastian/BT-20210625/1009996-light/run1009996-light.h5 tag-1498411762//
/work/sebastian/BT-20210625/1009996-light/run1009996-light.h5 tag-1498411776//
/work/sebastian/BT-20210625/1009996-light/run1009996-light.h5 tag-1498411780//
/work/sebastian/BT-20210625/1009996-light/run1009996-light.h5 tag-1498411784//
/work/sebastian/BT-20210625/1009996-light/run1009996-light.h5 tag-1498411788//
/work/sebastian/BT-20210625/1009996-light/run1009996-light.h5 tag-1498411790//
/work/sebastian/BT-20210625/1009996-light/run1009996-light.h5 tag-1498411792//
/work/sebastian/BT-20210625/1009996-light/run1009996-light.h5 tag-1498411798//
/work/sebastian/BT-20210625/1009996-light/run1009996-light.h5 tag-1498411810//
/work/sebastian/BT-20210625/1009996-light/run1009996-light.h5 tag-1498411820//
/work/sebastian/BT-20210625/1009996-light/run1009996-light.h5 tag-1498411830//
/work/sebastian/BT-20210625/1009996-light/run1009996-light.h5 tag-1498411836//
/work/sebastian/BT-20210625/1009996-light/run1009996-light.h5 tag-1498411838//
/work/sebastian/BT-20210625/1009996-light/run1009996-light.h5 tag-1498411844//
/work/sebastian/BT-20210625/1009996-light/run1009996-light.h5 tag-1498411848//
/work/sebastian/BT-20210625/1009996-light/run1009996-light.h5 tag-1498411854//
/work/sebastian/BT-20210625/1009996-light/run1009996-light.h5 tag-1498411856//
/work/sebastian/BT-20210625/1009996-light/run1009996-light.h5 tag-1498411862//
/work/sebastian/BT-20210625/1009996-light/run1009996-light.h5 tag-1498411876//
/work/sebastian/BT-20210625/1009996-light/run1009996-light.h5 tag-1498411878//
/work/sebastian/BT-20210625/1009996-light/run1009996-light.h5 tag-1498411882//
/work/sebastian/BT-20210625/1009996-light/run1009996-light.h5 tag-1498411884//
/work/sebastian/BT-20210625/1009996-light/run1009996-light.h5 tag-1498411886//
/work/sebastian/BT-20210625/1009996-light/run1009996-light.h5 tag-1498411892//
/work/sebastian/BT-20210625/1009996-light/run1009996-light.h5 tag-1498411896//
/work/sebastian/BT-20210625/1009996-light/run1009996-light.h5 tag-1498411900//
/work/sebastian/BT-20210625/1009996-light/run1009996-light.h5 tag-1498411910//
/work/sebastian/BT-20210625/1009996-light/run1009996-light.h5 tag-1498411914//
/work/sebastian/BT-20210625/1009996-light/run1009996-light.h5 tag-1498411916//
/work/sebastian/BT-20210625/1009996-light/run1009996-light.h5 tag-1498411920//
/work/sebastian/BT-20210625/1009996-light/run1009996-light.h5 tag-1498411922//
/work/sebastian/BT-20210625/1009996-light/run1009996-light.h5 tag-1498411924//
/work/sebastian/BT-20210625/1009996-light/run1009996-light.h5 tag-1498411926//
/work/sebastian/BT-20210625/1009996-light/run1009996-light.h5 tag-1498411930//
/work/sebastian/BT-20210625/1009996-light/run1009996-light.h5 tag-1498411934//
/work/sebastian/BT-20210625/1009996-light/run1009996-light.h5 tag-1498411936//
/work/sebastian/BT-20210625/1009996-light/run1009996-light.h5 tag-1498411944//
/work/sebastian/BT-20210625/1009996-light/run1009996-light.h5 tag-1498411948//
/work/sebastian/BT-20210625/1009996-light/run1009996-light.h5 tag-1498411952//
/work/sebastian/BT-20210625/1009996-light/run1009996-light.h5 tag-1498411956//
/work/sebastian/BT-20210625/1009996-light/run1009996-light.h5 tag-1498411958//
/work/sebastian/BT-20210625/1009996-light/run1009996-light.h5 tag-1498411962//
/work/sebastian/BT-20210625/1009996-light/run1009996-light.h5 tag-1498411972//
/work/sebastian/BT-20210625/1009996-light/run1009996-light.h5 tag-1498411974//
/work/sebastian/BT-20210625/1009996-light/run1009996-light.h5 tag-1498411976//
/work/sebastian/BT-20210625/1009996-light/run1009996-light.h5 tag-1498411984//
/work/sebastian/BT-20210625/1009996-light/run1009996-light.h5 tag-1498411986//
/work/sebastian/BT-20210625/1009996-light/run1009996-light.h5 tag-1498411994//
/work/sebastian/BT-20210625/1009996-light/run1009996-light.h5 tag-1498411998//
/work/sebastian/BT-20210625/1009996-light/run1009996-light.h5 tag-1498412004//
/work/sebastian/BT-20210625/1009996-light/run1009996-light.h5 tag-1498412020//
/work/sebastian/BT-20210625/1009996-light/run1009996-light.h5 tag-1498412024//
/work/sebastian/BT-20210625/1009996-light/run1009996-light.h5 tag-1498412028//
/work/sebastian/BT-20210625/1009996-light/run1009996-light.h5 tag-1498412032//
/work/sebastian/BT-20210625/1009996-light/run1009996-light.h5 tag-1498412034//
/work/sebastian/BT-20210625/1009996-light/run1009996-light.h5 tag-1498412038//
/work/sebastian/BT-20210625/1009996-light/run1009996-light.h5 tag-1498412042//
/work/sebastian/BT-20210625/1009996-light/run1009996-light.h5 tag-1498412050//
/work/sebastian/BT-20210625/1009996-light/run1009996-light.h5 tag-1498412052//
/work/sebastian/BT-20210625/1009996-light/run1009996-light.h5 tag-1498412054//
/work/sebastian/BT-20210625/1009996-light/run1009996-light.h5 tag-1498412060//
/work/sebastian/BT-20210625/1009996-light/run1009996-light.h5 tag-1498412068//
/work/sebastian/BT-20210625/1009996-light/run1009996-light.h5 tag-1498412072//
/work/sebastian/BT-20210625/1009996-light/run1009996-light.h5 tag-1498412078//
/work/sebastian/BT-20210625/1009996-light/run1009996-light.h5 tag-1498412082//
/work/sebastian/BT-20210625/1009996-light/run1009996-light.h5 tag-1498412088//
/work/sebastian/BT-20210625/1009996-light/run1009996-light.h5 tag-1498412092//
/work/sebastian/BT-20210625/1009996-light/run1009996-light.h5 tag-1498412096//
/work/sebastian/BT-20210625/1009996-light/run1009996-light.h5 tag-1498412098//
/work/sebastian/BT-20210625/1009996-light/run1009996-light.h5 tag-1498412100//
/work/sebastian/BT-20210625/1009996-light/run1009996-light.h5 tag-1498412110//
/work/sebastian/BT-20210625/1009996-light/run1009996-light.h5 tag-1498412118//
/work/sebastian/BT-20210625/1009996-light/run1009996-light.h5 tag-1498412122//
/work/sebastian/BT-20210625/1009996-light/run1009996-light.h5 tag-1498412124//
/work/sebastian/BT-20210625/1009996-light/run1009996-light.h5 tag-1498412128//
/work/sebastian/BT-20210625/1009996-light/run1009996-light.h5 tag-1498412134//
/work/sebastian/BT-20210625/1009996-light/run1009996-light.h5 tag-1498412138//
/work/sebastian/BT-20210625/1009996-light/run1009996-light.h5 tag-1498412142//
/work/sebastian/BT-20210625/1009996-light/run1009996-light.h5 tag-1498412148//
/work/sebastian/BT-20210625/1009996-light/run1009996-light.h5 tag-1498412156//
/work/sebastian/BT-20210625/1009996-light/run1009996-light.h5 tag-1498412160//
/work/sebastian/BT-20210625/1009996-light/run1009996-light.h5 tag-1498412164//
/work/sebastian/BT-20210625/1009996-light/run1009996-light.h5 tag-1498412180//
/work/sebastian/BT-20210625/1009996-light/run1009996-light.h5 tag-1498412190//
/work/sebastian/BT-20210625/1009996-light/run1009996-light.h5 tag-1498412196//
/work/sebastian/BT-20210625/1009996-light/run1009996-light.h5 tag-1498412204//
/work/sebastian/BT-20210625/1009996-light/run1009996-light.h5 tag-1498412208//
/work/sebastian/BT-20210625/1009996-light/run1009996-light.h5 tag-1498412212//
/work/sebastian/BT-20210625/1009996-light/run1009996-light.h5 tag-1498412214//
/work/sebastian/BT-20210625/1009996-light/run1009996-light.h5 tag-1498412222//
/work/sebastian/BT-20210625/1009996-light/run1009996-light.h5 tag-1498412224//
/work/sebastian/BT-20210625/1009996-light/run1009996-light.h5 tag-1498412226//
/work/sebastian/BT-20210625/1009996-light/run1009996-light.h5 tag-1498412230//
/work/sebastian/BT-20210625/1009996-light/run1009996-light.h5 tag-1498412234//
/work/sebastian/BT-20210625/1009996-light/run1009996-light.h5 tag-1498412236//
/work/sebastian/BT-20210625/1009996-light/run1009996-light.h5 tag-1498412250//
/work/sebastian/BT-20210625/1009996-light/run1009996-light.h5 tag-1498412256//
/work/sebastian/BT-20210625/1009996-light/run1009996-light.h5 tag-1498412258//
/work/sebastian/BT-20210625/1009996-light/run1009996-light.h5 tag-1498412262//
/work/sebastian/BT-20210625/1009996-light/run1009996-light.h5 tag-1498412266//
/work/sebastian/BT-20210625/1009996-light/run1009996-light.h5 tag-1498412270//
/work/sebastian/BT-20210625/1009996-light/run1009996-light.h5 tag-1498412272//
/work/sebastian/BT-20210625/1009996-light/run1009996-light.h5 tag-1498412278//
/work/sebastian/BT-20210625/1009996-light/run1009996-light.h5 tag-1498412284//
/work/sebastian/BT-20210625/1009996-light/run1009996-light.h5 tag-1498412288//
/work/sebastian/BT-20210625/1009996-light/run1009996-light.h5 tag-1498412294//
/work/sebastian/BT-20210625/1009996-light/run1009996-light.h5 tag-1498412300//
/work/sebastian/BT-20210625/1009996-light/run1009996-light.h5 tag-1498412304//
/work/sebastian/BT-20210625/1009996-light/run1009996-light.h5 tag-1498412310//
/work/sebastian/BT-20210625/1009996-light/run1009996-light.h5 tag-1498412314//
/work/sebastian/BT-20210625/1009996-light/run1009996-light.h5 tag-1498412324//
/work/sebastian/BT-20210625/1009996-light/run1009996-light.h5 tag-1498412328//
/work/sebastian/BT-20210625/1009996-light/run1009996-light.h5 tag-1498412332//
/work/sebastian/BT-20210625/1009996-light/run1009996-light.h5 tag-1498412334//
/work/sebastian/BT-20210625/1009996-light/run1009996-light.h5 tag-1498412336//
/work/sebastian/BT-20210625/1009996-light/run1009996-light.h5 tag-1498412338//
/work/sebastian/BT-20210625/1009996-light/run1009996-light.h5 tag-1498412346//
/work/sebastian/BT-20210625/1009996-light/run1009996-light.h5 tag-1498412350//
/work/sebastian/BT-20210625/1009996-light/run1009996-light.h5 tag-1498412352//
/work/sebastian/BT-20210625/1009996-light/run1009996-light.h5 tag-1498412356//
/work/sebastian/BT-20210625/1009996-light/run1009996-light.h5 tag-1498412360//
/work/sebastian/BT-20210625/1009996-light/run1009996-light.h5 tag-1498412364//
/work/sebastian/BT-20210625/1009996-light/run1009996-light.h5 tag-1498412366//
/work/sebastian/BT-20210625/1009996-light/run1009996-light.h5 tag-1498412370//
/work/sebastian/BT-20210625/1009996-light/run1009996-light.h5 tag-1498412372//
/work/sebastian/BT-20210625/1009996-light/run1009996-light.h5 tag-1498412374//
/work/sebastian/BT-20210625/1009996-light/run1009996-light.h5 tag-1498412388//
/work/sebastian/BT-20210625/1009996-light/run1009996-light.h5 tag-1498412392//
/work/sebastian/BT-20210625/1009996-light/run1009996-light.h5 tag-1498412396//
/work/sebastian/BT-20210625/1009996-light/run1009996-light.h5 tag-1498412398//
/work/sebastian/BT-20210625/1009996-light/run1009996-light.h5 tag-1498412400//
/work/sebastian/BT-20210625/1009996-light/run1009996-light.h5 tag-1498412406//
/work/sebastian/BT-20210625/1009996-light/run1009996-light.h5 tag-1498412412//
/work/sebastian/BT-20210625/1009996-light/run1009996-light.h5 tag-1498412424//
/work/sebastian/BT-20210625/1009996-light/run1009996-light.h5 tag-1498412426//
/work/sebastian/BT-20210625/1009996-light/run1009996-light.h5 tag-1498412434//
/work/sebastian/BT-20210625/1009996-light/run1009996-light.h5 tag-1498412436//
/work/sebastian/BT-20210625/1009996-light/run1009996-light.h5 tag-1498412438//
/work/sebastian/BT-20210625/1009996-light/run1009996-light.h5 tag-1498412444//
/work/sebastian/BT-20210625/1009996-light/run1009996-light.h5 tag-1498412454//
/work/sebastian/BT-20210625/1009996-light/run1009996-light.h5 tag-1498412458//
/work/sebastian/BT-20210625/1009996-light/run1009996-light.h5 tag-1498412462//
/work/sebastian/BT-20210625/1009996-light/run1009996-light.h5 tag-1498412468//
/work/sebastian/BT-20210625/1009996-light/run1009996-light.h5 tag-1498412472//
/work/sebastian/BT-20210625/1009996-light/run1009996-light.h5 tag-1498412474//
/work/sebastian/BT-20210625/1009996-light/run1009996-light.h5 tag-1498412476//
/work/sebastian/BT-20210625/1009996-light/run1009996-light.h5 tag-1498412478//
/work/sebastian/BT-20210625/1009996-light/run1009996-light.h5 tag-1498412480//
/work/sebastian/BT-20210625/1009996-light/run1009996-light.h5 tag-1498412482//
/work/sebastian/BT-20210625/1009996-light/run1009996-light.h5 tag-1498412486//
/work/sebastian/BT-20210625/1009996-light/run1009996-light.h5 tag-1498412490//
/work/sebastian/BT-20210625/1009996-light/run1009996-light.h5 tag-1498412496//
/work/sebastian/BT-20210625/1009996-light/run1009996-light.h5 tag-1498412502//
/work/sebastian/BT-20210625/1009996-light/run1009996-light.h5 tag-1498412506//
/work/sebastian/BT-20210625/1009996-light/run1009996-light.h5 tag-1498412514//
/work/sebastian/BT-20210625/1009996-light/run1009996-light.h5 tag-1498412518//
/work/sebastian/BT-20210625/1009996-light/run1009996-light.h5 tag-1498412520//
/work/sebastian/BT-20210625/1009996-light/run1009996-light.h5 tag-1498412528//
/work/sebastian/BT-20210625/1009996-light/run1009996-light.h5 tag-1498412532//
/work/sebastian/BT-20210625/1009996-light/run1009996-light.h5 tag-1498412536//
/work/sebastian/BT-20210625/1009996-light/run1009996-light.h5 tag-1498412538//
/work/sebastian/BT-20210625/1009996-light/run1009996-light.h5 tag-1498412542//
/work/sebastian/BT-20210625/1009996-light/run1009996-light.h5 tag-1498412544//
/work/sebastian/BT-20210625/1009996-light/run1009996-light.h5 tag-1498412552//
/work/sebastian/BT-20210625/1009996-light/run1009996-light.h5 tag-1498412556//
/work/sebastian/BT-20210625/1009996-light/run1009996-light.h5 tag-1498412566//
/work/sebastian/BT-20210625/1009996-light/run1009996-light.h5 tag-1498412568//
/work/sebastian/BT-20210625/1009996-light/run1009996-light.h5 tag-1498412572//
/work/sebastian/BT-20210625/1009996-light/run1009996-light.h5 tag-1498412584//
/work/sebastian/BT-20210625/1009996-light/run1009996-light.h5 tag-1498412588//
/work/sebastian/BT-20210625/1009996-light/run1009996-light.h5 tag-1498412592//
/work/sebastian/BT-20210625/1009996-light/run1009996-light.h5 tag-1498412598//
/work/sebastian/BT-20210625/1009996-light/run1009996-light.h5 tag-1498412602//
/work/sebastian/BT-20210625/1009996-light/run1009996-light.h5 tag-1498412606//
/work/sebastian/BT-20210625/1009996-light/run1009996-light.h5 tag-1498412610//
/work/sebastian/BT-20210625/1009996-light/run1009996-light.h5 tag-1498412614//
/work/sebastian/BT-20210625/1009996-light/run1009996-light.h5 tag-1498412618//
/work/sebastian/BT-20210625/1009996-light/run1009996-light.h5 tag-1498412620//
/work/sebastian/BT-20210625/1009996-light/run1009996-light.h5 tag-1498412622//
/work/sebastian/BT-20210625/1009996-light/run1009996-light.h5 tag-1498412626//
/work/sebastian/BT-20210625/1009996-light/run1009996-light.h5 tag-1498412632//
/work/sebastian/BT-20210625/1009996-light/run1009996-light.h5 tag-1498412636//
/work/sebastian/BT-20210625/1009996-light/run1009996-light.h5 tag-1498412644//
/work/sebastian/BT-20210625/1009996-light/run1009996-light.h5 tag-1498412654//
/work/sebastian/BT-20210625/1009996-light/run1009996-light.h5 tag-1498412662//
/work/sebastian/BT-20210625/1009996-light/run1009996-light.h5 tag-1498412666//
/work/sebastian/BT-20210625/1009996-light/run1009996-light.h5 tag-1498412670//
/work/sebastian/BT-20210625/1009996-light/run1009996-light.h5 tag-1498412674//
/work/sebastian/BT-20210625/1009996-light/run1009996-light.h5 tag-1498412676//
/work/sebastian/BT-20210625/1009996-light/run1009996-light.h5 tag-1498412682//
/work/sebastian/BT-20210625/1009996-light/run1009996-light.h5 tag-1498412684//
/work/sebastian/BT-20210625/1009996-light/run1009996-light.h5 tag-1498412690//
/work/sebastian/BT-20210625/1009996-light/run1009996-light.h5 tag-1498412694//
/work/sebastian/BT-20210625/1009996-light/run1009996-light.h5 tag-1498412698//
/work/sebastian/BT-20210625/1009996-light/run1009996-light.h5 tag-1498412700//
/work/sebastian/BT-20210625/1009996-light/run1009996-light.h5 tag-1498412702//
/work/sebastian/BT-20210625/1009996-light/run1009996-light.h5 tag-1498412704//
/work/sebastian/BT-20210625/1009996-light/run1009996-light.h5 tag-1498412708//
/work/sebastian/BT-20210625/1009996-light/run1009996-light.h5 tag-1498412718//
/work/sebastian/BT-20210625/1009996-light/run1009996-light.h5 tag-1498412722//
/work/sebastian/BT-20210625/1009996-light/run1009996-light.h5 tag-1498412724//
/work/sebastian/BT-20210625/1009996-light/run1009996-light.h5 tag-1498412726//
/work/sebastian/BT-20210625/1009996-light/run1009996-light.h5 tag-1498412732//
/work/sebastian/BT-20210625/1009996-light/run1009996-light.h5 tag-1498412744//
/work/sebastian/BT-20210625/1009996-light/run1009996-light.h5 tag-1498412746//
/work/sebastian/BT-20210625/1009996-light/run1009996-light.h5 tag-1498412748//
/work/sebastian/BT-20210625/1009996-light/run1009996-light.h5 tag-1498412754//
/work/sebastian/BT-20210625/1009996-light/run1009996-light.h5 tag-1498412756//
/work/sebastian/BT-20210625/1009996-light/run1009996-light.h5 tag-1498412758//
/work/sebastian/BT-20210625/1009996-light/run1009996-light.h5 tag-1498412760//
/work/sebastian/BT-20210625/1009996-light/run1009996-light.h5 tag-1498412764//
/work/sebastian/BT-20210625/1009996-light/run1009996-light.h5 tag-1498412768//
/work/sebastian/BT-20210625/1009996-light/run1009996-light.h5 tag-1498412770//
/work/sebastian/BT-20210625/1009996-light/run1009996-light.h5 tag-1498412772//
/work/sebastian/BT-20210625/1009996-light/run1009996-light.h5 tag-1498412774//
/work/sebastian/BT-20210625/1009996-light/run1009996-light.h5 tag-1498412778//
/work/sebastian/BT-20210625/1009996-light/run1009996-light.h5 tag-1498412786//
/work/sebastian/BT-20210625/1009996-light/run1009996-light.h5 tag-1498412788//
/work/sebastian/BT-20210625/1009996-light/run1009996-light.h5 tag-1498412792//
/work/sebastian/BT-20210625/1009996-light/run1009996-light.h5 tag-1498412804//
/work/sebastian/BT-20210625/1009996-light/run1009996-light.h5 tag-1498412806//
/work/sebastian/BT-20210625/1009996-light/run1009996-light.h5 tag-1498412808//
/work/sebastian/BT-20210625/1009996-light/run1009996-light.h5 tag-1498412814//
/work/sebastian/BT-20210625/1009996-light/run1009996-light.h5 tag-1498412818//
/work/sebastian/BT-20210625/1009996-light/run1009996-light.h5 tag-1498412820//
/work/sebastian/BT-20210625/1009996-light/run1009996-light.h5 tag-1498412822//
/work/sebastian/BT-20210625/1009996-light/run1009996-light.h5 tag-1498412824//
/work/sebastian/BT-20210625/1009996-light/run1009996-light.h5 tag-1498412832//
/work/sebastian/BT-20210625/1009996-light/run1009996-light.h5 tag-1498412836//
/work/sebastian/BT-20210625/1009996-light/run1009996-light.h5 tag-1498412838//
/work/sebastian/BT-20210625/1009996-light/run1009996-light.h5 tag-1498412846//
/work/sebastian/BT-20210625/1009996-light/run1009996-light.h5 tag-1498412850//
/work/sebastian/BT-20210625/1009996-light/run1009996-light.h5 tag-1498412852//
/work/sebastian/BT-20210625/1009996-light/run1009996-light.h5 tag-1498412860//
/work/sebastian/BT-20210625/1009996-light/run1009996-light.h5 tag-1498412872//
/work/sebastian/BT-20210625/1009996-light/run1009996-light.h5 tag-1498412878//
/work/sebastian/BT-20210625/1009996-light/run1009996-light.h5 tag-1498412884//
/work/sebastian/BT-20210625/1009996-light/run1009996-light.h5 tag-1498412886//
/work/sebastian/BT-20210625/1009996-light/run1009996-light.h5 tag-1498412890//
/work/sebastian/BT-20210625/1009996-light/run1009996-light.h5 tag-1498412894//
/work/sebastian/BT-20210625/1009996-light/run1009996-light.h5 tag-1498412902//
/work/sebastian/BT-20210625/1009996-light/run1009996-light.h5 tag-1498412904//
/work/sebastian/BT-20210625/1009996-light/run1009996-light.h5 tag-1498412908//
/work/sebastian/BT-20210625/1009996-light/run1009996-light.h5 tag-1498412914//
/work/sebastian/BT-20210625/1009996-light/run1009996-light.h5 tag-1498412916//
/work/sebastian/BT-20210625/1009996-light/run1009996-light.h5 tag-1498412920//
/work/sebastian/BT-20210625/1009996-light/run1009996-light.h5 tag-1498412926//
/work/sebastian/BT-20210625/1009996-light/run1009996-light.h5 tag-1498412930//
/work/sebastian/BT-20210625/1009996-light/run1009996-light.h5 tag-1498412934//
/work/sebastian/BT-20210625/1009996-light/run1009996-light.h5 tag-1498412936//
/work/sebastian/BT-20210625/1009996-light/run1009996-light.h5 tag-1498412938//
/work/sebastian/BT-20210625/1009996-light/run1009996-light.h5 tag-1498412944//
/work/sebastian/BT-20210625/1009996-light/run1009996-light.h5 tag-1498412948//
/work/sebastian/BT-20210625/1009996-light/run1009996-light.h5 tag-1498412956//
/work/sebastian/BT-20210625/1009996-light/run1009996-light.h5 tag-1498412958//
/work/sebastian/BT-20210625/1009996-light/run1009996-light.h5 tag-1498412962//
/work/sebastian/BT-20210625/1009996-light/run1009996-light.h5 tag-1498412964//
/work/sebastian/BT-20210625/1009996-light/run1009996-light.h5 tag-1498412966//
/work/sebastian/BT-20210625/1009996-light/run1009996-light.h5 tag-1498412968//
/work/sebastian/BT-20210625/1009996-light/run1009996-light.h5 tag-1498412972//
/work/sebastian/BT-20210625/1009996-light/run1009996-light.h5 tag-1498412976//
/work/sebastian/BT-20210625/1009996-light/run1009996-light.h5 tag-1498412982//
/work/sebastian/BT-20210625/1009996-light/run1009996-light.h5 tag-1498412988//
/work/sebastian/BT-20210625/1009996-light/run1009996-light.h5 tag-1498412994//
/work/sebastian/BT-20210625/1009996-light/run1009996-light.h5 tag-1498413002//
/work/sebastian/BT-20210625/1009996-light/run1009996-light.h5 tag-1498413006//
/work/sebastian/BT-20210625/1009996-light/run1009996-light.h5 tag-1498413012//
/work/sebastian/BT-20210625/1009996-light/run1009996-light.h5 tag-1498413016//
/work/sebastian/BT-20210625/1009996-light/run1009996-light.h5 tag-1498413024//
/work/sebastian/BT-20210625/1009996-light/run1009996-light.h5 tag-1498413026//
/work/sebastian/BT-20210625/1009996-light/run1009996-light.h5 tag-1498413030//
/work/sebastian/BT-20210625/1009996-light/run1009996-light.h5 tag-1498413036//
/work/sebastian/BT-20210625/1009996-light/run1009996-light.h5 tag-1498413040//
/work/sebastian/BT-20210625/1009996-light/run1009996-light.h5 tag-1498413056//
/work/sebastian/BT-20210625/1009996-light/run1009996-light.h5 tag-1498413058//
/work/sebastian/BT-20210625/1009996-light/run1009996-light.h5 tag-1498413064//
/work/sebastian/BT-20210625/1009996-light/run1009996-light.h5 tag-1498413074//
/work/sebastian/BT-20210625/1009996-light/run1009996-light.h5 tag-1498413076//
/work/sebastian/BT-20210625/1009996-light/run1009996-light.h5 tag-1498413080//
/work/sebastian/BT-20210625/1009996-light/run1009996-light.h5 tag-1498413090//
/work/sebastian/BT-20210625/1009996-light/run1009996-light.h5 tag-1498413096//
/work/sebastian/BT-20210625/1009996-light/run1009996-light.h5 tag-1498413100//
/work/sebastian/BT-20210625/1009996-light/run1009996-light.h5 tag-1498413104//
/work/sebastian/BT-20210625/1009996-light/run1009996-light.h5 tag-1498413112//
/work/sebastian/BT-20210625/1009996-light/run1009996-light.h5 tag-1498413114//
/work/sebastian/BT-20210625/1009996-light/run1009996-light.h5 tag-1498413118//
/work/sebastian/BT-20210625/1009996-light/run1009996-light.h5 tag-1498413122//
/work/sebastian/BT-20210625/1009996-light/run1009996-light.h5 tag-1498413134//
/work/sebastian/BT-20210625/1009996-light/run1009996-light.h5 tag-1498413140//
/work/sebastian/BT-20210625/1009996-light/run1009996-light.h5 tag-1498413144//
/work/sebastian/BT-20210625/1009996-light/run1009996-light.h5 tag-1498413146//
/work/sebastian/BT-20210625/1009996-light/run1009996-light.h5 tag-1498413150//
/work/sebastian/BT-20210625/1009996-light/run1009996-light.h5 tag-1498413154//
/work/sebastian/BT-20210625/1009996-light/run1009996-light.h5 tag-1498413158//
/work/sebastian/BT-20210625/1009996-light/run1009996-light.h5 tag-1498413160//
/work/sebastian/BT-20210625/1009996-light/run1009996-light.h5 tag-1498413170//
/work/sebastian/BT-20210625/1009996-light/run1009996-light.h5 tag-1498413172//
/work/sebastian/BT-20210625/1009996-light/run1009996-light.h5 tag-1498413174//
/work/sebastian/BT-20210625/1009996-light/run1009996-light.h5 tag-1498413178//
/work/sebastian/BT-20210625/1009996-light/run1009996-light.h5 tag-1498413184//
/work/sebastian/BT-20210625/1009996-light/run1009996-light.h5 tag-1498413186//
/work/sebastian/BT-20210625/1009996-light/run1009996-light.h5 tag-1498413188//
/work/sebastian/BT-20210625/1009996-light/run1009996-light.h5 tag-1498413192//
/work/sebastian/BT-20210625/1009996-light/run1009996-light.h5 tag-1498413196//
/work/sebastian/BT-20210625/1009996-light/run1009996-light.h5 tag-1498413206//
/work/sebastian/BT-20210625/1009996-light/run1009996-light.h5 tag-1498413210//
/work/sebastian/BT-20210625/1009996-light/run1009996-light.h5 tag-1498413218//
/work/sebastian/BT-20210625/1009996-light/run1009996-light.h5 tag-1498413222//
/work/sebastian/BT-20210625/1009996-light/run1009996-light.h5 tag-1498413224//
/work/sebastian/BT-20210625/1009996-light/run1009996-light.h5 tag-1498413226//
/work/sebastian/BT-20210625/1009996-light/run1009996-light.h5 tag-1498413228//
/work/sebastian/BT-20210625/1009996-light/run1009996-light.h5 tag-1498413232//
/work/sebastian/BT-20210625/1009996-light/run1009996-light.h5 tag-1498413234//
/work/sebastian/BT-20210625/1009996-light/run1009996-light.h5 tag-1498413236//
/work/sebastian/BT-20210625/1009996-light/run1009996-light.h5 tag-1498413246//
/work/sebastian/BT-20210625/1009996-light/run1009996-light.h5 tag-1498413250//
/work/sebastian/BT-20210625/1009996-light/run1009996-light.h5 tag-1498413258//
/work/sebastian/BT-20210625/1009996-light/run1009996-light.h5 tag-1498413260//
/work/sebastian/BT-20210625/1009996-light/run1009996-light.h5 tag-1498413264//
/work/sebastian/BT-20210625/1009996-light/run1009996-light.h5 tag-1498413268//
/work/sebastian/BT-20210625/1009996-light/run1009996-light.h5 tag-1498413272//
/work/sebastian/BT-20210625/1009996-light/run1009996-light.h5 tag-1498413280//
/work/sebastian/BT-20210625/1009996-light/run1009996-light.h5 tag-1498413298//
/work/sebastian/BT-20210625/1009996-light/run1009996-light.h5 tag-1498413302//
/work/sebastian/BT-20210625/1009996-light/run1009996-light.h5 tag-1498413310//
/work/sebastian/BT-20210625/1009996-light/run1009996-light.h5 tag-1498413314//
/work/sebastian/BT-20210625/1009996-light/run1009996-light.h5 tag-1498413318//
/work/sebastian/BT-20210625/1009996-light/run1009996-light.h5 tag-1498413322//
/work/sebastian/BT-20210625/1009996-light/run1009996-light.h5 tag-1498413326//
/work/sebastian/BT-20210625/1009996-light/run1009996-light.h5 tag-1498413336//
/work/sebastian/BT-20210625/1009996-light/run1009996-light.h5 tag-1498413340//
/work/sebastian/BT-20210625/1009996-light/run1009996-light.h5 tag-1498413342//
/work/sebastian/BT-20210625/1009996-light/run1009996-light.h5 tag-1498413344//
/work/sebastian/BT-20210625/1009996-light/run1009996-light.h5 tag-1498413348//
/work/sebastian/BT-20210625/1009996-light/run1009996-light.h5 tag-1498413354//
/work/sebastian/BT-20210625/1009996-light/run1009996-light.h5 tag-1498413358//
/work/sebastian/BT-20210625/1009996-light/run1009996-light.h5 tag-1498413362//
/work/sebastian/BT-20210625/1009996-light/run1009996-light.h5 tag-1498413364//
/work/sebastian/BT-20210625/1009996-light/run1009996-light.h5 tag-1498413366//
/work/sebastian/BT-20210625/1009996-light/run1009996-light.h5 tag-1498413384//
/work/sebastian/BT-20210625/1009996-light/run1009996-light.h5 tag-1498413390//
/work/sebastian/BT-20210625/1009996-light/run1009996-light.h5 tag-1498413392//
/work/sebastian/BT-20210625/1009996-light/run1009996-light.h5 tag-1498413396//
/work/sebastian/BT-20210625/1009996-light/run1009996-light.h5 tag-1498413402//
/work/sebastian/BT-20210625/1009996-light/run1009996-light.h5 tag-1498413404//
/work/sebastian/BT-20210625/1009996-light/run1009996-light.h5 tag-1498413406//
/work/sebastian/BT-20210625/1009996-light/run1009996-light.h5 tag-1498413410//
/work/sebastian/BT-20210625/1009996-light/run1009996-light.h5 tag-1498413420//
/work/sebastian/BT-20210625/1009996-light/run1009996-light.h5 tag-1498413428//
/work/sebastian/BT-20210625/1009996-light/run1009996-light.h5 tag-1498413432//
/work/sebastian/BT-20210625/1009996-light/run1009996-light.h5 tag-1498413436//
/work/sebastian/BT-20210625/1009996-light/run1009996-light.h5 tag-1498413440//
/work/sebastian/BT-20210625/1009996-light/run1009996-light.h5 tag-1498413450//
/work/sebastian/BT-20210625/1009996-light/run1009996-light.h5 tag-1498413454//
/work/sebastian/BT-20210625/1009996-light/run1009996-light.h5 tag-1498413458//
/work/sebastian/BT-20210625/1009996-light/run1009996-light.h5 tag-1498413462//
/work/sebastian/BT-20210625/1009996-light/run1009996-light.h5 tag-1498413464//
/work/sebastian/BT-20210625/1009996-light/run1009996-light.h5 tag-1498413466//
/work/sebastian/BT-20210625/1009996-light/run1009996-light.h5 tag-1498413474//
/work/sebastian/BT-20210625/1009996-light/run1009996-light.h5 tag-1498413478//
/work/sebastian/BT-20210625/1009996-light/run1009996-light.h5 tag-1498413490//
/work/sebastian/BT-20210625/1009996-light/run1009996-light.h5 tag-1498413492//
/work/sebastian/BT-20210625/1009996-light/run1009996-light.h5 tag-1498413496//
/work/sebastian/BT-20210625/1009996-light/run1009996-light.h5 tag-1498413500//
/work/sebastian/BT-20210625/1009996-light/run1009996-light.h5 tag-1498413504//
/work/sebastian/BT-20210625/1009996-light/run1009996-light.h5 tag-1498413506//
/work/sebastian/BT-20210625/1009996-light/run1009996-light.h5 tag-1498413510//
/work/sebastian/BT-20210625/1009996-light/run1009996-light.h5 tag-1498413514//
/work/sebastian/BT-20210625/1009996-light/run1009996-light.h5 tag-1498413518//
/work/sebastian/BT-20210625/1009996-light/run1009996-light.h5 tag-1498413520//
/work/sebastian/BT-20210625/1009996-light/run1009996-light.h5 tag-1498413524//
/work/sebastian/BT-20210625/1009996-light/run1009996-light.h5 tag-1498413536//
/work/sebastian/BT-20210625/1009996-light/run1009996-light.h5 tag-1498413542//
/work/sebastian/BT-20210625/1009996-light/run1009996-light.h5 tag-1498413546//
/work/sebastian/BT-20210625/1009996-light/run1009996-light.h5 tag-1498413550//
/work/sebastian/BT-20210625/1009996-light/run1009996-light.h5 tag-1498413554//
/work/sebastian/BT-20210625/1009996-light/run1009996-light.h5 tag-1498413558//
/work/sebastian/BT-20210625/1009996-light/run1009996-light.h5 tag-1498413560//
/work/sebastian/BT-20210625/1009996-light/run1009996-light.h5 tag-1498413568//
/work/sebastian/BT-20210625/1009996-light/run1009996-light.h5 tag-1498413578//
/work/sebastian/BT-20210625/1009996-light/run1009996-light.h5 tag-1498413580//
/work/sebastian/BT-20210625/1009996-light/run1009996-light.h5 tag-1498413582//
/work/sebastian/BT-20210625/1009996-light/run1009996-light.h5 tag-1498413586//
/work/sebastian/BT-20210625/1009996-light/run1009996-light.h5 tag-1498413590//
/work/sebastian/BT-20210625/1009996-light/run1009996-light.h5 tag-1498413594//
/work/sebastian/BT-20210625/1009996-light/run1009996-light.h5 tag-1498413596//
/work/sebastian/BT-20210625/1009996-light/run1009996-light.h5 tag-1498413600//
/work/sebastian/BT-20210625/1009996-light/run1009996-light.h5 tag-1498413602//
/work/sebastian/BT-20210625/1009996-light/run1009996-light.h5 tag-1498413604//
/work/sebastian/BT-20210625/1009996-light/run1009996-light.h5 tag-1498413606//
/work/sebastian/BT-20210625/1009996-light/run1009996-light.h5 tag-1498413608//
/work/sebastian/BT-20210625/1009996-light/run1009996-light.h5 tag-1498413612//
/work/sebastian/BT-20210625/1009996-light/run1009996-light.h5 tag-1498413616//
/work/sebastian/BT-20210625/1009996-light/run1009996-light.h5 tag-1498413622//
/work/sebastian/BT-20210625/1009996-light/run1009996-light.h5 tag-1498413626//
/work/sebastian/BT-20210625/1009996-light/run1009996-light.h5 tag-1498413630//
/work/sebastian/BT-20210625/1009996-light/run1009996-light.h5 tag-1498413636//
/work/sebastian/BT-20210625/1009996-light/run1009996-light.h5 tag-1498413652//
/work/sebastian/BT-20210625/1009996-light/run1009996-light.h5 tag-1498413664//
/work/sebastian/BT-20210625/1009996-light/run1009996-light.h5 tag-1498413666//
/work/sebastian/BT-20210625/1009996-light/run1009996-light.h5 tag-1498413672//
/work/sebastian/BT-20210625/1009996-light/run1009996-light.h5 tag-1498413674//
/work/sebastian/BT-20210625/1009996-light/run1009996-light.h5 tag-1498413682//
/work/sebastian/BT-20210625/1009996-light/run1009996-light.h5 tag-1498413688//
/work/sebastian/BT-20210625/1009996-light/run1009996-light.h5 tag-1498413690//
/work/sebastian/BT-20210625/1009996-light/run1009996-light.h5 tag-1498413692//
/work/sebastian/BT-20210625/1009996-light/run1009996-light.h5 tag-1498413694//
/work/sebastian/BT-20210625/1009996-light/run1009996-light.h5 tag-1498413696//
/work/sebastian/BT-20210625/1009996-light/run1009996-light.h5 tag-1498413700//
/work/sebastian/BT-20210625/1009996-light/run1009996-light.h5 tag-1498413704//
/work/sebastian/BT-20210625/1009996-light/run1009996-light.h5 tag-1498413706//
/work/sebastian/BT-20210625/1009996-light/run1009996-light.h5 tag-1498413714//
/work/sebastian/BT-20210625/1009996-light/run1009996-light.h5 tag-1498413722//
/work/sebastian/BT-20210625/1009996-light/run1009996-light.h5 tag-1498413724//
/work/sebastian/BT-20210625/1009996-light/run1009996-light.h5 tag-1498413726//
/work/sebastian/BT-20210625/1009996-light/run1009996-light.h5 tag-1498413728//
/work/sebastian/BT-20210625/1009996-light/run1009996-light.h5 tag-1498413742//
/work/sebastian/BT-20210625/1009996-light/run1009996-light.h5 tag-1498413746//
/work/sebastian/BT-20210625/1009996-light/run1009996-light.h5 tag-1498413750//
/work/sebastian/BT-20210625/1009996-light/run1009996-light.h5 tag-1498413754//
/work/sebastian/BT-20210625/1009996-light/run1009996-light.h5 tag-1498413760//
/work/sebastian/BT-20210625/1009996-light/run1009996-light.h5 tag-1498413764//
/work/sebastian/BT-20210625/1009996-light/run1009996-light.h5 tag-1498413768//
/work/sebastian/BT-20210625/1009996-light/run1009996-light.h5 tag-1498413770//
/work/sebastian/BT-20210625/1009996-light/run1009996-light.h5 tag-1498413772//
/work/sebastian/BT-20210625/1009996-light/run1009996-light.h5 tag-1498413780//
/work/sebastian/BT-20210625/1009996-light/run1009996-light.h5 tag-1498413786//
/work/sebastian/BT-20210625/1009996-light/run1009996-light.h5 tag-1498413788//
/work/sebastian/BT-20210625/1009996-light/run1009996-light.h5 tag-1498413794//
/work/sebastian/BT-20210625/1009996-light/run1009996-light.h5 tag-1498413798//
/work/sebastian/BT-20210625/1009996-light/run1009996-light.h5 tag-1498413800//
/work/sebastian/BT-20210625/1009996-light/run1009996-light.h5 tag-1498413804//
/work/sebastian/BT-20210625/1009996-light/run1009996-light.h5 tag-1498413808//
/work/sebastian/BT-20210625/1009996-light/run1009996-light.h5 tag-1498413812//
/work/sebastian/BT-20210625/1009996-light/run1009996-light.h5 tag-1498413822//
/work/sebastian/BT-20210625/1009996-light/run1009996-light.h5 tag-1498413828//
/work/sebastian/BT-20210625/1009996-light/run1009996-light.h5 tag-1498413830//
/work/sebastian/BT-20210625/1009996-light/run1009996-light.h5 tag-1498413832//
/work/sebastian/BT-20210625/1009996-light/run1009996-light.h5 tag-1498413836//
/work/sebastian/BT-20210625/1009996-light/run1009996-light.h5 tag-1498413838//
/work/sebastian/BT-20210625/1009996-light/run1009996-light.h5 tag-1498413840//
/work/sebastian/BT-20210625/1009996-light/run1009996-light.h5 tag-1498413842//
/work/sebastian/BT-20210625/1009996-light/run1009996-light.h5 tag-1498413846//
/work/sebastian/BT-20210625/1009996-light/run1009996-light.h5 tag-1498413850//
/work/sebastian/BT-20210625/1009996-light/run1009996-light.h5 tag-1498413856//
/work/sebastian/BT-20210625/1009996-light/run1009996-light.h5 tag-1498413864//
/work/sebastian/BT-20210625/1009996-light/run1009996-light.h5 tag-1498413878//
/work/sebastian/BT-20210625/1009996-light/run1009996-light.h5 tag-1498413884//
/work/sebastian/BT-20210625/1009996-light/run1009996-light.h5 tag-1498413890//
/work/sebastian/BT-20210625/1009996-light/run1009996-light.h5 tag-1498413892//
/work/sebastian/BT-20210625/1009996-light/run1009996-light.h5 tag-1498413898//
/work/sebastian/BT-20210625/1009996-light/run1009996-light.h5 tag-1498413900//
/work/sebastian/BT-20210625/1009996-light/run1009996-light.h5 tag-1498413904//
/work/sebastian/BT-20210625/1009996-light/run1009996-light.h5 tag-1498413908//
/work/sebastian/BT-20210625/1009996-light/run1009996-light.h5 tag-1498413910//
/work/sebastian/BT-20210625/1009996-light/run1009996-light.h5 tag-1498413914//
/work/sebastian/BT-20210625/1009996-light/run1009996-light.h5 tag-1498413918//
/work/sebastian/BT-20210625/1009996-light/run1009996-light.h5 tag-1498413922//
/work/sebastian/BT-20210625/1009996-light/run1009996-light.h5 tag-1498413926//
/work/sebastian/BT-20210625/1009996-light/run1009996-light.h5 tag-1498413928//
/work/sebastian/BT-20210625/1009996-light/run1009996-light.h5 tag-1498413942//
/work/sebastian/BT-20210625/1009996-light/run1009996-light.h5 tag-1498413944//
/work/sebastian/BT-20210625/1009996-light/run1009996-light.h5 tag-1498413946//
/work/sebastian/BT-20210625/1009996-light/run1009996-light.h5 tag-1498413948//
/work/sebastian/BT-20210625/1009996-light/run1009996-light.h5 tag-1498413960//
/work/sebastian/BT-20210625/1009996-light/run1009996-light.h5 tag-1498413966//
/work/sebastian/BT-20210625/1009996-light/run1009996-light.h5 tag-1498413968//
/work/sebastian/BT-20210625/1009996-light/run1009996-light.h5 tag-1498413972//
/work/sebastian/BT-20210625/1009996-light/run1009996-light.h5 tag-1498413974//
/work/sebastian/BT-20210625/1009996-light/run1009996-light.h5 tag-1498413976//
/work/sebastian/BT-20210625/1009996-light/run1009996-light.h5 tag-1498413978//
/work/sebastian/BT-20210625/1009996-light/run1009996-light.h5 tag-1498413982//
/work/sebastian/BT-20210625/1009996-light/run1009996-light.h5 tag-1498413986//
/work/sebastian/BT-20210625/1009996-light/run1009996-light.h5 tag-1498413992//
/work/sebastian/BT-20210625/1009996-light/run1009996-light.h5 tag-1498414000//
/work/sebastian/BT-20210625/1009996-light/run1009996-light.h5 tag-1498414002//
/work/sebastian/BT-20210625/1009996-light/run1009996-light.h5 tag-1498414004//
/work/sebastian/BT-20210625/1009996-light/run1009996-light.h5 tag-1498414006//
/work/sebastian/BT-20210625/1009996-light/run1009996-light.h5 tag-1498414010//
/work/sebastian/BT-20210625/1009996-light/run1009996-light.h5 tag-1498414016//
/work/sebastian/BT-20210625/1009996-light/run1009996-light.h5 tag-1498414022//
/work/sebastian/BT-20210625/1009996-light/run1009996-light.h5 tag-1498414024//
/work/sebastian/BT-20210625/1009996-light/run1009996-light.h5 tag-1498414030//
/work/sebastian/BT-20210625/1009996-light/run1009996-light.h5 tag-1498414034//
/work/sebastian/BT-20210625/1009996-light/run1009996-light.h5 tag-1498414036//
/work/sebastian/BT-20210625/1009996-light/run1009996-light.h5 tag-1498414038//
/work/sebastian/BT-20210625/1009996-light/run1009996-light.h5 tag-1498414044//
/work/sebastian/BT-20210625/1009996-light/run1009996-light.h5 tag-1498414048//
/work/sebastian/BT-20210625/1009996-light/run1009996-light.h5 tag-1498414054//
/work/sebastian/BT-20210625/1009996-light/run1009996-light.h5 tag-1498414058//
/work/sebastian/BT-20210625/1009996-light/run1009996-light.h5 tag-1498414060//
/work/sebastian/BT-20210625/1009996-light/run1009996-light.h5 tag-1498414064//
/work/sebastian/BT-20210625/1009996-light/run1009996-light.h5 tag-1498414074//
/work/sebastian/BT-20210625/1009996-light/run1009996-light.h5 tag-1498414082//
/work/sebastian/BT-20210625/1009996-light/run1009996-light.h5 tag-1498414086//
/work/sebastian/BT-20210625/1009996-light/run1009996-light.h5 tag-1498414088//
/work/sebastian/BT-20210625/1009996-light/run1009996-light.h5 tag-1498414092//
/work/sebastian/BT-20210625/1009996-light/run1009996-light.h5 tag-1498414096//
/work/sebastian/BT-20210625/1009996-light/run1009996-light.h5 tag-1498414098//
/work/sebastian/BT-20210625/1009996-light/run1009996-light.h5 tag-1498414102//
/work/sebastian/BT-20210625/1009996-light/run1009996-light.h5 tag-1498414104//
/work/sebastian/BT-20210625/1009996-light/run1009996-light.h5 tag-1498414106//
/work/sebastian/BT-20210625/1009996-light/run1009996-light.h5 tag-1498414114//
/work/sebastian/BT-20210625/1009996-light/run1009996-light.h5 tag-1498414116//
/work/sebastian/BT-20210625/1009996-light/run1009996-light.h5 tag-1498414132//
/work/sebastian/BT-20210625/1009996-light/run1009996-light.h5 tag-1498414134//
/work/sebastian/BT-20210625/1009996-light/run1009996-light.h5 tag-1498414138//
/work/sebastian/BT-20210625/1009996-light/run1009996-light.h5 tag-1498414146//
/work/sebastian/BT-20210625/1009996-light/run1009996-light.h5 tag-1498414152//
/work/sebastian/BT-20210625/1009996-light/run1009996-light.h5 tag-1498414156//
/work/sebastian/BT-20210625/1009996-light/run1009996-light.h5 tag-1498414158//
/work/sebastian/BT-20210625/1009996-light/run1009996-light.h5 tag-1498414160//
/work/sebastian/BT-20210625/1009996-light/run1009996-light.h5 tag-1498414162//
/work/sebastian/BT-20210625/1009996-light/run1009996-light.h5 tag-1498414166//
/work/sebastian/BT-20210625/1009996-light/run1009996-light.h5 tag-1498414176//
/work/sebastian/BT-20210625/1009996-light/run1009996-light.h5 tag-1498414180//
/work/sebastian/BT-20210625/1009996-light/run1009996-light.h5 tag-1498414184//
/work/sebastian/BT-20210625/1009996-light/run1009996-light.h5 tag-1498414186//
/work/sebastian/BT-20210625/1009996-light/run1009996-light.h5 tag-1498414198//
/work/sebastian/BT-20210625/1009996-light/run1009996-light.h5 tag-1498414202//
/work/sebastian/BT-20210625/1009996-light/run1009996-light.h5 tag-1498414204//
/work/sebastian/BT-20210625/1009996-light/run1009996-light.h5 tag-1498414214//
/work/sebastian/BT-20210625/1009996-light/run1009996-light.h5 tag-1498414226//
/work/sebastian/BT-20210625/1009996-light/run1009996-light.h5 tag-1498414228//
/work/sebastian/BT-20210625/1009996-light/run1009996-light.h5 tag-1498414232//
/work/sebastian/BT-20210625/1009996-light/run1009996-light.h5 tag-1498414236//
/work/sebastian/BT-20210625/1009996-light/run1009996-light.h5 tag-1498414238//
/work/sebastian/BT-20210625/1009996-light/run1009996-light.h5 tag-1498414242//
/work/sebastian/BT-20210625/1009996-light/run1009996-light.h5 tag-1498414246//
/work/sebastian/BT-20210625/1009996-light/run1009996-light.h5 tag-1498414252//
/work/sebastian/BT-20210625/1009996-light/run1009996-light.h5 tag-1498414256//
/work/sebastian/BT-20210625/1009996-light/run1009996-light.h5 tag-1498414258//
/work/sebastian/BT-20210625/1009996-light/run1009996-light.h5 tag-1498414260//
/work/sebastian/BT-20210625/1009996-light/run1009996-light.h5 tag-1498414264//
/work/sebastian/BT-20210625/1009996-light/run1009996-light.h5 tag-1498414266//
/work/sebastian/BT-20210625/1009996-light/run1009996-light.h5 tag-1498414270//
/work/sebastian/BT-20210625/1009996-light/run1009996-light.h5 tag-1498414274//
/work/sebastian/BT-20210625/1009996-light/run1009996-light.h5 tag-1498414276//
/work/sebastian/BT-20210625/1009996-light/run1009996-light.h5 tag-1498414280//
/work/sebastian/BT-20210625/1009996-light/run1009996-light.h5 tag-1498414282//
/work/sebastian/BT-20210625/1009996-light/run1009996-light.h5 tag-1498414284//
/work/sebastian/BT-20210625/1009996-light/run1009996-light.h5 tag-1498414292//
/work/sebastian/BT-20210625/1009996-light/run1009996-light.h5 tag-1498414296//
/work/sebastian/BT-20210625/1009996-light/run1009996-light.h5 tag-1498414300//
/work/sebastian/BT-20210625/1009996-light/run1009996-light.h5 tag-1498414304//
/work/sebastian/BT-20210625/1009996-light/run1009996-light.h5 tag-1498414310//
/work/sebastian/BT-20210625/1009996-light/run1009996-light.h5 tag-1498414314//
/work/sebastian/BT-20210625/1009996-light/run1009996-light.h5 tag-1498414318//
/work/sebastian/BT-20210625/1009996-light/run1009996-light.h5 tag-1498414320//
/work/sebastian/BT-20210625/1009996-light/run1009996-light.h5 tag-1498414326//
/work/sebastian/BT-20210625/1009996-light/run1009996-light.h5 tag-1498414332//
/work/sebastian/BT-20210625/1009996-light/run1009996-light.h5 tag-1498414334//
/work/sebastian/BT-20210625/1009996-light/run1009996-light.h5 tag-1498414342//
/work/sebastian/BT-20210625/1009996-light/run1009996-light.h5 tag-1498414346//
/work/sebastian/BT-20210625/1009996-light/run1009996-light.h5 tag-1498414350//
/work/sebastian/BT-20210625/1009996-light/run1009996-light.h5 tag-1498414352//
/work/sebastian/BT-20210625/1009996-light/run1009996-light.h5 tag-1498414356//
/work/sebastian/BT-20210625/1009996-light/run1009996-light.h5 tag-1498414366//
/work/sebastian/BT-20210625/1009996-light/run1009996-light.h5 tag-1498414370//
/work/sebastian/BT-20210625/1009996-light/run1009996-light.h5 tag-1498414376//
/work/sebastian/BT-20210625/1009996-light/run1009996-light.h5 tag-1498414380//
/work/sebastian/BT-20210625/1009996-light/run1009996-light.h5 tag-1498414386//
/work/sebastian/BT-20210625/1009996-light/run1009996-light.h5 tag-1498414388//
/work/sebastian/BT-20210625/1009996-light/run1009996-light.h5 tag-1498414398//
/work/sebastian/BT-20210625/1009996-light/run1009996-light.h5 tag-1498414404//
/work/sebastian/BT-20210625/1009996-light/run1009996-light.h5 tag-1498414406//
/work/sebastian/BT-20210625/1009996-light/run1009996-light.h5 tag-1498414408//
/work/sebastian/BT-20210625/1009996-light/run1009996-light.h5 tag-1498414414//
/work/sebastian/BT-20210625/1009996-light/run1009996-light.h5 tag-1498414420//
/work/sebastian/BT-20210625/1009996-light/run1009996-light.h5 tag-1498414422//
/work/sebastian/BT-20210625/1009996-light/run1009996-light.h5 tag-1498414426//
/work/sebastian/BT-20210625/1009996-light/run1009996-light.h5 tag-1498414436//
/work/sebastian/BT-20210625/1009996-light/run1009996-light.h5 tag-1498414444//
/work/sebastian/BT-20210625/1009996-light/run1009996-light.h5 tag-1498414446//
/work/sebastian/BT-20210625/1009996-light/run1009996-light.h5 tag-1498414450//
/work/sebastian/BT-20210625/1009996-light/run1009996-light.h5 tag-1498414460//
/work/sebastian/BT-20210625/1009996-light/run1009996-light.h5 tag-1498414464//
/work/sebastian/BT-20210625/1009996-light/run1009996-light.h5 tag-1498414470//
/work/sebastian/BT-20210625/1009996-light/run1009996-light.h5 tag-1498414480//
/work/sebastian/BT-20210625/1009996-light/run1009996-light.h5 tag-1498414484//
/work/sebastian/BT-20210625/1009996-light/run1009996-light.h5 tag-1498414488//
/work/sebastian/BT-20210625/1009996-light/run1009996-light.h5 tag-1498414496//
/work/sebastian/BT-20210625/1009996-light/run1009996-light.h5 tag-1498414506//
/work/sebastian/BT-20210625/1009996-light/run1009996-light.h5 tag-1498414510//
/work/sebastian/BT-20210625/1009996-light/run1009996-light.h5 tag-1498414512//
/work/sebastian/BT-20210625/1009996-light/run1009996-light.h5 tag-1498414516//
/work/sebastian/BT-20210625/1009996-light/run1009996-light.h5 tag-1498414522//
/work/sebastian/BT-20210625/1009996-light/run1009996-light.h5 tag-1498414524//
/work/sebastian/BT-20210625/1009996-light/run1009996-light.h5 tag-1498414530//
/work/sebastian/BT-20210625/1009996-light/run1009996-light.h5 tag-1498414534//
/work/sebastian/BT-20210625/1009996-light/run1009996-light.h5 tag-1498414538//
/work/sebastian/BT-20210625/1009996-light/run1009996-light.h5 tag-1498414540//
/work/sebastian/BT-20210625/1009996-light/run1009996-light.h5 tag-1498414544//
/work/sebastian/BT-20210625/1009996-light/run1009996-light.h5 tag-1498414548//
/work/sebastian/BT-20210625/1009996-light/run1009996-light.h5 tag-1498414558//
/work/sebastian/BT-20210625/1009996-light/run1009996-light.h5 tag-1498414562//
/work/sebastian/BT-20210625/1009996-light/run1009996-light.h5 tag-1498414566//
/work/sebastian/BT-20210625/1009996-light/run1009996-light.h5 tag-1498414574//
/work/sebastian/BT-20210625/1009996-light/run1009996-light.h5 tag-1498414576//
/work/sebastian/BT-20210625/1009996-light/run1009996-light.h5 tag-1498414580//
/work/sebastian/BT-20210625/1009996-light/run1009996-light.h5 tag-1498414584//
/work/sebastian/BT-20210625/1009996-light/run1009996-light.h5 tag-1498414594//
/work/sebastian/BT-20210625/1009996-light/run1009996-light.h5 tag-1498414600//
/work/sebastian/BT-20210625/1009996-light/run1009996-light.h5 tag-1498414602//
