/work/sebastian/BT-20210625/1009322-light/run1009322-light.h5 tag-1490930968//
/work/sebastian/BT-20210625/1009322-light/run1009322-light.h5 tag-1490930972//
/work/sebastian/BT-20210625/1009322-light/run1009322-light.h5 tag-1490930976//
/work/sebastian/BT-20210625/1009322-light/run1009322-light.h5 tag-1490930978//
/work/sebastian/BT-20210625/1009322-light/run1009322-light.h5 tag-1490930984//
/work/sebastian/BT-20210625/1009322-light/run1009322-light.h5 tag-1490930990//
/work/sebastian/BT-20210625/1009322-light/run1009322-light.h5 tag-1490930992//
/work/sebastian/BT-20210625/1009322-light/run1009322-light.h5 tag-1490930994//
/work/sebastian/BT-20210625/1009322-light/run1009322-light.h5 tag-1490931000//
/work/sebastian/BT-20210625/1009322-light/run1009322-light.h5 tag-1490931008//
/work/sebastian/BT-20210625/1009322-light/run1009322-light.h5 tag-1490931012//
/work/sebastian/BT-20210625/1009322-light/run1009322-light.h5 tag-1490931014//
/work/sebastian/BT-20210625/1009322-light/run1009322-light.h5 tag-1490931016//
/work/sebastian/BT-20210625/1009322-light/run1009322-light.h5 tag-1490931018//
/work/sebastian/BT-20210625/1009322-light/run1009322-light.h5 tag-1490931022//
/work/sebastian/BT-20210625/1009322-light/run1009322-light.h5 tag-1490931028//
/work/sebastian/BT-20210625/1009322-light/run1009322-light.h5 tag-1490931030//
/work/sebastian/BT-20210625/1009322-light/run1009322-light.h5 tag-1490931036//
/work/sebastian/BT-20210625/1009322-light/run1009322-light.h5 tag-1490931040//
/work/sebastian/BT-20210625/1009322-light/run1009322-light.h5 tag-1490931046//
/work/sebastian/BT-20210625/1009322-light/run1009322-light.h5 tag-1490931056//
/work/sebastian/BT-20210625/1009322-light/run1009322-light.h5 tag-1490931058//
/work/sebastian/BT-20210625/1009322-light/run1009322-light.h5 tag-1490931064//
/work/sebastian/BT-20210625/1009322-light/run1009322-light.h5 tag-1490931074//
/work/sebastian/BT-20210625/1009322-light/run1009322-light.h5 tag-1490931078//
/work/sebastian/BT-20210625/1009322-light/run1009322-light.h5 tag-1490931082//
/work/sebastian/BT-20210625/1009322-light/run1009322-light.h5 tag-1490931090//
/work/sebastian/BT-20210625/1009322-light/run1009322-light.h5 tag-1490931092//
/work/sebastian/BT-20210625/1009322-light/run1009322-light.h5 tag-1490931094//
/work/sebastian/BT-20210625/1009322-light/run1009322-light.h5 tag-1490931096//
/work/sebastian/BT-20210625/1009322-light/run1009322-light.h5 tag-1490931100//
/work/sebastian/BT-20210625/1009322-light/run1009322-light.h5 tag-1490931102//
/work/sebastian/BT-20210625/1009322-light/run1009322-light.h5 tag-1490931108//
/work/sebastian/BT-20210625/1009322-light/run1009322-light.h5 tag-1490931112//
/work/sebastian/BT-20210625/1009322-light/run1009322-light.h5 tag-1490931114//
/work/sebastian/BT-20210625/1009322-light/run1009322-light.h5 tag-1490931118//
/work/sebastian/BT-20210625/1009322-light/run1009322-light.h5 tag-1490931124//
/work/sebastian/BT-20210625/1009322-light/run1009322-light.h5 tag-1490931130//
/work/sebastian/BT-20210625/1009322-light/run1009322-light.h5 tag-1490931144//
/work/sebastian/BT-20210625/1009322-light/run1009322-light.h5 tag-1490931150//
/work/sebastian/BT-20210625/1009322-light/run1009322-light.h5 tag-1490931158//
/work/sebastian/BT-20210625/1009322-light/run1009322-light.h5 tag-1490931160//
/work/sebastian/BT-20210625/1009322-light/run1009322-light.h5 tag-1490931166//
/work/sebastian/BT-20210625/1009322-light/run1009322-light.h5 tag-1490931168//
/work/sebastian/BT-20210625/1009322-light/run1009322-light.h5 tag-1490931180//
/work/sebastian/BT-20210625/1009322-light/run1009322-light.h5 tag-1490931182//
/work/sebastian/BT-20210625/1009322-light/run1009322-light.h5 tag-1490931184//
/work/sebastian/BT-20210625/1009322-light/run1009322-light.h5 tag-1490931186//
/work/sebastian/BT-20210625/1009322-light/run1009322-light.h5 tag-1490931190//
/work/sebastian/BT-20210625/1009322-light/run1009322-light.h5 tag-1490931192//
/work/sebastian/BT-20210625/1009322-light/run1009322-light.h5 tag-1490931196//
/work/sebastian/BT-20210625/1009322-light/run1009322-light.h5 tag-1490931200//
/work/sebastian/BT-20210625/1009322-light/run1009322-light.h5 tag-1490931214//
/work/sebastian/BT-20210625/1009322-light/run1009322-light.h5 tag-1490931218//
/work/sebastian/BT-20210625/1009322-light/run1009322-light.h5 tag-1490931220//
/work/sebastian/BT-20210625/1009322-light/run1009322-light.h5 tag-1490931224//
/work/sebastian/BT-20210625/1009322-light/run1009322-light.h5 tag-1490931228//
/work/sebastian/BT-20210625/1009322-light/run1009322-light.h5 tag-1490931236//
/work/sebastian/BT-20210625/1009322-light/run1009322-light.h5 tag-1490931246//
/work/sebastian/BT-20210625/1009322-light/run1009322-light.h5 tag-1490931248//
/work/sebastian/BT-20210625/1009322-light/run1009322-light.h5 tag-1490931250//
/work/sebastian/BT-20210625/1009322-light/run1009322-light.h5 tag-1490931254//
/work/sebastian/BT-20210625/1009322-light/run1009322-light.h5 tag-1490931260//
/work/sebastian/BT-20210625/1009322-light/run1009322-light.h5 tag-1490931264//
/work/sebastian/BT-20210625/1009322-light/run1009322-light.h5 tag-1490931266//
/work/sebastian/BT-20210625/1009322-light/run1009322-light.h5 tag-1490931268//
/work/sebastian/BT-20210625/1009322-light/run1009322-light.h5 tag-1490931270//
/work/sebastian/BT-20210625/1009322-light/run1009322-light.h5 tag-1490931272//
/work/sebastian/BT-20210625/1009322-light/run1009322-light.h5 tag-1490931274//
/work/sebastian/BT-20210625/1009322-light/run1009322-light.h5 tag-1490931282//
/work/sebastian/BT-20210625/1009322-light/run1009322-light.h5 tag-1490931290//
/work/sebastian/BT-20210625/1009322-light/run1009322-light.h5 tag-1490931294//
/work/sebastian/BT-20210625/1009322-light/run1009322-light.h5 tag-1490931298//
/work/sebastian/BT-20210625/1009322-light/run1009322-light.h5 tag-1490931300//
/work/sebastian/BT-20210625/1009322-light/run1009322-light.h5 tag-1490931302//
/work/sebastian/BT-20210625/1009322-light/run1009322-light.h5 tag-1490931304//
/work/sebastian/BT-20210625/1009322-light/run1009322-light.h5 tag-1490931312//
/work/sebastian/BT-20210625/1009322-light/run1009322-light.h5 tag-1490931320//
/work/sebastian/BT-20210625/1009322-light/run1009322-light.h5 tag-1490931322//
/work/sebastian/BT-20210625/1009322-light/run1009322-light.h5 tag-1490931324//
/work/sebastian/BT-20210625/1009322-light/run1009322-light.h5 tag-1490931326//
/work/sebastian/BT-20210625/1009322-light/run1009322-light.h5 tag-1490931332//
/work/sebastian/BT-20210625/1009322-light/run1009322-light.h5 tag-1490931336//
/work/sebastian/BT-20210625/1009322-light/run1009322-light.h5 tag-1490931338//
/work/sebastian/BT-20210625/1009322-light/run1009322-light.h5 tag-1490931342//
/work/sebastian/BT-20210625/1009322-light/run1009322-light.h5 tag-1490931348//
/work/sebastian/BT-20210625/1009322-light/run1009322-light.h5 tag-1490931352//
/work/sebastian/BT-20210625/1009322-light/run1009322-light.h5 tag-1490931354//
/work/sebastian/BT-20210625/1009322-light/run1009322-light.h5 tag-1490931360//
/work/sebastian/BT-20210625/1009322-light/run1009322-light.h5 tag-1490931366//
/work/sebastian/BT-20210625/1009322-light/run1009322-light.h5 tag-1490931380//
/work/sebastian/BT-20210625/1009322-light/run1009322-light.h5 tag-1490931382//
/work/sebastian/BT-20210625/1009322-light/run1009322-light.h5 tag-1490931384//
/work/sebastian/BT-20210625/1009322-light/run1009322-light.h5 tag-1490931400//
/work/sebastian/BT-20210625/1009322-light/run1009322-light.h5 tag-1490931408//
/work/sebastian/BT-20210625/1009322-light/run1009322-light.h5 tag-1490931422//
/work/sebastian/BT-20210625/1009322-light/run1009322-light.h5 tag-1490931428//
/work/sebastian/BT-20210625/1009322-light/run1009322-light.h5 tag-1490931432//
/work/sebastian/BT-20210625/1009322-light/run1009322-light.h5 tag-1490931436//
/work/sebastian/BT-20210625/1009322-light/run1009322-light.h5 tag-1490931438//
/work/sebastian/BT-20210625/1009322-light/run1009322-light.h5 tag-1490931442//
/work/sebastian/BT-20210625/1009322-light/run1009322-light.h5 tag-1490931450//
/work/sebastian/BT-20210625/1009322-light/run1009322-light.h5 tag-1490931452//
/work/sebastian/BT-20210625/1009322-light/run1009322-light.h5 tag-1490931458//
/work/sebastian/BT-20210625/1009322-light/run1009322-light.h5 tag-1490931466//
/work/sebastian/BT-20210625/1009322-light/run1009322-light.h5 tag-1490931468//
/work/sebastian/BT-20210625/1009322-light/run1009322-light.h5 tag-1490931470//
/work/sebastian/BT-20210625/1009322-light/run1009322-light.h5 tag-1490931476//
/work/sebastian/BT-20210625/1009322-light/run1009322-light.h5 tag-1490931482//
/work/sebastian/BT-20210625/1009322-light/run1009322-light.h5 tag-1490931484//
/work/sebastian/BT-20210625/1009322-light/run1009322-light.h5 tag-1490931494//
/work/sebastian/BT-20210625/1009322-light/run1009322-light.h5 tag-1490931496//
/work/sebastian/BT-20210625/1009322-light/run1009322-light.h5 tag-1490931498//
/work/sebastian/BT-20210625/1009322-light/run1009322-light.h5 tag-1490931502//
/work/sebastian/BT-20210625/1009322-light/run1009322-light.h5 tag-1490931504//
/work/sebastian/BT-20210625/1009322-light/run1009322-light.h5 tag-1490931516//
/work/sebastian/BT-20210625/1009322-light/run1009322-light.h5 tag-1490931520//
/work/sebastian/BT-20210625/1009322-light/run1009322-light.h5 tag-1490931522//
/work/sebastian/BT-20210625/1009322-light/run1009322-light.h5 tag-1490931528//
/work/sebastian/BT-20210625/1009322-light/run1009322-light.h5 tag-1490931530//
/work/sebastian/BT-20210625/1009322-light/run1009322-light.h5 tag-1490931534//
/work/sebastian/BT-20210625/1009322-light/run1009322-light.h5 tag-1490931536//
/work/sebastian/BT-20210625/1009322-light/run1009322-light.h5 tag-1490931540//
/work/sebastian/BT-20210625/1009322-light/run1009322-light.h5 tag-1490931544//
/work/sebastian/BT-20210625/1009322-light/run1009322-light.h5 tag-1490931550//
/work/sebastian/BT-20210625/1009322-light/run1009322-light.h5 tag-1490931556//
/work/sebastian/BT-20210625/1009322-light/run1009322-light.h5 tag-1490931562//
/work/sebastian/BT-20210625/1009322-light/run1009322-light.h5 tag-1490931566//
/work/sebastian/BT-20210625/1009322-light/run1009322-light.h5 tag-1490931570//
/work/sebastian/BT-20210625/1009322-light/run1009322-light.h5 tag-1490931572//
/work/sebastian/BT-20210625/1009322-light/run1009322-light.h5 tag-1490931574//
/work/sebastian/BT-20210625/1009322-light/run1009322-light.h5 tag-1490931576//
/work/sebastian/BT-20210625/1009322-light/run1009322-light.h5 tag-1490931578//
/work/sebastian/BT-20210625/1009322-light/run1009322-light.h5 tag-1490931586//
/work/sebastian/BT-20210625/1009322-light/run1009322-light.h5 tag-1490931588//
/work/sebastian/BT-20210625/1009322-light/run1009322-light.h5 tag-1490931590//
/work/sebastian/BT-20210625/1009322-light/run1009322-light.h5 tag-1490931600//
/work/sebastian/BT-20210625/1009322-light/run1009322-light.h5 tag-1490931608//
/work/sebastian/BT-20210625/1009322-light/run1009322-light.h5 tag-1490931612//
/work/sebastian/BT-20210625/1009322-light/run1009322-light.h5 tag-1490931620//
/work/sebastian/BT-20210625/1009322-light/run1009322-light.h5 tag-1490931622//
/work/sebastian/BT-20210625/1009322-light/run1009322-light.h5 tag-1490931624//
/work/sebastian/BT-20210625/1009322-light/run1009322-light.h5 tag-1490931630//
/work/sebastian/BT-20210625/1009322-light/run1009322-light.h5 tag-1490931632//
/work/sebastian/BT-20210625/1009322-light/run1009322-light.h5 tag-1490931638//
/work/sebastian/BT-20210625/1009322-light/run1009322-light.h5 tag-1490931640//
/work/sebastian/BT-20210625/1009322-light/run1009322-light.h5 tag-1490931646//
/work/sebastian/BT-20210625/1009322-light/run1009322-light.h5 tag-1490931654//
/work/sebastian/BT-20210625/1009322-light/run1009322-light.h5 tag-1490931658//
/work/sebastian/BT-20210625/1009322-light/run1009322-light.h5 tag-1490931666//
/work/sebastian/BT-20210625/1009322-light/run1009322-light.h5 tag-1490931670//
/work/sebastian/BT-20210625/1009322-light/run1009322-light.h5 tag-1490931674//
/work/sebastian/BT-20210625/1009322-light/run1009322-light.h5 tag-1490931676//
/work/sebastian/BT-20210625/1009322-light/run1009322-light.h5 tag-1490931684//
/work/sebastian/BT-20210625/1009322-light/run1009322-light.h5 tag-1490931700//
/work/sebastian/BT-20210625/1009322-light/run1009322-light.h5 tag-1490931702//
/work/sebastian/BT-20210625/1009322-light/run1009322-light.h5 tag-1490931712//
/work/sebastian/BT-20210625/1009322-light/run1009322-light.h5 tag-1490931714//
/work/sebastian/BT-20210625/1009322-light/run1009322-light.h5 tag-1490931720//
/work/sebastian/BT-20210625/1009322-light/run1009322-light.h5 tag-1490931728//
/work/sebastian/BT-20210625/1009322-light/run1009322-light.h5 tag-1490931734//
/work/sebastian/BT-20210625/1009322-light/run1009322-light.h5 tag-1490931742//
/work/sebastian/BT-20210625/1009322-light/run1009322-light.h5 tag-1490931748//
/work/sebastian/BT-20210625/1009322-light/run1009322-light.h5 tag-1490931752//
/work/sebastian/BT-20210625/1009322-light/run1009322-light.h5 tag-1490931760//
/work/sebastian/BT-20210625/1009322-light/run1009322-light.h5 tag-1490931762//
/work/sebastian/BT-20210625/1009322-light/run1009322-light.h5 tag-1490931768//
/work/sebastian/BT-20210625/1009322-light/run1009322-light.h5 tag-1490931774//
/work/sebastian/BT-20210625/1009322-light/run1009322-light.h5 tag-1490931784//
/work/sebastian/BT-20210625/1009322-light/run1009322-light.h5 tag-1490931788//
/work/sebastian/BT-20210625/1009322-light/run1009322-light.h5 tag-1490931792//
/work/sebastian/BT-20210625/1009322-light/run1009322-light.h5 tag-1490931794//
/work/sebastian/BT-20210625/1009322-light/run1009322-light.h5 tag-1490931796//
/work/sebastian/BT-20210625/1009322-light/run1009322-light.h5 tag-1490931804//
/work/sebastian/BT-20210625/1009322-light/run1009322-light.h5 tag-1490931806//
/work/sebastian/BT-20210625/1009322-light/run1009322-light.h5 tag-1490931812//
/work/sebastian/BT-20210625/1009322-light/run1009322-light.h5 tag-1490931816//
/work/sebastian/BT-20210625/1009322-light/run1009322-light.h5 tag-1490931822//
/work/sebastian/BT-20210625/1009322-light/run1009322-light.h5 tag-1490931830//
/work/sebastian/BT-20210625/1009322-light/run1009322-light.h5 tag-1490931832//
/work/sebastian/BT-20210625/1009322-light/run1009322-light.h5 tag-1490931834//
/work/sebastian/BT-20210625/1009322-light/run1009322-light.h5 tag-1490931838//
/work/sebastian/BT-20210625/1009322-light/run1009322-light.h5 tag-1490931842//
/work/sebastian/BT-20210625/1009322-light/run1009322-light.h5 tag-1490931846//
/work/sebastian/BT-20210625/1009322-light/run1009322-light.h5 tag-1490931850//
/work/sebastian/BT-20210625/1009322-light/run1009322-light.h5 tag-1490931852//
/work/sebastian/BT-20210625/1009322-light/run1009322-light.h5 tag-1490931856//
/work/sebastian/BT-20210625/1009322-light/run1009322-light.h5 tag-1490931862//
/work/sebastian/BT-20210625/1009322-light/run1009322-light.h5 tag-1490931864//
/work/sebastian/BT-20210625/1009322-light/run1009322-light.h5 tag-1490931866//
/work/sebastian/BT-20210625/1009322-light/run1009322-light.h5 tag-1490931870//
/work/sebastian/BT-20210625/1009322-light/run1009322-light.h5 tag-1490931874//
/work/sebastian/BT-20210625/1009322-light/run1009322-light.h5 tag-1490931878//
/work/sebastian/BT-20210625/1009322-light/run1009322-light.h5 tag-1490931882//
/work/sebastian/BT-20210625/1009322-light/run1009322-light.h5 tag-1490931884//
/work/sebastian/BT-20210625/1009322-light/run1009322-light.h5 tag-1490931886//
/work/sebastian/BT-20210625/1009322-light/run1009322-light.h5 tag-1490931888//
/work/sebastian/BT-20210625/1009322-light/run1009322-light.h5 tag-1490931890//
/work/sebastian/BT-20210625/1009322-light/run1009322-light.h5 tag-1490931892//
/work/sebastian/BT-20210625/1009322-light/run1009322-light.h5 tag-1490931898//
/work/sebastian/BT-20210625/1009322-light/run1009322-light.h5 tag-1490931900//
/work/sebastian/BT-20210625/1009322-light/run1009322-light.h5 tag-1490931906//
/work/sebastian/BT-20210625/1009322-light/run1009322-light.h5 tag-1490931922//
/work/sebastian/BT-20210625/1009322-light/run1009322-light.h5 tag-1490931930//
/work/sebastian/BT-20210625/1009322-light/run1009322-light.h5 tag-1490931940//
/work/sebastian/BT-20210625/1009322-light/run1009322-light.h5 tag-1490931942//
/work/sebastian/BT-20210625/1009322-light/run1009322-light.h5 tag-1490931946//
/work/sebastian/BT-20210625/1009322-light/run1009322-light.h5 tag-1490931950//
/work/sebastian/BT-20210625/1009322-light/run1009322-light.h5 tag-1490931956//
/work/sebastian/BT-20210625/1009322-light/run1009322-light.h5 tag-1490931958//
/work/sebastian/BT-20210625/1009322-light/run1009322-light.h5 tag-1490931962//
/work/sebastian/BT-20210625/1009322-light/run1009322-light.h5 tag-1490931966//
/work/sebastian/BT-20210625/1009322-light/run1009322-light.h5 tag-1490931968//
/work/sebastian/BT-20210625/1009322-light/run1009322-light.h5 tag-1490931974//
/work/sebastian/BT-20210625/1009322-light/run1009322-light.h5 tag-1490931978//
/work/sebastian/BT-20210625/1009322-light/run1009322-light.h5 tag-1490931980//
/work/sebastian/BT-20210625/1009322-light/run1009322-light.h5 tag-1490931982//
/work/sebastian/BT-20210625/1009322-light/run1009322-light.h5 tag-1490931984//
/work/sebastian/BT-20210625/1009322-light/run1009322-light.h5 tag-1490931986//
/work/sebastian/BT-20210625/1009322-light/run1009322-light.h5 tag-1490932002//
/work/sebastian/BT-20210625/1009322-light/run1009322-light.h5 tag-1490932018//
/work/sebastian/BT-20210625/1009322-light/run1009322-light.h5 tag-1490932022//
/work/sebastian/BT-20210625/1009322-light/run1009322-light.h5 tag-1490932036//
/work/sebastian/BT-20210625/1009322-light/run1009322-light.h5 tag-1490932040//
/work/sebastian/BT-20210625/1009322-light/run1009322-light.h5 tag-1490932044//
/work/sebastian/BT-20210625/1009322-light/run1009322-light.h5 tag-1490932048//
/work/sebastian/BT-20210625/1009322-light/run1009322-light.h5 tag-1490932050//
/work/sebastian/BT-20210625/1009322-light/run1009322-light.h5 tag-1490932052//
/work/sebastian/BT-20210625/1009322-light/run1009322-light.h5 tag-1490932054//
/work/sebastian/BT-20210625/1009322-light/run1009322-light.h5 tag-1490932064//
/work/sebastian/BT-20210625/1009322-light/run1009322-light.h5 tag-1490932066//
/work/sebastian/BT-20210625/1009322-light/run1009322-light.h5 tag-1490932080//
/work/sebastian/BT-20210625/1009322-light/run1009322-light.h5 tag-1490932082//
/work/sebastian/BT-20210625/1009322-light/run1009322-light.h5 tag-1490932084//
/work/sebastian/BT-20210625/1009322-light/run1009322-light.h5 tag-1490932088//
/work/sebastian/BT-20210625/1009322-light/run1009322-light.h5 tag-1490932090//
/work/sebastian/BT-20210625/1009322-light/run1009322-light.h5 tag-1490932108//
/work/sebastian/BT-20210625/1009322-light/run1009322-light.h5 tag-1490932112//
/work/sebastian/BT-20210625/1009322-light/run1009322-light.h5 tag-1490932114//
/work/sebastian/BT-20210625/1009322-light/run1009322-light.h5 tag-1490932120//
/work/sebastian/BT-20210625/1009322-light/run1009322-light.h5 tag-1490932122//
/work/sebastian/BT-20210625/1009322-light/run1009322-light.h5 tag-1490932130//
/work/sebastian/BT-20210625/1009322-light/run1009322-light.h5 tag-1490932132//
/work/sebastian/BT-20210625/1009322-light/run1009322-light.h5 tag-1490932136//
/work/sebastian/BT-20210625/1009322-light/run1009322-light.h5 tag-1490932140//
/work/sebastian/BT-20210625/1009322-light/run1009322-light.h5 tag-1490932142//
/work/sebastian/BT-20210625/1009322-light/run1009322-light.h5 tag-1490932148//
/work/sebastian/BT-20210625/1009322-light/run1009322-light.h5 tag-1490932158//
/work/sebastian/BT-20210625/1009322-light/run1009322-light.h5 tag-1490932164//
/work/sebastian/BT-20210625/1009322-light/run1009322-light.h5 tag-1490932170//
/work/sebastian/BT-20210625/1009322-light/run1009322-light.h5 tag-1490932172//
/work/sebastian/BT-20210625/1009322-light/run1009322-light.h5 tag-1490932174//
/work/sebastian/BT-20210625/1009322-light/run1009322-light.h5 tag-1490932176//
/work/sebastian/BT-20210625/1009322-light/run1009322-light.h5 tag-1490932178//
/work/sebastian/BT-20210625/1009322-light/run1009322-light.h5 tag-1490932182//
/work/sebastian/BT-20210625/1009322-light/run1009322-light.h5 tag-1490932184//
/work/sebastian/BT-20210625/1009322-light/run1009322-light.h5 tag-1490932190//
/work/sebastian/BT-20210625/1009322-light/run1009322-light.h5 tag-1490932194//
/work/sebastian/BT-20210625/1009322-light/run1009322-light.h5 tag-1490932198//
/work/sebastian/BT-20210625/1009322-light/run1009322-light.h5 tag-1490932202//
/work/sebastian/BT-20210625/1009322-light/run1009322-light.h5 tag-1490932206//
/work/sebastian/BT-20210625/1009322-light/run1009322-light.h5 tag-1490932208//
/work/sebastian/BT-20210625/1009322-light/run1009322-light.h5 tag-1490932212//
/work/sebastian/BT-20210625/1009322-light/run1009322-light.h5 tag-1490932214//
/work/sebastian/BT-20210625/1009322-light/run1009322-light.h5 tag-1490932218//
/work/sebastian/BT-20210625/1009322-light/run1009322-light.h5 tag-1490932226//
/work/sebastian/BT-20210625/1009322-light/run1009322-light.h5 tag-1490932228//
/work/sebastian/BT-20210625/1009322-light/run1009322-light.h5 tag-1490932230//
/work/sebastian/BT-20210625/1009322-light/run1009322-light.h5 tag-1490932242//
/work/sebastian/BT-20210625/1009322-light/run1009322-light.h5 tag-1490932246//
/work/sebastian/BT-20210625/1009322-light/run1009322-light.h5 tag-1490932252//
/work/sebastian/BT-20210625/1009322-light/run1009322-light.h5 tag-1490932256//
/work/sebastian/BT-20210625/1009322-light/run1009322-light.h5 tag-1490932260//
/work/sebastian/BT-20210625/1009322-light/run1009322-light.h5 tag-1490932262//
/work/sebastian/BT-20210625/1009322-light/run1009322-light.h5 tag-1490932266//
/work/sebastian/BT-20210625/1009322-light/run1009322-light.h5 tag-1490932274//
/work/sebastian/BT-20210625/1009322-light/run1009322-light.h5 tag-1490932278//
/work/sebastian/BT-20210625/1009322-light/run1009322-light.h5 tag-1490932280//
/work/sebastian/BT-20210625/1009322-light/run1009322-light.h5 tag-1490932282//
/work/sebastian/BT-20210625/1009322-light/run1009322-light.h5 tag-1490932284//
/work/sebastian/BT-20210625/1009322-light/run1009322-light.h5 tag-1490932288//
/work/sebastian/BT-20210625/1009322-light/run1009322-light.h5 tag-1490932292//
/work/sebastian/BT-20210625/1009322-light/run1009322-light.h5 tag-1490932296//
/work/sebastian/BT-20210625/1009322-light/run1009322-light.h5 tag-1490932302//
/work/sebastian/BT-20210625/1009322-light/run1009322-light.h5 tag-1490932312//
/work/sebastian/BT-20210625/1009322-light/run1009322-light.h5 tag-1490932316//
/work/sebastian/BT-20210625/1009322-light/run1009322-light.h5 tag-1490932336//
/work/sebastian/BT-20210625/1009322-light/run1009322-light.h5 tag-1490932342//
/work/sebastian/BT-20210625/1009322-light/run1009322-light.h5 tag-1490932352//
/work/sebastian/BT-20210625/1009322-light/run1009322-light.h5 tag-1490932354//
/work/sebastian/BT-20210625/1009322-light/run1009322-light.h5 tag-1490932358//
/work/sebastian/BT-20210625/1009322-light/run1009322-light.h5 tag-1490932360//
/work/sebastian/BT-20210625/1009322-light/run1009322-light.h5 tag-1490932364//
/work/sebastian/BT-20210625/1009322-light/run1009322-light.h5 tag-1490932366//
/work/sebastian/BT-20210625/1009322-light/run1009322-light.h5 tag-1490932370//
/work/sebastian/BT-20210625/1009322-light/run1009322-light.h5 tag-1490932378//
/work/sebastian/BT-20210625/1009322-light/run1009322-light.h5 tag-1490932386//
/work/sebastian/BT-20210625/1009322-light/run1009322-light.h5 tag-1490932388//
/work/sebastian/BT-20210625/1009322-light/run1009322-light.h5 tag-1490932392//
/work/sebastian/BT-20210625/1009322-light/run1009322-light.h5 tag-1490932394//
/work/sebastian/BT-20210625/1009322-light/run1009322-light.h5 tag-1490932398//
/work/sebastian/BT-20210625/1009322-light/run1009322-light.h5 tag-1490932406//
/work/sebastian/BT-20210625/1009322-light/run1009322-light.h5 tag-1490932414//
/work/sebastian/BT-20210625/1009322-light/run1009322-light.h5 tag-1490932420//
/work/sebastian/BT-20210625/1009322-light/run1009322-light.h5 tag-1490932422//
/work/sebastian/BT-20210625/1009322-light/run1009322-light.h5 tag-1490932430//
/work/sebastian/BT-20210625/1009322-light/run1009322-light.h5 tag-1490932432//
/work/sebastian/BT-20210625/1009322-light/run1009322-light.h5 tag-1490932436//
/work/sebastian/BT-20210625/1009322-light/run1009322-light.h5 tag-1490932444//
/work/sebastian/BT-20210625/1009322-light/run1009322-light.h5 tag-1490932446//
/work/sebastian/BT-20210625/1009322-light/run1009322-light.h5 tag-1490932450//
/work/sebastian/BT-20210625/1009322-light/run1009322-light.h5 tag-1490932458//
/work/sebastian/BT-20210625/1009322-light/run1009322-light.h5 tag-1490932460//
/work/sebastian/BT-20210625/1009322-light/run1009322-light.h5 tag-1490932462//
/work/sebastian/BT-20210625/1009322-light/run1009322-light.h5 tag-1490932464//
/work/sebastian/BT-20210625/1009322-light/run1009322-light.h5 tag-1490932472//
/work/sebastian/BT-20210625/1009322-light/run1009322-light.h5 tag-1490932498//
/work/sebastian/BT-20210625/1009322-light/run1009322-light.h5 tag-1490932506//
/work/sebastian/BT-20210625/1009322-light/run1009322-light.h5 tag-1490932508//
/work/sebastian/BT-20210625/1009322-light/run1009322-light.h5 tag-1490932512//
/work/sebastian/BT-20210625/1009322-light/run1009322-light.h5 tag-1490932520//
/work/sebastian/BT-20210625/1009322-light/run1009322-light.h5 tag-1490932528//
/work/sebastian/BT-20210625/1009322-light/run1009322-light.h5 tag-1490932530//
/work/sebastian/BT-20210625/1009322-light/run1009322-light.h5 tag-1490932534//
/work/sebastian/BT-20210625/1009322-light/run1009322-light.h5 tag-1490932536//
/work/sebastian/BT-20210625/1009322-light/run1009322-light.h5 tag-1490932542//
/work/sebastian/BT-20210625/1009322-light/run1009322-light.h5 tag-1490932548//
/work/sebastian/BT-20210625/1009322-light/run1009322-light.h5 tag-1490932556//
/work/sebastian/BT-20210625/1009322-light/run1009322-light.h5 tag-1490932558//
/work/sebastian/BT-20210625/1009322-light/run1009322-light.h5 tag-1490932562//
/work/sebastian/BT-20210625/1009322-light/run1009322-light.h5 tag-1490932564//
/work/sebastian/BT-20210625/1009322-light/run1009322-light.h5 tag-1490932576//
/work/sebastian/BT-20210625/1009322-light/run1009322-light.h5 tag-1490932578//
/work/sebastian/BT-20210625/1009322-light/run1009322-light.h5 tag-1490932584//
/work/sebastian/BT-20210625/1009322-light/run1009322-light.h5 tag-1490932586//
/work/sebastian/BT-20210625/1009322-light/run1009322-light.h5 tag-1490932588//
/work/sebastian/BT-20210625/1009322-light/run1009322-light.h5 tag-1490932590//
/work/sebastian/BT-20210625/1009322-light/run1009322-light.h5 tag-1490932602//
/work/sebastian/BT-20210625/1009322-light/run1009322-light.h5 tag-1490932604//
/work/sebastian/BT-20210625/1009322-light/run1009322-light.h5 tag-1490932610//
/work/sebastian/BT-20210625/1009322-light/run1009322-light.h5 tag-1490932620//
/work/sebastian/BT-20210625/1009322-light/run1009322-light.h5 tag-1490932626//
/work/sebastian/BT-20210625/1009322-light/run1009322-light.h5 tag-1490932628//
/work/sebastian/BT-20210625/1009322-light/run1009322-light.h5 tag-1490932634//
/work/sebastian/BT-20210625/1009322-light/run1009322-light.h5 tag-1490932642//
/work/sebastian/BT-20210625/1009322-light/run1009322-light.h5 tag-1490932648//
/work/sebastian/BT-20210625/1009322-light/run1009322-light.h5 tag-1490932654//
/work/sebastian/BT-20210625/1009322-light/run1009322-light.h5 tag-1490932660//
/work/sebastian/BT-20210625/1009322-light/run1009322-light.h5 tag-1490932662//
/work/sebastian/BT-20210625/1009322-light/run1009322-light.h5 tag-1490932672//
/work/sebastian/BT-20210625/1009322-light/run1009322-light.h5 tag-1490932674//
/work/sebastian/BT-20210625/1009322-light/run1009322-light.h5 tag-1490932676//
/work/sebastian/BT-20210625/1009322-light/run1009322-light.h5 tag-1490932680//
/work/sebastian/BT-20210625/1009322-light/run1009322-light.h5 tag-1490932684//
/work/sebastian/BT-20210625/1009322-light/run1009322-light.h5 tag-1490932698//
/work/sebastian/BT-20210625/1009322-light/run1009322-light.h5 tag-1490932700//
/work/sebastian/BT-20210625/1009322-light/run1009322-light.h5 tag-1490932708//
/work/sebastian/BT-20210625/1009322-light/run1009322-light.h5 tag-1490932714//
/work/sebastian/BT-20210625/1009322-light/run1009322-light.h5 tag-1490932726//
/work/sebastian/BT-20210625/1009322-light/run1009322-light.h5 tag-1490932732//
/work/sebastian/BT-20210625/1009322-light/run1009322-light.h5 tag-1490932740//
/work/sebastian/BT-20210625/1009322-light/run1009322-light.h5 tag-1490932744//
/work/sebastian/BT-20210625/1009322-light/run1009322-light.h5 tag-1490932746//
/work/sebastian/BT-20210625/1009322-light/run1009322-light.h5 tag-1490932750//
/work/sebastian/BT-20210625/1009322-light/run1009322-light.h5 tag-1490932752//
/work/sebastian/BT-20210625/1009322-light/run1009322-light.h5 tag-1490932758//
/work/sebastian/BT-20210625/1009322-light/run1009322-light.h5 tag-1490932772//
/work/sebastian/BT-20210625/1009322-light/run1009322-light.h5 tag-1490932778//
/work/sebastian/BT-20210625/1009322-light/run1009322-light.h5 tag-1490932782//
/work/sebastian/BT-20210625/1009322-light/run1009322-light.h5 tag-1490932784//
/work/sebastian/BT-20210625/1009322-light/run1009322-light.h5 tag-1490932798//
/work/sebastian/BT-20210625/1009322-light/run1009322-light.h5 tag-1490932800//
/work/sebastian/BT-20210625/1009322-light/run1009322-light.h5 tag-1490932810//
/work/sebastian/BT-20210625/1009322-light/run1009322-light.h5 tag-1490932812//
/work/sebastian/BT-20210625/1009322-light/run1009322-light.h5 tag-1490932822//
/work/sebastian/BT-20210625/1009322-light/run1009322-light.h5 tag-1490932824//
/work/sebastian/BT-20210625/1009322-light/run1009322-light.h5 tag-1490932826//
/work/sebastian/BT-20210625/1009322-light/run1009322-light.h5 tag-1490932836//
/work/sebastian/BT-20210625/1009322-light/run1009322-light.h5 tag-1490932840//
/work/sebastian/BT-20210625/1009322-light/run1009322-light.h5 tag-1490932848//
/work/sebastian/BT-20210625/1009322-light/run1009322-light.h5 tag-1490932850//
/work/sebastian/BT-20210625/1009322-light/run1009322-light.h5 tag-1490932856//
/work/sebastian/BT-20210625/1009322-light/run1009322-light.h5 tag-1490932860//
/work/sebastian/BT-20210625/1009322-light/run1009322-light.h5 tag-1490932874//
/work/sebastian/BT-20210625/1009322-light/run1009322-light.h5 tag-1490932878//
/work/sebastian/BT-20210625/1009322-light/run1009322-light.h5 tag-1490932886//
/work/sebastian/BT-20210625/1009322-light/run1009322-light.h5 tag-1490932890//
/work/sebastian/BT-20210625/1009322-light/run1009322-light.h5 tag-1490932894//
/work/sebastian/BT-20210625/1009322-light/run1009322-light.h5 tag-1490932898//
/work/sebastian/BT-20210625/1009322-light/run1009322-light.h5 tag-1490932900//
/work/sebastian/BT-20210625/1009322-light/run1009322-light.h5 tag-1490932902//
/work/sebastian/BT-20210625/1009322-light/run1009322-light.h5 tag-1490932912//
/work/sebastian/BT-20210625/1009322-light/run1009322-light.h5 tag-1490932914//
/work/sebastian/BT-20210625/1009322-light/run1009322-light.h5 tag-1490932918//
/work/sebastian/BT-20210625/1009322-light/run1009322-light.h5 tag-1490932922//
/work/sebastian/BT-20210625/1009322-light/run1009322-light.h5 tag-1490932928//
/work/sebastian/BT-20210625/1009322-light/run1009322-light.h5 tag-1490932932//
/work/sebastian/BT-20210625/1009322-light/run1009322-light.h5 tag-1490932942//
/work/sebastian/BT-20210625/1009322-light/run1009322-light.h5 tag-1490932944//
/work/sebastian/BT-20210625/1009322-light/run1009322-light.h5 tag-1490932948//
/work/sebastian/BT-20210625/1009322-light/run1009322-light.h5 tag-1490932950//
/work/sebastian/BT-20210625/1009322-light/run1009322-light.h5 tag-1490932958//
/work/sebastian/BT-20210625/1009322-light/run1009322-light.h5 tag-1490932960//
/work/sebastian/BT-20210625/1009322-light/run1009322-light.h5 tag-1490932962//
/work/sebastian/BT-20210625/1009322-light/run1009322-light.h5 tag-1490932964//
/work/sebastian/BT-20210625/1009322-light/run1009322-light.h5 tag-1490932966//
/work/sebastian/BT-20210625/1009322-light/run1009322-light.h5 tag-1490932968//
/work/sebastian/BT-20210625/1009322-light/run1009322-light.h5 tag-1490932970//
/work/sebastian/BT-20210625/1009322-light/run1009322-light.h5 tag-1490932972//
/work/sebastian/BT-20210625/1009322-light/run1009322-light.h5 tag-1490932988//
/work/sebastian/BT-20210625/1009322-light/run1009322-light.h5 tag-1490932990//
/work/sebastian/BT-20210625/1009322-light/run1009322-light.h5 tag-1490932998//
/work/sebastian/BT-20210625/1009322-light/run1009322-light.h5 tag-1490933002//
/work/sebastian/BT-20210625/1009322-light/run1009322-light.h5 tag-1490933018//
/work/sebastian/BT-20210625/1009322-light/run1009322-light.h5 tag-1490933024//
/work/sebastian/BT-20210625/1009322-light/run1009322-light.h5 tag-1490933028//
/work/sebastian/BT-20210625/1009322-light/run1009322-light.h5 tag-1490933030//
/work/sebastian/BT-20210625/1009322-light/run1009322-light.h5 tag-1490933032//
/work/sebastian/BT-20210625/1009322-light/run1009322-light.h5 tag-1490933038//
/work/sebastian/BT-20210625/1009322-light/run1009322-light.h5 tag-1490933044//
/work/sebastian/BT-20210625/1009322-light/run1009322-light.h5 tag-1490933046//
/work/sebastian/BT-20210625/1009322-light/run1009322-light.h5 tag-1490933048//
/work/sebastian/BT-20210625/1009322-light/run1009322-light.h5 tag-1490933050//
/work/sebastian/BT-20210625/1009322-light/run1009322-light.h5 tag-1490933068//
/work/sebastian/BT-20210625/1009322-light/run1009322-light.h5 tag-1490933080//
/work/sebastian/BT-20210625/1009322-light/run1009322-light.h5 tag-1490933084//
/work/sebastian/BT-20210625/1009322-light/run1009322-light.h5 tag-1490933090//
/work/sebastian/BT-20210625/1009322-light/run1009322-light.h5 tag-1490933092//
/work/sebastian/BT-20210625/1009322-light/run1009322-light.h5 tag-1490933098//
/work/sebastian/BT-20210625/1009322-light/run1009322-light.h5 tag-1490933100//
/work/sebastian/BT-20210625/1009322-light/run1009322-light.h5 tag-1490933106//
/work/sebastian/BT-20210625/1009322-light/run1009322-light.h5 tag-1490933114//
/work/sebastian/BT-20210625/1009322-light/run1009322-light.h5 tag-1490933116//
/work/sebastian/BT-20210625/1009322-light/run1009322-light.h5 tag-1490933138//
/work/sebastian/BT-20210625/1009322-light/run1009322-light.h5 tag-1490933144//
/work/sebastian/BT-20210625/1009322-light/run1009322-light.h5 tag-1490933148//
/work/sebastian/BT-20210625/1009322-light/run1009322-light.h5 tag-1490933162//
/work/sebastian/BT-20210625/1009322-light/run1009322-light.h5 tag-1490933164//
/work/sebastian/BT-20210625/1009322-light/run1009322-light.h5 tag-1490933170//
/work/sebastian/BT-20210625/1009322-light/run1009322-light.h5 tag-1490933174//
/work/sebastian/BT-20210625/1009322-light/run1009322-light.h5 tag-1490933176//
/work/sebastian/BT-20210625/1009322-light/run1009322-light.h5 tag-1490933178//
/work/sebastian/BT-20210625/1009322-light/run1009322-light.h5 tag-1490933182//
/work/sebastian/BT-20210625/1009322-light/run1009322-light.h5 tag-1490933184//
/work/sebastian/BT-20210625/1009322-light/run1009322-light.h5 tag-1490933186//
/work/sebastian/BT-20210625/1009322-light/run1009322-light.h5 tag-1490933190//
/work/sebastian/BT-20210625/1009322-light/run1009322-light.h5 tag-1490933192//
/work/sebastian/BT-20210625/1009322-light/run1009322-light.h5 tag-1490933194//
/work/sebastian/BT-20210625/1009322-light/run1009322-light.h5 tag-1490933196//
/work/sebastian/BT-20210625/1009322-light/run1009322-light.h5 tag-1490933204//
/work/sebastian/BT-20210625/1009322-light/run1009322-light.h5 tag-1490933208//
/work/sebastian/BT-20210625/1009322-light/run1009322-light.h5 tag-1490933210//
/work/sebastian/BT-20210625/1009322-light/run1009322-light.h5 tag-1490933212//
/work/sebastian/BT-20210625/1009322-light/run1009322-light.h5 tag-1490933216//
/work/sebastian/BT-20210625/1009322-light/run1009322-light.h5 tag-1490933226//
/work/sebastian/BT-20210625/1009322-light/run1009322-light.h5 tag-1490933228//
/work/sebastian/BT-20210625/1009322-light/run1009322-light.h5 tag-1490933242//
/work/sebastian/BT-20210625/1009322-light/run1009322-light.h5 tag-1490933244//
/work/sebastian/BT-20210625/1009322-light/run1009322-light.h5 tag-1490933254//
/work/sebastian/BT-20210625/1009322-light/run1009322-light.h5 tag-1490933256//
/work/sebastian/BT-20210625/1009322-light/run1009322-light.h5 tag-1490933260//
/work/sebastian/BT-20210625/1009322-light/run1009322-light.h5 tag-1490933264//
/work/sebastian/BT-20210625/1009322-light/run1009322-light.h5 tag-1490933272//
/work/sebastian/BT-20210625/1009322-light/run1009322-light.h5 tag-1490933284//
/work/sebastian/BT-20210625/1009322-light/run1009322-light.h5 tag-1490933286//
/work/sebastian/BT-20210625/1009322-light/run1009322-light.h5 tag-1490933292//
/work/sebastian/BT-20210625/1009322-light/run1009322-light.h5 tag-1490933294//
/work/sebastian/BT-20210625/1009322-light/run1009322-light.h5 tag-1490933302//
/work/sebastian/BT-20210625/1009322-light/run1009322-light.h5 tag-1490933320//
/work/sebastian/BT-20210625/1009322-light/run1009322-light.h5 tag-1490933324//
/work/sebastian/BT-20210625/1009322-light/run1009322-light.h5 tag-1490933334//
/work/sebastian/BT-20210625/1009322-light/run1009322-light.h5 tag-1490933342//
/work/sebastian/BT-20210625/1009322-light/run1009322-light.h5 tag-1490933346//
/work/sebastian/BT-20210625/1009322-light/run1009322-light.h5 tag-1490933362//
/work/sebastian/BT-20210625/1009322-light/run1009322-light.h5 tag-1490933364//
/work/sebastian/BT-20210625/1009322-light/run1009322-light.h5 tag-1490933366//
/work/sebastian/BT-20210625/1009322-light/run1009322-light.h5 tag-1490933368//
/work/sebastian/BT-20210625/1009322-light/run1009322-light.h5 tag-1490933380//
/work/sebastian/BT-20210625/1009322-light/run1009322-light.h5 tag-1490933384//
/work/sebastian/BT-20210625/1009322-light/run1009322-light.h5 tag-1490933392//
/work/sebastian/BT-20210625/1009322-light/run1009322-light.h5 tag-1490933394//
/work/sebastian/BT-20210625/1009322-light/run1009322-light.h5 tag-1490933398//
/work/sebastian/BT-20210625/1009322-light/run1009322-light.h5 tag-1490933404//
/work/sebastian/BT-20210625/1009322-light/run1009322-light.h5 tag-1490933412//
/work/sebastian/BT-20210625/1009322-light/run1009322-light.h5 tag-1490933414//
/work/sebastian/BT-20210625/1009322-light/run1009322-light.h5 tag-1490933416//
/work/sebastian/BT-20210625/1009322-light/run1009322-light.h5 tag-1490933422//
/work/sebastian/BT-20210625/1009322-light/run1009322-light.h5 tag-1490933426//
/work/sebastian/BT-20210625/1009322-light/run1009322-light.h5 tag-1490933430//
/work/sebastian/BT-20210625/1009322-light/run1009322-light.h5 tag-1490933432//
/work/sebastian/BT-20210625/1009322-light/run1009322-light.h5 tag-1490933434//
/work/sebastian/BT-20210625/1009322-light/run1009322-light.h5 tag-1490933436//
/work/sebastian/BT-20210625/1009322-light/run1009322-light.h5 tag-1490933438//
/work/sebastian/BT-20210625/1009322-light/run1009322-light.h5 tag-1490933444//
/work/sebastian/BT-20210625/1009322-light/run1009322-light.h5 tag-1490933466//
/work/sebastian/BT-20210625/1009322-light/run1009322-light.h5 tag-1490933486//
/work/sebastian/BT-20210625/1009322-light/run1009322-light.h5 tag-1490933488//
/work/sebastian/BT-20210625/1009322-light/run1009322-light.h5 tag-1490933490//
/work/sebastian/BT-20210625/1009322-light/run1009322-light.h5 tag-1490933496//
/work/sebastian/BT-20210625/1009322-light/run1009322-light.h5 tag-1490933500//
/work/sebastian/BT-20210625/1009322-light/run1009322-light.h5 tag-1490933502//
/work/sebastian/BT-20210625/1009322-light/run1009322-light.h5 tag-1490933510//
/work/sebastian/BT-20210625/1009322-light/run1009322-light.h5 tag-1490933512//
/work/sebastian/BT-20210625/1009322-light/run1009322-light.h5 tag-1490933528//
/work/sebastian/BT-20210625/1009322-light/run1009322-light.h5 tag-1490933534//
/work/sebastian/BT-20210625/1009322-light/run1009322-light.h5 tag-1490933546//
/work/sebastian/BT-20210625/1009322-light/run1009322-light.h5 tag-1490933556//
/work/sebastian/BT-20210625/1009322-light/run1009322-light.h5 tag-1490933558//
/work/sebastian/BT-20210625/1009322-light/run1009322-light.h5 tag-1490933560//
/work/sebastian/BT-20210625/1009322-light/run1009322-light.h5 tag-1490933566//
/work/sebastian/BT-20210625/1009322-light/run1009322-light.h5 tag-1490933568//
/work/sebastian/BT-20210625/1009322-light/run1009322-light.h5 tag-1490933572//
/work/sebastian/BT-20210625/1009322-light/run1009322-light.h5 tag-1490933574//
/work/sebastian/BT-20210625/1009322-light/run1009322-light.h5 tag-1490933576//
/work/sebastian/BT-20210625/1009322-light/run1009322-light.h5 tag-1490933584//
/work/sebastian/BT-20210625/1009322-light/run1009322-light.h5 tag-1490933586//
/work/sebastian/BT-20210625/1009322-light/run1009322-light.h5 tag-1490933588//
/work/sebastian/BT-20210625/1009322-light/run1009322-light.h5 tag-1490933604//
/work/sebastian/BT-20210625/1009322-light/run1009322-light.h5 tag-1490933606//
/work/sebastian/BT-20210625/1009322-light/run1009322-light.h5 tag-1490933612//
/work/sebastian/BT-20210625/1009322-light/run1009322-light.h5 tag-1490933618//
/work/sebastian/BT-20210625/1009322-light/run1009322-light.h5 tag-1490933628//
/work/sebastian/BT-20210625/1009322-light/run1009322-light.h5 tag-1490933630//
/work/sebastian/BT-20210625/1009322-light/run1009322-light.h5 tag-1490933632//
/work/sebastian/BT-20210625/1009322-light/run1009322-light.h5 tag-1490933634//
/work/sebastian/BT-20210625/1009322-light/run1009322-light.h5 tag-1490933638//
/work/sebastian/BT-20210625/1009322-light/run1009322-light.h5 tag-1490933646//
/work/sebastian/BT-20210625/1009322-light/run1009322-light.h5 tag-1490933650//
/work/sebastian/BT-20210625/1009322-light/run1009322-light.h5 tag-1490933654//
/work/sebastian/BT-20210625/1009322-light/run1009322-light.h5 tag-1490933666//
/work/sebastian/BT-20210625/1009322-light/run1009322-light.h5 tag-1490933670//
/work/sebastian/BT-20210625/1009322-light/run1009322-light.h5 tag-1490933680//
/work/sebastian/BT-20210625/1009322-light/run1009322-light.h5 tag-1490933682//
/work/sebastian/BT-20210625/1009322-light/run1009322-light.h5 tag-1490933690//
/work/sebastian/BT-20210625/1009322-light/run1009322-light.h5 tag-1490933696//
/work/sebastian/BT-20210625/1009322-light/run1009322-light.h5 tag-1490933698//
/work/sebastian/BT-20210625/1009322-light/run1009322-light.h5 tag-1490933700//
/work/sebastian/BT-20210625/1009322-light/run1009322-light.h5 tag-1490933704//
/work/sebastian/BT-20210625/1009322-light/run1009322-light.h5 tag-1490933708//
/work/sebastian/BT-20210625/1009322-light/run1009322-light.h5 tag-1490933714//
/work/sebastian/BT-20210625/1009322-light/run1009322-light.h5 tag-1490933726//
/work/sebastian/BT-20210625/1009322-light/run1009322-light.h5 tag-1490933728//
/work/sebastian/BT-20210625/1009322-light/run1009322-light.h5 tag-1490933730//
/work/sebastian/BT-20210625/1009322-light/run1009322-light.h5 tag-1490933734//
/work/sebastian/BT-20210625/1009322-light/run1009322-light.h5 tag-1490933738//
/work/sebastian/BT-20210625/1009322-light/run1009322-light.h5 tag-1490933740//
/work/sebastian/BT-20210625/1009322-light/run1009322-light.h5 tag-1490933742//
/work/sebastian/BT-20210625/1009322-light/run1009322-light.h5 tag-1490933752//
/work/sebastian/BT-20210625/1009322-light/run1009322-light.h5 tag-1490933754//
/work/sebastian/BT-20210625/1009322-light/run1009322-light.h5 tag-1490933764//
/work/sebastian/BT-20210625/1009322-light/run1009322-light.h5 tag-1490933766//
/work/sebastian/BT-20210625/1009322-light/run1009322-light.h5 tag-1490933770//
/work/sebastian/BT-20210625/1009322-light/run1009322-light.h5 tag-1490933772//
/work/sebastian/BT-20210625/1009322-light/run1009322-light.h5 tag-1490933776//
/work/sebastian/BT-20210625/1009322-light/run1009322-light.h5 tag-1490933796//
/work/sebastian/BT-20210625/1009322-light/run1009322-light.h5 tag-1490933798//
/work/sebastian/BT-20210625/1009322-light/run1009322-light.h5 tag-1490933806//
/work/sebastian/BT-20210625/1009322-light/run1009322-light.h5 tag-1490933810//
/work/sebastian/BT-20210625/1009322-light/run1009322-light.h5 tag-1490933814//
/work/sebastian/BT-20210625/1009322-light/run1009322-light.h5 tag-1490933816//
/work/sebastian/BT-20210625/1009322-light/run1009322-light.h5 tag-1490933826//
/work/sebastian/BT-20210625/1009322-light/run1009322-light.h5 tag-1490933830//
/work/sebastian/BT-20210625/1009322-light/run1009322-light.h5 tag-1490933832//
/work/sebastian/BT-20210625/1009322-light/run1009322-light.h5 tag-1490933834//
/work/sebastian/BT-20210625/1009322-light/run1009322-light.h5 tag-1490933836//
/work/sebastian/BT-20210625/1009322-light/run1009322-light.h5 tag-1490933838//
/work/sebastian/BT-20210625/1009322-light/run1009322-light.h5 tag-1490933842//
/work/sebastian/BT-20210625/1009322-light/run1009322-light.h5 tag-1490933848//
/work/sebastian/BT-20210625/1009322-light/run1009322-light.h5 tag-1490933866//
/work/sebastian/BT-20210625/1009322-light/run1009322-light.h5 tag-1490933876//
/work/sebastian/BT-20210625/1009322-light/run1009322-light.h5 tag-1490933878//
/work/sebastian/BT-20210625/1009322-light/run1009322-light.h5 tag-1490933904//
/work/sebastian/BT-20210625/1009322-light/run1009322-light.h5 tag-1490933906//
/work/sebastian/BT-20210625/1009322-light/run1009322-light.h5 tag-1490933908//
/work/sebastian/BT-20210625/1009322-light/run1009322-light.h5 tag-1490933910//
/work/sebastian/BT-20210625/1009322-light/run1009322-light.h5 tag-1490933912//
/work/sebastian/BT-20210625/1009322-light/run1009322-light.h5 tag-1490933914//
/work/sebastian/BT-20210625/1009322-light/run1009322-light.h5 tag-1490933916//
/work/sebastian/BT-20210625/1009322-light/run1009322-light.h5 tag-1490933920//
/work/sebastian/BT-20210625/1009322-light/run1009322-light.h5 tag-1490933924//
/work/sebastian/BT-20210625/1009322-light/run1009322-light.h5 tag-1490933928//
/work/sebastian/BT-20210625/1009322-light/run1009322-light.h5 tag-1490933938//
/work/sebastian/BT-20210625/1009322-light/run1009322-light.h5 tag-1490933940//
/work/sebastian/BT-20210625/1009322-light/run1009322-light.h5 tag-1490933948//
/work/sebastian/BT-20210625/1009322-light/run1009322-light.h5 tag-1490933950//
/work/sebastian/BT-20210625/1009322-light/run1009322-light.h5 tag-1490933952//
/work/sebastian/BT-20210625/1009322-light/run1009322-light.h5 tag-1490933964//
/work/sebastian/BT-20210625/1009322-light/run1009322-light.h5 tag-1490933968//
/work/sebastian/BT-20210625/1009322-light/run1009322-light.h5 tag-1490933970//
/work/sebastian/BT-20210625/1009322-light/run1009322-light.h5 tag-1490933972//
/work/sebastian/BT-20210625/1009322-light/run1009322-light.h5 tag-1490933980//
/work/sebastian/BT-20210625/1009322-light/run1009322-light.h5 tag-1490933986//
/work/sebastian/BT-20210625/1009322-light/run1009322-light.h5 tag-1490933988//
/work/sebastian/BT-20210625/1009322-light/run1009322-light.h5 tag-1490933990//
/work/sebastian/BT-20210625/1009322-light/run1009322-light.h5 tag-1490933992//
/work/sebastian/BT-20210625/1009322-light/run1009322-light.h5 tag-1490933998//
/work/sebastian/BT-20210625/1009322-light/run1009322-light.h5 tag-1490934006//
/work/sebastian/BT-20210625/1009322-light/run1009322-light.h5 tag-1490934010//
/work/sebastian/BT-20210625/1009322-light/run1009322-light.h5 tag-1490934012//
/work/sebastian/BT-20210625/1009322-light/run1009322-light.h5 tag-1490934016//
/work/sebastian/BT-20210625/1009322-light/run1009322-light.h5 tag-1490934018//
/work/sebastian/BT-20210625/1009322-light/run1009322-light.h5 tag-1490934022//
/work/sebastian/BT-20210625/1009322-light/run1009322-light.h5 tag-1490934024//
/work/sebastian/BT-20210625/1009322-light/run1009322-light.h5 tag-1490934026//
/work/sebastian/BT-20210625/1009322-light/run1009322-light.h5 tag-1490934030//
/work/sebastian/BT-20210625/1009322-light/run1009322-light.h5 tag-1490934036//
/work/sebastian/BT-20210625/1009322-light/run1009322-light.h5 tag-1490934046//
/work/sebastian/BT-20210625/1009322-light/run1009322-light.h5 tag-1490934048//
/work/sebastian/BT-20210625/1009322-light/run1009322-light.h5 tag-1490934058//
/work/sebastian/BT-20210625/1009322-light/run1009322-light.h5 tag-1490934060//
/work/sebastian/BT-20210625/1009322-light/run1009322-light.h5 tag-1490934066//
/work/sebastian/BT-20210625/1009322-light/run1009322-light.h5 tag-1490934068//
/work/sebastian/BT-20210625/1009322-light/run1009322-light.h5 tag-1490934072//
/work/sebastian/BT-20210625/1009322-light/run1009322-light.h5 tag-1490934074//
/work/sebastian/BT-20210625/1009322-light/run1009322-light.h5 tag-1490934078//
/work/sebastian/BT-20210625/1009322-light/run1009322-light.h5 tag-1490934080//
/work/sebastian/BT-20210625/1009322-light/run1009322-light.h5 tag-1490934088//
/work/sebastian/BT-20210625/1009322-light/run1009322-light.h5 tag-1490934100//
/work/sebastian/BT-20210625/1009322-light/run1009322-light.h5 tag-1490934106//
/work/sebastian/BT-20210625/1009322-light/run1009322-light.h5 tag-1490934112//
/work/sebastian/BT-20210625/1009322-light/run1009322-light.h5 tag-1490934116//
/work/sebastian/BT-20210625/1009322-light/run1009322-light.h5 tag-1490934118//
/work/sebastian/BT-20210625/1009322-light/run1009322-light.h5 tag-1490934132//
/work/sebastian/BT-20210625/1009322-light/run1009322-light.h5 tag-1490934134//
/work/sebastian/BT-20210625/1009322-light/run1009322-light.h5 tag-1490934136//
/work/sebastian/BT-20210625/1009322-light/run1009322-light.h5 tag-1490934142//
/work/sebastian/BT-20210625/1009322-light/run1009322-light.h5 tag-1490934144//
/work/sebastian/BT-20210625/1009322-light/run1009322-light.h5 tag-1490934162//
/work/sebastian/BT-20210625/1009322-light/run1009322-light.h5 tag-1490934164//
/work/sebastian/BT-20210625/1009322-light/run1009322-light.h5 tag-1490934168//
/work/sebastian/BT-20210625/1009322-light/run1009322-light.h5 tag-1490934176//
/work/sebastian/BT-20210625/1009322-light/run1009322-light.h5 tag-1490934178//
/work/sebastian/BT-20210625/1009322-light/run1009322-light.h5 tag-1490934180//
/work/sebastian/BT-20210625/1009322-light/run1009322-light.h5 tag-1490934188//
/work/sebastian/BT-20210625/1009322-light/run1009322-light.h5 tag-1490934190//
/work/sebastian/BT-20210625/1009322-light/run1009322-light.h5 tag-1490934192//
/work/sebastian/BT-20210625/1009322-light/run1009322-light.h5 tag-1490934194//
/work/sebastian/BT-20210625/1009322-light/run1009322-light.h5 tag-1490934196//
/work/sebastian/BT-20210625/1009322-light/run1009322-light.h5 tag-1490934204//
/work/sebastian/BT-20210625/1009322-light/run1009322-light.h5 tag-1490934206//
/work/sebastian/BT-20210625/1009322-light/run1009322-light.h5 tag-1490934218//
/work/sebastian/BT-20210625/1009322-light/run1009322-light.h5 tag-1490934220//
/work/sebastian/BT-20210625/1009322-light/run1009322-light.h5 tag-1490934226//
/work/sebastian/BT-20210625/1009322-light/run1009322-light.h5 tag-1490934232//
/work/sebastian/BT-20210625/1009322-light/run1009322-light.h5 tag-1490934234//
/work/sebastian/BT-20210625/1009322-light/run1009322-light.h5 tag-1490934238//
/work/sebastian/BT-20210625/1009322-light/run1009322-light.h5 tag-1490934244//
/work/sebastian/BT-20210625/1009322-light/run1009322-light.h5 tag-1490934246//
/work/sebastian/BT-20210625/1009322-light/run1009322-light.h5 tag-1490934248//
/work/sebastian/BT-20210625/1009322-light/run1009322-light.h5 tag-1490934254//
/work/sebastian/BT-20210625/1009322-light/run1009322-light.h5 tag-1490934264//
/work/sebastian/BT-20210625/1009322-light/run1009322-light.h5 tag-1490934266//
/work/sebastian/BT-20210625/1009322-light/run1009322-light.h5 tag-1490934270//
/work/sebastian/BT-20210625/1009322-light/run1009322-light.h5 tag-1490934272//
/work/sebastian/BT-20210625/1009322-light/run1009322-light.h5 tag-1490934274//
/work/sebastian/BT-20210625/1009322-light/run1009322-light.h5 tag-1490934280//
/work/sebastian/BT-20210625/1009322-light/run1009322-light.h5 tag-1490934284//
/work/sebastian/BT-20210625/1009322-light/run1009322-light.h5 tag-1490934286//
/work/sebastian/BT-20210625/1009322-light/run1009322-light.h5 tag-1490934288//
/work/sebastian/BT-20210625/1009322-light/run1009322-light.h5 tag-1490934300//
/work/sebastian/BT-20210625/1009322-light/run1009322-light.h5 tag-1490934302//
/work/sebastian/BT-20210625/1009322-light/run1009322-light.h5 tag-1490934316//
/work/sebastian/BT-20210625/1009322-light/run1009322-light.h5 tag-1490934326//
/work/sebastian/BT-20210625/1009322-light/run1009322-light.h5 tag-1490934330//
/work/sebastian/BT-20210625/1009322-light/run1009322-light.h5 tag-1490934336//
/work/sebastian/BT-20210625/1009322-light/run1009322-light.h5 tag-1490934344//
/work/sebastian/BT-20210625/1009322-light/run1009322-light.h5 tag-1490934350//
/work/sebastian/BT-20210625/1009322-light/run1009322-light.h5 tag-1490934352//
/work/sebastian/BT-20210625/1009322-light/run1009322-light.h5 tag-1490934356//
/work/sebastian/BT-20210625/1009322-light/run1009322-light.h5 tag-1490934358//
/work/sebastian/BT-20210625/1009322-light/run1009322-light.h5 tag-1490934364//
/work/sebastian/BT-20210625/1009322-light/run1009322-light.h5 tag-1490934370//
/work/sebastian/BT-20210625/1009322-light/run1009322-light.h5 tag-1490934376//
/work/sebastian/BT-20210625/1009322-light/run1009322-light.h5 tag-1490934378//
/work/sebastian/BT-20210625/1009322-light/run1009322-light.h5 tag-1490934380//
/work/sebastian/BT-20210625/1009322-light/run1009322-light.h5 tag-1490934384//
/work/sebastian/BT-20210625/1009322-light/run1009322-light.h5 tag-1490934388//
/work/sebastian/BT-20210625/1009322-light/run1009322-light.h5 tag-1490934390//
/work/sebastian/BT-20210625/1009322-light/run1009322-light.h5 tag-1490934404//
/work/sebastian/BT-20210625/1009322-light/run1009322-light.h5 tag-1490934406//
/work/sebastian/BT-20210625/1009322-light/run1009322-light.h5 tag-1490934408//
/work/sebastian/BT-20210625/1009322-light/run1009322-light.h5 tag-1490934416//
/work/sebastian/BT-20210625/1009322-light/run1009322-light.h5 tag-1490934430//
/work/sebastian/BT-20210625/1009322-light/run1009322-light.h5 tag-1490934432//
/work/sebastian/BT-20210625/1009322-light/run1009322-light.h5 tag-1490934434//
/work/sebastian/BT-20210625/1009322-light/run1009322-light.h5 tag-1490934442//
/work/sebastian/BT-20210625/1009322-light/run1009322-light.h5 tag-1490934448//
/work/sebastian/BT-20210625/1009322-light/run1009322-light.h5 tag-1490934456//
/work/sebastian/BT-20210625/1009322-light/run1009322-light.h5 tag-1490934462//
/work/sebastian/BT-20210625/1009322-light/run1009322-light.h5 tag-1490934470//
/work/sebastian/BT-20210625/1009322-light/run1009322-light.h5 tag-1490934488//
/work/sebastian/BT-20210625/1009322-light/run1009322-light.h5 tag-1490934492//
/work/sebastian/BT-20210625/1009322-light/run1009322-light.h5 tag-1490934500//
/work/sebastian/BT-20210625/1009322-light/run1009322-light.h5 tag-1490934506//
/work/sebastian/BT-20210625/1009322-light/run1009322-light.h5 tag-1490934508//
/work/sebastian/BT-20210625/1009322-light/run1009322-light.h5 tag-1490934512//
/work/sebastian/BT-20210625/1009322-light/run1009322-light.h5 tag-1490934514//
/work/sebastian/BT-20210625/1009322-light/run1009322-light.h5 tag-1490934520//
/work/sebastian/BT-20210625/1009322-light/run1009322-light.h5 tag-1490934522//
/work/sebastian/BT-20210625/1009322-light/run1009322-light.h5 tag-1490934526//
/work/sebastian/BT-20210625/1009322-light/run1009322-light.h5 tag-1490934528//
/work/sebastian/BT-20210625/1009322-light/run1009322-light.h5 tag-1490934530//
/work/sebastian/BT-20210625/1009322-light/run1009322-light.h5 tag-1490934532//
/work/sebastian/BT-20210625/1009322-light/run1009322-light.h5 tag-1490934534//
/work/sebastian/BT-20210625/1009322-light/run1009322-light.h5 tag-1490934542//
/work/sebastian/BT-20210625/1009322-light/run1009322-light.h5 tag-1490934552//
/work/sebastian/BT-20210625/1009322-light/run1009322-light.h5 tag-1490934558//
/work/sebastian/BT-20210625/1009322-light/run1009322-light.h5 tag-1490934562//
/work/sebastian/BT-20210625/1009322-light/run1009322-light.h5 tag-1490934564//
/work/sebastian/BT-20210625/1009322-light/run1009322-light.h5 tag-1490934566//
/work/sebastian/BT-20210625/1009322-light/run1009322-light.h5 tag-1490934574//
/work/sebastian/BT-20210625/1009322-light/run1009322-light.h5 tag-1490934580//
/work/sebastian/BT-20210625/1009322-light/run1009322-light.h5 tag-1490934588//
/work/sebastian/BT-20210625/1009322-light/run1009322-light.h5 tag-1490934592//
/work/sebastian/BT-20210625/1009322-light/run1009322-light.h5 tag-1490934594//
/work/sebastian/BT-20210625/1009322-light/run1009322-light.h5 tag-1490934596//
/work/sebastian/BT-20210625/1009322-light/run1009322-light.h5 tag-1490934604//
/work/sebastian/BT-20210625/1009322-light/run1009322-light.h5 tag-1490934610//
/work/sebastian/BT-20210625/1009322-light/run1009322-light.h5 tag-1490934614//
/work/sebastian/BT-20210625/1009322-light/run1009322-light.h5 tag-1490934618//
/work/sebastian/BT-20210625/1009322-light/run1009322-light.h5 tag-1490934632//
/work/sebastian/BT-20210625/1009322-light/run1009322-light.h5 tag-1490934636//
/work/sebastian/BT-20210625/1009322-light/run1009322-light.h5 tag-1490934638//
/work/sebastian/BT-20210625/1009322-light/run1009322-light.h5 tag-1490934642//
/work/sebastian/BT-20210625/1009322-light/run1009322-light.h5 tag-1490934644//
/work/sebastian/BT-20210625/1009322-light/run1009322-light.h5 tag-1490934656//
/work/sebastian/BT-20210625/1009322-light/run1009322-light.h5 tag-1490934658//
/work/sebastian/BT-20210625/1009322-light/run1009322-light.h5 tag-1490934660//
/work/sebastian/BT-20210625/1009322-light/run1009322-light.h5 tag-1490934664//
/work/sebastian/BT-20210625/1009322-light/run1009322-light.h5 tag-1490934670//
/work/sebastian/BT-20210625/1009322-light/run1009322-light.h5 tag-1490934672//
/work/sebastian/BT-20210625/1009322-light/run1009322-light.h5 tag-1490934676//
/work/sebastian/BT-20210625/1009322-light/run1009322-light.h5 tag-1490934684//
/work/sebastian/BT-20210625/1009322-light/run1009322-light.h5 tag-1490934688//
/work/sebastian/BT-20210625/1009322-light/run1009322-light.h5 tag-1490934692//
/work/sebastian/BT-20210625/1009322-light/run1009322-light.h5 tag-1490934702//
/work/sebastian/BT-20210625/1009322-light/run1009322-light.h5 tag-1490934704//
/work/sebastian/BT-20210625/1009322-light/run1009322-light.h5 tag-1490934706//
/work/sebastian/BT-20210625/1009322-light/run1009322-light.h5 tag-1490934710//
/work/sebastian/BT-20210625/1009322-light/run1009322-light.h5 tag-1490934712//
/work/sebastian/BT-20210625/1009322-light/run1009322-light.h5 tag-1490934718//
/work/sebastian/BT-20210625/1009322-light/run1009322-light.h5 tag-1490934724//
/work/sebastian/BT-20210625/1009322-light/run1009322-light.h5 tag-1490934732//
/work/sebastian/BT-20210625/1009322-light/run1009322-light.h5 tag-1490934734//
/work/sebastian/BT-20210625/1009322-light/run1009322-light.h5 tag-1490934742//
/work/sebastian/BT-20210625/1009322-light/run1009322-light.h5 tag-1490934746//
/work/sebastian/BT-20210625/1009322-light/run1009322-light.h5 tag-1490934748//
/work/sebastian/BT-20210625/1009322-light/run1009322-light.h5 tag-1490934750//
/work/sebastian/BT-20210625/1009322-light/run1009322-light.h5 tag-1490934754//
/work/sebastian/BT-20210625/1009322-light/run1009322-light.h5 tag-1490934760//
/work/sebastian/BT-20210625/1009322-light/run1009322-light.h5 tag-1490934764//
/work/sebastian/BT-20210625/1009322-light/run1009322-light.h5 tag-1490934766//
/work/sebastian/BT-20210625/1009322-light/run1009322-light.h5 tag-1490934772//
/work/sebastian/BT-20210625/1009322-light/run1009322-light.h5 tag-1490934776//
/work/sebastian/BT-20210625/1009322-light/run1009322-light.h5 tag-1490934792//
/work/sebastian/BT-20210625/1009322-light/run1009322-light.h5 tag-1490934806//
/work/sebastian/BT-20210625/1009322-light/run1009322-light.h5 tag-1490934810//
/work/sebastian/BT-20210625/1009322-light/run1009322-light.h5 tag-1490934814//
/work/sebastian/BT-20210625/1009322-light/run1009322-light.h5 tag-1490934824//
/work/sebastian/BT-20210625/1009322-light/run1009322-light.h5 tag-1490934826//
/work/sebastian/BT-20210625/1009322-light/run1009322-light.h5 tag-1490934828//
/work/sebastian/BT-20210625/1009322-light/run1009322-light.h5 tag-1490934830//
/work/sebastian/BT-20210625/1009322-light/run1009322-light.h5 tag-1490934838//
/work/sebastian/BT-20210625/1009322-light/run1009322-light.h5 tag-1490934840//
/work/sebastian/BT-20210625/1009322-light/run1009322-light.h5 tag-1490934842//
/work/sebastian/BT-20210625/1009322-light/run1009322-light.h5 tag-1490934844//
/work/sebastian/BT-20210625/1009322-light/run1009322-light.h5 tag-1490934848//
/work/sebastian/BT-20210625/1009322-light/run1009322-light.h5 tag-1490934850//
/work/sebastian/BT-20210625/1009322-light/run1009322-light.h5 tag-1490934858//
/work/sebastian/BT-20210625/1009322-light/run1009322-light.h5 tag-1490934860//
/work/sebastian/BT-20210625/1009322-light/run1009322-light.h5 tag-1490934864//
/work/sebastian/BT-20210625/1009322-light/run1009322-light.h5 tag-1490934870//
/work/sebastian/BT-20210625/1009322-light/run1009322-light.h5 tag-1490934872//
/work/sebastian/BT-20210625/1009322-light/run1009322-light.h5 tag-1490934882//
/work/sebastian/BT-20210625/1009322-light/run1009322-light.h5 tag-1490934888//
/work/sebastian/BT-20210625/1009322-light/run1009322-light.h5 tag-1490934896//
/work/sebastian/BT-20210625/1009322-light/run1009322-light.h5 tag-1490934900//
/work/sebastian/BT-20210625/1009322-light/run1009322-light.h5 tag-1490934908//
/work/sebastian/BT-20210625/1009322-light/run1009322-light.h5 tag-1490934912//
/work/sebastian/BT-20210625/1009322-light/run1009322-light.h5 tag-1490934914//
/work/sebastian/BT-20210625/1009322-light/run1009322-light.h5 tag-1490934916//
/work/sebastian/BT-20210625/1009322-light/run1009322-light.h5 tag-1490934918//
/work/sebastian/BT-20210625/1009322-light/run1009322-light.h5 tag-1490934920//
/work/sebastian/BT-20210625/1009322-light/run1009322-light.h5 tag-1490934922//
/work/sebastian/BT-20210625/1009322-light/run1009322-light.h5 tag-1490934926//
/work/sebastian/BT-20210625/1009322-light/run1009322-light.h5 tag-1490934940//
/work/sebastian/BT-20210625/1009322-light/run1009322-light.h5 tag-1490934942//
/work/sebastian/BT-20210625/1009322-light/run1009322-light.h5 tag-1490934948//
/work/sebastian/BT-20210625/1009322-light/run1009322-light.h5 tag-1490934950//
/work/sebastian/BT-20210625/1009322-light/run1009322-light.h5 tag-1490934952//
/work/sebastian/BT-20210625/1009322-light/run1009322-light.h5 tag-1490934954//
/work/sebastian/BT-20210625/1009322-light/run1009322-light.h5 tag-1490934962//
