/work/sebastian/BT-20210625/1009738-light/run1009738-light.h5 tag-1496333560//
/work/sebastian/BT-20210625/1009738-light/run1009738-light.h5 tag-1496333568//
/work/sebastian/BT-20210625/1009738-light/run1009738-light.h5 tag-1496333572//
/work/sebastian/BT-20210625/1009738-light/run1009738-light.h5 tag-1496333576//
/work/sebastian/BT-20210625/1009738-light/run1009738-light.h5 tag-1496333584//
/work/sebastian/BT-20210625/1009738-light/run1009738-light.h5 tag-1496333596//
/work/sebastian/BT-20210625/1009738-light/run1009738-light.h5 tag-1496333604//
/work/sebastian/BT-20210625/1009738-light/run1009738-light.h5 tag-1496333608//
/work/sebastian/BT-20210625/1009738-light/run1009738-light.h5 tag-1496333612//
/work/sebastian/BT-20210625/1009738-light/run1009738-light.h5 tag-1496333616//
/work/sebastian/BT-20210625/1009738-light/run1009738-light.h5 tag-1496333620//
/work/sebastian/BT-20210625/1009738-light/run1009738-light.h5 tag-1496333624//
/work/sebastian/BT-20210625/1009738-light/run1009738-light.h5 tag-1496333632//
/work/sebastian/BT-20210625/1009738-light/run1009738-light.h5 tag-1496333636//
/work/sebastian/BT-20210625/1009738-light/run1009738-light.h5 tag-1496333640//
/work/sebastian/BT-20210625/1009738-light/run1009738-light.h5 tag-1496333648//
/work/sebastian/BT-20210625/1009738-light/run1009738-light.h5 tag-1496333660//
/work/sebastian/BT-20210625/1009738-light/run1009738-light.h5 tag-1496333664//
/work/sebastian/BT-20210625/1009738-light/run1009738-light.h5 tag-1496333676//
/work/sebastian/BT-20210625/1009738-light/run1009738-light.h5 tag-1496333680//
/work/sebastian/BT-20210625/1009738-light/run1009738-light.h5 tag-1496333684//
/work/sebastian/BT-20210625/1009738-light/run1009738-light.h5 tag-1496333688//
/work/sebastian/BT-20210625/1009738-light/run1009738-light.h5 tag-1496333696//
/work/sebastian/BT-20210625/1009738-light/run1009738-light.h5 tag-1496333700//
/work/sebastian/BT-20210625/1009738-light/run1009738-light.h5 tag-1496333708//
/work/sebastian/BT-20210625/1009738-light/run1009738-light.h5 tag-1496333724//
/work/sebastian/BT-20210625/1009738-light/run1009738-light.h5 tag-1496333728//
/work/sebastian/BT-20210625/1009738-light/run1009738-light.h5 tag-1496333736//
/work/sebastian/BT-20210625/1009738-light/run1009738-light.h5 tag-1496333744//
/work/sebastian/BT-20210625/1009738-light/run1009738-light.h5 tag-1496333752//
/work/sebastian/BT-20210625/1009738-light/run1009738-light.h5 tag-1496333764//
/work/sebastian/BT-20210625/1009738-light/run1009738-light.h5 tag-1496333768//
/work/sebastian/BT-20210625/1009738-light/run1009738-light.h5 tag-1496333772//
/work/sebastian/BT-20210625/1009738-light/run1009738-light.h5 tag-1496333780//
/work/sebastian/BT-20210625/1009738-light/run1009738-light.h5 tag-1496333784//
/work/sebastian/BT-20210625/1009738-light/run1009738-light.h5 tag-1496333788//
/work/sebastian/BT-20210625/1009738-light/run1009738-light.h5 tag-1496333796//
/work/sebastian/BT-20210625/1009738-light/run1009738-light.h5 tag-1496333804//
/work/sebastian/BT-20210625/1009738-light/run1009738-light.h5 tag-1496333808//
/work/sebastian/BT-20210625/1009738-light/run1009738-light.h5 tag-1496333820//
/work/sebastian/BT-20210625/1009738-light/run1009738-light.h5 tag-1496333824//
/work/sebastian/BT-20210625/1009738-light/run1009738-light.h5 tag-1496333828//
/work/sebastian/BT-20210625/1009738-light/run1009738-light.h5 tag-1496333836//
/work/sebastian/BT-20210625/1009738-light/run1009738-light.h5 tag-1496333840//
/work/sebastian/BT-20210625/1009738-light/run1009738-light.h5 tag-1496333844//
/work/sebastian/BT-20210625/1009738-light/run1009738-light.h5 tag-1496333848//
/work/sebastian/BT-20210625/1009738-light/run1009738-light.h5 tag-1496333860//
/work/sebastian/BT-20210625/1009738-light/run1009738-light.h5 tag-1496333864//
/work/sebastian/BT-20210625/1009738-light/run1009738-light.h5 tag-1496333872//
/work/sebastian/BT-20210625/1009738-light/run1009738-light.h5 tag-1496333876//
/work/sebastian/BT-20210625/1009738-light/run1009738-light.h5 tag-1496333884//
/work/sebastian/BT-20210625/1009738-light/run1009738-light.h5 tag-1496333892//
/work/sebastian/BT-20210625/1009738-light/run1009738-light.h5 tag-1496333896//
/work/sebastian/BT-20210625/1009738-light/run1009738-light.h5 tag-1496333900//
/work/sebastian/BT-20210625/1009738-light/run1009738-light.h5 tag-1496333912//
/work/sebastian/BT-20210625/1009738-light/run1009738-light.h5 tag-1496333916//
/work/sebastian/BT-20210625/1009738-light/run1009738-light.h5 tag-1496333920//
/work/sebastian/BT-20210625/1009738-light/run1009738-light.h5 tag-1496333924//
/work/sebastian/BT-20210625/1009738-light/run1009738-light.h5 tag-1496333932//
/work/sebastian/BT-20210625/1009738-light/run1009738-light.h5 tag-1496333936//
/work/sebastian/BT-20210625/1009738-light/run1009738-light.h5 tag-1496333940//
/work/sebastian/BT-20210625/1009738-light/run1009738-light.h5 tag-1496333944//
/work/sebastian/BT-20210625/1009738-light/run1009738-light.h5 tag-1496333952//
/work/sebastian/BT-20210625/1009738-light/run1009738-light.h5 tag-1496333956//
/work/sebastian/BT-20210625/1009738-light/run1009738-light.h5 tag-1496333968//
/work/sebastian/BT-20210625/1009738-light/run1009738-light.h5 tag-1496333972//
/work/sebastian/BT-20210625/1009738-light/run1009738-light.h5 tag-1496333980//
/work/sebastian/BT-20210625/1009738-light/run1009738-light.h5 tag-1496333984//
/work/sebastian/BT-20210625/1009738-light/run1009738-light.h5 tag-1496333988//
/work/sebastian/BT-20210625/1009738-light/run1009738-light.h5 tag-1496334004//
/work/sebastian/BT-20210625/1009738-light/run1009738-light.h5 tag-1496334020//
/work/sebastian/BT-20210625/1009738-light/run1009738-light.h5 tag-1496334028//
/work/sebastian/BT-20210625/1009738-light/run1009738-light.h5 tag-1496334036//
/work/sebastian/BT-20210625/1009738-light/run1009738-light.h5 tag-1496334052//
/work/sebastian/BT-20210625/1009738-light/run1009738-light.h5 tag-1496334064//
/work/sebastian/BT-20210625/1009738-light/run1009738-light.h5 tag-1496334080//
/work/sebastian/BT-20210625/1009738-light/run1009738-light.h5 tag-1496334088//
/work/sebastian/BT-20210625/1009738-light/run1009738-light.h5 tag-1496334104//
/work/sebastian/BT-20210625/1009738-light/run1009738-light.h5 tag-1496334108//
/work/sebastian/BT-20210625/1009738-light/run1009738-light.h5 tag-1496334112//
/work/sebastian/BT-20210625/1009738-light/run1009738-light.h5 tag-1496334116//
/work/sebastian/BT-20210625/1009738-light/run1009738-light.h5 tag-1496334120//
/work/sebastian/BT-20210625/1009738-light/run1009738-light.h5 tag-1496334128//
/work/sebastian/BT-20210625/1009738-light/run1009738-light.h5 tag-1496334132//
/work/sebastian/BT-20210625/1009738-light/run1009738-light.h5 tag-1496334136//
/work/sebastian/BT-20210625/1009738-light/run1009738-light.h5 tag-1496334144//
/work/sebastian/BT-20210625/1009738-light/run1009738-light.h5 tag-1496334172//
/work/sebastian/BT-20210625/1009738-light/run1009738-light.h5 tag-1496334180//
/work/sebastian/BT-20210625/1009738-light/run1009738-light.h5 tag-1496334184//
/work/sebastian/BT-20210625/1009738-light/run1009738-light.h5 tag-1496334188//
/work/sebastian/BT-20210625/1009738-light/run1009738-light.h5 tag-1496334192//
/work/sebastian/BT-20210625/1009738-light/run1009738-light.h5 tag-1496334196//
/work/sebastian/BT-20210625/1009738-light/run1009738-light.h5 tag-1496334200//
/work/sebastian/BT-20210625/1009738-light/run1009738-light.h5 tag-1496334208//
/work/sebastian/BT-20210625/1009738-light/run1009738-light.h5 tag-1496334220//
/work/sebastian/BT-20210625/1009738-light/run1009738-light.h5 tag-1496334224//
/work/sebastian/BT-20210625/1009738-light/run1009738-light.h5 tag-1496334228//
/work/sebastian/BT-20210625/1009738-light/run1009738-light.h5 tag-1496334232//
/work/sebastian/BT-20210625/1009738-light/run1009738-light.h5 tag-1496334236//
/work/sebastian/BT-20210625/1009738-light/run1009738-light.h5 tag-1496334240//
/work/sebastian/BT-20210625/1009738-light/run1009738-light.h5 tag-1496334244//
/work/sebastian/BT-20210625/1009738-light/run1009738-light.h5 tag-1496334248//
/work/sebastian/BT-20210625/1009738-light/run1009738-light.h5 tag-1496334260//
/work/sebastian/BT-20210625/1009738-light/run1009738-light.h5 tag-1496334268//
/work/sebastian/BT-20210625/1009738-light/run1009738-light.h5 tag-1496334272//
/work/sebastian/BT-20210625/1009738-light/run1009738-light.h5 tag-1496334276//
/work/sebastian/BT-20210625/1009738-light/run1009738-light.h5 tag-1496334280//
/work/sebastian/BT-20210625/1009738-light/run1009738-light.h5 tag-1496334284//
/work/sebastian/BT-20210625/1009738-light/run1009738-light.h5 tag-1496334296//
/work/sebastian/BT-20210625/1009738-light/run1009738-light.h5 tag-1496334300//
/work/sebastian/BT-20210625/1009738-light/run1009738-light.h5 tag-1496334308//
/work/sebastian/BT-20210625/1009738-light/run1009738-light.h5 tag-1496334312//
/work/sebastian/BT-20210625/1009738-light/run1009738-light.h5 tag-1496334316//
/work/sebastian/BT-20210625/1009738-light/run1009738-light.h5 tag-1496334320//
/work/sebastian/BT-20210625/1009738-light/run1009738-light.h5 tag-1496334324//
/work/sebastian/BT-20210625/1009738-light/run1009738-light.h5 tag-1496334328//
/work/sebastian/BT-20210625/1009738-light/run1009738-light.h5 tag-1496334336//
/work/sebastian/BT-20210625/1009738-light/run1009738-light.h5 tag-1496334344//
/work/sebastian/BT-20210625/1009738-light/run1009738-light.h5 tag-1496334348//
/work/sebastian/BT-20210625/1009738-light/run1009738-light.h5 tag-1496334356//
/work/sebastian/BT-20210625/1009738-light/run1009738-light.h5 tag-1496334360//
/work/sebastian/BT-20210625/1009738-light/run1009738-light.h5 tag-1496334368//
/work/sebastian/BT-20210625/1009738-light/run1009738-light.h5 tag-1496334376//
/work/sebastian/BT-20210625/1009738-light/run1009738-light.h5 tag-1496334380//
/work/sebastian/BT-20210625/1009738-light/run1009738-light.h5 tag-1496334384//
/work/sebastian/BT-20210625/1009738-light/run1009738-light.h5 tag-1496334388//
/work/sebastian/BT-20210625/1009738-light/run1009738-light.h5 tag-1496334396//
/work/sebastian/BT-20210625/1009738-light/run1009738-light.h5 tag-1496334400//
/work/sebastian/BT-20210625/1009738-light/run1009738-light.h5 tag-1496334404//
/work/sebastian/BT-20210625/1009738-light/run1009738-light.h5 tag-1496334416//
/work/sebastian/BT-20210625/1009738-light/run1009738-light.h5 tag-1496334424//
/work/sebastian/BT-20210625/1009738-light/run1009738-light.h5 tag-1496334428//
/work/sebastian/BT-20210625/1009738-light/run1009738-light.h5 tag-1496334436//
/work/sebastian/BT-20210625/1009738-light/run1009738-light.h5 tag-1496334440//
/work/sebastian/BT-20210625/1009738-light/run1009738-light.h5 tag-1496334444//
/work/sebastian/BT-20210625/1009738-light/run1009738-light.h5 tag-1496334448//
/work/sebastian/BT-20210625/1009738-light/run1009738-light.h5 tag-1496334456//
/work/sebastian/BT-20210625/1009738-light/run1009738-light.h5 tag-1496334464//
/work/sebastian/BT-20210625/1009738-light/run1009738-light.h5 tag-1496334472//
/work/sebastian/BT-20210625/1009738-light/run1009738-light.h5 tag-1496334480//
/work/sebastian/BT-20210625/1009738-light/run1009738-light.h5 tag-1496334484//
/work/sebastian/BT-20210625/1009738-light/run1009738-light.h5 tag-1496334488//
/work/sebastian/BT-20210625/1009738-light/run1009738-light.h5 tag-1496334500//
/work/sebastian/BT-20210625/1009738-light/run1009738-light.h5 tag-1496334504//
/work/sebastian/BT-20210625/1009738-light/run1009738-light.h5 tag-1496334508//
/work/sebastian/BT-20210625/1009738-light/run1009738-light.h5 tag-1496334512//
/work/sebastian/BT-20210625/1009738-light/run1009738-light.h5 tag-1496334516//
/work/sebastian/BT-20210625/1009738-light/run1009738-light.h5 tag-1496334520//
/work/sebastian/BT-20210625/1009738-light/run1009738-light.h5 tag-1496334528//
/work/sebastian/BT-20210625/1009738-light/run1009738-light.h5 tag-1496334532//
/work/sebastian/BT-20210625/1009738-light/run1009738-light.h5 tag-1496334556//
/work/sebastian/BT-20210625/1009738-light/run1009738-light.h5 tag-1496334568//
/work/sebastian/BT-20210625/1009738-light/run1009738-light.h5 tag-1496334576//
/work/sebastian/BT-20210625/1009738-light/run1009738-light.h5 tag-1496334580//
/work/sebastian/BT-20210625/1009738-light/run1009738-light.h5 tag-1496334584//
/work/sebastian/BT-20210625/1009738-light/run1009738-light.h5 tag-1496334592//
/work/sebastian/BT-20210625/1009738-light/run1009738-light.h5 tag-1496334596//
/work/sebastian/BT-20210625/1009738-light/run1009738-light.h5 tag-1496334600//
/work/sebastian/BT-20210625/1009738-light/run1009738-light.h5 tag-1496334604//
/work/sebastian/BT-20210625/1009738-light/run1009738-light.h5 tag-1496334612//
/work/sebastian/BT-20210625/1009738-light/run1009738-light.h5 tag-1496334620//
/work/sebastian/BT-20210625/1009738-light/run1009738-light.h5 tag-1496334624//
/work/sebastian/BT-20210625/1009738-light/run1009738-light.h5 tag-1496334632//
/work/sebastian/BT-20210625/1009738-light/run1009738-light.h5 tag-1496334636//
/work/sebastian/BT-20210625/1009738-light/run1009738-light.h5 tag-1496334640//
/work/sebastian/BT-20210625/1009738-light/run1009738-light.h5 tag-1496334668//
/work/sebastian/BT-20210625/1009738-light/run1009738-light.h5 tag-1496334676//
/work/sebastian/BT-20210625/1009738-light/run1009738-light.h5 tag-1496334680//
/work/sebastian/BT-20210625/1009738-light/run1009738-light.h5 tag-1496334696//
/work/sebastian/BT-20210625/1009738-light/run1009738-light.h5 tag-1496334708//
/work/sebastian/BT-20210625/1009738-light/run1009738-light.h5 tag-1496334716//
/work/sebastian/BT-20210625/1009738-light/run1009738-light.h5 tag-1496334720//
/work/sebastian/BT-20210625/1009738-light/run1009738-light.h5 tag-1496334724//
/work/sebastian/BT-20210625/1009738-light/run1009738-light.h5 tag-1496334732//
/work/sebastian/BT-20210625/1009738-light/run1009738-light.h5 tag-1496334736//
/work/sebastian/BT-20210625/1009738-light/run1009738-light.h5 tag-1496334740//
/work/sebastian/BT-20210625/1009738-light/run1009738-light.h5 tag-1496334744//
/work/sebastian/BT-20210625/1009738-light/run1009738-light.h5 tag-1496334748//
/work/sebastian/BT-20210625/1009738-light/run1009738-light.h5 tag-1496334764//
/work/sebastian/BT-20210625/1009738-light/run1009738-light.h5 tag-1496334768//
/work/sebastian/BT-20210625/1009738-light/run1009738-light.h5 tag-1496334772//
/work/sebastian/BT-20210625/1009738-light/run1009738-light.h5 tag-1496334784//
/work/sebastian/BT-20210625/1009738-light/run1009738-light.h5 tag-1496334788//
/work/sebastian/BT-20210625/1009738-light/run1009738-light.h5 tag-1496334792//
/work/sebastian/BT-20210625/1009738-light/run1009738-light.h5 tag-1496334812//
/work/sebastian/BT-20210625/1009738-light/run1009738-light.h5 tag-1496334820//
/work/sebastian/BT-20210625/1009738-light/run1009738-light.h5 tag-1496334828//
/work/sebastian/BT-20210625/1009738-light/run1009738-light.h5 tag-1496334832//
/work/sebastian/BT-20210625/1009738-light/run1009738-light.h5 tag-1496334836//
/work/sebastian/BT-20210625/1009738-light/run1009738-light.h5 tag-1496334840//
/work/sebastian/BT-20210625/1009738-light/run1009738-light.h5 tag-1496334844//
/work/sebastian/BT-20210625/1009738-light/run1009738-light.h5 tag-1496334848//
/work/sebastian/BT-20210625/1009738-light/run1009738-light.h5 tag-1496334856//
/work/sebastian/BT-20210625/1009738-light/run1009738-light.h5 tag-1496334864//
/work/sebastian/BT-20210625/1009738-light/run1009738-light.h5 tag-1496334868//
/work/sebastian/BT-20210625/1009738-light/run1009738-light.h5 tag-1496334872//
/work/sebastian/BT-20210625/1009738-light/run1009738-light.h5 tag-1496334884//
/work/sebastian/BT-20210625/1009738-light/run1009738-light.h5 tag-1496334892//
/work/sebastian/BT-20210625/1009738-light/run1009738-light.h5 tag-1496334904//
/work/sebastian/BT-20210625/1009738-light/run1009738-light.h5 tag-1496334908//
/work/sebastian/BT-20210625/1009738-light/run1009738-light.h5 tag-1496334912//
/work/sebastian/BT-20210625/1009738-light/run1009738-light.h5 tag-1496334916//
/work/sebastian/BT-20210625/1009738-light/run1009738-light.h5 tag-1496334924//
/work/sebastian/BT-20210625/1009738-light/run1009738-light.h5 tag-1496334932//
/work/sebastian/BT-20210625/1009738-light/run1009738-light.h5 tag-1496334936//
/work/sebastian/BT-20210625/1009738-light/run1009738-light.h5 tag-1496334952//
/work/sebastian/BT-20210625/1009738-light/run1009738-light.h5 tag-1496334956//
/work/sebastian/BT-20210625/1009738-light/run1009738-light.h5 tag-1496334964//
/work/sebastian/BT-20210625/1009738-light/run1009738-light.h5 tag-1496334968//
/work/sebastian/BT-20210625/1009738-light/run1009738-light.h5 tag-1496334980//
/work/sebastian/BT-20210625/1009738-light/run1009738-light.h5 tag-1496334984//
/work/sebastian/BT-20210625/1009738-light/run1009738-light.h5 tag-1496334988//
/work/sebastian/BT-20210625/1009738-light/run1009738-light.h5 tag-1496334992//
/work/sebastian/BT-20210625/1009738-light/run1009738-light.h5 tag-1496335004//
/work/sebastian/BT-20210625/1009738-light/run1009738-light.h5 tag-1496335008//
/work/sebastian/BT-20210625/1009738-light/run1009738-light.h5 tag-1496335012//
/work/sebastian/BT-20210625/1009738-light/run1009738-light.h5 tag-1496335016//
/work/sebastian/BT-20210625/1009738-light/run1009738-light.h5 tag-1496335020//
/work/sebastian/BT-20210625/1009738-light/run1009738-light.h5 tag-1496335024//
/work/sebastian/BT-20210625/1009738-light/run1009738-light.h5 tag-1496335028//
/work/sebastian/BT-20210625/1009738-light/run1009738-light.h5 tag-1496335032//
/work/sebastian/BT-20210625/1009738-light/run1009738-light.h5 tag-1496335056//
/work/sebastian/BT-20210625/1009738-light/run1009738-light.h5 tag-1496335060//
/work/sebastian/BT-20210625/1009738-light/run1009738-light.h5 tag-1496335068//
/work/sebastian/BT-20210625/1009738-light/run1009738-light.h5 tag-1496335072//
/work/sebastian/BT-20210625/1009738-light/run1009738-light.h5 tag-1496335076//
/work/sebastian/BT-20210625/1009738-light/run1009738-light.h5 tag-1496335080//
/work/sebastian/BT-20210625/1009738-light/run1009738-light.h5 tag-1496335108//
/work/sebastian/BT-20210625/1009738-light/run1009738-light.h5 tag-1496335116//
/work/sebastian/BT-20210625/1009738-light/run1009738-light.h5 tag-1496335120//
/work/sebastian/BT-20210625/1009738-light/run1009738-light.h5 tag-1496335124//
/work/sebastian/BT-20210625/1009738-light/run1009738-light.h5 tag-1496335136//
/work/sebastian/BT-20210625/1009738-light/run1009738-light.h5 tag-1496335148//
/work/sebastian/BT-20210625/1009738-light/run1009738-light.h5 tag-1496335156//
/work/sebastian/BT-20210625/1009738-light/run1009738-light.h5 tag-1496335168//
/work/sebastian/BT-20210625/1009738-light/run1009738-light.h5 tag-1496335172//
/work/sebastian/BT-20210625/1009738-light/run1009738-light.h5 tag-1496335176//
/work/sebastian/BT-20210625/1009738-light/run1009738-light.h5 tag-1496335180//
/work/sebastian/BT-20210625/1009738-light/run1009738-light.h5 tag-1496335184//
/work/sebastian/BT-20210625/1009738-light/run1009738-light.h5 tag-1496335192//
/work/sebastian/BT-20210625/1009738-light/run1009738-light.h5 tag-1496335204//
/work/sebastian/BT-20210625/1009738-light/run1009738-light.h5 tag-1496335216//
/work/sebastian/BT-20210625/1009738-light/run1009738-light.h5 tag-1496335220//
/work/sebastian/BT-20210625/1009738-light/run1009738-light.h5 tag-1496335224//
/work/sebastian/BT-20210625/1009738-light/run1009738-light.h5 tag-1496335232//
/work/sebastian/BT-20210625/1009738-light/run1009738-light.h5 tag-1496335236//
/work/sebastian/BT-20210625/1009738-light/run1009738-light.h5 tag-1496335240//
/work/sebastian/BT-20210625/1009738-light/run1009738-light.h5 tag-1496335244//
/work/sebastian/BT-20210625/1009738-light/run1009738-light.h5 tag-1496335248//
/work/sebastian/BT-20210625/1009738-light/run1009738-light.h5 tag-1496335252//
/work/sebastian/BT-20210625/1009738-light/run1009738-light.h5 tag-1496335260//
/work/sebastian/BT-20210625/1009738-light/run1009738-light.h5 tag-1496335264//
/work/sebastian/BT-20210625/1009738-light/run1009738-light.h5 tag-1496335268//
/work/sebastian/BT-20210625/1009738-light/run1009738-light.h5 tag-1496335276//
/work/sebastian/BT-20210625/1009738-light/run1009738-light.h5 tag-1496335292//
/work/sebastian/BT-20210625/1009738-light/run1009738-light.h5 tag-1496335296//
/work/sebastian/BT-20210625/1009738-light/run1009738-light.h5 tag-1496335304//
/work/sebastian/BT-20210625/1009738-light/run1009738-light.h5 tag-1496335308//
/work/sebastian/BT-20210625/1009738-light/run1009738-light.h5 tag-1496335324//
/work/sebastian/BT-20210625/1009738-light/run1009738-light.h5 tag-1496335336//
/work/sebastian/BT-20210625/1009738-light/run1009738-light.h5 tag-1496335352//
/work/sebastian/BT-20210625/1009738-light/run1009738-light.h5 tag-1496335368//
/work/sebastian/BT-20210625/1009738-light/run1009738-light.h5 tag-1496335372//
/work/sebastian/BT-20210625/1009738-light/run1009738-light.h5 tag-1496335380//
/work/sebastian/BT-20210625/1009738-light/run1009738-light.h5 tag-1496335384//
/work/sebastian/BT-20210625/1009738-light/run1009738-light.h5 tag-1496335392//
/work/sebastian/BT-20210625/1009738-light/run1009738-light.h5 tag-1496335400//
/work/sebastian/BT-20210625/1009738-light/run1009738-light.h5 tag-1496335408//
/work/sebastian/BT-20210625/1009738-light/run1009738-light.h5 tag-1496335412//
/work/sebastian/BT-20210625/1009738-light/run1009738-light.h5 tag-1496335420//
/work/sebastian/BT-20210625/1009738-light/run1009738-light.h5 tag-1496335432//
/work/sebastian/BT-20210625/1009738-light/run1009738-light.h5 tag-1496335436//
/work/sebastian/BT-20210625/1009738-light/run1009738-light.h5 tag-1496335444//
/work/sebastian/BT-20210625/1009738-light/run1009738-light.h5 tag-1496335448//
/work/sebastian/BT-20210625/1009738-light/run1009738-light.h5 tag-1496335452//
/work/sebastian/BT-20210625/1009738-light/run1009738-light.h5 tag-1496335460//
/work/sebastian/BT-20210625/1009738-light/run1009738-light.h5 tag-1496335464//
/work/sebastian/BT-20210625/1009738-light/run1009738-light.h5 tag-1496335480//
/work/sebastian/BT-20210625/1009738-light/run1009738-light.h5 tag-1496335492//
/work/sebastian/BT-20210625/1009738-light/run1009738-light.h5 tag-1496335500//
/work/sebastian/BT-20210625/1009738-light/run1009738-light.h5 tag-1496335504//
/work/sebastian/BT-20210625/1009738-light/run1009738-light.h5 tag-1496335516//
/work/sebastian/BT-20210625/1009738-light/run1009738-light.h5 tag-1496335520//
/work/sebastian/BT-20210625/1009738-light/run1009738-light.h5 tag-1496335524//
/work/sebastian/BT-20210625/1009738-light/run1009738-light.h5 tag-1496335536//
/work/sebastian/BT-20210625/1009738-light/run1009738-light.h5 tag-1496335540//
/work/sebastian/BT-20210625/1009738-light/run1009738-light.h5 tag-1496335544//
/work/sebastian/BT-20210625/1009738-light/run1009738-light.h5 tag-1496335548//
/work/sebastian/BT-20210625/1009738-light/run1009738-light.h5 tag-1496335552//
/work/sebastian/BT-20210625/1009738-light/run1009738-light.h5 tag-1496335556//
/work/sebastian/BT-20210625/1009738-light/run1009738-light.h5 tag-1496335560//
/work/sebastian/BT-20210625/1009738-light/run1009738-light.h5 tag-1496335564//
/work/sebastian/BT-20210625/1009738-light/run1009738-light.h5 tag-1496335572//
/work/sebastian/BT-20210625/1009738-light/run1009738-light.h5 tag-1496335580//
/work/sebastian/BT-20210625/1009738-light/run1009738-light.h5 tag-1496335584//
/work/sebastian/BT-20210625/1009738-light/run1009738-light.h5 tag-1496335588//
/work/sebastian/BT-20210625/1009738-light/run1009738-light.h5 tag-1496335596//
/work/sebastian/BT-20210625/1009738-light/run1009738-light.h5 tag-1496335600//
/work/sebastian/BT-20210625/1009738-light/run1009738-light.h5 tag-1496335604//
/work/sebastian/BT-20210625/1009738-light/run1009738-light.h5 tag-1496335608//
/work/sebastian/BT-20210625/1009738-light/run1009738-light.h5 tag-1496335612//
/work/sebastian/BT-20210625/1009738-light/run1009738-light.h5 tag-1496335616//
/work/sebastian/BT-20210625/1009738-light/run1009738-light.h5 tag-1496335620//
/work/sebastian/BT-20210625/1009738-light/run1009738-light.h5 tag-1496335628//
/work/sebastian/BT-20210625/1009738-light/run1009738-light.h5 tag-1496335632//
/work/sebastian/BT-20210625/1009738-light/run1009738-light.h5 tag-1496335636//
/work/sebastian/BT-20210625/1009738-light/run1009738-light.h5 tag-1496335648//
/work/sebastian/BT-20210625/1009738-light/run1009738-light.h5 tag-1496335652//
/work/sebastian/BT-20210625/1009738-light/run1009738-light.h5 tag-1496335656//
/work/sebastian/BT-20210625/1009738-light/run1009738-light.h5 tag-1496335660//
/work/sebastian/BT-20210625/1009738-light/run1009738-light.h5 tag-1496335664//
/work/sebastian/BT-20210625/1009738-light/run1009738-light.h5 tag-1496335672//
/work/sebastian/BT-20210625/1009738-light/run1009738-light.h5 tag-1496335684//
/work/sebastian/BT-20210625/1009738-light/run1009738-light.h5 tag-1496335688//
/work/sebastian/BT-20210625/1009738-light/run1009738-light.h5 tag-1496335692//
/work/sebastian/BT-20210625/1009738-light/run1009738-light.h5 tag-1496335704//
/work/sebastian/BT-20210625/1009738-light/run1009738-light.h5 tag-1496335708//
/work/sebastian/BT-20210625/1009738-light/run1009738-light.h5 tag-1496335724//
/work/sebastian/BT-20210625/1009738-light/run1009738-light.h5 tag-1496335740//
/work/sebastian/BT-20210625/1009738-light/run1009738-light.h5 tag-1496335748//
/work/sebastian/BT-20210625/1009738-light/run1009738-light.h5 tag-1496335760//
/work/sebastian/BT-20210625/1009738-light/run1009738-light.h5 tag-1496335776//
/work/sebastian/BT-20210625/1009738-light/run1009738-light.h5 tag-1496335792//
/work/sebastian/BT-20210625/1009738-light/run1009738-light.h5 tag-1496335796//
/work/sebastian/BT-20210625/1009738-light/run1009738-light.h5 tag-1496335804//
/work/sebastian/BT-20210625/1009738-light/run1009738-light.h5 tag-1496335812//
/work/sebastian/BT-20210625/1009738-light/run1009738-light.h5 tag-1496335828//
/work/sebastian/BT-20210625/1009738-light/run1009738-light.h5 tag-1496335840//
/work/sebastian/BT-20210625/1009738-light/run1009738-light.h5 tag-1496335852//
/work/sebastian/BT-20210625/1009738-light/run1009738-light.h5 tag-1496335860//
/work/sebastian/BT-20210625/1009738-light/run1009738-light.h5 tag-1496335864//
/work/sebastian/BT-20210625/1009738-light/run1009738-light.h5 tag-1496335868//
/work/sebastian/BT-20210625/1009738-light/run1009738-light.h5 tag-1496335872//
/work/sebastian/BT-20210625/1009738-light/run1009738-light.h5 tag-1496335880//
/work/sebastian/BT-20210625/1009738-light/run1009738-light.h5 tag-1496335888//
/work/sebastian/BT-20210625/1009738-light/run1009738-light.h5 tag-1496335896//
/work/sebastian/BT-20210625/1009738-light/run1009738-light.h5 tag-1496335900//
/work/sebastian/BT-20210625/1009738-light/run1009738-light.h5 tag-1496335904//
/work/sebastian/BT-20210625/1009738-light/run1009738-light.h5 tag-1496335908//
/work/sebastian/BT-20210625/1009738-light/run1009738-light.h5 tag-1496335916//
/work/sebastian/BT-20210625/1009738-light/run1009738-light.h5 tag-1496335920//
/work/sebastian/BT-20210625/1009738-light/run1009738-light.h5 tag-1496335924//
/work/sebastian/BT-20210625/1009738-light/run1009738-light.h5 tag-1496335956//
/work/sebastian/BT-20210625/1009738-light/run1009738-light.h5 tag-1496335960//
/work/sebastian/BT-20210625/1009738-light/run1009738-light.h5 tag-1496335964//
/work/sebastian/BT-20210625/1009738-light/run1009738-light.h5 tag-1496335976//
/work/sebastian/BT-20210625/1009738-light/run1009738-light.h5 tag-1496335984//
/work/sebastian/BT-20210625/1009738-light/run1009738-light.h5 tag-1496335988//
/work/sebastian/BT-20210625/1009738-light/run1009738-light.h5 tag-1496335992//
/work/sebastian/BT-20210625/1009738-light/run1009738-light.h5 tag-1496335996//
/work/sebastian/BT-20210625/1009738-light/run1009738-light.h5 tag-1496336000//
/work/sebastian/BT-20210625/1009738-light/run1009738-light.h5 tag-1496336004//
/work/sebastian/BT-20210625/1009738-light/run1009738-light.h5 tag-1496336012//
/work/sebastian/BT-20210625/1009738-light/run1009738-light.h5 tag-1496336016//
/work/sebastian/BT-20210625/1009738-light/run1009738-light.h5 tag-1496336020//
/work/sebastian/BT-20210625/1009738-light/run1009738-light.h5 tag-1496336024//
/work/sebastian/BT-20210625/1009738-light/run1009738-light.h5 tag-1496336028//
/work/sebastian/BT-20210625/1009738-light/run1009738-light.h5 tag-1496336032//
/work/sebastian/BT-20210625/1009738-light/run1009738-light.h5 tag-1496336036//
/work/sebastian/BT-20210625/1009738-light/run1009738-light.h5 tag-1496336040//
/work/sebastian/BT-20210625/1009738-light/run1009738-light.h5 tag-1496336044//
/work/sebastian/BT-20210625/1009738-light/run1009738-light.h5 tag-1496336052//
/work/sebastian/BT-20210625/1009738-light/run1009738-light.h5 tag-1496336060//
/work/sebastian/BT-20210625/1009738-light/run1009738-light.h5 tag-1496336064//
/work/sebastian/BT-20210625/1009738-light/run1009738-light.h5 tag-1496336072//
/work/sebastian/BT-20210625/1009738-light/run1009738-light.h5 tag-1496336084//
/work/sebastian/BT-20210625/1009738-light/run1009738-light.h5 tag-1496336088//
/work/sebastian/BT-20210625/1009738-light/run1009738-light.h5 tag-1496336092//
/work/sebastian/BT-20210625/1009738-light/run1009738-light.h5 tag-1496336100//
/work/sebastian/BT-20210625/1009738-light/run1009738-light.h5 tag-1496336112//
/work/sebastian/BT-20210625/1009738-light/run1009738-light.h5 tag-1496336116//
/work/sebastian/BT-20210625/1009738-light/run1009738-light.h5 tag-1496336120//
/work/sebastian/BT-20210625/1009738-light/run1009738-light.h5 tag-1496336132//
/work/sebastian/BT-20210625/1009738-light/run1009738-light.h5 tag-1496336140//
/work/sebastian/BT-20210625/1009738-light/run1009738-light.h5 tag-1496336144//
/work/sebastian/BT-20210625/1009738-light/run1009738-light.h5 tag-1496336148//
/work/sebastian/BT-20210625/1009738-light/run1009738-light.h5 tag-1496336156//
/work/sebastian/BT-20210625/1009738-light/run1009738-light.h5 tag-1496336160//
/work/sebastian/BT-20210625/1009738-light/run1009738-light.h5 tag-1496336164//
/work/sebastian/BT-20210625/1009738-light/run1009738-light.h5 tag-1496336168//
/work/sebastian/BT-20210625/1009738-light/run1009738-light.h5 tag-1496336172//
/work/sebastian/BT-20210625/1009738-light/run1009738-light.h5 tag-1496336176//
/work/sebastian/BT-20210625/1009738-light/run1009738-light.h5 tag-1496336180//
/work/sebastian/BT-20210625/1009738-light/run1009738-light.h5 tag-1496336184//
/work/sebastian/BT-20210625/1009738-light/run1009738-light.h5 tag-1496336188//
/work/sebastian/BT-20210625/1009738-light/run1009738-light.h5 tag-1496336192//
/work/sebastian/BT-20210625/1009738-light/run1009738-light.h5 tag-1496336196//
/work/sebastian/BT-20210625/1009738-light/run1009738-light.h5 tag-1496336208//
/work/sebastian/BT-20210625/1009738-light/run1009738-light.h5 tag-1496336212//
/work/sebastian/BT-20210625/1009738-light/run1009738-light.h5 tag-1496336228//
/work/sebastian/BT-20210625/1009738-light/run1009738-light.h5 tag-1496336232//
/work/sebastian/BT-20210625/1009738-light/run1009738-light.h5 tag-1496336236//
/work/sebastian/BT-20210625/1009738-light/run1009738-light.h5 tag-1496336240//
/work/sebastian/BT-20210625/1009738-light/run1009738-light.h5 tag-1496336248//
/work/sebastian/BT-20210625/1009738-light/run1009738-light.h5 tag-1496336252//
/work/sebastian/BT-20210625/1009738-light/run1009738-light.h5 tag-1496336256//
/work/sebastian/BT-20210625/1009738-light/run1009738-light.h5 tag-1496336264//
/work/sebastian/BT-20210625/1009738-light/run1009738-light.h5 tag-1496336268//
/work/sebastian/BT-20210625/1009738-light/run1009738-light.h5 tag-1496336276//
/work/sebastian/BT-20210625/1009738-light/run1009738-light.h5 tag-1496336284//
/work/sebastian/BT-20210625/1009738-light/run1009738-light.h5 tag-1496336288//
/work/sebastian/BT-20210625/1009738-light/run1009738-light.h5 tag-1496336296//
/work/sebastian/BT-20210625/1009738-light/run1009738-light.h5 tag-1496336320//
/work/sebastian/BT-20210625/1009738-light/run1009738-light.h5 tag-1496336340//
/work/sebastian/BT-20210625/1009738-light/run1009738-light.h5 tag-1496336352//
/work/sebastian/BT-20210625/1009738-light/run1009738-light.h5 tag-1496336356//
/work/sebastian/BT-20210625/1009738-light/run1009738-light.h5 tag-1496336360//
/work/sebastian/BT-20210625/1009738-light/run1009738-light.h5 tag-1496336368//
/work/sebastian/BT-20210625/1009738-light/run1009738-light.h5 tag-1496336376//
/work/sebastian/BT-20210625/1009738-light/run1009738-light.h5 tag-1496336384//
/work/sebastian/BT-20210625/1009738-light/run1009738-light.h5 tag-1496336388//
/work/sebastian/BT-20210625/1009738-light/run1009738-light.h5 tag-1496336404//
/work/sebastian/BT-20210625/1009738-light/run1009738-light.h5 tag-1496336416//
/work/sebastian/BT-20210625/1009738-light/run1009738-light.h5 tag-1496336420//
/work/sebastian/BT-20210625/1009738-light/run1009738-light.h5 tag-1496336424//
/work/sebastian/BT-20210625/1009738-light/run1009738-light.h5 tag-1496336428//
/work/sebastian/BT-20210625/1009738-light/run1009738-light.h5 tag-1496336432//
/work/sebastian/BT-20210625/1009738-light/run1009738-light.h5 tag-1496336436//
/work/sebastian/BT-20210625/1009738-light/run1009738-light.h5 tag-1496336440//
/work/sebastian/BT-20210625/1009738-light/run1009738-light.h5 tag-1496336456//
/work/sebastian/BT-20210625/1009738-light/run1009738-light.h5 tag-1496336464//
/work/sebastian/BT-20210625/1009738-light/run1009738-light.h5 tag-1496336468//
/work/sebastian/BT-20210625/1009738-light/run1009738-light.h5 tag-1496336480//
/work/sebastian/BT-20210625/1009738-light/run1009738-light.h5 tag-1496336484//
/work/sebastian/BT-20210625/1009738-light/run1009738-light.h5 tag-1496336492//
/work/sebastian/BT-20210625/1009738-light/run1009738-light.h5 tag-1496336504//
/work/sebastian/BT-20210625/1009738-light/run1009738-light.h5 tag-1496336512//
/work/sebastian/BT-20210625/1009738-light/run1009738-light.h5 tag-1496336520//
/work/sebastian/BT-20210625/1009738-light/run1009738-light.h5 tag-1496336528//
/work/sebastian/BT-20210625/1009738-light/run1009738-light.h5 tag-1496336532//
/work/sebastian/BT-20210625/1009738-light/run1009738-light.h5 tag-1496336536//
/work/sebastian/BT-20210625/1009738-light/run1009738-light.h5 tag-1496336552//
/work/sebastian/BT-20210625/1009738-light/run1009738-light.h5 tag-1496336564//
/work/sebastian/BT-20210625/1009738-light/run1009738-light.h5 tag-1496336568//
/work/sebastian/BT-20210625/1009738-light/run1009738-light.h5 tag-1496336572//
/work/sebastian/BT-20210625/1009738-light/run1009738-light.h5 tag-1496336580//
/work/sebastian/BT-20210625/1009738-light/run1009738-light.h5 tag-1496336588//
/work/sebastian/BT-20210625/1009738-light/run1009738-light.h5 tag-1496336592//
/work/sebastian/BT-20210625/1009738-light/run1009738-light.h5 tag-1496336596//
/work/sebastian/BT-20210625/1009738-light/run1009738-light.h5 tag-1496336608//
/work/sebastian/BT-20210625/1009738-light/run1009738-light.h5 tag-1496336612//
/work/sebastian/BT-20210625/1009738-light/run1009738-light.h5 tag-1496336620//
/work/sebastian/BT-20210625/1009738-light/run1009738-light.h5 tag-1496336624//
/work/sebastian/BT-20210625/1009738-light/run1009738-light.h5 tag-1496336628//
/work/sebastian/BT-20210625/1009738-light/run1009738-light.h5 tag-1496336636//
/work/sebastian/BT-20210625/1009738-light/run1009738-light.h5 tag-1496336644//
/work/sebastian/BT-20210625/1009738-light/run1009738-light.h5 tag-1496336648//
/work/sebastian/BT-20210625/1009738-light/run1009738-light.h5 tag-1496336656//
/work/sebastian/BT-20210625/1009738-light/run1009738-light.h5 tag-1496336668//
/work/sebastian/BT-20210625/1009738-light/run1009738-light.h5 tag-1496336672//
/work/sebastian/BT-20210625/1009738-light/run1009738-light.h5 tag-1496336676//
/work/sebastian/BT-20210625/1009738-light/run1009738-light.h5 tag-1496336684//
/work/sebastian/BT-20210625/1009738-light/run1009738-light.h5 tag-1496336688//
/work/sebastian/BT-20210625/1009738-light/run1009738-light.h5 tag-1496336696//
/work/sebastian/BT-20210625/1009738-light/run1009738-light.h5 tag-1496336700//
/work/sebastian/BT-20210625/1009738-light/run1009738-light.h5 tag-1496336704//
/work/sebastian/BT-20210625/1009738-light/run1009738-light.h5 tag-1496336708//
/work/sebastian/BT-20210625/1009738-light/run1009738-light.h5 tag-1496336712//
/work/sebastian/BT-20210625/1009738-light/run1009738-light.h5 tag-1496336716//
/work/sebastian/BT-20210625/1009738-light/run1009738-light.h5 tag-1496336720//
/work/sebastian/BT-20210625/1009738-light/run1009738-light.h5 tag-1496336732//
/work/sebastian/BT-20210625/1009738-light/run1009738-light.h5 tag-1496336736//
/work/sebastian/BT-20210625/1009738-light/run1009738-light.h5 tag-1496336752//
/work/sebastian/BT-20210625/1009738-light/run1009738-light.h5 tag-1496336760//
/work/sebastian/BT-20210625/1009738-light/run1009738-light.h5 tag-1496336764//
/work/sebastian/BT-20210625/1009738-light/run1009738-light.h5 tag-1496336772//
/work/sebastian/BT-20210625/1009738-light/run1009738-light.h5 tag-1496336776//
/work/sebastian/BT-20210625/1009738-light/run1009738-light.h5 tag-1496336784//
/work/sebastian/BT-20210625/1009738-light/run1009738-light.h5 tag-1496336788//
/work/sebastian/BT-20210625/1009738-light/run1009738-light.h5 tag-1496336792//
/work/sebastian/BT-20210625/1009738-light/run1009738-light.h5 tag-1496336796//
/work/sebastian/BT-20210625/1009738-light/run1009738-light.h5 tag-1496336804//
/work/sebastian/BT-20210625/1009738-light/run1009738-light.h5 tag-1496336808//
/work/sebastian/BT-20210625/1009738-light/run1009738-light.h5 tag-1496336812//
/work/sebastian/BT-20210625/1009738-light/run1009738-light.h5 tag-1496336824//
/work/sebastian/BT-20210625/1009738-light/run1009738-light.h5 tag-1496336836//
/work/sebastian/BT-20210625/1009738-light/run1009738-light.h5 tag-1496336840//
/work/sebastian/BT-20210625/1009738-light/run1009738-light.h5 tag-1496336844//
/work/sebastian/BT-20210625/1009738-light/run1009738-light.h5 tag-1496336848//
/work/sebastian/BT-20210625/1009738-light/run1009738-light.h5 tag-1496336856//
/work/sebastian/BT-20210625/1009738-light/run1009738-light.h5 tag-1496336864//
/work/sebastian/BT-20210625/1009738-light/run1009738-light.h5 tag-1496336868//
/work/sebastian/BT-20210625/1009738-light/run1009738-light.h5 tag-1496336872//
/work/sebastian/BT-20210625/1009738-light/run1009738-light.h5 tag-1496336888//
/work/sebastian/BT-20210625/1009738-light/run1009738-light.h5 tag-1496336892//
/work/sebastian/BT-20210625/1009738-light/run1009738-light.h5 tag-1496336900//
/work/sebastian/BT-20210625/1009738-light/run1009738-light.h5 tag-1496336904//
/work/sebastian/BT-20210625/1009738-light/run1009738-light.h5 tag-1496336912//
/work/sebastian/BT-20210625/1009738-light/run1009738-light.h5 tag-1496336932//
/work/sebastian/BT-20210625/1009738-light/run1009738-light.h5 tag-1496336936//
/work/sebastian/BT-20210625/1009738-light/run1009738-light.h5 tag-1496336952//
/work/sebastian/BT-20210625/1009738-light/run1009738-light.h5 tag-1496336964//
/work/sebastian/BT-20210625/1009738-light/run1009738-light.h5 tag-1496336972//
/work/sebastian/BT-20210625/1009738-light/run1009738-light.h5 tag-1496336980//
/work/sebastian/BT-20210625/1009738-light/run1009738-light.h5 tag-1496336988//
/work/sebastian/BT-20210625/1009738-light/run1009738-light.h5 tag-1496336992//
/work/sebastian/BT-20210625/1009738-light/run1009738-light.h5 tag-1496336996//
/work/sebastian/BT-20210625/1009738-light/run1009738-light.h5 tag-1496337000//
/work/sebastian/BT-20210625/1009738-light/run1009738-light.h5 tag-1496337012//
/work/sebastian/BT-20210625/1009738-light/run1009738-light.h5 tag-1496337036//
/work/sebastian/BT-20210625/1009738-light/run1009738-light.h5 tag-1496337052//
/work/sebastian/BT-20210625/1009738-light/run1009738-light.h5 tag-1496337056//
/work/sebastian/BT-20210625/1009738-light/run1009738-light.h5 tag-1496337060//
/work/sebastian/BT-20210625/1009738-light/run1009738-light.h5 tag-1496337064//
/work/sebastian/BT-20210625/1009738-light/run1009738-light.h5 tag-1496337068//
/work/sebastian/BT-20210625/1009738-light/run1009738-light.h5 tag-1496337076//
/work/sebastian/BT-20210625/1009738-light/run1009738-light.h5 tag-1496337084//
/work/sebastian/BT-20210625/1009738-light/run1009738-light.h5 tag-1496337092//
/work/sebastian/BT-20210625/1009738-light/run1009738-light.h5 tag-1496337096//
/work/sebastian/BT-20210625/1009738-light/run1009738-light.h5 tag-1496337124//
/work/sebastian/BT-20210625/1009738-light/run1009738-light.h5 tag-1496337128//
/work/sebastian/BT-20210625/1009738-light/run1009738-light.h5 tag-1496337132//
/work/sebastian/BT-20210625/1009738-light/run1009738-light.h5 tag-1496337148//
/work/sebastian/BT-20210625/1009738-light/run1009738-light.h5 tag-1496337164//
/work/sebastian/BT-20210625/1009738-light/run1009738-light.h5 tag-1496337172//
/work/sebastian/BT-20210625/1009738-light/run1009738-light.h5 tag-1496337176//
/work/sebastian/BT-20210625/1009738-light/run1009738-light.h5 tag-1496337200//
/work/sebastian/BT-20210625/1009738-light/run1009738-light.h5 tag-1496337212//
/work/sebastian/BT-20210625/1009738-light/run1009738-light.h5 tag-1496337220//
/work/sebastian/BT-20210625/1009738-light/run1009738-light.h5 tag-1496337228//
/work/sebastian/BT-20210625/1009738-light/run1009738-light.h5 tag-1496337232//
/work/sebastian/BT-20210625/1009738-light/run1009738-light.h5 tag-1496337236//
/work/sebastian/BT-20210625/1009738-light/run1009738-light.h5 tag-1496337240//
/work/sebastian/BT-20210625/1009738-light/run1009738-light.h5 tag-1496337244//
/work/sebastian/BT-20210625/1009738-light/run1009738-light.h5 tag-1496337260//
/work/sebastian/BT-20210625/1009738-light/run1009738-light.h5 tag-1496337264//
/work/sebastian/BT-20210625/1009738-light/run1009738-light.h5 tag-1496337268//
/work/sebastian/BT-20210625/1009738-light/run1009738-light.h5 tag-1496337272//
/work/sebastian/BT-20210625/1009738-light/run1009738-light.h5 tag-1496337280//
/work/sebastian/BT-20210625/1009738-light/run1009738-light.h5 tag-1496337288//
/work/sebastian/BT-20210625/1009738-light/run1009738-light.h5 tag-1496337296//
/work/sebastian/BT-20210625/1009738-light/run1009738-light.h5 tag-1496337300//
/work/sebastian/BT-20210625/1009738-light/run1009738-light.h5 tag-1496337304//
/work/sebastian/BT-20210625/1009738-light/run1009738-light.h5 tag-1496337308//
/work/sebastian/BT-20210625/1009738-light/run1009738-light.h5 tag-1496337312//
/work/sebastian/BT-20210625/1009738-light/run1009738-light.h5 tag-1496337316//
/work/sebastian/BT-20210625/1009738-light/run1009738-light.h5 tag-1496337320//
/work/sebastian/BT-20210625/1009738-light/run1009738-light.h5 tag-1496337324//
/work/sebastian/BT-20210625/1009738-light/run1009738-light.h5 tag-1496337352//
/work/sebastian/BT-20210625/1009738-light/run1009738-light.h5 tag-1496337356//
/work/sebastian/BT-20210625/1009738-light/run1009738-light.h5 tag-1496337360//
/work/sebastian/BT-20210625/1009738-light/run1009738-light.h5 tag-1496337388//
/work/sebastian/BT-20210625/1009738-light/run1009738-light.h5 tag-1496337396//
/work/sebastian/BT-20210625/1009738-light/run1009738-light.h5 tag-1496337404//
/work/sebastian/BT-20210625/1009738-light/run1009738-light.h5 tag-1496337408//
/work/sebastian/BT-20210625/1009738-light/run1009738-light.h5 tag-1496337412//
/work/sebastian/BT-20210625/1009738-light/run1009738-light.h5 tag-1496337416//
/work/sebastian/BT-20210625/1009738-light/run1009738-light.h5 tag-1496337420//
/work/sebastian/BT-20210625/1009738-light/run1009738-light.h5 tag-1496337428//
/work/sebastian/BT-20210625/1009738-light/run1009738-light.h5 tag-1496337432//
/work/sebastian/BT-20210625/1009738-light/run1009738-light.h5 tag-1496337436//
/work/sebastian/BT-20210625/1009738-light/run1009738-light.h5 tag-1496337440//
/work/sebastian/BT-20210625/1009738-light/run1009738-light.h5 tag-1496337448//
/work/sebastian/BT-20210625/1009738-light/run1009738-light.h5 tag-1496337456//
/work/sebastian/BT-20210625/1009738-light/run1009738-light.h5 tag-1496337488//
/work/sebastian/BT-20210625/1009738-light/run1009738-light.h5 tag-1496337500//
/work/sebastian/BT-20210625/1009738-light/run1009738-light.h5 tag-1496337504//
/work/sebastian/BT-20210625/1009738-light/run1009738-light.h5 tag-1496337512//
/work/sebastian/BT-20210625/1009738-light/run1009738-light.h5 tag-1496337520//
/work/sebastian/BT-20210625/1009738-light/run1009738-light.h5 tag-1496337524//
/work/sebastian/BT-20210625/1009738-light/run1009738-light.h5 tag-1496337528//
/work/sebastian/BT-20210625/1009738-light/run1009738-light.h5 tag-1496337540//
/work/sebastian/BT-20210625/1009738-light/run1009738-light.h5 tag-1496337544//
/work/sebastian/BT-20210625/1009738-light/run1009738-light.h5 tag-1496337548//
/work/sebastian/BT-20210625/1009738-light/run1009738-light.h5 tag-1496337556//
/work/sebastian/BT-20210625/1009738-light/run1009738-light.h5 tag-1496337560//
/work/sebastian/BT-20210625/1009738-light/run1009738-light.h5 tag-1496337564//
/work/sebastian/BT-20210625/1009738-light/run1009738-light.h5 tag-1496337576//
/work/sebastian/BT-20210625/1009738-light/run1009738-light.h5 tag-1496337580//
/work/sebastian/BT-20210625/1009738-light/run1009738-light.h5 tag-1496337588//
/work/sebastian/BT-20210625/1009738-light/run1009738-light.h5 tag-1496337592//
/work/sebastian/BT-20210625/1009738-light/run1009738-light.h5 tag-1496337596//
/work/sebastian/BT-20210625/1009738-light/run1009738-light.h5 tag-1496337604//
/work/sebastian/BT-20210625/1009738-light/run1009738-light.h5 tag-1496337608//
/work/sebastian/BT-20210625/1009738-light/run1009738-light.h5 tag-1496337612//
/work/sebastian/BT-20210625/1009738-light/run1009738-light.h5 tag-1496337620//
/work/sebastian/BT-20210625/1009738-light/run1009738-light.h5 tag-1496337624//
/work/sebastian/BT-20210625/1009738-light/run1009738-light.h5 tag-1496337628//
/work/sebastian/BT-20210625/1009738-light/run1009738-light.h5 tag-1496337632//
/work/sebastian/BT-20210625/1009738-light/run1009738-light.h5 tag-1496337636//
/work/sebastian/BT-20210625/1009738-light/run1009738-light.h5 tag-1496337640//
/work/sebastian/BT-20210625/1009738-light/run1009738-light.h5 tag-1496337644//
/work/sebastian/BT-20210625/1009738-light/run1009738-light.h5 tag-1496337648//
/work/sebastian/BT-20210625/1009738-light/run1009738-light.h5 tag-1496337652//
/work/sebastian/BT-20210625/1009738-light/run1009738-light.h5 tag-1496337660//
/work/sebastian/BT-20210625/1009738-light/run1009738-light.h5 tag-1496337664//
/work/sebastian/BT-20210625/1009738-light/run1009738-light.h5 tag-1496337696//
/work/sebastian/BT-20210625/1009738-light/run1009738-light.h5 tag-1496337704//
/work/sebastian/BT-20210625/1009738-light/run1009738-light.h5 tag-1496337708//
/work/sebastian/BT-20210625/1009738-light/run1009738-light.h5 tag-1496337716//
/work/sebastian/BT-20210625/1009738-light/run1009738-light.h5 tag-1496337724//
/work/sebastian/BT-20210625/1009738-light/run1009738-light.h5 tag-1496337740//
/work/sebastian/BT-20210625/1009738-light/run1009738-light.h5 tag-1496337744//
/work/sebastian/BT-20210625/1009738-light/run1009738-light.h5 tag-1496337752//
/work/sebastian/BT-20210625/1009738-light/run1009738-light.h5 tag-1496337760//
/work/sebastian/BT-20210625/1009738-light/run1009738-light.h5 tag-1496337764//
/work/sebastian/BT-20210625/1009738-light/run1009738-light.h5 tag-1496337768//
/work/sebastian/BT-20210625/1009738-light/run1009738-light.h5 tag-1496337788//
/work/sebastian/BT-20210625/1009738-light/run1009738-light.h5 tag-1496337792//
/work/sebastian/BT-20210625/1009738-light/run1009738-light.h5 tag-1496337796//
/work/sebastian/BT-20210625/1009738-light/run1009738-light.h5 tag-1496337804//
/work/sebastian/BT-20210625/1009738-light/run1009738-light.h5 tag-1496337808//
/work/sebastian/BT-20210625/1009738-light/run1009738-light.h5 tag-1496337828//
/work/sebastian/BT-20210625/1009738-light/run1009738-light.h5 tag-1496337840//
/work/sebastian/BT-20210625/1009738-light/run1009738-light.h5 tag-1496337848//
/work/sebastian/BT-20210625/1009738-light/run1009738-light.h5 tag-1496337852//
/work/sebastian/BT-20210625/1009738-light/run1009738-light.h5 tag-1496337856//
/work/sebastian/BT-20210625/1009738-light/run1009738-light.h5 tag-1496337860//
/work/sebastian/BT-20210625/1009738-light/run1009738-light.h5 tag-1496337864//
/work/sebastian/BT-20210625/1009738-light/run1009738-light.h5 tag-1496337868//
/work/sebastian/BT-20210625/1009738-light/run1009738-light.h5 tag-1496337876//
/work/sebastian/BT-20210625/1009738-light/run1009738-light.h5 tag-1496337884//
/work/sebastian/BT-20210625/1009738-light/run1009738-light.h5 tag-1496337892//
/work/sebastian/BT-20210625/1009738-light/run1009738-light.h5 tag-1496337896//
/work/sebastian/BT-20210625/1009738-light/run1009738-light.h5 tag-1496337904//
/work/sebastian/BT-20210625/1009738-light/run1009738-light.h5 tag-1496337912//
/work/sebastian/BT-20210625/1009738-light/run1009738-light.h5 tag-1496337924//
/work/sebastian/BT-20210625/1009738-light/run1009738-light.h5 tag-1496337932//
/work/sebastian/BT-20210625/1009738-light/run1009738-light.h5 tag-1496337944//
/work/sebastian/BT-20210625/1009738-light/run1009738-light.h5 tag-1496337948//
/work/sebastian/BT-20210625/1009738-light/run1009738-light.h5 tag-1496337952//
/work/sebastian/BT-20210625/1009738-light/run1009738-light.h5 tag-1496337956//
/work/sebastian/BT-20210625/1009738-light/run1009738-light.h5 tag-1496337960//
/work/sebastian/BT-20210625/1009738-light/run1009738-light.h5 tag-1496337972//
/work/sebastian/BT-20210625/1009738-light/run1009738-light.h5 tag-1496337980//
/work/sebastian/BT-20210625/1009738-light/run1009738-light.h5 tag-1496337996//
/work/sebastian/BT-20210625/1009738-light/run1009738-light.h5 tag-1496338008//
/work/sebastian/BT-20210625/1009738-light/run1009738-light.h5 tag-1496338020//
/work/sebastian/BT-20210625/1009738-light/run1009738-light.h5 tag-1496338024//
/work/sebastian/BT-20210625/1009738-light/run1009738-light.h5 tag-1496338028//
/work/sebastian/BT-20210625/1009738-light/run1009738-light.h5 tag-1496338032//
/work/sebastian/BT-20210625/1009738-light/run1009738-light.h5 tag-1496338040//
/work/sebastian/BT-20210625/1009738-light/run1009738-light.h5 tag-1496338044//
/work/sebastian/BT-20210625/1009738-light/run1009738-light.h5 tag-1496338048//
/work/sebastian/BT-20210625/1009738-light/run1009738-light.h5 tag-1496338056//
/work/sebastian/BT-20210625/1009738-light/run1009738-light.h5 tag-1496338060//
/work/sebastian/BT-20210625/1009738-light/run1009738-light.h5 tag-1496338068//
/work/sebastian/BT-20210625/1009738-light/run1009738-light.h5 tag-1496338072//
/work/sebastian/BT-20210625/1009738-light/run1009738-light.h5 tag-1496338076//
/work/sebastian/BT-20210625/1009738-light/run1009738-light.h5 tag-1496338080//
/work/sebastian/BT-20210625/1009738-light/run1009738-light.h5 tag-1496338088//
/work/sebastian/BT-20210625/1009738-light/run1009738-light.h5 tag-1496338096//
/work/sebastian/BT-20210625/1009738-light/run1009738-light.h5 tag-1496338100//
/work/sebastian/BT-20210625/1009738-light/run1009738-light.h5 tag-1496338104//
/work/sebastian/BT-20210625/1009738-light/run1009738-light.h5 tag-1496338120//
/work/sebastian/BT-20210625/1009738-light/run1009738-light.h5 tag-1496338124//
/work/sebastian/BT-20210625/1009738-light/run1009738-light.h5 tag-1496338132//
/work/sebastian/BT-20210625/1009738-light/run1009738-light.h5 tag-1496338136//
/work/sebastian/BT-20210625/1009738-light/run1009738-light.h5 tag-1496338144//
/work/sebastian/BT-20210625/1009738-light/run1009738-light.h5 tag-1496338156//
/work/sebastian/BT-20210625/1009738-light/run1009738-light.h5 tag-1496338160//
/work/sebastian/BT-20210625/1009738-light/run1009738-light.h5 tag-1496338168//
/work/sebastian/BT-20210625/1009738-light/run1009738-light.h5 tag-1496338172//
/work/sebastian/BT-20210625/1009738-light/run1009738-light.h5 tag-1496338176//
/work/sebastian/BT-20210625/1009738-light/run1009738-light.h5 tag-1496338184//
/work/sebastian/BT-20210625/1009738-light/run1009738-light.h5 tag-1496338196//
/work/sebastian/BT-20210625/1009738-light/run1009738-light.h5 tag-1496338200//
/work/sebastian/BT-20210625/1009738-light/run1009738-light.h5 tag-1496338208//
/work/sebastian/BT-20210625/1009738-light/run1009738-light.h5 tag-1496338212//
/work/sebastian/BT-20210625/1009738-light/run1009738-light.h5 tag-1496338228//
/work/sebastian/BT-20210625/1009738-light/run1009738-light.h5 tag-1496338232//
/work/sebastian/BT-20210625/1009738-light/run1009738-light.h5 tag-1496338236//
/work/sebastian/BT-20210625/1009738-light/run1009738-light.h5 tag-1496338240//
/work/sebastian/BT-20210625/1009738-light/run1009738-light.h5 tag-1496338248//
/work/sebastian/BT-20210625/1009738-light/run1009738-light.h5 tag-1496338256//
/work/sebastian/BT-20210625/1009738-light/run1009738-light.h5 tag-1496338260//
/work/sebastian/BT-20210625/1009738-light/run1009738-light.h5 tag-1496338268//
/work/sebastian/BT-20210625/1009738-light/run1009738-light.h5 tag-1496338272//
/work/sebastian/BT-20210625/1009738-light/run1009738-light.h5 tag-1496338276//
/work/sebastian/BT-20210625/1009738-light/run1009738-light.h5 tag-1496338280//
/work/sebastian/BT-20210625/1009738-light/run1009738-light.h5 tag-1496338288//
/work/sebastian/BT-20210625/1009738-light/run1009738-light.h5 tag-1496338296//
/work/sebastian/BT-20210625/1009738-light/run1009738-light.h5 tag-1496338304//
/work/sebastian/BT-20210625/1009738-light/run1009738-light.h5 tag-1496338308//
/work/sebastian/BT-20210625/1009738-light/run1009738-light.h5 tag-1496338312//
/work/sebastian/BT-20210625/1009738-light/run1009738-light.h5 tag-1496338316//
/work/sebastian/BT-20210625/1009738-light/run1009738-light.h5 tag-1496338328//
/work/sebastian/BT-20210625/1009738-light/run1009738-light.h5 tag-1496338332//
/work/sebastian/BT-20210625/1009738-light/run1009738-light.h5 tag-1496338340//
/work/sebastian/BT-20210625/1009738-light/run1009738-light.h5 tag-1496338344//
/work/sebastian/BT-20210625/1009738-light/run1009738-light.h5 tag-1496338356//
/work/sebastian/BT-20210625/1009738-light/run1009738-light.h5 tag-1496338372//
/work/sebastian/BT-20210625/1009738-light/run1009738-light.h5 tag-1496338376//
/work/sebastian/BT-20210625/1009738-light/run1009738-light.h5 tag-1496338380//
/work/sebastian/BT-20210625/1009738-light/run1009738-light.h5 tag-1496338384//
/work/sebastian/BT-20210625/1009738-light/run1009738-light.h5 tag-1496338392//
/work/sebastian/BT-20210625/1009738-light/run1009738-light.h5 tag-1496338396//
/work/sebastian/BT-20210625/1009738-light/run1009738-light.h5 tag-1496338400//
/work/sebastian/BT-20210625/1009738-light/run1009738-light.h5 tag-1496338412//
/work/sebastian/BT-20210625/1009738-light/run1009738-light.h5 tag-1496338416//
/work/sebastian/BT-20210625/1009738-light/run1009738-light.h5 tag-1496338428//
/work/sebastian/BT-20210625/1009738-light/run1009738-light.h5 tag-1496338436//
/work/sebastian/BT-20210625/1009738-light/run1009738-light.h5 tag-1496338464//
/work/sebastian/BT-20210625/1009738-light/run1009738-light.h5 tag-1496338468//
/work/sebastian/BT-20210625/1009738-light/run1009738-light.h5 tag-1496338472//
/work/sebastian/BT-20210625/1009738-light/run1009738-light.h5 tag-1496338480//
/work/sebastian/BT-20210625/1009738-light/run1009738-light.h5 tag-1496338484//
/work/sebastian/BT-20210625/1009738-light/run1009738-light.h5 tag-1496338492//
/work/sebastian/BT-20210625/1009738-light/run1009738-light.h5 tag-1496338496//
/work/sebastian/BT-20210625/1009738-light/run1009738-light.h5 tag-1496338500//
/work/sebastian/BT-20210625/1009738-light/run1009738-light.h5 tag-1496338504//
/work/sebastian/BT-20210625/1009738-light/run1009738-light.h5 tag-1496338508//
/work/sebastian/BT-20210625/1009738-light/run1009738-light.h5 tag-1496338512//
/work/sebastian/BT-20210625/1009738-light/run1009738-light.h5 tag-1496338516//
/work/sebastian/BT-20210625/1009738-light/run1009738-light.h5 tag-1496338520//
/work/sebastian/BT-20210625/1009738-light/run1009738-light.h5 tag-1496338524//
/work/sebastian/BT-20210625/1009738-light/run1009738-light.h5 tag-1496338532//
/work/sebastian/BT-20210625/1009738-light/run1009738-light.h5 tag-1496338544//
/work/sebastian/BT-20210625/1009738-light/run1009738-light.h5 tag-1496338548//
/work/sebastian/BT-20210625/1009738-light/run1009738-light.h5 tag-1496338552//
/work/sebastian/BT-20210625/1009738-light/run1009738-light.h5 tag-1496338564//
/work/sebastian/BT-20210625/1009738-light/run1009738-light.h5 tag-1496338576//
/work/sebastian/BT-20210625/1009738-light/run1009738-light.h5 tag-1496338604//
/work/sebastian/BT-20210625/1009738-light/run1009738-light.h5 tag-1496338608//
/work/sebastian/BT-20210625/1009738-light/run1009738-light.h5 tag-1496338624//
/work/sebastian/BT-20210625/1009738-light/run1009738-light.h5 tag-1496338636//
/work/sebastian/BT-20210625/1009738-light/run1009738-light.h5 tag-1496338640//
/work/sebastian/BT-20210625/1009738-light/run1009738-light.h5 tag-1496338656//
/work/sebastian/BT-20210625/1009738-light/run1009738-light.h5 tag-1496338660//
/work/sebastian/BT-20210625/1009738-light/run1009738-light.h5 tag-1496338668//
/work/sebastian/BT-20210625/1009738-light/run1009738-light.h5 tag-1496338680//
/work/sebastian/BT-20210625/1009738-light/run1009738-light.h5 tag-1496338688//
/work/sebastian/BT-20210625/1009738-light/run1009738-light.h5 tag-1496338692//
/work/sebastian/BT-20210625/1009738-light/run1009738-light.h5 tag-1496338696//
/work/sebastian/BT-20210625/1009738-light/run1009738-light.h5 tag-1496338700//
/work/sebastian/BT-20210625/1009738-light/run1009738-light.h5 tag-1496338704//
/work/sebastian/BT-20210625/1009738-light/run1009738-light.h5 tag-1496338708//
/work/sebastian/BT-20210625/1009738-light/run1009738-light.h5 tag-1496338712//
/work/sebastian/BT-20210625/1009738-light/run1009738-light.h5 tag-1496338716//
/work/sebastian/BT-20210625/1009738-light/run1009738-light.h5 tag-1496338720//
/work/sebastian/BT-20210625/1009738-light/run1009738-light.h5 tag-1496338728//
/work/sebastian/BT-20210625/1009738-light/run1009738-light.h5 tag-1496338732//
/work/sebastian/BT-20210625/1009738-light/run1009738-light.h5 tag-1496338736//
/work/sebastian/BT-20210625/1009738-light/run1009738-light.h5 tag-1496338740//
/work/sebastian/BT-20210625/1009738-light/run1009738-light.h5 tag-1496338744//
/work/sebastian/BT-20210625/1009738-light/run1009738-light.h5 tag-1496338756//
/work/sebastian/BT-20210625/1009738-light/run1009738-light.h5 tag-1496338764//
/work/sebastian/BT-20210625/1009738-light/run1009738-light.h5 tag-1496338768//
/work/sebastian/BT-20210625/1009738-light/run1009738-light.h5 tag-1496338776//
/work/sebastian/BT-20210625/1009738-light/run1009738-light.h5 tag-1496338780//
/work/sebastian/BT-20210625/1009738-light/run1009738-light.h5 tag-1496338792//
/work/sebastian/BT-20210625/1009738-light/run1009738-light.h5 tag-1496338800//
/work/sebastian/BT-20210625/1009738-light/run1009738-light.h5 tag-1496338808//
/work/sebastian/BT-20210625/1009738-light/run1009738-light.h5 tag-1496338812//
/work/sebastian/BT-20210625/1009738-light/run1009738-light.h5 tag-1496338816//
/work/sebastian/BT-20210625/1009738-light/run1009738-light.h5 tag-1496338824//
/work/sebastian/BT-20210625/1009738-light/run1009738-light.h5 tag-1496338840//
/work/sebastian/BT-20210625/1009738-light/run1009738-light.h5 tag-1496338844//
/work/sebastian/BT-20210625/1009738-light/run1009738-light.h5 tag-1496338848//
/work/sebastian/BT-20210625/1009738-light/run1009738-light.h5 tag-1496338852//
/work/sebastian/BT-20210625/1009738-light/run1009738-light.h5 tag-1496338856//
/work/sebastian/BT-20210625/1009738-light/run1009738-light.h5 tag-1496338860//
/work/sebastian/BT-20210625/1009738-light/run1009738-light.h5 tag-1496338868//
/work/sebastian/BT-20210625/1009738-light/run1009738-light.h5 tag-1496338876//
/work/sebastian/BT-20210625/1009738-light/run1009738-light.h5 tag-1496338880//
/work/sebastian/BT-20210625/1009738-light/run1009738-light.h5 tag-1496338884//
/work/sebastian/BT-20210625/1009738-light/run1009738-light.h5 tag-1496338888//
/work/sebastian/BT-20210625/1009738-light/run1009738-light.h5 tag-1496338896//
/work/sebastian/BT-20210625/1009738-light/run1009738-light.h5 tag-1496338908//
/work/sebastian/BT-20210625/1009738-light/run1009738-light.h5 tag-1496338912//
/work/sebastian/BT-20210625/1009738-light/run1009738-light.h5 tag-1496338920//
/work/sebastian/BT-20210625/1009738-light/run1009738-light.h5 tag-1496338924//
/work/sebastian/BT-20210625/1009738-light/run1009738-light.h5 tag-1496338928//
/work/sebastian/BT-20210625/1009738-light/run1009738-light.h5 tag-1496338936//
/work/sebastian/BT-20210625/1009738-light/run1009738-light.h5 tag-1496338940//
/work/sebastian/BT-20210625/1009738-light/run1009738-light.h5 tag-1496338944//
/work/sebastian/BT-20210625/1009738-light/run1009738-light.h5 tag-1496338948//
/work/sebastian/BT-20210625/1009738-light/run1009738-light.h5 tag-1496338956//
/work/sebastian/BT-20210625/1009738-light/run1009738-light.h5 tag-1496338960//
/work/sebastian/BT-20210625/1009738-light/run1009738-light.h5 tag-1496338968//
/work/sebastian/BT-20210625/1009738-light/run1009738-light.h5 tag-1496338972//
/work/sebastian/BT-20210625/1009738-light/run1009738-light.h5 tag-1496338976//
/work/sebastian/BT-20210625/1009738-light/run1009738-light.h5 tag-1496338980//
/work/sebastian/BT-20210625/1009738-light/run1009738-light.h5 tag-1496338988//
/work/sebastian/BT-20210625/1009738-light/run1009738-light.h5 tag-1496338996//
/work/sebastian/BT-20210625/1009738-light/run1009738-light.h5 tag-1496339004//
/work/sebastian/BT-20210625/1009738-light/run1009738-light.h5 tag-1496339032//
/work/sebastian/BT-20210625/1009738-light/run1009738-light.h5 tag-1496339036//
/work/sebastian/BT-20210625/1009738-light/run1009738-light.h5 tag-1496339044//
/work/sebastian/BT-20210625/1009738-light/run1009738-light.h5 tag-1496339048//
/work/sebastian/BT-20210625/1009738-light/run1009738-light.h5 tag-1496339064//
/work/sebastian/BT-20210625/1009738-light/run1009738-light.h5 tag-1496339072//
/work/sebastian/BT-20210625/1009738-light/run1009738-light.h5 tag-1496339076//
/work/sebastian/BT-20210625/1009738-light/run1009738-light.h5 tag-1496339084//
/work/sebastian/BT-20210625/1009738-light/run1009738-light.h5 tag-1496339088//
/work/sebastian/BT-20210625/1009738-light/run1009738-light.h5 tag-1496339140//
/work/sebastian/BT-20210625/1009738-light/run1009738-light.h5 tag-1496339148//
/work/sebastian/BT-20210625/1009738-light/run1009738-light.h5 tag-1496339152//
/work/sebastian/BT-20210625/1009738-light/run1009738-light.h5 tag-1496339168//
/work/sebastian/BT-20210625/1009738-light/run1009738-light.h5 tag-1496339176//
/work/sebastian/BT-20210625/1009738-light/run1009738-light.h5 tag-1496339180//
/work/sebastian/BT-20210625/1009738-light/run1009738-light.h5 tag-1496339184//
/work/sebastian/BT-20210625/1009738-light/run1009738-light.h5 tag-1496339188//
/work/sebastian/BT-20210625/1009738-light/run1009738-light.h5 tag-1496339196//
/work/sebastian/BT-20210625/1009738-light/run1009738-light.h5 tag-1496339200//
/work/sebastian/BT-20210625/1009738-light/run1009738-light.h5 tag-1496339204//
/work/sebastian/BT-20210625/1009738-light/run1009738-light.h5 tag-1496339208//
/work/sebastian/BT-20210625/1009738-light/run1009738-light.h5 tag-1496339212//
/work/sebastian/BT-20210625/1009738-light/run1009738-light.h5 tag-1496339216//
/work/sebastian/BT-20210625/1009738-light/run1009738-light.h5 tag-1496339224//
/work/sebastian/BT-20210625/1009738-light/run1009738-light.h5 tag-1496339228//
/work/sebastian/BT-20210625/1009738-light/run1009738-light.h5 tag-1496339240//
/work/sebastian/BT-20210625/1009738-light/run1009738-light.h5 tag-1496339244//
/work/sebastian/BT-20210625/1009738-light/run1009738-light.h5 tag-1496339260//
/work/sebastian/BT-20210625/1009738-light/run1009738-light.h5 tag-1496339268//
/work/sebastian/BT-20210625/1009738-light/run1009738-light.h5 tag-1496339272//
/work/sebastian/BT-20210625/1009738-light/run1009738-light.h5 tag-1496339280//
/work/sebastian/BT-20210625/1009738-light/run1009738-light.h5 tag-1496339288//
/work/sebastian/BT-20210625/1009738-light/run1009738-light.h5 tag-1496339292//
/work/sebastian/BT-20210625/1009738-light/run1009738-light.h5 tag-1496339308//
/work/sebastian/BT-20210625/1009738-light/run1009738-light.h5 tag-1496339312//
/work/sebastian/BT-20210625/1009738-light/run1009738-light.h5 tag-1496339316//
/work/sebastian/BT-20210625/1009738-light/run1009738-light.h5 tag-1496339320//
/work/sebastian/BT-20210625/1009738-light/run1009738-light.h5 tag-1496339332//
/work/sebastian/BT-20210625/1009738-light/run1009738-light.h5 tag-1496339340//
/work/sebastian/BT-20210625/1009738-light/run1009738-light.h5 tag-1496339344//
/work/sebastian/BT-20210625/1009738-light/run1009738-light.h5 tag-1496339348//
/work/sebastian/BT-20210625/1009738-light/run1009738-light.h5 tag-1496339352//
/work/sebastian/BT-20210625/1009738-light/run1009738-light.h5 tag-1496339368//
/work/sebastian/BT-20210625/1009738-light/run1009738-light.h5 tag-1496339372//
/work/sebastian/BT-20210625/1009738-light/run1009738-light.h5 tag-1496339380//
/work/sebastian/BT-20210625/1009738-light/run1009738-light.h5 tag-1496339392//
/work/sebastian/BT-20210625/1009738-light/run1009738-light.h5 tag-1496339396//
/work/sebastian/BT-20210625/1009738-light/run1009738-light.h5 tag-1496339400//
/work/sebastian/BT-20210625/1009738-light/run1009738-light.h5 tag-1496339412//
/work/sebastian/BT-20210625/1009738-light/run1009738-light.h5 tag-1496339416//
/work/sebastian/BT-20210625/1009738-light/run1009738-light.h5 tag-1496339420//
/work/sebastian/BT-20210625/1009738-light/run1009738-light.h5 tag-1496339424//
/work/sebastian/BT-20210625/1009738-light/run1009738-light.h5 tag-1496339428//
/work/sebastian/BT-20210625/1009738-light/run1009738-light.h5 tag-1496339432//
/work/sebastian/BT-20210625/1009738-light/run1009738-light.h5 tag-1496339436//
/work/sebastian/BT-20210625/1009738-light/run1009738-light.h5 tag-1496339440//
/work/sebastian/BT-20210625/1009738-light/run1009738-light.h5 tag-1496339448//
/work/sebastian/BT-20210625/1009738-light/run1009738-light.h5 tag-1496339472//
/work/sebastian/BT-20210625/1009738-light/run1009738-light.h5 tag-1496339484//
/work/sebastian/BT-20210625/1009738-light/run1009738-light.h5 tag-1496339488//
/work/sebastian/BT-20210625/1009738-light/run1009738-light.h5 tag-1496339504//
/work/sebastian/BT-20210625/1009738-light/run1009738-light.h5 tag-1496339512//
/work/sebastian/BT-20210625/1009738-light/run1009738-light.h5 tag-1496339520//
/work/sebastian/BT-20210625/1009738-light/run1009738-light.h5 tag-1496339536//
/work/sebastian/BT-20210625/1009738-light/run1009738-light.h5 tag-1496339544//
/work/sebastian/BT-20210625/1009738-light/run1009738-light.h5 tag-1496339552//
