/work/sebastian/BT-20210625/1009747-light/run1009747-light.h5 tag-1496392460//
/work/sebastian/BT-20210625/1009747-light/run1009747-light.h5 tag-1496392472//
/work/sebastian/BT-20210625/1009747-light/run1009747-light.h5 tag-1496392476//
/work/sebastian/BT-20210625/1009747-light/run1009747-light.h5 tag-1496392488//
/work/sebastian/BT-20210625/1009747-light/run1009747-light.h5 tag-1496392492//
/work/sebastian/BT-20210625/1009747-light/run1009747-light.h5 tag-1496392500//
/work/sebastian/BT-20210625/1009747-light/run1009747-light.h5 tag-1496392504//
/work/sebastian/BT-20210625/1009747-light/run1009747-light.h5 tag-1496392520//
/work/sebastian/BT-20210625/1009747-light/run1009747-light.h5 tag-1496392528//
/work/sebastian/BT-20210625/1009747-light/run1009747-light.h5 tag-1496392552//
/work/sebastian/BT-20210625/1009747-light/run1009747-light.h5 tag-1496392556//
/work/sebastian/BT-20210625/1009747-light/run1009747-light.h5 tag-1496392568//
/work/sebastian/BT-20210625/1009747-light/run1009747-light.h5 tag-1496392584//
/work/sebastian/BT-20210625/1009747-light/run1009747-light.h5 tag-1496392588//
/work/sebastian/BT-20210625/1009747-light/run1009747-light.h5 tag-1496392600//
/work/sebastian/BT-20210625/1009747-light/run1009747-light.h5 tag-1496392612//
/work/sebastian/BT-20210625/1009747-light/run1009747-light.h5 tag-1496392616//
/work/sebastian/BT-20210625/1009747-light/run1009747-light.h5 tag-1496392624//
/work/sebastian/BT-20210625/1009747-light/run1009747-light.h5 tag-1496392636//
/work/sebastian/BT-20210625/1009747-light/run1009747-light.h5 tag-1496392640//
/work/sebastian/BT-20210625/1009747-light/run1009747-light.h5 tag-1496392648//
/work/sebastian/BT-20210625/1009747-light/run1009747-light.h5 tag-1496392664//
/work/sebastian/BT-20210625/1009747-light/run1009747-light.h5 tag-1496392668//
/work/sebastian/BT-20210625/1009747-light/run1009747-light.h5 tag-1496392676//
/work/sebastian/BT-20210625/1009747-light/run1009747-light.h5 tag-1496392680//
/work/sebastian/BT-20210625/1009747-light/run1009747-light.h5 tag-1496392684//
/work/sebastian/BT-20210625/1009747-light/run1009747-light.h5 tag-1496392688//
/work/sebastian/BT-20210625/1009747-light/run1009747-light.h5 tag-1496392692//
/work/sebastian/BT-20210625/1009747-light/run1009747-light.h5 tag-1496392712//
/work/sebastian/BT-20210625/1009747-light/run1009747-light.h5 tag-1496392720//
/work/sebastian/BT-20210625/1009747-light/run1009747-light.h5 tag-1496392732//
/work/sebastian/BT-20210625/1009747-light/run1009747-light.h5 tag-1496392744//
/work/sebastian/BT-20210625/1009747-light/run1009747-light.h5 tag-1496392748//
/work/sebastian/BT-20210625/1009747-light/run1009747-light.h5 tag-1496392752//
/work/sebastian/BT-20210625/1009747-light/run1009747-light.h5 tag-1496392756//
/work/sebastian/BT-20210625/1009747-light/run1009747-light.h5 tag-1496392760//
/work/sebastian/BT-20210625/1009747-light/run1009747-light.h5 tag-1496392776//
/work/sebastian/BT-20210625/1009747-light/run1009747-light.h5 tag-1496392788//
/work/sebastian/BT-20210625/1009747-light/run1009747-light.h5 tag-1496392796//
/work/sebastian/BT-20210625/1009747-light/run1009747-light.h5 tag-1496392800//
/work/sebastian/BT-20210625/1009747-light/run1009747-light.h5 tag-1496392808//
/work/sebastian/BT-20210625/1009747-light/run1009747-light.h5 tag-1496392820//
/work/sebastian/BT-20210625/1009747-light/run1009747-light.h5 tag-1496392824//
/work/sebastian/BT-20210625/1009747-light/run1009747-light.h5 tag-1496392832//
/work/sebastian/BT-20210625/1009747-light/run1009747-light.h5 tag-1496392856//
/work/sebastian/BT-20210625/1009747-light/run1009747-light.h5 tag-1496392864//
/work/sebastian/BT-20210625/1009747-light/run1009747-light.h5 tag-1496392872//
/work/sebastian/BT-20210625/1009747-light/run1009747-light.h5 tag-1496392880//
/work/sebastian/BT-20210625/1009747-light/run1009747-light.h5 tag-1496392884//
/work/sebastian/BT-20210625/1009747-light/run1009747-light.h5 tag-1496392888//
/work/sebastian/BT-20210625/1009747-light/run1009747-light.h5 tag-1496392892//
/work/sebastian/BT-20210625/1009747-light/run1009747-light.h5 tag-1496392904//
/work/sebastian/BT-20210625/1009747-light/run1009747-light.h5 tag-1496392908//
/work/sebastian/BT-20210625/1009747-light/run1009747-light.h5 tag-1496392912//
/work/sebastian/BT-20210625/1009747-light/run1009747-light.h5 tag-1496392916//
/work/sebastian/BT-20210625/1009747-light/run1009747-light.h5 tag-1496392920//
/work/sebastian/BT-20210625/1009747-light/run1009747-light.h5 tag-1496392932//
/work/sebastian/BT-20210625/1009747-light/run1009747-light.h5 tag-1496392944//
/work/sebastian/BT-20210625/1009747-light/run1009747-light.h5 tag-1496392952//
/work/sebastian/BT-20210625/1009747-light/run1009747-light.h5 tag-1496392956//
/work/sebastian/BT-20210625/1009747-light/run1009747-light.h5 tag-1496392964//
/work/sebastian/BT-20210625/1009747-light/run1009747-light.h5 tag-1496392968//
/work/sebastian/BT-20210625/1009747-light/run1009747-light.h5 tag-1496392988//
/work/sebastian/BT-20210625/1009747-light/run1009747-light.h5 tag-1496393004//
/work/sebastian/BT-20210625/1009747-light/run1009747-light.h5 tag-1496393008//
/work/sebastian/BT-20210625/1009747-light/run1009747-light.h5 tag-1496393012//
/work/sebastian/BT-20210625/1009747-light/run1009747-light.h5 tag-1496393016//
/work/sebastian/BT-20210625/1009747-light/run1009747-light.h5 tag-1496393020//
/work/sebastian/BT-20210625/1009747-light/run1009747-light.h5 tag-1496393028//
/work/sebastian/BT-20210625/1009747-light/run1009747-light.h5 tag-1496393040//
/work/sebastian/BT-20210625/1009747-light/run1009747-light.h5 tag-1496393048//
/work/sebastian/BT-20210625/1009747-light/run1009747-light.h5 tag-1496393060//
/work/sebastian/BT-20210625/1009747-light/run1009747-light.h5 tag-1496393064//
/work/sebastian/BT-20210625/1009747-light/run1009747-light.h5 tag-1496393068//
/work/sebastian/BT-20210625/1009747-light/run1009747-light.h5 tag-1496393084//
/work/sebastian/BT-20210625/1009747-light/run1009747-light.h5 tag-1496393088//
/work/sebastian/BT-20210625/1009747-light/run1009747-light.h5 tag-1496393096//
/work/sebastian/BT-20210625/1009747-light/run1009747-light.h5 tag-1496393104//
/work/sebastian/BT-20210625/1009747-light/run1009747-light.h5 tag-1496393108//
/work/sebastian/BT-20210625/1009747-light/run1009747-light.h5 tag-1496393116//
/work/sebastian/BT-20210625/1009747-light/run1009747-light.h5 tag-1496393128//
/work/sebastian/BT-20210625/1009747-light/run1009747-light.h5 tag-1496393148//
/work/sebastian/BT-20210625/1009747-light/run1009747-light.h5 tag-1496393156//
/work/sebastian/BT-20210625/1009747-light/run1009747-light.h5 tag-1496393160//
/work/sebastian/BT-20210625/1009747-light/run1009747-light.h5 tag-1496393168//
/work/sebastian/BT-20210625/1009747-light/run1009747-light.h5 tag-1496393176//
/work/sebastian/BT-20210625/1009747-light/run1009747-light.h5 tag-1496393180//
/work/sebastian/BT-20210625/1009747-light/run1009747-light.h5 tag-1496393188//
/work/sebastian/BT-20210625/1009747-light/run1009747-light.h5 tag-1496393192//
/work/sebastian/BT-20210625/1009747-light/run1009747-light.h5 tag-1496393196//
/work/sebastian/BT-20210625/1009747-light/run1009747-light.h5 tag-1496393200//
/work/sebastian/BT-20210625/1009747-light/run1009747-light.h5 tag-1496393204//
/work/sebastian/BT-20210625/1009747-light/run1009747-light.h5 tag-1496393212//
/work/sebastian/BT-20210625/1009747-light/run1009747-light.h5 tag-1496393216//
/work/sebastian/BT-20210625/1009747-light/run1009747-light.h5 tag-1496393228//
/work/sebastian/BT-20210625/1009747-light/run1009747-light.h5 tag-1496393232//
/work/sebastian/BT-20210625/1009747-light/run1009747-light.h5 tag-1496393244//
/work/sebastian/BT-20210625/1009747-light/run1009747-light.h5 tag-1496393248//
/work/sebastian/BT-20210625/1009747-light/run1009747-light.h5 tag-1496393252//
/work/sebastian/BT-20210625/1009747-light/run1009747-light.h5 tag-1496393256//
/work/sebastian/BT-20210625/1009747-light/run1009747-light.h5 tag-1496393264//
/work/sebastian/BT-20210625/1009747-light/run1009747-light.h5 tag-1496393268//
/work/sebastian/BT-20210625/1009747-light/run1009747-light.h5 tag-1496393276//
/work/sebastian/BT-20210625/1009747-light/run1009747-light.h5 tag-1496393284//
/work/sebastian/BT-20210625/1009747-light/run1009747-light.h5 tag-1496393288//
/work/sebastian/BT-20210625/1009747-light/run1009747-light.h5 tag-1496393296//
/work/sebastian/BT-20210625/1009747-light/run1009747-light.h5 tag-1496393308//
/work/sebastian/BT-20210625/1009747-light/run1009747-light.h5 tag-1496393312//
/work/sebastian/BT-20210625/1009747-light/run1009747-light.h5 tag-1496393324//
/work/sebastian/BT-20210625/1009747-light/run1009747-light.h5 tag-1496393332//
/work/sebastian/BT-20210625/1009747-light/run1009747-light.h5 tag-1496393340//
/work/sebastian/BT-20210625/1009747-light/run1009747-light.h5 tag-1496393348//
/work/sebastian/BT-20210625/1009747-light/run1009747-light.h5 tag-1496393360//
/work/sebastian/BT-20210625/1009747-light/run1009747-light.h5 tag-1496393364//
/work/sebastian/BT-20210625/1009747-light/run1009747-light.h5 tag-1496393376//
/work/sebastian/BT-20210625/1009747-light/run1009747-light.h5 tag-1496393380//
/work/sebastian/BT-20210625/1009747-light/run1009747-light.h5 tag-1496393388//
/work/sebastian/BT-20210625/1009747-light/run1009747-light.h5 tag-1496393396//
/work/sebastian/BT-20210625/1009747-light/run1009747-light.h5 tag-1496393404//
/work/sebastian/BT-20210625/1009747-light/run1009747-light.h5 tag-1496393408//
/work/sebastian/BT-20210625/1009747-light/run1009747-light.h5 tag-1496393416//
/work/sebastian/BT-20210625/1009747-light/run1009747-light.h5 tag-1496393420//
/work/sebastian/BT-20210625/1009747-light/run1009747-light.h5 tag-1496393424//
/work/sebastian/BT-20210625/1009747-light/run1009747-light.h5 tag-1496393432//
/work/sebastian/BT-20210625/1009747-light/run1009747-light.h5 tag-1496393436//
/work/sebastian/BT-20210625/1009747-light/run1009747-light.h5 tag-1496393440//
/work/sebastian/BT-20210625/1009747-light/run1009747-light.h5 tag-1496393444//
/work/sebastian/BT-20210625/1009747-light/run1009747-light.h5 tag-1496393448//
/work/sebastian/BT-20210625/1009747-light/run1009747-light.h5 tag-1496393452//
/work/sebastian/BT-20210625/1009747-light/run1009747-light.h5 tag-1496393464//
/work/sebastian/BT-20210625/1009747-light/run1009747-light.h5 tag-1496393468//
/work/sebastian/BT-20210625/1009747-light/run1009747-light.h5 tag-1496393472//
/work/sebastian/BT-20210625/1009747-light/run1009747-light.h5 tag-1496393476//
/work/sebastian/BT-20210625/1009747-light/run1009747-light.h5 tag-1496393484//
/work/sebastian/BT-20210625/1009747-light/run1009747-light.h5 tag-1496393488//
/work/sebastian/BT-20210625/1009747-light/run1009747-light.h5 tag-1496393496//
/work/sebastian/BT-20210625/1009747-light/run1009747-light.h5 tag-1496393500//
/work/sebastian/BT-20210625/1009747-light/run1009747-light.h5 tag-1496393504//
/work/sebastian/BT-20210625/1009747-light/run1009747-light.h5 tag-1496393512//
/work/sebastian/BT-20210625/1009747-light/run1009747-light.h5 tag-1496393516//
/work/sebastian/BT-20210625/1009747-light/run1009747-light.h5 tag-1496393528//
/work/sebastian/BT-20210625/1009747-light/run1009747-light.h5 tag-1496393532//
/work/sebastian/BT-20210625/1009747-light/run1009747-light.h5 tag-1496393544//
/work/sebastian/BT-20210625/1009747-light/run1009747-light.h5 tag-1496393548//
/work/sebastian/BT-20210625/1009747-light/run1009747-light.h5 tag-1496393564//
/work/sebastian/BT-20210625/1009747-light/run1009747-light.h5 tag-1496393568//
/work/sebastian/BT-20210625/1009747-light/run1009747-light.h5 tag-1496393580//
/work/sebastian/BT-20210625/1009747-light/run1009747-light.h5 tag-1496393584//
/work/sebastian/BT-20210625/1009747-light/run1009747-light.h5 tag-1496393600//
/work/sebastian/BT-20210625/1009747-light/run1009747-light.h5 tag-1496393604//
/work/sebastian/BT-20210625/1009747-light/run1009747-light.h5 tag-1496393608//
/work/sebastian/BT-20210625/1009747-light/run1009747-light.h5 tag-1496393612//
/work/sebastian/BT-20210625/1009747-light/run1009747-light.h5 tag-1496393616//
/work/sebastian/BT-20210625/1009747-light/run1009747-light.h5 tag-1496393620//
/work/sebastian/BT-20210625/1009747-light/run1009747-light.h5 tag-1496393632//
/work/sebastian/BT-20210625/1009747-light/run1009747-light.h5 tag-1496393636//
/work/sebastian/BT-20210625/1009747-light/run1009747-light.h5 tag-1496393644//
/work/sebastian/BT-20210625/1009747-light/run1009747-light.h5 tag-1496393648//
/work/sebastian/BT-20210625/1009747-light/run1009747-light.h5 tag-1496393652//
/work/sebastian/BT-20210625/1009747-light/run1009747-light.h5 tag-1496393668//
/work/sebastian/BT-20210625/1009747-light/run1009747-light.h5 tag-1496393676//
/work/sebastian/BT-20210625/1009747-light/run1009747-light.h5 tag-1496393680//
/work/sebastian/BT-20210625/1009747-light/run1009747-light.h5 tag-1496393688//
/work/sebastian/BT-20210625/1009747-light/run1009747-light.h5 tag-1496393696//
/work/sebastian/BT-20210625/1009747-light/run1009747-light.h5 tag-1496393700//
/work/sebastian/BT-20210625/1009747-light/run1009747-light.h5 tag-1496393708//
/work/sebastian/BT-20210625/1009747-light/run1009747-light.h5 tag-1496393712//
/work/sebastian/BT-20210625/1009747-light/run1009747-light.h5 tag-1496393720//
/work/sebastian/BT-20210625/1009747-light/run1009747-light.h5 tag-1496393728//
/work/sebastian/BT-20210625/1009747-light/run1009747-light.h5 tag-1496393732//
/work/sebastian/BT-20210625/1009747-light/run1009747-light.h5 tag-1496393736//
/work/sebastian/BT-20210625/1009747-light/run1009747-light.h5 tag-1496393740//
/work/sebastian/BT-20210625/1009747-light/run1009747-light.h5 tag-1496393752//
/work/sebastian/BT-20210625/1009747-light/run1009747-light.h5 tag-1496393756//
/work/sebastian/BT-20210625/1009747-light/run1009747-light.h5 tag-1496393760//
/work/sebastian/BT-20210625/1009747-light/run1009747-light.h5 tag-1496393768//
/work/sebastian/BT-20210625/1009747-light/run1009747-light.h5 tag-1496393772//
/work/sebastian/BT-20210625/1009747-light/run1009747-light.h5 tag-1496393780//
/work/sebastian/BT-20210625/1009747-light/run1009747-light.h5 tag-1496393792//
/work/sebastian/BT-20210625/1009747-light/run1009747-light.h5 tag-1496393804//
/work/sebastian/BT-20210625/1009747-light/run1009747-light.h5 tag-1496393832//
/work/sebastian/BT-20210625/1009747-light/run1009747-light.h5 tag-1496393836//
/work/sebastian/BT-20210625/1009747-light/run1009747-light.h5 tag-1496393848//
/work/sebastian/BT-20210625/1009747-light/run1009747-light.h5 tag-1496393852//
/work/sebastian/BT-20210625/1009747-light/run1009747-light.h5 tag-1496393856//
/work/sebastian/BT-20210625/1009747-light/run1009747-light.h5 tag-1496393868//
/work/sebastian/BT-20210625/1009747-light/run1009747-light.h5 tag-1496393872//
/work/sebastian/BT-20210625/1009747-light/run1009747-light.h5 tag-1496393880//
/work/sebastian/BT-20210625/1009747-light/run1009747-light.h5 tag-1496393884//
/work/sebastian/BT-20210625/1009747-light/run1009747-light.h5 tag-1496393888//
/work/sebastian/BT-20210625/1009747-light/run1009747-light.h5 tag-1496393896//
/work/sebastian/BT-20210625/1009747-light/run1009747-light.h5 tag-1496393900//
/work/sebastian/BT-20210625/1009747-light/run1009747-light.h5 tag-1496393904//
/work/sebastian/BT-20210625/1009747-light/run1009747-light.h5 tag-1496393908//
/work/sebastian/BT-20210625/1009747-light/run1009747-light.h5 tag-1496393916//
/work/sebastian/BT-20210625/1009747-light/run1009747-light.h5 tag-1496393924//
/work/sebastian/BT-20210625/1009747-light/run1009747-light.h5 tag-1496393928//
/work/sebastian/BT-20210625/1009747-light/run1009747-light.h5 tag-1496393932//
/work/sebastian/BT-20210625/1009747-light/run1009747-light.h5 tag-1496393936//
/work/sebastian/BT-20210625/1009747-light/run1009747-light.h5 tag-1496393940//
/work/sebastian/BT-20210625/1009747-light/run1009747-light.h5 tag-1496393944//
/work/sebastian/BT-20210625/1009747-light/run1009747-light.h5 tag-1496393948//
/work/sebastian/BT-20210625/1009747-light/run1009747-light.h5 tag-1496393964//
/work/sebastian/BT-20210625/1009747-light/run1009747-light.h5 tag-1496393968//
/work/sebastian/BT-20210625/1009747-light/run1009747-light.h5 tag-1496393976//
/work/sebastian/BT-20210625/1009747-light/run1009747-light.h5 tag-1496393984//
/work/sebastian/BT-20210625/1009747-light/run1009747-light.h5 tag-1496393992//
/work/sebastian/BT-20210625/1009747-light/run1009747-light.h5 tag-1496393996//
/work/sebastian/BT-20210625/1009747-light/run1009747-light.h5 tag-1496394000//
/work/sebastian/BT-20210625/1009747-light/run1009747-light.h5 tag-1496394004//
/work/sebastian/BT-20210625/1009747-light/run1009747-light.h5 tag-1496394008//
/work/sebastian/BT-20210625/1009747-light/run1009747-light.h5 tag-1496394016//
/work/sebastian/BT-20210625/1009747-light/run1009747-light.h5 tag-1496394028//
/work/sebastian/BT-20210625/1009747-light/run1009747-light.h5 tag-1496394032//
/work/sebastian/BT-20210625/1009747-light/run1009747-light.h5 tag-1496394036//
/work/sebastian/BT-20210625/1009747-light/run1009747-light.h5 tag-1496394040//
/work/sebastian/BT-20210625/1009747-light/run1009747-light.h5 tag-1496394060//
/work/sebastian/BT-20210625/1009747-light/run1009747-light.h5 tag-1496394068//
/work/sebastian/BT-20210625/1009747-light/run1009747-light.h5 tag-1496394072//
/work/sebastian/BT-20210625/1009747-light/run1009747-light.h5 tag-1496394076//
/work/sebastian/BT-20210625/1009747-light/run1009747-light.h5 tag-1496394092//
/work/sebastian/BT-20210625/1009747-light/run1009747-light.h5 tag-1496394104//
/work/sebastian/BT-20210625/1009747-light/run1009747-light.h5 tag-1496394116//
/work/sebastian/BT-20210625/1009747-light/run1009747-light.h5 tag-1496394120//
/work/sebastian/BT-20210625/1009747-light/run1009747-light.h5 tag-1496394124//
/work/sebastian/BT-20210625/1009747-light/run1009747-light.h5 tag-1496394136//
/work/sebastian/BT-20210625/1009747-light/run1009747-light.h5 tag-1496394140//
/work/sebastian/BT-20210625/1009747-light/run1009747-light.h5 tag-1496394144//
/work/sebastian/BT-20210625/1009747-light/run1009747-light.h5 tag-1496394156//
/work/sebastian/BT-20210625/1009747-light/run1009747-light.h5 tag-1496394160//
/work/sebastian/BT-20210625/1009747-light/run1009747-light.h5 tag-1496394164//
/work/sebastian/BT-20210625/1009747-light/run1009747-light.h5 tag-1496394180//
/work/sebastian/BT-20210625/1009747-light/run1009747-light.h5 tag-1496394184//
/work/sebastian/BT-20210625/1009747-light/run1009747-light.h5 tag-1496394192//
/work/sebastian/BT-20210625/1009747-light/run1009747-light.h5 tag-1496394200//
/work/sebastian/BT-20210625/1009747-light/run1009747-light.h5 tag-1496394204//
/work/sebastian/BT-20210625/1009747-light/run1009747-light.h5 tag-1496394208//
/work/sebastian/BT-20210625/1009747-light/run1009747-light.h5 tag-1496394212//
/work/sebastian/BT-20210625/1009747-light/run1009747-light.h5 tag-1496394216//
/work/sebastian/BT-20210625/1009747-light/run1009747-light.h5 tag-1496394220//
/work/sebastian/BT-20210625/1009747-light/run1009747-light.h5 tag-1496394232//
/work/sebastian/BT-20210625/1009747-light/run1009747-light.h5 tag-1496394260//
/work/sebastian/BT-20210625/1009747-light/run1009747-light.h5 tag-1496394268//
/work/sebastian/BT-20210625/1009747-light/run1009747-light.h5 tag-1496394276//
/work/sebastian/BT-20210625/1009747-light/run1009747-light.h5 tag-1496394280//
/work/sebastian/BT-20210625/1009747-light/run1009747-light.h5 tag-1496394284//
/work/sebastian/BT-20210625/1009747-light/run1009747-light.h5 tag-1496394288//
/work/sebastian/BT-20210625/1009747-light/run1009747-light.h5 tag-1496394292//
/work/sebastian/BT-20210625/1009747-light/run1009747-light.h5 tag-1496394296//
/work/sebastian/BT-20210625/1009747-light/run1009747-light.h5 tag-1496394304//
/work/sebastian/BT-20210625/1009747-light/run1009747-light.h5 tag-1496394308//
/work/sebastian/BT-20210625/1009747-light/run1009747-light.h5 tag-1496394312//
/work/sebastian/BT-20210625/1009747-light/run1009747-light.h5 tag-1496394316//
/work/sebastian/BT-20210625/1009747-light/run1009747-light.h5 tag-1496394320//
/work/sebastian/BT-20210625/1009747-light/run1009747-light.h5 tag-1496394332//
/work/sebastian/BT-20210625/1009747-light/run1009747-light.h5 tag-1496394348//
/work/sebastian/BT-20210625/1009747-light/run1009747-light.h5 tag-1496394352//
/work/sebastian/BT-20210625/1009747-light/run1009747-light.h5 tag-1496394356//
/work/sebastian/BT-20210625/1009747-light/run1009747-light.h5 tag-1496394360//
/work/sebastian/BT-20210625/1009747-light/run1009747-light.h5 tag-1496394364//
/work/sebastian/BT-20210625/1009747-light/run1009747-light.h5 tag-1496394372//
/work/sebastian/BT-20210625/1009747-light/run1009747-light.h5 tag-1496394376//
/work/sebastian/BT-20210625/1009747-light/run1009747-light.h5 tag-1496394380//
/work/sebastian/BT-20210625/1009747-light/run1009747-light.h5 tag-1496394384//
/work/sebastian/BT-20210625/1009747-light/run1009747-light.h5 tag-1496394392//
/work/sebastian/BT-20210625/1009747-light/run1009747-light.h5 tag-1496394396//
/work/sebastian/BT-20210625/1009747-light/run1009747-light.h5 tag-1496394400//
/work/sebastian/BT-20210625/1009747-light/run1009747-light.h5 tag-1496394420//
/work/sebastian/BT-20210625/1009747-light/run1009747-light.h5 tag-1496394424//
/work/sebastian/BT-20210625/1009747-light/run1009747-light.h5 tag-1496394428//
/work/sebastian/BT-20210625/1009747-light/run1009747-light.h5 tag-1496394436//
/work/sebastian/BT-20210625/1009747-light/run1009747-light.h5 tag-1496394440//
/work/sebastian/BT-20210625/1009747-light/run1009747-light.h5 tag-1496394444//
/work/sebastian/BT-20210625/1009747-light/run1009747-light.h5 tag-1496394448//
/work/sebastian/BT-20210625/1009747-light/run1009747-light.h5 tag-1496394452//
/work/sebastian/BT-20210625/1009747-light/run1009747-light.h5 tag-1496394456//
/work/sebastian/BT-20210625/1009747-light/run1009747-light.h5 tag-1496394468//
/work/sebastian/BT-20210625/1009747-light/run1009747-light.h5 tag-1496394476//
/work/sebastian/BT-20210625/1009747-light/run1009747-light.h5 tag-1496394484//
/work/sebastian/BT-20210625/1009747-light/run1009747-light.h5 tag-1496394488//
/work/sebastian/BT-20210625/1009747-light/run1009747-light.h5 tag-1496394524//
/work/sebastian/BT-20210625/1009747-light/run1009747-light.h5 tag-1496394532//
/work/sebastian/BT-20210625/1009747-light/run1009747-light.h5 tag-1496394536//
/work/sebastian/BT-20210625/1009747-light/run1009747-light.h5 tag-1496394552//
/work/sebastian/BT-20210625/1009747-light/run1009747-light.h5 tag-1496394580//
/work/sebastian/BT-20210625/1009747-light/run1009747-light.h5 tag-1496394588//
/work/sebastian/BT-20210625/1009747-light/run1009747-light.h5 tag-1496394592//
/work/sebastian/BT-20210625/1009747-light/run1009747-light.h5 tag-1496394600//
/work/sebastian/BT-20210625/1009747-light/run1009747-light.h5 tag-1496394608//
/work/sebastian/BT-20210625/1009747-light/run1009747-light.h5 tag-1496394612//
/work/sebastian/BT-20210625/1009747-light/run1009747-light.h5 tag-1496394616//
/work/sebastian/BT-20210625/1009747-light/run1009747-light.h5 tag-1496394624//
/work/sebastian/BT-20210625/1009747-light/run1009747-light.h5 tag-1496394628//
/work/sebastian/BT-20210625/1009747-light/run1009747-light.h5 tag-1496394636//
/work/sebastian/BT-20210625/1009747-light/run1009747-light.h5 tag-1496394644//
/work/sebastian/BT-20210625/1009747-light/run1009747-light.h5 tag-1496394652//
/work/sebastian/BT-20210625/1009747-light/run1009747-light.h5 tag-1496394656//
/work/sebastian/BT-20210625/1009747-light/run1009747-light.h5 tag-1496394660//
/work/sebastian/BT-20210625/1009747-light/run1009747-light.h5 tag-1496394668//
/work/sebastian/BT-20210625/1009747-light/run1009747-light.h5 tag-1496394672//
/work/sebastian/BT-20210625/1009747-light/run1009747-light.h5 tag-1496394676//
/work/sebastian/BT-20210625/1009747-light/run1009747-light.h5 tag-1496394680//
/work/sebastian/BT-20210625/1009747-light/run1009747-light.h5 tag-1496394684//
/work/sebastian/BT-20210625/1009747-light/run1009747-light.h5 tag-1496394688//
/work/sebastian/BT-20210625/1009747-light/run1009747-light.h5 tag-1496394700//
/work/sebastian/BT-20210625/1009747-light/run1009747-light.h5 tag-1496394704//
/work/sebastian/BT-20210625/1009747-light/run1009747-light.h5 tag-1496394716//
/work/sebastian/BT-20210625/1009747-light/run1009747-light.h5 tag-1496394720//
/work/sebastian/BT-20210625/1009747-light/run1009747-light.h5 tag-1496394724//
/work/sebastian/BT-20210625/1009747-light/run1009747-light.h5 tag-1496394728//
/work/sebastian/BT-20210625/1009747-light/run1009747-light.h5 tag-1496394732//
/work/sebastian/BT-20210625/1009747-light/run1009747-light.h5 tag-1496394736//
/work/sebastian/BT-20210625/1009747-light/run1009747-light.h5 tag-1496394740//
/work/sebastian/BT-20210625/1009747-light/run1009747-light.h5 tag-1496394748//
/work/sebastian/BT-20210625/1009747-light/run1009747-light.h5 tag-1496394752//
/work/sebastian/BT-20210625/1009747-light/run1009747-light.h5 tag-1496394760//
/work/sebastian/BT-20210625/1009747-light/run1009747-light.h5 tag-1496394768//
/work/sebastian/BT-20210625/1009747-light/run1009747-light.h5 tag-1496394776//
/work/sebastian/BT-20210625/1009747-light/run1009747-light.h5 tag-1496394792//
/work/sebastian/BT-20210625/1009747-light/run1009747-light.h5 tag-1496394796//
/work/sebastian/BT-20210625/1009747-light/run1009747-light.h5 tag-1496394812//
/work/sebastian/BT-20210625/1009747-light/run1009747-light.h5 tag-1496394816//
/work/sebastian/BT-20210625/1009747-light/run1009747-light.h5 tag-1496394828//
/work/sebastian/BT-20210625/1009747-light/run1009747-light.h5 tag-1496394848//
/work/sebastian/BT-20210625/1009747-light/run1009747-light.h5 tag-1496394852//
/work/sebastian/BT-20210625/1009747-light/run1009747-light.h5 tag-1496394864//
/work/sebastian/BT-20210625/1009747-light/run1009747-light.h5 tag-1496394876//
/work/sebastian/BT-20210625/1009747-light/run1009747-light.h5 tag-1496394888//
/work/sebastian/BT-20210625/1009747-light/run1009747-light.h5 tag-1496394896//
/work/sebastian/BT-20210625/1009747-light/run1009747-light.h5 tag-1496394900//
/work/sebastian/BT-20210625/1009747-light/run1009747-light.h5 tag-1496394908//
/work/sebastian/BT-20210625/1009747-light/run1009747-light.h5 tag-1496394912//
/work/sebastian/BT-20210625/1009747-light/run1009747-light.h5 tag-1496394920//
/work/sebastian/BT-20210625/1009747-light/run1009747-light.h5 tag-1496394924//
/work/sebastian/BT-20210625/1009747-light/run1009747-light.h5 tag-1496394928//
/work/sebastian/BT-20210625/1009747-light/run1009747-light.h5 tag-1496394932//
/work/sebastian/BT-20210625/1009747-light/run1009747-light.h5 tag-1496394936//
/work/sebastian/BT-20210625/1009747-light/run1009747-light.h5 tag-1496394940//
/work/sebastian/BT-20210625/1009747-light/run1009747-light.h5 tag-1496394952//
/work/sebastian/BT-20210625/1009747-light/run1009747-light.h5 tag-1496394968//
/work/sebastian/BT-20210625/1009747-light/run1009747-light.h5 tag-1496394976//
/work/sebastian/BT-20210625/1009747-light/run1009747-light.h5 tag-1496394984//
/work/sebastian/BT-20210625/1009747-light/run1009747-light.h5 tag-1496394988//
/work/sebastian/BT-20210625/1009747-light/run1009747-light.h5 tag-1496394992//
/work/sebastian/BT-20210625/1009747-light/run1009747-light.h5 tag-1496395000//
/work/sebastian/BT-20210625/1009747-light/run1009747-light.h5 tag-1496395008//
/work/sebastian/BT-20210625/1009747-light/run1009747-light.h5 tag-1496395012//
/work/sebastian/BT-20210625/1009747-light/run1009747-light.h5 tag-1496395016//
/work/sebastian/BT-20210625/1009747-light/run1009747-light.h5 tag-1496395024//
/work/sebastian/BT-20210625/1009747-light/run1009747-light.h5 tag-1496395028//
/work/sebastian/BT-20210625/1009747-light/run1009747-light.h5 tag-1496395032//
/work/sebastian/BT-20210625/1009747-light/run1009747-light.h5 tag-1496395040//
/work/sebastian/BT-20210625/1009747-light/run1009747-light.h5 tag-1496395048//
/work/sebastian/BT-20210625/1009747-light/run1009747-light.h5 tag-1496395052//
/work/sebastian/BT-20210625/1009747-light/run1009747-light.h5 tag-1496395068//
/work/sebastian/BT-20210625/1009747-light/run1009747-light.h5 tag-1496395076//
/work/sebastian/BT-20210625/1009747-light/run1009747-light.h5 tag-1496395080//
/work/sebastian/BT-20210625/1009747-light/run1009747-light.h5 tag-1496395084//
/work/sebastian/BT-20210625/1009747-light/run1009747-light.h5 tag-1496395096//
/work/sebastian/BT-20210625/1009747-light/run1009747-light.h5 tag-1496395100//
/work/sebastian/BT-20210625/1009747-light/run1009747-light.h5 tag-1496395104//
/work/sebastian/BT-20210625/1009747-light/run1009747-light.h5 tag-1496395116//
/work/sebastian/BT-20210625/1009747-light/run1009747-light.h5 tag-1496395120//
/work/sebastian/BT-20210625/1009747-light/run1009747-light.h5 tag-1496395132//
/work/sebastian/BT-20210625/1009747-light/run1009747-light.h5 tag-1496395148//
/work/sebastian/BT-20210625/1009747-light/run1009747-light.h5 tag-1496395152//
/work/sebastian/BT-20210625/1009747-light/run1009747-light.h5 tag-1496395156//
/work/sebastian/BT-20210625/1009747-light/run1009747-light.h5 tag-1496395172//
/work/sebastian/BT-20210625/1009747-light/run1009747-light.h5 tag-1496395176//
/work/sebastian/BT-20210625/1009747-light/run1009747-light.h5 tag-1496395184//
/work/sebastian/BT-20210625/1009747-light/run1009747-light.h5 tag-1496395196//
/work/sebastian/BT-20210625/1009747-light/run1009747-light.h5 tag-1496395200//
/work/sebastian/BT-20210625/1009747-light/run1009747-light.h5 tag-1496395204//
/work/sebastian/BT-20210625/1009747-light/run1009747-light.h5 tag-1496395208//
/work/sebastian/BT-20210625/1009747-light/run1009747-light.h5 tag-1496395212//
/work/sebastian/BT-20210625/1009747-light/run1009747-light.h5 tag-1496395216//
/work/sebastian/BT-20210625/1009747-light/run1009747-light.h5 tag-1496395220//
/work/sebastian/BT-20210625/1009747-light/run1009747-light.h5 tag-1496395224//
/work/sebastian/BT-20210625/1009747-light/run1009747-light.h5 tag-1496395228//
/work/sebastian/BT-20210625/1009747-light/run1009747-light.h5 tag-1496395232//
/work/sebastian/BT-20210625/1009747-light/run1009747-light.h5 tag-1496395236//
/work/sebastian/BT-20210625/1009747-light/run1009747-light.h5 tag-1496395240//
/work/sebastian/BT-20210625/1009747-light/run1009747-light.h5 tag-1496395244//
/work/sebastian/BT-20210625/1009747-light/run1009747-light.h5 tag-1496395256//
/work/sebastian/BT-20210625/1009747-light/run1009747-light.h5 tag-1496395260//
/work/sebastian/BT-20210625/1009747-light/run1009747-light.h5 tag-1496395264//
/work/sebastian/BT-20210625/1009747-light/run1009747-light.h5 tag-1496395268//
/work/sebastian/BT-20210625/1009747-light/run1009747-light.h5 tag-1496395272//
/work/sebastian/BT-20210625/1009747-light/run1009747-light.h5 tag-1496395276//
/work/sebastian/BT-20210625/1009747-light/run1009747-light.h5 tag-1496395280//
/work/sebastian/BT-20210625/1009747-light/run1009747-light.h5 tag-1496395288//
/work/sebastian/BT-20210625/1009747-light/run1009747-light.h5 tag-1496395292//
/work/sebastian/BT-20210625/1009747-light/run1009747-light.h5 tag-1496395300//
/work/sebastian/BT-20210625/1009747-light/run1009747-light.h5 tag-1496395320//
/work/sebastian/BT-20210625/1009747-light/run1009747-light.h5 tag-1496395324//
/work/sebastian/BT-20210625/1009747-light/run1009747-light.h5 tag-1496395328//
/work/sebastian/BT-20210625/1009747-light/run1009747-light.h5 tag-1496395332//
/work/sebastian/BT-20210625/1009747-light/run1009747-light.h5 tag-1496395348//
/work/sebastian/BT-20210625/1009747-light/run1009747-light.h5 tag-1496395364//
/work/sebastian/BT-20210625/1009747-light/run1009747-light.h5 tag-1496395368//
/work/sebastian/BT-20210625/1009747-light/run1009747-light.h5 tag-1496395372//
/work/sebastian/BT-20210625/1009747-light/run1009747-light.h5 tag-1496395384//
/work/sebastian/BT-20210625/1009747-light/run1009747-light.h5 tag-1496395388//
/work/sebastian/BT-20210625/1009747-light/run1009747-light.h5 tag-1496395396//
/work/sebastian/BT-20210625/1009747-light/run1009747-light.h5 tag-1496395400//
/work/sebastian/BT-20210625/1009747-light/run1009747-light.h5 tag-1496395412//
/work/sebastian/BT-20210625/1009747-light/run1009747-light.h5 tag-1496395420//
/work/sebastian/BT-20210625/1009747-light/run1009747-light.h5 tag-1496395436//
/work/sebastian/BT-20210625/1009747-light/run1009747-light.h5 tag-1496395440//
/work/sebastian/BT-20210625/1009747-light/run1009747-light.h5 tag-1496395444//
/work/sebastian/BT-20210625/1009747-light/run1009747-light.h5 tag-1496395452//
/work/sebastian/BT-20210625/1009747-light/run1009747-light.h5 tag-1496395472//
/work/sebastian/BT-20210625/1009747-light/run1009747-light.h5 tag-1496395476//
/work/sebastian/BT-20210625/1009747-light/run1009747-light.h5 tag-1496395488//
/work/sebastian/BT-20210625/1009747-light/run1009747-light.h5 tag-1496395492//
/work/sebastian/BT-20210625/1009747-light/run1009747-light.h5 tag-1496395496//
/work/sebastian/BT-20210625/1009747-light/run1009747-light.h5 tag-1496395504//
/work/sebastian/BT-20210625/1009747-light/run1009747-light.h5 tag-1496395520//
/work/sebastian/BT-20210625/1009747-light/run1009747-light.h5 tag-1496395524//
/work/sebastian/BT-20210625/1009747-light/run1009747-light.h5 tag-1496395532//
/work/sebastian/BT-20210625/1009747-light/run1009747-light.h5 tag-1496395540//
/work/sebastian/BT-20210625/1009747-light/run1009747-light.h5 tag-1496395544//
/work/sebastian/BT-20210625/1009747-light/run1009747-light.h5 tag-1496395548//
/work/sebastian/BT-20210625/1009747-light/run1009747-light.h5 tag-1496395556//
/work/sebastian/BT-20210625/1009747-light/run1009747-light.h5 tag-1496395564//
/work/sebastian/BT-20210625/1009747-light/run1009747-light.h5 tag-1496395568//
/work/sebastian/BT-20210625/1009747-light/run1009747-light.h5 tag-1496395576//
/work/sebastian/BT-20210625/1009747-light/run1009747-light.h5 tag-1496395580//
/work/sebastian/BT-20210625/1009747-light/run1009747-light.h5 tag-1496395588//
/work/sebastian/BT-20210625/1009747-light/run1009747-light.h5 tag-1496395592//
/work/sebastian/BT-20210625/1009747-light/run1009747-light.h5 tag-1496395596//
/work/sebastian/BT-20210625/1009747-light/run1009747-light.h5 tag-1496395600//
/work/sebastian/BT-20210625/1009747-light/run1009747-light.h5 tag-1496395608//
/work/sebastian/BT-20210625/1009747-light/run1009747-light.h5 tag-1496395612//
/work/sebastian/BT-20210625/1009747-light/run1009747-light.h5 tag-1496395620//
/work/sebastian/BT-20210625/1009747-light/run1009747-light.h5 tag-1496395624//
/work/sebastian/BT-20210625/1009747-light/run1009747-light.h5 tag-1496395628//
/work/sebastian/BT-20210625/1009747-light/run1009747-light.h5 tag-1496395632//
/work/sebastian/BT-20210625/1009747-light/run1009747-light.h5 tag-1496395640//
/work/sebastian/BT-20210625/1009747-light/run1009747-light.h5 tag-1496395652//
/work/sebastian/BT-20210625/1009747-light/run1009747-light.h5 tag-1496395656//
/work/sebastian/BT-20210625/1009747-light/run1009747-light.h5 tag-1496395664//
/work/sebastian/BT-20210625/1009747-light/run1009747-light.h5 tag-1496395676//
/work/sebastian/BT-20210625/1009747-light/run1009747-light.h5 tag-1496395684//
/work/sebastian/BT-20210625/1009747-light/run1009747-light.h5 tag-1496395704//
/work/sebastian/BT-20210625/1009747-light/run1009747-light.h5 tag-1496395716//
/work/sebastian/BT-20210625/1009747-light/run1009747-light.h5 tag-1496395720//
/work/sebastian/BT-20210625/1009747-light/run1009747-light.h5 tag-1496395736//
/work/sebastian/BT-20210625/1009747-light/run1009747-light.h5 tag-1496395744//
/work/sebastian/BT-20210625/1009747-light/run1009747-light.h5 tag-1496395748//
/work/sebastian/BT-20210625/1009747-light/run1009747-light.h5 tag-1496395752//
/work/sebastian/BT-20210625/1009747-light/run1009747-light.h5 tag-1496395764//
/work/sebastian/BT-20210625/1009747-light/run1009747-light.h5 tag-1496395768//
/work/sebastian/BT-20210625/1009747-light/run1009747-light.h5 tag-1496395772//
/work/sebastian/BT-20210625/1009747-light/run1009747-light.h5 tag-1496395776//
/work/sebastian/BT-20210625/1009747-light/run1009747-light.h5 tag-1496395784//
/work/sebastian/BT-20210625/1009747-light/run1009747-light.h5 tag-1496395788//
/work/sebastian/BT-20210625/1009747-light/run1009747-light.h5 tag-1496395792//
/work/sebastian/BT-20210625/1009747-light/run1009747-light.h5 tag-1496395808//
/work/sebastian/BT-20210625/1009747-light/run1009747-light.h5 tag-1496395816//
/work/sebastian/BT-20210625/1009747-light/run1009747-light.h5 tag-1496395824//
/work/sebastian/BT-20210625/1009747-light/run1009747-light.h5 tag-1496395828//
/work/sebastian/BT-20210625/1009747-light/run1009747-light.h5 tag-1496395836//
/work/sebastian/BT-20210625/1009747-light/run1009747-light.h5 tag-1496395868//
/work/sebastian/BT-20210625/1009747-light/run1009747-light.h5 tag-1496395880//
/work/sebastian/BT-20210625/1009747-light/run1009747-light.h5 tag-1496395892//
/work/sebastian/BT-20210625/1009747-light/run1009747-light.h5 tag-1496395896//
/work/sebastian/BT-20210625/1009747-light/run1009747-light.h5 tag-1496395900//
/work/sebastian/BT-20210625/1009747-light/run1009747-light.h5 tag-1496395912//
/work/sebastian/BT-20210625/1009747-light/run1009747-light.h5 tag-1496395916//
/work/sebastian/BT-20210625/1009747-light/run1009747-light.h5 tag-1496395924//
/work/sebastian/BT-20210625/1009747-light/run1009747-light.h5 tag-1496395940//
/work/sebastian/BT-20210625/1009747-light/run1009747-light.h5 tag-1496395952//
/work/sebastian/BT-20210625/1009747-light/run1009747-light.h5 tag-1496395960//
/work/sebastian/BT-20210625/1009747-light/run1009747-light.h5 tag-1496395964//
/work/sebastian/BT-20210625/1009747-light/run1009747-light.h5 tag-1496395976//
/work/sebastian/BT-20210625/1009747-light/run1009747-light.h5 tag-1496395980//
/work/sebastian/BT-20210625/1009747-light/run1009747-light.h5 tag-1496395984//
/work/sebastian/BT-20210625/1009747-light/run1009747-light.h5 tag-1496395988//
/work/sebastian/BT-20210625/1009747-light/run1009747-light.h5 tag-1496395992//
/work/sebastian/BT-20210625/1009747-light/run1009747-light.h5 tag-1496395996//
/work/sebastian/BT-20210625/1009747-light/run1009747-light.h5 tag-1496396016//
/work/sebastian/BT-20210625/1009747-light/run1009747-light.h5 tag-1496396036//
/work/sebastian/BT-20210625/1009747-light/run1009747-light.h5 tag-1496396044//
/work/sebastian/BT-20210625/1009747-light/run1009747-light.h5 tag-1496396048//
/work/sebastian/BT-20210625/1009747-light/run1009747-light.h5 tag-1496396060//
/work/sebastian/BT-20210625/1009747-light/run1009747-light.h5 tag-1496396064//
/work/sebastian/BT-20210625/1009747-light/run1009747-light.h5 tag-1496396068//
/work/sebastian/BT-20210625/1009747-light/run1009747-light.h5 tag-1496396084//
/work/sebastian/BT-20210625/1009747-light/run1009747-light.h5 tag-1496396088//
/work/sebastian/BT-20210625/1009747-light/run1009747-light.h5 tag-1496396100//
/work/sebastian/BT-20210625/1009747-light/run1009747-light.h5 tag-1496396112//
/work/sebastian/BT-20210625/1009747-light/run1009747-light.h5 tag-1496396116//
/work/sebastian/BT-20210625/1009747-light/run1009747-light.h5 tag-1496396120//
/work/sebastian/BT-20210625/1009747-light/run1009747-light.h5 tag-1496396124//
/work/sebastian/BT-20210625/1009747-light/run1009747-light.h5 tag-1496396128//
/work/sebastian/BT-20210625/1009747-light/run1009747-light.h5 tag-1496396132//
/work/sebastian/BT-20210625/1009747-light/run1009747-light.h5 tag-1496396136//
/work/sebastian/BT-20210625/1009747-light/run1009747-light.h5 tag-1496396140//
/work/sebastian/BT-20210625/1009747-light/run1009747-light.h5 tag-1496396144//
/work/sebastian/BT-20210625/1009747-light/run1009747-light.h5 tag-1496396152//
/work/sebastian/BT-20210625/1009747-light/run1009747-light.h5 tag-1496396164//
/work/sebastian/BT-20210625/1009747-light/run1009747-light.h5 tag-1496396172//
/work/sebastian/BT-20210625/1009747-light/run1009747-light.h5 tag-1496396180//
/work/sebastian/BT-20210625/1009747-light/run1009747-light.h5 tag-1496396188//
/work/sebastian/BT-20210625/1009747-light/run1009747-light.h5 tag-1496396192//
/work/sebastian/BT-20210625/1009747-light/run1009747-light.h5 tag-1496396200//
/work/sebastian/BT-20210625/1009747-light/run1009747-light.h5 tag-1496396212//
/work/sebastian/BT-20210625/1009747-light/run1009747-light.h5 tag-1496396220//
/work/sebastian/BT-20210625/1009747-light/run1009747-light.h5 tag-1496396228//
/work/sebastian/BT-20210625/1009747-light/run1009747-light.h5 tag-1496396236//
/work/sebastian/BT-20210625/1009747-light/run1009747-light.h5 tag-1496396244//
/work/sebastian/BT-20210625/1009747-light/run1009747-light.h5 tag-1496396248//
/work/sebastian/BT-20210625/1009747-light/run1009747-light.h5 tag-1496396252//
/work/sebastian/BT-20210625/1009747-light/run1009747-light.h5 tag-1496396260//
/work/sebastian/BT-20210625/1009747-light/run1009747-light.h5 tag-1496396268//
/work/sebastian/BT-20210625/1009747-light/run1009747-light.h5 tag-1496396272//
/work/sebastian/BT-20210625/1009747-light/run1009747-light.h5 tag-1496396276//
/work/sebastian/BT-20210625/1009747-light/run1009747-light.h5 tag-1496396288//
/work/sebastian/BT-20210625/1009747-light/run1009747-light.h5 tag-1496396292//
/work/sebastian/BT-20210625/1009747-light/run1009747-light.h5 tag-1496396300//
/work/sebastian/BT-20210625/1009747-light/run1009747-light.h5 tag-1496396304//
/work/sebastian/BT-20210625/1009747-light/run1009747-light.h5 tag-1496396308//
/work/sebastian/BT-20210625/1009747-light/run1009747-light.h5 tag-1496396312//
/work/sebastian/BT-20210625/1009747-light/run1009747-light.h5 tag-1496396320//
/work/sebastian/BT-20210625/1009747-light/run1009747-light.h5 tag-1496396328//
/work/sebastian/BT-20210625/1009747-light/run1009747-light.h5 tag-1496396336//
/work/sebastian/BT-20210625/1009747-light/run1009747-light.h5 tag-1496396348//
/work/sebastian/BT-20210625/1009747-light/run1009747-light.h5 tag-1496396360//
/work/sebastian/BT-20210625/1009747-light/run1009747-light.h5 tag-1496396364//
/work/sebastian/BT-20210625/1009747-light/run1009747-light.h5 tag-1496396372//
/work/sebastian/BT-20210625/1009747-light/run1009747-light.h5 tag-1496396376//
/work/sebastian/BT-20210625/1009747-light/run1009747-light.h5 tag-1496396380//
/work/sebastian/BT-20210625/1009747-light/run1009747-light.h5 tag-1496396392//
/work/sebastian/BT-20210625/1009747-light/run1009747-light.h5 tag-1496396396//
/work/sebastian/BT-20210625/1009747-light/run1009747-light.h5 tag-1496396400//
/work/sebastian/BT-20210625/1009747-light/run1009747-light.h5 tag-1496396404//
/work/sebastian/BT-20210625/1009747-light/run1009747-light.h5 tag-1496396408//
/work/sebastian/BT-20210625/1009747-light/run1009747-light.h5 tag-1496396420//
/work/sebastian/BT-20210625/1009747-light/run1009747-light.h5 tag-1496396440//
/work/sebastian/BT-20210625/1009747-light/run1009747-light.h5 tag-1496396448//
/work/sebastian/BT-20210625/1009747-light/run1009747-light.h5 tag-1496396452//
/work/sebastian/BT-20210625/1009747-light/run1009747-light.h5 tag-1496396456//
/work/sebastian/BT-20210625/1009747-light/run1009747-light.h5 tag-1496396460//
/work/sebastian/BT-20210625/1009747-light/run1009747-light.h5 tag-1496396464//
/work/sebastian/BT-20210625/1009747-light/run1009747-light.h5 tag-1496396472//
/work/sebastian/BT-20210625/1009747-light/run1009747-light.h5 tag-1496396476//
/work/sebastian/BT-20210625/1009747-light/run1009747-light.h5 tag-1496396480//
/work/sebastian/BT-20210625/1009747-light/run1009747-light.h5 tag-1496396492//
/work/sebastian/BT-20210625/1009747-light/run1009747-light.h5 tag-1496396500//
/work/sebastian/BT-20210625/1009747-light/run1009747-light.h5 tag-1496396504//
/work/sebastian/BT-20210625/1009747-light/run1009747-light.h5 tag-1496396512//
/work/sebastian/BT-20210625/1009747-light/run1009747-light.h5 tag-1496396524//
/work/sebastian/BT-20210625/1009747-light/run1009747-light.h5 tag-1496396548//
/work/sebastian/BT-20210625/1009747-light/run1009747-light.h5 tag-1496396552//
/work/sebastian/BT-20210625/1009747-light/run1009747-light.h5 tag-1496396556//
/work/sebastian/BT-20210625/1009747-light/run1009747-light.h5 tag-1496396560//
/work/sebastian/BT-20210625/1009747-light/run1009747-light.h5 tag-1496396564//
/work/sebastian/BT-20210625/1009747-light/run1009747-light.h5 tag-1496396572//
/work/sebastian/BT-20210625/1009747-light/run1009747-light.h5 tag-1496396580//
/work/sebastian/BT-20210625/1009747-light/run1009747-light.h5 tag-1496396596//
/work/sebastian/BT-20210625/1009747-light/run1009747-light.h5 tag-1496396604//
/work/sebastian/BT-20210625/1009747-light/run1009747-light.h5 tag-1496396608//
/work/sebastian/BT-20210625/1009747-light/run1009747-light.h5 tag-1496396652//
/work/sebastian/BT-20210625/1009747-light/run1009747-light.h5 tag-1496396656//
/work/sebastian/BT-20210625/1009747-light/run1009747-light.h5 tag-1496396660//
/work/sebastian/BT-20210625/1009747-light/run1009747-light.h5 tag-1496396664//
/work/sebastian/BT-20210625/1009747-light/run1009747-light.h5 tag-1496396672//
/work/sebastian/BT-20210625/1009747-light/run1009747-light.h5 tag-1496396676//
/work/sebastian/BT-20210625/1009747-light/run1009747-light.h5 tag-1496396680//
/work/sebastian/BT-20210625/1009747-light/run1009747-light.h5 tag-1496396688//
/work/sebastian/BT-20210625/1009747-light/run1009747-light.h5 tag-1496396700//
/work/sebastian/BT-20210625/1009747-light/run1009747-light.h5 tag-1496396712//
/work/sebastian/BT-20210625/1009747-light/run1009747-light.h5 tag-1496396732//
/work/sebastian/BT-20210625/1009747-light/run1009747-light.h5 tag-1496396740//
/work/sebastian/BT-20210625/1009747-light/run1009747-light.h5 tag-1496396744//
/work/sebastian/BT-20210625/1009747-light/run1009747-light.h5 tag-1496396748//
/work/sebastian/BT-20210625/1009747-light/run1009747-light.h5 tag-1496396760//
/work/sebastian/BT-20210625/1009747-light/run1009747-light.h5 tag-1496396764//
/work/sebastian/BT-20210625/1009747-light/run1009747-light.h5 tag-1496396776//
/work/sebastian/BT-20210625/1009747-light/run1009747-light.h5 tag-1496396780//
/work/sebastian/BT-20210625/1009747-light/run1009747-light.h5 tag-1496396784//
/work/sebastian/BT-20210625/1009747-light/run1009747-light.h5 tag-1496396796//
/work/sebastian/BT-20210625/1009747-light/run1009747-light.h5 tag-1496396808//
/work/sebastian/BT-20210625/1009747-light/run1009747-light.h5 tag-1496396812//
/work/sebastian/BT-20210625/1009747-light/run1009747-light.h5 tag-1496396816//
/work/sebastian/BT-20210625/1009747-light/run1009747-light.h5 tag-1496396820//
/work/sebastian/BT-20210625/1009747-light/run1009747-light.h5 tag-1496396824//
/work/sebastian/BT-20210625/1009747-light/run1009747-light.h5 tag-1496396836//
/work/sebastian/BT-20210625/1009747-light/run1009747-light.h5 tag-1496396840//
/work/sebastian/BT-20210625/1009747-light/run1009747-light.h5 tag-1496396852//
/work/sebastian/BT-20210625/1009747-light/run1009747-light.h5 tag-1496396872//
/work/sebastian/BT-20210625/1009747-light/run1009747-light.h5 tag-1496396876//
/work/sebastian/BT-20210625/1009747-light/run1009747-light.h5 tag-1496396884//
/work/sebastian/BT-20210625/1009747-light/run1009747-light.h5 tag-1496396888//
/work/sebastian/BT-20210625/1009747-light/run1009747-light.h5 tag-1496396892//
/work/sebastian/BT-20210625/1009747-light/run1009747-light.h5 tag-1496396896//
/work/sebastian/BT-20210625/1009747-light/run1009747-light.h5 tag-1496396904//
/work/sebastian/BT-20210625/1009747-light/run1009747-light.h5 tag-1496396908//
/work/sebastian/BT-20210625/1009747-light/run1009747-light.h5 tag-1496396916//
/work/sebastian/BT-20210625/1009747-light/run1009747-light.h5 tag-1496396924//
/work/sebastian/BT-20210625/1009747-light/run1009747-light.h5 tag-1496396928//
/work/sebastian/BT-20210625/1009747-light/run1009747-light.h5 tag-1496396932//
/work/sebastian/BT-20210625/1009747-light/run1009747-light.h5 tag-1496396948//
/work/sebastian/BT-20210625/1009747-light/run1009747-light.h5 tag-1496396956//
/work/sebastian/BT-20210625/1009747-light/run1009747-light.h5 tag-1496396972//
/work/sebastian/BT-20210625/1009747-light/run1009747-light.h5 tag-1496396988//
/work/sebastian/BT-20210625/1009747-light/run1009747-light.h5 tag-1496396992//
/work/sebastian/BT-20210625/1009747-light/run1009747-light.h5 tag-1496396996//
/work/sebastian/BT-20210625/1009747-light/run1009747-light.h5 tag-1496397000//
/work/sebastian/BT-20210625/1009747-light/run1009747-light.h5 tag-1496397008//
/work/sebastian/BT-20210625/1009747-light/run1009747-light.h5 tag-1496397012//
/work/sebastian/BT-20210625/1009747-light/run1009747-light.h5 tag-1496397016//
/work/sebastian/BT-20210625/1009747-light/run1009747-light.h5 tag-1496397028//
/work/sebastian/BT-20210625/1009747-light/run1009747-light.h5 tag-1496397036//
/work/sebastian/BT-20210625/1009747-light/run1009747-light.h5 tag-1496397040//
/work/sebastian/BT-20210625/1009747-light/run1009747-light.h5 tag-1496397052//
/work/sebastian/BT-20210625/1009747-light/run1009747-light.h5 tag-1496397056//
/work/sebastian/BT-20210625/1009747-light/run1009747-light.h5 tag-1496397060//
/work/sebastian/BT-20210625/1009747-light/run1009747-light.h5 tag-1496397064//
/work/sebastian/BT-20210625/1009747-light/run1009747-light.h5 tag-1496397076//
/work/sebastian/BT-20210625/1009747-light/run1009747-light.h5 tag-1496397080//
/work/sebastian/BT-20210625/1009747-light/run1009747-light.h5 tag-1496397084//
/work/sebastian/BT-20210625/1009747-light/run1009747-light.h5 tag-1496397092//
/work/sebastian/BT-20210625/1009747-light/run1009747-light.h5 tag-1496397100//
/work/sebastian/BT-20210625/1009747-light/run1009747-light.h5 tag-1496397108//
/work/sebastian/BT-20210625/1009747-light/run1009747-light.h5 tag-1496397112//
/work/sebastian/BT-20210625/1009747-light/run1009747-light.h5 tag-1496397116//
/work/sebastian/BT-20210625/1009747-light/run1009747-light.h5 tag-1496397120//
/work/sebastian/BT-20210625/1009747-light/run1009747-light.h5 tag-1496397128//
/work/sebastian/BT-20210625/1009747-light/run1009747-light.h5 tag-1496397156//
/work/sebastian/BT-20210625/1009747-light/run1009747-light.h5 tag-1496397160//
/work/sebastian/BT-20210625/1009747-light/run1009747-light.h5 tag-1496397164//
/work/sebastian/BT-20210625/1009747-light/run1009747-light.h5 tag-1496397176//
/work/sebastian/BT-20210625/1009747-light/run1009747-light.h5 tag-1496397196//
/work/sebastian/BT-20210625/1009747-light/run1009747-light.h5 tag-1496397212//
/work/sebastian/BT-20210625/1009747-light/run1009747-light.h5 tag-1496397220//
/work/sebastian/BT-20210625/1009747-light/run1009747-light.h5 tag-1496397228//
/work/sebastian/BT-20210625/1009747-light/run1009747-light.h5 tag-1496397232//
/work/sebastian/BT-20210625/1009747-light/run1009747-light.h5 tag-1496397240//
/work/sebastian/BT-20210625/1009747-light/run1009747-light.h5 tag-1496397244//
/work/sebastian/BT-20210625/1009747-light/run1009747-light.h5 tag-1496397252//
/work/sebastian/BT-20210625/1009747-light/run1009747-light.h5 tag-1496397256//
/work/sebastian/BT-20210625/1009747-light/run1009747-light.h5 tag-1496397260//
/work/sebastian/BT-20210625/1009747-light/run1009747-light.h5 tag-1496397268//
/work/sebastian/BT-20210625/1009747-light/run1009747-light.h5 tag-1496397280//
/work/sebastian/BT-20210625/1009747-light/run1009747-light.h5 tag-1496397284//
/work/sebastian/BT-20210625/1009747-light/run1009747-light.h5 tag-1496397304//
/work/sebastian/BT-20210625/1009747-light/run1009747-light.h5 tag-1496397308//
/work/sebastian/BT-20210625/1009747-light/run1009747-light.h5 tag-1496397316//
/work/sebastian/BT-20210625/1009747-light/run1009747-light.h5 tag-1496397320//
/work/sebastian/BT-20210625/1009747-light/run1009747-light.h5 tag-1496397324//
/work/sebastian/BT-20210625/1009747-light/run1009747-light.h5 tag-1496397328//
/work/sebastian/BT-20210625/1009747-light/run1009747-light.h5 tag-1496397332//
/work/sebastian/BT-20210625/1009747-light/run1009747-light.h5 tag-1496397336//
/work/sebastian/BT-20210625/1009747-light/run1009747-light.h5 tag-1496397340//
/work/sebastian/BT-20210625/1009747-light/run1009747-light.h5 tag-1496397348//
/work/sebastian/BT-20210625/1009747-light/run1009747-light.h5 tag-1496397352//
/work/sebastian/BT-20210625/1009747-light/run1009747-light.h5 tag-1496397356//
/work/sebastian/BT-20210625/1009747-light/run1009747-light.h5 tag-1496397368//
/work/sebastian/BT-20210625/1009747-light/run1009747-light.h5 tag-1496397376//
/work/sebastian/BT-20210625/1009747-light/run1009747-light.h5 tag-1496397384//
/work/sebastian/BT-20210625/1009747-light/run1009747-light.h5 tag-1496397400//
/work/sebastian/BT-20210625/1009747-light/run1009747-light.h5 tag-1496397416//
/work/sebastian/BT-20210625/1009747-light/run1009747-light.h5 tag-1496397424//
/work/sebastian/BT-20210625/1009747-light/run1009747-light.h5 tag-1496397428//
/work/sebastian/BT-20210625/1009747-light/run1009747-light.h5 tag-1496397436//
/work/sebastian/BT-20210625/1009747-light/run1009747-light.h5 tag-1496397444//
/work/sebastian/BT-20210625/1009747-light/run1009747-light.h5 tag-1496397456//
/work/sebastian/BT-20210625/1009747-light/run1009747-light.h5 tag-1496397468//
/work/sebastian/BT-20210625/1009747-light/run1009747-light.h5 tag-1496397484//
/work/sebastian/BT-20210625/1009747-light/run1009747-light.h5 tag-1496397492//
/work/sebastian/BT-20210625/1009747-light/run1009747-light.h5 tag-1496397504//
/work/sebastian/BT-20210625/1009747-light/run1009747-light.h5 tag-1496397512//
/work/sebastian/BT-20210625/1009747-light/run1009747-light.h5 tag-1496397516//
/work/sebastian/BT-20210625/1009747-light/run1009747-light.h5 tag-1496397520//
/work/sebastian/BT-20210625/1009747-light/run1009747-light.h5 tag-1496397524//
/work/sebastian/BT-20210625/1009747-light/run1009747-light.h5 tag-1496397532//
/work/sebastian/BT-20210625/1009747-light/run1009747-light.h5 tag-1496397536//
/work/sebastian/BT-20210625/1009747-light/run1009747-light.h5 tag-1496397544//
/work/sebastian/BT-20210625/1009747-light/run1009747-light.h5 tag-1496397552//
/work/sebastian/BT-20210625/1009747-light/run1009747-light.h5 tag-1496397560//
/work/sebastian/BT-20210625/1009747-light/run1009747-light.h5 tag-1496397564//
/work/sebastian/BT-20210625/1009747-light/run1009747-light.h5 tag-1496397568//
/work/sebastian/BT-20210625/1009747-light/run1009747-light.h5 tag-1496397572//
/work/sebastian/BT-20210625/1009747-light/run1009747-light.h5 tag-1496397576//
/work/sebastian/BT-20210625/1009747-light/run1009747-light.h5 tag-1496397580//
/work/sebastian/BT-20210625/1009747-light/run1009747-light.h5 tag-1496397584//
/work/sebastian/BT-20210625/1009747-light/run1009747-light.h5 tag-1496397592//
/work/sebastian/BT-20210625/1009747-light/run1009747-light.h5 tag-1496397604//
/work/sebastian/BT-20210625/1009747-light/run1009747-light.h5 tag-1496397612//
/work/sebastian/BT-20210625/1009747-light/run1009747-light.h5 tag-1496397616//
/work/sebastian/BT-20210625/1009747-light/run1009747-light.h5 tag-1496397624//
/work/sebastian/BT-20210625/1009747-light/run1009747-light.h5 tag-1496397628//
/work/sebastian/BT-20210625/1009747-light/run1009747-light.h5 tag-1496397632//
/work/sebastian/BT-20210625/1009747-light/run1009747-light.h5 tag-1496397648//
/work/sebastian/BT-20210625/1009747-light/run1009747-light.h5 tag-1496397652//
/work/sebastian/BT-20210625/1009747-light/run1009747-light.h5 tag-1496397656//
/work/sebastian/BT-20210625/1009747-light/run1009747-light.h5 tag-1496397680//
/work/sebastian/BT-20210625/1009747-light/run1009747-light.h5 tag-1496397688//
/work/sebastian/BT-20210625/1009747-light/run1009747-light.h5 tag-1496397696//
/work/sebastian/BT-20210625/1009747-light/run1009747-light.h5 tag-1496397700//
/work/sebastian/BT-20210625/1009747-light/run1009747-light.h5 tag-1496397704//
/work/sebastian/BT-20210625/1009747-light/run1009747-light.h5 tag-1496397712//
/work/sebastian/BT-20210625/1009747-light/run1009747-light.h5 tag-1496397716//
/work/sebastian/BT-20210625/1009747-light/run1009747-light.h5 tag-1496397720//
/work/sebastian/BT-20210625/1009747-light/run1009747-light.h5 tag-1496397732//
/work/sebastian/BT-20210625/1009747-light/run1009747-light.h5 tag-1496397744//
/work/sebastian/BT-20210625/1009747-light/run1009747-light.h5 tag-1496397748//
/work/sebastian/BT-20210625/1009747-light/run1009747-light.h5 tag-1496397760//
/work/sebastian/BT-20210625/1009747-light/run1009747-light.h5 tag-1496397764//
/work/sebastian/BT-20210625/1009747-light/run1009747-light.h5 tag-1496397768//
/work/sebastian/BT-20210625/1009747-light/run1009747-light.h5 tag-1496397772//
/work/sebastian/BT-20210625/1009747-light/run1009747-light.h5 tag-1496397776//
/work/sebastian/BT-20210625/1009747-light/run1009747-light.h5 tag-1496397788//
/work/sebastian/BT-20210625/1009747-light/run1009747-light.h5 tag-1496397796//
/work/sebastian/BT-20210625/1009747-light/run1009747-light.h5 tag-1496397808//
/work/sebastian/BT-20210625/1009747-light/run1009747-light.h5 tag-1496397820//
/work/sebastian/BT-20210625/1009747-light/run1009747-light.h5 tag-1496397836//
/work/sebastian/BT-20210625/1009747-light/run1009747-light.h5 tag-1496397844//
/work/sebastian/BT-20210625/1009747-light/run1009747-light.h5 tag-1496397852//
/work/sebastian/BT-20210625/1009747-light/run1009747-light.h5 tag-1496397856//
/work/sebastian/BT-20210625/1009747-light/run1009747-light.h5 tag-1496397860//
/work/sebastian/BT-20210625/1009747-light/run1009747-light.h5 tag-1496397864//
/work/sebastian/BT-20210625/1009747-light/run1009747-light.h5 tag-1496397868//
/work/sebastian/BT-20210625/1009747-light/run1009747-light.h5 tag-1496397884//
/work/sebastian/BT-20210625/1009747-light/run1009747-light.h5 tag-1496397888//
/work/sebastian/BT-20210625/1009747-light/run1009747-light.h5 tag-1496397896//
/work/sebastian/BT-20210625/1009747-light/run1009747-light.h5 tag-1496397900//
/work/sebastian/BT-20210625/1009747-light/run1009747-light.h5 tag-1496397904//
/work/sebastian/BT-20210625/1009747-light/run1009747-light.h5 tag-1496397924//
/work/sebastian/BT-20210625/1009747-light/run1009747-light.h5 tag-1496397940//
/work/sebastian/BT-20210625/1009747-light/run1009747-light.h5 tag-1496397944//
/work/sebastian/BT-20210625/1009747-light/run1009747-light.h5 tag-1496397948//
/work/sebastian/BT-20210625/1009747-light/run1009747-light.h5 tag-1496397964//
/work/sebastian/BT-20210625/1009747-light/run1009747-light.h5 tag-1496397976//
/work/sebastian/BT-20210625/1009747-light/run1009747-light.h5 tag-1496397980//
/work/sebastian/BT-20210625/1009747-light/run1009747-light.h5 tag-1496397984//
/work/sebastian/BT-20210625/1009747-light/run1009747-light.h5 tag-1496397988//
/work/sebastian/BT-20210625/1009747-light/run1009747-light.h5 tag-1496397992//
/work/sebastian/BT-20210625/1009747-light/run1009747-light.h5 tag-1496398012//
/work/sebastian/BT-20210625/1009747-light/run1009747-light.h5 tag-1496398016//
/work/sebastian/BT-20210625/1009747-light/run1009747-light.h5 tag-1496398020//
/work/sebastian/BT-20210625/1009747-light/run1009747-light.h5 tag-1496398024//
/work/sebastian/BT-20210625/1009747-light/run1009747-light.h5 tag-1496398028//
/work/sebastian/BT-20210625/1009747-light/run1009747-light.h5 tag-1496398032//
/work/sebastian/BT-20210625/1009747-light/run1009747-light.h5 tag-1496398036//
/work/sebastian/BT-20210625/1009747-light/run1009747-light.h5 tag-1496398044//
/work/sebastian/BT-20210625/1009747-light/run1009747-light.h5 tag-1496398052//
/work/sebastian/BT-20210625/1009747-light/run1009747-light.h5 tag-1496398060//
/work/sebastian/BT-20210625/1009747-light/run1009747-light.h5 tag-1496398064//
/work/sebastian/BT-20210625/1009747-light/run1009747-light.h5 tag-1496398108//
/work/sebastian/BT-20210625/1009747-light/run1009747-light.h5 tag-1496398116//
/work/sebastian/BT-20210625/1009747-light/run1009747-light.h5 tag-1496398120//
/work/sebastian/BT-20210625/1009747-light/run1009747-light.h5 tag-1496398124//
/work/sebastian/BT-20210625/1009747-light/run1009747-light.h5 tag-1496398132//
/work/sebastian/BT-20210625/1009747-light/run1009747-light.h5 tag-1496398136//
/work/sebastian/BT-20210625/1009747-light/run1009747-light.h5 tag-1496398140//
/work/sebastian/BT-20210625/1009747-light/run1009747-light.h5 tag-1496398148//
/work/sebastian/BT-20210625/1009747-light/run1009747-light.h5 tag-1496398152//
/work/sebastian/BT-20210625/1009747-light/run1009747-light.h5 tag-1496398156//
/work/sebastian/BT-20210625/1009747-light/run1009747-light.h5 tag-1496398160//
/work/sebastian/BT-20210625/1009747-light/run1009747-light.h5 tag-1496398168//
/work/sebastian/BT-20210625/1009747-light/run1009747-light.h5 tag-1496398196//
/work/sebastian/BT-20210625/1009747-light/run1009747-light.h5 tag-1496398216//
/work/sebastian/BT-20210625/1009747-light/run1009747-light.h5 tag-1496398220//
/work/sebastian/BT-20210625/1009747-light/run1009747-light.h5 tag-1496398224//
/work/sebastian/BT-20210625/1009747-light/run1009747-light.h5 tag-1496398228//
/work/sebastian/BT-20210625/1009747-light/run1009747-light.h5 tag-1496398232//
/work/sebastian/BT-20210625/1009747-light/run1009747-light.h5 tag-1496398236//
/work/sebastian/BT-20210625/1009747-light/run1009747-light.h5 tag-1496398252//
/work/sebastian/BT-20210625/1009747-light/run1009747-light.h5 tag-1496398256//
/work/sebastian/BT-20210625/1009747-light/run1009747-light.h5 tag-1496398260//
/work/sebastian/BT-20210625/1009747-light/run1009747-light.h5 tag-1496398268//
/work/sebastian/BT-20210625/1009747-light/run1009747-light.h5 tag-1496398272//
/work/sebastian/BT-20210625/1009747-light/run1009747-light.h5 tag-1496398276//
/work/sebastian/BT-20210625/1009747-light/run1009747-light.h5 tag-1496398284//
/work/sebastian/BT-20210625/1009747-light/run1009747-light.h5 tag-1496398292//
/work/sebastian/BT-20210625/1009747-light/run1009747-light.h5 tag-1496398300//
/work/sebastian/BT-20210625/1009747-light/run1009747-light.h5 tag-1496398304//
/work/sebastian/BT-20210625/1009747-light/run1009747-light.h5 tag-1496398312//
/work/sebastian/BT-20210625/1009747-light/run1009747-light.h5 tag-1496398328//
/work/sebastian/BT-20210625/1009747-light/run1009747-light.h5 tag-1496398332//
/work/sebastian/BT-20210625/1009747-light/run1009747-light.h5 tag-1496398340//
/work/sebastian/BT-20210625/1009747-light/run1009747-light.h5 tag-1496398348//
/work/sebastian/BT-20210625/1009747-light/run1009747-light.h5 tag-1496398376//
/work/sebastian/BT-20210625/1009747-light/run1009747-light.h5 tag-1496398388//
/work/sebastian/BT-20210625/1009747-light/run1009747-light.h5 tag-1496398396//
/work/sebastian/BT-20210625/1009747-light/run1009747-light.h5 tag-1496398404//
/work/sebastian/BT-20210625/1009747-light/run1009747-light.h5 tag-1496398416//
/work/sebastian/BT-20210625/1009747-light/run1009747-light.h5 tag-1496398424//
/work/sebastian/BT-20210625/1009747-light/run1009747-light.h5 tag-1496398428//
/work/sebastian/BT-20210625/1009747-light/run1009747-light.h5 tag-1496398432//
/work/sebastian/BT-20210625/1009747-light/run1009747-light.h5 tag-1496398444//
/work/sebastian/BT-20210625/1009747-light/run1009747-light.h5 tag-1496398452//
