/work/sebastian/BT-20210625/1009458-light/run1009458-light.h5 tag-1491863068//
/work/sebastian/BT-20210625/1009458-light/run1009458-light.h5 tag-1491863070//
/work/sebastian/BT-20210625/1009458-light/run1009458-light.h5 tag-1491863076//
/work/sebastian/BT-20210625/1009458-light/run1009458-light.h5 tag-1491863078//
/work/sebastian/BT-20210625/1009458-light/run1009458-light.h5 tag-1491863082//
/work/sebastian/BT-20210625/1009458-light/run1009458-light.h5 tag-1491863090//
/work/sebastian/BT-20210625/1009458-light/run1009458-light.h5 tag-1491863092//
/work/sebastian/BT-20210625/1009458-light/run1009458-light.h5 tag-1491863096//
/work/sebastian/BT-20210625/1009458-light/run1009458-light.h5 tag-1491863100//
/work/sebastian/BT-20210625/1009458-light/run1009458-light.h5 tag-1491863102//
/work/sebastian/BT-20210625/1009458-light/run1009458-light.h5 tag-1491863104//
/work/sebastian/BT-20210625/1009458-light/run1009458-light.h5 tag-1491863106//
/work/sebastian/BT-20210625/1009458-light/run1009458-light.h5 tag-1491863108//
/work/sebastian/BT-20210625/1009458-light/run1009458-light.h5 tag-1491863110//
/work/sebastian/BT-20210625/1009458-light/run1009458-light.h5 tag-1491863118//
/work/sebastian/BT-20210625/1009458-light/run1009458-light.h5 tag-1491863122//
/work/sebastian/BT-20210625/1009458-light/run1009458-light.h5 tag-1491863126//
/work/sebastian/BT-20210625/1009458-light/run1009458-light.h5 tag-1491863130//
/work/sebastian/BT-20210625/1009458-light/run1009458-light.h5 tag-1491863134//
/work/sebastian/BT-20210625/1009458-light/run1009458-light.h5 tag-1491863142//
/work/sebastian/BT-20210625/1009458-light/run1009458-light.h5 tag-1491863146//
/work/sebastian/BT-20210625/1009458-light/run1009458-light.h5 tag-1491863150//
/work/sebastian/BT-20210625/1009458-light/run1009458-light.h5 tag-1491863154//
/work/sebastian/BT-20210625/1009458-light/run1009458-light.h5 tag-1491863158//
/work/sebastian/BT-20210625/1009458-light/run1009458-light.h5 tag-1491863160//
/work/sebastian/BT-20210625/1009458-light/run1009458-light.h5 tag-1491863162//
/work/sebastian/BT-20210625/1009458-light/run1009458-light.h5 tag-1491863168//
/work/sebastian/BT-20210625/1009458-light/run1009458-light.h5 tag-1491863170//
/work/sebastian/BT-20210625/1009458-light/run1009458-light.h5 tag-1491863172//
/work/sebastian/BT-20210625/1009458-light/run1009458-light.h5 tag-1491863174//
/work/sebastian/BT-20210625/1009458-light/run1009458-light.h5 tag-1491863180//
/work/sebastian/BT-20210625/1009458-light/run1009458-light.h5 tag-1491863182//
/work/sebastian/BT-20210625/1009458-light/run1009458-light.h5 tag-1491863184//
/work/sebastian/BT-20210625/1009458-light/run1009458-light.h5 tag-1491863186//
/work/sebastian/BT-20210625/1009458-light/run1009458-light.h5 tag-1491863188//
/work/sebastian/BT-20210625/1009458-light/run1009458-light.h5 tag-1491863194//
/work/sebastian/BT-20210625/1009458-light/run1009458-light.h5 tag-1491863196//
/work/sebastian/BT-20210625/1009458-light/run1009458-light.h5 tag-1491863198//
/work/sebastian/BT-20210625/1009458-light/run1009458-light.h5 tag-1491863200//
/work/sebastian/BT-20210625/1009458-light/run1009458-light.h5 tag-1491863204//
/work/sebastian/BT-20210625/1009458-light/run1009458-light.h5 tag-1491863206//
/work/sebastian/BT-20210625/1009458-light/run1009458-light.h5 tag-1491863208//
/work/sebastian/BT-20210625/1009458-light/run1009458-light.h5 tag-1491863216//
/work/sebastian/BT-20210625/1009458-light/run1009458-light.h5 tag-1491863218//
/work/sebastian/BT-20210625/1009458-light/run1009458-light.h5 tag-1491863220//
/work/sebastian/BT-20210625/1009458-light/run1009458-light.h5 tag-1491863222//
/work/sebastian/BT-20210625/1009458-light/run1009458-light.h5 tag-1491863224//
/work/sebastian/BT-20210625/1009458-light/run1009458-light.h5 tag-1491863228//
/work/sebastian/BT-20210625/1009458-light/run1009458-light.h5 tag-1491863232//
/work/sebastian/BT-20210625/1009458-light/run1009458-light.h5 tag-1491863234//
/work/sebastian/BT-20210625/1009458-light/run1009458-light.h5 tag-1491863236//
/work/sebastian/BT-20210625/1009458-light/run1009458-light.h5 tag-1491863244//
/work/sebastian/BT-20210625/1009458-light/run1009458-light.h5 tag-1491863246//
/work/sebastian/BT-20210625/1009458-light/run1009458-light.h5 tag-1491863250//
/work/sebastian/BT-20210625/1009458-light/run1009458-light.h5 tag-1491863252//
/work/sebastian/BT-20210625/1009458-light/run1009458-light.h5 tag-1491863254//
/work/sebastian/BT-20210625/1009458-light/run1009458-light.h5 tag-1491863256//
/work/sebastian/BT-20210625/1009458-light/run1009458-light.h5 tag-1491863258//
/work/sebastian/BT-20210625/1009458-light/run1009458-light.h5 tag-1491863260//
/work/sebastian/BT-20210625/1009458-light/run1009458-light.h5 tag-1491863262//
/work/sebastian/BT-20210625/1009458-light/run1009458-light.h5 tag-1491863266//
/work/sebastian/BT-20210625/1009458-light/run1009458-light.h5 tag-1491863272//
/work/sebastian/BT-20210625/1009458-light/run1009458-light.h5 tag-1491863274//
/work/sebastian/BT-20210625/1009458-light/run1009458-light.h5 tag-1491863276//
/work/sebastian/BT-20210625/1009458-light/run1009458-light.h5 tag-1491863278//
/work/sebastian/BT-20210625/1009458-light/run1009458-light.h5 tag-1491863280//
/work/sebastian/BT-20210625/1009458-light/run1009458-light.h5 tag-1491863282//
/work/sebastian/BT-20210625/1009458-light/run1009458-light.h5 tag-1491863286//
/work/sebastian/BT-20210625/1009458-light/run1009458-light.h5 tag-1491863290//
/work/sebastian/BT-20210625/1009458-light/run1009458-light.h5 tag-1491863292//
/work/sebastian/BT-20210625/1009458-light/run1009458-light.h5 tag-1491863296//
/work/sebastian/BT-20210625/1009458-light/run1009458-light.h5 tag-1491863298//
/work/sebastian/BT-20210625/1009458-light/run1009458-light.h5 tag-1491863302//
/work/sebastian/BT-20210625/1009458-light/run1009458-light.h5 tag-1491863306//
/work/sebastian/BT-20210625/1009458-light/run1009458-light.h5 tag-1491863308//
/work/sebastian/BT-20210625/1009458-light/run1009458-light.h5 tag-1491863310//
/work/sebastian/BT-20210625/1009458-light/run1009458-light.h5 tag-1491863314//
/work/sebastian/BT-20210625/1009458-light/run1009458-light.h5 tag-1491863318//
/work/sebastian/BT-20210625/1009458-light/run1009458-light.h5 tag-1491863326//
/work/sebastian/BT-20210625/1009458-light/run1009458-light.h5 tag-1491863330//
/work/sebastian/BT-20210625/1009458-light/run1009458-light.h5 tag-1491863332//
/work/sebastian/BT-20210625/1009458-light/run1009458-light.h5 tag-1491863334//
/work/sebastian/BT-20210625/1009458-light/run1009458-light.h5 tag-1491863336//
/work/sebastian/BT-20210625/1009458-light/run1009458-light.h5 tag-1491863338//
/work/sebastian/BT-20210625/1009458-light/run1009458-light.h5 tag-1491863340//
/work/sebastian/BT-20210625/1009458-light/run1009458-light.h5 tag-1491863342//
/work/sebastian/BT-20210625/1009458-light/run1009458-light.h5 tag-1491863346//
/work/sebastian/BT-20210625/1009458-light/run1009458-light.h5 tag-1491863348//
/work/sebastian/BT-20210625/1009458-light/run1009458-light.h5 tag-1491863350//
/work/sebastian/BT-20210625/1009458-light/run1009458-light.h5 tag-1491863354//
/work/sebastian/BT-20210625/1009458-light/run1009458-light.h5 tag-1491863356//
/work/sebastian/BT-20210625/1009458-light/run1009458-light.h5 tag-1491863360//
/work/sebastian/BT-20210625/1009458-light/run1009458-light.h5 tag-1491863364//
/work/sebastian/BT-20210625/1009458-light/run1009458-light.h5 tag-1491863374//
/work/sebastian/BT-20210625/1009458-light/run1009458-light.h5 tag-1491863376//
/work/sebastian/BT-20210625/1009458-light/run1009458-light.h5 tag-1491863382//
/work/sebastian/BT-20210625/1009458-light/run1009458-light.h5 tag-1491863384//
/work/sebastian/BT-20210625/1009458-light/run1009458-light.h5 tag-1491863390//
/work/sebastian/BT-20210625/1009458-light/run1009458-light.h5 tag-1491863392//
/work/sebastian/BT-20210625/1009458-light/run1009458-light.h5 tag-1491863394//
/work/sebastian/BT-20210625/1009458-light/run1009458-light.h5 tag-1491863396//
/work/sebastian/BT-20210625/1009458-light/run1009458-light.h5 tag-1491863398//
/work/sebastian/BT-20210625/1009458-light/run1009458-light.h5 tag-1491863402//
/work/sebastian/BT-20210625/1009458-light/run1009458-light.h5 tag-1491863406//
/work/sebastian/BT-20210625/1009458-light/run1009458-light.h5 tag-1491863408//
/work/sebastian/BT-20210625/1009458-light/run1009458-light.h5 tag-1491863410//
/work/sebastian/BT-20210625/1009458-light/run1009458-light.h5 tag-1491863412//
/work/sebastian/BT-20210625/1009458-light/run1009458-light.h5 tag-1491863420//
/work/sebastian/BT-20210625/1009458-light/run1009458-light.h5 tag-1491863422//
/work/sebastian/BT-20210625/1009458-light/run1009458-light.h5 tag-1491863424//
/work/sebastian/BT-20210625/1009458-light/run1009458-light.h5 tag-1491863430//
/work/sebastian/BT-20210625/1009458-light/run1009458-light.h5 tag-1491863432//
/work/sebastian/BT-20210625/1009458-light/run1009458-light.h5 tag-1491863436//
/work/sebastian/BT-20210625/1009458-light/run1009458-light.h5 tag-1491863440//
/work/sebastian/BT-20210625/1009458-light/run1009458-light.h5 tag-1491863446//
/work/sebastian/BT-20210625/1009458-light/run1009458-light.h5 tag-1491863456//
/work/sebastian/BT-20210625/1009458-light/run1009458-light.h5 tag-1491863462//
/work/sebastian/BT-20210625/1009458-light/run1009458-light.h5 tag-1491863466//
/work/sebastian/BT-20210625/1009458-light/run1009458-light.h5 tag-1491863468//
/work/sebastian/BT-20210625/1009458-light/run1009458-light.h5 tag-1491863472//
/work/sebastian/BT-20210625/1009458-light/run1009458-light.h5 tag-1491863476//
/work/sebastian/BT-20210625/1009458-light/run1009458-light.h5 tag-1491863478//
/work/sebastian/BT-20210625/1009458-light/run1009458-light.h5 tag-1491863480//
/work/sebastian/BT-20210625/1009458-light/run1009458-light.h5 tag-1491863484//
/work/sebastian/BT-20210625/1009458-light/run1009458-light.h5 tag-1491863486//
/work/sebastian/BT-20210625/1009458-light/run1009458-light.h5 tag-1491863488//
/work/sebastian/BT-20210625/1009458-light/run1009458-light.h5 tag-1491863492//
/work/sebastian/BT-20210625/1009458-light/run1009458-light.h5 tag-1491863498//
/work/sebastian/BT-20210625/1009458-light/run1009458-light.h5 tag-1491863500//
/work/sebastian/BT-20210625/1009458-light/run1009458-light.h5 tag-1491863502//
/work/sebastian/BT-20210625/1009458-light/run1009458-light.h5 tag-1491863504//
/work/sebastian/BT-20210625/1009458-light/run1009458-light.h5 tag-1491863506//
/work/sebastian/BT-20210625/1009458-light/run1009458-light.h5 tag-1491863508//
/work/sebastian/BT-20210625/1009458-light/run1009458-light.h5 tag-1491863510//
/work/sebastian/BT-20210625/1009458-light/run1009458-light.h5 tag-1491863518//
/work/sebastian/BT-20210625/1009458-light/run1009458-light.h5 tag-1491863522//
/work/sebastian/BT-20210625/1009458-light/run1009458-light.h5 tag-1491863528//
/work/sebastian/BT-20210625/1009458-light/run1009458-light.h5 tag-1491863530//
/work/sebastian/BT-20210625/1009458-light/run1009458-light.h5 tag-1491863532//
/work/sebastian/BT-20210625/1009458-light/run1009458-light.h5 tag-1491863534//
/work/sebastian/BT-20210625/1009458-light/run1009458-light.h5 tag-1491863536//
/work/sebastian/BT-20210625/1009458-light/run1009458-light.h5 tag-1491863540//
/work/sebastian/BT-20210625/1009458-light/run1009458-light.h5 tag-1491863546//
/work/sebastian/BT-20210625/1009458-light/run1009458-light.h5 tag-1491863554//
/work/sebastian/BT-20210625/1009458-light/run1009458-light.h5 tag-1491863556//
/work/sebastian/BT-20210625/1009458-light/run1009458-light.h5 tag-1491863568//
/work/sebastian/BT-20210625/1009458-light/run1009458-light.h5 tag-1491863572//
/work/sebastian/BT-20210625/1009458-light/run1009458-light.h5 tag-1491863574//
/work/sebastian/BT-20210625/1009458-light/run1009458-light.h5 tag-1491863576//
/work/sebastian/BT-20210625/1009458-light/run1009458-light.h5 tag-1491863578//
/work/sebastian/BT-20210625/1009458-light/run1009458-light.h5 tag-1491863582//
/work/sebastian/BT-20210625/1009458-light/run1009458-light.h5 tag-1491863584//
/work/sebastian/BT-20210625/1009458-light/run1009458-light.h5 tag-1491863586//
/work/sebastian/BT-20210625/1009458-light/run1009458-light.h5 tag-1491863588//
/work/sebastian/BT-20210625/1009458-light/run1009458-light.h5 tag-1491863590//
/work/sebastian/BT-20210625/1009458-light/run1009458-light.h5 tag-1491863592//
/work/sebastian/BT-20210625/1009458-light/run1009458-light.h5 tag-1491863596//
/work/sebastian/BT-20210625/1009458-light/run1009458-light.h5 tag-1491863600//
/work/sebastian/BT-20210625/1009458-light/run1009458-light.h5 tag-1491863602//
/work/sebastian/BT-20210625/1009458-light/run1009458-light.h5 tag-1491863604//
/work/sebastian/BT-20210625/1009458-light/run1009458-light.h5 tag-1491863608//
/work/sebastian/BT-20210625/1009458-light/run1009458-light.h5 tag-1491863610//
/work/sebastian/BT-20210625/1009458-light/run1009458-light.h5 tag-1491863612//
/work/sebastian/BT-20210625/1009458-light/run1009458-light.h5 tag-1491863614//
/work/sebastian/BT-20210625/1009458-light/run1009458-light.h5 tag-1491863622//
/work/sebastian/BT-20210625/1009458-light/run1009458-light.h5 tag-1491863626//
/work/sebastian/BT-20210625/1009458-light/run1009458-light.h5 tag-1491863630//
/work/sebastian/BT-20210625/1009458-light/run1009458-light.h5 tag-1491863640//
/work/sebastian/BT-20210625/1009458-light/run1009458-light.h5 tag-1491863644//
/work/sebastian/BT-20210625/1009458-light/run1009458-light.h5 tag-1491863646//
/work/sebastian/BT-20210625/1009458-light/run1009458-light.h5 tag-1491863652//
/work/sebastian/BT-20210625/1009458-light/run1009458-light.h5 tag-1491863654//
/work/sebastian/BT-20210625/1009458-light/run1009458-light.h5 tag-1491863656//
/work/sebastian/BT-20210625/1009458-light/run1009458-light.h5 tag-1491863660//
/work/sebastian/BT-20210625/1009458-light/run1009458-light.h5 tag-1491863672//
/work/sebastian/BT-20210625/1009458-light/run1009458-light.h5 tag-1491863678//
/work/sebastian/BT-20210625/1009458-light/run1009458-light.h5 tag-1491863680//
/work/sebastian/BT-20210625/1009458-light/run1009458-light.h5 tag-1491863682//
/work/sebastian/BT-20210625/1009458-light/run1009458-light.h5 tag-1491863684//
/work/sebastian/BT-20210625/1009458-light/run1009458-light.h5 tag-1491863688//
/work/sebastian/BT-20210625/1009458-light/run1009458-light.h5 tag-1491863690//
/work/sebastian/BT-20210625/1009458-light/run1009458-light.h5 tag-1491863692//
/work/sebastian/BT-20210625/1009458-light/run1009458-light.h5 tag-1491863696//
/work/sebastian/BT-20210625/1009458-light/run1009458-light.h5 tag-1491863702//
/work/sebastian/BT-20210625/1009458-light/run1009458-light.h5 tag-1491863704//
/work/sebastian/BT-20210625/1009458-light/run1009458-light.h5 tag-1491863708//
/work/sebastian/BT-20210625/1009458-light/run1009458-light.h5 tag-1491863712//
/work/sebastian/BT-20210625/1009458-light/run1009458-light.h5 tag-1491863716//
/work/sebastian/BT-20210625/1009458-light/run1009458-light.h5 tag-1491863718//
/work/sebastian/BT-20210625/1009458-light/run1009458-light.h5 tag-1491863724//
/work/sebastian/BT-20210625/1009458-light/run1009458-light.h5 tag-1491863726//
/work/sebastian/BT-20210625/1009458-light/run1009458-light.h5 tag-1491863730//
/work/sebastian/BT-20210625/1009458-light/run1009458-light.h5 tag-1491863732//
/work/sebastian/BT-20210625/1009458-light/run1009458-light.h5 tag-1491863734//
/work/sebastian/BT-20210625/1009458-light/run1009458-light.h5 tag-1491863736//
/work/sebastian/BT-20210625/1009458-light/run1009458-light.h5 tag-1491863738//
/work/sebastian/BT-20210625/1009458-light/run1009458-light.h5 tag-1491863740//
/work/sebastian/BT-20210625/1009458-light/run1009458-light.h5 tag-1491863742//
/work/sebastian/BT-20210625/1009458-light/run1009458-light.h5 tag-1491863744//
/work/sebastian/BT-20210625/1009458-light/run1009458-light.h5 tag-1491863750//
/work/sebastian/BT-20210625/1009458-light/run1009458-light.h5 tag-1491863752//
/work/sebastian/BT-20210625/1009458-light/run1009458-light.h5 tag-1491863760//
/work/sebastian/BT-20210625/1009458-light/run1009458-light.h5 tag-1491863762//
/work/sebastian/BT-20210625/1009458-light/run1009458-light.h5 tag-1491863764//
/work/sebastian/BT-20210625/1009458-light/run1009458-light.h5 tag-1491863768//
/work/sebastian/BT-20210625/1009458-light/run1009458-light.h5 tag-1491863776//
/work/sebastian/BT-20210625/1009458-light/run1009458-light.h5 tag-1491863778//
/work/sebastian/BT-20210625/1009458-light/run1009458-light.h5 tag-1491863782//
/work/sebastian/BT-20210625/1009458-light/run1009458-light.h5 tag-1491863786//
/work/sebastian/BT-20210625/1009458-light/run1009458-light.h5 tag-1491863788//
/work/sebastian/BT-20210625/1009458-light/run1009458-light.h5 tag-1491863790//
/work/sebastian/BT-20210625/1009458-light/run1009458-light.h5 tag-1491863792//
/work/sebastian/BT-20210625/1009458-light/run1009458-light.h5 tag-1491863796//
/work/sebastian/BT-20210625/1009458-light/run1009458-light.h5 tag-1491863798//
/work/sebastian/BT-20210625/1009458-light/run1009458-light.h5 tag-1491863800//
/work/sebastian/BT-20210625/1009458-light/run1009458-light.h5 tag-1491863806//
/work/sebastian/BT-20210625/1009458-light/run1009458-light.h5 tag-1491863812//
/work/sebastian/BT-20210625/1009458-light/run1009458-light.h5 tag-1491863816//
/work/sebastian/BT-20210625/1009458-light/run1009458-light.h5 tag-1491863818//
/work/sebastian/BT-20210625/1009458-light/run1009458-light.h5 tag-1491863824//
/work/sebastian/BT-20210625/1009458-light/run1009458-light.h5 tag-1491863826//
/work/sebastian/BT-20210625/1009458-light/run1009458-light.h5 tag-1491863830//
/work/sebastian/BT-20210625/1009458-light/run1009458-light.h5 tag-1491863832//
/work/sebastian/BT-20210625/1009458-light/run1009458-light.h5 tag-1491863838//
/work/sebastian/BT-20210625/1009458-light/run1009458-light.h5 tag-1491863840//
/work/sebastian/BT-20210625/1009458-light/run1009458-light.h5 tag-1491863844//
/work/sebastian/BT-20210625/1009458-light/run1009458-light.h5 tag-1491863846//
/work/sebastian/BT-20210625/1009458-light/run1009458-light.h5 tag-1491863848//
/work/sebastian/BT-20210625/1009458-light/run1009458-light.h5 tag-1491863854//
/work/sebastian/BT-20210625/1009458-light/run1009458-light.h5 tag-1491863856//
/work/sebastian/BT-20210625/1009458-light/run1009458-light.h5 tag-1491863858//
/work/sebastian/BT-20210625/1009458-light/run1009458-light.h5 tag-1491863860//
/work/sebastian/BT-20210625/1009458-light/run1009458-light.h5 tag-1491863866//
/work/sebastian/BT-20210625/1009458-light/run1009458-light.h5 tag-1491863868//
/work/sebastian/BT-20210625/1009458-light/run1009458-light.h5 tag-1491863872//
/work/sebastian/BT-20210625/1009458-light/run1009458-light.h5 tag-1491863878//
/work/sebastian/BT-20210625/1009458-light/run1009458-light.h5 tag-1491863882//
/work/sebastian/BT-20210625/1009458-light/run1009458-light.h5 tag-1491863890//
/work/sebastian/BT-20210625/1009458-light/run1009458-light.h5 tag-1491863892//
/work/sebastian/BT-20210625/1009458-light/run1009458-light.h5 tag-1491863898//
/work/sebastian/BT-20210625/1009458-light/run1009458-light.h5 tag-1491863902//
/work/sebastian/BT-20210625/1009458-light/run1009458-light.h5 tag-1491863904//
/work/sebastian/BT-20210625/1009458-light/run1009458-light.h5 tag-1491863906//
/work/sebastian/BT-20210625/1009458-light/run1009458-light.h5 tag-1491863908//
/work/sebastian/BT-20210625/1009458-light/run1009458-light.h5 tag-1491863918//
/work/sebastian/BT-20210625/1009458-light/run1009458-light.h5 tag-1491863922//
/work/sebastian/BT-20210625/1009458-light/run1009458-light.h5 tag-1491863924//
/work/sebastian/BT-20210625/1009458-light/run1009458-light.h5 tag-1491863938//
/work/sebastian/BT-20210625/1009458-light/run1009458-light.h5 tag-1491863944//
/work/sebastian/BT-20210625/1009458-light/run1009458-light.h5 tag-1491863946//
/work/sebastian/BT-20210625/1009458-light/run1009458-light.h5 tag-1491863952//
/work/sebastian/BT-20210625/1009458-light/run1009458-light.h5 tag-1491863954//
/work/sebastian/BT-20210625/1009458-light/run1009458-light.h5 tag-1491863956//
/work/sebastian/BT-20210625/1009458-light/run1009458-light.h5 tag-1491863960//
/work/sebastian/BT-20210625/1009458-light/run1009458-light.h5 tag-1491863964//
/work/sebastian/BT-20210625/1009458-light/run1009458-light.h5 tag-1491863972//
/work/sebastian/BT-20210625/1009458-light/run1009458-light.h5 tag-1491863974//
/work/sebastian/BT-20210625/1009458-light/run1009458-light.h5 tag-1491863976//
/work/sebastian/BT-20210625/1009458-light/run1009458-light.h5 tag-1491863978//
/work/sebastian/BT-20210625/1009458-light/run1009458-light.h5 tag-1491863982//
/work/sebastian/BT-20210625/1009458-light/run1009458-light.h5 tag-1491863988//
/work/sebastian/BT-20210625/1009458-light/run1009458-light.h5 tag-1491863990//
/work/sebastian/BT-20210625/1009458-light/run1009458-light.h5 tag-1491863992//
/work/sebastian/BT-20210625/1009458-light/run1009458-light.h5 tag-1491863994//
/work/sebastian/BT-20210625/1009458-light/run1009458-light.h5 tag-1491864000//
/work/sebastian/BT-20210625/1009458-light/run1009458-light.h5 tag-1491864002//
/work/sebastian/BT-20210625/1009458-light/run1009458-light.h5 tag-1491864006//
/work/sebastian/BT-20210625/1009458-light/run1009458-light.h5 tag-1491864008//
/work/sebastian/BT-20210625/1009458-light/run1009458-light.h5 tag-1491864012//
/work/sebastian/BT-20210625/1009458-light/run1009458-light.h5 tag-1491864018//
/work/sebastian/BT-20210625/1009458-light/run1009458-light.h5 tag-1491864020//
/work/sebastian/BT-20210625/1009458-light/run1009458-light.h5 tag-1491864022//
/work/sebastian/BT-20210625/1009458-light/run1009458-light.h5 tag-1491864024//
/work/sebastian/BT-20210625/1009458-light/run1009458-light.h5 tag-1491864026//
/work/sebastian/BT-20210625/1009458-light/run1009458-light.h5 tag-1491864032//
/work/sebastian/BT-20210625/1009458-light/run1009458-light.h5 tag-1491864036//
/work/sebastian/BT-20210625/1009458-light/run1009458-light.h5 tag-1491864040//
/work/sebastian/BT-20210625/1009458-light/run1009458-light.h5 tag-1491864042//
/work/sebastian/BT-20210625/1009458-light/run1009458-light.h5 tag-1491864044//
/work/sebastian/BT-20210625/1009458-light/run1009458-light.h5 tag-1491864046//
/work/sebastian/BT-20210625/1009458-light/run1009458-light.h5 tag-1491864052//
/work/sebastian/BT-20210625/1009458-light/run1009458-light.h5 tag-1491864056//
/work/sebastian/BT-20210625/1009458-light/run1009458-light.h5 tag-1491864060//
/work/sebastian/BT-20210625/1009458-light/run1009458-light.h5 tag-1491864062//
/work/sebastian/BT-20210625/1009458-light/run1009458-light.h5 tag-1491864064//
/work/sebastian/BT-20210625/1009458-light/run1009458-light.h5 tag-1491864066//
/work/sebastian/BT-20210625/1009458-light/run1009458-light.h5 tag-1491864068//
/work/sebastian/BT-20210625/1009458-light/run1009458-light.h5 tag-1491864070//
/work/sebastian/BT-20210625/1009458-light/run1009458-light.h5 tag-1491864072//
/work/sebastian/BT-20210625/1009458-light/run1009458-light.h5 tag-1491864078//
/work/sebastian/BT-20210625/1009458-light/run1009458-light.h5 tag-1491864080//
/work/sebastian/BT-20210625/1009458-light/run1009458-light.h5 tag-1491864082//
/work/sebastian/BT-20210625/1009458-light/run1009458-light.h5 tag-1491864084//
/work/sebastian/BT-20210625/1009458-light/run1009458-light.h5 tag-1491864086//
/work/sebastian/BT-20210625/1009458-light/run1009458-light.h5 tag-1491864092//
/work/sebastian/BT-20210625/1009458-light/run1009458-light.h5 tag-1491864094//
/work/sebastian/BT-20210625/1009458-light/run1009458-light.h5 tag-1491864098//
/work/sebastian/BT-20210625/1009458-light/run1009458-light.h5 tag-1491864100//
/work/sebastian/BT-20210625/1009458-light/run1009458-light.h5 tag-1491864104//
/work/sebastian/BT-20210625/1009458-light/run1009458-light.h5 tag-1491864106//
/work/sebastian/BT-20210625/1009458-light/run1009458-light.h5 tag-1491864108//
/work/sebastian/BT-20210625/1009458-light/run1009458-light.h5 tag-1491864110//
/work/sebastian/BT-20210625/1009458-light/run1009458-light.h5 tag-1491864114//
/work/sebastian/BT-20210625/1009458-light/run1009458-light.h5 tag-1491864116//
/work/sebastian/BT-20210625/1009458-light/run1009458-light.h5 tag-1491864118//
/work/sebastian/BT-20210625/1009458-light/run1009458-light.h5 tag-1491864120//
/work/sebastian/BT-20210625/1009458-light/run1009458-light.h5 tag-1491864124//
/work/sebastian/BT-20210625/1009458-light/run1009458-light.h5 tag-1491864126//
/work/sebastian/BT-20210625/1009458-light/run1009458-light.h5 tag-1491864128//
/work/sebastian/BT-20210625/1009458-light/run1009458-light.h5 tag-1491864134//
/work/sebastian/BT-20210625/1009458-light/run1009458-light.h5 tag-1491864136//
/work/sebastian/BT-20210625/1009458-light/run1009458-light.h5 tag-1491864138//
/work/sebastian/BT-20210625/1009458-light/run1009458-light.h5 tag-1491864140//
/work/sebastian/BT-20210625/1009458-light/run1009458-light.h5 tag-1491864142//
/work/sebastian/BT-20210625/1009458-light/run1009458-light.h5 tag-1491864144//
/work/sebastian/BT-20210625/1009458-light/run1009458-light.h5 tag-1491864146//
/work/sebastian/BT-20210625/1009458-light/run1009458-light.h5 tag-1491864148//
/work/sebastian/BT-20210625/1009458-light/run1009458-light.h5 tag-1491864150//
/work/sebastian/BT-20210625/1009458-light/run1009458-light.h5 tag-1491864154//
/work/sebastian/BT-20210625/1009458-light/run1009458-light.h5 tag-1491864160//
/work/sebastian/BT-20210625/1009458-light/run1009458-light.h5 tag-1491864164//
/work/sebastian/BT-20210625/1009458-light/run1009458-light.h5 tag-1491864166//
/work/sebastian/BT-20210625/1009458-light/run1009458-light.h5 tag-1491864168//
/work/sebastian/BT-20210625/1009458-light/run1009458-light.h5 tag-1491864170//
/work/sebastian/BT-20210625/1009458-light/run1009458-light.h5 tag-1491864174//
/work/sebastian/BT-20210625/1009458-light/run1009458-light.h5 tag-1491864176//
/work/sebastian/BT-20210625/1009458-light/run1009458-light.h5 tag-1491864180//
/work/sebastian/BT-20210625/1009458-light/run1009458-light.h5 tag-1491864184//
/work/sebastian/BT-20210625/1009458-light/run1009458-light.h5 tag-1491864186//
/work/sebastian/BT-20210625/1009458-light/run1009458-light.h5 tag-1491864192//
/work/sebastian/BT-20210625/1009458-light/run1009458-light.h5 tag-1491864194//
/work/sebastian/BT-20210625/1009458-light/run1009458-light.h5 tag-1491864196//
/work/sebastian/BT-20210625/1009458-light/run1009458-light.h5 tag-1491864198//
/work/sebastian/BT-20210625/1009458-light/run1009458-light.h5 tag-1491864200//
/work/sebastian/BT-20210625/1009458-light/run1009458-light.h5 tag-1491864202//
/work/sebastian/BT-20210625/1009458-light/run1009458-light.h5 tag-1491864204//
/work/sebastian/BT-20210625/1009458-light/run1009458-light.h5 tag-1491864208//
/work/sebastian/BT-20210625/1009458-light/run1009458-light.h5 tag-1491864214//
/work/sebastian/BT-20210625/1009458-light/run1009458-light.h5 tag-1491864216//
/work/sebastian/BT-20210625/1009458-light/run1009458-light.h5 tag-1491864220//
/work/sebastian/BT-20210625/1009458-light/run1009458-light.h5 tag-1491864222//
/work/sebastian/BT-20210625/1009458-light/run1009458-light.h5 tag-1491864226//
/work/sebastian/BT-20210625/1009458-light/run1009458-light.h5 tag-1491864228//
/work/sebastian/BT-20210625/1009458-light/run1009458-light.h5 tag-1491864230//
/work/sebastian/BT-20210625/1009458-light/run1009458-light.h5 tag-1491864236//
/work/sebastian/BT-20210625/1009458-light/run1009458-light.h5 tag-1491864238//
/work/sebastian/BT-20210625/1009458-light/run1009458-light.h5 tag-1491864240//
/work/sebastian/BT-20210625/1009458-light/run1009458-light.h5 tag-1491864246//
/work/sebastian/BT-20210625/1009458-light/run1009458-light.h5 tag-1491864248//
/work/sebastian/BT-20210625/1009458-light/run1009458-light.h5 tag-1491864250//
/work/sebastian/BT-20210625/1009458-light/run1009458-light.h5 tag-1491864252//
/work/sebastian/BT-20210625/1009458-light/run1009458-light.h5 tag-1491864254//
/work/sebastian/BT-20210625/1009458-light/run1009458-light.h5 tag-1491864256//
/work/sebastian/BT-20210625/1009458-light/run1009458-light.h5 tag-1491864258//
/work/sebastian/BT-20210625/1009458-light/run1009458-light.h5 tag-1491864260//
/work/sebastian/BT-20210625/1009458-light/run1009458-light.h5 tag-1491864264//
/work/sebastian/BT-20210625/1009458-light/run1009458-light.h5 tag-1491864268//
/work/sebastian/BT-20210625/1009458-light/run1009458-light.h5 tag-1491864270//
/work/sebastian/BT-20210625/1009458-light/run1009458-light.h5 tag-1491864272//
/work/sebastian/BT-20210625/1009458-light/run1009458-light.h5 tag-1491864274//
/work/sebastian/BT-20210625/1009458-light/run1009458-light.h5 tag-1491864276//
/work/sebastian/BT-20210625/1009458-light/run1009458-light.h5 tag-1491864286//
/work/sebastian/BT-20210625/1009458-light/run1009458-light.h5 tag-1491864288//
/work/sebastian/BT-20210625/1009458-light/run1009458-light.h5 tag-1491864290//
/work/sebastian/BT-20210625/1009458-light/run1009458-light.h5 tag-1491864292//
/work/sebastian/BT-20210625/1009458-light/run1009458-light.h5 tag-1491864294//
/work/sebastian/BT-20210625/1009458-light/run1009458-light.h5 tag-1491864296//
/work/sebastian/BT-20210625/1009458-light/run1009458-light.h5 tag-1491864298//
/work/sebastian/BT-20210625/1009458-light/run1009458-light.h5 tag-1491864300//
/work/sebastian/BT-20210625/1009458-light/run1009458-light.h5 tag-1491864302//
/work/sebastian/BT-20210625/1009458-light/run1009458-light.h5 tag-1491864304//
/work/sebastian/BT-20210625/1009458-light/run1009458-light.h5 tag-1491864306//
/work/sebastian/BT-20210625/1009458-light/run1009458-light.h5 tag-1491864308//
/work/sebastian/BT-20210625/1009458-light/run1009458-light.h5 tag-1491864310//
/work/sebastian/BT-20210625/1009458-light/run1009458-light.h5 tag-1491864312//
/work/sebastian/BT-20210625/1009458-light/run1009458-light.h5 tag-1491864322//
/work/sebastian/BT-20210625/1009458-light/run1009458-light.h5 tag-1491864330//
/work/sebastian/BT-20210625/1009458-light/run1009458-light.h5 tag-1491864334//
/work/sebastian/BT-20210625/1009458-light/run1009458-light.h5 tag-1491864340//
/work/sebastian/BT-20210625/1009458-light/run1009458-light.h5 tag-1491864342//
/work/sebastian/BT-20210625/1009458-light/run1009458-light.h5 tag-1491864344//
/work/sebastian/BT-20210625/1009458-light/run1009458-light.h5 tag-1491864348//
/work/sebastian/BT-20210625/1009458-light/run1009458-light.h5 tag-1491864350//
/work/sebastian/BT-20210625/1009458-light/run1009458-light.h5 tag-1491864352//
/work/sebastian/BT-20210625/1009458-light/run1009458-light.h5 tag-1491864356//
/work/sebastian/BT-20210625/1009458-light/run1009458-light.h5 tag-1491864358//
/work/sebastian/BT-20210625/1009458-light/run1009458-light.h5 tag-1491864360//
/work/sebastian/BT-20210625/1009458-light/run1009458-light.h5 tag-1491864362//
/work/sebastian/BT-20210625/1009458-light/run1009458-light.h5 tag-1491864364//
/work/sebastian/BT-20210625/1009458-light/run1009458-light.h5 tag-1491864366//
/work/sebastian/BT-20210625/1009458-light/run1009458-light.h5 tag-1491864370//
/work/sebastian/BT-20210625/1009458-light/run1009458-light.h5 tag-1491864372//
/work/sebastian/BT-20210625/1009458-light/run1009458-light.h5 tag-1491864374//
/work/sebastian/BT-20210625/1009458-light/run1009458-light.h5 tag-1491864382//
/work/sebastian/BT-20210625/1009458-light/run1009458-light.h5 tag-1491864384//
/work/sebastian/BT-20210625/1009458-light/run1009458-light.h5 tag-1491864388//
/work/sebastian/BT-20210625/1009458-light/run1009458-light.h5 tag-1491864390//
/work/sebastian/BT-20210625/1009458-light/run1009458-light.h5 tag-1491864392//
/work/sebastian/BT-20210625/1009458-light/run1009458-light.h5 tag-1491864396//
/work/sebastian/BT-20210625/1009458-light/run1009458-light.h5 tag-1491864398//
/work/sebastian/BT-20210625/1009458-light/run1009458-light.h5 tag-1491864400//
/work/sebastian/BT-20210625/1009458-light/run1009458-light.h5 tag-1491864404//
/work/sebastian/BT-20210625/1009458-light/run1009458-light.h5 tag-1491864406//
/work/sebastian/BT-20210625/1009458-light/run1009458-light.h5 tag-1491864410//
/work/sebastian/BT-20210625/1009458-light/run1009458-light.h5 tag-1491864412//
/work/sebastian/BT-20210625/1009458-light/run1009458-light.h5 tag-1491864414//
/work/sebastian/BT-20210625/1009458-light/run1009458-light.h5 tag-1491864416//
/work/sebastian/BT-20210625/1009458-light/run1009458-light.h5 tag-1491864418//
/work/sebastian/BT-20210625/1009458-light/run1009458-light.h5 tag-1491864420//
/work/sebastian/BT-20210625/1009458-light/run1009458-light.h5 tag-1491864422//
/work/sebastian/BT-20210625/1009458-light/run1009458-light.h5 tag-1491864430//
/work/sebastian/BT-20210625/1009458-light/run1009458-light.h5 tag-1491864432//
/work/sebastian/BT-20210625/1009458-light/run1009458-light.h5 tag-1491864434//
/work/sebastian/BT-20210625/1009458-light/run1009458-light.h5 tag-1491864438//
/work/sebastian/BT-20210625/1009458-light/run1009458-light.h5 tag-1491864440//
/work/sebastian/BT-20210625/1009458-light/run1009458-light.h5 tag-1491864446//
/work/sebastian/BT-20210625/1009458-light/run1009458-light.h5 tag-1491864448//
/work/sebastian/BT-20210625/1009458-light/run1009458-light.h5 tag-1491864450//
/work/sebastian/BT-20210625/1009458-light/run1009458-light.h5 tag-1491864452//
/work/sebastian/BT-20210625/1009458-light/run1009458-light.h5 tag-1491864454//
/work/sebastian/BT-20210625/1009458-light/run1009458-light.h5 tag-1491864458//
/work/sebastian/BT-20210625/1009458-light/run1009458-light.h5 tag-1491864460//
/work/sebastian/BT-20210625/1009458-light/run1009458-light.h5 tag-1491864470//
/work/sebastian/BT-20210625/1009458-light/run1009458-light.h5 tag-1491864474//
/work/sebastian/BT-20210625/1009458-light/run1009458-light.h5 tag-1491864476//
/work/sebastian/BT-20210625/1009458-light/run1009458-light.h5 tag-1491864478//
/work/sebastian/BT-20210625/1009458-light/run1009458-light.h5 tag-1491864486//
/work/sebastian/BT-20210625/1009458-light/run1009458-light.h5 tag-1491864488//
/work/sebastian/BT-20210625/1009458-light/run1009458-light.h5 tag-1491864494//
/work/sebastian/BT-20210625/1009458-light/run1009458-light.h5 tag-1491864500//
/work/sebastian/BT-20210625/1009458-light/run1009458-light.h5 tag-1491864502//
/work/sebastian/BT-20210625/1009458-light/run1009458-light.h5 tag-1491864506//
/work/sebastian/BT-20210625/1009458-light/run1009458-light.h5 tag-1491864514//
/work/sebastian/BT-20210625/1009458-light/run1009458-light.h5 tag-1491864516//
/work/sebastian/BT-20210625/1009458-light/run1009458-light.h5 tag-1491864518//
/work/sebastian/BT-20210625/1009458-light/run1009458-light.h5 tag-1491864520//
/work/sebastian/BT-20210625/1009458-light/run1009458-light.h5 tag-1491864524//
/work/sebastian/BT-20210625/1009458-light/run1009458-light.h5 tag-1491864526//
/work/sebastian/BT-20210625/1009458-light/run1009458-light.h5 tag-1491864536//
/work/sebastian/BT-20210625/1009458-light/run1009458-light.h5 tag-1491864542//
/work/sebastian/BT-20210625/1009458-light/run1009458-light.h5 tag-1491864544//
/work/sebastian/BT-20210625/1009458-light/run1009458-light.h5 tag-1491864546//
/work/sebastian/BT-20210625/1009458-light/run1009458-light.h5 tag-1491864552//
/work/sebastian/BT-20210625/1009458-light/run1009458-light.h5 tag-1491864554//
/work/sebastian/BT-20210625/1009458-light/run1009458-light.h5 tag-1491864556//
/work/sebastian/BT-20210625/1009458-light/run1009458-light.h5 tag-1491864560//
/work/sebastian/BT-20210625/1009458-light/run1009458-light.h5 tag-1491864562//
/work/sebastian/BT-20210625/1009458-light/run1009458-light.h5 tag-1491864564//
/work/sebastian/BT-20210625/1009458-light/run1009458-light.h5 tag-1491864566//
/work/sebastian/BT-20210625/1009458-light/run1009458-light.h5 tag-1491864568//
/work/sebastian/BT-20210625/1009458-light/run1009458-light.h5 tag-1491864572//
/work/sebastian/BT-20210625/1009458-light/run1009458-light.h5 tag-1491864574//
/work/sebastian/BT-20210625/1009458-light/run1009458-light.h5 tag-1491864576//
/work/sebastian/BT-20210625/1009458-light/run1009458-light.h5 tag-1491864578//
/work/sebastian/BT-20210625/1009458-light/run1009458-light.h5 tag-1491864584//
/work/sebastian/BT-20210625/1009458-light/run1009458-light.h5 tag-1491864586//
/work/sebastian/BT-20210625/1009458-light/run1009458-light.h5 tag-1491864588//
/work/sebastian/BT-20210625/1009458-light/run1009458-light.h5 tag-1491864590//
/work/sebastian/BT-20210625/1009458-light/run1009458-light.h5 tag-1491864592//
/work/sebastian/BT-20210625/1009458-light/run1009458-light.h5 tag-1491864600//
/work/sebastian/BT-20210625/1009458-light/run1009458-light.h5 tag-1491864606//
/work/sebastian/BT-20210625/1009458-light/run1009458-light.h5 tag-1491864610//
/work/sebastian/BT-20210625/1009458-light/run1009458-light.h5 tag-1491864612//
/work/sebastian/BT-20210625/1009458-light/run1009458-light.h5 tag-1491864614//
/work/sebastian/BT-20210625/1009458-light/run1009458-light.h5 tag-1491864618//
/work/sebastian/BT-20210625/1009458-light/run1009458-light.h5 tag-1491864620//
/work/sebastian/BT-20210625/1009458-light/run1009458-light.h5 tag-1491864622//
/work/sebastian/BT-20210625/1009458-light/run1009458-light.h5 tag-1491864626//
/work/sebastian/BT-20210625/1009458-light/run1009458-light.h5 tag-1491864628//
/work/sebastian/BT-20210625/1009458-light/run1009458-light.h5 tag-1491864630//
/work/sebastian/BT-20210625/1009458-light/run1009458-light.h5 tag-1491864634//
/work/sebastian/BT-20210625/1009458-light/run1009458-light.h5 tag-1491864636//
/work/sebastian/BT-20210625/1009458-light/run1009458-light.h5 tag-1491864638//
/work/sebastian/BT-20210625/1009458-light/run1009458-light.h5 tag-1491864640//
/work/sebastian/BT-20210625/1009458-light/run1009458-light.h5 tag-1491864644//
/work/sebastian/BT-20210625/1009458-light/run1009458-light.h5 tag-1491864650//
/work/sebastian/BT-20210625/1009458-light/run1009458-light.h5 tag-1491864660//
/work/sebastian/BT-20210625/1009458-light/run1009458-light.h5 tag-1491864662//
/work/sebastian/BT-20210625/1009458-light/run1009458-light.h5 tag-1491864670//
/work/sebastian/BT-20210625/1009458-light/run1009458-light.h5 tag-1491864672//
/work/sebastian/BT-20210625/1009458-light/run1009458-light.h5 tag-1491864678//
/work/sebastian/BT-20210625/1009458-light/run1009458-light.h5 tag-1491864680//
/work/sebastian/BT-20210625/1009458-light/run1009458-light.h5 tag-1491864682//
/work/sebastian/BT-20210625/1009458-light/run1009458-light.h5 tag-1491864684//
/work/sebastian/BT-20210625/1009458-light/run1009458-light.h5 tag-1491864686//
/work/sebastian/BT-20210625/1009458-light/run1009458-light.h5 tag-1491864688//
/work/sebastian/BT-20210625/1009458-light/run1009458-light.h5 tag-1491864694//
/work/sebastian/BT-20210625/1009458-light/run1009458-light.h5 tag-1491864696//
/work/sebastian/BT-20210625/1009458-light/run1009458-light.h5 tag-1491864698//
/work/sebastian/BT-20210625/1009458-light/run1009458-light.h5 tag-1491864700//
/work/sebastian/BT-20210625/1009458-light/run1009458-light.h5 tag-1491864704//
/work/sebastian/BT-20210625/1009458-light/run1009458-light.h5 tag-1491864710//
/work/sebastian/BT-20210625/1009458-light/run1009458-light.h5 tag-1491864714//
/work/sebastian/BT-20210625/1009458-light/run1009458-light.h5 tag-1491864718//
/work/sebastian/BT-20210625/1009458-light/run1009458-light.h5 tag-1491864720//
/work/sebastian/BT-20210625/1009458-light/run1009458-light.h5 tag-1491864722//
/work/sebastian/BT-20210625/1009458-light/run1009458-light.h5 tag-1491864726//
/work/sebastian/BT-20210625/1009458-light/run1009458-light.h5 tag-1491864728//
/work/sebastian/BT-20210625/1009458-light/run1009458-light.h5 tag-1491864732//
/work/sebastian/BT-20210625/1009458-light/run1009458-light.h5 tag-1491864734//
/work/sebastian/BT-20210625/1009458-light/run1009458-light.h5 tag-1491864736//
/work/sebastian/BT-20210625/1009458-light/run1009458-light.h5 tag-1491864740//
/work/sebastian/BT-20210625/1009458-light/run1009458-light.h5 tag-1491864750//
/work/sebastian/BT-20210625/1009458-light/run1009458-light.h5 tag-1491864754//
/work/sebastian/BT-20210625/1009458-light/run1009458-light.h5 tag-1491864758//
/work/sebastian/BT-20210625/1009458-light/run1009458-light.h5 tag-1491864760//
/work/sebastian/BT-20210625/1009458-light/run1009458-light.h5 tag-1491864762//
/work/sebastian/BT-20210625/1009458-light/run1009458-light.h5 tag-1491864764//
/work/sebastian/BT-20210625/1009458-light/run1009458-light.h5 tag-1491864768//
/work/sebastian/BT-20210625/1009458-light/run1009458-light.h5 tag-1491864774//
/work/sebastian/BT-20210625/1009458-light/run1009458-light.h5 tag-1491864778//
/work/sebastian/BT-20210625/1009458-light/run1009458-light.h5 tag-1491864780//
/work/sebastian/BT-20210625/1009458-light/run1009458-light.h5 tag-1491864784//
/work/sebastian/BT-20210625/1009458-light/run1009458-light.h5 tag-1491864790//
/work/sebastian/BT-20210625/1009458-light/run1009458-light.h5 tag-1491864796//
/work/sebastian/BT-20210625/1009458-light/run1009458-light.h5 tag-1491864798//
/work/sebastian/BT-20210625/1009458-light/run1009458-light.h5 tag-1491864800//
/work/sebastian/BT-20210625/1009458-light/run1009458-light.h5 tag-1491864806//
/work/sebastian/BT-20210625/1009458-light/run1009458-light.h5 tag-1491864808//
/work/sebastian/BT-20210625/1009458-light/run1009458-light.h5 tag-1491864810//
/work/sebastian/BT-20210625/1009458-light/run1009458-light.h5 tag-1491864812//
/work/sebastian/BT-20210625/1009458-light/run1009458-light.h5 tag-1491864822//
/work/sebastian/BT-20210625/1009458-light/run1009458-light.h5 tag-1491864824//
/work/sebastian/BT-20210625/1009458-light/run1009458-light.h5 tag-1491864830//
/work/sebastian/BT-20210625/1009458-light/run1009458-light.h5 tag-1491864832//
/work/sebastian/BT-20210625/1009458-light/run1009458-light.h5 tag-1491864834//
/work/sebastian/BT-20210625/1009458-light/run1009458-light.h5 tag-1491864838//
/work/sebastian/BT-20210625/1009458-light/run1009458-light.h5 tag-1491864840//
/work/sebastian/BT-20210625/1009458-light/run1009458-light.h5 tag-1491864842//
/work/sebastian/BT-20210625/1009458-light/run1009458-light.h5 tag-1491864844//
/work/sebastian/BT-20210625/1009458-light/run1009458-light.h5 tag-1491864848//
/work/sebastian/BT-20210625/1009458-light/run1009458-light.h5 tag-1491864850//
/work/sebastian/BT-20210625/1009458-light/run1009458-light.h5 tag-1491864854//
/work/sebastian/BT-20210625/1009458-light/run1009458-light.h5 tag-1491864856//
/work/sebastian/BT-20210625/1009458-light/run1009458-light.h5 tag-1491864858//
/work/sebastian/BT-20210625/1009458-light/run1009458-light.h5 tag-1491864860//
/work/sebastian/BT-20210625/1009458-light/run1009458-light.h5 tag-1491864862//
/work/sebastian/BT-20210625/1009458-light/run1009458-light.h5 tag-1491864864//
/work/sebastian/BT-20210625/1009458-light/run1009458-light.h5 tag-1491864866//
/work/sebastian/BT-20210625/1009458-light/run1009458-light.h5 tag-1491864868//
/work/sebastian/BT-20210625/1009458-light/run1009458-light.h5 tag-1491864870//
/work/sebastian/BT-20210625/1009458-light/run1009458-light.h5 tag-1491864872//
/work/sebastian/BT-20210625/1009458-light/run1009458-light.h5 tag-1491864876//
/work/sebastian/BT-20210625/1009458-light/run1009458-light.h5 tag-1491864878//
/work/sebastian/BT-20210625/1009458-light/run1009458-light.h5 tag-1491864888//
/work/sebastian/BT-20210625/1009458-light/run1009458-light.h5 tag-1491864892//
/work/sebastian/BT-20210625/1009458-light/run1009458-light.h5 tag-1491864894//
/work/sebastian/BT-20210625/1009458-light/run1009458-light.h5 tag-1491864898//
/work/sebastian/BT-20210625/1009458-light/run1009458-light.h5 tag-1491864900//
/work/sebastian/BT-20210625/1009458-light/run1009458-light.h5 tag-1491864902//
/work/sebastian/BT-20210625/1009458-light/run1009458-light.h5 tag-1491864904//
/work/sebastian/BT-20210625/1009458-light/run1009458-light.h5 tag-1491864906//
/work/sebastian/BT-20210625/1009458-light/run1009458-light.h5 tag-1491864908//
/work/sebastian/BT-20210625/1009458-light/run1009458-light.h5 tag-1491864910//
/work/sebastian/BT-20210625/1009458-light/run1009458-light.h5 tag-1491864912//
/work/sebastian/BT-20210625/1009458-light/run1009458-light.h5 tag-1491864914//
/work/sebastian/BT-20210625/1009458-light/run1009458-light.h5 tag-1491864916//
/work/sebastian/BT-20210625/1009458-light/run1009458-light.h5 tag-1491864920//
/work/sebastian/BT-20210625/1009458-light/run1009458-light.h5 tag-1491864922//
/work/sebastian/BT-20210625/1009458-light/run1009458-light.h5 tag-1491864926//
/work/sebastian/BT-20210625/1009458-light/run1009458-light.h5 tag-1491864928//
/work/sebastian/BT-20210625/1009458-light/run1009458-light.h5 tag-1491864930//
/work/sebastian/BT-20210625/1009458-light/run1009458-light.h5 tag-1491864934//
/work/sebastian/BT-20210625/1009458-light/run1009458-light.h5 tag-1491864936//
/work/sebastian/BT-20210625/1009458-light/run1009458-light.h5 tag-1491864954//
/work/sebastian/BT-20210625/1009458-light/run1009458-light.h5 tag-1491864956//
/work/sebastian/BT-20210625/1009458-light/run1009458-light.h5 tag-1491864958//
/work/sebastian/BT-20210625/1009458-light/run1009458-light.h5 tag-1491864960//
/work/sebastian/BT-20210625/1009458-light/run1009458-light.h5 tag-1491864962//
/work/sebastian/BT-20210625/1009458-light/run1009458-light.h5 tag-1491864966//
/work/sebastian/BT-20210625/1009458-light/run1009458-light.h5 tag-1491864968//
/work/sebastian/BT-20210625/1009458-light/run1009458-light.h5 tag-1491864972//
/work/sebastian/BT-20210625/1009458-light/run1009458-light.h5 tag-1491864974//
/work/sebastian/BT-20210625/1009458-light/run1009458-light.h5 tag-1491864978//
/work/sebastian/BT-20210625/1009458-light/run1009458-light.h5 tag-1491864994//
/work/sebastian/BT-20210625/1009458-light/run1009458-light.h5 tag-1491864996//
/work/sebastian/BT-20210625/1009458-light/run1009458-light.h5 tag-1491864998//
/work/sebastian/BT-20210625/1009458-light/run1009458-light.h5 tag-1491865002//
/work/sebastian/BT-20210625/1009458-light/run1009458-light.h5 tag-1491865004//
/work/sebastian/BT-20210625/1009458-light/run1009458-light.h5 tag-1491865006//
/work/sebastian/BT-20210625/1009458-light/run1009458-light.h5 tag-1491865008//
/work/sebastian/BT-20210625/1009458-light/run1009458-light.h5 tag-1491865010//
/work/sebastian/BT-20210625/1009458-light/run1009458-light.h5 tag-1491865012//
/work/sebastian/BT-20210625/1009458-light/run1009458-light.h5 tag-1491865018//
/work/sebastian/BT-20210625/1009458-light/run1009458-light.h5 tag-1491865020//
/work/sebastian/BT-20210625/1009458-light/run1009458-light.h5 tag-1491865022//
/work/sebastian/BT-20210625/1009458-light/run1009458-light.h5 tag-1491865026//
/work/sebastian/BT-20210625/1009458-light/run1009458-light.h5 tag-1491865036//
/work/sebastian/BT-20210625/1009458-light/run1009458-light.h5 tag-1491865038//
/work/sebastian/BT-20210625/1009458-light/run1009458-light.h5 tag-1491865040//
/work/sebastian/BT-20210625/1009458-light/run1009458-light.h5 tag-1491865044//
/work/sebastian/BT-20210625/1009458-light/run1009458-light.h5 tag-1491865054//
/work/sebastian/BT-20210625/1009458-light/run1009458-light.h5 tag-1491865056//
/work/sebastian/BT-20210625/1009458-light/run1009458-light.h5 tag-1491865058//
/work/sebastian/BT-20210625/1009458-light/run1009458-light.h5 tag-1491865060//
/work/sebastian/BT-20210625/1009458-light/run1009458-light.h5 tag-1491865070//
/work/sebastian/BT-20210625/1009458-light/run1009458-light.h5 tag-1491865072//
/work/sebastian/BT-20210625/1009458-light/run1009458-light.h5 tag-1491865074//
/work/sebastian/BT-20210625/1009458-light/run1009458-light.h5 tag-1491865080//
/work/sebastian/BT-20210625/1009458-light/run1009458-light.h5 tag-1491865084//
/work/sebastian/BT-20210625/1009458-light/run1009458-light.h5 tag-1491865090//
/work/sebastian/BT-20210625/1009458-light/run1009458-light.h5 tag-1491865096//
/work/sebastian/BT-20210625/1009458-light/run1009458-light.h5 tag-1491865098//
/work/sebastian/BT-20210625/1009458-light/run1009458-light.h5 tag-1491865106//
/work/sebastian/BT-20210625/1009458-light/run1009458-light.h5 tag-1491865108//
/work/sebastian/BT-20210625/1009458-light/run1009458-light.h5 tag-1491865110//
/work/sebastian/BT-20210625/1009458-light/run1009458-light.h5 tag-1491865112//
/work/sebastian/BT-20210625/1009458-light/run1009458-light.h5 tag-1491865114//
/work/sebastian/BT-20210625/1009458-light/run1009458-light.h5 tag-1491865116//
/work/sebastian/BT-20210625/1009458-light/run1009458-light.h5 tag-1491865120//
/work/sebastian/BT-20210625/1009458-light/run1009458-light.h5 tag-1491865124//
/work/sebastian/BT-20210625/1009458-light/run1009458-light.h5 tag-1491865128//
/work/sebastian/BT-20210625/1009458-light/run1009458-light.h5 tag-1491865130//
/work/sebastian/BT-20210625/1009458-light/run1009458-light.h5 tag-1491865132//
/work/sebastian/BT-20210625/1009458-light/run1009458-light.h5 tag-1491865138//
/work/sebastian/BT-20210625/1009458-light/run1009458-light.h5 tag-1491865140//
/work/sebastian/BT-20210625/1009458-light/run1009458-light.h5 tag-1491865142//
/work/sebastian/BT-20210625/1009458-light/run1009458-light.h5 tag-1491865146//
/work/sebastian/BT-20210625/1009458-light/run1009458-light.h5 tag-1491865150//
/work/sebastian/BT-20210625/1009458-light/run1009458-light.h5 tag-1491865152//
/work/sebastian/BT-20210625/1009458-light/run1009458-light.h5 tag-1491865154//
/work/sebastian/BT-20210625/1009458-light/run1009458-light.h5 tag-1491865156//
/work/sebastian/BT-20210625/1009458-light/run1009458-light.h5 tag-1491865158//
/work/sebastian/BT-20210625/1009458-light/run1009458-light.h5 tag-1491865162//
/work/sebastian/BT-20210625/1009458-light/run1009458-light.h5 tag-1491865164//
/work/sebastian/BT-20210625/1009458-light/run1009458-light.h5 tag-1491865172//
/work/sebastian/BT-20210625/1009458-light/run1009458-light.h5 tag-1491865174//
/work/sebastian/BT-20210625/1009458-light/run1009458-light.h5 tag-1491865176//
/work/sebastian/BT-20210625/1009458-light/run1009458-light.h5 tag-1491865182//
/work/sebastian/BT-20210625/1009458-light/run1009458-light.h5 tag-1491865188//
/work/sebastian/BT-20210625/1009458-light/run1009458-light.h5 tag-1491865192//
/work/sebastian/BT-20210625/1009458-light/run1009458-light.h5 tag-1491865198//
/work/sebastian/BT-20210625/1009458-light/run1009458-light.h5 tag-1491865202//
/work/sebastian/BT-20210625/1009458-light/run1009458-light.h5 tag-1491865204//
/work/sebastian/BT-20210625/1009458-light/run1009458-light.h5 tag-1491865210//
/work/sebastian/BT-20210625/1009458-light/run1009458-light.h5 tag-1491865212//
/work/sebastian/BT-20210625/1009458-light/run1009458-light.h5 tag-1491865216//
/work/sebastian/BT-20210625/1009458-light/run1009458-light.h5 tag-1491865218//
/work/sebastian/BT-20210625/1009458-light/run1009458-light.h5 tag-1491865222//
/work/sebastian/BT-20210625/1009458-light/run1009458-light.h5 tag-1491865224//
/work/sebastian/BT-20210625/1009458-light/run1009458-light.h5 tag-1491865226//
/work/sebastian/BT-20210625/1009458-light/run1009458-light.h5 tag-1491865230//
/work/sebastian/BT-20210625/1009458-light/run1009458-light.h5 tag-1491865232//
/work/sebastian/BT-20210625/1009458-light/run1009458-light.h5 tag-1491865234//
/work/sebastian/BT-20210625/1009458-light/run1009458-light.h5 tag-1491865236//
/work/sebastian/BT-20210625/1009458-light/run1009458-light.h5 tag-1491865242//
/work/sebastian/BT-20210625/1009458-light/run1009458-light.h5 tag-1491865244//
/work/sebastian/BT-20210625/1009458-light/run1009458-light.h5 tag-1491865248//
/work/sebastian/BT-20210625/1009458-light/run1009458-light.h5 tag-1491865250//
/work/sebastian/BT-20210625/1009458-light/run1009458-light.h5 tag-1491865252//
/work/sebastian/BT-20210625/1009458-light/run1009458-light.h5 tag-1491865254//
/work/sebastian/BT-20210625/1009458-light/run1009458-light.h5 tag-1491865256//
/work/sebastian/BT-20210625/1009458-light/run1009458-light.h5 tag-1491865258//
/work/sebastian/BT-20210625/1009458-light/run1009458-light.h5 tag-1491865260//
/work/sebastian/BT-20210625/1009458-light/run1009458-light.h5 tag-1491865266//
/work/sebastian/BT-20210625/1009458-light/run1009458-light.h5 tag-1491865270//
/work/sebastian/BT-20210625/1009458-light/run1009458-light.h5 tag-1491865272//
/work/sebastian/BT-20210625/1009458-light/run1009458-light.h5 tag-1491865276//
/work/sebastian/BT-20210625/1009458-light/run1009458-light.h5 tag-1491865278//
/work/sebastian/BT-20210625/1009458-light/run1009458-light.h5 tag-1491865282//
/work/sebastian/BT-20210625/1009458-light/run1009458-light.h5 tag-1491865286//
/work/sebastian/BT-20210625/1009458-light/run1009458-light.h5 tag-1491865288//
/work/sebastian/BT-20210625/1009458-light/run1009458-light.h5 tag-1491865292//
/work/sebastian/BT-20210625/1009458-light/run1009458-light.h5 tag-1491865294//
/work/sebastian/BT-20210625/1009458-light/run1009458-light.h5 tag-1491865298//
/work/sebastian/BT-20210625/1009458-light/run1009458-light.h5 tag-1491865300//
/work/sebastian/BT-20210625/1009458-light/run1009458-light.h5 tag-1491865308//
/work/sebastian/BT-20210625/1009458-light/run1009458-light.h5 tag-1491865310//
/work/sebastian/BT-20210625/1009458-light/run1009458-light.h5 tag-1491865316//
/work/sebastian/BT-20210625/1009458-light/run1009458-light.h5 tag-1491865318//
/work/sebastian/BT-20210625/1009458-light/run1009458-light.h5 tag-1491865320//
/work/sebastian/BT-20210625/1009458-light/run1009458-light.h5 tag-1491865324//
/work/sebastian/BT-20210625/1009458-light/run1009458-light.h5 tag-1491865326//
/work/sebastian/BT-20210625/1009458-light/run1009458-light.h5 tag-1491865332//
/work/sebastian/BT-20210625/1009458-light/run1009458-light.h5 tag-1491865336//
/work/sebastian/BT-20210625/1009458-light/run1009458-light.h5 tag-1491865344//
/work/sebastian/BT-20210625/1009458-light/run1009458-light.h5 tag-1491865352//
/work/sebastian/BT-20210625/1009458-light/run1009458-light.h5 tag-1491865356//
/work/sebastian/BT-20210625/1009458-light/run1009458-light.h5 tag-1491865358//
/work/sebastian/BT-20210625/1009458-light/run1009458-light.h5 tag-1491865366//
/work/sebastian/BT-20210625/1009458-light/run1009458-light.h5 tag-1491865368//
/work/sebastian/BT-20210625/1009458-light/run1009458-light.h5 tag-1491865372//
/work/sebastian/BT-20210625/1009458-light/run1009458-light.h5 tag-1491865374//
/work/sebastian/BT-20210625/1009458-light/run1009458-light.h5 tag-1491865378//
/work/sebastian/BT-20210625/1009458-light/run1009458-light.h5 tag-1491865382//
/work/sebastian/BT-20210625/1009458-light/run1009458-light.h5 tag-1491865384//
/work/sebastian/BT-20210625/1009458-light/run1009458-light.h5 tag-1491865392//
/work/sebastian/BT-20210625/1009458-light/run1009458-light.h5 tag-1491865394//
/work/sebastian/BT-20210625/1009458-light/run1009458-light.h5 tag-1491865398//
/work/sebastian/BT-20210625/1009458-light/run1009458-light.h5 tag-1491865402//
/work/sebastian/BT-20210625/1009458-light/run1009458-light.h5 tag-1491865404//
/work/sebastian/BT-20210625/1009458-light/run1009458-light.h5 tag-1491865408//
/work/sebastian/BT-20210625/1009458-light/run1009458-light.h5 tag-1491865410//
/work/sebastian/BT-20210625/1009458-light/run1009458-light.h5 tag-1491865412//
/work/sebastian/BT-20210625/1009458-light/run1009458-light.h5 tag-1491865414//
/work/sebastian/BT-20210625/1009458-light/run1009458-light.h5 tag-1491865416//
/work/sebastian/BT-20210625/1009458-light/run1009458-light.h5 tag-1491865418//
/work/sebastian/BT-20210625/1009458-light/run1009458-light.h5 tag-1491865420//
/work/sebastian/BT-20210625/1009458-light/run1009458-light.h5 tag-1491865424//
/work/sebastian/BT-20210625/1009458-light/run1009458-light.h5 tag-1491865428//
/work/sebastian/BT-20210625/1009458-light/run1009458-light.h5 tag-1491865430//
/work/sebastian/BT-20210625/1009458-light/run1009458-light.h5 tag-1491865432//
/work/sebastian/BT-20210625/1009458-light/run1009458-light.h5 tag-1491865434//
/work/sebastian/BT-20210625/1009458-light/run1009458-light.h5 tag-1491865436//
/work/sebastian/BT-20210625/1009458-light/run1009458-light.h5 tag-1491865438//
/work/sebastian/BT-20210625/1009458-light/run1009458-light.h5 tag-1491865444//
/work/sebastian/BT-20210625/1009458-light/run1009458-light.h5 tag-1491865446//
/work/sebastian/BT-20210625/1009458-light/run1009458-light.h5 tag-1491865448//
/work/sebastian/BT-20210625/1009458-light/run1009458-light.h5 tag-1491865450//
/work/sebastian/BT-20210625/1009458-light/run1009458-light.h5 tag-1491865452//
/work/sebastian/BT-20210625/1009458-light/run1009458-light.h5 tag-1491865454//
/work/sebastian/BT-20210625/1009458-light/run1009458-light.h5 tag-1491865458//
/work/sebastian/BT-20210625/1009458-light/run1009458-light.h5 tag-1491865460//
/work/sebastian/BT-20210625/1009458-light/run1009458-light.h5 tag-1491865466//
/work/sebastian/BT-20210625/1009458-light/run1009458-light.h5 tag-1491865470//
/work/sebastian/BT-20210625/1009458-light/run1009458-light.h5 tag-1491865472//
/work/sebastian/BT-20210625/1009458-light/run1009458-light.h5 tag-1491865478//
/work/sebastian/BT-20210625/1009458-light/run1009458-light.h5 tag-1491865480//
/work/sebastian/BT-20210625/1009458-light/run1009458-light.h5 tag-1491865486//
/work/sebastian/BT-20210625/1009458-light/run1009458-light.h5 tag-1491865488//
/work/sebastian/BT-20210625/1009458-light/run1009458-light.h5 tag-1491865490//
/work/sebastian/BT-20210625/1009458-light/run1009458-light.h5 tag-1491865492//
/work/sebastian/BT-20210625/1009458-light/run1009458-light.h5 tag-1491865494//
/work/sebastian/BT-20210625/1009458-light/run1009458-light.h5 tag-1491865496//
/work/sebastian/BT-20210625/1009458-light/run1009458-light.h5 tag-1491865500//
/work/sebastian/BT-20210625/1009458-light/run1009458-light.h5 tag-1491865504//
/work/sebastian/BT-20210625/1009458-light/run1009458-light.h5 tag-1491865506//
/work/sebastian/BT-20210625/1009458-light/run1009458-light.h5 tag-1491865508//
/work/sebastian/BT-20210625/1009458-light/run1009458-light.h5 tag-1491865510//
/work/sebastian/BT-20210625/1009458-light/run1009458-light.h5 tag-1491865514//
/work/sebastian/BT-20210625/1009458-light/run1009458-light.h5 tag-1491865516//
/work/sebastian/BT-20210625/1009458-light/run1009458-light.h5 tag-1491865518//
/work/sebastian/BT-20210625/1009458-light/run1009458-light.h5 tag-1491865524//
/work/sebastian/BT-20210625/1009458-light/run1009458-light.h5 tag-1491865530//
/work/sebastian/BT-20210625/1009458-light/run1009458-light.h5 tag-1491865534//
/work/sebastian/BT-20210625/1009458-light/run1009458-light.h5 tag-1491865536//
/work/sebastian/BT-20210625/1009458-light/run1009458-light.h5 tag-1491865538//
/work/sebastian/BT-20210625/1009458-light/run1009458-light.h5 tag-1491865540//
/work/sebastian/BT-20210625/1009458-light/run1009458-light.h5 tag-1491865546//
/work/sebastian/BT-20210625/1009458-light/run1009458-light.h5 tag-1491865554//
/work/sebastian/BT-20210625/1009458-light/run1009458-light.h5 tag-1491865556//
/work/sebastian/BT-20210625/1009458-light/run1009458-light.h5 tag-1491865558//
/work/sebastian/BT-20210625/1009458-light/run1009458-light.h5 tag-1491865560//
/work/sebastian/BT-20210625/1009458-light/run1009458-light.h5 tag-1491865562//
/work/sebastian/BT-20210625/1009458-light/run1009458-light.h5 tag-1491865564//
/work/sebastian/BT-20210625/1009458-light/run1009458-light.h5 tag-1491865566//
/work/sebastian/BT-20210625/1009458-light/run1009458-light.h5 tag-1491865572//
/work/sebastian/BT-20210625/1009458-light/run1009458-light.h5 tag-1491865574//
/work/sebastian/BT-20210625/1009458-light/run1009458-light.h5 tag-1491865578//
/work/sebastian/BT-20210625/1009458-light/run1009458-light.h5 tag-1491865580//
/work/sebastian/BT-20210625/1009458-light/run1009458-light.h5 tag-1491865582//
/work/sebastian/BT-20210625/1009458-light/run1009458-light.h5 tag-1491865584//
/work/sebastian/BT-20210625/1009458-light/run1009458-light.h5 tag-1491865588//
/work/sebastian/BT-20210625/1009458-light/run1009458-light.h5 tag-1491865590//
/work/sebastian/BT-20210625/1009458-light/run1009458-light.h5 tag-1491865600//
/work/sebastian/BT-20210625/1009458-light/run1009458-light.h5 tag-1491865604//
/work/sebastian/BT-20210625/1009458-light/run1009458-light.h5 tag-1491865610//
/work/sebastian/BT-20210625/1009458-light/run1009458-light.h5 tag-1491865612//
/work/sebastian/BT-20210625/1009458-light/run1009458-light.h5 tag-1491865614//
/work/sebastian/BT-20210625/1009458-light/run1009458-light.h5 tag-1491865616//
/work/sebastian/BT-20210625/1009458-light/run1009458-light.h5 tag-1491865618//
/work/sebastian/BT-20210625/1009458-light/run1009458-light.h5 tag-1491865620//
/work/sebastian/BT-20210625/1009458-light/run1009458-light.h5 tag-1491865622//
/work/sebastian/BT-20210625/1009458-light/run1009458-light.h5 tag-1491865624//
/work/sebastian/BT-20210625/1009458-light/run1009458-light.h5 tag-1491865630//
/work/sebastian/BT-20210625/1009458-light/run1009458-light.h5 tag-1491865632//
/work/sebastian/BT-20210625/1009458-light/run1009458-light.h5 tag-1491865640//
/work/sebastian/BT-20210625/1009458-light/run1009458-light.h5 tag-1491865642//
/work/sebastian/BT-20210625/1009458-light/run1009458-light.h5 tag-1491865644//
/work/sebastian/BT-20210625/1009458-light/run1009458-light.h5 tag-1491865646//
/work/sebastian/BT-20210625/1009458-light/run1009458-light.h5 tag-1491865648//
/work/sebastian/BT-20210625/1009458-light/run1009458-light.h5 tag-1491865650//
/work/sebastian/BT-20210625/1009458-light/run1009458-light.h5 tag-1491865652//
/work/sebastian/BT-20210625/1009458-light/run1009458-light.h5 tag-1491865654//
/work/sebastian/BT-20210625/1009458-light/run1009458-light.h5 tag-1491865658//
/work/sebastian/BT-20210625/1009458-light/run1009458-light.h5 tag-1491865660//
/work/sebastian/BT-20210625/1009458-light/run1009458-light.h5 tag-1491865662//
/work/sebastian/BT-20210625/1009458-light/run1009458-light.h5 tag-1491865664//
/work/sebastian/BT-20210625/1009458-light/run1009458-light.h5 tag-1491865666//
/work/sebastian/BT-20210625/1009458-light/run1009458-light.h5 tag-1491865668//
/work/sebastian/BT-20210625/1009458-light/run1009458-light.h5 tag-1491865670//
/work/sebastian/BT-20210625/1009458-light/run1009458-light.h5 tag-1491865672//
/work/sebastian/BT-20210625/1009458-light/run1009458-light.h5 tag-1491865676//
/work/sebastian/BT-20210625/1009458-light/run1009458-light.h5 tag-1491865678//
/work/sebastian/BT-20210625/1009458-light/run1009458-light.h5 tag-1491865680//
/work/sebastian/BT-20210625/1009458-light/run1009458-light.h5 tag-1491865682//
/work/sebastian/BT-20210625/1009458-light/run1009458-light.h5 tag-1491865686//
/work/sebastian/BT-20210625/1009458-light/run1009458-light.h5 tag-1491865694//
/work/sebastian/BT-20210625/1009458-light/run1009458-light.h5 tag-1491865698//
/work/sebastian/BT-20210625/1009458-light/run1009458-light.h5 tag-1491865700//
/work/sebastian/BT-20210625/1009458-light/run1009458-light.h5 tag-1491865702//
/work/sebastian/BT-20210625/1009458-light/run1009458-light.h5 tag-1491865704//
/work/sebastian/BT-20210625/1009458-light/run1009458-light.h5 tag-1491865710//
/work/sebastian/BT-20210625/1009458-light/run1009458-light.h5 tag-1491865714//
/work/sebastian/BT-20210625/1009458-light/run1009458-light.h5 tag-1491865716//
/work/sebastian/BT-20210625/1009458-light/run1009458-light.h5 tag-1491865718//
/work/sebastian/BT-20210625/1009458-light/run1009458-light.h5 tag-1491865720//
/work/sebastian/BT-20210625/1009458-light/run1009458-light.h5 tag-1491865722//
/work/sebastian/BT-20210625/1009458-light/run1009458-light.h5 tag-1491865726//
/work/sebastian/BT-20210625/1009458-light/run1009458-light.h5 tag-1491865728//
/work/sebastian/BT-20210625/1009458-light/run1009458-light.h5 tag-1491865730//
/work/sebastian/BT-20210625/1009458-light/run1009458-light.h5 tag-1491865734//
/work/sebastian/BT-20210625/1009458-light/run1009458-light.h5 tag-1491865736//
/work/sebastian/BT-20210625/1009458-light/run1009458-light.h5 tag-1491865738//
/work/sebastian/BT-20210625/1009458-light/run1009458-light.h5 tag-1491865744//
/work/sebastian/BT-20210625/1009458-light/run1009458-light.h5 tag-1491865746//
/work/sebastian/BT-20210625/1009458-light/run1009458-light.h5 tag-1491865750//
/work/sebastian/BT-20210625/1009458-light/run1009458-light.h5 tag-1491865752//
/work/sebastian/BT-20210625/1009458-light/run1009458-light.h5 tag-1491865754//
/work/sebastian/BT-20210625/1009458-light/run1009458-light.h5 tag-1491865756//
/work/sebastian/BT-20210625/1009458-light/run1009458-light.h5 tag-1491865758//
/work/sebastian/BT-20210625/1009458-light/run1009458-light.h5 tag-1491865762//
/work/sebastian/BT-20210625/1009458-light/run1009458-light.h5 tag-1491865764//
/work/sebastian/BT-20210625/1009458-light/run1009458-light.h5 tag-1491865766//
/work/sebastian/BT-20210625/1009458-light/run1009458-light.h5 tag-1491865768//
/work/sebastian/BT-20210625/1009458-light/run1009458-light.h5 tag-1491865770//
/work/sebastian/BT-20210625/1009458-light/run1009458-light.h5 tag-1491865772//
/work/sebastian/BT-20210625/1009458-light/run1009458-light.h5 tag-1491865774//
/work/sebastian/BT-20210625/1009458-light/run1009458-light.h5 tag-1491865776//
/work/sebastian/BT-20210625/1009458-light/run1009458-light.h5 tag-1491865780//
/work/sebastian/BT-20210625/1009458-light/run1009458-light.h5 tag-1491865782//
/work/sebastian/BT-20210625/1009458-light/run1009458-light.h5 tag-1491865784//
/work/sebastian/BT-20210625/1009458-light/run1009458-light.h5 tag-1491865786//
/work/sebastian/BT-20210625/1009458-light/run1009458-light.h5 tag-1491865792//
/work/sebastian/BT-20210625/1009458-light/run1009458-light.h5 tag-1491865794//
/work/sebastian/BT-20210625/1009458-light/run1009458-light.h5 tag-1491865798//
/work/sebastian/BT-20210625/1009458-light/run1009458-light.h5 tag-1491865800//
/work/sebastian/BT-20210625/1009458-light/run1009458-light.h5 tag-1491865804//
/work/sebastian/BT-20210625/1009458-light/run1009458-light.h5 tag-1491865808//
/work/sebastian/BT-20210625/1009458-light/run1009458-light.h5 tag-1491865812//
/work/sebastian/BT-20210625/1009458-light/run1009458-light.h5 tag-1491865816//
/work/sebastian/BT-20210625/1009458-light/run1009458-light.h5 tag-1491865820//
/work/sebastian/BT-20210625/1009458-light/run1009458-light.h5 tag-1491865824//
/work/sebastian/BT-20210625/1009458-light/run1009458-light.h5 tag-1491865828//
/work/sebastian/BT-20210625/1009458-light/run1009458-light.h5 tag-1491865832//
/work/sebastian/BT-20210625/1009458-light/run1009458-light.h5 tag-1491865834//
/work/sebastian/BT-20210625/1009458-light/run1009458-light.h5 tag-1491865838//
/work/sebastian/BT-20210625/1009458-light/run1009458-light.h5 tag-1491865846//
/work/sebastian/BT-20210625/1009458-light/run1009458-light.h5 tag-1491865848//
/work/sebastian/BT-20210625/1009458-light/run1009458-light.h5 tag-1491865850//
/work/sebastian/BT-20210625/1009458-light/run1009458-light.h5 tag-1491865852//
/work/sebastian/BT-20210625/1009458-light/run1009458-light.h5 tag-1491865854//
/work/sebastian/BT-20210625/1009458-light/run1009458-light.h5 tag-1491865858//
/work/sebastian/BT-20210625/1009458-light/run1009458-light.h5 tag-1491865860//
/work/sebastian/BT-20210625/1009458-light/run1009458-light.h5 tag-1491865866//
/work/sebastian/BT-20210625/1009458-light/run1009458-light.h5 tag-1491865868//
/work/sebastian/BT-20210625/1009458-light/run1009458-light.h5 tag-1491865876//
/work/sebastian/BT-20210625/1009458-light/run1009458-light.h5 tag-1491865878//
/work/sebastian/BT-20210625/1009458-light/run1009458-light.h5 tag-1491865884//
/work/sebastian/BT-20210625/1009458-light/run1009458-light.h5 tag-1491865886//
/work/sebastian/BT-20210625/1009458-light/run1009458-light.h5 tag-1491865888//
/work/sebastian/BT-20210625/1009458-light/run1009458-light.h5 tag-1491865892//
/work/sebastian/BT-20210625/1009458-light/run1009458-light.h5 tag-1491865894//
/work/sebastian/BT-20210625/1009458-light/run1009458-light.h5 tag-1491865896//
/work/sebastian/BT-20210625/1009458-light/run1009458-light.h5 tag-1491865900//
/work/sebastian/BT-20210625/1009458-light/run1009458-light.h5 tag-1491865910//
/work/sebastian/BT-20210625/1009458-light/run1009458-light.h5 tag-1491865920//
/work/sebastian/BT-20210625/1009458-light/run1009458-light.h5 tag-1491865930//
/work/sebastian/BT-20210625/1009458-light/run1009458-light.h5 tag-1491865934//
/work/sebastian/BT-20210625/1009458-light/run1009458-light.h5 tag-1491865936//
/work/sebastian/BT-20210625/1009458-light/run1009458-light.h5 tag-1491865938//
/work/sebastian/BT-20210625/1009458-light/run1009458-light.h5 tag-1491865940//
/work/sebastian/BT-20210625/1009458-light/run1009458-light.h5 tag-1491865944//
/work/sebastian/BT-20210625/1009458-light/run1009458-light.h5 tag-1491865952//
/work/sebastian/BT-20210625/1009458-light/run1009458-light.h5 tag-1491865954//
/work/sebastian/BT-20210625/1009458-light/run1009458-light.h5 tag-1491865958//
/work/sebastian/BT-20210625/1009458-light/run1009458-light.h5 tag-1491865960//
/work/sebastian/BT-20210625/1009458-light/run1009458-light.h5 tag-1491865962//
/work/sebastian/BT-20210625/1009458-light/run1009458-light.h5 tag-1491865968//
/work/sebastian/BT-20210625/1009458-light/run1009458-light.h5 tag-1491865974//
/work/sebastian/BT-20210625/1009458-light/run1009458-light.h5 tag-1491865976//
/work/sebastian/BT-20210625/1009458-light/run1009458-light.h5 tag-1491865986//
/work/sebastian/BT-20210625/1009458-light/run1009458-light.h5 tag-1491865994//
/work/sebastian/BT-20210625/1009458-light/run1009458-light.h5 tag-1491865998//
/work/sebastian/BT-20210625/1009458-light/run1009458-light.h5 tag-1491866000//
/work/sebastian/BT-20210625/1009458-light/run1009458-light.h5 tag-1491866012//
/work/sebastian/BT-20210625/1009458-light/run1009458-light.h5 tag-1491866024//
/work/sebastian/BT-20210625/1009458-light/run1009458-light.h5 tag-1491866026//
/work/sebastian/BT-20210625/1009458-light/run1009458-light.h5 tag-1491866028//
/work/sebastian/BT-20210625/1009458-light/run1009458-light.h5 tag-1491866030//
/work/sebastian/BT-20210625/1009458-light/run1009458-light.h5 tag-1491866032//
/work/sebastian/BT-20210625/1009458-light/run1009458-light.h5 tag-1491866034//
/work/sebastian/BT-20210625/1009458-light/run1009458-light.h5 tag-1491866040//
/work/sebastian/BT-20210625/1009458-light/run1009458-light.h5 tag-1491866042//
/work/sebastian/BT-20210625/1009458-light/run1009458-light.h5 tag-1491866044//
/work/sebastian/BT-20210625/1009458-light/run1009458-light.h5 tag-1491866046//
/work/sebastian/BT-20210625/1009458-light/run1009458-light.h5 tag-1491866048//
/work/sebastian/BT-20210625/1009458-light/run1009458-light.h5 tag-1491866050//
/work/sebastian/BT-20210625/1009458-light/run1009458-light.h5 tag-1491866052//
/work/sebastian/BT-20210625/1009458-light/run1009458-light.h5 tag-1491866054//
/work/sebastian/BT-20210625/1009458-light/run1009458-light.h5 tag-1491866056//
/work/sebastian/BT-20210625/1009458-light/run1009458-light.h5 tag-1491866058//
/work/sebastian/BT-20210625/1009458-light/run1009458-light.h5 tag-1491866062//
/work/sebastian/BT-20210625/1009458-light/run1009458-light.h5 tag-1491866066//
/work/sebastian/BT-20210625/1009458-light/run1009458-light.h5 tag-1491866070//
/work/sebastian/BT-20210625/1009458-light/run1009458-light.h5 tag-1491866076//
/work/sebastian/BT-20210625/1009458-light/run1009458-light.h5 tag-1491866078//
/work/sebastian/BT-20210625/1009458-light/run1009458-light.h5 tag-1491866088//
/work/sebastian/BT-20210625/1009458-light/run1009458-light.h5 tag-1491866090//
/work/sebastian/BT-20210625/1009458-light/run1009458-light.h5 tag-1491866094//
/work/sebastian/BT-20210625/1009458-light/run1009458-light.h5 tag-1491866096//
/work/sebastian/BT-20210625/1009458-light/run1009458-light.h5 tag-1491866098//
/work/sebastian/BT-20210625/1009458-light/run1009458-light.h5 tag-1491866100//
/work/sebastian/BT-20210625/1009458-light/run1009458-light.h5 tag-1491866102//
/work/sebastian/BT-20210625/1009458-light/run1009458-light.h5 tag-1491866104//
/work/sebastian/BT-20210625/1009458-light/run1009458-light.h5 tag-1491866110//
/work/sebastian/BT-20210625/1009458-light/run1009458-light.h5 tag-1491866112//
/work/sebastian/BT-20210625/1009458-light/run1009458-light.h5 tag-1491866114//
/work/sebastian/BT-20210625/1009458-light/run1009458-light.h5 tag-1491866120//
/work/sebastian/BT-20210625/1009458-light/run1009458-light.h5 tag-1491866124//
/work/sebastian/BT-20210625/1009458-light/run1009458-light.h5 tag-1491866128//
/work/sebastian/BT-20210625/1009458-light/run1009458-light.h5 tag-1491866134//
/work/sebastian/BT-20210625/1009458-light/run1009458-light.h5 tag-1491866136//
/work/sebastian/BT-20210625/1009458-light/run1009458-light.h5 tag-1491866138//
/work/sebastian/BT-20210625/1009458-light/run1009458-light.h5 tag-1491866140//
/work/sebastian/BT-20210625/1009458-light/run1009458-light.h5 tag-1491866142//
/work/sebastian/BT-20210625/1009458-light/run1009458-light.h5 tag-1491866144//
/work/sebastian/BT-20210625/1009458-light/run1009458-light.h5 tag-1491866150//
/work/sebastian/BT-20210625/1009458-light/run1009458-light.h5 tag-1491866152//
/work/sebastian/BT-20210625/1009458-light/run1009458-light.h5 tag-1491866154//
/work/sebastian/BT-20210625/1009458-light/run1009458-light.h5 tag-1491866160//
/work/sebastian/BT-20210625/1009458-light/run1009458-light.h5 tag-1491866168//
/work/sebastian/BT-20210625/1009458-light/run1009458-light.h5 tag-1491866170//
/work/sebastian/BT-20210625/1009458-light/run1009458-light.h5 tag-1491866180//
/work/sebastian/BT-20210625/1009458-light/run1009458-light.h5 tag-1491866184//
/work/sebastian/BT-20210625/1009458-light/run1009458-light.h5 tag-1491866188//
/work/sebastian/BT-20210625/1009458-light/run1009458-light.h5 tag-1491866194//
/work/sebastian/BT-20210625/1009458-light/run1009458-light.h5 tag-1491866200//
/work/sebastian/BT-20210625/1009458-light/run1009458-light.h5 tag-1491866202//
/work/sebastian/BT-20210625/1009458-light/run1009458-light.h5 tag-1491866204//
/work/sebastian/BT-20210625/1009458-light/run1009458-light.h5 tag-1491866210//
/work/sebastian/BT-20210625/1009458-light/run1009458-light.h5 tag-1491866212//
/work/sebastian/BT-20210625/1009458-light/run1009458-light.h5 tag-1491866220//
/work/sebastian/BT-20210625/1009458-light/run1009458-light.h5 tag-1491866222//
/work/sebastian/BT-20210625/1009458-light/run1009458-light.h5 tag-1491866228//
/work/sebastian/BT-20210625/1009458-light/run1009458-light.h5 tag-1491866230//
/work/sebastian/BT-20210625/1009458-light/run1009458-light.h5 tag-1491866232//
/work/sebastian/BT-20210625/1009458-light/run1009458-light.h5 tag-1491866234//
/work/sebastian/BT-20210625/1009458-light/run1009458-light.h5 tag-1491866236//
/work/sebastian/BT-20210625/1009458-light/run1009458-light.h5 tag-1491866238//
/work/sebastian/BT-20210625/1009458-light/run1009458-light.h5 tag-1491866242//
/work/sebastian/BT-20210625/1009458-light/run1009458-light.h5 tag-1491866244//
/work/sebastian/BT-20210625/1009458-light/run1009458-light.h5 tag-1491866248//
/work/sebastian/BT-20210625/1009458-light/run1009458-light.h5 tag-1491866252//
/work/sebastian/BT-20210625/1009458-light/run1009458-light.h5 tag-1491866254//
/work/sebastian/BT-20210625/1009458-light/run1009458-light.h5 tag-1491866266//
/work/sebastian/BT-20210625/1009458-light/run1009458-light.h5 tag-1491866268//
/work/sebastian/BT-20210625/1009458-light/run1009458-light.h5 tag-1491866274//
/work/sebastian/BT-20210625/1009458-light/run1009458-light.h5 tag-1491866276//
/work/sebastian/BT-20210625/1009458-light/run1009458-light.h5 tag-1491866282//
/work/sebastian/BT-20210625/1009458-light/run1009458-light.h5 tag-1491866284//
/work/sebastian/BT-20210625/1009458-light/run1009458-light.h5 tag-1491866286//
/work/sebastian/BT-20210625/1009458-light/run1009458-light.h5 tag-1491866288//
/work/sebastian/BT-20210625/1009458-light/run1009458-light.h5 tag-1491866296//
/work/sebastian/BT-20210625/1009458-light/run1009458-light.h5 tag-1491866308//
/work/sebastian/BT-20210625/1009458-light/run1009458-light.h5 tag-1491866312//
/work/sebastian/BT-20210625/1009458-light/run1009458-light.h5 tag-1491866316//
/work/sebastian/BT-20210625/1009458-light/run1009458-light.h5 tag-1491866322//
/work/sebastian/BT-20210625/1009458-light/run1009458-light.h5 tag-1491866324//
/work/sebastian/BT-20210625/1009458-light/run1009458-light.h5 tag-1491866326//
/work/sebastian/BT-20210625/1009458-light/run1009458-light.h5 tag-1491866332//
/work/sebastian/BT-20210625/1009458-light/run1009458-light.h5 tag-1491866334//
/work/sebastian/BT-20210625/1009458-light/run1009458-light.h5 tag-1491866336//
/work/sebastian/BT-20210625/1009458-light/run1009458-light.h5 tag-1491866350//
/work/sebastian/BT-20210625/1009458-light/run1009458-light.h5 tag-1491866352//
/work/sebastian/BT-20210625/1009458-light/run1009458-light.h5 tag-1491866354//
/work/sebastian/BT-20210625/1009458-light/run1009458-light.h5 tag-1491866358//
/work/sebastian/BT-20210625/1009458-light/run1009458-light.h5 tag-1491866362//
/work/sebastian/BT-20210625/1009458-light/run1009458-light.h5 tag-1491866364//
/work/sebastian/BT-20210625/1009458-light/run1009458-light.h5 tag-1491866366//
/work/sebastian/BT-20210625/1009458-light/run1009458-light.h5 tag-1491866368//
/work/sebastian/BT-20210625/1009458-light/run1009458-light.h5 tag-1491866372//
/work/sebastian/BT-20210625/1009458-light/run1009458-light.h5 tag-1491866378//
/work/sebastian/BT-20210625/1009458-light/run1009458-light.h5 tag-1491866380//
/work/sebastian/BT-20210625/1009458-light/run1009458-light.h5 tag-1491866382//
/work/sebastian/BT-20210625/1009458-light/run1009458-light.h5 tag-1491866384//
/work/sebastian/BT-20210625/1009458-light/run1009458-light.h5 tag-1491866386//
/work/sebastian/BT-20210625/1009458-light/run1009458-light.h5 tag-1491866388//
/work/sebastian/BT-20210625/1009458-light/run1009458-light.h5 tag-1491866390//
/work/sebastian/BT-20210625/1009458-light/run1009458-light.h5 tag-1491866392//
/work/sebastian/BT-20210625/1009458-light/run1009458-light.h5 tag-1491866396//
/work/sebastian/BT-20210625/1009458-light/run1009458-light.h5 tag-1491866398//
/work/sebastian/BT-20210625/1009458-light/run1009458-light.h5 tag-1491866402//
/work/sebastian/BT-20210625/1009458-light/run1009458-light.h5 tag-1491866404//
/work/sebastian/BT-20210625/1009458-light/run1009458-light.h5 tag-1491866410//
/work/sebastian/BT-20210625/1009458-light/run1009458-light.h5 tag-1491866412//
/work/sebastian/BT-20210625/1009458-light/run1009458-light.h5 tag-1491866414//
/work/sebastian/BT-20210625/1009458-light/run1009458-light.h5 tag-1491866420//
/work/sebastian/BT-20210625/1009458-light/run1009458-light.h5 tag-1491866424//
/work/sebastian/BT-20210625/1009458-light/run1009458-light.h5 tag-1491866426//
/work/sebastian/BT-20210625/1009458-light/run1009458-light.h5 tag-1491866428//
/work/sebastian/BT-20210625/1009458-light/run1009458-light.h5 tag-1491866430//
/work/sebastian/BT-20210625/1009458-light/run1009458-light.h5 tag-1491866434//
/work/sebastian/BT-20210625/1009458-light/run1009458-light.h5 tag-1491866436//
/work/sebastian/BT-20210625/1009458-light/run1009458-light.h5 tag-1491866440//
/work/sebastian/BT-20210625/1009458-light/run1009458-light.h5 tag-1491866444//
/work/sebastian/BT-20210625/1009458-light/run1009458-light.h5 tag-1491866446//
/work/sebastian/BT-20210625/1009458-light/run1009458-light.h5 tag-1491866452//
/work/sebastian/BT-20210625/1009458-light/run1009458-light.h5 tag-1491866454//
/work/sebastian/BT-20210625/1009458-light/run1009458-light.h5 tag-1491866456//
/work/sebastian/BT-20210625/1009458-light/run1009458-light.h5 tag-1491866458//
/work/sebastian/BT-20210625/1009458-light/run1009458-light.h5 tag-1491866460//
/work/sebastian/BT-20210625/1009458-light/run1009458-light.h5 tag-1491866468//
/work/sebastian/BT-20210625/1009458-light/run1009458-light.h5 tag-1491866472//
/work/sebastian/BT-20210625/1009458-light/run1009458-light.h5 tag-1491866474//
/work/sebastian/BT-20210625/1009458-light/run1009458-light.h5 tag-1491866480//
/work/sebastian/BT-20210625/1009458-light/run1009458-light.h5 tag-1491866486//
/work/sebastian/BT-20210625/1009458-light/run1009458-light.h5 tag-1491866492//
/work/sebastian/BT-20210625/1009458-light/run1009458-light.h5 tag-1491866494//
/work/sebastian/BT-20210625/1009458-light/run1009458-light.h5 tag-1491866498//
/work/sebastian/BT-20210625/1009458-light/run1009458-light.h5 tag-1491866500//
/work/sebastian/BT-20210625/1009458-light/run1009458-light.h5 tag-1491866502//
/work/sebastian/BT-20210625/1009458-light/run1009458-light.h5 tag-1491866506//
/work/sebastian/BT-20210625/1009458-light/run1009458-light.h5 tag-1491866510//
/work/sebastian/BT-20210625/1009458-light/run1009458-light.h5 tag-1491866514//
/work/sebastian/BT-20210625/1009458-light/run1009458-light.h5 tag-1491866518//
/work/sebastian/BT-20210625/1009458-light/run1009458-light.h5 tag-1491866520//
/work/sebastian/BT-20210625/1009458-light/run1009458-light.h5 tag-1491866524//
/work/sebastian/BT-20210625/1009458-light/run1009458-light.h5 tag-1491866536//
/work/sebastian/BT-20210625/1009458-light/run1009458-light.h5 tag-1491866540//
/work/sebastian/BT-20210625/1009458-light/run1009458-light.h5 tag-1491866546//
/work/sebastian/BT-20210625/1009458-light/run1009458-light.h5 tag-1491866548//
/work/sebastian/BT-20210625/1009458-light/run1009458-light.h5 tag-1491866554//
/work/sebastian/BT-20210625/1009458-light/run1009458-light.h5 tag-1491866562//
/work/sebastian/BT-20210625/1009458-light/run1009458-light.h5 tag-1491866566//
/work/sebastian/BT-20210625/1009458-light/run1009458-light.h5 tag-1491866570//
/work/sebastian/BT-20210625/1009458-light/run1009458-light.h5 tag-1491866576//
/work/sebastian/BT-20210625/1009458-light/run1009458-light.h5 tag-1491866578//
/work/sebastian/BT-20210625/1009458-light/run1009458-light.h5 tag-1491866580//
/work/sebastian/BT-20210625/1009458-light/run1009458-light.h5 tag-1491866586//
/work/sebastian/BT-20210625/1009458-light/run1009458-light.h5 tag-1491866588//
/work/sebastian/BT-20210625/1009458-light/run1009458-light.h5 tag-1491866590//
/work/sebastian/BT-20210625/1009458-light/run1009458-light.h5 tag-1491866594//
/work/sebastian/BT-20210625/1009458-light/run1009458-light.h5 tag-1491866596//
/work/sebastian/BT-20210625/1009458-light/run1009458-light.h5 tag-1491866598//
/work/sebastian/BT-20210625/1009458-light/run1009458-light.h5 tag-1491866600//
/work/sebastian/BT-20210625/1009458-light/run1009458-light.h5 tag-1491866606//
/work/sebastian/BT-20210625/1009458-light/run1009458-light.h5 tag-1491866610//
/work/sebastian/BT-20210625/1009458-light/run1009458-light.h5 tag-1491866612//
/work/sebastian/BT-20210625/1009458-light/run1009458-light.h5 tag-1491866614//
/work/sebastian/BT-20210625/1009458-light/run1009458-light.h5 tag-1491866616//
/work/sebastian/BT-20210625/1009458-light/run1009458-light.h5 tag-1491866622//
/work/sebastian/BT-20210625/1009458-light/run1009458-light.h5 tag-1491866626//
/work/sebastian/BT-20210625/1009458-light/run1009458-light.h5 tag-1491866628//
/work/sebastian/BT-20210625/1009458-light/run1009458-light.h5 tag-1491866630//
/work/sebastian/BT-20210625/1009458-light/run1009458-light.h5 tag-1491866632//
/work/sebastian/BT-20210625/1009458-light/run1009458-light.h5 tag-1491866634//
/work/sebastian/BT-20210625/1009458-light/run1009458-light.h5 tag-1491866636//
/work/sebastian/BT-20210625/1009458-light/run1009458-light.h5 tag-1491866638//
/work/sebastian/BT-20210625/1009458-light/run1009458-light.h5 tag-1491866642//
/work/sebastian/BT-20210625/1009458-light/run1009458-light.h5 tag-1491866644//
/work/sebastian/BT-20210625/1009458-light/run1009458-light.h5 tag-1491866646//
/work/sebastian/BT-20210625/1009458-light/run1009458-light.h5 tag-1491866648//
/work/sebastian/BT-20210625/1009458-light/run1009458-light.h5 tag-1491866650//
/work/sebastian/BT-20210625/1009458-light/run1009458-light.h5 tag-1491866652//
/work/sebastian/BT-20210625/1009458-light/run1009458-light.h5 tag-1491866658//
/work/sebastian/BT-20210625/1009458-light/run1009458-light.h5 tag-1491866664//
/work/sebastian/BT-20210625/1009458-light/run1009458-light.h5 tag-1491866668//
/work/sebastian/BT-20210625/1009458-light/run1009458-light.h5 tag-1491866672//
/work/sebastian/BT-20210625/1009458-light/run1009458-light.h5 tag-1491866674//
/work/sebastian/BT-20210625/1009458-light/run1009458-light.h5 tag-1491866680//
/work/sebastian/BT-20210625/1009458-light/run1009458-light.h5 tag-1491866684//
/work/sebastian/BT-20210625/1009458-light/run1009458-light.h5 tag-1491866686//
/work/sebastian/BT-20210625/1009458-light/run1009458-light.h5 tag-1491866688//
/work/sebastian/BT-20210625/1009458-light/run1009458-light.h5 tag-1491866690//
/work/sebastian/BT-20210625/1009458-light/run1009458-light.h5 tag-1491866692//
/work/sebastian/BT-20210625/1009458-light/run1009458-light.h5 tag-1491866694//
/work/sebastian/BT-20210625/1009458-light/run1009458-light.h5 tag-1491866698//
/work/sebastian/BT-20210625/1009458-light/run1009458-light.h5 tag-1491866700//
/work/sebastian/BT-20210625/1009458-light/run1009458-light.h5 tag-1491866704//
/work/sebastian/BT-20210625/1009458-light/run1009458-light.h5 tag-1491866708//
/work/sebastian/BT-20210625/1009458-light/run1009458-light.h5 tag-1491866710//
/work/sebastian/BT-20210625/1009458-light/run1009458-light.h5 tag-1491866718//
/work/sebastian/BT-20210625/1009458-light/run1009458-light.h5 tag-1491866720//
/work/sebastian/BT-20210625/1009458-light/run1009458-light.h5 tag-1491866722//
/work/sebastian/BT-20210625/1009458-light/run1009458-light.h5 tag-1491866726//
/work/sebastian/BT-20210625/1009458-light/run1009458-light.h5 tag-1491866730//
/work/sebastian/BT-20210625/1009458-light/run1009458-light.h5 tag-1491866732//
/work/sebastian/BT-20210625/1009458-light/run1009458-light.h5 tag-1491866736//
/work/sebastian/BT-20210625/1009458-light/run1009458-light.h5 tag-1491866742//
/work/sebastian/BT-20210625/1009458-light/run1009458-light.h5 tag-1491866744//
/work/sebastian/BT-20210625/1009458-light/run1009458-light.h5 tag-1491866754//
/work/sebastian/BT-20210625/1009458-light/run1009458-light.h5 tag-1491866762//
/work/sebastian/BT-20210625/1009458-light/run1009458-light.h5 tag-1491866766//
/work/sebastian/BT-20210625/1009458-light/run1009458-light.h5 tag-1491866768//
/work/sebastian/BT-20210625/1009458-light/run1009458-light.h5 tag-1491866770//
/work/sebastian/BT-20210625/1009458-light/run1009458-light.h5 tag-1491866772//
/work/sebastian/BT-20210625/1009458-light/run1009458-light.h5 tag-1491866774//
/work/sebastian/BT-20210625/1009458-light/run1009458-light.h5 tag-1491866778//
/work/sebastian/BT-20210625/1009458-light/run1009458-light.h5 tag-1491866780//
/work/sebastian/BT-20210625/1009458-light/run1009458-light.h5 tag-1491866782//
/work/sebastian/BT-20210625/1009458-light/run1009458-light.h5 tag-1491866784//
/work/sebastian/BT-20210625/1009458-light/run1009458-light.h5 tag-1491866790//
/work/sebastian/BT-20210625/1009458-light/run1009458-light.h5 tag-1491866794//
/work/sebastian/BT-20210625/1009458-light/run1009458-light.h5 tag-1491866796//
/work/sebastian/BT-20210625/1009458-light/run1009458-light.h5 tag-1491866798//
/work/sebastian/BT-20210625/1009458-light/run1009458-light.h5 tag-1491866800//
/work/sebastian/BT-20210625/1009458-light/run1009458-light.h5 tag-1491866802//
/work/sebastian/BT-20210625/1009458-light/run1009458-light.h5 tag-1491866804//
/work/sebastian/BT-20210625/1009458-light/run1009458-light.h5 tag-1491866814//
/work/sebastian/BT-20210625/1009458-light/run1009458-light.h5 tag-1491866816//
/work/sebastian/BT-20210625/1009458-light/run1009458-light.h5 tag-1491866818//
/work/sebastian/BT-20210625/1009458-light/run1009458-light.h5 tag-1491866820//
/work/sebastian/BT-20210625/1009458-light/run1009458-light.h5 tag-1491866824//
/work/sebastian/BT-20210625/1009458-light/run1009458-light.h5 tag-1491866828//
/work/sebastian/BT-20210625/1009458-light/run1009458-light.h5 tag-1491866830//
/work/sebastian/BT-20210625/1009458-light/run1009458-light.h5 tag-1491866832//
/work/sebastian/BT-20210625/1009458-light/run1009458-light.h5 tag-1491866838//
/work/sebastian/BT-20210625/1009458-light/run1009458-light.h5 tag-1491866840//
/work/sebastian/BT-20210625/1009458-light/run1009458-light.h5 tag-1491866842//
/work/sebastian/BT-20210625/1009458-light/run1009458-light.h5 tag-1491866844//
/work/sebastian/BT-20210625/1009458-light/run1009458-light.h5 tag-1491866846//
/work/sebastian/BT-20210625/1009458-light/run1009458-light.h5 tag-1491866848//
/work/sebastian/BT-20210625/1009458-light/run1009458-light.h5 tag-1491866852//
/work/sebastian/BT-20210625/1009458-light/run1009458-light.h5 tag-1491866854//
/work/sebastian/BT-20210625/1009458-light/run1009458-light.h5 tag-1491866858//
/work/sebastian/BT-20210625/1009458-light/run1009458-light.h5 tag-1491866864//
/work/sebastian/BT-20210625/1009458-light/run1009458-light.h5 tag-1491866866//
/work/sebastian/BT-20210625/1009458-light/run1009458-light.h5 tag-1491866870//
/work/sebastian/BT-20210625/1009458-light/run1009458-light.h5 tag-1491866874//
/work/sebastian/BT-20210625/1009458-light/run1009458-light.h5 tag-1491866876//
/work/sebastian/BT-20210625/1009458-light/run1009458-light.h5 tag-1491866878//
/work/sebastian/BT-20210625/1009458-light/run1009458-light.h5 tag-1491866880//
/work/sebastian/BT-20210625/1009458-light/run1009458-light.h5 tag-1491866882//
/work/sebastian/BT-20210625/1009458-light/run1009458-light.h5 tag-1491866884//
/work/sebastian/BT-20210625/1009458-light/run1009458-light.h5 tag-1491866886//
/work/sebastian/BT-20210625/1009458-light/run1009458-light.h5 tag-1491866888//
/work/sebastian/BT-20210625/1009458-light/run1009458-light.h5 tag-1491866894//
/work/sebastian/BT-20210625/1009458-light/run1009458-light.h5 tag-1491866910//
/work/sebastian/BT-20210625/1009458-light/run1009458-light.h5 tag-1491866912//
/work/sebastian/BT-20210625/1009458-light/run1009458-light.h5 tag-1491866914//
/work/sebastian/BT-20210625/1009458-light/run1009458-light.h5 tag-1491866916//
/work/sebastian/BT-20210625/1009458-light/run1009458-light.h5 tag-1491866918//
/work/sebastian/BT-20210625/1009458-light/run1009458-light.h5 tag-1491866922//
/work/sebastian/BT-20210625/1009458-light/run1009458-light.h5 tag-1491866924//
/work/sebastian/BT-20210625/1009458-light/run1009458-light.h5 tag-1491866930//
/work/sebastian/BT-20210625/1009458-light/run1009458-light.h5 tag-1491866932//
/work/sebastian/BT-20210625/1009458-light/run1009458-light.h5 tag-1491866934//
/work/sebastian/BT-20210625/1009458-light/run1009458-light.h5 tag-1491866936//
/work/sebastian/BT-20210625/1009458-light/run1009458-light.h5 tag-1491866938//
/work/sebastian/BT-20210625/1009458-light/run1009458-light.h5 tag-1491866944//
/work/sebastian/BT-20210625/1009458-light/run1009458-light.h5 tag-1491866948//
/work/sebastian/BT-20210625/1009458-light/run1009458-light.h5 tag-1491866952//
/work/sebastian/BT-20210625/1009458-light/run1009458-light.h5 tag-1491866954//
/work/sebastian/BT-20210625/1009458-light/run1009458-light.h5 tag-1491866956//
/work/sebastian/BT-20210625/1009458-light/run1009458-light.h5 tag-1491866960//
/work/sebastian/BT-20210625/1009458-light/run1009458-light.h5 tag-1491866966//
/work/sebastian/BT-20210625/1009458-light/run1009458-light.h5 tag-1491866970//
/work/sebastian/BT-20210625/1009458-light/run1009458-light.h5 tag-1491866976//
/work/sebastian/BT-20210625/1009458-light/run1009458-light.h5 tag-1491866982//
/work/sebastian/BT-20210625/1009458-light/run1009458-light.h5 tag-1491866984//
/work/sebastian/BT-20210625/1009458-light/run1009458-light.h5 tag-1491866986//
/work/sebastian/BT-20210625/1009458-light/run1009458-light.h5 tag-1491866990//
/work/sebastian/BT-20210625/1009458-light/run1009458-light.h5 tag-1491866992//
/work/sebastian/BT-20210625/1009458-light/run1009458-light.h5 tag-1491866994//
/work/sebastian/BT-20210625/1009458-light/run1009458-light.h5 tag-1491866996//
/work/sebastian/BT-20210625/1009458-light/run1009458-light.h5 tag-1491867006//
/work/sebastian/BT-20210625/1009458-light/run1009458-light.h5 tag-1491867014//
/work/sebastian/BT-20210625/1009458-light/run1009458-light.h5 tag-1491867018//
/work/sebastian/BT-20210625/1009458-light/run1009458-light.h5 tag-1491867022//
/work/sebastian/BT-20210625/1009458-light/run1009458-light.h5 tag-1491867026//
/work/sebastian/BT-20210625/1009458-light/run1009458-light.h5 tag-1491867028//
/work/sebastian/BT-20210625/1009458-light/run1009458-light.h5 tag-1491867030//
/work/sebastian/BT-20210625/1009458-light/run1009458-light.h5 tag-1491867038//
/work/sebastian/BT-20210625/1009458-light/run1009458-light.h5 tag-1491867040//
/work/sebastian/BT-20210625/1009458-light/run1009458-light.h5 tag-1491867042//
/work/sebastian/BT-20210625/1009458-light/run1009458-light.h5 tag-1491867044//
/work/sebastian/BT-20210625/1009458-light/run1009458-light.h5 tag-1491867046//
/work/sebastian/BT-20210625/1009458-light/run1009458-light.h5 tag-1491867048//
/work/sebastian/BT-20210625/1009458-light/run1009458-light.h5 tag-1491867052//
/work/sebastian/BT-20210625/1009458-light/run1009458-light.h5 tag-1491867054//
/work/sebastian/BT-20210625/1009458-light/run1009458-light.h5 tag-1491867058//
/work/sebastian/BT-20210625/1009458-light/run1009458-light.h5 tag-1491867060//
/work/sebastian/BT-20210625/1009458-light/run1009458-light.h5 tag-1491867062//
/work/sebastian/BT-20210625/1009458-light/run1009458-light.h5 tag-1491867064//
