/work/sebastian/BT-20210625/1009520-light/run1009520-light.h5 tag-1492240042//
/work/sebastian/BT-20210625/1009520-light/run1009520-light.h5 tag-1492240046//
/work/sebastian/BT-20210625/1009520-light/run1009520-light.h5 tag-1492240052//
/work/sebastian/BT-20210625/1009520-light/run1009520-light.h5 tag-1492240062//
/work/sebastian/BT-20210625/1009520-light/run1009520-light.h5 tag-1492240066//
/work/sebastian/BT-20210625/1009520-light/run1009520-light.h5 tag-1492240068//
/work/sebastian/BT-20210625/1009520-light/run1009520-light.h5 tag-1492240074//
/work/sebastian/BT-20210625/1009520-light/run1009520-light.h5 tag-1492240096//
/work/sebastian/BT-20210625/1009520-light/run1009520-light.h5 tag-1492240106//
/work/sebastian/BT-20210625/1009520-light/run1009520-light.h5 tag-1492240108//
/work/sebastian/BT-20210625/1009520-light/run1009520-light.h5 tag-1492240116//
/work/sebastian/BT-20210625/1009520-light/run1009520-light.h5 tag-1492240118//
/work/sebastian/BT-20210625/1009520-light/run1009520-light.h5 tag-1492240122//
/work/sebastian/BT-20210625/1009520-light/run1009520-light.h5 tag-1492240136//
/work/sebastian/BT-20210625/1009520-light/run1009520-light.h5 tag-1492240138//
/work/sebastian/BT-20210625/1009520-light/run1009520-light.h5 tag-1492240144//
/work/sebastian/BT-20210625/1009520-light/run1009520-light.h5 tag-1492240148//
/work/sebastian/BT-20210625/1009520-light/run1009520-light.h5 tag-1492240150//
/work/sebastian/BT-20210625/1009520-light/run1009520-light.h5 tag-1492240156//
/work/sebastian/BT-20210625/1009520-light/run1009520-light.h5 tag-1492240162//
/work/sebastian/BT-20210625/1009520-light/run1009520-light.h5 tag-1492240168//
/work/sebastian/BT-20210625/1009520-light/run1009520-light.h5 tag-1492240170//
/work/sebastian/BT-20210625/1009520-light/run1009520-light.h5 tag-1492240174//
/work/sebastian/BT-20210625/1009520-light/run1009520-light.h5 tag-1492240176//
/work/sebastian/BT-20210625/1009520-light/run1009520-light.h5 tag-1492240178//
/work/sebastian/BT-20210625/1009520-light/run1009520-light.h5 tag-1492240182//
/work/sebastian/BT-20210625/1009520-light/run1009520-light.h5 tag-1492240186//
/work/sebastian/BT-20210625/1009520-light/run1009520-light.h5 tag-1492240188//
/work/sebastian/BT-20210625/1009520-light/run1009520-light.h5 tag-1492240192//
/work/sebastian/BT-20210625/1009520-light/run1009520-light.h5 tag-1492240196//
/work/sebastian/BT-20210625/1009520-light/run1009520-light.h5 tag-1492240204//
/work/sebastian/BT-20210625/1009520-light/run1009520-light.h5 tag-1492240206//
/work/sebastian/BT-20210625/1009520-light/run1009520-light.h5 tag-1492240212//
/work/sebastian/BT-20210625/1009520-light/run1009520-light.h5 tag-1492240222//
/work/sebastian/BT-20210625/1009520-light/run1009520-light.h5 tag-1492240236//
/work/sebastian/BT-20210625/1009520-light/run1009520-light.h5 tag-1492240238//
/work/sebastian/BT-20210625/1009520-light/run1009520-light.h5 tag-1492240242//
/work/sebastian/BT-20210625/1009520-light/run1009520-light.h5 tag-1492240244//
/work/sebastian/BT-20210625/1009520-light/run1009520-light.h5 tag-1492240248//
/work/sebastian/BT-20210625/1009520-light/run1009520-light.h5 tag-1492240252//
/work/sebastian/BT-20210625/1009520-light/run1009520-light.h5 tag-1492240256//
/work/sebastian/BT-20210625/1009520-light/run1009520-light.h5 tag-1492240258//
/work/sebastian/BT-20210625/1009520-light/run1009520-light.h5 tag-1492240260//
/work/sebastian/BT-20210625/1009520-light/run1009520-light.h5 tag-1492240264//
/work/sebastian/BT-20210625/1009520-light/run1009520-light.h5 tag-1492240266//
/work/sebastian/BT-20210625/1009520-light/run1009520-light.h5 tag-1492240268//
/work/sebastian/BT-20210625/1009520-light/run1009520-light.h5 tag-1492240270//
/work/sebastian/BT-20210625/1009520-light/run1009520-light.h5 tag-1492240272//
/work/sebastian/BT-20210625/1009520-light/run1009520-light.h5 tag-1492240274//
/work/sebastian/BT-20210625/1009520-light/run1009520-light.h5 tag-1492240276//
/work/sebastian/BT-20210625/1009520-light/run1009520-light.h5 tag-1492240280//
/work/sebastian/BT-20210625/1009520-light/run1009520-light.h5 tag-1492240282//
/work/sebastian/BT-20210625/1009520-light/run1009520-light.h5 tag-1492240284//
/work/sebastian/BT-20210625/1009520-light/run1009520-light.h5 tag-1492240286//
/work/sebastian/BT-20210625/1009520-light/run1009520-light.h5 tag-1492240298//
/work/sebastian/BT-20210625/1009520-light/run1009520-light.h5 tag-1492240306//
/work/sebastian/BT-20210625/1009520-light/run1009520-light.h5 tag-1492240322//
/work/sebastian/BT-20210625/1009520-light/run1009520-light.h5 tag-1492240328//
/work/sebastian/BT-20210625/1009520-light/run1009520-light.h5 tag-1492240338//
/work/sebastian/BT-20210625/1009520-light/run1009520-light.h5 tag-1492240344//
/work/sebastian/BT-20210625/1009520-light/run1009520-light.h5 tag-1492240356//
/work/sebastian/BT-20210625/1009520-light/run1009520-light.h5 tag-1492240368//
/work/sebastian/BT-20210625/1009520-light/run1009520-light.h5 tag-1492240370//
/work/sebastian/BT-20210625/1009520-light/run1009520-light.h5 tag-1492240372//
/work/sebastian/BT-20210625/1009520-light/run1009520-light.h5 tag-1492240382//
/work/sebastian/BT-20210625/1009520-light/run1009520-light.h5 tag-1492240388//
/work/sebastian/BT-20210625/1009520-light/run1009520-light.h5 tag-1492240392//
/work/sebastian/BT-20210625/1009520-light/run1009520-light.h5 tag-1492240394//
/work/sebastian/BT-20210625/1009520-light/run1009520-light.h5 tag-1492240396//
/work/sebastian/BT-20210625/1009520-light/run1009520-light.h5 tag-1492240400//
/work/sebastian/BT-20210625/1009520-light/run1009520-light.h5 tag-1492240402//
/work/sebastian/BT-20210625/1009520-light/run1009520-light.h5 tag-1492240406//
/work/sebastian/BT-20210625/1009520-light/run1009520-light.h5 tag-1492240410//
/work/sebastian/BT-20210625/1009520-light/run1009520-light.h5 tag-1492240418//
/work/sebastian/BT-20210625/1009520-light/run1009520-light.h5 tag-1492240420//
/work/sebastian/BT-20210625/1009520-light/run1009520-light.h5 tag-1492240422//
/work/sebastian/BT-20210625/1009520-light/run1009520-light.h5 tag-1492240426//
/work/sebastian/BT-20210625/1009520-light/run1009520-light.h5 tag-1492240428//
/work/sebastian/BT-20210625/1009520-light/run1009520-light.h5 tag-1492240432//
/work/sebastian/BT-20210625/1009520-light/run1009520-light.h5 tag-1492240434//
/work/sebastian/BT-20210625/1009520-light/run1009520-light.h5 tag-1492240440//
/work/sebastian/BT-20210625/1009520-light/run1009520-light.h5 tag-1492240442//
/work/sebastian/BT-20210625/1009520-light/run1009520-light.h5 tag-1492240454//
/work/sebastian/BT-20210625/1009520-light/run1009520-light.h5 tag-1492240460//
/work/sebastian/BT-20210625/1009520-light/run1009520-light.h5 tag-1492240464//
/work/sebastian/BT-20210625/1009520-light/run1009520-light.h5 tag-1492240472//
/work/sebastian/BT-20210625/1009520-light/run1009520-light.h5 tag-1492240478//
/work/sebastian/BT-20210625/1009520-light/run1009520-light.h5 tag-1492240482//
/work/sebastian/BT-20210625/1009520-light/run1009520-light.h5 tag-1492240484//
/work/sebastian/BT-20210625/1009520-light/run1009520-light.h5 tag-1492240486//
/work/sebastian/BT-20210625/1009520-light/run1009520-light.h5 tag-1492240496//
/work/sebastian/BT-20210625/1009520-light/run1009520-light.h5 tag-1492240504//
/work/sebastian/BT-20210625/1009520-light/run1009520-light.h5 tag-1492240510//
/work/sebastian/BT-20210625/1009520-light/run1009520-light.h5 tag-1492240514//
/work/sebastian/BT-20210625/1009520-light/run1009520-light.h5 tag-1492240518//
/work/sebastian/BT-20210625/1009520-light/run1009520-light.h5 tag-1492240526//
/work/sebastian/BT-20210625/1009520-light/run1009520-light.h5 tag-1492240534//
/work/sebastian/BT-20210625/1009520-light/run1009520-light.h5 tag-1492240536//
/work/sebastian/BT-20210625/1009520-light/run1009520-light.h5 tag-1492240544//
/work/sebastian/BT-20210625/1009520-light/run1009520-light.h5 tag-1492240562//
/work/sebastian/BT-20210625/1009520-light/run1009520-light.h5 tag-1492240566//
/work/sebastian/BT-20210625/1009520-light/run1009520-light.h5 tag-1492240572//
/work/sebastian/BT-20210625/1009520-light/run1009520-light.h5 tag-1492240580//
/work/sebastian/BT-20210625/1009520-light/run1009520-light.h5 tag-1492240586//
/work/sebastian/BT-20210625/1009520-light/run1009520-light.h5 tag-1492240588//
/work/sebastian/BT-20210625/1009520-light/run1009520-light.h5 tag-1492240592//
/work/sebastian/BT-20210625/1009520-light/run1009520-light.h5 tag-1492240594//
/work/sebastian/BT-20210625/1009520-light/run1009520-light.h5 tag-1492240596//
/work/sebastian/BT-20210625/1009520-light/run1009520-light.h5 tag-1492240602//
/work/sebastian/BT-20210625/1009520-light/run1009520-light.h5 tag-1492240604//
/work/sebastian/BT-20210625/1009520-light/run1009520-light.h5 tag-1492240608//
/work/sebastian/BT-20210625/1009520-light/run1009520-light.h5 tag-1492240612//
/work/sebastian/BT-20210625/1009520-light/run1009520-light.h5 tag-1492240618//
/work/sebastian/BT-20210625/1009520-light/run1009520-light.h5 tag-1492240622//
/work/sebastian/BT-20210625/1009520-light/run1009520-light.h5 tag-1492240628//
/work/sebastian/BT-20210625/1009520-light/run1009520-light.h5 tag-1492240630//
/work/sebastian/BT-20210625/1009520-light/run1009520-light.h5 tag-1492240632//
/work/sebastian/BT-20210625/1009520-light/run1009520-light.h5 tag-1492240634//
/work/sebastian/BT-20210625/1009520-light/run1009520-light.h5 tag-1492240640//
/work/sebastian/BT-20210625/1009520-light/run1009520-light.h5 tag-1492240650//
/work/sebastian/BT-20210625/1009520-light/run1009520-light.h5 tag-1492240652//
/work/sebastian/BT-20210625/1009520-light/run1009520-light.h5 tag-1492240654//
/work/sebastian/BT-20210625/1009520-light/run1009520-light.h5 tag-1492240662//
/work/sebastian/BT-20210625/1009520-light/run1009520-light.h5 tag-1492240676//
/work/sebastian/BT-20210625/1009520-light/run1009520-light.h5 tag-1492240678//
/work/sebastian/BT-20210625/1009520-light/run1009520-light.h5 tag-1492240686//
/work/sebastian/BT-20210625/1009520-light/run1009520-light.h5 tag-1492240688//
/work/sebastian/BT-20210625/1009520-light/run1009520-light.h5 tag-1492240690//
/work/sebastian/BT-20210625/1009520-light/run1009520-light.h5 tag-1492240694//
/work/sebastian/BT-20210625/1009520-light/run1009520-light.h5 tag-1492240698//
/work/sebastian/BT-20210625/1009520-light/run1009520-light.h5 tag-1492240700//
/work/sebastian/BT-20210625/1009520-light/run1009520-light.h5 tag-1492240702//
/work/sebastian/BT-20210625/1009520-light/run1009520-light.h5 tag-1492240704//
/work/sebastian/BT-20210625/1009520-light/run1009520-light.h5 tag-1492240712//
/work/sebastian/BT-20210625/1009520-light/run1009520-light.h5 tag-1492240716//
/work/sebastian/BT-20210625/1009520-light/run1009520-light.h5 tag-1492240718//
/work/sebastian/BT-20210625/1009520-light/run1009520-light.h5 tag-1492240720//
/work/sebastian/BT-20210625/1009520-light/run1009520-light.h5 tag-1492240724//
/work/sebastian/BT-20210625/1009520-light/run1009520-light.h5 tag-1492240726//
/work/sebastian/BT-20210625/1009520-light/run1009520-light.h5 tag-1492240730//
/work/sebastian/BT-20210625/1009520-light/run1009520-light.h5 tag-1492240738//
/work/sebastian/BT-20210625/1009520-light/run1009520-light.h5 tag-1492240746//
/work/sebastian/BT-20210625/1009520-light/run1009520-light.h5 tag-1492240750//
/work/sebastian/BT-20210625/1009520-light/run1009520-light.h5 tag-1492240752//
/work/sebastian/BT-20210625/1009520-light/run1009520-light.h5 tag-1492240756//
/work/sebastian/BT-20210625/1009520-light/run1009520-light.h5 tag-1492240760//
/work/sebastian/BT-20210625/1009520-light/run1009520-light.h5 tag-1492240764//
/work/sebastian/BT-20210625/1009520-light/run1009520-light.h5 tag-1492240772//
/work/sebastian/BT-20210625/1009520-light/run1009520-light.h5 tag-1492240774//
/work/sebastian/BT-20210625/1009520-light/run1009520-light.h5 tag-1492240780//
/work/sebastian/BT-20210625/1009520-light/run1009520-light.h5 tag-1492240790//
/work/sebastian/BT-20210625/1009520-light/run1009520-light.h5 tag-1492240800//
/work/sebastian/BT-20210625/1009520-light/run1009520-light.h5 tag-1492240806//
/work/sebastian/BT-20210625/1009520-light/run1009520-light.h5 tag-1492240816//
/work/sebastian/BT-20210625/1009520-light/run1009520-light.h5 tag-1492240830//
/work/sebastian/BT-20210625/1009520-light/run1009520-light.h5 tag-1492240854//
/work/sebastian/BT-20210625/1009520-light/run1009520-light.h5 tag-1492240856//
/work/sebastian/BT-20210625/1009520-light/run1009520-light.h5 tag-1492240860//
/work/sebastian/BT-20210625/1009520-light/run1009520-light.h5 tag-1492240862//
/work/sebastian/BT-20210625/1009520-light/run1009520-light.h5 tag-1492240872//
/work/sebastian/BT-20210625/1009520-light/run1009520-light.h5 tag-1492240874//
/work/sebastian/BT-20210625/1009520-light/run1009520-light.h5 tag-1492240876//
/work/sebastian/BT-20210625/1009520-light/run1009520-light.h5 tag-1492240878//
/work/sebastian/BT-20210625/1009520-light/run1009520-light.h5 tag-1492240898//
/work/sebastian/BT-20210625/1009520-light/run1009520-light.h5 tag-1492240902//
/work/sebastian/BT-20210625/1009520-light/run1009520-light.h5 tag-1492240906//
/work/sebastian/BT-20210625/1009520-light/run1009520-light.h5 tag-1492240912//
/work/sebastian/BT-20210625/1009520-light/run1009520-light.h5 tag-1492240914//
/work/sebastian/BT-20210625/1009520-light/run1009520-light.h5 tag-1492240926//
/work/sebastian/BT-20210625/1009520-light/run1009520-light.h5 tag-1492240928//
/work/sebastian/BT-20210625/1009520-light/run1009520-light.h5 tag-1492240932//
/work/sebastian/BT-20210625/1009520-light/run1009520-light.h5 tag-1492240934//
/work/sebastian/BT-20210625/1009520-light/run1009520-light.h5 tag-1492240940//
/work/sebastian/BT-20210625/1009520-light/run1009520-light.h5 tag-1492240942//
/work/sebastian/BT-20210625/1009520-light/run1009520-light.h5 tag-1492240944//
/work/sebastian/BT-20210625/1009520-light/run1009520-light.h5 tag-1492240946//
/work/sebastian/BT-20210625/1009520-light/run1009520-light.h5 tag-1492240950//
/work/sebastian/BT-20210625/1009520-light/run1009520-light.h5 tag-1492240952//
/work/sebastian/BT-20210625/1009520-light/run1009520-light.h5 tag-1492240954//
/work/sebastian/BT-20210625/1009520-light/run1009520-light.h5 tag-1492240962//
/work/sebastian/BT-20210625/1009520-light/run1009520-light.h5 tag-1492240974//
/work/sebastian/BT-20210625/1009520-light/run1009520-light.h5 tag-1492240978//
/work/sebastian/BT-20210625/1009520-light/run1009520-light.h5 tag-1492240982//
/work/sebastian/BT-20210625/1009520-light/run1009520-light.h5 tag-1492240984//
/work/sebastian/BT-20210625/1009520-light/run1009520-light.h5 tag-1492240986//
/work/sebastian/BT-20210625/1009520-light/run1009520-light.h5 tag-1492240990//
/work/sebastian/BT-20210625/1009520-light/run1009520-light.h5 tag-1492240992//
/work/sebastian/BT-20210625/1009520-light/run1009520-light.h5 tag-1492240994//
/work/sebastian/BT-20210625/1009520-light/run1009520-light.h5 tag-1492240996//
/work/sebastian/BT-20210625/1009520-light/run1009520-light.h5 tag-1492241000//
/work/sebastian/BT-20210625/1009520-light/run1009520-light.h5 tag-1492241002//
/work/sebastian/BT-20210625/1009520-light/run1009520-light.h5 tag-1492241004//
/work/sebastian/BT-20210625/1009520-light/run1009520-light.h5 tag-1492241012//
/work/sebastian/BT-20210625/1009520-light/run1009520-light.h5 tag-1492241016//
/work/sebastian/BT-20210625/1009520-light/run1009520-light.h5 tag-1492241030//
/work/sebastian/BT-20210625/1009520-light/run1009520-light.h5 tag-1492241032//
/work/sebastian/BT-20210625/1009520-light/run1009520-light.h5 tag-1492241036//
/work/sebastian/BT-20210625/1009520-light/run1009520-light.h5 tag-1492241040//
/work/sebastian/BT-20210625/1009520-light/run1009520-light.h5 tag-1492241042//
/work/sebastian/BT-20210625/1009520-light/run1009520-light.h5 tag-1492241044//
/work/sebastian/BT-20210625/1009520-light/run1009520-light.h5 tag-1492241048//
/work/sebastian/BT-20210625/1009520-light/run1009520-light.h5 tag-1492241052//
/work/sebastian/BT-20210625/1009520-light/run1009520-light.h5 tag-1492241064//
/work/sebastian/BT-20210625/1009520-light/run1009520-light.h5 tag-1492241068//
/work/sebastian/BT-20210625/1009520-light/run1009520-light.h5 tag-1492241076//
/work/sebastian/BT-20210625/1009520-light/run1009520-light.h5 tag-1492241078//
/work/sebastian/BT-20210625/1009520-light/run1009520-light.h5 tag-1492241096//
/work/sebastian/BT-20210625/1009520-light/run1009520-light.h5 tag-1492241102//
/work/sebastian/BT-20210625/1009520-light/run1009520-light.h5 tag-1492241110//
/work/sebastian/BT-20210625/1009520-light/run1009520-light.h5 tag-1492241114//
/work/sebastian/BT-20210625/1009520-light/run1009520-light.h5 tag-1492241118//
/work/sebastian/BT-20210625/1009520-light/run1009520-light.h5 tag-1492241120//
/work/sebastian/BT-20210625/1009520-light/run1009520-light.h5 tag-1492241122//
/work/sebastian/BT-20210625/1009520-light/run1009520-light.h5 tag-1492241132//
/work/sebastian/BT-20210625/1009520-light/run1009520-light.h5 tag-1492241138//
/work/sebastian/BT-20210625/1009520-light/run1009520-light.h5 tag-1492241142//
/work/sebastian/BT-20210625/1009520-light/run1009520-light.h5 tag-1492241154//
/work/sebastian/BT-20210625/1009520-light/run1009520-light.h5 tag-1492241156//
/work/sebastian/BT-20210625/1009520-light/run1009520-light.h5 tag-1492241162//
/work/sebastian/BT-20210625/1009520-light/run1009520-light.h5 tag-1492241164//
/work/sebastian/BT-20210625/1009520-light/run1009520-light.h5 tag-1492241168//
/work/sebastian/BT-20210625/1009520-light/run1009520-light.h5 tag-1492241170//
/work/sebastian/BT-20210625/1009520-light/run1009520-light.h5 tag-1492241174//
/work/sebastian/BT-20210625/1009520-light/run1009520-light.h5 tag-1492241176//
/work/sebastian/BT-20210625/1009520-light/run1009520-light.h5 tag-1492241178//
/work/sebastian/BT-20210625/1009520-light/run1009520-light.h5 tag-1492241188//
/work/sebastian/BT-20210625/1009520-light/run1009520-light.h5 tag-1492241192//
/work/sebastian/BT-20210625/1009520-light/run1009520-light.h5 tag-1492241200//
/work/sebastian/BT-20210625/1009520-light/run1009520-light.h5 tag-1492241208//
/work/sebastian/BT-20210625/1009520-light/run1009520-light.h5 tag-1492241212//
/work/sebastian/BT-20210625/1009520-light/run1009520-light.h5 tag-1492241236//
/work/sebastian/BT-20210625/1009520-light/run1009520-light.h5 tag-1492241244//
/work/sebastian/BT-20210625/1009520-light/run1009520-light.h5 tag-1492241250//
/work/sebastian/BT-20210625/1009520-light/run1009520-light.h5 tag-1492241254//
/work/sebastian/BT-20210625/1009520-light/run1009520-light.h5 tag-1492241256//
/work/sebastian/BT-20210625/1009520-light/run1009520-light.h5 tag-1492241264//
/work/sebastian/BT-20210625/1009520-light/run1009520-light.h5 tag-1492241268//
/work/sebastian/BT-20210625/1009520-light/run1009520-light.h5 tag-1492241270//
/work/sebastian/BT-20210625/1009520-light/run1009520-light.h5 tag-1492241274//
/work/sebastian/BT-20210625/1009520-light/run1009520-light.h5 tag-1492241280//
/work/sebastian/BT-20210625/1009520-light/run1009520-light.h5 tag-1492241288//
/work/sebastian/BT-20210625/1009520-light/run1009520-light.h5 tag-1492241292//
/work/sebastian/BT-20210625/1009520-light/run1009520-light.h5 tag-1492241298//
/work/sebastian/BT-20210625/1009520-light/run1009520-light.h5 tag-1492241302//
/work/sebastian/BT-20210625/1009520-light/run1009520-light.h5 tag-1492241306//
/work/sebastian/BT-20210625/1009520-light/run1009520-light.h5 tag-1492241308//
/work/sebastian/BT-20210625/1009520-light/run1009520-light.h5 tag-1492241310//
/work/sebastian/BT-20210625/1009520-light/run1009520-light.h5 tag-1492241318//
/work/sebastian/BT-20210625/1009520-light/run1009520-light.h5 tag-1492241320//
/work/sebastian/BT-20210625/1009520-light/run1009520-light.h5 tag-1492241322//
/work/sebastian/BT-20210625/1009520-light/run1009520-light.h5 tag-1492241324//
/work/sebastian/BT-20210625/1009520-light/run1009520-light.h5 tag-1492241328//
/work/sebastian/BT-20210625/1009520-light/run1009520-light.h5 tag-1492241330//
/work/sebastian/BT-20210625/1009520-light/run1009520-light.h5 tag-1492241332//
/work/sebastian/BT-20210625/1009520-light/run1009520-light.h5 tag-1492241342//
/work/sebastian/BT-20210625/1009520-light/run1009520-light.h5 tag-1492241346//
/work/sebastian/BT-20210625/1009520-light/run1009520-light.h5 tag-1492241348//
/work/sebastian/BT-20210625/1009520-light/run1009520-light.h5 tag-1492241354//
/work/sebastian/BT-20210625/1009520-light/run1009520-light.h5 tag-1492241360//
/work/sebastian/BT-20210625/1009520-light/run1009520-light.h5 tag-1492241362//
/work/sebastian/BT-20210625/1009520-light/run1009520-light.h5 tag-1492241364//
/work/sebastian/BT-20210625/1009520-light/run1009520-light.h5 tag-1492241368//
/work/sebastian/BT-20210625/1009520-light/run1009520-light.h5 tag-1492241370//
/work/sebastian/BT-20210625/1009520-light/run1009520-light.h5 tag-1492241372//
/work/sebastian/BT-20210625/1009520-light/run1009520-light.h5 tag-1492241378//
/work/sebastian/BT-20210625/1009520-light/run1009520-light.h5 tag-1492241380//
/work/sebastian/BT-20210625/1009520-light/run1009520-light.h5 tag-1492241382//
/work/sebastian/BT-20210625/1009520-light/run1009520-light.h5 tag-1492241384//
/work/sebastian/BT-20210625/1009520-light/run1009520-light.h5 tag-1492241386//
/work/sebastian/BT-20210625/1009520-light/run1009520-light.h5 tag-1492241388//
/work/sebastian/BT-20210625/1009520-light/run1009520-light.h5 tag-1492241398//
/work/sebastian/BT-20210625/1009520-light/run1009520-light.h5 tag-1492241400//
/work/sebastian/BT-20210625/1009520-light/run1009520-light.h5 tag-1492241404//
/work/sebastian/BT-20210625/1009520-light/run1009520-light.h5 tag-1492241408//
/work/sebastian/BT-20210625/1009520-light/run1009520-light.h5 tag-1492241410//
/work/sebastian/BT-20210625/1009520-light/run1009520-light.h5 tag-1492241414//
/work/sebastian/BT-20210625/1009520-light/run1009520-light.h5 tag-1492241416//
/work/sebastian/BT-20210625/1009520-light/run1009520-light.h5 tag-1492241420//
/work/sebastian/BT-20210625/1009520-light/run1009520-light.h5 tag-1492241426//
/work/sebastian/BT-20210625/1009520-light/run1009520-light.h5 tag-1492241440//
/work/sebastian/BT-20210625/1009520-light/run1009520-light.h5 tag-1492241442//
/work/sebastian/BT-20210625/1009520-light/run1009520-light.h5 tag-1492241446//
/work/sebastian/BT-20210625/1009520-light/run1009520-light.h5 tag-1492241448//
/work/sebastian/BT-20210625/1009520-light/run1009520-light.h5 tag-1492241452//
/work/sebastian/BT-20210625/1009520-light/run1009520-light.h5 tag-1492241456//
/work/sebastian/BT-20210625/1009520-light/run1009520-light.h5 tag-1492241458//
/work/sebastian/BT-20210625/1009520-light/run1009520-light.h5 tag-1492241462//
/work/sebastian/BT-20210625/1009520-light/run1009520-light.h5 tag-1492241466//
/work/sebastian/BT-20210625/1009520-light/run1009520-light.h5 tag-1492241470//
/work/sebastian/BT-20210625/1009520-light/run1009520-light.h5 tag-1492241472//
/work/sebastian/BT-20210625/1009520-light/run1009520-light.h5 tag-1492241474//
/work/sebastian/BT-20210625/1009520-light/run1009520-light.h5 tag-1492241480//
/work/sebastian/BT-20210625/1009520-light/run1009520-light.h5 tag-1492241488//
/work/sebastian/BT-20210625/1009520-light/run1009520-light.h5 tag-1492241490//
/work/sebastian/BT-20210625/1009520-light/run1009520-light.h5 tag-1492241500//
/work/sebastian/BT-20210625/1009520-light/run1009520-light.h5 tag-1492241502//
/work/sebastian/BT-20210625/1009520-light/run1009520-light.h5 tag-1492241508//
/work/sebastian/BT-20210625/1009520-light/run1009520-light.h5 tag-1492241524//
/work/sebastian/BT-20210625/1009520-light/run1009520-light.h5 tag-1492241530//
/work/sebastian/BT-20210625/1009520-light/run1009520-light.h5 tag-1492241534//
/work/sebastian/BT-20210625/1009520-light/run1009520-light.h5 tag-1492241538//
/work/sebastian/BT-20210625/1009520-light/run1009520-light.h5 tag-1492241554//
/work/sebastian/BT-20210625/1009520-light/run1009520-light.h5 tag-1492241560//
/work/sebastian/BT-20210625/1009520-light/run1009520-light.h5 tag-1492241574//
/work/sebastian/BT-20210625/1009520-light/run1009520-light.h5 tag-1492241580//
/work/sebastian/BT-20210625/1009520-light/run1009520-light.h5 tag-1492241584//
/work/sebastian/BT-20210625/1009520-light/run1009520-light.h5 tag-1492241590//
/work/sebastian/BT-20210625/1009520-light/run1009520-light.h5 tag-1492241598//
/work/sebastian/BT-20210625/1009520-light/run1009520-light.h5 tag-1492241606//
/work/sebastian/BT-20210625/1009520-light/run1009520-light.h5 tag-1492241608//
/work/sebastian/BT-20210625/1009520-light/run1009520-light.h5 tag-1492241610//
/work/sebastian/BT-20210625/1009520-light/run1009520-light.h5 tag-1492241614//
/work/sebastian/BT-20210625/1009520-light/run1009520-light.h5 tag-1492241618//
/work/sebastian/BT-20210625/1009520-light/run1009520-light.h5 tag-1492241620//
/work/sebastian/BT-20210625/1009520-light/run1009520-light.h5 tag-1492241622//
/work/sebastian/BT-20210625/1009520-light/run1009520-light.h5 tag-1492241624//
/work/sebastian/BT-20210625/1009520-light/run1009520-light.h5 tag-1492241626//
/work/sebastian/BT-20210625/1009520-light/run1009520-light.h5 tag-1492241628//
/work/sebastian/BT-20210625/1009520-light/run1009520-light.h5 tag-1492241632//
/work/sebastian/BT-20210625/1009520-light/run1009520-light.h5 tag-1492241634//
/work/sebastian/BT-20210625/1009520-light/run1009520-light.h5 tag-1492241636//
/work/sebastian/BT-20210625/1009520-light/run1009520-light.h5 tag-1492241648//
/work/sebastian/BT-20210625/1009520-light/run1009520-light.h5 tag-1492241650//
/work/sebastian/BT-20210625/1009520-light/run1009520-light.h5 tag-1492241654//
/work/sebastian/BT-20210625/1009520-light/run1009520-light.h5 tag-1492241670//
/work/sebastian/BT-20210625/1009520-light/run1009520-light.h5 tag-1492241674//
/work/sebastian/BT-20210625/1009520-light/run1009520-light.h5 tag-1492241678//
/work/sebastian/BT-20210625/1009520-light/run1009520-light.h5 tag-1492241686//
/work/sebastian/BT-20210625/1009520-light/run1009520-light.h5 tag-1492241690//
/work/sebastian/BT-20210625/1009520-light/run1009520-light.h5 tag-1492241692//
/work/sebastian/BT-20210625/1009520-light/run1009520-light.h5 tag-1492241698//
/work/sebastian/BT-20210625/1009520-light/run1009520-light.h5 tag-1492241700//
/work/sebastian/BT-20210625/1009520-light/run1009520-light.h5 tag-1492241704//
/work/sebastian/BT-20210625/1009520-light/run1009520-light.h5 tag-1492241708//
/work/sebastian/BT-20210625/1009520-light/run1009520-light.h5 tag-1492241714//
/work/sebastian/BT-20210625/1009520-light/run1009520-light.h5 tag-1492241720//
/work/sebastian/BT-20210625/1009520-light/run1009520-light.h5 tag-1492241722//
/work/sebastian/BT-20210625/1009520-light/run1009520-light.h5 tag-1492241724//
/work/sebastian/BT-20210625/1009520-light/run1009520-light.h5 tag-1492241730//
/work/sebastian/BT-20210625/1009520-light/run1009520-light.h5 tag-1492241732//
/work/sebastian/BT-20210625/1009520-light/run1009520-light.h5 tag-1492241736//
/work/sebastian/BT-20210625/1009520-light/run1009520-light.h5 tag-1492241742//
/work/sebastian/BT-20210625/1009520-light/run1009520-light.h5 tag-1492241744//
/work/sebastian/BT-20210625/1009520-light/run1009520-light.h5 tag-1492241748//
/work/sebastian/BT-20210625/1009520-light/run1009520-light.h5 tag-1492241750//
/work/sebastian/BT-20210625/1009520-light/run1009520-light.h5 tag-1492241752//
/work/sebastian/BT-20210625/1009520-light/run1009520-light.h5 tag-1492241754//
/work/sebastian/BT-20210625/1009520-light/run1009520-light.h5 tag-1492241756//
/work/sebastian/BT-20210625/1009520-light/run1009520-light.h5 tag-1492241760//
/work/sebastian/BT-20210625/1009520-light/run1009520-light.h5 tag-1492241764//
/work/sebastian/BT-20210625/1009520-light/run1009520-light.h5 tag-1492241768//
/work/sebastian/BT-20210625/1009520-light/run1009520-light.h5 tag-1492241774//
/work/sebastian/BT-20210625/1009520-light/run1009520-light.h5 tag-1492241778//
/work/sebastian/BT-20210625/1009520-light/run1009520-light.h5 tag-1492241784//
/work/sebastian/BT-20210625/1009520-light/run1009520-light.h5 tag-1492241790//
/work/sebastian/BT-20210625/1009520-light/run1009520-light.h5 tag-1492241794//
/work/sebastian/BT-20210625/1009520-light/run1009520-light.h5 tag-1492241798//
/work/sebastian/BT-20210625/1009520-light/run1009520-light.h5 tag-1492241802//
/work/sebastian/BT-20210625/1009520-light/run1009520-light.h5 tag-1492241810//
/work/sebastian/BT-20210625/1009520-light/run1009520-light.h5 tag-1492241812//
/work/sebastian/BT-20210625/1009520-light/run1009520-light.h5 tag-1492241824//
/work/sebastian/BT-20210625/1009520-light/run1009520-light.h5 tag-1492241830//
/work/sebastian/BT-20210625/1009520-light/run1009520-light.h5 tag-1492241840//
/work/sebastian/BT-20210625/1009520-light/run1009520-light.h5 tag-1492241842//
/work/sebastian/BT-20210625/1009520-light/run1009520-light.h5 tag-1492241850//
/work/sebastian/BT-20210625/1009520-light/run1009520-light.h5 tag-1492241854//
/work/sebastian/BT-20210625/1009520-light/run1009520-light.h5 tag-1492241858//
/work/sebastian/BT-20210625/1009520-light/run1009520-light.h5 tag-1492241862//
/work/sebastian/BT-20210625/1009520-light/run1009520-light.h5 tag-1492241866//
/work/sebastian/BT-20210625/1009520-light/run1009520-light.h5 tag-1492241868//
/work/sebastian/BT-20210625/1009520-light/run1009520-light.h5 tag-1492241870//
/work/sebastian/BT-20210625/1009520-light/run1009520-light.h5 tag-1492241872//
/work/sebastian/BT-20210625/1009520-light/run1009520-light.h5 tag-1492241874//
/work/sebastian/BT-20210625/1009520-light/run1009520-light.h5 tag-1492241882//
/work/sebastian/BT-20210625/1009520-light/run1009520-light.h5 tag-1492241884//
/work/sebastian/BT-20210625/1009520-light/run1009520-light.h5 tag-1492241886//
/work/sebastian/BT-20210625/1009520-light/run1009520-light.h5 tag-1492241898//
/work/sebastian/BT-20210625/1009520-light/run1009520-light.h5 tag-1492241900//
/work/sebastian/BT-20210625/1009520-light/run1009520-light.h5 tag-1492241906//
/work/sebastian/BT-20210625/1009520-light/run1009520-light.h5 tag-1492241908//
/work/sebastian/BT-20210625/1009520-light/run1009520-light.h5 tag-1492241916//
/work/sebastian/BT-20210625/1009520-light/run1009520-light.h5 tag-1492241924//
/work/sebastian/BT-20210625/1009520-light/run1009520-light.h5 tag-1492241932//
/work/sebastian/BT-20210625/1009520-light/run1009520-light.h5 tag-1492241934//
/work/sebastian/BT-20210625/1009520-light/run1009520-light.h5 tag-1492241936//
/work/sebastian/BT-20210625/1009520-light/run1009520-light.h5 tag-1492241938//
/work/sebastian/BT-20210625/1009520-light/run1009520-light.h5 tag-1492241948//
/work/sebastian/BT-20210625/1009520-light/run1009520-light.h5 tag-1492241956//
/work/sebastian/BT-20210625/1009520-light/run1009520-light.h5 tag-1492241960//
/work/sebastian/BT-20210625/1009520-light/run1009520-light.h5 tag-1492241966//
/work/sebastian/BT-20210625/1009520-light/run1009520-light.h5 tag-1492241970//
/work/sebastian/BT-20210625/1009520-light/run1009520-light.h5 tag-1492241974//
/work/sebastian/BT-20210625/1009520-light/run1009520-light.h5 tag-1492241976//
/work/sebastian/BT-20210625/1009520-light/run1009520-light.h5 tag-1492241988//
/work/sebastian/BT-20210625/1009520-light/run1009520-light.h5 tag-1492242000//
/work/sebastian/BT-20210625/1009520-light/run1009520-light.h5 tag-1492242004//
/work/sebastian/BT-20210625/1009520-light/run1009520-light.h5 tag-1492242006//
/work/sebastian/BT-20210625/1009520-light/run1009520-light.h5 tag-1492242010//
/work/sebastian/BT-20210625/1009520-light/run1009520-light.h5 tag-1492242014//
/work/sebastian/BT-20210625/1009520-light/run1009520-light.h5 tag-1492242018//
/work/sebastian/BT-20210625/1009520-light/run1009520-light.h5 tag-1492242020//
/work/sebastian/BT-20210625/1009520-light/run1009520-light.h5 tag-1492242022//
/work/sebastian/BT-20210625/1009520-light/run1009520-light.h5 tag-1492242024//
/work/sebastian/BT-20210625/1009520-light/run1009520-light.h5 tag-1492242028//
/work/sebastian/BT-20210625/1009520-light/run1009520-light.h5 tag-1492242034//
/work/sebastian/BT-20210625/1009520-light/run1009520-light.h5 tag-1492242036//
/work/sebastian/BT-20210625/1009520-light/run1009520-light.h5 tag-1492242038//
/work/sebastian/BT-20210625/1009520-light/run1009520-light.h5 tag-1492242040//
/work/sebastian/BT-20210625/1009520-light/run1009520-light.h5 tag-1492242044//
/work/sebastian/BT-20210625/1009520-light/run1009520-light.h5 tag-1492242052//
/work/sebastian/BT-20210625/1009520-light/run1009520-light.h5 tag-1492242054//
/work/sebastian/BT-20210625/1009520-light/run1009520-light.h5 tag-1492242056//
/work/sebastian/BT-20210625/1009520-light/run1009520-light.h5 tag-1492242060//
/work/sebastian/BT-20210625/1009520-light/run1009520-light.h5 tag-1492242070//
/work/sebastian/BT-20210625/1009520-light/run1009520-light.h5 tag-1492242072//
/work/sebastian/BT-20210625/1009520-light/run1009520-light.h5 tag-1492242078//
/work/sebastian/BT-20210625/1009520-light/run1009520-light.h5 tag-1492242086//
/work/sebastian/BT-20210625/1009520-light/run1009520-light.h5 tag-1492242096//
/work/sebastian/BT-20210625/1009520-light/run1009520-light.h5 tag-1492242100//
/work/sebastian/BT-20210625/1009520-light/run1009520-light.h5 tag-1492242104//
/work/sebastian/BT-20210625/1009520-light/run1009520-light.h5 tag-1492242106//
/work/sebastian/BT-20210625/1009520-light/run1009520-light.h5 tag-1492242108//
/work/sebastian/BT-20210625/1009520-light/run1009520-light.h5 tag-1492242114//
/work/sebastian/BT-20210625/1009520-light/run1009520-light.h5 tag-1492242116//
/work/sebastian/BT-20210625/1009520-light/run1009520-light.h5 tag-1492242122//
/work/sebastian/BT-20210625/1009520-light/run1009520-light.h5 tag-1492242124//
/work/sebastian/BT-20210625/1009520-light/run1009520-light.h5 tag-1492242130//
/work/sebastian/BT-20210625/1009520-light/run1009520-light.h5 tag-1492242134//
/work/sebastian/BT-20210625/1009520-light/run1009520-light.h5 tag-1492242136//
/work/sebastian/BT-20210625/1009520-light/run1009520-light.h5 tag-1492242140//
/work/sebastian/BT-20210625/1009520-light/run1009520-light.h5 tag-1492242144//
/work/sebastian/BT-20210625/1009520-light/run1009520-light.h5 tag-1492242150//
/work/sebastian/BT-20210625/1009520-light/run1009520-light.h5 tag-1492242156//
/work/sebastian/BT-20210625/1009520-light/run1009520-light.h5 tag-1492242158//
/work/sebastian/BT-20210625/1009520-light/run1009520-light.h5 tag-1492242162//
/work/sebastian/BT-20210625/1009520-light/run1009520-light.h5 tag-1492242166//
/work/sebastian/BT-20210625/1009520-light/run1009520-light.h5 tag-1492242176//
/work/sebastian/BT-20210625/1009520-light/run1009520-light.h5 tag-1492242182//
/work/sebastian/BT-20210625/1009520-light/run1009520-light.h5 tag-1492242186//
/work/sebastian/BT-20210625/1009520-light/run1009520-light.h5 tag-1492242188//
/work/sebastian/BT-20210625/1009520-light/run1009520-light.h5 tag-1492242192//
/work/sebastian/BT-20210625/1009520-light/run1009520-light.h5 tag-1492242194//
/work/sebastian/BT-20210625/1009520-light/run1009520-light.h5 tag-1492242198//
/work/sebastian/BT-20210625/1009520-light/run1009520-light.h5 tag-1492242200//
/work/sebastian/BT-20210625/1009520-light/run1009520-light.h5 tag-1492242206//
/work/sebastian/BT-20210625/1009520-light/run1009520-light.h5 tag-1492242210//
/work/sebastian/BT-20210625/1009520-light/run1009520-light.h5 tag-1492242214//
/work/sebastian/BT-20210625/1009520-light/run1009520-light.h5 tag-1492242228//
/work/sebastian/BT-20210625/1009520-light/run1009520-light.h5 tag-1492242232//
/work/sebastian/BT-20210625/1009520-light/run1009520-light.h5 tag-1492242234//
/work/sebastian/BT-20210625/1009520-light/run1009520-light.h5 tag-1492242236//
/work/sebastian/BT-20210625/1009520-light/run1009520-light.h5 tag-1492242256//
/work/sebastian/BT-20210625/1009520-light/run1009520-light.h5 tag-1492242258//
/work/sebastian/BT-20210625/1009520-light/run1009520-light.h5 tag-1492242260//
/work/sebastian/BT-20210625/1009520-light/run1009520-light.h5 tag-1492242266//
/work/sebastian/BT-20210625/1009520-light/run1009520-light.h5 tag-1492242270//
/work/sebastian/BT-20210625/1009520-light/run1009520-light.h5 tag-1492242272//
/work/sebastian/BT-20210625/1009520-light/run1009520-light.h5 tag-1492242276//
/work/sebastian/BT-20210625/1009520-light/run1009520-light.h5 tag-1492242278//
/work/sebastian/BT-20210625/1009520-light/run1009520-light.h5 tag-1492242282//
/work/sebastian/BT-20210625/1009520-light/run1009520-light.h5 tag-1492242286//
/work/sebastian/BT-20210625/1009520-light/run1009520-light.h5 tag-1492242296//
/work/sebastian/BT-20210625/1009520-light/run1009520-light.h5 tag-1492242300//
/work/sebastian/BT-20210625/1009520-light/run1009520-light.h5 tag-1492242306//
/work/sebastian/BT-20210625/1009520-light/run1009520-light.h5 tag-1492242314//
/work/sebastian/BT-20210625/1009520-light/run1009520-light.h5 tag-1492242322//
/work/sebastian/BT-20210625/1009520-light/run1009520-light.h5 tag-1492242324//
/work/sebastian/BT-20210625/1009520-light/run1009520-light.h5 tag-1492242334//
/work/sebastian/BT-20210625/1009520-light/run1009520-light.h5 tag-1492242340//
/work/sebastian/BT-20210625/1009520-light/run1009520-light.h5 tag-1492242344//
/work/sebastian/BT-20210625/1009520-light/run1009520-light.h5 tag-1492242346//
/work/sebastian/BT-20210625/1009520-light/run1009520-light.h5 tag-1492242348//
/work/sebastian/BT-20210625/1009520-light/run1009520-light.h5 tag-1492242350//
/work/sebastian/BT-20210625/1009520-light/run1009520-light.h5 tag-1492242352//
/work/sebastian/BT-20210625/1009520-light/run1009520-light.h5 tag-1492242354//
/work/sebastian/BT-20210625/1009520-light/run1009520-light.h5 tag-1492242356//
/work/sebastian/BT-20210625/1009520-light/run1009520-light.h5 tag-1492242358//
/work/sebastian/BT-20210625/1009520-light/run1009520-light.h5 tag-1492242362//
/work/sebastian/BT-20210625/1009520-light/run1009520-light.h5 tag-1492242364//
/work/sebastian/BT-20210625/1009520-light/run1009520-light.h5 tag-1492242372//
/work/sebastian/BT-20210625/1009520-light/run1009520-light.h5 tag-1492242376//
/work/sebastian/BT-20210625/1009520-light/run1009520-light.h5 tag-1492242380//
/work/sebastian/BT-20210625/1009520-light/run1009520-light.h5 tag-1492242390//
/work/sebastian/BT-20210625/1009520-light/run1009520-light.h5 tag-1492242392//
/work/sebastian/BT-20210625/1009520-light/run1009520-light.h5 tag-1492242394//
/work/sebastian/BT-20210625/1009520-light/run1009520-light.h5 tag-1492242396//
/work/sebastian/BT-20210625/1009520-light/run1009520-light.h5 tag-1492242404//
/work/sebastian/BT-20210625/1009520-light/run1009520-light.h5 tag-1492242414//
/work/sebastian/BT-20210625/1009520-light/run1009520-light.h5 tag-1492242420//
/work/sebastian/BT-20210625/1009520-light/run1009520-light.h5 tag-1492242426//
/work/sebastian/BT-20210625/1009520-light/run1009520-light.h5 tag-1492242432//
/work/sebastian/BT-20210625/1009520-light/run1009520-light.h5 tag-1492242434//
/work/sebastian/BT-20210625/1009520-light/run1009520-light.h5 tag-1492242436//
/work/sebastian/BT-20210625/1009520-light/run1009520-light.h5 tag-1492242440//
/work/sebastian/BT-20210625/1009520-light/run1009520-light.h5 tag-1492242450//
/work/sebastian/BT-20210625/1009520-light/run1009520-light.h5 tag-1492242456//
/work/sebastian/BT-20210625/1009520-light/run1009520-light.h5 tag-1492242460//
/work/sebastian/BT-20210625/1009520-light/run1009520-light.h5 tag-1492242468//
/work/sebastian/BT-20210625/1009520-light/run1009520-light.h5 tag-1492242470//
/work/sebastian/BT-20210625/1009520-light/run1009520-light.h5 tag-1492242484//
/work/sebastian/BT-20210625/1009520-light/run1009520-light.h5 tag-1492242488//
/work/sebastian/BT-20210625/1009520-light/run1009520-light.h5 tag-1492242494//
/work/sebastian/BT-20210625/1009520-light/run1009520-light.h5 tag-1492242496//
/work/sebastian/BT-20210625/1009520-light/run1009520-light.h5 tag-1492242498//
/work/sebastian/BT-20210625/1009520-light/run1009520-light.h5 tag-1492242500//
/work/sebastian/BT-20210625/1009520-light/run1009520-light.h5 tag-1492242508//
/work/sebastian/BT-20210625/1009520-light/run1009520-light.h5 tag-1492242514//
/work/sebastian/BT-20210625/1009520-light/run1009520-light.h5 tag-1492242516//
/work/sebastian/BT-20210625/1009520-light/run1009520-light.h5 tag-1492242518//
/work/sebastian/BT-20210625/1009520-light/run1009520-light.h5 tag-1492242520//
/work/sebastian/BT-20210625/1009520-light/run1009520-light.h5 tag-1492242526//
/work/sebastian/BT-20210625/1009520-light/run1009520-light.h5 tag-1492242528//
/work/sebastian/BT-20210625/1009520-light/run1009520-light.h5 tag-1492242530//
/work/sebastian/BT-20210625/1009520-light/run1009520-light.h5 tag-1492242542//
/work/sebastian/BT-20210625/1009520-light/run1009520-light.h5 tag-1492242544//
/work/sebastian/BT-20210625/1009520-light/run1009520-light.h5 tag-1492242548//
/work/sebastian/BT-20210625/1009520-light/run1009520-light.h5 tag-1492242550//
/work/sebastian/BT-20210625/1009520-light/run1009520-light.h5 tag-1492242554//
/work/sebastian/BT-20210625/1009520-light/run1009520-light.h5 tag-1492242558//
/work/sebastian/BT-20210625/1009520-light/run1009520-light.h5 tag-1492242560//
/work/sebastian/BT-20210625/1009520-light/run1009520-light.h5 tag-1492242574//
/work/sebastian/BT-20210625/1009520-light/run1009520-light.h5 tag-1492242578//
/work/sebastian/BT-20210625/1009520-light/run1009520-light.h5 tag-1492242596//
/work/sebastian/BT-20210625/1009520-light/run1009520-light.h5 tag-1492242598//
/work/sebastian/BT-20210625/1009520-light/run1009520-light.h5 tag-1492242600//
/work/sebastian/BT-20210625/1009520-light/run1009520-light.h5 tag-1492242606//
/work/sebastian/BT-20210625/1009520-light/run1009520-light.h5 tag-1492242608//
/work/sebastian/BT-20210625/1009520-light/run1009520-light.h5 tag-1492242610//
/work/sebastian/BT-20210625/1009520-light/run1009520-light.h5 tag-1492242614//
/work/sebastian/BT-20210625/1009520-light/run1009520-light.h5 tag-1492242616//
/work/sebastian/BT-20210625/1009520-light/run1009520-light.h5 tag-1492242620//
/work/sebastian/BT-20210625/1009520-light/run1009520-light.h5 tag-1492242622//
/work/sebastian/BT-20210625/1009520-light/run1009520-light.h5 tag-1492242628//
/work/sebastian/BT-20210625/1009520-light/run1009520-light.h5 tag-1492242632//
/work/sebastian/BT-20210625/1009520-light/run1009520-light.h5 tag-1492242642//
/work/sebastian/BT-20210625/1009520-light/run1009520-light.h5 tag-1492242644//
/work/sebastian/BT-20210625/1009520-light/run1009520-light.h5 tag-1492242650//
/work/sebastian/BT-20210625/1009520-light/run1009520-light.h5 tag-1492242656//
/work/sebastian/BT-20210625/1009520-light/run1009520-light.h5 tag-1492242658//
/work/sebastian/BT-20210625/1009520-light/run1009520-light.h5 tag-1492242660//
/work/sebastian/BT-20210625/1009520-light/run1009520-light.h5 tag-1492242664//
/work/sebastian/BT-20210625/1009520-light/run1009520-light.h5 tag-1492242666//
/work/sebastian/BT-20210625/1009520-light/run1009520-light.h5 tag-1492242668//
/work/sebastian/BT-20210625/1009520-light/run1009520-light.h5 tag-1492242670//
/work/sebastian/BT-20210625/1009520-light/run1009520-light.h5 tag-1492242674//
/work/sebastian/BT-20210625/1009520-light/run1009520-light.h5 tag-1492242680//
/work/sebastian/BT-20210625/1009520-light/run1009520-light.h5 tag-1492242682//
/work/sebastian/BT-20210625/1009520-light/run1009520-light.h5 tag-1492242684//
/work/sebastian/BT-20210625/1009520-light/run1009520-light.h5 tag-1492242694//
/work/sebastian/BT-20210625/1009520-light/run1009520-light.h5 tag-1492242700//
/work/sebastian/BT-20210625/1009520-light/run1009520-light.h5 tag-1492242704//
/work/sebastian/BT-20210625/1009520-light/run1009520-light.h5 tag-1492242710//
/work/sebastian/BT-20210625/1009520-light/run1009520-light.h5 tag-1492242712//
/work/sebastian/BT-20210625/1009520-light/run1009520-light.h5 tag-1492242716//
/work/sebastian/BT-20210625/1009520-light/run1009520-light.h5 tag-1492242718//
/work/sebastian/BT-20210625/1009520-light/run1009520-light.h5 tag-1492242724//
/work/sebastian/BT-20210625/1009520-light/run1009520-light.h5 tag-1492242732//
/work/sebastian/BT-20210625/1009520-light/run1009520-light.h5 tag-1492242734//
/work/sebastian/BT-20210625/1009520-light/run1009520-light.h5 tag-1492242742//
/work/sebastian/BT-20210625/1009520-light/run1009520-light.h5 tag-1492242744//
/work/sebastian/BT-20210625/1009520-light/run1009520-light.h5 tag-1492242746//
/work/sebastian/BT-20210625/1009520-light/run1009520-light.h5 tag-1492242752//
/work/sebastian/BT-20210625/1009520-light/run1009520-light.h5 tag-1492242756//
/work/sebastian/BT-20210625/1009520-light/run1009520-light.h5 tag-1492242758//
/work/sebastian/BT-20210625/1009520-light/run1009520-light.h5 tag-1492242762//
/work/sebastian/BT-20210625/1009520-light/run1009520-light.h5 tag-1492242764//
/work/sebastian/BT-20210625/1009520-light/run1009520-light.h5 tag-1492242772//
/work/sebastian/BT-20210625/1009520-light/run1009520-light.h5 tag-1492242776//
/work/sebastian/BT-20210625/1009520-light/run1009520-light.h5 tag-1492242782//
/work/sebastian/BT-20210625/1009520-light/run1009520-light.h5 tag-1492242788//
/work/sebastian/BT-20210625/1009520-light/run1009520-light.h5 tag-1492242790//
/work/sebastian/BT-20210625/1009520-light/run1009520-light.h5 tag-1492242802//
/work/sebastian/BT-20210625/1009520-light/run1009520-light.h5 tag-1492242804//
/work/sebastian/BT-20210625/1009520-light/run1009520-light.h5 tag-1492242806//
/work/sebastian/BT-20210625/1009520-light/run1009520-light.h5 tag-1492242810//
/work/sebastian/BT-20210625/1009520-light/run1009520-light.h5 tag-1492242814//
/work/sebastian/BT-20210625/1009520-light/run1009520-light.h5 tag-1492242816//
/work/sebastian/BT-20210625/1009520-light/run1009520-light.h5 tag-1492242824//
/work/sebastian/BT-20210625/1009520-light/run1009520-light.h5 tag-1492242830//
/work/sebastian/BT-20210625/1009520-light/run1009520-light.h5 tag-1492242832//
/work/sebastian/BT-20210625/1009520-light/run1009520-light.h5 tag-1492242834//
/work/sebastian/BT-20210625/1009520-light/run1009520-light.h5 tag-1492242840//
/work/sebastian/BT-20210625/1009520-light/run1009520-light.h5 tag-1492242850//
/work/sebastian/BT-20210625/1009520-light/run1009520-light.h5 tag-1492242854//
/work/sebastian/BT-20210625/1009520-light/run1009520-light.h5 tag-1492242856//
/work/sebastian/BT-20210625/1009520-light/run1009520-light.h5 tag-1492242870//
/work/sebastian/BT-20210625/1009520-light/run1009520-light.h5 tag-1492242880//
/work/sebastian/BT-20210625/1009520-light/run1009520-light.h5 tag-1492242882//
/work/sebastian/BT-20210625/1009520-light/run1009520-light.h5 tag-1492242888//
/work/sebastian/BT-20210625/1009520-light/run1009520-light.h5 tag-1492242890//
/work/sebastian/BT-20210625/1009520-light/run1009520-light.h5 tag-1492242892//
/work/sebastian/BT-20210625/1009520-light/run1009520-light.h5 tag-1492242896//
/work/sebastian/BT-20210625/1009520-light/run1009520-light.h5 tag-1492242902//
/work/sebastian/BT-20210625/1009520-light/run1009520-light.h5 tag-1492242908//
/work/sebastian/BT-20210625/1009520-light/run1009520-light.h5 tag-1492242910//
/work/sebastian/BT-20210625/1009520-light/run1009520-light.h5 tag-1492242914//
/work/sebastian/BT-20210625/1009520-light/run1009520-light.h5 tag-1492242926//
/work/sebastian/BT-20210625/1009520-light/run1009520-light.h5 tag-1492242936//
/work/sebastian/BT-20210625/1009520-light/run1009520-light.h5 tag-1492242944//
/work/sebastian/BT-20210625/1009520-light/run1009520-light.h5 tag-1492242946//
/work/sebastian/BT-20210625/1009520-light/run1009520-light.h5 tag-1492242960//
/work/sebastian/BT-20210625/1009520-light/run1009520-light.h5 tag-1492242976//
/work/sebastian/BT-20210625/1009520-light/run1009520-light.h5 tag-1492242980//
/work/sebastian/BT-20210625/1009520-light/run1009520-light.h5 tag-1492242988//
/work/sebastian/BT-20210625/1009520-light/run1009520-light.h5 tag-1492242990//
/work/sebastian/BT-20210625/1009520-light/run1009520-light.h5 tag-1492243008//
/work/sebastian/BT-20210625/1009520-light/run1009520-light.h5 tag-1492243010//
/work/sebastian/BT-20210625/1009520-light/run1009520-light.h5 tag-1492243012//
/work/sebastian/BT-20210625/1009520-light/run1009520-light.h5 tag-1492243024//
/work/sebastian/BT-20210625/1009520-light/run1009520-light.h5 tag-1492243028//
/work/sebastian/BT-20210625/1009520-light/run1009520-light.h5 tag-1492243030//
/work/sebastian/BT-20210625/1009520-light/run1009520-light.h5 tag-1492243032//
/work/sebastian/BT-20210625/1009520-light/run1009520-light.h5 tag-1492243034//
/work/sebastian/BT-20210625/1009520-light/run1009520-light.h5 tag-1492243036//
/work/sebastian/BT-20210625/1009520-light/run1009520-light.h5 tag-1492243038//
/work/sebastian/BT-20210625/1009520-light/run1009520-light.h5 tag-1492243044//
/work/sebastian/BT-20210625/1009520-light/run1009520-light.h5 tag-1492243048//
/work/sebastian/BT-20210625/1009520-light/run1009520-light.h5 tag-1492243052//
/work/sebastian/BT-20210625/1009520-light/run1009520-light.h5 tag-1492243060//
/work/sebastian/BT-20210625/1009520-light/run1009520-light.h5 tag-1492243062//
/work/sebastian/BT-20210625/1009520-light/run1009520-light.h5 tag-1492243072//
/work/sebastian/BT-20210625/1009520-light/run1009520-light.h5 tag-1492243078//
/work/sebastian/BT-20210625/1009520-light/run1009520-light.h5 tag-1492243082//
/work/sebastian/BT-20210625/1009520-light/run1009520-light.h5 tag-1492243098//
/work/sebastian/BT-20210625/1009520-light/run1009520-light.h5 tag-1492243100//
/work/sebastian/BT-20210625/1009520-light/run1009520-light.h5 tag-1492243106//
/work/sebastian/BT-20210625/1009520-light/run1009520-light.h5 tag-1492243112//
/work/sebastian/BT-20210625/1009520-light/run1009520-light.h5 tag-1492243122//
/work/sebastian/BT-20210625/1009520-light/run1009520-light.h5 tag-1492243124//
/work/sebastian/BT-20210625/1009520-light/run1009520-light.h5 tag-1492243126//
/work/sebastian/BT-20210625/1009520-light/run1009520-light.h5 tag-1492243132//
/work/sebastian/BT-20210625/1009520-light/run1009520-light.h5 tag-1492243140//
/work/sebastian/BT-20210625/1009520-light/run1009520-light.h5 tag-1492243146//
/work/sebastian/BT-20210625/1009520-light/run1009520-light.h5 tag-1492243148//
/work/sebastian/BT-20210625/1009520-light/run1009520-light.h5 tag-1492243156//
/work/sebastian/BT-20210625/1009520-light/run1009520-light.h5 tag-1492243160//
/work/sebastian/BT-20210625/1009520-light/run1009520-light.h5 tag-1492243164//
/work/sebastian/BT-20210625/1009520-light/run1009520-light.h5 tag-1492243168//
/work/sebastian/BT-20210625/1009520-light/run1009520-light.h5 tag-1492243170//
/work/sebastian/BT-20210625/1009520-light/run1009520-light.h5 tag-1492243172//
/work/sebastian/BT-20210625/1009520-light/run1009520-light.h5 tag-1492243174//
/work/sebastian/BT-20210625/1009520-light/run1009520-light.h5 tag-1492243176//
/work/sebastian/BT-20210625/1009520-light/run1009520-light.h5 tag-1492243178//
/work/sebastian/BT-20210625/1009520-light/run1009520-light.h5 tag-1492243186//
/work/sebastian/BT-20210625/1009520-light/run1009520-light.h5 tag-1492243188//
/work/sebastian/BT-20210625/1009520-light/run1009520-light.h5 tag-1492243202//
/work/sebastian/BT-20210625/1009520-light/run1009520-light.h5 tag-1492243204//
/work/sebastian/BT-20210625/1009520-light/run1009520-light.h5 tag-1492243208//
/work/sebastian/BT-20210625/1009520-light/run1009520-light.h5 tag-1492243212//
/work/sebastian/BT-20210625/1009520-light/run1009520-light.h5 tag-1492243220//
/work/sebastian/BT-20210625/1009520-light/run1009520-light.h5 tag-1492243228//
/work/sebastian/BT-20210625/1009520-light/run1009520-light.h5 tag-1492243236//
/work/sebastian/BT-20210625/1009520-light/run1009520-light.h5 tag-1492243238//
/work/sebastian/BT-20210625/1009520-light/run1009520-light.h5 tag-1492243240//
/work/sebastian/BT-20210625/1009520-light/run1009520-light.h5 tag-1492243246//
/work/sebastian/BT-20210625/1009520-light/run1009520-light.h5 tag-1492243252//
/work/sebastian/BT-20210625/1009520-light/run1009520-light.h5 tag-1492243258//
/work/sebastian/BT-20210625/1009520-light/run1009520-light.h5 tag-1492243262//
/work/sebastian/BT-20210625/1009520-light/run1009520-light.h5 tag-1492243270//
/work/sebastian/BT-20210625/1009520-light/run1009520-light.h5 tag-1492243272//
/work/sebastian/BT-20210625/1009520-light/run1009520-light.h5 tag-1492243274//
/work/sebastian/BT-20210625/1009520-light/run1009520-light.h5 tag-1492243276//
/work/sebastian/BT-20210625/1009520-light/run1009520-light.h5 tag-1492243282//
/work/sebastian/BT-20210625/1009520-light/run1009520-light.h5 tag-1492243290//
/work/sebastian/BT-20210625/1009520-light/run1009520-light.h5 tag-1492243294//
/work/sebastian/BT-20210625/1009520-light/run1009520-light.h5 tag-1492243296//
/work/sebastian/BT-20210625/1009520-light/run1009520-light.h5 tag-1492243298//
/work/sebastian/BT-20210625/1009520-light/run1009520-light.h5 tag-1492243302//
/work/sebastian/BT-20210625/1009520-light/run1009520-light.h5 tag-1492243304//
/work/sebastian/BT-20210625/1009520-light/run1009520-light.h5 tag-1492243318//
/work/sebastian/BT-20210625/1009520-light/run1009520-light.h5 tag-1492243322//
/work/sebastian/BT-20210625/1009520-light/run1009520-light.h5 tag-1492243324//
/work/sebastian/BT-20210625/1009520-light/run1009520-light.h5 tag-1492243330//
/work/sebastian/BT-20210625/1009520-light/run1009520-light.h5 tag-1492243336//
/work/sebastian/BT-20210625/1009520-light/run1009520-light.h5 tag-1492243342//
/work/sebastian/BT-20210625/1009520-light/run1009520-light.h5 tag-1492243344//
/work/sebastian/BT-20210625/1009520-light/run1009520-light.h5 tag-1492243350//
/work/sebastian/BT-20210625/1009520-light/run1009520-light.h5 tag-1492243354//
/work/sebastian/BT-20210625/1009520-light/run1009520-light.h5 tag-1492243360//
/work/sebastian/BT-20210625/1009520-light/run1009520-light.h5 tag-1492243366//
/work/sebastian/BT-20210625/1009520-light/run1009520-light.h5 tag-1492243370//
/work/sebastian/BT-20210625/1009520-light/run1009520-light.h5 tag-1492243378//
/work/sebastian/BT-20210625/1009520-light/run1009520-light.h5 tag-1492243380//
/work/sebastian/BT-20210625/1009520-light/run1009520-light.h5 tag-1492243382//
/work/sebastian/BT-20210625/1009520-light/run1009520-light.h5 tag-1492243384//
/work/sebastian/BT-20210625/1009520-light/run1009520-light.h5 tag-1492243414//
/work/sebastian/BT-20210625/1009520-light/run1009520-light.h5 tag-1492243430//
/work/sebastian/BT-20210625/1009520-light/run1009520-light.h5 tag-1492243436//
/work/sebastian/BT-20210625/1009520-light/run1009520-light.h5 tag-1492243442//
/work/sebastian/BT-20210625/1009520-light/run1009520-light.h5 tag-1492243450//
/work/sebastian/BT-20210625/1009520-light/run1009520-light.h5 tag-1492243462//
/work/sebastian/BT-20210625/1009520-light/run1009520-light.h5 tag-1492243466//
/work/sebastian/BT-20210625/1009520-light/run1009520-light.h5 tag-1492243470//
/work/sebastian/BT-20210625/1009520-light/run1009520-light.h5 tag-1492243482//
/work/sebastian/BT-20210625/1009520-light/run1009520-light.h5 tag-1492243484//
/work/sebastian/BT-20210625/1009520-light/run1009520-light.h5 tag-1492243490//
/work/sebastian/BT-20210625/1009520-light/run1009520-light.h5 tag-1492243492//
/work/sebastian/BT-20210625/1009520-light/run1009520-light.h5 tag-1492243494//
/work/sebastian/BT-20210625/1009520-light/run1009520-light.h5 tag-1492243502//
/work/sebastian/BT-20210625/1009520-light/run1009520-light.h5 tag-1492243506//
/work/sebastian/BT-20210625/1009520-light/run1009520-light.h5 tag-1492243518//
/work/sebastian/BT-20210625/1009520-light/run1009520-light.h5 tag-1492243524//
/work/sebastian/BT-20210625/1009520-light/run1009520-light.h5 tag-1492243526//
/work/sebastian/BT-20210625/1009520-light/run1009520-light.h5 tag-1492243528//
/work/sebastian/BT-20210625/1009520-light/run1009520-light.h5 tag-1492243538//
/work/sebastian/BT-20210625/1009520-light/run1009520-light.h5 tag-1492243542//
/work/sebastian/BT-20210625/1009520-light/run1009520-light.h5 tag-1492243546//
/work/sebastian/BT-20210625/1009520-light/run1009520-light.h5 tag-1492243548//
/work/sebastian/BT-20210625/1009520-light/run1009520-light.h5 tag-1492243552//
/work/sebastian/BT-20210625/1009520-light/run1009520-light.h5 tag-1492243554//
/work/sebastian/BT-20210625/1009520-light/run1009520-light.h5 tag-1492243556//
/work/sebastian/BT-20210625/1009520-light/run1009520-light.h5 tag-1492243562//
/work/sebastian/BT-20210625/1009520-light/run1009520-light.h5 tag-1492243568//
/work/sebastian/BT-20210625/1009520-light/run1009520-light.h5 tag-1492243570//
/work/sebastian/BT-20210625/1009520-light/run1009520-light.h5 tag-1492243572//
/work/sebastian/BT-20210625/1009520-light/run1009520-light.h5 tag-1492243574//
/work/sebastian/BT-20210625/1009520-light/run1009520-light.h5 tag-1492243578//
/work/sebastian/BT-20210625/1009520-light/run1009520-light.h5 tag-1492243580//
/work/sebastian/BT-20210625/1009520-light/run1009520-light.h5 tag-1492243582//
/work/sebastian/BT-20210625/1009520-light/run1009520-light.h5 tag-1492243584//
/work/sebastian/BT-20210625/1009520-light/run1009520-light.h5 tag-1492243590//
/work/sebastian/BT-20210625/1009520-light/run1009520-light.h5 tag-1492243592//
/work/sebastian/BT-20210625/1009520-light/run1009520-light.h5 tag-1492243594//
/work/sebastian/BT-20210625/1009520-light/run1009520-light.h5 tag-1492243600//
/work/sebastian/BT-20210625/1009520-light/run1009520-light.h5 tag-1492243602//
/work/sebastian/BT-20210625/1009520-light/run1009520-light.h5 tag-1492243612//
/work/sebastian/BT-20210625/1009520-light/run1009520-light.h5 tag-1492243614//
/work/sebastian/BT-20210625/1009520-light/run1009520-light.h5 tag-1492243616//
/work/sebastian/BT-20210625/1009520-light/run1009520-light.h5 tag-1492243622//
/work/sebastian/BT-20210625/1009520-light/run1009520-light.h5 tag-1492243630//
/work/sebastian/BT-20210625/1009520-light/run1009520-light.h5 tag-1492243638//
/work/sebastian/BT-20210625/1009520-light/run1009520-light.h5 tag-1492243640//
/work/sebastian/BT-20210625/1009520-light/run1009520-light.h5 tag-1492243658//
/work/sebastian/BT-20210625/1009520-light/run1009520-light.h5 tag-1492243668//
/work/sebastian/BT-20210625/1009520-light/run1009520-light.h5 tag-1492243676//
/work/sebastian/BT-20210625/1009520-light/run1009520-light.h5 tag-1492243682//
/work/sebastian/BT-20210625/1009520-light/run1009520-light.h5 tag-1492243684//
/work/sebastian/BT-20210625/1009520-light/run1009520-light.h5 tag-1492243686//
/work/sebastian/BT-20210625/1009520-light/run1009520-light.h5 tag-1492243690//
/work/sebastian/BT-20210625/1009520-light/run1009520-light.h5 tag-1492243702//
/work/sebastian/BT-20210625/1009520-light/run1009520-light.h5 tag-1492243704//
/work/sebastian/BT-20210625/1009520-light/run1009520-light.h5 tag-1492243706//
/work/sebastian/BT-20210625/1009520-light/run1009520-light.h5 tag-1492243720//
/work/sebastian/BT-20210625/1009520-light/run1009520-light.h5 tag-1492243726//
/work/sebastian/BT-20210625/1009520-light/run1009520-light.h5 tag-1492243728//
/work/sebastian/BT-20210625/1009520-light/run1009520-light.h5 tag-1492243732//
/work/sebastian/BT-20210625/1009520-light/run1009520-light.h5 tag-1492243736//
/work/sebastian/BT-20210625/1009520-light/run1009520-light.h5 tag-1492243738//
/work/sebastian/BT-20210625/1009520-light/run1009520-light.h5 tag-1492243742//
/work/sebastian/BT-20210625/1009520-light/run1009520-light.h5 tag-1492243746//
/work/sebastian/BT-20210625/1009520-light/run1009520-light.h5 tag-1492243748//
/work/sebastian/BT-20210625/1009520-light/run1009520-light.h5 tag-1492243754//
/work/sebastian/BT-20210625/1009520-light/run1009520-light.h5 tag-1492243766//
/work/sebastian/BT-20210625/1009520-light/run1009520-light.h5 tag-1492243768//
/work/sebastian/BT-20210625/1009520-light/run1009520-light.h5 tag-1492243772//
/work/sebastian/BT-20210625/1009520-light/run1009520-light.h5 tag-1492243778//
/work/sebastian/BT-20210625/1009520-light/run1009520-light.h5 tag-1492243780//
/work/sebastian/BT-20210625/1009520-light/run1009520-light.h5 tag-1492243784//
/work/sebastian/BT-20210625/1009520-light/run1009520-light.h5 tag-1492243786//
/work/sebastian/BT-20210625/1009520-light/run1009520-light.h5 tag-1492243792//
/work/sebastian/BT-20210625/1009520-light/run1009520-light.h5 tag-1492243798//
/work/sebastian/BT-20210625/1009520-light/run1009520-light.h5 tag-1492243800//
/work/sebastian/BT-20210625/1009520-light/run1009520-light.h5 tag-1492243806//
/work/sebastian/BT-20210625/1009520-light/run1009520-light.h5 tag-1492243818//
/work/sebastian/BT-20210625/1009520-light/run1009520-light.h5 tag-1492243824//
/work/sebastian/BT-20210625/1009520-light/run1009520-light.h5 tag-1492243826//
/work/sebastian/BT-20210625/1009520-light/run1009520-light.h5 tag-1492243842//
/work/sebastian/BT-20210625/1009520-light/run1009520-light.h5 tag-1492243850//
/work/sebastian/BT-20210625/1009520-light/run1009520-light.h5 tag-1492243860//
/work/sebastian/BT-20210625/1009520-light/run1009520-light.h5 tag-1492243862//
/work/sebastian/BT-20210625/1009520-light/run1009520-light.h5 tag-1492243884//
/work/sebastian/BT-20210625/1009520-light/run1009520-light.h5 tag-1492243886//
/work/sebastian/BT-20210625/1009520-light/run1009520-light.h5 tag-1492243888//
/work/sebastian/BT-20210625/1009520-light/run1009520-light.h5 tag-1492243892//
/work/sebastian/BT-20210625/1009520-light/run1009520-light.h5 tag-1492243908//
/work/sebastian/BT-20210625/1009520-light/run1009520-light.h5 tag-1492243920//
/work/sebastian/BT-20210625/1009520-light/run1009520-light.h5 tag-1492243922//
/work/sebastian/BT-20210625/1009520-light/run1009520-light.h5 tag-1492243926//
/work/sebastian/BT-20210625/1009520-light/run1009520-light.h5 tag-1492243928//
/work/sebastian/BT-20210625/1009520-light/run1009520-light.h5 tag-1492243936//
/work/sebastian/BT-20210625/1009520-light/run1009520-light.h5 tag-1492243942//
/work/sebastian/BT-20210625/1009520-light/run1009520-light.h5 tag-1492243944//
/work/sebastian/BT-20210625/1009520-light/run1009520-light.h5 tag-1492243946//
/work/sebastian/BT-20210625/1009520-light/run1009520-light.h5 tag-1492243948//
/work/sebastian/BT-20210625/1009520-light/run1009520-light.h5 tag-1492243950//
/work/sebastian/BT-20210625/1009520-light/run1009520-light.h5 tag-1492243960//
/work/sebastian/BT-20210625/1009520-light/run1009520-light.h5 tag-1492243964//
/work/sebastian/BT-20210625/1009520-light/run1009520-light.h5 tag-1492243970//
/work/sebastian/BT-20210625/1009520-light/run1009520-light.h5 tag-1492243972//
/work/sebastian/BT-20210625/1009520-light/run1009520-light.h5 tag-1492243976//
/work/sebastian/BT-20210625/1009520-light/run1009520-light.h5 tag-1492243982//
/work/sebastian/BT-20210625/1009520-light/run1009520-light.h5 tag-1492243984//
/work/sebastian/BT-20210625/1009520-light/run1009520-light.h5 tag-1492243986//
/work/sebastian/BT-20210625/1009520-light/run1009520-light.h5 tag-1492243994//
/work/sebastian/BT-20210625/1009520-light/run1009520-light.h5 tag-1492244000//
/work/sebastian/BT-20210625/1009520-light/run1009520-light.h5 tag-1492244002//
/work/sebastian/BT-20210625/1009520-light/run1009520-light.h5 tag-1492244004//
/work/sebastian/BT-20210625/1009520-light/run1009520-light.h5 tag-1492244006//
/work/sebastian/BT-20210625/1009520-light/run1009520-light.h5 tag-1492244014//
/work/sebastian/BT-20210625/1009520-light/run1009520-light.h5 tag-1492244016//
/work/sebastian/BT-20210625/1009520-light/run1009520-light.h5 tag-1492244022//
/work/sebastian/BT-20210625/1009520-light/run1009520-light.h5 tag-1492244026//
/work/sebastian/BT-20210625/1009520-light/run1009520-light.h5 tag-1492244028//
