/work/sebastian/BT-20210625/1009355-light/run1009355-light.h5 tag-1491337990//
/work/sebastian/BT-20210625/1009355-light/run1009355-light.h5 tag-1491337992//
/work/sebastian/BT-20210625/1009355-light/run1009355-light.h5 tag-1491337994//
/work/sebastian/BT-20210625/1009355-light/run1009355-light.h5 tag-1491337996//
/work/sebastian/BT-20210625/1009355-light/run1009355-light.h5 tag-1491338000//
/work/sebastian/BT-20210625/1009355-light/run1009355-light.h5 tag-1491338004//
/work/sebastian/BT-20210625/1009355-light/run1009355-light.h5 tag-1491338008//
/work/sebastian/BT-20210625/1009355-light/run1009355-light.h5 tag-1491338012//
/work/sebastian/BT-20210625/1009355-light/run1009355-light.h5 tag-1491338016//
/work/sebastian/BT-20210625/1009355-light/run1009355-light.h5 tag-1491338020//
/work/sebastian/BT-20210625/1009355-light/run1009355-light.h5 tag-1491338022//
/work/sebastian/BT-20210625/1009355-light/run1009355-light.h5 tag-1491338024//
/work/sebastian/BT-20210625/1009355-light/run1009355-light.h5 tag-1491338028//
/work/sebastian/BT-20210625/1009355-light/run1009355-light.h5 tag-1491338032//
/work/sebastian/BT-20210625/1009355-light/run1009355-light.h5 tag-1491338034//
/work/sebastian/BT-20210625/1009355-light/run1009355-light.h5 tag-1491338038//
/work/sebastian/BT-20210625/1009355-light/run1009355-light.h5 tag-1491338040//
/work/sebastian/BT-20210625/1009355-light/run1009355-light.h5 tag-1491338042//
/work/sebastian/BT-20210625/1009355-light/run1009355-light.h5 tag-1491338044//
/work/sebastian/BT-20210625/1009355-light/run1009355-light.h5 tag-1491338046//
/work/sebastian/BT-20210625/1009355-light/run1009355-light.h5 tag-1491338050//
/work/sebastian/BT-20210625/1009355-light/run1009355-light.h5 tag-1491338054//
/work/sebastian/BT-20210625/1009355-light/run1009355-light.h5 tag-1491338058//
/work/sebastian/BT-20210625/1009355-light/run1009355-light.h5 tag-1491338060//
/work/sebastian/BT-20210625/1009355-light/run1009355-light.h5 tag-1491338066//
/work/sebastian/BT-20210625/1009355-light/run1009355-light.h5 tag-1491338068//
/work/sebastian/BT-20210625/1009355-light/run1009355-light.h5 tag-1491338070//
/work/sebastian/BT-20210625/1009355-light/run1009355-light.h5 tag-1491338072//
/work/sebastian/BT-20210625/1009355-light/run1009355-light.h5 tag-1491338074//
/work/sebastian/BT-20210625/1009355-light/run1009355-light.h5 tag-1491338076//
/work/sebastian/BT-20210625/1009355-light/run1009355-light.h5 tag-1491338078//
/work/sebastian/BT-20210625/1009355-light/run1009355-light.h5 tag-1491338082//
/work/sebastian/BT-20210625/1009355-light/run1009355-light.h5 tag-1491338088//
/work/sebastian/BT-20210625/1009355-light/run1009355-light.h5 tag-1491338092//
/work/sebastian/BT-20210625/1009355-light/run1009355-light.h5 tag-1491338102//
/work/sebastian/BT-20210625/1009355-light/run1009355-light.h5 tag-1491338110//
/work/sebastian/BT-20210625/1009355-light/run1009355-light.h5 tag-1491338114//
/work/sebastian/BT-20210625/1009355-light/run1009355-light.h5 tag-1491338116//
/work/sebastian/BT-20210625/1009355-light/run1009355-light.h5 tag-1491338122//
/work/sebastian/BT-20210625/1009355-light/run1009355-light.h5 tag-1491338124//
/work/sebastian/BT-20210625/1009355-light/run1009355-light.h5 tag-1491338126//
/work/sebastian/BT-20210625/1009355-light/run1009355-light.h5 tag-1491338128//
/work/sebastian/BT-20210625/1009355-light/run1009355-light.h5 tag-1491338130//
/work/sebastian/BT-20210625/1009355-light/run1009355-light.h5 tag-1491338134//
/work/sebastian/BT-20210625/1009355-light/run1009355-light.h5 tag-1491338136//
/work/sebastian/BT-20210625/1009355-light/run1009355-light.h5 tag-1491338138//
/work/sebastian/BT-20210625/1009355-light/run1009355-light.h5 tag-1491338142//
/work/sebastian/BT-20210625/1009355-light/run1009355-light.h5 tag-1491338144//
/work/sebastian/BT-20210625/1009355-light/run1009355-light.h5 tag-1491338148//
/work/sebastian/BT-20210625/1009355-light/run1009355-light.h5 tag-1491338150//
/work/sebastian/BT-20210625/1009355-light/run1009355-light.h5 tag-1491338152//
/work/sebastian/BT-20210625/1009355-light/run1009355-light.h5 tag-1491338158//
/work/sebastian/BT-20210625/1009355-light/run1009355-light.h5 tag-1491338162//
/work/sebastian/BT-20210625/1009355-light/run1009355-light.h5 tag-1491338166//
/work/sebastian/BT-20210625/1009355-light/run1009355-light.h5 tag-1491338168//
/work/sebastian/BT-20210625/1009355-light/run1009355-light.h5 tag-1491338170//
/work/sebastian/BT-20210625/1009355-light/run1009355-light.h5 tag-1491338174//
/work/sebastian/BT-20210625/1009355-light/run1009355-light.h5 tag-1491338176//
/work/sebastian/BT-20210625/1009355-light/run1009355-light.h5 tag-1491338180//
/work/sebastian/BT-20210625/1009355-light/run1009355-light.h5 tag-1491338182//
/work/sebastian/BT-20210625/1009355-light/run1009355-light.h5 tag-1491338190//
/work/sebastian/BT-20210625/1009355-light/run1009355-light.h5 tag-1491338192//
/work/sebastian/BT-20210625/1009355-light/run1009355-light.h5 tag-1491338194//
/work/sebastian/BT-20210625/1009355-light/run1009355-light.h5 tag-1491338196//
/work/sebastian/BT-20210625/1009355-light/run1009355-light.h5 tag-1491338202//
/work/sebastian/BT-20210625/1009355-light/run1009355-light.h5 tag-1491338206//
/work/sebastian/BT-20210625/1009355-light/run1009355-light.h5 tag-1491338208//
/work/sebastian/BT-20210625/1009355-light/run1009355-light.h5 tag-1491338210//
/work/sebastian/BT-20210625/1009355-light/run1009355-light.h5 tag-1491338212//
/work/sebastian/BT-20210625/1009355-light/run1009355-light.h5 tag-1491338222//
/work/sebastian/BT-20210625/1009355-light/run1009355-light.h5 tag-1491338226//
/work/sebastian/BT-20210625/1009355-light/run1009355-light.h5 tag-1491338228//
/work/sebastian/BT-20210625/1009355-light/run1009355-light.h5 tag-1491338232//
/work/sebastian/BT-20210625/1009355-light/run1009355-light.h5 tag-1491338234//
/work/sebastian/BT-20210625/1009355-light/run1009355-light.h5 tag-1491338236//
/work/sebastian/BT-20210625/1009355-light/run1009355-light.h5 tag-1491338240//
/work/sebastian/BT-20210625/1009355-light/run1009355-light.h5 tag-1491338248//
/work/sebastian/BT-20210625/1009355-light/run1009355-light.h5 tag-1491338250//
/work/sebastian/BT-20210625/1009355-light/run1009355-light.h5 tag-1491338264//
/work/sebastian/BT-20210625/1009355-light/run1009355-light.h5 tag-1491338266//
/work/sebastian/BT-20210625/1009355-light/run1009355-light.h5 tag-1491338274//
/work/sebastian/BT-20210625/1009355-light/run1009355-light.h5 tag-1491338278//
/work/sebastian/BT-20210625/1009355-light/run1009355-light.h5 tag-1491338282//
/work/sebastian/BT-20210625/1009355-light/run1009355-light.h5 tag-1491338284//
/work/sebastian/BT-20210625/1009355-light/run1009355-light.h5 tag-1491338286//
/work/sebastian/BT-20210625/1009355-light/run1009355-light.h5 tag-1491338288//
/work/sebastian/BT-20210625/1009355-light/run1009355-light.h5 tag-1491338294//
/work/sebastian/BT-20210625/1009355-light/run1009355-light.h5 tag-1491338296//
/work/sebastian/BT-20210625/1009355-light/run1009355-light.h5 tag-1491338300//
/work/sebastian/BT-20210625/1009355-light/run1009355-light.h5 tag-1491338306//
/work/sebastian/BT-20210625/1009355-light/run1009355-light.h5 tag-1491338310//
/work/sebastian/BT-20210625/1009355-light/run1009355-light.h5 tag-1491338314//
/work/sebastian/BT-20210625/1009355-light/run1009355-light.h5 tag-1491338318//
/work/sebastian/BT-20210625/1009355-light/run1009355-light.h5 tag-1491338320//
/work/sebastian/BT-20210625/1009355-light/run1009355-light.h5 tag-1491338326//
/work/sebastian/BT-20210625/1009355-light/run1009355-light.h5 tag-1491338330//
/work/sebastian/BT-20210625/1009355-light/run1009355-light.h5 tag-1491338334//
/work/sebastian/BT-20210625/1009355-light/run1009355-light.h5 tag-1491338336//
/work/sebastian/BT-20210625/1009355-light/run1009355-light.h5 tag-1491338338//
/work/sebastian/BT-20210625/1009355-light/run1009355-light.h5 tag-1491338340//
/work/sebastian/BT-20210625/1009355-light/run1009355-light.h5 tag-1491338342//
/work/sebastian/BT-20210625/1009355-light/run1009355-light.h5 tag-1491338344//
/work/sebastian/BT-20210625/1009355-light/run1009355-light.h5 tag-1491338346//
/work/sebastian/BT-20210625/1009355-light/run1009355-light.h5 tag-1491338350//
/work/sebastian/BT-20210625/1009355-light/run1009355-light.h5 tag-1491338352//
/work/sebastian/BT-20210625/1009355-light/run1009355-light.h5 tag-1491338354//
/work/sebastian/BT-20210625/1009355-light/run1009355-light.h5 tag-1491338356//
/work/sebastian/BT-20210625/1009355-light/run1009355-light.h5 tag-1491338362//
/work/sebastian/BT-20210625/1009355-light/run1009355-light.h5 tag-1491338364//
/work/sebastian/BT-20210625/1009355-light/run1009355-light.h5 tag-1491338366//
/work/sebastian/BT-20210625/1009355-light/run1009355-light.h5 tag-1491338372//
/work/sebastian/BT-20210625/1009355-light/run1009355-light.h5 tag-1491338374//
/work/sebastian/BT-20210625/1009355-light/run1009355-light.h5 tag-1491338376//
/work/sebastian/BT-20210625/1009355-light/run1009355-light.h5 tag-1491338378//
/work/sebastian/BT-20210625/1009355-light/run1009355-light.h5 tag-1491338380//
/work/sebastian/BT-20210625/1009355-light/run1009355-light.h5 tag-1491338382//
/work/sebastian/BT-20210625/1009355-light/run1009355-light.h5 tag-1491338386//
/work/sebastian/BT-20210625/1009355-light/run1009355-light.h5 tag-1491338388//
/work/sebastian/BT-20210625/1009355-light/run1009355-light.h5 tag-1491338390//
/work/sebastian/BT-20210625/1009355-light/run1009355-light.h5 tag-1491338392//
/work/sebastian/BT-20210625/1009355-light/run1009355-light.h5 tag-1491338396//
/work/sebastian/BT-20210625/1009355-light/run1009355-light.h5 tag-1491338398//
/work/sebastian/BT-20210625/1009355-light/run1009355-light.h5 tag-1491338400//
/work/sebastian/BT-20210625/1009355-light/run1009355-light.h5 tag-1491338402//
/work/sebastian/BT-20210625/1009355-light/run1009355-light.h5 tag-1491338404//
/work/sebastian/BT-20210625/1009355-light/run1009355-light.h5 tag-1491338408//
/work/sebastian/BT-20210625/1009355-light/run1009355-light.h5 tag-1491338412//
/work/sebastian/BT-20210625/1009355-light/run1009355-light.h5 tag-1491338422//
/work/sebastian/BT-20210625/1009355-light/run1009355-light.h5 tag-1491338424//
/work/sebastian/BT-20210625/1009355-light/run1009355-light.h5 tag-1491338426//
/work/sebastian/BT-20210625/1009355-light/run1009355-light.h5 tag-1491338428//
/work/sebastian/BT-20210625/1009355-light/run1009355-light.h5 tag-1491338430//
/work/sebastian/BT-20210625/1009355-light/run1009355-light.h5 tag-1491338432//
/work/sebastian/BT-20210625/1009355-light/run1009355-light.h5 tag-1491338434//
/work/sebastian/BT-20210625/1009355-light/run1009355-light.h5 tag-1491338436//
/work/sebastian/BT-20210625/1009355-light/run1009355-light.h5 tag-1491338438//
/work/sebastian/BT-20210625/1009355-light/run1009355-light.h5 tag-1491338442//
/work/sebastian/BT-20210625/1009355-light/run1009355-light.h5 tag-1491338444//
/work/sebastian/BT-20210625/1009355-light/run1009355-light.h5 tag-1491338448//
/work/sebastian/BT-20210625/1009355-light/run1009355-light.h5 tag-1491338450//
/work/sebastian/BT-20210625/1009355-light/run1009355-light.h5 tag-1491338454//
/work/sebastian/BT-20210625/1009355-light/run1009355-light.h5 tag-1491338456//
/work/sebastian/BT-20210625/1009355-light/run1009355-light.h5 tag-1491338460//
/work/sebastian/BT-20210625/1009355-light/run1009355-light.h5 tag-1491338464//
/work/sebastian/BT-20210625/1009355-light/run1009355-light.h5 tag-1491338466//
/work/sebastian/BT-20210625/1009355-light/run1009355-light.h5 tag-1491338470//
/work/sebastian/BT-20210625/1009355-light/run1009355-light.h5 tag-1491338472//
/work/sebastian/BT-20210625/1009355-light/run1009355-light.h5 tag-1491338476//
/work/sebastian/BT-20210625/1009355-light/run1009355-light.h5 tag-1491338478//
/work/sebastian/BT-20210625/1009355-light/run1009355-light.h5 tag-1491338480//
/work/sebastian/BT-20210625/1009355-light/run1009355-light.h5 tag-1491338486//
/work/sebastian/BT-20210625/1009355-light/run1009355-light.h5 tag-1491338492//
/work/sebastian/BT-20210625/1009355-light/run1009355-light.h5 tag-1491338494//
/work/sebastian/BT-20210625/1009355-light/run1009355-light.h5 tag-1491338496//
/work/sebastian/BT-20210625/1009355-light/run1009355-light.h5 tag-1491338500//
/work/sebastian/BT-20210625/1009355-light/run1009355-light.h5 tag-1491338504//
/work/sebastian/BT-20210625/1009355-light/run1009355-light.h5 tag-1491338508//
/work/sebastian/BT-20210625/1009355-light/run1009355-light.h5 tag-1491338510//
/work/sebastian/BT-20210625/1009355-light/run1009355-light.h5 tag-1491338512//
/work/sebastian/BT-20210625/1009355-light/run1009355-light.h5 tag-1491338514//
/work/sebastian/BT-20210625/1009355-light/run1009355-light.h5 tag-1491338516//
/work/sebastian/BT-20210625/1009355-light/run1009355-light.h5 tag-1491338520//
/work/sebastian/BT-20210625/1009355-light/run1009355-light.h5 tag-1491338526//
/work/sebastian/BT-20210625/1009355-light/run1009355-light.h5 tag-1491338530//
/work/sebastian/BT-20210625/1009355-light/run1009355-light.h5 tag-1491338532//
/work/sebastian/BT-20210625/1009355-light/run1009355-light.h5 tag-1491338534//
/work/sebastian/BT-20210625/1009355-light/run1009355-light.h5 tag-1491338536//
/work/sebastian/BT-20210625/1009355-light/run1009355-light.h5 tag-1491338538//
/work/sebastian/BT-20210625/1009355-light/run1009355-light.h5 tag-1491338540//
/work/sebastian/BT-20210625/1009355-light/run1009355-light.h5 tag-1491338542//
/work/sebastian/BT-20210625/1009355-light/run1009355-light.h5 tag-1491338548//
/work/sebastian/BT-20210625/1009355-light/run1009355-light.h5 tag-1491338550//
/work/sebastian/BT-20210625/1009355-light/run1009355-light.h5 tag-1491338554//
/work/sebastian/BT-20210625/1009355-light/run1009355-light.h5 tag-1491338558//
/work/sebastian/BT-20210625/1009355-light/run1009355-light.h5 tag-1491338560//
/work/sebastian/BT-20210625/1009355-light/run1009355-light.h5 tag-1491338562//
/work/sebastian/BT-20210625/1009355-light/run1009355-light.h5 tag-1491338566//
/work/sebastian/BT-20210625/1009355-light/run1009355-light.h5 tag-1491338568//
/work/sebastian/BT-20210625/1009355-light/run1009355-light.h5 tag-1491338570//
/work/sebastian/BT-20210625/1009355-light/run1009355-light.h5 tag-1491338572//
/work/sebastian/BT-20210625/1009355-light/run1009355-light.h5 tag-1491338574//
/work/sebastian/BT-20210625/1009355-light/run1009355-light.h5 tag-1491338576//
/work/sebastian/BT-20210625/1009355-light/run1009355-light.h5 tag-1491338578//
/work/sebastian/BT-20210625/1009355-light/run1009355-light.h5 tag-1491338580//
/work/sebastian/BT-20210625/1009355-light/run1009355-light.h5 tag-1491338582//
/work/sebastian/BT-20210625/1009355-light/run1009355-light.h5 tag-1491338584//
/work/sebastian/BT-20210625/1009355-light/run1009355-light.h5 tag-1491338590//
/work/sebastian/BT-20210625/1009355-light/run1009355-light.h5 tag-1491338596//
/work/sebastian/BT-20210625/1009355-light/run1009355-light.h5 tag-1491338600//
/work/sebastian/BT-20210625/1009355-light/run1009355-light.h5 tag-1491338604//
/work/sebastian/BT-20210625/1009355-light/run1009355-light.h5 tag-1491338608//
/work/sebastian/BT-20210625/1009355-light/run1009355-light.h5 tag-1491338610//
/work/sebastian/BT-20210625/1009355-light/run1009355-light.h5 tag-1491338612//
/work/sebastian/BT-20210625/1009355-light/run1009355-light.h5 tag-1491338624//
/work/sebastian/BT-20210625/1009355-light/run1009355-light.h5 tag-1491338626//
/work/sebastian/BT-20210625/1009355-light/run1009355-light.h5 tag-1491338632//
/work/sebastian/BT-20210625/1009355-light/run1009355-light.h5 tag-1491338634//
/work/sebastian/BT-20210625/1009355-light/run1009355-light.h5 tag-1491338636//
/work/sebastian/BT-20210625/1009355-light/run1009355-light.h5 tag-1491338638//
/work/sebastian/BT-20210625/1009355-light/run1009355-light.h5 tag-1491338640//
/work/sebastian/BT-20210625/1009355-light/run1009355-light.h5 tag-1491338642//
/work/sebastian/BT-20210625/1009355-light/run1009355-light.h5 tag-1491338646//
/work/sebastian/BT-20210625/1009355-light/run1009355-light.h5 tag-1491338648//
/work/sebastian/BT-20210625/1009355-light/run1009355-light.h5 tag-1491338662//
/work/sebastian/BT-20210625/1009355-light/run1009355-light.h5 tag-1491338664//
/work/sebastian/BT-20210625/1009355-light/run1009355-light.h5 tag-1491338666//
/work/sebastian/BT-20210625/1009355-light/run1009355-light.h5 tag-1491338668//
/work/sebastian/BT-20210625/1009355-light/run1009355-light.h5 tag-1491338670//
/work/sebastian/BT-20210625/1009355-light/run1009355-light.h5 tag-1491338672//
/work/sebastian/BT-20210625/1009355-light/run1009355-light.h5 tag-1491338674//
/work/sebastian/BT-20210625/1009355-light/run1009355-light.h5 tag-1491338678//
/work/sebastian/BT-20210625/1009355-light/run1009355-light.h5 tag-1491338680//
/work/sebastian/BT-20210625/1009355-light/run1009355-light.h5 tag-1491338682//
/work/sebastian/BT-20210625/1009355-light/run1009355-light.h5 tag-1491338684//
/work/sebastian/BT-20210625/1009355-light/run1009355-light.h5 tag-1491338686//
/work/sebastian/BT-20210625/1009355-light/run1009355-light.h5 tag-1491338688//
/work/sebastian/BT-20210625/1009355-light/run1009355-light.h5 tag-1491338692//
/work/sebastian/BT-20210625/1009355-light/run1009355-light.h5 tag-1491338700//
/work/sebastian/BT-20210625/1009355-light/run1009355-light.h5 tag-1491338704//
/work/sebastian/BT-20210625/1009355-light/run1009355-light.h5 tag-1491338708//
/work/sebastian/BT-20210625/1009355-light/run1009355-light.h5 tag-1491338710//
/work/sebastian/BT-20210625/1009355-light/run1009355-light.h5 tag-1491338714//
/work/sebastian/BT-20210625/1009355-light/run1009355-light.h5 tag-1491338716//
/work/sebastian/BT-20210625/1009355-light/run1009355-light.h5 tag-1491338718//
/work/sebastian/BT-20210625/1009355-light/run1009355-light.h5 tag-1491338720//
/work/sebastian/BT-20210625/1009355-light/run1009355-light.h5 tag-1491338722//
/work/sebastian/BT-20210625/1009355-light/run1009355-light.h5 tag-1491338724//
/work/sebastian/BT-20210625/1009355-light/run1009355-light.h5 tag-1491338726//
/work/sebastian/BT-20210625/1009355-light/run1009355-light.h5 tag-1491338728//
/work/sebastian/BT-20210625/1009355-light/run1009355-light.h5 tag-1491338730//
/work/sebastian/BT-20210625/1009355-light/run1009355-light.h5 tag-1491338736//
/work/sebastian/BT-20210625/1009355-light/run1009355-light.h5 tag-1491338738//
/work/sebastian/BT-20210625/1009355-light/run1009355-light.h5 tag-1491338744//
/work/sebastian/BT-20210625/1009355-light/run1009355-light.h5 tag-1491338746//
/work/sebastian/BT-20210625/1009355-light/run1009355-light.h5 tag-1491338748//
/work/sebastian/BT-20210625/1009355-light/run1009355-light.h5 tag-1491338750//
/work/sebastian/BT-20210625/1009355-light/run1009355-light.h5 tag-1491338752//
/work/sebastian/BT-20210625/1009355-light/run1009355-light.h5 tag-1491338754//
/work/sebastian/BT-20210625/1009355-light/run1009355-light.h5 tag-1491338756//
/work/sebastian/BT-20210625/1009355-light/run1009355-light.h5 tag-1491338758//
/work/sebastian/BT-20210625/1009355-light/run1009355-light.h5 tag-1491338764//
/work/sebastian/BT-20210625/1009355-light/run1009355-light.h5 tag-1491338766//
/work/sebastian/BT-20210625/1009355-light/run1009355-light.h5 tag-1491338772//
/work/sebastian/BT-20210625/1009355-light/run1009355-light.h5 tag-1491338774//
/work/sebastian/BT-20210625/1009355-light/run1009355-light.h5 tag-1491338776//
/work/sebastian/BT-20210625/1009355-light/run1009355-light.h5 tag-1491338780//
/work/sebastian/BT-20210625/1009355-light/run1009355-light.h5 tag-1491338782//
/work/sebastian/BT-20210625/1009355-light/run1009355-light.h5 tag-1491338784//
/work/sebastian/BT-20210625/1009355-light/run1009355-light.h5 tag-1491338786//
/work/sebastian/BT-20210625/1009355-light/run1009355-light.h5 tag-1491338794//
/work/sebastian/BT-20210625/1009355-light/run1009355-light.h5 tag-1491338796//
/work/sebastian/BT-20210625/1009355-light/run1009355-light.h5 tag-1491338800//
/work/sebastian/BT-20210625/1009355-light/run1009355-light.h5 tag-1491338806//
/work/sebastian/BT-20210625/1009355-light/run1009355-light.h5 tag-1491338812//
/work/sebastian/BT-20210625/1009355-light/run1009355-light.h5 tag-1491338814//
/work/sebastian/BT-20210625/1009355-light/run1009355-light.h5 tag-1491338816//
/work/sebastian/BT-20210625/1009355-light/run1009355-light.h5 tag-1491338818//
/work/sebastian/BT-20210625/1009355-light/run1009355-light.h5 tag-1491338820//
/work/sebastian/BT-20210625/1009355-light/run1009355-light.h5 tag-1491338824//
/work/sebastian/BT-20210625/1009355-light/run1009355-light.h5 tag-1491338826//
/work/sebastian/BT-20210625/1009355-light/run1009355-light.h5 tag-1491338828//
/work/sebastian/BT-20210625/1009355-light/run1009355-light.h5 tag-1491338830//
/work/sebastian/BT-20210625/1009355-light/run1009355-light.h5 tag-1491338832//
/work/sebastian/BT-20210625/1009355-light/run1009355-light.h5 tag-1491338836//
/work/sebastian/BT-20210625/1009355-light/run1009355-light.h5 tag-1491338838//
/work/sebastian/BT-20210625/1009355-light/run1009355-light.h5 tag-1491338840//
/work/sebastian/BT-20210625/1009355-light/run1009355-light.h5 tag-1491338842//
/work/sebastian/BT-20210625/1009355-light/run1009355-light.h5 tag-1491338844//
/work/sebastian/BT-20210625/1009355-light/run1009355-light.h5 tag-1491338848//
/work/sebastian/BT-20210625/1009355-light/run1009355-light.h5 tag-1491338850//
/work/sebastian/BT-20210625/1009355-light/run1009355-light.h5 tag-1491338852//
/work/sebastian/BT-20210625/1009355-light/run1009355-light.h5 tag-1491338854//
/work/sebastian/BT-20210625/1009355-light/run1009355-light.h5 tag-1491338856//
/work/sebastian/BT-20210625/1009355-light/run1009355-light.h5 tag-1491338858//
/work/sebastian/BT-20210625/1009355-light/run1009355-light.h5 tag-1491338860//
/work/sebastian/BT-20210625/1009355-light/run1009355-light.h5 tag-1491338862//
/work/sebastian/BT-20210625/1009355-light/run1009355-light.h5 tag-1491338864//
/work/sebastian/BT-20210625/1009355-light/run1009355-light.h5 tag-1491338866//
/work/sebastian/BT-20210625/1009355-light/run1009355-light.h5 tag-1491338868//
/work/sebastian/BT-20210625/1009355-light/run1009355-light.h5 tag-1491338870//
/work/sebastian/BT-20210625/1009355-light/run1009355-light.h5 tag-1491338874//
/work/sebastian/BT-20210625/1009355-light/run1009355-light.h5 tag-1491338876//
/work/sebastian/BT-20210625/1009355-light/run1009355-light.h5 tag-1491338878//
/work/sebastian/BT-20210625/1009355-light/run1009355-light.h5 tag-1491338882//
/work/sebastian/BT-20210625/1009355-light/run1009355-light.h5 tag-1491338884//
/work/sebastian/BT-20210625/1009355-light/run1009355-light.h5 tag-1491338888//
/work/sebastian/BT-20210625/1009355-light/run1009355-light.h5 tag-1491338890//
/work/sebastian/BT-20210625/1009355-light/run1009355-light.h5 tag-1491338894//
/work/sebastian/BT-20210625/1009355-light/run1009355-light.h5 tag-1491338896//
/work/sebastian/BT-20210625/1009355-light/run1009355-light.h5 tag-1491338898//
/work/sebastian/BT-20210625/1009355-light/run1009355-light.h5 tag-1491338900//
/work/sebastian/BT-20210625/1009355-light/run1009355-light.h5 tag-1491338902//
/work/sebastian/BT-20210625/1009355-light/run1009355-light.h5 tag-1491338906//
/work/sebastian/BT-20210625/1009355-light/run1009355-light.h5 tag-1491338908//
/work/sebastian/BT-20210625/1009355-light/run1009355-light.h5 tag-1491338910//
/work/sebastian/BT-20210625/1009355-light/run1009355-light.h5 tag-1491338912//
/work/sebastian/BT-20210625/1009355-light/run1009355-light.h5 tag-1491338914//
/work/sebastian/BT-20210625/1009355-light/run1009355-light.h5 tag-1491338916//
/work/sebastian/BT-20210625/1009355-light/run1009355-light.h5 tag-1491338918//
/work/sebastian/BT-20210625/1009355-light/run1009355-light.h5 tag-1491338920//
/work/sebastian/BT-20210625/1009355-light/run1009355-light.h5 tag-1491338922//
/work/sebastian/BT-20210625/1009355-light/run1009355-light.h5 tag-1491338924//
/work/sebastian/BT-20210625/1009355-light/run1009355-light.h5 tag-1491338926//
/work/sebastian/BT-20210625/1009355-light/run1009355-light.h5 tag-1491338928//
/work/sebastian/BT-20210625/1009355-light/run1009355-light.h5 tag-1491338932//
/work/sebastian/BT-20210625/1009355-light/run1009355-light.h5 tag-1491338936//
/work/sebastian/BT-20210625/1009355-light/run1009355-light.h5 tag-1491338940//
/work/sebastian/BT-20210625/1009355-light/run1009355-light.h5 tag-1491338948//
/work/sebastian/BT-20210625/1009355-light/run1009355-light.h5 tag-1491338952//
/work/sebastian/BT-20210625/1009355-light/run1009355-light.h5 tag-1491338954//
/work/sebastian/BT-20210625/1009355-light/run1009355-light.h5 tag-1491338956//
/work/sebastian/BT-20210625/1009355-light/run1009355-light.h5 tag-1491338960//
/work/sebastian/BT-20210625/1009355-light/run1009355-light.h5 tag-1491338962//
/work/sebastian/BT-20210625/1009355-light/run1009355-light.h5 tag-1491338972//
/work/sebastian/BT-20210625/1009355-light/run1009355-light.h5 tag-1491338974//
/work/sebastian/BT-20210625/1009355-light/run1009355-light.h5 tag-1491338978//
/work/sebastian/BT-20210625/1009355-light/run1009355-light.h5 tag-1491338980//
/work/sebastian/BT-20210625/1009355-light/run1009355-light.h5 tag-1491338982//
/work/sebastian/BT-20210625/1009355-light/run1009355-light.h5 tag-1491338984//
/work/sebastian/BT-20210625/1009355-light/run1009355-light.h5 tag-1491338988//
/work/sebastian/BT-20210625/1009355-light/run1009355-light.h5 tag-1491338992//
/work/sebastian/BT-20210625/1009355-light/run1009355-light.h5 tag-1491338994//
/work/sebastian/BT-20210625/1009355-light/run1009355-light.h5 tag-1491338998//
/work/sebastian/BT-20210625/1009355-light/run1009355-light.h5 tag-1491339004//
/work/sebastian/BT-20210625/1009355-light/run1009355-light.h5 tag-1491339008//
/work/sebastian/BT-20210625/1009355-light/run1009355-light.h5 tag-1491339012//
/work/sebastian/BT-20210625/1009355-light/run1009355-light.h5 tag-1491339014//
/work/sebastian/BT-20210625/1009355-light/run1009355-light.h5 tag-1491339016//
/work/sebastian/BT-20210625/1009355-light/run1009355-light.h5 tag-1491339018//
/work/sebastian/BT-20210625/1009355-light/run1009355-light.h5 tag-1491339020//
/work/sebastian/BT-20210625/1009355-light/run1009355-light.h5 tag-1491339022//
/work/sebastian/BT-20210625/1009355-light/run1009355-light.h5 tag-1491339024//
/work/sebastian/BT-20210625/1009355-light/run1009355-light.h5 tag-1491339026//
/work/sebastian/BT-20210625/1009355-light/run1009355-light.h5 tag-1491339028//
/work/sebastian/BT-20210625/1009355-light/run1009355-light.h5 tag-1491339032//
/work/sebastian/BT-20210625/1009355-light/run1009355-light.h5 tag-1491339036//
/work/sebastian/BT-20210625/1009355-light/run1009355-light.h5 tag-1491339038//
/work/sebastian/BT-20210625/1009355-light/run1009355-light.h5 tag-1491339040//
/work/sebastian/BT-20210625/1009355-light/run1009355-light.h5 tag-1491339044//
/work/sebastian/BT-20210625/1009355-light/run1009355-light.h5 tag-1491339048//
/work/sebastian/BT-20210625/1009355-light/run1009355-light.h5 tag-1491339050//
/work/sebastian/BT-20210625/1009355-light/run1009355-light.h5 tag-1491339056//
/work/sebastian/BT-20210625/1009355-light/run1009355-light.h5 tag-1491339058//
/work/sebastian/BT-20210625/1009355-light/run1009355-light.h5 tag-1491339060//
/work/sebastian/BT-20210625/1009355-light/run1009355-light.h5 tag-1491339064//
/work/sebastian/BT-20210625/1009355-light/run1009355-light.h5 tag-1491339066//
/work/sebastian/BT-20210625/1009355-light/run1009355-light.h5 tag-1491339070//
/work/sebastian/BT-20210625/1009355-light/run1009355-light.h5 tag-1491339072//
/work/sebastian/BT-20210625/1009355-light/run1009355-light.h5 tag-1491339074//
/work/sebastian/BT-20210625/1009355-light/run1009355-light.h5 tag-1491339080//
/work/sebastian/BT-20210625/1009355-light/run1009355-light.h5 tag-1491339084//
/work/sebastian/BT-20210625/1009355-light/run1009355-light.h5 tag-1491339090//
/work/sebastian/BT-20210625/1009355-light/run1009355-light.h5 tag-1491339094//
/work/sebastian/BT-20210625/1009355-light/run1009355-light.h5 tag-1491339096//
/work/sebastian/BT-20210625/1009355-light/run1009355-light.h5 tag-1491339100//
/work/sebastian/BT-20210625/1009355-light/run1009355-light.h5 tag-1491339104//
/work/sebastian/BT-20210625/1009355-light/run1009355-light.h5 tag-1491339106//
/work/sebastian/BT-20210625/1009355-light/run1009355-light.h5 tag-1491339118//
/work/sebastian/BT-20210625/1009355-light/run1009355-light.h5 tag-1491339122//
/work/sebastian/BT-20210625/1009355-light/run1009355-light.h5 tag-1491339124//
/work/sebastian/BT-20210625/1009355-light/run1009355-light.h5 tag-1491339128//
/work/sebastian/BT-20210625/1009355-light/run1009355-light.h5 tag-1491339130//
/work/sebastian/BT-20210625/1009355-light/run1009355-light.h5 tag-1491339136//
/work/sebastian/BT-20210625/1009355-light/run1009355-light.h5 tag-1491339138//
/work/sebastian/BT-20210625/1009355-light/run1009355-light.h5 tag-1491339140//
/work/sebastian/BT-20210625/1009355-light/run1009355-light.h5 tag-1491339142//
/work/sebastian/BT-20210625/1009355-light/run1009355-light.h5 tag-1491339144//
/work/sebastian/BT-20210625/1009355-light/run1009355-light.h5 tag-1491339150//
/work/sebastian/BT-20210625/1009355-light/run1009355-light.h5 tag-1491339152//
/work/sebastian/BT-20210625/1009355-light/run1009355-light.h5 tag-1491339156//
/work/sebastian/BT-20210625/1009355-light/run1009355-light.h5 tag-1491339158//
/work/sebastian/BT-20210625/1009355-light/run1009355-light.h5 tag-1491339162//
/work/sebastian/BT-20210625/1009355-light/run1009355-light.h5 tag-1491339164//
/work/sebastian/BT-20210625/1009355-light/run1009355-light.h5 tag-1491339170//
/work/sebastian/BT-20210625/1009355-light/run1009355-light.h5 tag-1491339172//
/work/sebastian/BT-20210625/1009355-light/run1009355-light.h5 tag-1491339174//
/work/sebastian/BT-20210625/1009355-light/run1009355-light.h5 tag-1491339176//
/work/sebastian/BT-20210625/1009355-light/run1009355-light.h5 tag-1491339182//
/work/sebastian/BT-20210625/1009355-light/run1009355-light.h5 tag-1491339186//
/work/sebastian/BT-20210625/1009355-light/run1009355-light.h5 tag-1491339192//
/work/sebastian/BT-20210625/1009355-light/run1009355-light.h5 tag-1491339194//
/work/sebastian/BT-20210625/1009355-light/run1009355-light.h5 tag-1491339196//
/work/sebastian/BT-20210625/1009355-light/run1009355-light.h5 tag-1491339204//
/work/sebastian/BT-20210625/1009355-light/run1009355-light.h5 tag-1491339206//
/work/sebastian/BT-20210625/1009355-light/run1009355-light.h5 tag-1491339210//
/work/sebastian/BT-20210625/1009355-light/run1009355-light.h5 tag-1491339212//
/work/sebastian/BT-20210625/1009355-light/run1009355-light.h5 tag-1491339214//
/work/sebastian/BT-20210625/1009355-light/run1009355-light.h5 tag-1491339216//
/work/sebastian/BT-20210625/1009355-light/run1009355-light.h5 tag-1491339222//
/work/sebastian/BT-20210625/1009355-light/run1009355-light.h5 tag-1491339226//
/work/sebastian/BT-20210625/1009355-light/run1009355-light.h5 tag-1491339230//
/work/sebastian/BT-20210625/1009355-light/run1009355-light.h5 tag-1491339234//
/work/sebastian/BT-20210625/1009355-light/run1009355-light.h5 tag-1491339236//
/work/sebastian/BT-20210625/1009355-light/run1009355-light.h5 tag-1491339238//
/work/sebastian/BT-20210625/1009355-light/run1009355-light.h5 tag-1491339240//
/work/sebastian/BT-20210625/1009355-light/run1009355-light.h5 tag-1491339242//
/work/sebastian/BT-20210625/1009355-light/run1009355-light.h5 tag-1491339246//
/work/sebastian/BT-20210625/1009355-light/run1009355-light.h5 tag-1491339248//
/work/sebastian/BT-20210625/1009355-light/run1009355-light.h5 tag-1491339252//
/work/sebastian/BT-20210625/1009355-light/run1009355-light.h5 tag-1491339254//
/work/sebastian/BT-20210625/1009355-light/run1009355-light.h5 tag-1491339256//
/work/sebastian/BT-20210625/1009355-light/run1009355-light.h5 tag-1491339258//
/work/sebastian/BT-20210625/1009355-light/run1009355-light.h5 tag-1491339264//
/work/sebastian/BT-20210625/1009355-light/run1009355-light.h5 tag-1491339268//
/work/sebastian/BT-20210625/1009355-light/run1009355-light.h5 tag-1491339270//
/work/sebastian/BT-20210625/1009355-light/run1009355-light.h5 tag-1491339274//
/work/sebastian/BT-20210625/1009355-light/run1009355-light.h5 tag-1491339276//
/work/sebastian/BT-20210625/1009355-light/run1009355-light.h5 tag-1491339280//
/work/sebastian/BT-20210625/1009355-light/run1009355-light.h5 tag-1491339286//
/work/sebastian/BT-20210625/1009355-light/run1009355-light.h5 tag-1491339288//
/work/sebastian/BT-20210625/1009355-light/run1009355-light.h5 tag-1491339290//
/work/sebastian/BT-20210625/1009355-light/run1009355-light.h5 tag-1491339292//
/work/sebastian/BT-20210625/1009355-light/run1009355-light.h5 tag-1491339294//
/work/sebastian/BT-20210625/1009355-light/run1009355-light.h5 tag-1491339296//
/work/sebastian/BT-20210625/1009355-light/run1009355-light.h5 tag-1491339298//
/work/sebastian/BT-20210625/1009355-light/run1009355-light.h5 tag-1491339302//
/work/sebastian/BT-20210625/1009355-light/run1009355-light.h5 tag-1491339312//
/work/sebastian/BT-20210625/1009355-light/run1009355-light.h5 tag-1491339314//
/work/sebastian/BT-20210625/1009355-light/run1009355-light.h5 tag-1491339316//
/work/sebastian/BT-20210625/1009355-light/run1009355-light.h5 tag-1491339318//
/work/sebastian/BT-20210625/1009355-light/run1009355-light.h5 tag-1491339320//
/work/sebastian/BT-20210625/1009355-light/run1009355-light.h5 tag-1491339324//
/work/sebastian/BT-20210625/1009355-light/run1009355-light.h5 tag-1491339326//
/work/sebastian/BT-20210625/1009355-light/run1009355-light.h5 tag-1491339328//
/work/sebastian/BT-20210625/1009355-light/run1009355-light.h5 tag-1491339330//
/work/sebastian/BT-20210625/1009355-light/run1009355-light.h5 tag-1491339334//
/work/sebastian/BT-20210625/1009355-light/run1009355-light.h5 tag-1491339336//
/work/sebastian/BT-20210625/1009355-light/run1009355-light.h5 tag-1491339338//
/work/sebastian/BT-20210625/1009355-light/run1009355-light.h5 tag-1491339340//
/work/sebastian/BT-20210625/1009355-light/run1009355-light.h5 tag-1491339342//
/work/sebastian/BT-20210625/1009355-light/run1009355-light.h5 tag-1491339344//
/work/sebastian/BT-20210625/1009355-light/run1009355-light.h5 tag-1491339346//
/work/sebastian/BT-20210625/1009355-light/run1009355-light.h5 tag-1491339348//
/work/sebastian/BT-20210625/1009355-light/run1009355-light.h5 tag-1491339350//
/work/sebastian/BT-20210625/1009355-light/run1009355-light.h5 tag-1491339354//
/work/sebastian/BT-20210625/1009355-light/run1009355-light.h5 tag-1491339358//
/work/sebastian/BT-20210625/1009355-light/run1009355-light.h5 tag-1491339360//
/work/sebastian/BT-20210625/1009355-light/run1009355-light.h5 tag-1491339364//
/work/sebastian/BT-20210625/1009355-light/run1009355-light.h5 tag-1491339366//
/work/sebastian/BT-20210625/1009355-light/run1009355-light.h5 tag-1491339368//
/work/sebastian/BT-20210625/1009355-light/run1009355-light.h5 tag-1491339370//
/work/sebastian/BT-20210625/1009355-light/run1009355-light.h5 tag-1491339374//
/work/sebastian/BT-20210625/1009355-light/run1009355-light.h5 tag-1491339376//
/work/sebastian/BT-20210625/1009355-light/run1009355-light.h5 tag-1491339378//
/work/sebastian/BT-20210625/1009355-light/run1009355-light.h5 tag-1491339380//
/work/sebastian/BT-20210625/1009355-light/run1009355-light.h5 tag-1491339382//
/work/sebastian/BT-20210625/1009355-light/run1009355-light.h5 tag-1491339384//
/work/sebastian/BT-20210625/1009355-light/run1009355-light.h5 tag-1491339388//
/work/sebastian/BT-20210625/1009355-light/run1009355-light.h5 tag-1491339390//
/work/sebastian/BT-20210625/1009355-light/run1009355-light.h5 tag-1491339392//
/work/sebastian/BT-20210625/1009355-light/run1009355-light.h5 tag-1491339394//
/work/sebastian/BT-20210625/1009355-light/run1009355-light.h5 tag-1491339402//
/work/sebastian/BT-20210625/1009355-light/run1009355-light.h5 tag-1491339406//
/work/sebastian/BT-20210625/1009355-light/run1009355-light.h5 tag-1491339410//
/work/sebastian/BT-20210625/1009355-light/run1009355-light.h5 tag-1491339412//
/work/sebastian/BT-20210625/1009355-light/run1009355-light.h5 tag-1491339416//
/work/sebastian/BT-20210625/1009355-light/run1009355-light.h5 tag-1491339418//
/work/sebastian/BT-20210625/1009355-light/run1009355-light.h5 tag-1491339426//
/work/sebastian/BT-20210625/1009355-light/run1009355-light.h5 tag-1491339432//
/work/sebastian/BT-20210625/1009355-light/run1009355-light.h5 tag-1491339440//
/work/sebastian/BT-20210625/1009355-light/run1009355-light.h5 tag-1491339446//
/work/sebastian/BT-20210625/1009355-light/run1009355-light.h5 tag-1491339452//
/work/sebastian/BT-20210625/1009355-light/run1009355-light.h5 tag-1491339458//
/work/sebastian/BT-20210625/1009355-light/run1009355-light.h5 tag-1491339460//
/work/sebastian/BT-20210625/1009355-light/run1009355-light.h5 tag-1491339468//
/work/sebastian/BT-20210625/1009355-light/run1009355-light.h5 tag-1491339472//
/work/sebastian/BT-20210625/1009355-light/run1009355-light.h5 tag-1491339476//
/work/sebastian/BT-20210625/1009355-light/run1009355-light.h5 tag-1491339478//
/work/sebastian/BT-20210625/1009355-light/run1009355-light.h5 tag-1491339480//
/work/sebastian/BT-20210625/1009355-light/run1009355-light.h5 tag-1491339482//
/work/sebastian/BT-20210625/1009355-light/run1009355-light.h5 tag-1491339484//
/work/sebastian/BT-20210625/1009355-light/run1009355-light.h5 tag-1491339486//
/work/sebastian/BT-20210625/1009355-light/run1009355-light.h5 tag-1491339492//
/work/sebastian/BT-20210625/1009355-light/run1009355-light.h5 tag-1491339494//
/work/sebastian/BT-20210625/1009355-light/run1009355-light.h5 tag-1491339496//
/work/sebastian/BT-20210625/1009355-light/run1009355-light.h5 tag-1491339498//
/work/sebastian/BT-20210625/1009355-light/run1009355-light.h5 tag-1491339500//
/work/sebastian/BT-20210625/1009355-light/run1009355-light.h5 tag-1491339504//
/work/sebastian/BT-20210625/1009355-light/run1009355-light.h5 tag-1491339506//
/work/sebastian/BT-20210625/1009355-light/run1009355-light.h5 tag-1491339508//
/work/sebastian/BT-20210625/1009355-light/run1009355-light.h5 tag-1491339510//
/work/sebastian/BT-20210625/1009355-light/run1009355-light.h5 tag-1491339514//
/work/sebastian/BT-20210625/1009355-light/run1009355-light.h5 tag-1491339516//
/work/sebastian/BT-20210625/1009355-light/run1009355-light.h5 tag-1491339518//
/work/sebastian/BT-20210625/1009355-light/run1009355-light.h5 tag-1491339524//
/work/sebastian/BT-20210625/1009355-light/run1009355-light.h5 tag-1491339528//
/work/sebastian/BT-20210625/1009355-light/run1009355-light.h5 tag-1491339530//
/work/sebastian/BT-20210625/1009355-light/run1009355-light.h5 tag-1491339532//
/work/sebastian/BT-20210625/1009355-light/run1009355-light.h5 tag-1491339536//
/work/sebastian/BT-20210625/1009355-light/run1009355-light.h5 tag-1491339538//
/work/sebastian/BT-20210625/1009355-light/run1009355-light.h5 tag-1491339542//
/work/sebastian/BT-20210625/1009355-light/run1009355-light.h5 tag-1491339544//
/work/sebastian/BT-20210625/1009355-light/run1009355-light.h5 tag-1491339546//
/work/sebastian/BT-20210625/1009355-light/run1009355-light.h5 tag-1491339548//
/work/sebastian/BT-20210625/1009355-light/run1009355-light.h5 tag-1491339550//
/work/sebastian/BT-20210625/1009355-light/run1009355-light.h5 tag-1491339554//
/work/sebastian/BT-20210625/1009355-light/run1009355-light.h5 tag-1491339556//
/work/sebastian/BT-20210625/1009355-light/run1009355-light.h5 tag-1491339558//
/work/sebastian/BT-20210625/1009355-light/run1009355-light.h5 tag-1491339564//
/work/sebastian/BT-20210625/1009355-light/run1009355-light.h5 tag-1491339566//
/work/sebastian/BT-20210625/1009355-light/run1009355-light.h5 tag-1491339568//
/work/sebastian/BT-20210625/1009355-light/run1009355-light.h5 tag-1491339574//
/work/sebastian/BT-20210625/1009355-light/run1009355-light.h5 tag-1491339576//
/work/sebastian/BT-20210625/1009355-light/run1009355-light.h5 tag-1491339580//
/work/sebastian/BT-20210625/1009355-light/run1009355-light.h5 tag-1491339586//
/work/sebastian/BT-20210625/1009355-light/run1009355-light.h5 tag-1491339590//
/work/sebastian/BT-20210625/1009355-light/run1009355-light.h5 tag-1491339594//
/work/sebastian/BT-20210625/1009355-light/run1009355-light.h5 tag-1491339596//
/work/sebastian/BT-20210625/1009355-light/run1009355-light.h5 tag-1491339602//
/work/sebastian/BT-20210625/1009355-light/run1009355-light.h5 tag-1491339608//
/work/sebastian/BT-20210625/1009355-light/run1009355-light.h5 tag-1491339610//
/work/sebastian/BT-20210625/1009355-light/run1009355-light.h5 tag-1491339614//
/work/sebastian/BT-20210625/1009355-light/run1009355-light.h5 tag-1491339620//
/work/sebastian/BT-20210625/1009355-light/run1009355-light.h5 tag-1491339624//
/work/sebastian/BT-20210625/1009355-light/run1009355-light.h5 tag-1491339626//
/work/sebastian/BT-20210625/1009355-light/run1009355-light.h5 tag-1491339628//
/work/sebastian/BT-20210625/1009355-light/run1009355-light.h5 tag-1491339630//
/work/sebastian/BT-20210625/1009355-light/run1009355-light.h5 tag-1491339632//
/work/sebastian/BT-20210625/1009355-light/run1009355-light.h5 tag-1491339634//
/work/sebastian/BT-20210625/1009355-light/run1009355-light.h5 tag-1491339636//
/work/sebastian/BT-20210625/1009355-light/run1009355-light.h5 tag-1491339638//
/work/sebastian/BT-20210625/1009355-light/run1009355-light.h5 tag-1491339640//
/work/sebastian/BT-20210625/1009355-light/run1009355-light.h5 tag-1491339646//
/work/sebastian/BT-20210625/1009355-light/run1009355-light.h5 tag-1491339648//
/work/sebastian/BT-20210625/1009355-light/run1009355-light.h5 tag-1491339652//
/work/sebastian/BT-20210625/1009355-light/run1009355-light.h5 tag-1491339654//
/work/sebastian/BT-20210625/1009355-light/run1009355-light.h5 tag-1491339656//
/work/sebastian/BT-20210625/1009355-light/run1009355-light.h5 tag-1491339658//
/work/sebastian/BT-20210625/1009355-light/run1009355-light.h5 tag-1491339662//
/work/sebastian/BT-20210625/1009355-light/run1009355-light.h5 tag-1491339666//
/work/sebastian/BT-20210625/1009355-light/run1009355-light.h5 tag-1491339668//
/work/sebastian/BT-20210625/1009355-light/run1009355-light.h5 tag-1491339670//
/work/sebastian/BT-20210625/1009355-light/run1009355-light.h5 tag-1491339676//
/work/sebastian/BT-20210625/1009355-light/run1009355-light.h5 tag-1491339680//
/work/sebastian/BT-20210625/1009355-light/run1009355-light.h5 tag-1491339682//
/work/sebastian/BT-20210625/1009355-light/run1009355-light.h5 tag-1491339690//
/work/sebastian/BT-20210625/1009355-light/run1009355-light.h5 tag-1491339692//
/work/sebastian/BT-20210625/1009355-light/run1009355-light.h5 tag-1491339694//
/work/sebastian/BT-20210625/1009355-light/run1009355-light.h5 tag-1491339696//
/work/sebastian/BT-20210625/1009355-light/run1009355-light.h5 tag-1491339698//
/work/sebastian/BT-20210625/1009355-light/run1009355-light.h5 tag-1491339702//
/work/sebastian/BT-20210625/1009355-light/run1009355-light.h5 tag-1491339704//
/work/sebastian/BT-20210625/1009355-light/run1009355-light.h5 tag-1491339706//
/work/sebastian/BT-20210625/1009355-light/run1009355-light.h5 tag-1491339710//
/work/sebastian/BT-20210625/1009355-light/run1009355-light.h5 tag-1491339714//
/work/sebastian/BT-20210625/1009355-light/run1009355-light.h5 tag-1491339716//
/work/sebastian/BT-20210625/1009355-light/run1009355-light.h5 tag-1491339718//
/work/sebastian/BT-20210625/1009355-light/run1009355-light.h5 tag-1491339722//
/work/sebastian/BT-20210625/1009355-light/run1009355-light.h5 tag-1491339724//
/work/sebastian/BT-20210625/1009355-light/run1009355-light.h5 tag-1491339726//
/work/sebastian/BT-20210625/1009355-light/run1009355-light.h5 tag-1491339728//
/work/sebastian/BT-20210625/1009355-light/run1009355-light.h5 tag-1491339734//
/work/sebastian/BT-20210625/1009355-light/run1009355-light.h5 tag-1491339736//
/work/sebastian/BT-20210625/1009355-light/run1009355-light.h5 tag-1491339740//
/work/sebastian/BT-20210625/1009355-light/run1009355-light.h5 tag-1491339746//
/work/sebastian/BT-20210625/1009355-light/run1009355-light.h5 tag-1491339750//
/work/sebastian/BT-20210625/1009355-light/run1009355-light.h5 tag-1491339752//
/work/sebastian/BT-20210625/1009355-light/run1009355-light.h5 tag-1491339754//
/work/sebastian/BT-20210625/1009355-light/run1009355-light.h5 tag-1491339758//
/work/sebastian/BT-20210625/1009355-light/run1009355-light.h5 tag-1491339760//
/work/sebastian/BT-20210625/1009355-light/run1009355-light.h5 tag-1491339772//
/work/sebastian/BT-20210625/1009355-light/run1009355-light.h5 tag-1491339780//
/work/sebastian/BT-20210625/1009355-light/run1009355-light.h5 tag-1491339782//
/work/sebastian/BT-20210625/1009355-light/run1009355-light.h5 tag-1491339784//
/work/sebastian/BT-20210625/1009355-light/run1009355-light.h5 tag-1491339788//
/work/sebastian/BT-20210625/1009355-light/run1009355-light.h5 tag-1491339790//
/work/sebastian/BT-20210625/1009355-light/run1009355-light.h5 tag-1491339792//
/work/sebastian/BT-20210625/1009355-light/run1009355-light.h5 tag-1491339800//
/work/sebastian/BT-20210625/1009355-light/run1009355-light.h5 tag-1491339802//
/work/sebastian/BT-20210625/1009355-light/run1009355-light.h5 tag-1491339804//
/work/sebastian/BT-20210625/1009355-light/run1009355-light.h5 tag-1491339806//
/work/sebastian/BT-20210625/1009355-light/run1009355-light.h5 tag-1491339808//
/work/sebastian/BT-20210625/1009355-light/run1009355-light.h5 tag-1491339810//
/work/sebastian/BT-20210625/1009355-light/run1009355-light.h5 tag-1491339812//
/work/sebastian/BT-20210625/1009355-light/run1009355-light.h5 tag-1491339814//
/work/sebastian/BT-20210625/1009355-light/run1009355-light.h5 tag-1491339816//
/work/sebastian/BT-20210625/1009355-light/run1009355-light.h5 tag-1491339818//
/work/sebastian/BT-20210625/1009355-light/run1009355-light.h5 tag-1491339820//
/work/sebastian/BT-20210625/1009355-light/run1009355-light.h5 tag-1491339824//
/work/sebastian/BT-20210625/1009355-light/run1009355-light.h5 tag-1491339826//
/work/sebastian/BT-20210625/1009355-light/run1009355-light.h5 tag-1491339828//
/work/sebastian/BT-20210625/1009355-light/run1009355-light.h5 tag-1491339830//
/work/sebastian/BT-20210625/1009355-light/run1009355-light.h5 tag-1491339834//
/work/sebastian/BT-20210625/1009355-light/run1009355-light.h5 tag-1491339836//
/work/sebastian/BT-20210625/1009355-light/run1009355-light.h5 tag-1491339838//
/work/sebastian/BT-20210625/1009355-light/run1009355-light.h5 tag-1491339840//
/work/sebastian/BT-20210625/1009355-light/run1009355-light.h5 tag-1491339842//
/work/sebastian/BT-20210625/1009355-light/run1009355-light.h5 tag-1491339844//
/work/sebastian/BT-20210625/1009355-light/run1009355-light.h5 tag-1491339848//
/work/sebastian/BT-20210625/1009355-light/run1009355-light.h5 tag-1491339850//
/work/sebastian/BT-20210625/1009355-light/run1009355-light.h5 tag-1491339852//
/work/sebastian/BT-20210625/1009355-light/run1009355-light.h5 tag-1491339854//
/work/sebastian/BT-20210625/1009355-light/run1009355-light.h5 tag-1491339858//
/work/sebastian/BT-20210625/1009355-light/run1009355-light.h5 tag-1491339862//
/work/sebastian/BT-20210625/1009355-light/run1009355-light.h5 tag-1491339872//
/work/sebastian/BT-20210625/1009355-light/run1009355-light.h5 tag-1491339874//
/work/sebastian/BT-20210625/1009355-light/run1009355-light.h5 tag-1491339878//
/work/sebastian/BT-20210625/1009355-light/run1009355-light.h5 tag-1491339884//
/work/sebastian/BT-20210625/1009355-light/run1009355-light.h5 tag-1491339890//
/work/sebastian/BT-20210625/1009355-light/run1009355-light.h5 tag-1491339892//
/work/sebastian/BT-20210625/1009355-light/run1009355-light.h5 tag-1491339894//
/work/sebastian/BT-20210625/1009355-light/run1009355-light.h5 tag-1491339896//
/work/sebastian/BT-20210625/1009355-light/run1009355-light.h5 tag-1491339898//
/work/sebastian/BT-20210625/1009355-light/run1009355-light.h5 tag-1491339900//
/work/sebastian/BT-20210625/1009355-light/run1009355-light.h5 tag-1491339904//
/work/sebastian/BT-20210625/1009355-light/run1009355-light.h5 tag-1491339906//
/work/sebastian/BT-20210625/1009355-light/run1009355-light.h5 tag-1491339908//
/work/sebastian/BT-20210625/1009355-light/run1009355-light.h5 tag-1491339910//
/work/sebastian/BT-20210625/1009355-light/run1009355-light.h5 tag-1491339912//
/work/sebastian/BT-20210625/1009355-light/run1009355-light.h5 tag-1491339914//
/work/sebastian/BT-20210625/1009355-light/run1009355-light.h5 tag-1491339916//
