/work/sebastian/BT-20210625/1009351-light/run1009351-light.h5 tag-1491322576//
/work/sebastian/BT-20210625/1009351-light/run1009351-light.h5 tag-1491322578//
/work/sebastian/BT-20210625/1009351-light/run1009351-light.h5 tag-1491322582//
/work/sebastian/BT-20210625/1009351-light/run1009351-light.h5 tag-1491322584//
/work/sebastian/BT-20210625/1009351-light/run1009351-light.h5 tag-1491322588//
/work/sebastian/BT-20210625/1009351-light/run1009351-light.h5 tag-1491322594//
/work/sebastian/BT-20210625/1009351-light/run1009351-light.h5 tag-1491322604//
/work/sebastian/BT-20210625/1009351-light/run1009351-light.h5 tag-1491322606//
/work/sebastian/BT-20210625/1009351-light/run1009351-light.h5 tag-1491322608//
/work/sebastian/BT-20210625/1009351-light/run1009351-light.h5 tag-1491322610//
/work/sebastian/BT-20210625/1009351-light/run1009351-light.h5 tag-1491322614//
/work/sebastian/BT-20210625/1009351-light/run1009351-light.h5 tag-1491322618//
/work/sebastian/BT-20210625/1009351-light/run1009351-light.h5 tag-1491322620//
/work/sebastian/BT-20210625/1009351-light/run1009351-light.h5 tag-1491322622//
/work/sebastian/BT-20210625/1009351-light/run1009351-light.h5 tag-1491322624//
/work/sebastian/BT-20210625/1009351-light/run1009351-light.h5 tag-1491322626//
/work/sebastian/BT-20210625/1009351-light/run1009351-light.h5 tag-1491322630//
/work/sebastian/BT-20210625/1009351-light/run1009351-light.h5 tag-1491322634//
/work/sebastian/BT-20210625/1009351-light/run1009351-light.h5 tag-1491322636//
/work/sebastian/BT-20210625/1009351-light/run1009351-light.h5 tag-1491322638//
/work/sebastian/BT-20210625/1009351-light/run1009351-light.h5 tag-1491322640//
/work/sebastian/BT-20210625/1009351-light/run1009351-light.h5 tag-1491322644//
/work/sebastian/BT-20210625/1009351-light/run1009351-light.h5 tag-1491322648//
/work/sebastian/BT-20210625/1009351-light/run1009351-light.h5 tag-1491322650//
/work/sebastian/BT-20210625/1009351-light/run1009351-light.h5 tag-1491322652//
/work/sebastian/BT-20210625/1009351-light/run1009351-light.h5 tag-1491322654//
/work/sebastian/BT-20210625/1009351-light/run1009351-light.h5 tag-1491322656//
/work/sebastian/BT-20210625/1009351-light/run1009351-light.h5 tag-1491322658//
/work/sebastian/BT-20210625/1009351-light/run1009351-light.h5 tag-1491322660//
/work/sebastian/BT-20210625/1009351-light/run1009351-light.h5 tag-1491322662//
/work/sebastian/BT-20210625/1009351-light/run1009351-light.h5 tag-1491322664//
/work/sebastian/BT-20210625/1009351-light/run1009351-light.h5 tag-1491322666//
/work/sebastian/BT-20210625/1009351-light/run1009351-light.h5 tag-1491322668//
/work/sebastian/BT-20210625/1009351-light/run1009351-light.h5 tag-1491322672//
/work/sebastian/BT-20210625/1009351-light/run1009351-light.h5 tag-1491322674//
/work/sebastian/BT-20210625/1009351-light/run1009351-light.h5 tag-1491322676//
/work/sebastian/BT-20210625/1009351-light/run1009351-light.h5 tag-1491322678//
/work/sebastian/BT-20210625/1009351-light/run1009351-light.h5 tag-1491322680//
/work/sebastian/BT-20210625/1009351-light/run1009351-light.h5 tag-1491322682//
/work/sebastian/BT-20210625/1009351-light/run1009351-light.h5 tag-1491322684//
/work/sebastian/BT-20210625/1009351-light/run1009351-light.h5 tag-1491322686//
/work/sebastian/BT-20210625/1009351-light/run1009351-light.h5 tag-1491322692//
/work/sebastian/BT-20210625/1009351-light/run1009351-light.h5 tag-1491322698//
/work/sebastian/BT-20210625/1009351-light/run1009351-light.h5 tag-1491322704//
/work/sebastian/BT-20210625/1009351-light/run1009351-light.h5 tag-1491322706//
/work/sebastian/BT-20210625/1009351-light/run1009351-light.h5 tag-1491322712//
/work/sebastian/BT-20210625/1009351-light/run1009351-light.h5 tag-1491322714//
/work/sebastian/BT-20210625/1009351-light/run1009351-light.h5 tag-1491322718//
/work/sebastian/BT-20210625/1009351-light/run1009351-light.h5 tag-1491322720//
/work/sebastian/BT-20210625/1009351-light/run1009351-light.h5 tag-1491322722//
/work/sebastian/BT-20210625/1009351-light/run1009351-light.h5 tag-1491322724//
/work/sebastian/BT-20210625/1009351-light/run1009351-light.h5 tag-1491322726//
/work/sebastian/BT-20210625/1009351-light/run1009351-light.h5 tag-1491322728//
/work/sebastian/BT-20210625/1009351-light/run1009351-light.h5 tag-1491322732//
/work/sebastian/BT-20210625/1009351-light/run1009351-light.h5 tag-1491322734//
/work/sebastian/BT-20210625/1009351-light/run1009351-light.h5 tag-1491322736//
/work/sebastian/BT-20210625/1009351-light/run1009351-light.h5 tag-1491322740//
/work/sebastian/BT-20210625/1009351-light/run1009351-light.h5 tag-1491322744//
/work/sebastian/BT-20210625/1009351-light/run1009351-light.h5 tag-1491322746//
/work/sebastian/BT-20210625/1009351-light/run1009351-light.h5 tag-1491322748//
/work/sebastian/BT-20210625/1009351-light/run1009351-light.h5 tag-1491322750//
/work/sebastian/BT-20210625/1009351-light/run1009351-light.h5 tag-1491322752//
/work/sebastian/BT-20210625/1009351-light/run1009351-light.h5 tag-1491322754//
/work/sebastian/BT-20210625/1009351-light/run1009351-light.h5 tag-1491322756//
/work/sebastian/BT-20210625/1009351-light/run1009351-light.h5 tag-1491322758//
/work/sebastian/BT-20210625/1009351-light/run1009351-light.h5 tag-1491322762//
/work/sebastian/BT-20210625/1009351-light/run1009351-light.h5 tag-1491322766//
/work/sebastian/BT-20210625/1009351-light/run1009351-light.h5 tag-1491322768//
/work/sebastian/BT-20210625/1009351-light/run1009351-light.h5 tag-1491322772//
/work/sebastian/BT-20210625/1009351-light/run1009351-light.h5 tag-1491322774//
/work/sebastian/BT-20210625/1009351-light/run1009351-light.h5 tag-1491322776//
/work/sebastian/BT-20210625/1009351-light/run1009351-light.h5 tag-1491322780//
/work/sebastian/BT-20210625/1009351-light/run1009351-light.h5 tag-1491322784//
/work/sebastian/BT-20210625/1009351-light/run1009351-light.h5 tag-1491322786//
/work/sebastian/BT-20210625/1009351-light/run1009351-light.h5 tag-1491322788//
/work/sebastian/BT-20210625/1009351-light/run1009351-light.h5 tag-1491322794//
/work/sebastian/BT-20210625/1009351-light/run1009351-light.h5 tag-1491322796//
/work/sebastian/BT-20210625/1009351-light/run1009351-light.h5 tag-1491322798//
/work/sebastian/BT-20210625/1009351-light/run1009351-light.h5 tag-1491322800//
/work/sebastian/BT-20210625/1009351-light/run1009351-light.h5 tag-1491322804//
/work/sebastian/BT-20210625/1009351-light/run1009351-light.h5 tag-1491322808//
/work/sebastian/BT-20210625/1009351-light/run1009351-light.h5 tag-1491322810//
/work/sebastian/BT-20210625/1009351-light/run1009351-light.h5 tag-1491322812//
/work/sebastian/BT-20210625/1009351-light/run1009351-light.h5 tag-1491322826//
/work/sebastian/BT-20210625/1009351-light/run1009351-light.h5 tag-1491322828//
/work/sebastian/BT-20210625/1009351-light/run1009351-light.h5 tag-1491322830//
/work/sebastian/BT-20210625/1009351-light/run1009351-light.h5 tag-1491322832//
/work/sebastian/BT-20210625/1009351-light/run1009351-light.h5 tag-1491322836//
/work/sebastian/BT-20210625/1009351-light/run1009351-light.h5 tag-1491322840//
/work/sebastian/BT-20210625/1009351-light/run1009351-light.h5 tag-1491322842//
/work/sebastian/BT-20210625/1009351-light/run1009351-light.h5 tag-1491322844//
/work/sebastian/BT-20210625/1009351-light/run1009351-light.h5 tag-1491322846//
/work/sebastian/BT-20210625/1009351-light/run1009351-light.h5 tag-1491322848//
/work/sebastian/BT-20210625/1009351-light/run1009351-light.h5 tag-1491322852//
/work/sebastian/BT-20210625/1009351-light/run1009351-light.h5 tag-1491322854//
/work/sebastian/BT-20210625/1009351-light/run1009351-light.h5 tag-1491322862//
/work/sebastian/BT-20210625/1009351-light/run1009351-light.h5 tag-1491322864//
/work/sebastian/BT-20210625/1009351-light/run1009351-light.h5 tag-1491322868//
/work/sebastian/BT-20210625/1009351-light/run1009351-light.h5 tag-1491322870//
/work/sebastian/BT-20210625/1009351-light/run1009351-light.h5 tag-1491322874//
/work/sebastian/BT-20210625/1009351-light/run1009351-light.h5 tag-1491322878//
/work/sebastian/BT-20210625/1009351-light/run1009351-light.h5 tag-1491322886//
/work/sebastian/BT-20210625/1009351-light/run1009351-light.h5 tag-1491322888//
/work/sebastian/BT-20210625/1009351-light/run1009351-light.h5 tag-1491322890//
/work/sebastian/BT-20210625/1009351-light/run1009351-light.h5 tag-1491322892//
/work/sebastian/BT-20210625/1009351-light/run1009351-light.h5 tag-1491322896//
/work/sebastian/BT-20210625/1009351-light/run1009351-light.h5 tag-1491322898//
/work/sebastian/BT-20210625/1009351-light/run1009351-light.h5 tag-1491322902//
/work/sebastian/BT-20210625/1009351-light/run1009351-light.h5 tag-1491322906//
/work/sebastian/BT-20210625/1009351-light/run1009351-light.h5 tag-1491322908//
/work/sebastian/BT-20210625/1009351-light/run1009351-light.h5 tag-1491322916//
/work/sebastian/BT-20210625/1009351-light/run1009351-light.h5 tag-1491322918//
/work/sebastian/BT-20210625/1009351-light/run1009351-light.h5 tag-1491322920//
/work/sebastian/BT-20210625/1009351-light/run1009351-light.h5 tag-1491322922//
/work/sebastian/BT-20210625/1009351-light/run1009351-light.h5 tag-1491322924//
/work/sebastian/BT-20210625/1009351-light/run1009351-light.h5 tag-1491322926//
/work/sebastian/BT-20210625/1009351-light/run1009351-light.h5 tag-1491322928//
/work/sebastian/BT-20210625/1009351-light/run1009351-light.h5 tag-1491322934//
/work/sebastian/BT-20210625/1009351-light/run1009351-light.h5 tag-1491322936//
/work/sebastian/BT-20210625/1009351-light/run1009351-light.h5 tag-1491322938//
/work/sebastian/BT-20210625/1009351-light/run1009351-light.h5 tag-1491322942//
/work/sebastian/BT-20210625/1009351-light/run1009351-light.h5 tag-1491322944//
/work/sebastian/BT-20210625/1009351-light/run1009351-light.h5 tag-1491322946//
/work/sebastian/BT-20210625/1009351-light/run1009351-light.h5 tag-1491322948//
/work/sebastian/BT-20210625/1009351-light/run1009351-light.h5 tag-1491322950//
/work/sebastian/BT-20210625/1009351-light/run1009351-light.h5 tag-1491322954//
/work/sebastian/BT-20210625/1009351-light/run1009351-light.h5 tag-1491322958//
/work/sebastian/BT-20210625/1009351-light/run1009351-light.h5 tag-1491322960//
/work/sebastian/BT-20210625/1009351-light/run1009351-light.h5 tag-1491322962//
/work/sebastian/BT-20210625/1009351-light/run1009351-light.h5 tag-1491322966//
/work/sebastian/BT-20210625/1009351-light/run1009351-light.h5 tag-1491322968//
/work/sebastian/BT-20210625/1009351-light/run1009351-light.h5 tag-1491322972//
/work/sebastian/BT-20210625/1009351-light/run1009351-light.h5 tag-1491322974//
/work/sebastian/BT-20210625/1009351-light/run1009351-light.h5 tag-1491322976//
/work/sebastian/BT-20210625/1009351-light/run1009351-light.h5 tag-1491322984//
/work/sebastian/BT-20210625/1009351-light/run1009351-light.h5 tag-1491322988//
/work/sebastian/BT-20210625/1009351-light/run1009351-light.h5 tag-1491322992//
/work/sebastian/BT-20210625/1009351-light/run1009351-light.h5 tag-1491322996//
/work/sebastian/BT-20210625/1009351-light/run1009351-light.h5 tag-1491323000//
/work/sebastian/BT-20210625/1009351-light/run1009351-light.h5 tag-1491323004//
/work/sebastian/BT-20210625/1009351-light/run1009351-light.h5 tag-1491323006//
/work/sebastian/BT-20210625/1009351-light/run1009351-light.h5 tag-1491323008//
/work/sebastian/BT-20210625/1009351-light/run1009351-light.h5 tag-1491323012//
/work/sebastian/BT-20210625/1009351-light/run1009351-light.h5 tag-1491323016//
/work/sebastian/BT-20210625/1009351-light/run1009351-light.h5 tag-1491323018//
/work/sebastian/BT-20210625/1009351-light/run1009351-light.h5 tag-1491323020//
/work/sebastian/BT-20210625/1009351-light/run1009351-light.h5 tag-1491323026//
/work/sebastian/BT-20210625/1009351-light/run1009351-light.h5 tag-1491323034//
/work/sebastian/BT-20210625/1009351-light/run1009351-light.h5 tag-1491323036//
/work/sebastian/BT-20210625/1009351-light/run1009351-light.h5 tag-1491323040//
/work/sebastian/BT-20210625/1009351-light/run1009351-light.h5 tag-1491323044//
/work/sebastian/BT-20210625/1009351-light/run1009351-light.h5 tag-1491323046//
/work/sebastian/BT-20210625/1009351-light/run1009351-light.h5 tag-1491323048//
/work/sebastian/BT-20210625/1009351-light/run1009351-light.h5 tag-1491323056//
/work/sebastian/BT-20210625/1009351-light/run1009351-light.h5 tag-1491323058//
/work/sebastian/BT-20210625/1009351-light/run1009351-light.h5 tag-1491323060//
/work/sebastian/BT-20210625/1009351-light/run1009351-light.h5 tag-1491323066//
/work/sebastian/BT-20210625/1009351-light/run1009351-light.h5 tag-1491323068//
/work/sebastian/BT-20210625/1009351-light/run1009351-light.h5 tag-1491323070//
/work/sebastian/BT-20210625/1009351-light/run1009351-light.h5 tag-1491323074//
/work/sebastian/BT-20210625/1009351-light/run1009351-light.h5 tag-1491323076//
/work/sebastian/BT-20210625/1009351-light/run1009351-light.h5 tag-1491323080//
/work/sebastian/BT-20210625/1009351-light/run1009351-light.h5 tag-1491323082//
/work/sebastian/BT-20210625/1009351-light/run1009351-light.h5 tag-1491323084//
/work/sebastian/BT-20210625/1009351-light/run1009351-light.h5 tag-1491323090//
/work/sebastian/BT-20210625/1009351-light/run1009351-light.h5 tag-1491323094//
/work/sebastian/BT-20210625/1009351-light/run1009351-light.h5 tag-1491323096//
/work/sebastian/BT-20210625/1009351-light/run1009351-light.h5 tag-1491323098//
/work/sebastian/BT-20210625/1009351-light/run1009351-light.h5 tag-1491323100//
/work/sebastian/BT-20210625/1009351-light/run1009351-light.h5 tag-1491323102//
/work/sebastian/BT-20210625/1009351-light/run1009351-light.h5 tag-1491323104//
/work/sebastian/BT-20210625/1009351-light/run1009351-light.h5 tag-1491323106//
/work/sebastian/BT-20210625/1009351-light/run1009351-light.h5 tag-1491323110//
/work/sebastian/BT-20210625/1009351-light/run1009351-light.h5 tag-1491323118//
/work/sebastian/BT-20210625/1009351-light/run1009351-light.h5 tag-1491323120//
/work/sebastian/BT-20210625/1009351-light/run1009351-light.h5 tag-1491323122//
/work/sebastian/BT-20210625/1009351-light/run1009351-light.h5 tag-1491323128//
/work/sebastian/BT-20210625/1009351-light/run1009351-light.h5 tag-1491323134//
/work/sebastian/BT-20210625/1009351-light/run1009351-light.h5 tag-1491323140//
/work/sebastian/BT-20210625/1009351-light/run1009351-light.h5 tag-1491323142//
/work/sebastian/BT-20210625/1009351-light/run1009351-light.h5 tag-1491323152//
/work/sebastian/BT-20210625/1009351-light/run1009351-light.h5 tag-1491323156//
/work/sebastian/BT-20210625/1009351-light/run1009351-light.h5 tag-1491323158//
/work/sebastian/BT-20210625/1009351-light/run1009351-light.h5 tag-1491323166//
/work/sebastian/BT-20210625/1009351-light/run1009351-light.h5 tag-1491323168//
/work/sebastian/BT-20210625/1009351-light/run1009351-light.h5 tag-1491323172//
/work/sebastian/BT-20210625/1009351-light/run1009351-light.h5 tag-1491323176//
/work/sebastian/BT-20210625/1009351-light/run1009351-light.h5 tag-1491323180//
/work/sebastian/BT-20210625/1009351-light/run1009351-light.h5 tag-1491323182//
/work/sebastian/BT-20210625/1009351-light/run1009351-light.h5 tag-1491323184//
/work/sebastian/BT-20210625/1009351-light/run1009351-light.h5 tag-1491323188//
/work/sebastian/BT-20210625/1009351-light/run1009351-light.h5 tag-1491323192//
/work/sebastian/BT-20210625/1009351-light/run1009351-light.h5 tag-1491323194//
/work/sebastian/BT-20210625/1009351-light/run1009351-light.h5 tag-1491323196//
/work/sebastian/BT-20210625/1009351-light/run1009351-light.h5 tag-1491323198//
/work/sebastian/BT-20210625/1009351-light/run1009351-light.h5 tag-1491323202//
/work/sebastian/BT-20210625/1009351-light/run1009351-light.h5 tag-1491323204//
/work/sebastian/BT-20210625/1009351-light/run1009351-light.h5 tag-1491323206//
/work/sebastian/BT-20210625/1009351-light/run1009351-light.h5 tag-1491323208//
/work/sebastian/BT-20210625/1009351-light/run1009351-light.h5 tag-1491323210//
/work/sebastian/BT-20210625/1009351-light/run1009351-light.h5 tag-1491323212//
/work/sebastian/BT-20210625/1009351-light/run1009351-light.h5 tag-1491323214//
/work/sebastian/BT-20210625/1009351-light/run1009351-light.h5 tag-1491323216//
/work/sebastian/BT-20210625/1009351-light/run1009351-light.h5 tag-1491323218//
/work/sebastian/BT-20210625/1009351-light/run1009351-light.h5 tag-1491323222//
/work/sebastian/BT-20210625/1009351-light/run1009351-light.h5 tag-1491323224//
/work/sebastian/BT-20210625/1009351-light/run1009351-light.h5 tag-1491323228//
/work/sebastian/BT-20210625/1009351-light/run1009351-light.h5 tag-1491323238//
/work/sebastian/BT-20210625/1009351-light/run1009351-light.h5 tag-1491323240//
/work/sebastian/BT-20210625/1009351-light/run1009351-light.h5 tag-1491323242//
/work/sebastian/BT-20210625/1009351-light/run1009351-light.h5 tag-1491323252//
/work/sebastian/BT-20210625/1009351-light/run1009351-light.h5 tag-1491323256//
/work/sebastian/BT-20210625/1009351-light/run1009351-light.h5 tag-1491323260//
/work/sebastian/BT-20210625/1009351-light/run1009351-light.h5 tag-1491323262//
/work/sebastian/BT-20210625/1009351-light/run1009351-light.h5 tag-1491323264//
/work/sebastian/BT-20210625/1009351-light/run1009351-light.h5 tag-1491323266//
/work/sebastian/BT-20210625/1009351-light/run1009351-light.h5 tag-1491323270//
/work/sebastian/BT-20210625/1009351-light/run1009351-light.h5 tag-1491323272//
/work/sebastian/BT-20210625/1009351-light/run1009351-light.h5 tag-1491323274//
/work/sebastian/BT-20210625/1009351-light/run1009351-light.h5 tag-1491323288//
/work/sebastian/BT-20210625/1009351-light/run1009351-light.h5 tag-1491323290//
/work/sebastian/BT-20210625/1009351-light/run1009351-light.h5 tag-1491323292//
/work/sebastian/BT-20210625/1009351-light/run1009351-light.h5 tag-1491323294//
/work/sebastian/BT-20210625/1009351-light/run1009351-light.h5 tag-1491323298//
/work/sebastian/BT-20210625/1009351-light/run1009351-light.h5 tag-1491323302//
/work/sebastian/BT-20210625/1009351-light/run1009351-light.h5 tag-1491323306//
/work/sebastian/BT-20210625/1009351-light/run1009351-light.h5 tag-1491323308//
/work/sebastian/BT-20210625/1009351-light/run1009351-light.h5 tag-1491323310//
/work/sebastian/BT-20210625/1009351-light/run1009351-light.h5 tag-1491323314//
/work/sebastian/BT-20210625/1009351-light/run1009351-light.h5 tag-1491323316//
/work/sebastian/BT-20210625/1009351-light/run1009351-light.h5 tag-1491323328//
/work/sebastian/BT-20210625/1009351-light/run1009351-light.h5 tag-1491323334//
/work/sebastian/BT-20210625/1009351-light/run1009351-light.h5 tag-1491323338//
/work/sebastian/BT-20210625/1009351-light/run1009351-light.h5 tag-1491323340//
/work/sebastian/BT-20210625/1009351-light/run1009351-light.h5 tag-1491323342//
/work/sebastian/BT-20210625/1009351-light/run1009351-light.h5 tag-1491323348//
/work/sebastian/BT-20210625/1009351-light/run1009351-light.h5 tag-1491323350//
/work/sebastian/BT-20210625/1009351-light/run1009351-light.h5 tag-1491323352//
/work/sebastian/BT-20210625/1009351-light/run1009351-light.h5 tag-1491323354//
/work/sebastian/BT-20210625/1009351-light/run1009351-light.h5 tag-1491323356//
/work/sebastian/BT-20210625/1009351-light/run1009351-light.h5 tag-1491323358//
/work/sebastian/BT-20210625/1009351-light/run1009351-light.h5 tag-1491323360//
/work/sebastian/BT-20210625/1009351-light/run1009351-light.h5 tag-1491323364//
/work/sebastian/BT-20210625/1009351-light/run1009351-light.h5 tag-1491323366//
/work/sebastian/BT-20210625/1009351-light/run1009351-light.h5 tag-1491323372//
/work/sebastian/BT-20210625/1009351-light/run1009351-light.h5 tag-1491323378//
/work/sebastian/BT-20210625/1009351-light/run1009351-light.h5 tag-1491323380//
/work/sebastian/BT-20210625/1009351-light/run1009351-light.h5 tag-1491323382//
/work/sebastian/BT-20210625/1009351-light/run1009351-light.h5 tag-1491323386//
/work/sebastian/BT-20210625/1009351-light/run1009351-light.h5 tag-1491323388//
/work/sebastian/BT-20210625/1009351-light/run1009351-light.h5 tag-1491323392//
/work/sebastian/BT-20210625/1009351-light/run1009351-light.h5 tag-1491323400//
/work/sebastian/BT-20210625/1009351-light/run1009351-light.h5 tag-1491323402//
/work/sebastian/BT-20210625/1009351-light/run1009351-light.h5 tag-1491323404//
/work/sebastian/BT-20210625/1009351-light/run1009351-light.h5 tag-1491323410//
/work/sebastian/BT-20210625/1009351-light/run1009351-light.h5 tag-1491323414//
/work/sebastian/BT-20210625/1009351-light/run1009351-light.h5 tag-1491323418//
/work/sebastian/BT-20210625/1009351-light/run1009351-light.h5 tag-1491323420//
/work/sebastian/BT-20210625/1009351-light/run1009351-light.h5 tag-1491323424//
/work/sebastian/BT-20210625/1009351-light/run1009351-light.h5 tag-1491323428//
/work/sebastian/BT-20210625/1009351-light/run1009351-light.h5 tag-1491323430//
/work/sebastian/BT-20210625/1009351-light/run1009351-light.h5 tag-1491323434//
/work/sebastian/BT-20210625/1009351-light/run1009351-light.h5 tag-1491323436//
/work/sebastian/BT-20210625/1009351-light/run1009351-light.h5 tag-1491323438//
/work/sebastian/BT-20210625/1009351-light/run1009351-light.h5 tag-1491323444//
/work/sebastian/BT-20210625/1009351-light/run1009351-light.h5 tag-1491323446//
/work/sebastian/BT-20210625/1009351-light/run1009351-light.h5 tag-1491323448//
/work/sebastian/BT-20210625/1009351-light/run1009351-light.h5 tag-1491323450//
/work/sebastian/BT-20210625/1009351-light/run1009351-light.h5 tag-1491323452//
/work/sebastian/BT-20210625/1009351-light/run1009351-light.h5 tag-1491323454//
/work/sebastian/BT-20210625/1009351-light/run1009351-light.h5 tag-1491323456//
/work/sebastian/BT-20210625/1009351-light/run1009351-light.h5 tag-1491323458//
/work/sebastian/BT-20210625/1009351-light/run1009351-light.h5 tag-1491323460//
/work/sebastian/BT-20210625/1009351-light/run1009351-light.h5 tag-1491323462//
/work/sebastian/BT-20210625/1009351-light/run1009351-light.h5 tag-1491323468//
/work/sebastian/BT-20210625/1009351-light/run1009351-light.h5 tag-1491323480//
/work/sebastian/BT-20210625/1009351-light/run1009351-light.h5 tag-1491323482//
/work/sebastian/BT-20210625/1009351-light/run1009351-light.h5 tag-1491323484//
/work/sebastian/BT-20210625/1009351-light/run1009351-light.h5 tag-1491323486//
/work/sebastian/BT-20210625/1009351-light/run1009351-light.h5 tag-1491323488//
/work/sebastian/BT-20210625/1009351-light/run1009351-light.h5 tag-1491323490//
/work/sebastian/BT-20210625/1009351-light/run1009351-light.h5 tag-1491323492//
/work/sebastian/BT-20210625/1009351-light/run1009351-light.h5 tag-1491323494//
/work/sebastian/BT-20210625/1009351-light/run1009351-light.h5 tag-1491323496//
/work/sebastian/BT-20210625/1009351-light/run1009351-light.h5 tag-1491323500//
/work/sebastian/BT-20210625/1009351-light/run1009351-light.h5 tag-1491323508//
/work/sebastian/BT-20210625/1009351-light/run1009351-light.h5 tag-1491323514//
/work/sebastian/BT-20210625/1009351-light/run1009351-light.h5 tag-1491323516//
/work/sebastian/BT-20210625/1009351-light/run1009351-light.h5 tag-1491323518//
/work/sebastian/BT-20210625/1009351-light/run1009351-light.h5 tag-1491323520//
/work/sebastian/BT-20210625/1009351-light/run1009351-light.h5 tag-1491323522//
/work/sebastian/BT-20210625/1009351-light/run1009351-light.h5 tag-1491323526//
/work/sebastian/BT-20210625/1009351-light/run1009351-light.h5 tag-1491323528//
/work/sebastian/BT-20210625/1009351-light/run1009351-light.h5 tag-1491323534//
/work/sebastian/BT-20210625/1009351-light/run1009351-light.h5 tag-1491323538//
/work/sebastian/BT-20210625/1009351-light/run1009351-light.h5 tag-1491323542//
/work/sebastian/BT-20210625/1009351-light/run1009351-light.h5 tag-1491323544//
/work/sebastian/BT-20210625/1009351-light/run1009351-light.h5 tag-1491323546//
/work/sebastian/BT-20210625/1009351-light/run1009351-light.h5 tag-1491323550//
/work/sebastian/BT-20210625/1009351-light/run1009351-light.h5 tag-1491323552//
/work/sebastian/BT-20210625/1009351-light/run1009351-light.h5 tag-1491323554//
/work/sebastian/BT-20210625/1009351-light/run1009351-light.h5 tag-1491323556//
/work/sebastian/BT-20210625/1009351-light/run1009351-light.h5 tag-1491323558//
/work/sebastian/BT-20210625/1009351-light/run1009351-light.h5 tag-1491323560//
/work/sebastian/BT-20210625/1009351-light/run1009351-light.h5 tag-1491323562//
/work/sebastian/BT-20210625/1009351-light/run1009351-light.h5 tag-1491323566//
/work/sebastian/BT-20210625/1009351-light/run1009351-light.h5 tag-1491323568//
/work/sebastian/BT-20210625/1009351-light/run1009351-light.h5 tag-1491323574//
