/work/sebastian/BT-20210625/1009834-light/run1009834-light.h5 tag-1497136970//
/work/sebastian/BT-20210625/1009834-light/run1009834-light.h5 tag-1497136974//
/work/sebastian/BT-20210625/1009834-light/run1009834-light.h5 tag-1497136978//
/work/sebastian/BT-20210625/1009834-light/run1009834-light.h5 tag-1497136980//
/work/sebastian/BT-20210625/1009834-light/run1009834-light.h5 tag-1497136984//
/work/sebastian/BT-20210625/1009834-light/run1009834-light.h5 tag-1497136986//
/work/sebastian/BT-20210625/1009834-light/run1009834-light.h5 tag-1497136988//
/work/sebastian/BT-20210625/1009834-light/run1009834-light.h5 tag-1497136990//
/work/sebastian/BT-20210625/1009834-light/run1009834-light.h5 tag-1497136992//
/work/sebastian/BT-20210625/1009834-light/run1009834-light.h5 tag-1497136994//
/work/sebastian/BT-20210625/1009834-light/run1009834-light.h5 tag-1497136996//
/work/sebastian/BT-20210625/1009834-light/run1009834-light.h5 tag-1497136998//
/work/sebastian/BT-20210625/1009834-light/run1009834-light.h5 tag-1497137000//
/work/sebastian/BT-20210625/1009834-light/run1009834-light.h5 tag-1497137004//
/work/sebastian/BT-20210625/1009834-light/run1009834-light.h5 tag-1497137006//
/work/sebastian/BT-20210625/1009834-light/run1009834-light.h5 tag-1497137008//
/work/sebastian/BT-20210625/1009834-light/run1009834-light.h5 tag-1497137010//
/work/sebastian/BT-20210625/1009834-light/run1009834-light.h5 tag-1497137012//
/work/sebastian/BT-20210625/1009834-light/run1009834-light.h5 tag-1497137014//
/work/sebastian/BT-20210625/1009834-light/run1009834-light.h5 tag-1497137016//
/work/sebastian/BT-20210625/1009834-light/run1009834-light.h5 tag-1497137020//
/work/sebastian/BT-20210625/1009834-light/run1009834-light.h5 tag-1497137022//
/work/sebastian/BT-20210625/1009834-light/run1009834-light.h5 tag-1497137024//
/work/sebastian/BT-20210625/1009834-light/run1009834-light.h5 tag-1497137028//
/work/sebastian/BT-20210625/1009834-light/run1009834-light.h5 tag-1497137030//
/work/sebastian/BT-20210625/1009834-light/run1009834-light.h5 tag-1497137036//
/work/sebastian/BT-20210625/1009834-light/run1009834-light.h5 tag-1497137038//
/work/sebastian/BT-20210625/1009834-light/run1009834-light.h5 tag-1497137042//
/work/sebastian/BT-20210625/1009834-light/run1009834-light.h5 tag-1497137044//
/work/sebastian/BT-20210625/1009834-light/run1009834-light.h5 tag-1497137046//
/work/sebastian/BT-20210625/1009834-light/run1009834-light.h5 tag-1497137048//
/work/sebastian/BT-20210625/1009834-light/run1009834-light.h5 tag-1497137050//
/work/sebastian/BT-20210625/1009834-light/run1009834-light.h5 tag-1497137056//
/work/sebastian/BT-20210625/1009834-light/run1009834-light.h5 tag-1497137058//
/work/sebastian/BT-20210625/1009834-light/run1009834-light.h5 tag-1497137062//
/work/sebastian/BT-20210625/1009834-light/run1009834-light.h5 tag-1497137064//
/work/sebastian/BT-20210625/1009834-light/run1009834-light.h5 tag-1497137068//
/work/sebastian/BT-20210625/1009834-light/run1009834-light.h5 tag-1497137072//
/work/sebastian/BT-20210625/1009834-light/run1009834-light.h5 tag-1497137074//
/work/sebastian/BT-20210625/1009834-light/run1009834-light.h5 tag-1497137076//
/work/sebastian/BT-20210625/1009834-light/run1009834-light.h5 tag-1497137080//
/work/sebastian/BT-20210625/1009834-light/run1009834-light.h5 tag-1497137084//
/work/sebastian/BT-20210625/1009834-light/run1009834-light.h5 tag-1497137086//
/work/sebastian/BT-20210625/1009834-light/run1009834-light.h5 tag-1497137088//
/work/sebastian/BT-20210625/1009834-light/run1009834-light.h5 tag-1497137090//
/work/sebastian/BT-20210625/1009834-light/run1009834-light.h5 tag-1497137092//
/work/sebastian/BT-20210625/1009834-light/run1009834-light.h5 tag-1497137094//
/work/sebastian/BT-20210625/1009834-light/run1009834-light.h5 tag-1497137096//
/work/sebastian/BT-20210625/1009834-light/run1009834-light.h5 tag-1497137098//
/work/sebastian/BT-20210625/1009834-light/run1009834-light.h5 tag-1497137100//
/work/sebastian/BT-20210625/1009834-light/run1009834-light.h5 tag-1497137104//
/work/sebastian/BT-20210625/1009834-light/run1009834-light.h5 tag-1497137112//
/work/sebastian/BT-20210625/1009834-light/run1009834-light.h5 tag-1497137114//
/work/sebastian/BT-20210625/1009834-light/run1009834-light.h5 tag-1497137116//
/work/sebastian/BT-20210625/1009834-light/run1009834-light.h5 tag-1497137122//
/work/sebastian/BT-20210625/1009834-light/run1009834-light.h5 tag-1497137124//
/work/sebastian/BT-20210625/1009834-light/run1009834-light.h5 tag-1497137130//
/work/sebastian/BT-20210625/1009834-light/run1009834-light.h5 tag-1497137132//
/work/sebastian/BT-20210625/1009834-light/run1009834-light.h5 tag-1497137134//
/work/sebastian/BT-20210625/1009834-light/run1009834-light.h5 tag-1497137136//
/work/sebastian/BT-20210625/1009834-light/run1009834-light.h5 tag-1497137140//
/work/sebastian/BT-20210625/1009834-light/run1009834-light.h5 tag-1497137142//
/work/sebastian/BT-20210625/1009834-light/run1009834-light.h5 tag-1497137144//
/work/sebastian/BT-20210625/1009834-light/run1009834-light.h5 tag-1497137146//
/work/sebastian/BT-20210625/1009834-light/run1009834-light.h5 tag-1497137148//
/work/sebastian/BT-20210625/1009834-light/run1009834-light.h5 tag-1497137150//
/work/sebastian/BT-20210625/1009834-light/run1009834-light.h5 tag-1497137154//
/work/sebastian/BT-20210625/1009834-light/run1009834-light.h5 tag-1497137156//
/work/sebastian/BT-20210625/1009834-light/run1009834-light.h5 tag-1497137158//
/work/sebastian/BT-20210625/1009834-light/run1009834-light.h5 tag-1497137160//
/work/sebastian/BT-20210625/1009834-light/run1009834-light.h5 tag-1497137162//
/work/sebastian/BT-20210625/1009834-light/run1009834-light.h5 tag-1497137164//
/work/sebastian/BT-20210625/1009834-light/run1009834-light.h5 tag-1497137166//
/work/sebastian/BT-20210625/1009834-light/run1009834-light.h5 tag-1497137170//
/work/sebastian/BT-20210625/1009834-light/run1009834-light.h5 tag-1497137172//
/work/sebastian/BT-20210625/1009834-light/run1009834-light.h5 tag-1497137174//
/work/sebastian/BT-20210625/1009834-light/run1009834-light.h5 tag-1497137176//
/work/sebastian/BT-20210625/1009834-light/run1009834-light.h5 tag-1497137180//
/work/sebastian/BT-20210625/1009834-light/run1009834-light.h5 tag-1497137184//
/work/sebastian/BT-20210625/1009834-light/run1009834-light.h5 tag-1497137186//
/work/sebastian/BT-20210625/1009834-light/run1009834-light.h5 tag-1497137190//
/work/sebastian/BT-20210625/1009834-light/run1009834-light.h5 tag-1497137194//
/work/sebastian/BT-20210625/1009834-light/run1009834-light.h5 tag-1497137200//
/work/sebastian/BT-20210625/1009834-light/run1009834-light.h5 tag-1497137204//
/work/sebastian/BT-20210625/1009834-light/run1009834-light.h5 tag-1497137206//
/work/sebastian/BT-20210625/1009834-light/run1009834-light.h5 tag-1497137208//
/work/sebastian/BT-20210625/1009834-light/run1009834-light.h5 tag-1497137210//
/work/sebastian/BT-20210625/1009834-light/run1009834-light.h5 tag-1497137212//
/work/sebastian/BT-20210625/1009834-light/run1009834-light.h5 tag-1497137214//
/work/sebastian/BT-20210625/1009834-light/run1009834-light.h5 tag-1497137218//
/work/sebastian/BT-20210625/1009834-light/run1009834-light.h5 tag-1497137220//
/work/sebastian/BT-20210625/1009834-light/run1009834-light.h5 tag-1497137224//
/work/sebastian/BT-20210625/1009834-light/run1009834-light.h5 tag-1497137226//
/work/sebastian/BT-20210625/1009834-light/run1009834-light.h5 tag-1497137228//
/work/sebastian/BT-20210625/1009834-light/run1009834-light.h5 tag-1497137232//
/work/sebastian/BT-20210625/1009834-light/run1009834-light.h5 tag-1497137236//
/work/sebastian/BT-20210625/1009834-light/run1009834-light.h5 tag-1497137244//
/work/sebastian/BT-20210625/1009834-light/run1009834-light.h5 tag-1497137246//
/work/sebastian/BT-20210625/1009834-light/run1009834-light.h5 tag-1497137250//
/work/sebastian/BT-20210625/1009834-light/run1009834-light.h5 tag-1497137252//
/work/sebastian/BT-20210625/1009834-light/run1009834-light.h5 tag-1497137254//
/work/sebastian/BT-20210625/1009834-light/run1009834-light.h5 tag-1497137258//
/work/sebastian/BT-20210625/1009834-light/run1009834-light.h5 tag-1497137260//
/work/sebastian/BT-20210625/1009834-light/run1009834-light.h5 tag-1497137262//
/work/sebastian/BT-20210625/1009834-light/run1009834-light.h5 tag-1497137264//
/work/sebastian/BT-20210625/1009834-light/run1009834-light.h5 tag-1497137266//
/work/sebastian/BT-20210625/1009834-light/run1009834-light.h5 tag-1497137268//
/work/sebastian/BT-20210625/1009834-light/run1009834-light.h5 tag-1497137270//
/work/sebastian/BT-20210625/1009834-light/run1009834-light.h5 tag-1497137272//
/work/sebastian/BT-20210625/1009834-light/run1009834-light.h5 tag-1497137274//
/work/sebastian/BT-20210625/1009834-light/run1009834-light.h5 tag-1497137276//
/work/sebastian/BT-20210625/1009834-light/run1009834-light.h5 tag-1497137278//
/work/sebastian/BT-20210625/1009834-light/run1009834-light.h5 tag-1497137280//
/work/sebastian/BT-20210625/1009834-light/run1009834-light.h5 tag-1497137284//
/work/sebastian/BT-20210625/1009834-light/run1009834-light.h5 tag-1497137286//
/work/sebastian/BT-20210625/1009834-light/run1009834-light.h5 tag-1497137290//
/work/sebastian/BT-20210625/1009834-light/run1009834-light.h5 tag-1497137294//
/work/sebastian/BT-20210625/1009834-light/run1009834-light.h5 tag-1497137296//
/work/sebastian/BT-20210625/1009834-light/run1009834-light.h5 tag-1497137298//
/work/sebastian/BT-20210625/1009834-light/run1009834-light.h5 tag-1497137300//
/work/sebastian/BT-20210625/1009834-light/run1009834-light.h5 tag-1497137302//
/work/sebastian/BT-20210625/1009834-light/run1009834-light.h5 tag-1497137304//
/work/sebastian/BT-20210625/1009834-light/run1009834-light.h5 tag-1497137308//
/work/sebastian/BT-20210625/1009834-light/run1009834-light.h5 tag-1497137310//
/work/sebastian/BT-20210625/1009834-light/run1009834-light.h5 tag-1497137312//
/work/sebastian/BT-20210625/1009834-light/run1009834-light.h5 tag-1497137316//
/work/sebastian/BT-20210625/1009834-light/run1009834-light.h5 tag-1497137318//
/work/sebastian/BT-20210625/1009834-light/run1009834-light.h5 tag-1497137324//
/work/sebastian/BT-20210625/1009834-light/run1009834-light.h5 tag-1497137328//
/work/sebastian/BT-20210625/1009834-light/run1009834-light.h5 tag-1497137330//
/work/sebastian/BT-20210625/1009834-light/run1009834-light.h5 tag-1497137332//
/work/sebastian/BT-20210625/1009834-light/run1009834-light.h5 tag-1497137334//
/work/sebastian/BT-20210625/1009834-light/run1009834-light.h5 tag-1497137336//
/work/sebastian/BT-20210625/1009834-light/run1009834-light.h5 tag-1497137340//
/work/sebastian/BT-20210625/1009834-light/run1009834-light.h5 tag-1497137342//
/work/sebastian/BT-20210625/1009834-light/run1009834-light.h5 tag-1497137344//
/work/sebastian/BT-20210625/1009834-light/run1009834-light.h5 tag-1497137346//
/work/sebastian/BT-20210625/1009834-light/run1009834-light.h5 tag-1497137348//
/work/sebastian/BT-20210625/1009834-light/run1009834-light.h5 tag-1497137350//
/work/sebastian/BT-20210625/1009834-light/run1009834-light.h5 tag-1497137352//
/work/sebastian/BT-20210625/1009834-light/run1009834-light.h5 tag-1497137354//
/work/sebastian/BT-20210625/1009834-light/run1009834-light.h5 tag-1497137358//
/work/sebastian/BT-20210625/1009834-light/run1009834-light.h5 tag-1497137364//
/work/sebastian/BT-20210625/1009834-light/run1009834-light.h5 tag-1497137366//
/work/sebastian/BT-20210625/1009834-light/run1009834-light.h5 tag-1497137368//
/work/sebastian/BT-20210625/1009834-light/run1009834-light.h5 tag-1497137370//
/work/sebastian/BT-20210625/1009834-light/run1009834-light.h5 tag-1497137374//
/work/sebastian/BT-20210625/1009834-light/run1009834-light.h5 tag-1497137376//
/work/sebastian/BT-20210625/1009834-light/run1009834-light.h5 tag-1497137384//
/work/sebastian/BT-20210625/1009834-light/run1009834-light.h5 tag-1497137388//
/work/sebastian/BT-20210625/1009834-light/run1009834-light.h5 tag-1497137390//
/work/sebastian/BT-20210625/1009834-light/run1009834-light.h5 tag-1497137392//
/work/sebastian/BT-20210625/1009834-light/run1009834-light.h5 tag-1497137396//
/work/sebastian/BT-20210625/1009834-light/run1009834-light.h5 tag-1497137398//
/work/sebastian/BT-20210625/1009834-light/run1009834-light.h5 tag-1497137400//
/work/sebastian/BT-20210625/1009834-light/run1009834-light.h5 tag-1497137404//
/work/sebastian/BT-20210625/1009834-light/run1009834-light.h5 tag-1497137406//
/work/sebastian/BT-20210625/1009834-light/run1009834-light.h5 tag-1497137408//
/work/sebastian/BT-20210625/1009834-light/run1009834-light.h5 tag-1497137410//
/work/sebastian/BT-20210625/1009834-light/run1009834-light.h5 tag-1497137412//
/work/sebastian/BT-20210625/1009834-light/run1009834-light.h5 tag-1497137416//
/work/sebastian/BT-20210625/1009834-light/run1009834-light.h5 tag-1497137420//
/work/sebastian/BT-20210625/1009834-light/run1009834-light.h5 tag-1497137424//
/work/sebastian/BT-20210625/1009834-light/run1009834-light.h5 tag-1497137426//
/work/sebastian/BT-20210625/1009834-light/run1009834-light.h5 tag-1497137432//
/work/sebastian/BT-20210625/1009834-light/run1009834-light.h5 tag-1497137438//
/work/sebastian/BT-20210625/1009834-light/run1009834-light.h5 tag-1497137440//
/work/sebastian/BT-20210625/1009834-light/run1009834-light.h5 tag-1497137442//
/work/sebastian/BT-20210625/1009834-light/run1009834-light.h5 tag-1497137444//
/work/sebastian/BT-20210625/1009834-light/run1009834-light.h5 tag-1497137446//
/work/sebastian/BT-20210625/1009834-light/run1009834-light.h5 tag-1497137450//
/work/sebastian/BT-20210625/1009834-light/run1009834-light.h5 tag-1497137452//
/work/sebastian/BT-20210625/1009834-light/run1009834-light.h5 tag-1497137454//
/work/sebastian/BT-20210625/1009834-light/run1009834-light.h5 tag-1497137458//
/work/sebastian/BT-20210625/1009834-light/run1009834-light.h5 tag-1497137460//
/work/sebastian/BT-20210625/1009834-light/run1009834-light.h5 tag-1497137466//
/work/sebastian/BT-20210625/1009834-light/run1009834-light.h5 tag-1497137468//
/work/sebastian/BT-20210625/1009834-light/run1009834-light.h5 tag-1497137470//
/work/sebastian/BT-20210625/1009834-light/run1009834-light.h5 tag-1497137472//
/work/sebastian/BT-20210625/1009834-light/run1009834-light.h5 tag-1497137474//
/work/sebastian/BT-20210625/1009834-light/run1009834-light.h5 tag-1497137478//
/work/sebastian/BT-20210625/1009834-light/run1009834-light.h5 tag-1497137480//
/work/sebastian/BT-20210625/1009834-light/run1009834-light.h5 tag-1497137482//
/work/sebastian/BT-20210625/1009834-light/run1009834-light.h5 tag-1497137484//
/work/sebastian/BT-20210625/1009834-light/run1009834-light.h5 tag-1497137486//
/work/sebastian/BT-20210625/1009834-light/run1009834-light.h5 tag-1497137488//
/work/sebastian/BT-20210625/1009834-light/run1009834-light.h5 tag-1497137490//
/work/sebastian/BT-20210625/1009834-light/run1009834-light.h5 tag-1497137494//
/work/sebastian/BT-20210625/1009834-light/run1009834-light.h5 tag-1497137496//
/work/sebastian/BT-20210625/1009834-light/run1009834-light.h5 tag-1497137498//
/work/sebastian/BT-20210625/1009834-light/run1009834-light.h5 tag-1497137502//
/work/sebastian/BT-20210625/1009834-light/run1009834-light.h5 tag-1497137504//
/work/sebastian/BT-20210625/1009834-light/run1009834-light.h5 tag-1497137506//
/work/sebastian/BT-20210625/1009834-light/run1009834-light.h5 tag-1497137510//
/work/sebastian/BT-20210625/1009834-light/run1009834-light.h5 tag-1497137516//
/work/sebastian/BT-20210625/1009834-light/run1009834-light.h5 tag-1497137518//
/work/sebastian/BT-20210625/1009834-light/run1009834-light.h5 tag-1497137520//
/work/sebastian/BT-20210625/1009834-light/run1009834-light.h5 tag-1497137522//
/work/sebastian/BT-20210625/1009834-light/run1009834-light.h5 tag-1497137524//
/work/sebastian/BT-20210625/1009834-light/run1009834-light.h5 tag-1497137534//
/work/sebastian/BT-20210625/1009834-light/run1009834-light.h5 tag-1497137536//
/work/sebastian/BT-20210625/1009834-light/run1009834-light.h5 tag-1497137540//
/work/sebastian/BT-20210625/1009834-light/run1009834-light.h5 tag-1497137544//
/work/sebastian/BT-20210625/1009834-light/run1009834-light.h5 tag-1497137548//
/work/sebastian/BT-20210625/1009834-light/run1009834-light.h5 tag-1497137550//
/work/sebastian/BT-20210625/1009834-light/run1009834-light.h5 tag-1497137552//
/work/sebastian/BT-20210625/1009834-light/run1009834-light.h5 tag-1497137556//
/work/sebastian/BT-20210625/1009834-light/run1009834-light.h5 tag-1497137558//
/work/sebastian/BT-20210625/1009834-light/run1009834-light.h5 tag-1497137560//
/work/sebastian/BT-20210625/1009834-light/run1009834-light.h5 tag-1497137562//
/work/sebastian/BT-20210625/1009834-light/run1009834-light.h5 tag-1497137566//
/work/sebastian/BT-20210625/1009834-light/run1009834-light.h5 tag-1497137568//
/work/sebastian/BT-20210625/1009834-light/run1009834-light.h5 tag-1497137570//
/work/sebastian/BT-20210625/1009834-light/run1009834-light.h5 tag-1497137572//
/work/sebastian/BT-20210625/1009834-light/run1009834-light.h5 tag-1497137574//
/work/sebastian/BT-20210625/1009834-light/run1009834-light.h5 tag-1497137578//
/work/sebastian/BT-20210625/1009834-light/run1009834-light.h5 tag-1497137580//
/work/sebastian/BT-20210625/1009834-light/run1009834-light.h5 tag-1497137584//
/work/sebastian/BT-20210625/1009834-light/run1009834-light.h5 tag-1497137592//
/work/sebastian/BT-20210625/1009834-light/run1009834-light.h5 tag-1497137596//
/work/sebastian/BT-20210625/1009834-light/run1009834-light.h5 tag-1497137598//
/work/sebastian/BT-20210625/1009834-light/run1009834-light.h5 tag-1497137604//
/work/sebastian/BT-20210625/1009834-light/run1009834-light.h5 tag-1497137608//
/work/sebastian/BT-20210625/1009834-light/run1009834-light.h5 tag-1497137610//
/work/sebastian/BT-20210625/1009834-light/run1009834-light.h5 tag-1497137614//
/work/sebastian/BT-20210625/1009834-light/run1009834-light.h5 tag-1497137616//
/work/sebastian/BT-20210625/1009834-light/run1009834-light.h5 tag-1497137618//
/work/sebastian/BT-20210625/1009834-light/run1009834-light.h5 tag-1497137620//
/work/sebastian/BT-20210625/1009834-light/run1009834-light.h5 tag-1497137622//
/work/sebastian/BT-20210625/1009834-light/run1009834-light.h5 tag-1497137624//
/work/sebastian/BT-20210625/1009834-light/run1009834-light.h5 tag-1497137626//
/work/sebastian/BT-20210625/1009834-light/run1009834-light.h5 tag-1497137628//
/work/sebastian/BT-20210625/1009834-light/run1009834-light.h5 tag-1497137630//
/work/sebastian/BT-20210625/1009834-light/run1009834-light.h5 tag-1497137634//
/work/sebastian/BT-20210625/1009834-light/run1009834-light.h5 tag-1497137638//
/work/sebastian/BT-20210625/1009834-light/run1009834-light.h5 tag-1497137642//
/work/sebastian/BT-20210625/1009834-light/run1009834-light.h5 tag-1497137644//
/work/sebastian/BT-20210625/1009834-light/run1009834-light.h5 tag-1497137646//
/work/sebastian/BT-20210625/1009834-light/run1009834-light.h5 tag-1497137648//
/work/sebastian/BT-20210625/1009834-light/run1009834-light.h5 tag-1497137650//
/work/sebastian/BT-20210625/1009834-light/run1009834-light.h5 tag-1497137658//
/work/sebastian/BT-20210625/1009834-light/run1009834-light.h5 tag-1497137660//
/work/sebastian/BT-20210625/1009834-light/run1009834-light.h5 tag-1497137664//
/work/sebastian/BT-20210625/1009834-light/run1009834-light.h5 tag-1497137666//
/work/sebastian/BT-20210625/1009834-light/run1009834-light.h5 tag-1497137672//
/work/sebastian/BT-20210625/1009834-light/run1009834-light.h5 tag-1497137674//
/work/sebastian/BT-20210625/1009834-light/run1009834-light.h5 tag-1497137682//
/work/sebastian/BT-20210625/1009834-light/run1009834-light.h5 tag-1497137684//
/work/sebastian/BT-20210625/1009834-light/run1009834-light.h5 tag-1497137686//
/work/sebastian/BT-20210625/1009834-light/run1009834-light.h5 tag-1497137688//
/work/sebastian/BT-20210625/1009834-light/run1009834-light.h5 tag-1497137696//
/work/sebastian/BT-20210625/1009834-light/run1009834-light.h5 tag-1497137698//
/work/sebastian/BT-20210625/1009834-light/run1009834-light.h5 tag-1497137700//
/work/sebastian/BT-20210625/1009834-light/run1009834-light.h5 tag-1497137702//
/work/sebastian/BT-20210625/1009834-light/run1009834-light.h5 tag-1497137704//
/work/sebastian/BT-20210625/1009834-light/run1009834-light.h5 tag-1497137706//
/work/sebastian/BT-20210625/1009834-light/run1009834-light.h5 tag-1497137710//
/work/sebastian/BT-20210625/1009834-light/run1009834-light.h5 tag-1497137712//
/work/sebastian/BT-20210625/1009834-light/run1009834-light.h5 tag-1497137714//
/work/sebastian/BT-20210625/1009834-light/run1009834-light.h5 tag-1497137716//
/work/sebastian/BT-20210625/1009834-light/run1009834-light.h5 tag-1497137718//
/work/sebastian/BT-20210625/1009834-light/run1009834-light.h5 tag-1497137720//
/work/sebastian/BT-20210625/1009834-light/run1009834-light.h5 tag-1497137724//
/work/sebastian/BT-20210625/1009834-light/run1009834-light.h5 tag-1497137726//
/work/sebastian/BT-20210625/1009834-light/run1009834-light.h5 tag-1497137728//
/work/sebastian/BT-20210625/1009834-light/run1009834-light.h5 tag-1497137730//
/work/sebastian/BT-20210625/1009834-light/run1009834-light.h5 tag-1497137732//
/work/sebastian/BT-20210625/1009834-light/run1009834-light.h5 tag-1497137736//
/work/sebastian/BT-20210625/1009834-light/run1009834-light.h5 tag-1497137738//
/work/sebastian/BT-20210625/1009834-light/run1009834-light.h5 tag-1497137746//
/work/sebastian/BT-20210625/1009834-light/run1009834-light.h5 tag-1497137754//
/work/sebastian/BT-20210625/1009834-light/run1009834-light.h5 tag-1497137756//
/work/sebastian/BT-20210625/1009834-light/run1009834-light.h5 tag-1497137760//
/work/sebastian/BT-20210625/1009834-light/run1009834-light.h5 tag-1497137762//
/work/sebastian/BT-20210625/1009834-light/run1009834-light.h5 tag-1497137766//
/work/sebastian/BT-20210625/1009834-light/run1009834-light.h5 tag-1497137770//
/work/sebastian/BT-20210625/1009834-light/run1009834-light.h5 tag-1497137774//
/work/sebastian/BT-20210625/1009834-light/run1009834-light.h5 tag-1497137778//
/work/sebastian/BT-20210625/1009834-light/run1009834-light.h5 tag-1497137780//
/work/sebastian/BT-20210625/1009834-light/run1009834-light.h5 tag-1497137782//
/work/sebastian/BT-20210625/1009834-light/run1009834-light.h5 tag-1497137784//
/work/sebastian/BT-20210625/1009834-light/run1009834-light.h5 tag-1497137786//
/work/sebastian/BT-20210625/1009834-light/run1009834-light.h5 tag-1497137788//
/work/sebastian/BT-20210625/1009834-light/run1009834-light.h5 tag-1497137792//
/work/sebastian/BT-20210625/1009834-light/run1009834-light.h5 tag-1497137794//
/work/sebastian/BT-20210625/1009834-light/run1009834-light.h5 tag-1497137802//
/work/sebastian/BT-20210625/1009834-light/run1009834-light.h5 tag-1497137804//
/work/sebastian/BT-20210625/1009834-light/run1009834-light.h5 tag-1497137812//
/work/sebastian/BT-20210625/1009834-light/run1009834-light.h5 tag-1497137814//
/work/sebastian/BT-20210625/1009834-light/run1009834-light.h5 tag-1497137816//
/work/sebastian/BT-20210625/1009834-light/run1009834-light.h5 tag-1497137820//
/work/sebastian/BT-20210625/1009834-light/run1009834-light.h5 tag-1497137822//
/work/sebastian/BT-20210625/1009834-light/run1009834-light.h5 tag-1497137824//
/work/sebastian/BT-20210625/1009834-light/run1009834-light.h5 tag-1497137830//
/work/sebastian/BT-20210625/1009834-light/run1009834-light.h5 tag-1497137832//
/work/sebastian/BT-20210625/1009834-light/run1009834-light.h5 tag-1497137834//
/work/sebastian/BT-20210625/1009834-light/run1009834-light.h5 tag-1497137836//
/work/sebastian/BT-20210625/1009834-light/run1009834-light.h5 tag-1497137842//
/work/sebastian/BT-20210625/1009834-light/run1009834-light.h5 tag-1497137844//
/work/sebastian/BT-20210625/1009834-light/run1009834-light.h5 tag-1497137852//
/work/sebastian/BT-20210625/1009834-light/run1009834-light.h5 tag-1497137854//
/work/sebastian/BT-20210625/1009834-light/run1009834-light.h5 tag-1497137856//
/work/sebastian/BT-20210625/1009834-light/run1009834-light.h5 tag-1497137862//
/work/sebastian/BT-20210625/1009834-light/run1009834-light.h5 tag-1497137864//
/work/sebastian/BT-20210625/1009834-light/run1009834-light.h5 tag-1497137866//
/work/sebastian/BT-20210625/1009834-light/run1009834-light.h5 tag-1497137872//
/work/sebastian/BT-20210625/1009834-light/run1009834-light.h5 tag-1497137876//
/work/sebastian/BT-20210625/1009834-light/run1009834-light.h5 tag-1497137878//
/work/sebastian/BT-20210625/1009834-light/run1009834-light.h5 tag-1497137880//
/work/sebastian/BT-20210625/1009834-light/run1009834-light.h5 tag-1497137882//
/work/sebastian/BT-20210625/1009834-light/run1009834-light.h5 tag-1497137886//
/work/sebastian/BT-20210625/1009834-light/run1009834-light.h5 tag-1497137892//
/work/sebastian/BT-20210625/1009834-light/run1009834-light.h5 tag-1497137900//
/work/sebastian/BT-20210625/1009834-light/run1009834-light.h5 tag-1497137902//
/work/sebastian/BT-20210625/1009834-light/run1009834-light.h5 tag-1497137904//
/work/sebastian/BT-20210625/1009834-light/run1009834-light.h5 tag-1497137906//
/work/sebastian/BT-20210625/1009834-light/run1009834-light.h5 tag-1497137908//
/work/sebastian/BT-20210625/1009834-light/run1009834-light.h5 tag-1497137912//
/work/sebastian/BT-20210625/1009834-light/run1009834-light.h5 tag-1497137914//
/work/sebastian/BT-20210625/1009834-light/run1009834-light.h5 tag-1497137916//
/work/sebastian/BT-20210625/1009834-light/run1009834-light.h5 tag-1497137926//
/work/sebastian/BT-20210625/1009834-light/run1009834-light.h5 tag-1497137928//
/work/sebastian/BT-20210625/1009834-light/run1009834-light.h5 tag-1497137930//
/work/sebastian/BT-20210625/1009834-light/run1009834-light.h5 tag-1497137932//
/work/sebastian/BT-20210625/1009834-light/run1009834-light.h5 tag-1497137934//
/work/sebastian/BT-20210625/1009834-light/run1009834-light.h5 tag-1497137944//
/work/sebastian/BT-20210625/1009834-light/run1009834-light.h5 tag-1497137946//
/work/sebastian/BT-20210625/1009834-light/run1009834-light.h5 tag-1497137948//
/work/sebastian/BT-20210625/1009834-light/run1009834-light.h5 tag-1497137952//
/work/sebastian/BT-20210625/1009834-light/run1009834-light.h5 tag-1497137954//
/work/sebastian/BT-20210625/1009834-light/run1009834-light.h5 tag-1497137960//
/work/sebastian/BT-20210625/1009834-light/run1009834-light.h5 tag-1497137962//
/work/sebastian/BT-20210625/1009834-light/run1009834-light.h5 tag-1497137964//
/work/sebastian/BT-20210625/1009834-light/run1009834-light.h5 tag-1497137972//
/work/sebastian/BT-20210625/1009834-light/run1009834-light.h5 tag-1497137976//
/work/sebastian/BT-20210625/1009834-light/run1009834-light.h5 tag-1497137978//
/work/sebastian/BT-20210625/1009834-light/run1009834-light.h5 tag-1497137980//
/work/sebastian/BT-20210625/1009834-light/run1009834-light.h5 tag-1497137982//
/work/sebastian/BT-20210625/1009834-light/run1009834-light.h5 tag-1497137988//
/work/sebastian/BT-20210625/1009834-light/run1009834-light.h5 tag-1497137990//
/work/sebastian/BT-20210625/1009834-light/run1009834-light.h5 tag-1497137992//
/work/sebastian/BT-20210625/1009834-light/run1009834-light.h5 tag-1497137994//
/work/sebastian/BT-20210625/1009834-light/run1009834-light.h5 tag-1497137996//
/work/sebastian/BT-20210625/1009834-light/run1009834-light.h5 tag-1497138000//
/work/sebastian/BT-20210625/1009834-light/run1009834-light.h5 tag-1497138008//
/work/sebastian/BT-20210625/1009834-light/run1009834-light.h5 tag-1497138010//
/work/sebastian/BT-20210625/1009834-light/run1009834-light.h5 tag-1497138014//
/work/sebastian/BT-20210625/1009834-light/run1009834-light.h5 tag-1497138016//
/work/sebastian/BT-20210625/1009834-light/run1009834-light.h5 tag-1497138018//
/work/sebastian/BT-20210625/1009834-light/run1009834-light.h5 tag-1497138020//
/work/sebastian/BT-20210625/1009834-light/run1009834-light.h5 tag-1497138022//
/work/sebastian/BT-20210625/1009834-light/run1009834-light.h5 tag-1497138026//
/work/sebastian/BT-20210625/1009834-light/run1009834-light.h5 tag-1497138028//
/work/sebastian/BT-20210625/1009834-light/run1009834-light.h5 tag-1497138034//
/work/sebastian/BT-20210625/1009834-light/run1009834-light.h5 tag-1497138036//
/work/sebastian/BT-20210625/1009834-light/run1009834-light.h5 tag-1497138042//
/work/sebastian/BT-20210625/1009834-light/run1009834-light.h5 tag-1497138044//
/work/sebastian/BT-20210625/1009834-light/run1009834-light.h5 tag-1497138046//
/work/sebastian/BT-20210625/1009834-light/run1009834-light.h5 tag-1497138050//
/work/sebastian/BT-20210625/1009834-light/run1009834-light.h5 tag-1497138056//
/work/sebastian/BT-20210625/1009834-light/run1009834-light.h5 tag-1497138058//
/work/sebastian/BT-20210625/1009834-light/run1009834-light.h5 tag-1497138062//
/work/sebastian/BT-20210625/1009834-light/run1009834-light.h5 tag-1497138064//
/work/sebastian/BT-20210625/1009834-light/run1009834-light.h5 tag-1497138066//
/work/sebastian/BT-20210625/1009834-light/run1009834-light.h5 tag-1497138070//
/work/sebastian/BT-20210625/1009834-light/run1009834-light.h5 tag-1497138072//
/work/sebastian/BT-20210625/1009834-light/run1009834-light.h5 tag-1497138074//
/work/sebastian/BT-20210625/1009834-light/run1009834-light.h5 tag-1497138078//
/work/sebastian/BT-20210625/1009834-light/run1009834-light.h5 tag-1497138080//
/work/sebastian/BT-20210625/1009834-light/run1009834-light.h5 tag-1497138084//
/work/sebastian/BT-20210625/1009834-light/run1009834-light.h5 tag-1497138086//
/work/sebastian/BT-20210625/1009834-light/run1009834-light.h5 tag-1497138088//
/work/sebastian/BT-20210625/1009834-light/run1009834-light.h5 tag-1497138090//
/work/sebastian/BT-20210625/1009834-light/run1009834-light.h5 tag-1497138094//
/work/sebastian/BT-20210625/1009834-light/run1009834-light.h5 tag-1497138098//
/work/sebastian/BT-20210625/1009834-light/run1009834-light.h5 tag-1497138100//
/work/sebastian/BT-20210625/1009834-light/run1009834-light.h5 tag-1497138102//
/work/sebastian/BT-20210625/1009834-light/run1009834-light.h5 tag-1497138104//
/work/sebastian/BT-20210625/1009834-light/run1009834-light.h5 tag-1497138106//
/work/sebastian/BT-20210625/1009834-light/run1009834-light.h5 tag-1497138108//
/work/sebastian/BT-20210625/1009834-light/run1009834-light.h5 tag-1497138110//
/work/sebastian/BT-20210625/1009834-light/run1009834-light.h5 tag-1497138112//
/work/sebastian/BT-20210625/1009834-light/run1009834-light.h5 tag-1497138114//
/work/sebastian/BT-20210625/1009834-light/run1009834-light.h5 tag-1497138116//
/work/sebastian/BT-20210625/1009834-light/run1009834-light.h5 tag-1497138118//
/work/sebastian/BT-20210625/1009834-light/run1009834-light.h5 tag-1497138122//
/work/sebastian/BT-20210625/1009834-light/run1009834-light.h5 tag-1497138124//
/work/sebastian/BT-20210625/1009834-light/run1009834-light.h5 tag-1497138132//
/work/sebastian/BT-20210625/1009834-light/run1009834-light.h5 tag-1497138134//
/work/sebastian/BT-20210625/1009834-light/run1009834-light.h5 tag-1497138136//
/work/sebastian/BT-20210625/1009834-light/run1009834-light.h5 tag-1497138138//
/work/sebastian/BT-20210625/1009834-light/run1009834-light.h5 tag-1497138148//
/work/sebastian/BT-20210625/1009834-light/run1009834-light.h5 tag-1497138150//
/work/sebastian/BT-20210625/1009834-light/run1009834-light.h5 tag-1497138152//
/work/sebastian/BT-20210625/1009834-light/run1009834-light.h5 tag-1497138154//
/work/sebastian/BT-20210625/1009834-light/run1009834-light.h5 tag-1497138156//
/work/sebastian/BT-20210625/1009834-light/run1009834-light.h5 tag-1497138160//
/work/sebastian/BT-20210625/1009834-light/run1009834-light.h5 tag-1497138162//
/work/sebastian/BT-20210625/1009834-light/run1009834-light.h5 tag-1497138164//
/work/sebastian/BT-20210625/1009834-light/run1009834-light.h5 tag-1497138166//
/work/sebastian/BT-20210625/1009834-light/run1009834-light.h5 tag-1497138168//
/work/sebastian/BT-20210625/1009834-light/run1009834-light.h5 tag-1497138176//
/work/sebastian/BT-20210625/1009834-light/run1009834-light.h5 tag-1497138178//
/work/sebastian/BT-20210625/1009834-light/run1009834-light.h5 tag-1497138180//
/work/sebastian/BT-20210625/1009834-light/run1009834-light.h5 tag-1497138186//
/work/sebastian/BT-20210625/1009834-light/run1009834-light.h5 tag-1497138188//
/work/sebastian/BT-20210625/1009834-light/run1009834-light.h5 tag-1497138190//
/work/sebastian/BT-20210625/1009834-light/run1009834-light.h5 tag-1497138192//
/work/sebastian/BT-20210625/1009834-light/run1009834-light.h5 tag-1497138200//
/work/sebastian/BT-20210625/1009834-light/run1009834-light.h5 tag-1497138202//
/work/sebastian/BT-20210625/1009834-light/run1009834-light.h5 tag-1497138204//
/work/sebastian/BT-20210625/1009834-light/run1009834-light.h5 tag-1497138206//
/work/sebastian/BT-20210625/1009834-light/run1009834-light.h5 tag-1497138208//
/work/sebastian/BT-20210625/1009834-light/run1009834-light.h5 tag-1497138210//
/work/sebastian/BT-20210625/1009834-light/run1009834-light.h5 tag-1497138212//
/work/sebastian/BT-20210625/1009834-light/run1009834-light.h5 tag-1497138214//
/work/sebastian/BT-20210625/1009834-light/run1009834-light.h5 tag-1497138216//
/work/sebastian/BT-20210625/1009834-light/run1009834-light.h5 tag-1497138220//
/work/sebastian/BT-20210625/1009834-light/run1009834-light.h5 tag-1497138222//
/work/sebastian/BT-20210625/1009834-light/run1009834-light.h5 tag-1497138224//
/work/sebastian/BT-20210625/1009834-light/run1009834-light.h5 tag-1497138226//
/work/sebastian/BT-20210625/1009834-light/run1009834-light.h5 tag-1497138230//
/work/sebastian/BT-20210625/1009834-light/run1009834-light.h5 tag-1497138232//
/work/sebastian/BT-20210625/1009834-light/run1009834-light.h5 tag-1497138236//
/work/sebastian/BT-20210625/1009834-light/run1009834-light.h5 tag-1497138238//
/work/sebastian/BT-20210625/1009834-light/run1009834-light.h5 tag-1497138242//
/work/sebastian/BT-20210625/1009834-light/run1009834-light.h5 tag-1497138244//
/work/sebastian/BT-20210625/1009834-light/run1009834-light.h5 tag-1497138246//
/work/sebastian/BT-20210625/1009834-light/run1009834-light.h5 tag-1497138250//
/work/sebastian/BT-20210625/1009834-light/run1009834-light.h5 tag-1497138252//
/work/sebastian/BT-20210625/1009834-light/run1009834-light.h5 tag-1497138256//
/work/sebastian/BT-20210625/1009834-light/run1009834-light.h5 tag-1497138260//
/work/sebastian/BT-20210625/1009834-light/run1009834-light.h5 tag-1497138264//
/work/sebastian/BT-20210625/1009834-light/run1009834-light.h5 tag-1497138272//
/work/sebastian/BT-20210625/1009834-light/run1009834-light.h5 tag-1497138276//
/work/sebastian/BT-20210625/1009834-light/run1009834-light.h5 tag-1497138278//
/work/sebastian/BT-20210625/1009834-light/run1009834-light.h5 tag-1497138280//
/work/sebastian/BT-20210625/1009834-light/run1009834-light.h5 tag-1497138284//
/work/sebastian/BT-20210625/1009834-light/run1009834-light.h5 tag-1497138288//
/work/sebastian/BT-20210625/1009834-light/run1009834-light.h5 tag-1497138290//
/work/sebastian/BT-20210625/1009834-light/run1009834-light.h5 tag-1497138294//
/work/sebastian/BT-20210625/1009834-light/run1009834-light.h5 tag-1497138296//
/work/sebastian/BT-20210625/1009834-light/run1009834-light.h5 tag-1497138298//
/work/sebastian/BT-20210625/1009834-light/run1009834-light.h5 tag-1497138300//
/work/sebastian/BT-20210625/1009834-light/run1009834-light.h5 tag-1497138306//
/work/sebastian/BT-20210625/1009834-light/run1009834-light.h5 tag-1497138308//
/work/sebastian/BT-20210625/1009834-light/run1009834-light.h5 tag-1497138310//
/work/sebastian/BT-20210625/1009834-light/run1009834-light.h5 tag-1497138318//
/work/sebastian/BT-20210625/1009834-light/run1009834-light.h5 tag-1497138320//
/work/sebastian/BT-20210625/1009834-light/run1009834-light.h5 tag-1497138322//
/work/sebastian/BT-20210625/1009834-light/run1009834-light.h5 tag-1497138324//
/work/sebastian/BT-20210625/1009834-light/run1009834-light.h5 tag-1497138326//
/work/sebastian/BT-20210625/1009834-light/run1009834-light.h5 tag-1497138328//
/work/sebastian/BT-20210625/1009834-light/run1009834-light.h5 tag-1497138330//
/work/sebastian/BT-20210625/1009834-light/run1009834-light.h5 tag-1497138340//
/work/sebastian/BT-20210625/1009834-light/run1009834-light.h5 tag-1497138342//
/work/sebastian/BT-20210625/1009834-light/run1009834-light.h5 tag-1497138344//
/work/sebastian/BT-20210625/1009834-light/run1009834-light.h5 tag-1497138348//
/work/sebastian/BT-20210625/1009834-light/run1009834-light.h5 tag-1497138352//
/work/sebastian/BT-20210625/1009834-light/run1009834-light.h5 tag-1497138354//
/work/sebastian/BT-20210625/1009834-light/run1009834-light.h5 tag-1497138356//
/work/sebastian/BT-20210625/1009834-light/run1009834-light.h5 tag-1497138360//
/work/sebastian/BT-20210625/1009834-light/run1009834-light.h5 tag-1497138362//
/work/sebastian/BT-20210625/1009834-light/run1009834-light.h5 tag-1497138364//
/work/sebastian/BT-20210625/1009834-light/run1009834-light.h5 tag-1497138366//
/work/sebastian/BT-20210625/1009834-light/run1009834-light.h5 tag-1497138368//
/work/sebastian/BT-20210625/1009834-light/run1009834-light.h5 tag-1497138374//
/work/sebastian/BT-20210625/1009834-light/run1009834-light.h5 tag-1497138376//
/work/sebastian/BT-20210625/1009834-light/run1009834-light.h5 tag-1497138378//
/work/sebastian/BT-20210625/1009834-light/run1009834-light.h5 tag-1497138380//
/work/sebastian/BT-20210625/1009834-light/run1009834-light.h5 tag-1497138386//
/work/sebastian/BT-20210625/1009834-light/run1009834-light.h5 tag-1497138396//
/work/sebastian/BT-20210625/1009834-light/run1009834-light.h5 tag-1497138400//
/work/sebastian/BT-20210625/1009834-light/run1009834-light.h5 tag-1497138408//
/work/sebastian/BT-20210625/1009834-light/run1009834-light.h5 tag-1497138410//
/work/sebastian/BT-20210625/1009834-light/run1009834-light.h5 tag-1497138416//
/work/sebastian/BT-20210625/1009834-light/run1009834-light.h5 tag-1497138418//
/work/sebastian/BT-20210625/1009834-light/run1009834-light.h5 tag-1497138424//
/work/sebastian/BT-20210625/1009834-light/run1009834-light.h5 tag-1497138430//
/work/sebastian/BT-20210625/1009834-light/run1009834-light.h5 tag-1497138436//
/work/sebastian/BT-20210625/1009834-light/run1009834-light.h5 tag-1497138440//
/work/sebastian/BT-20210625/1009834-light/run1009834-light.h5 tag-1497138446//
/work/sebastian/BT-20210625/1009834-light/run1009834-light.h5 tag-1497138448//
/work/sebastian/BT-20210625/1009834-light/run1009834-light.h5 tag-1497138450//
/work/sebastian/BT-20210625/1009834-light/run1009834-light.h5 tag-1497138454//
/work/sebastian/BT-20210625/1009834-light/run1009834-light.h5 tag-1497138456//
/work/sebastian/BT-20210625/1009834-light/run1009834-light.h5 tag-1497138464//
/work/sebastian/BT-20210625/1009834-light/run1009834-light.h5 tag-1497138468//
/work/sebastian/BT-20210625/1009834-light/run1009834-light.h5 tag-1497138470//
/work/sebastian/BT-20210625/1009834-light/run1009834-light.h5 tag-1497138474//
/work/sebastian/BT-20210625/1009834-light/run1009834-light.h5 tag-1497138476//
/work/sebastian/BT-20210625/1009834-light/run1009834-light.h5 tag-1497138480//
/work/sebastian/BT-20210625/1009834-light/run1009834-light.h5 tag-1497138482//
/work/sebastian/BT-20210625/1009834-light/run1009834-light.h5 tag-1497138484//
/work/sebastian/BT-20210625/1009834-light/run1009834-light.h5 tag-1497138488//
/work/sebastian/BT-20210625/1009834-light/run1009834-light.h5 tag-1497138490//
/work/sebastian/BT-20210625/1009834-light/run1009834-light.h5 tag-1497138496//
/work/sebastian/BT-20210625/1009834-light/run1009834-light.h5 tag-1497138498//
/work/sebastian/BT-20210625/1009834-light/run1009834-light.h5 tag-1497138500//
/work/sebastian/BT-20210625/1009834-light/run1009834-light.h5 tag-1497138506//
/work/sebastian/BT-20210625/1009834-light/run1009834-light.h5 tag-1497138508//
/work/sebastian/BT-20210625/1009834-light/run1009834-light.h5 tag-1497138510//
/work/sebastian/BT-20210625/1009834-light/run1009834-light.h5 tag-1497138512//
/work/sebastian/BT-20210625/1009834-light/run1009834-light.h5 tag-1497138514//
/work/sebastian/BT-20210625/1009834-light/run1009834-light.h5 tag-1497138516//
/work/sebastian/BT-20210625/1009834-light/run1009834-light.h5 tag-1497138518//
/work/sebastian/BT-20210625/1009834-light/run1009834-light.h5 tag-1497138520//
/work/sebastian/BT-20210625/1009834-light/run1009834-light.h5 tag-1497138524//
/work/sebastian/BT-20210625/1009834-light/run1009834-light.h5 tag-1497138528//
/work/sebastian/BT-20210625/1009834-light/run1009834-light.h5 tag-1497138530//
/work/sebastian/BT-20210625/1009834-light/run1009834-light.h5 tag-1497138532//
/work/sebastian/BT-20210625/1009834-light/run1009834-light.h5 tag-1497138536//
/work/sebastian/BT-20210625/1009834-light/run1009834-light.h5 tag-1497138542//
/work/sebastian/BT-20210625/1009834-light/run1009834-light.h5 tag-1497138544//
/work/sebastian/BT-20210625/1009834-light/run1009834-light.h5 tag-1497138550//
/work/sebastian/BT-20210625/1009834-light/run1009834-light.h5 tag-1497138556//
/work/sebastian/BT-20210625/1009834-light/run1009834-light.h5 tag-1497138558//
/work/sebastian/BT-20210625/1009834-light/run1009834-light.h5 tag-1497138560//
/work/sebastian/BT-20210625/1009834-light/run1009834-light.h5 tag-1497138564//
/work/sebastian/BT-20210625/1009834-light/run1009834-light.h5 tag-1497138566//
/work/sebastian/BT-20210625/1009834-light/run1009834-light.h5 tag-1497138570//
/work/sebastian/BT-20210625/1009834-light/run1009834-light.h5 tag-1497138572//
/work/sebastian/BT-20210625/1009834-light/run1009834-light.h5 tag-1497138574//
/work/sebastian/BT-20210625/1009834-light/run1009834-light.h5 tag-1497138576//
/work/sebastian/BT-20210625/1009834-light/run1009834-light.h5 tag-1497138578//
/work/sebastian/BT-20210625/1009834-light/run1009834-light.h5 tag-1497138580//
/work/sebastian/BT-20210625/1009834-light/run1009834-light.h5 tag-1497138582//
/work/sebastian/BT-20210625/1009834-light/run1009834-light.h5 tag-1497138584//
/work/sebastian/BT-20210625/1009834-light/run1009834-light.h5 tag-1497138586//
/work/sebastian/BT-20210625/1009834-light/run1009834-light.h5 tag-1497138588//
/work/sebastian/BT-20210625/1009834-light/run1009834-light.h5 tag-1497138594//
/work/sebastian/BT-20210625/1009834-light/run1009834-light.h5 tag-1497138602//
/work/sebastian/BT-20210625/1009834-light/run1009834-light.h5 tag-1497138604//
/work/sebastian/BT-20210625/1009834-light/run1009834-light.h5 tag-1497138608//
/work/sebastian/BT-20210625/1009834-light/run1009834-light.h5 tag-1497138610//
/work/sebastian/BT-20210625/1009834-light/run1009834-light.h5 tag-1497138612//
/work/sebastian/BT-20210625/1009834-light/run1009834-light.h5 tag-1497138618//
/work/sebastian/BT-20210625/1009834-light/run1009834-light.h5 tag-1497138622//
/work/sebastian/BT-20210625/1009834-light/run1009834-light.h5 tag-1497138624//
/work/sebastian/BT-20210625/1009834-light/run1009834-light.h5 tag-1497138626//
/work/sebastian/BT-20210625/1009834-light/run1009834-light.h5 tag-1497138634//
/work/sebastian/BT-20210625/1009834-light/run1009834-light.h5 tag-1497138636//
/work/sebastian/BT-20210625/1009834-light/run1009834-light.h5 tag-1497138638//
/work/sebastian/BT-20210625/1009834-light/run1009834-light.h5 tag-1497138640//
/work/sebastian/BT-20210625/1009834-light/run1009834-light.h5 tag-1497138644//
/work/sebastian/BT-20210625/1009834-light/run1009834-light.h5 tag-1497138646//
/work/sebastian/BT-20210625/1009834-light/run1009834-light.h5 tag-1497138652//
/work/sebastian/BT-20210625/1009834-light/run1009834-light.h5 tag-1497138654//
/work/sebastian/BT-20210625/1009834-light/run1009834-light.h5 tag-1497138656//
/work/sebastian/BT-20210625/1009834-light/run1009834-light.h5 tag-1497138658//
/work/sebastian/BT-20210625/1009834-light/run1009834-light.h5 tag-1497138660//
/work/sebastian/BT-20210625/1009834-light/run1009834-light.h5 tag-1497138664//
/work/sebastian/BT-20210625/1009834-light/run1009834-light.h5 tag-1497138666//
/work/sebastian/BT-20210625/1009834-light/run1009834-light.h5 tag-1497138670//
/work/sebastian/BT-20210625/1009834-light/run1009834-light.h5 tag-1497138672//
/work/sebastian/BT-20210625/1009834-light/run1009834-light.h5 tag-1497138678//
/work/sebastian/BT-20210625/1009834-light/run1009834-light.h5 tag-1497138682//
/work/sebastian/BT-20210625/1009834-light/run1009834-light.h5 tag-1497138684//
/work/sebastian/BT-20210625/1009834-light/run1009834-light.h5 tag-1497138686//
/work/sebastian/BT-20210625/1009834-light/run1009834-light.h5 tag-1497138688//
/work/sebastian/BT-20210625/1009834-light/run1009834-light.h5 tag-1497138690//
/work/sebastian/BT-20210625/1009834-light/run1009834-light.h5 tag-1497138692//
/work/sebastian/BT-20210625/1009834-light/run1009834-light.h5 tag-1497138694//
/work/sebastian/BT-20210625/1009834-light/run1009834-light.h5 tag-1497138696//
/work/sebastian/BT-20210625/1009834-light/run1009834-light.h5 tag-1497138698//
/work/sebastian/BT-20210625/1009834-light/run1009834-light.h5 tag-1497138700//
/work/sebastian/BT-20210625/1009834-light/run1009834-light.h5 tag-1497138702//
/work/sebastian/BT-20210625/1009834-light/run1009834-light.h5 tag-1497138704//
/work/sebastian/BT-20210625/1009834-light/run1009834-light.h5 tag-1497138708//
/work/sebastian/BT-20210625/1009834-light/run1009834-light.h5 tag-1497138712//
/work/sebastian/BT-20210625/1009834-light/run1009834-light.h5 tag-1497138718//
/work/sebastian/BT-20210625/1009834-light/run1009834-light.h5 tag-1497138720//
/work/sebastian/BT-20210625/1009834-light/run1009834-light.h5 tag-1497138722//
/work/sebastian/BT-20210625/1009834-light/run1009834-light.h5 tag-1497138724//
/work/sebastian/BT-20210625/1009834-light/run1009834-light.h5 tag-1497138726//
/work/sebastian/BT-20210625/1009834-light/run1009834-light.h5 tag-1497138728//
/work/sebastian/BT-20210625/1009834-light/run1009834-light.h5 tag-1497138732//
/work/sebastian/BT-20210625/1009834-light/run1009834-light.h5 tag-1497138734//
/work/sebastian/BT-20210625/1009834-light/run1009834-light.h5 tag-1497138736//
/work/sebastian/BT-20210625/1009834-light/run1009834-light.h5 tag-1497138738//
/work/sebastian/BT-20210625/1009834-light/run1009834-light.h5 tag-1497138746//
/work/sebastian/BT-20210625/1009834-light/run1009834-light.h5 tag-1497138748//
/work/sebastian/BT-20210625/1009834-light/run1009834-light.h5 tag-1497138756//
/work/sebastian/BT-20210625/1009834-light/run1009834-light.h5 tag-1497138760//
/work/sebastian/BT-20210625/1009834-light/run1009834-light.h5 tag-1497138764//
/work/sebastian/BT-20210625/1009834-light/run1009834-light.h5 tag-1497138766//
/work/sebastian/BT-20210625/1009834-light/run1009834-light.h5 tag-1497138768//
/work/sebastian/BT-20210625/1009834-light/run1009834-light.h5 tag-1497138770//
/work/sebastian/BT-20210625/1009834-light/run1009834-light.h5 tag-1497138772//
/work/sebastian/BT-20210625/1009834-light/run1009834-light.h5 tag-1497138774//
/work/sebastian/BT-20210625/1009834-light/run1009834-light.h5 tag-1497138776//
/work/sebastian/BT-20210625/1009834-light/run1009834-light.h5 tag-1497138782//
/work/sebastian/BT-20210625/1009834-light/run1009834-light.h5 tag-1497138784//
/work/sebastian/BT-20210625/1009834-light/run1009834-light.h5 tag-1497138788//
/work/sebastian/BT-20210625/1009834-light/run1009834-light.h5 tag-1497138794//
/work/sebastian/BT-20210625/1009834-light/run1009834-light.h5 tag-1497138796//
/work/sebastian/BT-20210625/1009834-light/run1009834-light.h5 tag-1497138798//
/work/sebastian/BT-20210625/1009834-light/run1009834-light.h5 tag-1497138804//
/work/sebastian/BT-20210625/1009834-light/run1009834-light.h5 tag-1497138806//
/work/sebastian/BT-20210625/1009834-light/run1009834-light.h5 tag-1497138808//
/work/sebastian/BT-20210625/1009834-light/run1009834-light.h5 tag-1497138810//
/work/sebastian/BT-20210625/1009834-light/run1009834-light.h5 tag-1497138812//
/work/sebastian/BT-20210625/1009834-light/run1009834-light.h5 tag-1497138814//
/work/sebastian/BT-20210625/1009834-light/run1009834-light.h5 tag-1497138822//
/work/sebastian/BT-20210625/1009834-light/run1009834-light.h5 tag-1497138824//
/work/sebastian/BT-20210625/1009834-light/run1009834-light.h5 tag-1497138830//
/work/sebastian/BT-20210625/1009834-light/run1009834-light.h5 tag-1497138832//
/work/sebastian/BT-20210625/1009834-light/run1009834-light.h5 tag-1497138836//
/work/sebastian/BT-20210625/1009834-light/run1009834-light.h5 tag-1497138838//
/work/sebastian/BT-20210625/1009834-light/run1009834-light.h5 tag-1497138840//
/work/sebastian/BT-20210625/1009834-light/run1009834-light.h5 tag-1497138842//
/work/sebastian/BT-20210625/1009834-light/run1009834-light.h5 tag-1497138846//
/work/sebastian/BT-20210625/1009834-light/run1009834-light.h5 tag-1497138852//
/work/sebastian/BT-20210625/1009834-light/run1009834-light.h5 tag-1497138854//
/work/sebastian/BT-20210625/1009834-light/run1009834-light.h5 tag-1497138858//
/work/sebastian/BT-20210625/1009834-light/run1009834-light.h5 tag-1497138860//
/work/sebastian/BT-20210625/1009834-light/run1009834-light.h5 tag-1497138862//
/work/sebastian/BT-20210625/1009834-light/run1009834-light.h5 tag-1497138868//
/work/sebastian/BT-20210625/1009834-light/run1009834-light.h5 tag-1497138870//
/work/sebastian/BT-20210625/1009834-light/run1009834-light.h5 tag-1497138876//
/work/sebastian/BT-20210625/1009834-light/run1009834-light.h5 tag-1497138878//
/work/sebastian/BT-20210625/1009834-light/run1009834-light.h5 tag-1497138880//
/work/sebastian/BT-20210625/1009834-light/run1009834-light.h5 tag-1497138882//
/work/sebastian/BT-20210625/1009834-light/run1009834-light.h5 tag-1497138884//
/work/sebastian/BT-20210625/1009834-light/run1009834-light.h5 tag-1497138888//
/work/sebastian/BT-20210625/1009834-light/run1009834-light.h5 tag-1497138890//
/work/sebastian/BT-20210625/1009834-light/run1009834-light.h5 tag-1497138892//
/work/sebastian/BT-20210625/1009834-light/run1009834-light.h5 tag-1497138894//
/work/sebastian/BT-20210625/1009834-light/run1009834-light.h5 tag-1497138900//
/work/sebastian/BT-20210625/1009834-light/run1009834-light.h5 tag-1497138902//
/work/sebastian/BT-20210625/1009834-light/run1009834-light.h5 tag-1497138908//
/work/sebastian/BT-20210625/1009834-light/run1009834-light.h5 tag-1497138910//
/work/sebastian/BT-20210625/1009834-light/run1009834-light.h5 tag-1497138912//
/work/sebastian/BT-20210625/1009834-light/run1009834-light.h5 tag-1497138916//
/work/sebastian/BT-20210625/1009834-light/run1009834-light.h5 tag-1497138918//
/work/sebastian/BT-20210625/1009834-light/run1009834-light.h5 tag-1497138920//
/work/sebastian/BT-20210625/1009834-light/run1009834-light.h5 tag-1497138930//
/work/sebastian/BT-20210625/1009834-light/run1009834-light.h5 tag-1497138934//
/work/sebastian/BT-20210625/1009834-light/run1009834-light.h5 tag-1497138936//
/work/sebastian/BT-20210625/1009834-light/run1009834-light.h5 tag-1497138938//
/work/sebastian/BT-20210625/1009834-light/run1009834-light.h5 tag-1497138942//
/work/sebastian/BT-20210625/1009834-light/run1009834-light.h5 tag-1497138944//
/work/sebastian/BT-20210625/1009834-light/run1009834-light.h5 tag-1497138946//
/work/sebastian/BT-20210625/1009834-light/run1009834-light.h5 tag-1497138950//
/work/sebastian/BT-20210625/1009834-light/run1009834-light.h5 tag-1497138954//
/work/sebastian/BT-20210625/1009834-light/run1009834-light.h5 tag-1497138956//
/work/sebastian/BT-20210625/1009834-light/run1009834-light.h5 tag-1497138958//
/work/sebastian/BT-20210625/1009834-light/run1009834-light.h5 tag-1497138960//
/work/sebastian/BT-20210625/1009834-light/run1009834-light.h5 tag-1497138966//
/work/sebastian/BT-20210625/1009834-light/run1009834-light.h5 tag-1497138972//
/work/sebastian/BT-20210625/1009834-light/run1009834-light.h5 tag-1497138974//
/work/sebastian/BT-20210625/1009834-light/run1009834-light.h5 tag-1497138978//
/work/sebastian/BT-20210625/1009834-light/run1009834-light.h5 tag-1497138980//
/work/sebastian/BT-20210625/1009834-light/run1009834-light.h5 tag-1497138982//
/work/sebastian/BT-20210625/1009834-light/run1009834-light.h5 tag-1497138984//
/work/sebastian/BT-20210625/1009834-light/run1009834-light.h5 tag-1497138986//
/work/sebastian/BT-20210625/1009834-light/run1009834-light.h5 tag-1497138988//
/work/sebastian/BT-20210625/1009834-light/run1009834-light.h5 tag-1497138996//
/work/sebastian/BT-20210625/1009834-light/run1009834-light.h5 tag-1497138998//
/work/sebastian/BT-20210625/1009834-light/run1009834-light.h5 tag-1497139000//
/work/sebastian/BT-20210625/1009834-light/run1009834-light.h5 tag-1497139004//
/work/sebastian/BT-20210625/1009834-light/run1009834-light.h5 tag-1497139008//
/work/sebastian/BT-20210625/1009834-light/run1009834-light.h5 tag-1497139014//
/work/sebastian/BT-20210625/1009834-light/run1009834-light.h5 tag-1497139016//
/work/sebastian/BT-20210625/1009834-light/run1009834-light.h5 tag-1497139020//
/work/sebastian/BT-20210625/1009834-light/run1009834-light.h5 tag-1497139022//
/work/sebastian/BT-20210625/1009834-light/run1009834-light.h5 tag-1497139024//
/work/sebastian/BT-20210625/1009834-light/run1009834-light.h5 tag-1497139026//
/work/sebastian/BT-20210625/1009834-light/run1009834-light.h5 tag-1497139028//
/work/sebastian/BT-20210625/1009834-light/run1009834-light.h5 tag-1497139032//
/work/sebastian/BT-20210625/1009834-light/run1009834-light.h5 tag-1497139036//
/work/sebastian/BT-20210625/1009834-light/run1009834-light.h5 tag-1497139038//
/work/sebastian/BT-20210625/1009834-light/run1009834-light.h5 tag-1497139040//
/work/sebastian/BT-20210625/1009834-light/run1009834-light.h5 tag-1497139046//
/work/sebastian/BT-20210625/1009834-light/run1009834-light.h5 tag-1497139048//
/work/sebastian/BT-20210625/1009834-light/run1009834-light.h5 tag-1497139052//
/work/sebastian/BT-20210625/1009834-light/run1009834-light.h5 tag-1497139054//
/work/sebastian/BT-20210625/1009834-light/run1009834-light.h5 tag-1497139060//
/work/sebastian/BT-20210625/1009834-light/run1009834-light.h5 tag-1497139062//
/work/sebastian/BT-20210625/1009834-light/run1009834-light.h5 tag-1497139064//
/work/sebastian/BT-20210625/1009834-light/run1009834-light.h5 tag-1497139068//
/work/sebastian/BT-20210625/1009834-light/run1009834-light.h5 tag-1497139072//
/work/sebastian/BT-20210625/1009834-light/run1009834-light.h5 tag-1497139082//
/work/sebastian/BT-20210625/1009834-light/run1009834-light.h5 tag-1497139086//
/work/sebastian/BT-20210625/1009834-light/run1009834-light.h5 tag-1497139090//
/work/sebastian/BT-20210625/1009834-light/run1009834-light.h5 tag-1497139094//
/work/sebastian/BT-20210625/1009834-light/run1009834-light.h5 tag-1497139096//
/work/sebastian/BT-20210625/1009834-light/run1009834-light.h5 tag-1497139098//
/work/sebastian/BT-20210625/1009834-light/run1009834-light.h5 tag-1497139100//
/work/sebastian/BT-20210625/1009834-light/run1009834-light.h5 tag-1497139102//
/work/sebastian/BT-20210625/1009834-light/run1009834-light.h5 tag-1497139110//
/work/sebastian/BT-20210625/1009834-light/run1009834-light.h5 tag-1497139114//
/work/sebastian/BT-20210625/1009834-light/run1009834-light.h5 tag-1497139118//
/work/sebastian/BT-20210625/1009834-light/run1009834-light.h5 tag-1497139120//
/work/sebastian/BT-20210625/1009834-light/run1009834-light.h5 tag-1497139122//
/work/sebastian/BT-20210625/1009834-light/run1009834-light.h5 tag-1497139126//
/work/sebastian/BT-20210625/1009834-light/run1009834-light.h5 tag-1497139128//
/work/sebastian/BT-20210625/1009834-light/run1009834-light.h5 tag-1497139136//
/work/sebastian/BT-20210625/1009834-light/run1009834-light.h5 tag-1497139140//
/work/sebastian/BT-20210625/1009834-light/run1009834-light.h5 tag-1497139142//
/work/sebastian/BT-20210625/1009834-light/run1009834-light.h5 tag-1497139144//
/work/sebastian/BT-20210625/1009834-light/run1009834-light.h5 tag-1497139146//
/work/sebastian/BT-20210625/1009834-light/run1009834-light.h5 tag-1497139152//
/work/sebastian/BT-20210625/1009834-light/run1009834-light.h5 tag-1497139154//
/work/sebastian/BT-20210625/1009834-light/run1009834-light.h5 tag-1497139162//
/work/sebastian/BT-20210625/1009834-light/run1009834-light.h5 tag-1497139168//
/work/sebastian/BT-20210625/1009834-light/run1009834-light.h5 tag-1497139170//
/work/sebastian/BT-20210625/1009834-light/run1009834-light.h5 tag-1497139174//
/work/sebastian/BT-20210625/1009834-light/run1009834-light.h5 tag-1497139178//
/work/sebastian/BT-20210625/1009834-light/run1009834-light.h5 tag-1497139184//
/work/sebastian/BT-20210625/1009834-light/run1009834-light.h5 tag-1497139186//
/work/sebastian/BT-20210625/1009834-light/run1009834-light.h5 tag-1497139196//
/work/sebastian/BT-20210625/1009834-light/run1009834-light.h5 tag-1497139198//
/work/sebastian/BT-20210625/1009834-light/run1009834-light.h5 tag-1497139202//
/work/sebastian/BT-20210625/1009834-light/run1009834-light.h5 tag-1497139208//
/work/sebastian/BT-20210625/1009834-light/run1009834-light.h5 tag-1497139210//
/work/sebastian/BT-20210625/1009834-light/run1009834-light.h5 tag-1497139214//
/work/sebastian/BT-20210625/1009834-light/run1009834-light.h5 tag-1497139216//
/work/sebastian/BT-20210625/1009834-light/run1009834-light.h5 tag-1497139220//
/work/sebastian/BT-20210625/1009834-light/run1009834-light.h5 tag-1497139222//
/work/sebastian/BT-20210625/1009834-light/run1009834-light.h5 tag-1497139226//
/work/sebastian/BT-20210625/1009834-light/run1009834-light.h5 tag-1497139228//
/work/sebastian/BT-20210625/1009834-light/run1009834-light.h5 tag-1497139230//
/work/sebastian/BT-20210625/1009834-light/run1009834-light.h5 tag-1497139232//
/work/sebastian/BT-20210625/1009834-light/run1009834-light.h5 tag-1497139238//
/work/sebastian/BT-20210625/1009834-light/run1009834-light.h5 tag-1497139250//
/work/sebastian/BT-20210625/1009834-light/run1009834-light.h5 tag-1497139252//
/work/sebastian/BT-20210625/1009834-light/run1009834-light.h5 tag-1497139256//
/work/sebastian/BT-20210625/1009834-light/run1009834-light.h5 tag-1497139258//
/work/sebastian/BT-20210625/1009834-light/run1009834-light.h5 tag-1497139262//
/work/sebastian/BT-20210625/1009834-light/run1009834-light.h5 tag-1497139264//
/work/sebastian/BT-20210625/1009834-light/run1009834-light.h5 tag-1497139266//
/work/sebastian/BT-20210625/1009834-light/run1009834-light.h5 tag-1497139268//
/work/sebastian/BT-20210625/1009834-light/run1009834-light.h5 tag-1497139270//
/work/sebastian/BT-20210625/1009834-light/run1009834-light.h5 tag-1497139274//
/work/sebastian/BT-20210625/1009834-light/run1009834-light.h5 tag-1497139276//
/work/sebastian/BT-20210625/1009834-light/run1009834-light.h5 tag-1497139278//
/work/sebastian/BT-20210625/1009834-light/run1009834-light.h5 tag-1497139284//
/work/sebastian/BT-20210625/1009834-light/run1009834-light.h5 tag-1497139286//
/work/sebastian/BT-20210625/1009834-light/run1009834-light.h5 tag-1497139290//
/work/sebastian/BT-20210625/1009834-light/run1009834-light.h5 tag-1497139294//
/work/sebastian/BT-20210625/1009834-light/run1009834-light.h5 tag-1497139306//
/work/sebastian/BT-20210625/1009834-light/run1009834-light.h5 tag-1497139308//
/work/sebastian/BT-20210625/1009834-light/run1009834-light.h5 tag-1497139314//
/work/sebastian/BT-20210625/1009834-light/run1009834-light.h5 tag-1497139320//
/work/sebastian/BT-20210625/1009834-light/run1009834-light.h5 tag-1497139322//
/work/sebastian/BT-20210625/1009834-light/run1009834-light.h5 tag-1497139324//
/work/sebastian/BT-20210625/1009834-light/run1009834-light.h5 tag-1497139328//
/work/sebastian/BT-20210625/1009834-light/run1009834-light.h5 tag-1497139330//
/work/sebastian/BT-20210625/1009834-light/run1009834-light.h5 tag-1497139332//
/work/sebastian/BT-20210625/1009834-light/run1009834-light.h5 tag-1497139334//
/work/sebastian/BT-20210625/1009834-light/run1009834-light.h5 tag-1497139336//
/work/sebastian/BT-20210625/1009834-light/run1009834-light.h5 tag-1497139340//
/work/sebastian/BT-20210625/1009834-light/run1009834-light.h5 tag-1497139342//
/work/sebastian/BT-20210625/1009834-light/run1009834-light.h5 tag-1497139346//
/work/sebastian/BT-20210625/1009834-light/run1009834-light.h5 tag-1497139348//
/work/sebastian/BT-20210625/1009834-light/run1009834-light.h5 tag-1497139350//
/work/sebastian/BT-20210625/1009834-light/run1009834-light.h5 tag-1497139352//
/work/sebastian/BT-20210625/1009834-light/run1009834-light.h5 tag-1497139354//
/work/sebastian/BT-20210625/1009834-light/run1009834-light.h5 tag-1497139358//
/work/sebastian/BT-20210625/1009834-light/run1009834-light.h5 tag-1497139360//
/work/sebastian/BT-20210625/1009834-light/run1009834-light.h5 tag-1497139364//
/work/sebastian/BT-20210625/1009834-light/run1009834-light.h5 tag-1497139366//
/work/sebastian/BT-20210625/1009834-light/run1009834-light.h5 tag-1497139368//
/work/sebastian/BT-20210625/1009834-light/run1009834-light.h5 tag-1497139370//
/work/sebastian/BT-20210625/1009834-light/run1009834-light.h5 tag-1497139374//
/work/sebastian/BT-20210625/1009834-light/run1009834-light.h5 tag-1497139376//
/work/sebastian/BT-20210625/1009834-light/run1009834-light.h5 tag-1497139378//
/work/sebastian/BT-20210625/1009834-light/run1009834-light.h5 tag-1497139380//
/work/sebastian/BT-20210625/1009834-light/run1009834-light.h5 tag-1497139382//
/work/sebastian/BT-20210625/1009834-light/run1009834-light.h5 tag-1497139388//
/work/sebastian/BT-20210625/1009834-light/run1009834-light.h5 tag-1497139390//
/work/sebastian/BT-20210625/1009834-light/run1009834-light.h5 tag-1497139394//
/work/sebastian/BT-20210625/1009834-light/run1009834-light.h5 tag-1497139396//
/work/sebastian/BT-20210625/1009834-light/run1009834-light.h5 tag-1497139408//
/work/sebastian/BT-20210625/1009834-light/run1009834-light.h5 tag-1497139410//
/work/sebastian/BT-20210625/1009834-light/run1009834-light.h5 tag-1497139412//
/work/sebastian/BT-20210625/1009834-light/run1009834-light.h5 tag-1497139418//
/work/sebastian/BT-20210625/1009834-light/run1009834-light.h5 tag-1497139422//
/work/sebastian/BT-20210625/1009834-light/run1009834-light.h5 tag-1497139424//
/work/sebastian/BT-20210625/1009834-light/run1009834-light.h5 tag-1497139426//
/work/sebastian/BT-20210625/1009834-light/run1009834-light.h5 tag-1497139428//
/work/sebastian/BT-20210625/1009834-light/run1009834-light.h5 tag-1497139430//
/work/sebastian/BT-20210625/1009834-light/run1009834-light.h5 tag-1497139432//
/work/sebastian/BT-20210625/1009834-light/run1009834-light.h5 tag-1497139434//
/work/sebastian/BT-20210625/1009834-light/run1009834-light.h5 tag-1497139436//
/work/sebastian/BT-20210625/1009834-light/run1009834-light.h5 tag-1497139438//
/work/sebastian/BT-20210625/1009834-light/run1009834-light.h5 tag-1497139440//
/work/sebastian/BT-20210625/1009834-light/run1009834-light.h5 tag-1497139444//
/work/sebastian/BT-20210625/1009834-light/run1009834-light.h5 tag-1497139446//
/work/sebastian/BT-20210625/1009834-light/run1009834-light.h5 tag-1497139448//
/work/sebastian/BT-20210625/1009834-light/run1009834-light.h5 tag-1497139452//
/work/sebastian/BT-20210625/1009834-light/run1009834-light.h5 tag-1497139454//
/work/sebastian/BT-20210625/1009834-light/run1009834-light.h5 tag-1497139456//
/work/sebastian/BT-20210625/1009834-light/run1009834-light.h5 tag-1497139458//
/work/sebastian/BT-20210625/1009834-light/run1009834-light.h5 tag-1497139462//
/work/sebastian/BT-20210625/1009834-light/run1009834-light.h5 tag-1497139466//
/work/sebastian/BT-20210625/1009834-light/run1009834-light.h5 tag-1497139468//
/work/sebastian/BT-20210625/1009834-light/run1009834-light.h5 tag-1497139474//
/work/sebastian/BT-20210625/1009834-light/run1009834-light.h5 tag-1497139476//
/work/sebastian/BT-20210625/1009834-light/run1009834-light.h5 tag-1497139478//
/work/sebastian/BT-20210625/1009834-light/run1009834-light.h5 tag-1497139482//
/work/sebastian/BT-20210625/1009834-light/run1009834-light.h5 tag-1497139484//
/work/sebastian/BT-20210625/1009834-light/run1009834-light.h5 tag-1497139486//
/work/sebastian/BT-20210625/1009834-light/run1009834-light.h5 tag-1497139488//
/work/sebastian/BT-20210625/1009834-light/run1009834-light.h5 tag-1497139490//
/work/sebastian/BT-20210625/1009834-light/run1009834-light.h5 tag-1497139492//
/work/sebastian/BT-20210625/1009834-light/run1009834-light.h5 tag-1497139494//
/work/sebastian/BT-20210625/1009834-light/run1009834-light.h5 tag-1497139498//
/work/sebastian/BT-20210625/1009834-light/run1009834-light.h5 tag-1497139500//
/work/sebastian/BT-20210625/1009834-light/run1009834-light.h5 tag-1497139502//
/work/sebastian/BT-20210625/1009834-light/run1009834-light.h5 tag-1497139506//
/work/sebastian/BT-20210625/1009834-light/run1009834-light.h5 tag-1497139508//
/work/sebastian/BT-20210625/1009834-light/run1009834-light.h5 tag-1497139512//
/work/sebastian/BT-20210625/1009834-light/run1009834-light.h5 tag-1497139516//
/work/sebastian/BT-20210625/1009834-light/run1009834-light.h5 tag-1497139522//
/work/sebastian/BT-20210625/1009834-light/run1009834-light.h5 tag-1497139524//
/work/sebastian/BT-20210625/1009834-light/run1009834-light.h5 tag-1497139528//
/work/sebastian/BT-20210625/1009834-light/run1009834-light.h5 tag-1497139536//
/work/sebastian/BT-20210625/1009834-light/run1009834-light.h5 tag-1497139540//
/work/sebastian/BT-20210625/1009834-light/run1009834-light.h5 tag-1497139542//
/work/sebastian/BT-20210625/1009834-light/run1009834-light.h5 tag-1497139544//
/work/sebastian/BT-20210625/1009834-light/run1009834-light.h5 tag-1497139546//
/work/sebastian/BT-20210625/1009834-light/run1009834-light.h5 tag-1497139548//
/work/sebastian/BT-20210625/1009834-light/run1009834-light.h5 tag-1497139550//
/work/sebastian/BT-20210625/1009834-light/run1009834-light.h5 tag-1497139552//
/work/sebastian/BT-20210625/1009834-light/run1009834-light.h5 tag-1497139554//
/work/sebastian/BT-20210625/1009834-light/run1009834-light.h5 tag-1497139560//
/work/sebastian/BT-20210625/1009834-light/run1009834-light.h5 tag-1497139566//
/work/sebastian/BT-20210625/1009834-light/run1009834-light.h5 tag-1497139572//
/work/sebastian/BT-20210625/1009834-light/run1009834-light.h5 tag-1497139574//
/work/sebastian/BT-20210625/1009834-light/run1009834-light.h5 tag-1497139582//
/work/sebastian/BT-20210625/1009834-light/run1009834-light.h5 tag-1497139590//
/work/sebastian/BT-20210625/1009834-light/run1009834-light.h5 tag-1497139592//
/work/sebastian/BT-20210625/1009834-light/run1009834-light.h5 tag-1497139594//
/work/sebastian/BT-20210625/1009834-light/run1009834-light.h5 tag-1497139596//
/work/sebastian/BT-20210625/1009834-light/run1009834-light.h5 tag-1497139598//
/work/sebastian/BT-20210625/1009834-light/run1009834-light.h5 tag-1497139606//
/work/sebastian/BT-20210625/1009834-light/run1009834-light.h5 tag-1497139612//
/work/sebastian/BT-20210625/1009834-light/run1009834-light.h5 tag-1497139614//
/work/sebastian/BT-20210625/1009834-light/run1009834-light.h5 tag-1497139618//
/work/sebastian/BT-20210625/1009834-light/run1009834-light.h5 tag-1497139620//
/work/sebastian/BT-20210625/1009834-light/run1009834-light.h5 tag-1497139622//
/work/sebastian/BT-20210625/1009834-light/run1009834-light.h5 tag-1497139626//
/work/sebastian/BT-20210625/1009834-light/run1009834-light.h5 tag-1497139630//
/work/sebastian/BT-20210625/1009834-light/run1009834-light.h5 tag-1497139632//
/work/sebastian/BT-20210625/1009834-light/run1009834-light.h5 tag-1497139634//
/work/sebastian/BT-20210625/1009834-light/run1009834-light.h5 tag-1497139636//
/work/sebastian/BT-20210625/1009834-light/run1009834-light.h5 tag-1497139640//
/work/sebastian/BT-20210625/1009834-light/run1009834-light.h5 tag-1497139642//
/work/sebastian/BT-20210625/1009834-light/run1009834-light.h5 tag-1497139644//
/work/sebastian/BT-20210625/1009834-light/run1009834-light.h5 tag-1497139646//
/work/sebastian/BT-20210625/1009834-light/run1009834-light.h5 tag-1497139652//
/work/sebastian/BT-20210625/1009834-light/run1009834-light.h5 tag-1497139654//
/work/sebastian/BT-20210625/1009834-light/run1009834-light.h5 tag-1497139658//
/work/sebastian/BT-20210625/1009834-light/run1009834-light.h5 tag-1497139660//
/work/sebastian/BT-20210625/1009834-light/run1009834-light.h5 tag-1497139664//
/work/sebastian/BT-20210625/1009834-light/run1009834-light.h5 tag-1497139666//
/work/sebastian/BT-20210625/1009834-light/run1009834-light.h5 tag-1497139668//
/work/sebastian/BT-20210625/1009834-light/run1009834-light.h5 tag-1497139670//
/work/sebastian/BT-20210625/1009834-light/run1009834-light.h5 tag-1497139672//
/work/sebastian/BT-20210625/1009834-light/run1009834-light.h5 tag-1497139676//
/work/sebastian/BT-20210625/1009834-light/run1009834-light.h5 tag-1497139678//
/work/sebastian/BT-20210625/1009834-light/run1009834-light.h5 tag-1497139680//
/work/sebastian/BT-20210625/1009834-light/run1009834-light.h5 tag-1497139684//
/work/sebastian/BT-20210625/1009834-light/run1009834-light.h5 tag-1497139686//
/work/sebastian/BT-20210625/1009834-light/run1009834-light.h5 tag-1497139688//
/work/sebastian/BT-20210625/1009834-light/run1009834-light.h5 tag-1497139694//
/work/sebastian/BT-20210625/1009834-light/run1009834-light.h5 tag-1497139698//
/work/sebastian/BT-20210625/1009834-light/run1009834-light.h5 tag-1497139702//
/work/sebastian/BT-20210625/1009834-light/run1009834-light.h5 tag-1497139704//
/work/sebastian/BT-20210625/1009834-light/run1009834-light.h5 tag-1497139706//
/work/sebastian/BT-20210625/1009834-light/run1009834-light.h5 tag-1497139708//
/work/sebastian/BT-20210625/1009834-light/run1009834-light.h5 tag-1497139710//
/work/sebastian/BT-20210625/1009834-light/run1009834-light.h5 tag-1497139714//
/work/sebastian/BT-20210625/1009834-light/run1009834-light.h5 tag-1497139716//
/work/sebastian/BT-20210625/1009834-light/run1009834-light.h5 tag-1497139718//
/work/sebastian/BT-20210625/1009834-light/run1009834-light.h5 tag-1497139726//
/work/sebastian/BT-20210625/1009834-light/run1009834-light.h5 tag-1497139730//
/work/sebastian/BT-20210625/1009834-light/run1009834-light.h5 tag-1497139734//
/work/sebastian/BT-20210625/1009834-light/run1009834-light.h5 tag-1497139742//
/work/sebastian/BT-20210625/1009834-light/run1009834-light.h5 tag-1497139746//
/work/sebastian/BT-20210625/1009834-light/run1009834-light.h5 tag-1497139748//
/work/sebastian/BT-20210625/1009834-light/run1009834-light.h5 tag-1497139750//
/work/sebastian/BT-20210625/1009834-light/run1009834-light.h5 tag-1497139752//
/work/sebastian/BT-20210625/1009834-light/run1009834-light.h5 tag-1497139754//
/work/sebastian/BT-20210625/1009834-light/run1009834-light.h5 tag-1497139756//
/work/sebastian/BT-20210625/1009834-light/run1009834-light.h5 tag-1497139758//
/work/sebastian/BT-20210625/1009834-light/run1009834-light.h5 tag-1497139760//
/work/sebastian/BT-20210625/1009834-light/run1009834-light.h5 tag-1497139764//
/work/sebastian/BT-20210625/1009834-light/run1009834-light.h5 tag-1497139768//
/work/sebastian/BT-20210625/1009834-light/run1009834-light.h5 tag-1497139772//
/work/sebastian/BT-20210625/1009834-light/run1009834-light.h5 tag-1497139774//
/work/sebastian/BT-20210625/1009834-light/run1009834-light.h5 tag-1497139776//
/work/sebastian/BT-20210625/1009834-light/run1009834-light.h5 tag-1497139780//
/work/sebastian/BT-20210625/1009834-light/run1009834-light.h5 tag-1497139782//
/work/sebastian/BT-20210625/1009834-light/run1009834-light.h5 tag-1497139788//
/work/sebastian/BT-20210625/1009834-light/run1009834-light.h5 tag-1497139794//
/work/sebastian/BT-20210625/1009834-light/run1009834-light.h5 tag-1497139800//
/work/sebastian/BT-20210625/1009834-light/run1009834-light.h5 tag-1497139804//
/work/sebastian/BT-20210625/1009834-light/run1009834-light.h5 tag-1497139806//
/work/sebastian/BT-20210625/1009834-light/run1009834-light.h5 tag-1497139808//
/work/sebastian/BT-20210625/1009834-light/run1009834-light.h5 tag-1497139812//
/work/sebastian/BT-20210625/1009834-light/run1009834-light.h5 tag-1497139814//
/work/sebastian/BT-20210625/1009834-light/run1009834-light.h5 tag-1497139820//
/work/sebastian/BT-20210625/1009834-light/run1009834-light.h5 tag-1497139822//
/work/sebastian/BT-20210625/1009834-light/run1009834-light.h5 tag-1497139824//
/work/sebastian/BT-20210625/1009834-light/run1009834-light.h5 tag-1497139826//
/work/sebastian/BT-20210625/1009834-light/run1009834-light.h5 tag-1497139828//
/work/sebastian/BT-20210625/1009834-light/run1009834-light.h5 tag-1497139830//
/work/sebastian/BT-20210625/1009834-light/run1009834-light.h5 tag-1497139836//
/work/sebastian/BT-20210625/1009834-light/run1009834-light.h5 tag-1497139838//
/work/sebastian/BT-20210625/1009834-light/run1009834-light.h5 tag-1497139840//
/work/sebastian/BT-20210625/1009834-light/run1009834-light.h5 tag-1497139844//
/work/sebastian/BT-20210625/1009834-light/run1009834-light.h5 tag-1497139850//
/work/sebastian/BT-20210625/1009834-light/run1009834-light.h5 tag-1497139854//
/work/sebastian/BT-20210625/1009834-light/run1009834-light.h5 tag-1497139856//
/work/sebastian/BT-20210625/1009834-light/run1009834-light.h5 tag-1497139858//
/work/sebastian/BT-20210625/1009834-light/run1009834-light.h5 tag-1497139860//
/work/sebastian/BT-20210625/1009834-light/run1009834-light.h5 tag-1497139862//
/work/sebastian/BT-20210625/1009834-light/run1009834-light.h5 tag-1497139864//
/work/sebastian/BT-20210625/1009834-light/run1009834-light.h5 tag-1497139868//
/work/sebastian/BT-20210625/1009834-light/run1009834-light.h5 tag-1497139870//
/work/sebastian/BT-20210625/1009834-light/run1009834-light.h5 tag-1497139872//
/work/sebastian/BT-20210625/1009834-light/run1009834-light.h5 tag-1497139874//
/work/sebastian/BT-20210625/1009834-light/run1009834-light.h5 tag-1497139876//
/work/sebastian/BT-20210625/1009834-light/run1009834-light.h5 tag-1497139882//
/work/sebastian/BT-20210625/1009834-light/run1009834-light.h5 tag-1497139888//
/work/sebastian/BT-20210625/1009834-light/run1009834-light.h5 tag-1497139890//
/work/sebastian/BT-20210625/1009834-light/run1009834-light.h5 tag-1497139892//
/work/sebastian/BT-20210625/1009834-light/run1009834-light.h5 tag-1497139896//
/work/sebastian/BT-20210625/1009834-light/run1009834-light.h5 tag-1497139898//
/work/sebastian/BT-20210625/1009834-light/run1009834-light.h5 tag-1497139900//
/work/sebastian/BT-20210625/1009834-light/run1009834-light.h5 tag-1497139902//
/work/sebastian/BT-20210625/1009834-light/run1009834-light.h5 tag-1497139904//
/work/sebastian/BT-20210625/1009834-light/run1009834-light.h5 tag-1497139910//
/work/sebastian/BT-20210625/1009834-light/run1009834-light.h5 tag-1497139914//
/work/sebastian/BT-20210625/1009834-light/run1009834-light.h5 tag-1497139920//
/work/sebastian/BT-20210625/1009834-light/run1009834-light.h5 tag-1497139922//
/work/sebastian/BT-20210625/1009834-light/run1009834-light.h5 tag-1497139926//
/work/sebastian/BT-20210625/1009834-light/run1009834-light.h5 tag-1497139930//
/work/sebastian/BT-20210625/1009834-light/run1009834-light.h5 tag-1497139932//
/work/sebastian/BT-20210625/1009834-light/run1009834-light.h5 tag-1497139934//
/work/sebastian/BT-20210625/1009834-light/run1009834-light.h5 tag-1497139938//
/work/sebastian/BT-20210625/1009834-light/run1009834-light.h5 tag-1497139940//
/work/sebastian/BT-20210625/1009834-light/run1009834-light.h5 tag-1497139944//
/work/sebastian/BT-20210625/1009834-light/run1009834-light.h5 tag-1497139948//
/work/sebastian/BT-20210625/1009834-light/run1009834-light.h5 tag-1497139952//
/work/sebastian/BT-20210625/1009834-light/run1009834-light.h5 tag-1497139956//
/work/sebastian/BT-20210625/1009834-light/run1009834-light.h5 tag-1497139958//
/work/sebastian/BT-20210625/1009834-light/run1009834-light.h5 tag-1497139960//
/work/sebastian/BT-20210625/1009834-light/run1009834-light.h5 tag-1497139962//
/work/sebastian/BT-20210625/1009834-light/run1009834-light.h5 tag-1497139964//
/work/sebastian/BT-20210625/1009834-light/run1009834-light.h5 tag-1497139970//
/work/sebastian/BT-20210625/1009834-light/run1009834-light.h5 tag-1497139976//
/work/sebastian/BT-20210625/1009834-light/run1009834-light.h5 tag-1497139978//
/work/sebastian/BT-20210625/1009834-light/run1009834-light.h5 tag-1497139982//
/work/sebastian/BT-20210625/1009834-light/run1009834-light.h5 tag-1497139984//
/work/sebastian/BT-20210625/1009834-light/run1009834-light.h5 tag-1497139986//
/work/sebastian/BT-20210625/1009834-light/run1009834-light.h5 tag-1497139988//
/work/sebastian/BT-20210625/1009834-light/run1009834-light.h5 tag-1497139990//
/work/sebastian/BT-20210625/1009834-light/run1009834-light.h5 tag-1497139992//
/work/sebastian/BT-20210625/1009834-light/run1009834-light.h5 tag-1497139996//
/work/sebastian/BT-20210625/1009834-light/run1009834-light.h5 tag-1497139998//
/work/sebastian/BT-20210625/1009834-light/run1009834-light.h5 tag-1497140002//
/work/sebastian/BT-20210625/1009834-light/run1009834-light.h5 tag-1497140010//
/work/sebastian/BT-20210625/1009834-light/run1009834-light.h5 tag-1497140012//
/work/sebastian/BT-20210625/1009834-light/run1009834-light.h5 tag-1497140018//
/work/sebastian/BT-20210625/1009834-light/run1009834-light.h5 tag-1497140020//
/work/sebastian/BT-20210625/1009834-light/run1009834-light.h5 tag-1497140022//
/work/sebastian/BT-20210625/1009834-light/run1009834-light.h5 tag-1497140026//
/work/sebastian/BT-20210625/1009834-light/run1009834-light.h5 tag-1497140030//
/work/sebastian/BT-20210625/1009834-light/run1009834-light.h5 tag-1497140042//
/work/sebastian/BT-20210625/1009834-light/run1009834-light.h5 tag-1497140044//
/work/sebastian/BT-20210625/1009834-light/run1009834-light.h5 tag-1497140046//
/work/sebastian/BT-20210625/1009834-light/run1009834-light.h5 tag-1497140050//
/work/sebastian/BT-20210625/1009834-light/run1009834-light.h5 tag-1497140054//
/work/sebastian/BT-20210625/1009834-light/run1009834-light.h5 tag-1497140056//
/work/sebastian/BT-20210625/1009834-light/run1009834-light.h5 tag-1497140060//
/work/sebastian/BT-20210625/1009834-light/run1009834-light.h5 tag-1497140066//
/work/sebastian/BT-20210625/1009834-light/run1009834-light.h5 tag-1497140070//
/work/sebastian/BT-20210625/1009834-light/run1009834-light.h5 tag-1497140074//
/work/sebastian/BT-20210625/1009834-light/run1009834-light.h5 tag-1497140076//
/work/sebastian/BT-20210625/1009834-light/run1009834-light.h5 tag-1497140078//
/work/sebastian/BT-20210625/1009834-light/run1009834-light.h5 tag-1497140082//
/work/sebastian/BT-20210625/1009834-light/run1009834-light.h5 tag-1497140084//
/work/sebastian/BT-20210625/1009834-light/run1009834-light.h5 tag-1497140086//
/work/sebastian/BT-20210625/1009834-light/run1009834-light.h5 tag-1497140088//
/work/sebastian/BT-20210625/1009834-light/run1009834-light.h5 tag-1497140094//
/work/sebastian/BT-20210625/1009834-light/run1009834-light.h5 tag-1497140096//
/work/sebastian/BT-20210625/1009834-light/run1009834-light.h5 tag-1497140104//
/work/sebastian/BT-20210625/1009834-light/run1009834-light.h5 tag-1497140108//
/work/sebastian/BT-20210625/1009834-light/run1009834-light.h5 tag-1497140110//
/work/sebastian/BT-20210625/1009834-light/run1009834-light.h5 tag-1497140112//
/work/sebastian/BT-20210625/1009834-light/run1009834-light.h5 tag-1497140116//
/work/sebastian/BT-20210625/1009834-light/run1009834-light.h5 tag-1497140118//
/work/sebastian/BT-20210625/1009834-light/run1009834-light.h5 tag-1497140120//
/work/sebastian/BT-20210625/1009834-light/run1009834-light.h5 tag-1497140126//
/work/sebastian/BT-20210625/1009834-light/run1009834-light.h5 tag-1497140132//
/work/sebastian/BT-20210625/1009834-light/run1009834-light.h5 tag-1497140134//
/work/sebastian/BT-20210625/1009834-light/run1009834-light.h5 tag-1497140136//
/work/sebastian/BT-20210625/1009834-light/run1009834-light.h5 tag-1497140138//
/work/sebastian/BT-20210625/1009834-light/run1009834-light.h5 tag-1497140146//
/work/sebastian/BT-20210625/1009834-light/run1009834-light.h5 tag-1497140150//
/work/sebastian/BT-20210625/1009834-light/run1009834-light.h5 tag-1497140152//
/work/sebastian/BT-20210625/1009834-light/run1009834-light.h5 tag-1497140156//
/work/sebastian/BT-20210625/1009834-light/run1009834-light.h5 tag-1497140160//
/work/sebastian/BT-20210625/1009834-light/run1009834-light.h5 tag-1497140162//
/work/sebastian/BT-20210625/1009834-light/run1009834-light.h5 tag-1497140164//
/work/sebastian/BT-20210625/1009834-light/run1009834-light.h5 tag-1497140166//
/work/sebastian/BT-20210625/1009834-light/run1009834-light.h5 tag-1497140168//
/work/sebastian/BT-20210625/1009834-light/run1009834-light.h5 tag-1497140170//
/work/sebastian/BT-20210625/1009834-light/run1009834-light.h5 tag-1497140172//
/work/sebastian/BT-20210625/1009834-light/run1009834-light.h5 tag-1497140180//
/work/sebastian/BT-20210625/1009834-light/run1009834-light.h5 tag-1497140186//
/work/sebastian/BT-20210625/1009834-light/run1009834-light.h5 tag-1497140188//
/work/sebastian/BT-20210625/1009834-light/run1009834-light.h5 tag-1497140190//
/work/sebastian/BT-20210625/1009834-light/run1009834-light.h5 tag-1497140192//
/work/sebastian/BT-20210625/1009834-light/run1009834-light.h5 tag-1497140194//
/work/sebastian/BT-20210625/1009834-light/run1009834-light.h5 tag-1497140196//
/work/sebastian/BT-20210625/1009834-light/run1009834-light.h5 tag-1497140198//
/work/sebastian/BT-20210625/1009834-light/run1009834-light.h5 tag-1497140200//
/work/sebastian/BT-20210625/1009834-light/run1009834-light.h5 tag-1497140202//
/work/sebastian/BT-20210625/1009834-light/run1009834-light.h5 tag-1497140204//
/work/sebastian/BT-20210625/1009834-light/run1009834-light.h5 tag-1497140206//
/work/sebastian/BT-20210625/1009834-light/run1009834-light.h5 tag-1497140208//
/work/sebastian/BT-20210625/1009834-light/run1009834-light.h5 tag-1497140210//
/work/sebastian/BT-20210625/1009834-light/run1009834-light.h5 tag-1497140214//
/work/sebastian/BT-20210625/1009834-light/run1009834-light.h5 tag-1497140218//
/work/sebastian/BT-20210625/1009834-light/run1009834-light.h5 tag-1497140222//
/work/sebastian/BT-20210625/1009834-light/run1009834-light.h5 tag-1497140230//
/work/sebastian/BT-20210625/1009834-light/run1009834-light.h5 tag-1497140234//
/work/sebastian/BT-20210625/1009834-light/run1009834-light.h5 tag-1497140240//
/work/sebastian/BT-20210625/1009834-light/run1009834-light.h5 tag-1497140242//
/work/sebastian/BT-20210625/1009834-light/run1009834-light.h5 tag-1497140244//
/work/sebastian/BT-20210625/1009834-light/run1009834-light.h5 tag-1497140246//
/work/sebastian/BT-20210625/1009834-light/run1009834-light.h5 tag-1497140254//
/work/sebastian/BT-20210625/1009834-light/run1009834-light.h5 tag-1497140258//
/work/sebastian/BT-20210625/1009834-light/run1009834-light.h5 tag-1497140260//
/work/sebastian/BT-20210625/1009834-light/run1009834-light.h5 tag-1497140266//
/work/sebastian/BT-20210625/1009834-light/run1009834-light.h5 tag-1497140268//
/work/sebastian/BT-20210625/1009834-light/run1009834-light.h5 tag-1497140272//
/work/sebastian/BT-20210625/1009834-light/run1009834-light.h5 tag-1497140278//
/work/sebastian/BT-20210625/1009834-light/run1009834-light.h5 tag-1497140280//
/work/sebastian/BT-20210625/1009834-light/run1009834-light.h5 tag-1497140282//
/work/sebastian/BT-20210625/1009834-light/run1009834-light.h5 tag-1497140286//
/work/sebastian/BT-20210625/1009834-light/run1009834-light.h5 tag-1497140288//
/work/sebastian/BT-20210625/1009834-light/run1009834-light.h5 tag-1497140290//
/work/sebastian/BT-20210625/1009834-light/run1009834-light.h5 tag-1497140292//
/work/sebastian/BT-20210625/1009834-light/run1009834-light.h5 tag-1497140298//
/work/sebastian/BT-20210625/1009834-light/run1009834-light.h5 tag-1497140300//
/work/sebastian/BT-20210625/1009834-light/run1009834-light.h5 tag-1497140302//
/work/sebastian/BT-20210625/1009834-light/run1009834-light.h5 tag-1497140304//
/work/sebastian/BT-20210625/1009834-light/run1009834-light.h5 tag-1497140306//
/work/sebastian/BT-20210625/1009834-light/run1009834-light.h5 tag-1497140308//
/work/sebastian/BT-20210625/1009834-light/run1009834-light.h5 tag-1497140316//
/work/sebastian/BT-20210625/1009834-light/run1009834-light.h5 tag-1497140320//
/work/sebastian/BT-20210625/1009834-light/run1009834-light.h5 tag-1497140322//
/work/sebastian/BT-20210625/1009834-light/run1009834-light.h5 tag-1497140324//
/work/sebastian/BT-20210625/1009834-light/run1009834-light.h5 tag-1497140328//
/work/sebastian/BT-20210625/1009834-light/run1009834-light.h5 tag-1497140334//
/work/sebastian/BT-20210625/1009834-light/run1009834-light.h5 tag-1497140336//
/work/sebastian/BT-20210625/1009834-light/run1009834-light.h5 tag-1497140338//
/work/sebastian/BT-20210625/1009834-light/run1009834-light.h5 tag-1497140340//
/work/sebastian/BT-20210625/1009834-light/run1009834-light.h5 tag-1497140348//
/work/sebastian/BT-20210625/1009834-light/run1009834-light.h5 tag-1497140352//
/work/sebastian/BT-20210625/1009834-light/run1009834-light.h5 tag-1497140356//
/work/sebastian/BT-20210625/1009834-light/run1009834-light.h5 tag-1497140360//
/work/sebastian/BT-20210625/1009834-light/run1009834-light.h5 tag-1497140364//
/work/sebastian/BT-20210625/1009834-light/run1009834-light.h5 tag-1497140370//
/work/sebastian/BT-20210625/1009834-light/run1009834-light.h5 tag-1497140372//
/work/sebastian/BT-20210625/1009834-light/run1009834-light.h5 tag-1497140378//
/work/sebastian/BT-20210625/1009834-light/run1009834-light.h5 tag-1497140380//
/work/sebastian/BT-20210625/1009834-light/run1009834-light.h5 tag-1497140382//
/work/sebastian/BT-20210625/1009834-light/run1009834-light.h5 tag-1497140384//
/work/sebastian/BT-20210625/1009834-light/run1009834-light.h5 tag-1497140386//
/work/sebastian/BT-20210625/1009834-light/run1009834-light.h5 tag-1497140392//
/work/sebastian/BT-20210625/1009834-light/run1009834-light.h5 tag-1497140396//
/work/sebastian/BT-20210625/1009834-light/run1009834-light.h5 tag-1497140400//
/work/sebastian/BT-20210625/1009834-light/run1009834-light.h5 tag-1497140406//
/work/sebastian/BT-20210625/1009834-light/run1009834-light.h5 tag-1497140408//
/work/sebastian/BT-20210625/1009834-light/run1009834-light.h5 tag-1497140410//
/work/sebastian/BT-20210625/1009834-light/run1009834-light.h5 tag-1497140412//
/work/sebastian/BT-20210625/1009834-light/run1009834-light.h5 tag-1497140414//
/work/sebastian/BT-20210625/1009834-light/run1009834-light.h5 tag-1497140416//
/work/sebastian/BT-20210625/1009834-light/run1009834-light.h5 tag-1497140420//
/work/sebastian/BT-20210625/1009834-light/run1009834-light.h5 tag-1497140422//
/work/sebastian/BT-20210625/1009834-light/run1009834-light.h5 tag-1497140428//
/work/sebastian/BT-20210625/1009834-light/run1009834-light.h5 tag-1497140430//
/work/sebastian/BT-20210625/1009834-light/run1009834-light.h5 tag-1497140434//
/work/sebastian/BT-20210625/1009834-light/run1009834-light.h5 tag-1497140438//
/work/sebastian/BT-20210625/1009834-light/run1009834-light.h5 tag-1497140442//
/work/sebastian/BT-20210625/1009834-light/run1009834-light.h5 tag-1497140446//
/work/sebastian/BT-20210625/1009834-light/run1009834-light.h5 tag-1497140450//
/work/sebastian/BT-20210625/1009834-light/run1009834-light.h5 tag-1497140454//
/work/sebastian/BT-20210625/1009834-light/run1009834-light.h5 tag-1497140456//
/work/sebastian/BT-20210625/1009834-light/run1009834-light.h5 tag-1497140462//
/work/sebastian/BT-20210625/1009834-light/run1009834-light.h5 tag-1497140464//
/work/sebastian/BT-20210625/1009834-light/run1009834-light.h5 tag-1497140466//
/work/sebastian/BT-20210625/1009834-light/run1009834-light.h5 tag-1497140470//
/work/sebastian/BT-20210625/1009834-light/run1009834-light.h5 tag-1497140476//
/work/sebastian/BT-20210625/1009834-light/run1009834-light.h5 tag-1497140480//
/work/sebastian/BT-20210625/1009834-light/run1009834-light.h5 tag-1497140486//
/work/sebastian/BT-20210625/1009834-light/run1009834-light.h5 tag-1497140490//
/work/sebastian/BT-20210625/1009834-light/run1009834-light.h5 tag-1497140494//
/work/sebastian/BT-20210625/1009834-light/run1009834-light.h5 tag-1497140498//
/work/sebastian/BT-20210625/1009834-light/run1009834-light.h5 tag-1497140504//
/work/sebastian/BT-20210625/1009834-light/run1009834-light.h5 tag-1497140506//
/work/sebastian/BT-20210625/1009834-light/run1009834-light.h5 tag-1497140514//
/work/sebastian/BT-20210625/1009834-light/run1009834-light.h5 tag-1497140518//
/work/sebastian/BT-20210625/1009834-light/run1009834-light.h5 tag-1497140522//
/work/sebastian/BT-20210625/1009834-light/run1009834-light.h5 tag-1497140526//
/work/sebastian/BT-20210625/1009834-light/run1009834-light.h5 tag-1497140532//
/work/sebastian/BT-20210625/1009834-light/run1009834-light.h5 tag-1497140538//
/work/sebastian/BT-20210625/1009834-light/run1009834-light.h5 tag-1497140540//
/work/sebastian/BT-20210625/1009834-light/run1009834-light.h5 tag-1497140542//
/work/sebastian/BT-20210625/1009834-light/run1009834-light.h5 tag-1497140548//
/work/sebastian/BT-20210625/1009834-light/run1009834-light.h5 tag-1497140552//
/work/sebastian/BT-20210625/1009834-light/run1009834-light.h5 tag-1497140556//
/work/sebastian/BT-20210625/1009834-light/run1009834-light.h5 tag-1497140562//
/work/sebastian/BT-20210625/1009834-light/run1009834-light.h5 tag-1497140564//
/work/sebastian/BT-20210625/1009834-light/run1009834-light.h5 tag-1497140566//
/work/sebastian/BT-20210625/1009834-light/run1009834-light.h5 tag-1497140568//
/work/sebastian/BT-20210625/1009834-light/run1009834-light.h5 tag-1497140572//
/work/sebastian/BT-20210625/1009834-light/run1009834-light.h5 tag-1497140576//
/work/sebastian/BT-20210625/1009834-light/run1009834-light.h5 tag-1497140580//
/work/sebastian/BT-20210625/1009834-light/run1009834-light.h5 tag-1497140582//
/work/sebastian/BT-20210625/1009834-light/run1009834-light.h5 tag-1497140586//
/work/sebastian/BT-20210625/1009834-light/run1009834-light.h5 tag-1497140588//
/work/sebastian/BT-20210625/1009834-light/run1009834-light.h5 tag-1497140590//
/work/sebastian/BT-20210625/1009834-light/run1009834-light.h5 tag-1497140594//
/work/sebastian/BT-20210625/1009834-light/run1009834-light.h5 tag-1497140596//
/work/sebastian/BT-20210625/1009834-light/run1009834-light.h5 tag-1497140598//
/work/sebastian/BT-20210625/1009834-light/run1009834-light.h5 tag-1497140606//
/work/sebastian/BT-20210625/1009834-light/run1009834-light.h5 tag-1497140608//
/work/sebastian/BT-20210625/1009834-light/run1009834-light.h5 tag-1497140610//
/work/sebastian/BT-20210625/1009834-light/run1009834-light.h5 tag-1497140612//
/work/sebastian/BT-20210625/1009834-light/run1009834-light.h5 tag-1497140616//
/work/sebastian/BT-20210625/1009834-light/run1009834-light.h5 tag-1497140618//
/work/sebastian/BT-20210625/1009834-light/run1009834-light.h5 tag-1497140620//
/work/sebastian/BT-20210625/1009834-light/run1009834-light.h5 tag-1497140624//
/work/sebastian/BT-20210625/1009834-light/run1009834-light.h5 tag-1497140628//
/work/sebastian/BT-20210625/1009834-light/run1009834-light.h5 tag-1497140630//
/work/sebastian/BT-20210625/1009834-light/run1009834-light.h5 tag-1497140634//
/work/sebastian/BT-20210625/1009834-light/run1009834-light.h5 tag-1497140636//
/work/sebastian/BT-20210625/1009834-light/run1009834-light.h5 tag-1497140638//
/work/sebastian/BT-20210625/1009834-light/run1009834-light.h5 tag-1497140646//
/work/sebastian/BT-20210625/1009834-light/run1009834-light.h5 tag-1497140648//
/work/sebastian/BT-20210625/1009834-light/run1009834-light.h5 tag-1497140650//
/work/sebastian/BT-20210625/1009834-light/run1009834-light.h5 tag-1497140654//
/work/sebastian/BT-20210625/1009834-light/run1009834-light.h5 tag-1497140656//
/work/sebastian/BT-20210625/1009834-light/run1009834-light.h5 tag-1497140658//
/work/sebastian/BT-20210625/1009834-light/run1009834-light.h5 tag-1497140660//
/work/sebastian/BT-20210625/1009834-light/run1009834-light.h5 tag-1497140662//
/work/sebastian/BT-20210625/1009834-light/run1009834-light.h5 tag-1497140664//
/work/sebastian/BT-20210625/1009834-light/run1009834-light.h5 tag-1497140668//
/work/sebastian/BT-20210625/1009834-light/run1009834-light.h5 tag-1497140670//
/work/sebastian/BT-20210625/1009834-light/run1009834-light.h5 tag-1497140672//
/work/sebastian/BT-20210625/1009834-light/run1009834-light.h5 tag-1497140674//
/work/sebastian/BT-20210625/1009834-light/run1009834-light.h5 tag-1497140676//
/work/sebastian/BT-20210625/1009834-light/run1009834-light.h5 tag-1497140680//
/work/sebastian/BT-20210625/1009834-light/run1009834-light.h5 tag-1497140682//
/work/sebastian/BT-20210625/1009834-light/run1009834-light.h5 tag-1497140686//
/work/sebastian/BT-20210625/1009834-light/run1009834-light.h5 tag-1497140688//
/work/sebastian/BT-20210625/1009834-light/run1009834-light.h5 tag-1497140692//
/work/sebastian/BT-20210625/1009834-light/run1009834-light.h5 tag-1497140696//
/work/sebastian/BT-20210625/1009834-light/run1009834-light.h5 tag-1497140698//
/work/sebastian/BT-20210625/1009834-light/run1009834-light.h5 tag-1497140702//
/work/sebastian/BT-20210625/1009834-light/run1009834-light.h5 tag-1497140706//
/work/sebastian/BT-20210625/1009834-light/run1009834-light.h5 tag-1497140710//
/work/sebastian/BT-20210625/1009834-light/run1009834-light.h5 tag-1497140716//
/work/sebastian/BT-20210625/1009834-light/run1009834-light.h5 tag-1497140718//
/work/sebastian/BT-20210625/1009834-light/run1009834-light.h5 tag-1497140720//
/work/sebastian/BT-20210625/1009834-light/run1009834-light.h5 tag-1497140728//
/work/sebastian/BT-20210625/1009834-light/run1009834-light.h5 tag-1497140730//
/work/sebastian/BT-20210625/1009834-light/run1009834-light.h5 tag-1497140732//
/work/sebastian/BT-20210625/1009834-light/run1009834-light.h5 tag-1497140734//
/work/sebastian/BT-20210625/1009834-light/run1009834-light.h5 tag-1497140738//
/work/sebastian/BT-20210625/1009834-light/run1009834-light.h5 tag-1497140740//
/work/sebastian/BT-20210625/1009834-light/run1009834-light.h5 tag-1497140744//
/work/sebastian/BT-20210625/1009834-light/run1009834-light.h5 tag-1497140748//
/work/sebastian/BT-20210625/1009834-light/run1009834-light.h5 tag-1497140752//
/work/sebastian/BT-20210625/1009834-light/run1009834-light.h5 tag-1497140754//
/work/sebastian/BT-20210625/1009834-light/run1009834-light.h5 tag-1497140756//
/work/sebastian/BT-20210625/1009834-light/run1009834-light.h5 tag-1497140758//
/work/sebastian/BT-20210625/1009834-light/run1009834-light.h5 tag-1497140760//
/work/sebastian/BT-20210625/1009834-light/run1009834-light.h5 tag-1497140764//
/work/sebastian/BT-20210625/1009834-light/run1009834-light.h5 tag-1497140766//
/work/sebastian/BT-20210625/1009834-light/run1009834-light.h5 tag-1497140772//
/work/sebastian/BT-20210625/1009834-light/run1009834-light.h5 tag-1497140776//
/work/sebastian/BT-20210625/1009834-light/run1009834-light.h5 tag-1497140786//
/work/sebastian/BT-20210625/1009834-light/run1009834-light.h5 tag-1497140788//
/work/sebastian/BT-20210625/1009834-light/run1009834-light.h5 tag-1497140790//
/work/sebastian/BT-20210625/1009834-light/run1009834-light.h5 tag-1497140792//
/work/sebastian/BT-20210625/1009834-light/run1009834-light.h5 tag-1497140796//
/work/sebastian/BT-20210625/1009834-light/run1009834-light.h5 tag-1497140798//
/work/sebastian/BT-20210625/1009834-light/run1009834-light.h5 tag-1497140800//
/work/sebastian/BT-20210625/1009834-light/run1009834-light.h5 tag-1497140802//
/work/sebastian/BT-20210625/1009834-light/run1009834-light.h5 tag-1497140804//
/work/sebastian/BT-20210625/1009834-light/run1009834-light.h5 tag-1497140806//
/work/sebastian/BT-20210625/1009834-light/run1009834-light.h5 tag-1497140808//
/work/sebastian/BT-20210625/1009834-light/run1009834-light.h5 tag-1497140810//
/work/sebastian/BT-20210625/1009834-light/run1009834-light.h5 tag-1497140812//
/work/sebastian/BT-20210625/1009834-light/run1009834-light.h5 tag-1497140820//
/work/sebastian/BT-20210625/1009834-light/run1009834-light.h5 tag-1497140822//
/work/sebastian/BT-20210625/1009834-light/run1009834-light.h5 tag-1497140824//
/work/sebastian/BT-20210625/1009834-light/run1009834-light.h5 tag-1497140826//
/work/sebastian/BT-20210625/1009834-light/run1009834-light.h5 tag-1497140828//
/work/sebastian/BT-20210625/1009834-light/run1009834-light.h5 tag-1497140834//
/work/sebastian/BT-20210625/1009834-light/run1009834-light.h5 tag-1497140836//
/work/sebastian/BT-20210625/1009834-light/run1009834-light.h5 tag-1497140838//
/work/sebastian/BT-20210625/1009834-light/run1009834-light.h5 tag-1497140840//
/work/sebastian/BT-20210625/1009834-light/run1009834-light.h5 tag-1497140844//
/work/sebastian/BT-20210625/1009834-light/run1009834-light.h5 tag-1497140846//
/work/sebastian/BT-20210625/1009834-light/run1009834-light.h5 tag-1497140850//
/work/sebastian/BT-20210625/1009834-light/run1009834-light.h5 tag-1497140852//
/work/sebastian/BT-20210625/1009834-light/run1009834-light.h5 tag-1497140854//
/work/sebastian/BT-20210625/1009834-light/run1009834-light.h5 tag-1497140858//
/work/sebastian/BT-20210625/1009834-light/run1009834-light.h5 tag-1497140860//
/work/sebastian/BT-20210625/1009834-light/run1009834-light.h5 tag-1497140862//
/work/sebastian/BT-20210625/1009834-light/run1009834-light.h5 tag-1497140864//
/work/sebastian/BT-20210625/1009834-light/run1009834-light.h5 tag-1497140866//
/work/sebastian/BT-20210625/1009834-light/run1009834-light.h5 tag-1497140868//
/work/sebastian/BT-20210625/1009834-light/run1009834-light.h5 tag-1497140870//
/work/sebastian/BT-20210625/1009834-light/run1009834-light.h5 tag-1497140878//
/work/sebastian/BT-20210625/1009834-light/run1009834-light.h5 tag-1497140880//
/work/sebastian/BT-20210625/1009834-light/run1009834-light.h5 tag-1497140882//
/work/sebastian/BT-20210625/1009834-light/run1009834-light.h5 tag-1497140886//
/work/sebastian/BT-20210625/1009834-light/run1009834-light.h5 tag-1497140888//
/work/sebastian/BT-20210625/1009834-light/run1009834-light.h5 tag-1497140892//
/work/sebastian/BT-20210625/1009834-light/run1009834-light.h5 tag-1497140894//
/work/sebastian/BT-20210625/1009834-light/run1009834-light.h5 tag-1497140898//
/work/sebastian/BT-20210625/1009834-light/run1009834-light.h5 tag-1497140900//
/work/sebastian/BT-20210625/1009834-light/run1009834-light.h5 tag-1497140902//
/work/sebastian/BT-20210625/1009834-light/run1009834-light.h5 tag-1497140910//
/work/sebastian/BT-20210625/1009834-light/run1009834-light.h5 tag-1497140912//
/work/sebastian/BT-20210625/1009834-light/run1009834-light.h5 tag-1497140914//
/work/sebastian/BT-20210625/1009834-light/run1009834-light.h5 tag-1497140918//
/work/sebastian/BT-20210625/1009834-light/run1009834-light.h5 tag-1497140920//
/work/sebastian/BT-20210625/1009834-light/run1009834-light.h5 tag-1497140922//
/work/sebastian/BT-20210625/1009834-light/run1009834-light.h5 tag-1497140924//
/work/sebastian/BT-20210625/1009834-light/run1009834-light.h5 tag-1497140928//
/work/sebastian/BT-20210625/1009834-light/run1009834-light.h5 tag-1497140930//
/work/sebastian/BT-20210625/1009834-light/run1009834-light.h5 tag-1497140934//
/work/sebastian/BT-20210625/1009834-light/run1009834-light.h5 tag-1497140936//
/work/sebastian/BT-20210625/1009834-light/run1009834-light.h5 tag-1497140938//
/work/sebastian/BT-20210625/1009834-light/run1009834-light.h5 tag-1497140940//
/work/sebastian/BT-20210625/1009834-light/run1009834-light.h5 tag-1497140942//
/work/sebastian/BT-20210625/1009834-light/run1009834-light.h5 tag-1497140944//
/work/sebastian/BT-20210625/1009834-light/run1009834-light.h5 tag-1497140948//
/work/sebastian/BT-20210625/1009834-light/run1009834-light.h5 tag-1497140950//
/work/sebastian/BT-20210625/1009834-light/run1009834-light.h5 tag-1497140956//
/work/sebastian/BT-20210625/1009834-light/run1009834-light.h5 tag-1497140958//
/work/sebastian/BT-20210625/1009834-light/run1009834-light.h5 tag-1497140960//
/work/sebastian/BT-20210625/1009834-light/run1009834-light.h5 tag-1497140962//
/work/sebastian/BT-20210625/1009834-light/run1009834-light.h5 tag-1497140966//
