/work/sebastian/BT-20210625/1009791-light/run1009791-light.h5 tag-1496847962//
/work/sebastian/BT-20210625/1009791-light/run1009791-light.h5 tag-1496847964//
/work/sebastian/BT-20210625/1009791-light/run1009791-light.h5 tag-1496847966//
/work/sebastian/BT-20210625/1009791-light/run1009791-light.h5 tag-1496847968//
/work/sebastian/BT-20210625/1009791-light/run1009791-light.h5 tag-1496847976//
/work/sebastian/BT-20210625/1009791-light/run1009791-light.h5 tag-1496847978//
/work/sebastian/BT-20210625/1009791-light/run1009791-light.h5 tag-1496847980//
/work/sebastian/BT-20210625/1009791-light/run1009791-light.h5 tag-1496847982//
/work/sebastian/BT-20210625/1009791-light/run1009791-light.h5 tag-1496847988//
/work/sebastian/BT-20210625/1009791-light/run1009791-light.h5 tag-1496847990//
/work/sebastian/BT-20210625/1009791-light/run1009791-light.h5 tag-1496847992//
/work/sebastian/BT-20210625/1009791-light/run1009791-light.h5 tag-1496847994//
/work/sebastian/BT-20210625/1009791-light/run1009791-light.h5 tag-1496848002//
/work/sebastian/BT-20210625/1009791-light/run1009791-light.h5 tag-1496848004//
/work/sebastian/BT-20210625/1009791-light/run1009791-light.h5 tag-1496848006//
/work/sebastian/BT-20210625/1009791-light/run1009791-light.h5 tag-1496848008//
/work/sebastian/BT-20210625/1009791-light/run1009791-light.h5 tag-1496848014//
/work/sebastian/BT-20210625/1009791-light/run1009791-light.h5 tag-1496848016//
/work/sebastian/BT-20210625/1009791-light/run1009791-light.h5 tag-1496848018//
/work/sebastian/BT-20210625/1009791-light/run1009791-light.h5 tag-1496848020//
/work/sebastian/BT-20210625/1009791-light/run1009791-light.h5 tag-1496848022//
/work/sebastian/BT-20210625/1009791-light/run1009791-light.h5 tag-1496848024//
/work/sebastian/BT-20210625/1009791-light/run1009791-light.h5 tag-1496848030//
/work/sebastian/BT-20210625/1009791-light/run1009791-light.h5 tag-1496848032//
/work/sebastian/BT-20210625/1009791-light/run1009791-light.h5 tag-1496848042//
/work/sebastian/BT-20210625/1009791-light/run1009791-light.h5 tag-1496848044//
/work/sebastian/BT-20210625/1009791-light/run1009791-light.h5 tag-1496848046//
/work/sebastian/BT-20210625/1009791-light/run1009791-light.h5 tag-1496848048//
/work/sebastian/BT-20210625/1009791-light/run1009791-light.h5 tag-1496848052//
/work/sebastian/BT-20210625/1009791-light/run1009791-light.h5 tag-1496848058//
/work/sebastian/BT-20210625/1009791-light/run1009791-light.h5 tag-1496848060//
/work/sebastian/BT-20210625/1009791-light/run1009791-light.h5 tag-1496848062//
/work/sebastian/BT-20210625/1009791-light/run1009791-light.h5 tag-1496848066//
/work/sebastian/BT-20210625/1009791-light/run1009791-light.h5 tag-1496848074//
/work/sebastian/BT-20210625/1009791-light/run1009791-light.h5 tag-1496848076//
/work/sebastian/BT-20210625/1009791-light/run1009791-light.h5 tag-1496848078//
/work/sebastian/BT-20210625/1009791-light/run1009791-light.h5 tag-1496848080//
/work/sebastian/BT-20210625/1009791-light/run1009791-light.h5 tag-1496848084//
/work/sebastian/BT-20210625/1009791-light/run1009791-light.h5 tag-1496848086//
/work/sebastian/BT-20210625/1009791-light/run1009791-light.h5 tag-1496848088//
/work/sebastian/BT-20210625/1009791-light/run1009791-light.h5 tag-1496848090//
/work/sebastian/BT-20210625/1009791-light/run1009791-light.h5 tag-1496848092//
/work/sebastian/BT-20210625/1009791-light/run1009791-light.h5 tag-1496848094//
/work/sebastian/BT-20210625/1009791-light/run1009791-light.h5 tag-1496848100//
/work/sebastian/BT-20210625/1009791-light/run1009791-light.h5 tag-1496848102//
/work/sebastian/BT-20210625/1009791-light/run1009791-light.h5 tag-1496848104//
/work/sebastian/BT-20210625/1009791-light/run1009791-light.h5 tag-1496848106//
/work/sebastian/BT-20210625/1009791-light/run1009791-light.h5 tag-1496848108//
/work/sebastian/BT-20210625/1009791-light/run1009791-light.h5 tag-1496848112//
/work/sebastian/BT-20210625/1009791-light/run1009791-light.h5 tag-1496848114//
/work/sebastian/BT-20210625/1009791-light/run1009791-light.h5 tag-1496848116//
/work/sebastian/BT-20210625/1009791-light/run1009791-light.h5 tag-1496848118//
/work/sebastian/BT-20210625/1009791-light/run1009791-light.h5 tag-1496848120//
/work/sebastian/BT-20210625/1009791-light/run1009791-light.h5 tag-1496848122//
/work/sebastian/BT-20210625/1009791-light/run1009791-light.h5 tag-1496848124//
/work/sebastian/BT-20210625/1009791-light/run1009791-light.h5 tag-1496848130//
/work/sebastian/BT-20210625/1009791-light/run1009791-light.h5 tag-1496848132//
/work/sebastian/BT-20210625/1009791-light/run1009791-light.h5 tag-1496848134//
/work/sebastian/BT-20210625/1009791-light/run1009791-light.h5 tag-1496848136//
/work/sebastian/BT-20210625/1009791-light/run1009791-light.h5 tag-1496848138//
/work/sebastian/BT-20210625/1009791-light/run1009791-light.h5 tag-1496848140//
/work/sebastian/BT-20210625/1009791-light/run1009791-light.h5 tag-1496848144//
/work/sebastian/BT-20210625/1009791-light/run1009791-light.h5 tag-1496848146//
/work/sebastian/BT-20210625/1009791-light/run1009791-light.h5 tag-1496848148//
/work/sebastian/BT-20210625/1009791-light/run1009791-light.h5 tag-1496848150//
/work/sebastian/BT-20210625/1009791-light/run1009791-light.h5 tag-1496848154//
/work/sebastian/BT-20210625/1009791-light/run1009791-light.h5 tag-1496848162//
/work/sebastian/BT-20210625/1009791-light/run1009791-light.h5 tag-1496848164//
/work/sebastian/BT-20210625/1009791-light/run1009791-light.h5 tag-1496848166//
/work/sebastian/BT-20210625/1009791-light/run1009791-light.h5 tag-1496848168//
/work/sebastian/BT-20210625/1009791-light/run1009791-light.h5 tag-1496848172//
/work/sebastian/BT-20210625/1009791-light/run1009791-light.h5 tag-1496848176//
/work/sebastian/BT-20210625/1009791-light/run1009791-light.h5 tag-1496848178//
/work/sebastian/BT-20210625/1009791-light/run1009791-light.h5 tag-1496848180//
/work/sebastian/BT-20210625/1009791-light/run1009791-light.h5 tag-1496848182//
/work/sebastian/BT-20210625/1009791-light/run1009791-light.h5 tag-1496848188//
/work/sebastian/BT-20210625/1009791-light/run1009791-light.h5 tag-1496848190//
/work/sebastian/BT-20210625/1009791-light/run1009791-light.h5 tag-1496848192//
/work/sebastian/BT-20210625/1009791-light/run1009791-light.h5 tag-1496848194//
/work/sebastian/BT-20210625/1009791-light/run1009791-light.h5 tag-1496848196//
/work/sebastian/BT-20210625/1009791-light/run1009791-light.h5 tag-1496848198//
/work/sebastian/BT-20210625/1009791-light/run1009791-light.h5 tag-1496848200//
/work/sebastian/BT-20210625/1009791-light/run1009791-light.h5 tag-1496848212//
/work/sebastian/BT-20210625/1009791-light/run1009791-light.h5 tag-1496848214//
/work/sebastian/BT-20210625/1009791-light/run1009791-light.h5 tag-1496848216//
/work/sebastian/BT-20210625/1009791-light/run1009791-light.h5 tag-1496848222//
/work/sebastian/BT-20210625/1009791-light/run1009791-light.h5 tag-1496848224//
/work/sebastian/BT-20210625/1009791-light/run1009791-light.h5 tag-1496848226//
/work/sebastian/BT-20210625/1009791-light/run1009791-light.h5 tag-1496848228//
/work/sebastian/BT-20210625/1009791-light/run1009791-light.h5 tag-1496848230//
/work/sebastian/BT-20210625/1009791-light/run1009791-light.h5 tag-1496848232//
/work/sebastian/BT-20210625/1009791-light/run1009791-light.h5 tag-1496848234//
/work/sebastian/BT-20210625/1009791-light/run1009791-light.h5 tag-1496848240//
/work/sebastian/BT-20210625/1009791-light/run1009791-light.h5 tag-1496848242//
/work/sebastian/BT-20210625/1009791-light/run1009791-light.h5 tag-1496848248//
/work/sebastian/BT-20210625/1009791-light/run1009791-light.h5 tag-1496848254//
/work/sebastian/BT-20210625/1009791-light/run1009791-light.h5 tag-1496848260//
/work/sebastian/BT-20210625/1009791-light/run1009791-light.h5 tag-1496848262//
/work/sebastian/BT-20210625/1009791-light/run1009791-light.h5 tag-1496848264//
/work/sebastian/BT-20210625/1009791-light/run1009791-light.h5 tag-1496848268//
/work/sebastian/BT-20210625/1009791-light/run1009791-light.h5 tag-1496848270//
/work/sebastian/BT-20210625/1009791-light/run1009791-light.h5 tag-1496848272//
/work/sebastian/BT-20210625/1009791-light/run1009791-light.h5 tag-1496848274//
/work/sebastian/BT-20210625/1009791-light/run1009791-light.h5 tag-1496848276//
/work/sebastian/BT-20210625/1009791-light/run1009791-light.h5 tag-1496848280//
/work/sebastian/BT-20210625/1009791-light/run1009791-light.h5 tag-1496848282//
/work/sebastian/BT-20210625/1009791-light/run1009791-light.h5 tag-1496848284//
/work/sebastian/BT-20210625/1009791-light/run1009791-light.h5 tag-1496848288//
/work/sebastian/BT-20210625/1009791-light/run1009791-light.h5 tag-1496848294//
/work/sebastian/BT-20210625/1009791-light/run1009791-light.h5 tag-1496848296//
/work/sebastian/BT-20210625/1009791-light/run1009791-light.h5 tag-1496848298//
/work/sebastian/BT-20210625/1009791-light/run1009791-light.h5 tag-1496848300//
/work/sebastian/BT-20210625/1009791-light/run1009791-light.h5 tag-1496848302//
/work/sebastian/BT-20210625/1009791-light/run1009791-light.h5 tag-1496848304//
/work/sebastian/BT-20210625/1009791-light/run1009791-light.h5 tag-1496848314//
/work/sebastian/BT-20210625/1009791-light/run1009791-light.h5 tag-1496848316//
/work/sebastian/BT-20210625/1009791-light/run1009791-light.h5 tag-1496848318//
/work/sebastian/BT-20210625/1009791-light/run1009791-light.h5 tag-1496848320//
/work/sebastian/BT-20210625/1009791-light/run1009791-light.h5 tag-1496848326//
/work/sebastian/BT-20210625/1009791-light/run1009791-light.h5 tag-1496848328//
/work/sebastian/BT-20210625/1009791-light/run1009791-light.h5 tag-1496848330//
/work/sebastian/BT-20210625/1009791-light/run1009791-light.h5 tag-1496848332//
/work/sebastian/BT-20210625/1009791-light/run1009791-light.h5 tag-1496848334//
/work/sebastian/BT-20210625/1009791-light/run1009791-light.h5 tag-1496848338//
/work/sebastian/BT-20210625/1009791-light/run1009791-light.h5 tag-1496848340//
/work/sebastian/BT-20210625/1009791-light/run1009791-light.h5 tag-1496848342//
/work/sebastian/BT-20210625/1009791-light/run1009791-light.h5 tag-1496848344//
/work/sebastian/BT-20210625/1009791-light/run1009791-light.h5 tag-1496848346//
/work/sebastian/BT-20210625/1009791-light/run1009791-light.h5 tag-1496848348//
/work/sebastian/BT-20210625/1009791-light/run1009791-light.h5 tag-1496848350//
/work/sebastian/BT-20210625/1009791-light/run1009791-light.h5 tag-1496848352//
/work/sebastian/BT-20210625/1009791-light/run1009791-light.h5 tag-1496848354//
/work/sebastian/BT-20210625/1009791-light/run1009791-light.h5 tag-1496848356//
/work/sebastian/BT-20210625/1009791-light/run1009791-light.h5 tag-1496848362//
/work/sebastian/BT-20210625/1009791-light/run1009791-light.h5 tag-1496848364//
/work/sebastian/BT-20210625/1009791-light/run1009791-light.h5 tag-1496848366//
/work/sebastian/BT-20210625/1009791-light/run1009791-light.h5 tag-1496848368//
/work/sebastian/BT-20210625/1009791-light/run1009791-light.h5 tag-1496848370//
/work/sebastian/BT-20210625/1009791-light/run1009791-light.h5 tag-1496848372//
/work/sebastian/BT-20210625/1009791-light/run1009791-light.h5 tag-1496848374//
/work/sebastian/BT-20210625/1009791-light/run1009791-light.h5 tag-1496848376//
/work/sebastian/BT-20210625/1009791-light/run1009791-light.h5 tag-1496848378//
/work/sebastian/BT-20210625/1009791-light/run1009791-light.h5 tag-1496848380//
/work/sebastian/BT-20210625/1009791-light/run1009791-light.h5 tag-1496848382//
/work/sebastian/BT-20210625/1009791-light/run1009791-light.h5 tag-1496848384//
/work/sebastian/BT-20210625/1009791-light/run1009791-light.h5 tag-1496848390//
/work/sebastian/BT-20210625/1009791-light/run1009791-light.h5 tag-1496848392//
/work/sebastian/BT-20210625/1009791-light/run1009791-light.h5 tag-1496848396//
/work/sebastian/BT-20210625/1009791-light/run1009791-light.h5 tag-1496848398//
/work/sebastian/BT-20210625/1009791-light/run1009791-light.h5 tag-1496848400//
/work/sebastian/BT-20210625/1009791-light/run1009791-light.h5 tag-1496848404//
/work/sebastian/BT-20210625/1009791-light/run1009791-light.h5 tag-1496848408//
/work/sebastian/BT-20210625/1009791-light/run1009791-light.h5 tag-1496848412//
/work/sebastian/BT-20210625/1009791-light/run1009791-light.h5 tag-1496848420//
/work/sebastian/BT-20210625/1009791-light/run1009791-light.h5 tag-1496848422//
/work/sebastian/BT-20210625/1009791-light/run1009791-light.h5 tag-1496848432//
/work/sebastian/BT-20210625/1009791-light/run1009791-light.h5 tag-1496848434//
/work/sebastian/BT-20210625/1009791-light/run1009791-light.h5 tag-1496848436//
/work/sebastian/BT-20210625/1009791-light/run1009791-light.h5 tag-1496848438//
/work/sebastian/BT-20210625/1009791-light/run1009791-light.h5 tag-1496848442//
/work/sebastian/BT-20210625/1009791-light/run1009791-light.h5 tag-1496848444//
/work/sebastian/BT-20210625/1009791-light/run1009791-light.h5 tag-1496848446//
/work/sebastian/BT-20210625/1009791-light/run1009791-light.h5 tag-1496848448//
/work/sebastian/BT-20210625/1009791-light/run1009791-light.h5 tag-1496848450//
/work/sebastian/BT-20210625/1009791-light/run1009791-light.h5 tag-1496848454//
/work/sebastian/BT-20210625/1009791-light/run1009791-light.h5 tag-1496848462//
/work/sebastian/BT-20210625/1009791-light/run1009791-light.h5 tag-1496848466//
/work/sebastian/BT-20210625/1009791-light/run1009791-light.h5 tag-1496848468//
/work/sebastian/BT-20210625/1009791-light/run1009791-light.h5 tag-1496848472//
/work/sebastian/BT-20210625/1009791-light/run1009791-light.h5 tag-1496848474//
/work/sebastian/BT-20210625/1009791-light/run1009791-light.h5 tag-1496848478//
/work/sebastian/BT-20210625/1009791-light/run1009791-light.h5 tag-1496848480//
/work/sebastian/BT-20210625/1009791-light/run1009791-light.h5 tag-1496848482//
/work/sebastian/BT-20210625/1009791-light/run1009791-light.h5 tag-1496848488//
/work/sebastian/BT-20210625/1009791-light/run1009791-light.h5 tag-1496848490//
/work/sebastian/BT-20210625/1009791-light/run1009791-light.h5 tag-1496848492//
/work/sebastian/BT-20210625/1009791-light/run1009791-light.h5 tag-1496848496//
/work/sebastian/BT-20210625/1009791-light/run1009791-light.h5 tag-1496848498//
/work/sebastian/BT-20210625/1009791-light/run1009791-light.h5 tag-1496848500//
/work/sebastian/BT-20210625/1009791-light/run1009791-light.h5 tag-1496848502//
/work/sebastian/BT-20210625/1009791-light/run1009791-light.h5 tag-1496848506//
/work/sebastian/BT-20210625/1009791-light/run1009791-light.h5 tag-1496848514//
/work/sebastian/BT-20210625/1009791-light/run1009791-light.h5 tag-1496848518//
/work/sebastian/BT-20210625/1009791-light/run1009791-light.h5 tag-1496848520//
/work/sebastian/BT-20210625/1009791-light/run1009791-light.h5 tag-1496848528//
/work/sebastian/BT-20210625/1009791-light/run1009791-light.h5 tag-1496848530//
/work/sebastian/BT-20210625/1009791-light/run1009791-light.h5 tag-1496848534//
/work/sebastian/BT-20210625/1009791-light/run1009791-light.h5 tag-1496848542//
/work/sebastian/BT-20210625/1009791-light/run1009791-light.h5 tag-1496848544//
/work/sebastian/BT-20210625/1009791-light/run1009791-light.h5 tag-1496848546//
/work/sebastian/BT-20210625/1009791-light/run1009791-light.h5 tag-1496848548//
/work/sebastian/BT-20210625/1009791-light/run1009791-light.h5 tag-1496848554//
/work/sebastian/BT-20210625/1009791-light/run1009791-light.h5 tag-1496848556//
/work/sebastian/BT-20210625/1009791-light/run1009791-light.h5 tag-1496848558//
/work/sebastian/BT-20210625/1009791-light/run1009791-light.h5 tag-1496848560//
/work/sebastian/BT-20210625/1009791-light/run1009791-light.h5 tag-1496848562//
/work/sebastian/BT-20210625/1009791-light/run1009791-light.h5 tag-1496848572//
/work/sebastian/BT-20210625/1009791-light/run1009791-light.h5 tag-1496848584//
/work/sebastian/BT-20210625/1009791-light/run1009791-light.h5 tag-1496848586//
/work/sebastian/BT-20210625/1009791-light/run1009791-light.h5 tag-1496848588//
/work/sebastian/BT-20210625/1009791-light/run1009791-light.h5 tag-1496848590//
/work/sebastian/BT-20210625/1009791-light/run1009791-light.h5 tag-1496848592//
/work/sebastian/BT-20210625/1009791-light/run1009791-light.h5 tag-1496848602//
/work/sebastian/BT-20210625/1009791-light/run1009791-light.h5 tag-1496848606//
/work/sebastian/BT-20210625/1009791-light/run1009791-light.h5 tag-1496848610//
/work/sebastian/BT-20210625/1009791-light/run1009791-light.h5 tag-1496848612//
/work/sebastian/BT-20210625/1009791-light/run1009791-light.h5 tag-1496848614//
/work/sebastian/BT-20210625/1009791-light/run1009791-light.h5 tag-1496848618//
/work/sebastian/BT-20210625/1009791-light/run1009791-light.h5 tag-1496848620//
/work/sebastian/BT-20210625/1009791-light/run1009791-light.h5 tag-1496848626//
/work/sebastian/BT-20210625/1009791-light/run1009791-light.h5 tag-1496848628//
/work/sebastian/BT-20210625/1009791-light/run1009791-light.h5 tag-1496848632//
/work/sebastian/BT-20210625/1009791-light/run1009791-light.h5 tag-1496848634//
/work/sebastian/BT-20210625/1009791-light/run1009791-light.h5 tag-1496848638//
/work/sebastian/BT-20210625/1009791-light/run1009791-light.h5 tag-1496848650//
/work/sebastian/BT-20210625/1009791-light/run1009791-light.h5 tag-1496848652//
/work/sebastian/BT-20210625/1009791-light/run1009791-light.h5 tag-1496848656//
/work/sebastian/BT-20210625/1009791-light/run1009791-light.h5 tag-1496848658//
/work/sebastian/BT-20210625/1009791-light/run1009791-light.h5 tag-1496848664//
/work/sebastian/BT-20210625/1009791-light/run1009791-light.h5 tag-1496848668//
/work/sebastian/BT-20210625/1009791-light/run1009791-light.h5 tag-1496848670//
/work/sebastian/BT-20210625/1009791-light/run1009791-light.h5 tag-1496848674//
/work/sebastian/BT-20210625/1009791-light/run1009791-light.h5 tag-1496848676//
/work/sebastian/BT-20210625/1009791-light/run1009791-light.h5 tag-1496848678//
/work/sebastian/BT-20210625/1009791-light/run1009791-light.h5 tag-1496848680//
/work/sebastian/BT-20210625/1009791-light/run1009791-light.h5 tag-1496848682//
/work/sebastian/BT-20210625/1009791-light/run1009791-light.h5 tag-1496848684//
/work/sebastian/BT-20210625/1009791-light/run1009791-light.h5 tag-1496848686//
/work/sebastian/BT-20210625/1009791-light/run1009791-light.h5 tag-1496848688//
/work/sebastian/BT-20210625/1009791-light/run1009791-light.h5 tag-1496848694//
/work/sebastian/BT-20210625/1009791-light/run1009791-light.h5 tag-1496848696//
/work/sebastian/BT-20210625/1009791-light/run1009791-light.h5 tag-1496848700//
/work/sebastian/BT-20210625/1009791-light/run1009791-light.h5 tag-1496848702//
/work/sebastian/BT-20210625/1009791-light/run1009791-light.h5 tag-1496848706//
/work/sebastian/BT-20210625/1009791-light/run1009791-light.h5 tag-1496848708//
/work/sebastian/BT-20210625/1009791-light/run1009791-light.h5 tag-1496848710//
/work/sebastian/BT-20210625/1009791-light/run1009791-light.h5 tag-1496848712//
/work/sebastian/BT-20210625/1009791-light/run1009791-light.h5 tag-1496848714//
/work/sebastian/BT-20210625/1009791-light/run1009791-light.h5 tag-1496848716//
/work/sebastian/BT-20210625/1009791-light/run1009791-light.h5 tag-1496848718//
/work/sebastian/BT-20210625/1009791-light/run1009791-light.h5 tag-1496848724//
/work/sebastian/BT-20210625/1009791-light/run1009791-light.h5 tag-1496848726//
/work/sebastian/BT-20210625/1009791-light/run1009791-light.h5 tag-1496848728//
/work/sebastian/BT-20210625/1009791-light/run1009791-light.h5 tag-1496848732//
/work/sebastian/BT-20210625/1009791-light/run1009791-light.h5 tag-1496848734//
/work/sebastian/BT-20210625/1009791-light/run1009791-light.h5 tag-1496848738//
/work/sebastian/BT-20210625/1009791-light/run1009791-light.h5 tag-1496848740//
/work/sebastian/BT-20210625/1009791-light/run1009791-light.h5 tag-1496848742//
/work/sebastian/BT-20210625/1009791-light/run1009791-light.h5 tag-1496848744//
/work/sebastian/BT-20210625/1009791-light/run1009791-light.h5 tag-1496848746//
/work/sebastian/BT-20210625/1009791-light/run1009791-light.h5 tag-1496848754//
/work/sebastian/BT-20210625/1009791-light/run1009791-light.h5 tag-1496848756//
/work/sebastian/BT-20210625/1009791-light/run1009791-light.h5 tag-1496848760//
/work/sebastian/BT-20210625/1009791-light/run1009791-light.h5 tag-1496848764//
/work/sebastian/BT-20210625/1009791-light/run1009791-light.h5 tag-1496848768//
/work/sebastian/BT-20210625/1009791-light/run1009791-light.h5 tag-1496848774//
/work/sebastian/BT-20210625/1009791-light/run1009791-light.h5 tag-1496848776//
/work/sebastian/BT-20210625/1009791-light/run1009791-light.h5 tag-1496848778//
/work/sebastian/BT-20210625/1009791-light/run1009791-light.h5 tag-1496848782//
/work/sebastian/BT-20210625/1009791-light/run1009791-light.h5 tag-1496848784//
/work/sebastian/BT-20210625/1009791-light/run1009791-light.h5 tag-1496848786//
/work/sebastian/BT-20210625/1009791-light/run1009791-light.h5 tag-1496848792//
/work/sebastian/BT-20210625/1009791-light/run1009791-light.h5 tag-1496848794//
/work/sebastian/BT-20210625/1009791-light/run1009791-light.h5 tag-1496848796//
/work/sebastian/BT-20210625/1009791-light/run1009791-light.h5 tag-1496848800//
/work/sebastian/BT-20210625/1009791-light/run1009791-light.h5 tag-1496848802//
/work/sebastian/BT-20210625/1009791-light/run1009791-light.h5 tag-1496848804//
/work/sebastian/BT-20210625/1009791-light/run1009791-light.h5 tag-1496848806//
/work/sebastian/BT-20210625/1009791-light/run1009791-light.h5 tag-1496848808//
/work/sebastian/BT-20210625/1009791-light/run1009791-light.h5 tag-1496848810//
/work/sebastian/BT-20210625/1009791-light/run1009791-light.h5 tag-1496848814//
/work/sebastian/BT-20210625/1009791-light/run1009791-light.h5 tag-1496848816//
/work/sebastian/BT-20210625/1009791-light/run1009791-light.h5 tag-1496848818//
/work/sebastian/BT-20210625/1009791-light/run1009791-light.h5 tag-1496848824//
/work/sebastian/BT-20210625/1009791-light/run1009791-light.h5 tag-1496848826//
/work/sebastian/BT-20210625/1009791-light/run1009791-light.h5 tag-1496848830//
/work/sebastian/BT-20210625/1009791-light/run1009791-light.h5 tag-1496848832//
/work/sebastian/BT-20210625/1009791-light/run1009791-light.h5 tag-1496848838//
/work/sebastian/BT-20210625/1009791-light/run1009791-light.h5 tag-1496848840//
/work/sebastian/BT-20210625/1009791-light/run1009791-light.h5 tag-1496848842//
/work/sebastian/BT-20210625/1009791-light/run1009791-light.h5 tag-1496848844//
/work/sebastian/BT-20210625/1009791-light/run1009791-light.h5 tag-1496848850//
/work/sebastian/BT-20210625/1009791-light/run1009791-light.h5 tag-1496848852//
/work/sebastian/BT-20210625/1009791-light/run1009791-light.h5 tag-1496848854//
/work/sebastian/BT-20210625/1009791-light/run1009791-light.h5 tag-1496848858//
/work/sebastian/BT-20210625/1009791-light/run1009791-light.h5 tag-1496848868//
/work/sebastian/BT-20210625/1009791-light/run1009791-light.h5 tag-1496848872//
/work/sebastian/BT-20210625/1009791-light/run1009791-light.h5 tag-1496848884//
/work/sebastian/BT-20210625/1009791-light/run1009791-light.h5 tag-1496848886//
/work/sebastian/BT-20210625/1009791-light/run1009791-light.h5 tag-1496848888//
/work/sebastian/BT-20210625/1009791-light/run1009791-light.h5 tag-1496848892//
/work/sebastian/BT-20210625/1009791-light/run1009791-light.h5 tag-1496848894//
/work/sebastian/BT-20210625/1009791-light/run1009791-light.h5 tag-1496848896//
/work/sebastian/BT-20210625/1009791-light/run1009791-light.h5 tag-1496848898//
/work/sebastian/BT-20210625/1009791-light/run1009791-light.h5 tag-1496848900//
/work/sebastian/BT-20210625/1009791-light/run1009791-light.h5 tag-1496848902//
/work/sebastian/BT-20210625/1009791-light/run1009791-light.h5 tag-1496848908//
/work/sebastian/BT-20210625/1009791-light/run1009791-light.h5 tag-1496848910//
/work/sebastian/BT-20210625/1009791-light/run1009791-light.h5 tag-1496848912//
/work/sebastian/BT-20210625/1009791-light/run1009791-light.h5 tag-1496848914//
/work/sebastian/BT-20210625/1009791-light/run1009791-light.h5 tag-1496848916//
/work/sebastian/BT-20210625/1009791-light/run1009791-light.h5 tag-1496848920//
/work/sebastian/BT-20210625/1009791-light/run1009791-light.h5 tag-1496848922//
/work/sebastian/BT-20210625/1009791-light/run1009791-light.h5 tag-1496848924//
/work/sebastian/BT-20210625/1009791-light/run1009791-light.h5 tag-1496848926//
/work/sebastian/BT-20210625/1009791-light/run1009791-light.h5 tag-1496848928//
/work/sebastian/BT-20210625/1009791-light/run1009791-light.h5 tag-1496848930//
/work/sebastian/BT-20210625/1009791-light/run1009791-light.h5 tag-1496848934//
/work/sebastian/BT-20210625/1009791-light/run1009791-light.h5 tag-1496848936//
/work/sebastian/BT-20210625/1009791-light/run1009791-light.h5 tag-1496848938//
/work/sebastian/BT-20210625/1009791-light/run1009791-light.h5 tag-1496848940//
/work/sebastian/BT-20210625/1009791-light/run1009791-light.h5 tag-1496848942//
/work/sebastian/BT-20210625/1009791-light/run1009791-light.h5 tag-1496848944//
/work/sebastian/BT-20210625/1009791-light/run1009791-light.h5 tag-1496848952//
/work/sebastian/BT-20210625/1009791-light/run1009791-light.h5 tag-1496848956//
/work/sebastian/BT-20210625/1009791-light/run1009791-light.h5 tag-1496848958//
/work/sebastian/BT-20210625/1009791-light/run1009791-light.h5 tag-1496848962//
/work/sebastian/BT-20210625/1009791-light/run1009791-light.h5 tag-1496848964//
/work/sebastian/BT-20210625/1009791-light/run1009791-light.h5 tag-1496848966//
/work/sebastian/BT-20210625/1009791-light/run1009791-light.h5 tag-1496848968//
/work/sebastian/BT-20210625/1009791-light/run1009791-light.h5 tag-1496848970//
/work/sebastian/BT-20210625/1009791-light/run1009791-light.h5 tag-1496848972//
/work/sebastian/BT-20210625/1009791-light/run1009791-light.h5 tag-1496848974//
/work/sebastian/BT-20210625/1009791-light/run1009791-light.h5 tag-1496848978//
/work/sebastian/BT-20210625/1009791-light/run1009791-light.h5 tag-1496848980//
/work/sebastian/BT-20210625/1009791-light/run1009791-light.h5 tag-1496848982//
/work/sebastian/BT-20210625/1009791-light/run1009791-light.h5 tag-1496848984//
/work/sebastian/BT-20210625/1009791-light/run1009791-light.h5 tag-1496848986//
/work/sebastian/BT-20210625/1009791-light/run1009791-light.h5 tag-1496848988//
/work/sebastian/BT-20210625/1009791-light/run1009791-light.h5 tag-1496848994//
/work/sebastian/BT-20210625/1009791-light/run1009791-light.h5 tag-1496848998//
/work/sebastian/BT-20210625/1009791-light/run1009791-light.h5 tag-1496849000//
/work/sebastian/BT-20210625/1009791-light/run1009791-light.h5 tag-1496849002//
/work/sebastian/BT-20210625/1009791-light/run1009791-light.h5 tag-1496849010//
/work/sebastian/BT-20210625/1009791-light/run1009791-light.h5 tag-1496849012//
/work/sebastian/BT-20210625/1009791-light/run1009791-light.h5 tag-1496849014//
/work/sebastian/BT-20210625/1009791-light/run1009791-light.h5 tag-1496849018//
/work/sebastian/BT-20210625/1009791-light/run1009791-light.h5 tag-1496849020//
/work/sebastian/BT-20210625/1009791-light/run1009791-light.h5 tag-1496849022//
/work/sebastian/BT-20210625/1009791-light/run1009791-light.h5 tag-1496849024//
/work/sebastian/BT-20210625/1009791-light/run1009791-light.h5 tag-1496849026//
/work/sebastian/BT-20210625/1009791-light/run1009791-light.h5 tag-1496849028//
/work/sebastian/BT-20210625/1009791-light/run1009791-light.h5 tag-1496849030//
/work/sebastian/BT-20210625/1009791-light/run1009791-light.h5 tag-1496849034//
/work/sebastian/BT-20210625/1009791-light/run1009791-light.h5 tag-1496849036//
/work/sebastian/BT-20210625/1009791-light/run1009791-light.h5 tag-1496849038//
/work/sebastian/BT-20210625/1009791-light/run1009791-light.h5 tag-1496849040//
/work/sebastian/BT-20210625/1009791-light/run1009791-light.h5 tag-1496849044//
/work/sebastian/BT-20210625/1009791-light/run1009791-light.h5 tag-1496849046//
/work/sebastian/BT-20210625/1009791-light/run1009791-light.h5 tag-1496849050//
/work/sebastian/BT-20210625/1009791-light/run1009791-light.h5 tag-1496849052//
/work/sebastian/BT-20210625/1009791-light/run1009791-light.h5 tag-1496849062//
/work/sebastian/BT-20210625/1009791-light/run1009791-light.h5 tag-1496849064//
/work/sebastian/BT-20210625/1009791-light/run1009791-light.h5 tag-1496849068//
/work/sebastian/BT-20210625/1009791-light/run1009791-light.h5 tag-1496849074//
/work/sebastian/BT-20210625/1009791-light/run1009791-light.h5 tag-1496849076//
/work/sebastian/BT-20210625/1009791-light/run1009791-light.h5 tag-1496849086//
/work/sebastian/BT-20210625/1009791-light/run1009791-light.h5 tag-1496849088//
/work/sebastian/BT-20210625/1009791-light/run1009791-light.h5 tag-1496849090//
/work/sebastian/BT-20210625/1009791-light/run1009791-light.h5 tag-1496849094//
/work/sebastian/BT-20210625/1009791-light/run1009791-light.h5 tag-1496849096//
/work/sebastian/BT-20210625/1009791-light/run1009791-light.h5 tag-1496849098//
/work/sebastian/BT-20210625/1009791-light/run1009791-light.h5 tag-1496849100//
/work/sebastian/BT-20210625/1009791-light/run1009791-light.h5 tag-1496849104//
/work/sebastian/BT-20210625/1009791-light/run1009791-light.h5 tag-1496849108//
/work/sebastian/BT-20210625/1009791-light/run1009791-light.h5 tag-1496849112//
/work/sebastian/BT-20210625/1009791-light/run1009791-light.h5 tag-1496849114//
/work/sebastian/BT-20210625/1009791-light/run1009791-light.h5 tag-1496849116//
/work/sebastian/BT-20210625/1009791-light/run1009791-light.h5 tag-1496849118//
/work/sebastian/BT-20210625/1009791-light/run1009791-light.h5 tag-1496849128//
/work/sebastian/BT-20210625/1009791-light/run1009791-light.h5 tag-1496849130//
/work/sebastian/BT-20210625/1009791-light/run1009791-light.h5 tag-1496849132//
/work/sebastian/BT-20210625/1009791-light/run1009791-light.h5 tag-1496849134//
/work/sebastian/BT-20210625/1009791-light/run1009791-light.h5 tag-1496849136//
/work/sebastian/BT-20210625/1009791-light/run1009791-light.h5 tag-1496849138//
/work/sebastian/BT-20210625/1009791-light/run1009791-light.h5 tag-1496849144//
/work/sebastian/BT-20210625/1009791-light/run1009791-light.h5 tag-1496849152//
/work/sebastian/BT-20210625/1009791-light/run1009791-light.h5 tag-1496849154//
/work/sebastian/BT-20210625/1009791-light/run1009791-light.h5 tag-1496849158//
/work/sebastian/BT-20210625/1009791-light/run1009791-light.h5 tag-1496849160//
/work/sebastian/BT-20210625/1009791-light/run1009791-light.h5 tag-1496849166//
/work/sebastian/BT-20210625/1009791-light/run1009791-light.h5 tag-1496849168//
/work/sebastian/BT-20210625/1009791-light/run1009791-light.h5 tag-1496849172//
/work/sebastian/BT-20210625/1009791-light/run1009791-light.h5 tag-1496849180//
/work/sebastian/BT-20210625/1009791-light/run1009791-light.h5 tag-1496849184//
/work/sebastian/BT-20210625/1009791-light/run1009791-light.h5 tag-1496849188//
/work/sebastian/BT-20210625/1009791-light/run1009791-light.h5 tag-1496849194//
/work/sebastian/BT-20210625/1009791-light/run1009791-light.h5 tag-1496849198//
/work/sebastian/BT-20210625/1009791-light/run1009791-light.h5 tag-1496849200//
/work/sebastian/BT-20210625/1009791-light/run1009791-light.h5 tag-1496849208//
/work/sebastian/BT-20210625/1009791-light/run1009791-light.h5 tag-1496849220//
/work/sebastian/BT-20210625/1009791-light/run1009791-light.h5 tag-1496849222//
/work/sebastian/BT-20210625/1009791-light/run1009791-light.h5 tag-1496849226//
/work/sebastian/BT-20210625/1009791-light/run1009791-light.h5 tag-1496849228//
/work/sebastian/BT-20210625/1009791-light/run1009791-light.h5 tag-1496849236//
/work/sebastian/BT-20210625/1009791-light/run1009791-light.h5 tag-1496849238//
/work/sebastian/BT-20210625/1009791-light/run1009791-light.h5 tag-1496849242//
/work/sebastian/BT-20210625/1009791-light/run1009791-light.h5 tag-1496849244//
/work/sebastian/BT-20210625/1009791-light/run1009791-light.h5 tag-1496849246//
/work/sebastian/BT-20210625/1009791-light/run1009791-light.h5 tag-1496849250//
/work/sebastian/BT-20210625/1009791-light/run1009791-light.h5 tag-1496849252//
/work/sebastian/BT-20210625/1009791-light/run1009791-light.h5 tag-1496849254//
/work/sebastian/BT-20210625/1009791-light/run1009791-light.h5 tag-1496849262//
/work/sebastian/BT-20210625/1009791-light/run1009791-light.h5 tag-1496849264//
/work/sebastian/BT-20210625/1009791-light/run1009791-light.h5 tag-1496849266//
/work/sebastian/BT-20210625/1009791-light/run1009791-light.h5 tag-1496849268//
/work/sebastian/BT-20210625/1009791-light/run1009791-light.h5 tag-1496849274//
/work/sebastian/BT-20210625/1009791-light/run1009791-light.h5 tag-1496849276//
/work/sebastian/BT-20210625/1009791-light/run1009791-light.h5 tag-1496849278//
/work/sebastian/BT-20210625/1009791-light/run1009791-light.h5 tag-1496849280//
/work/sebastian/BT-20210625/1009791-light/run1009791-light.h5 tag-1496849288//
/work/sebastian/BT-20210625/1009791-light/run1009791-light.h5 tag-1496849296//
/work/sebastian/BT-20210625/1009791-light/run1009791-light.h5 tag-1496849302//
/work/sebastian/BT-20210625/1009791-light/run1009791-light.h5 tag-1496849304//
/work/sebastian/BT-20210625/1009791-light/run1009791-light.h5 tag-1496849306//
/work/sebastian/BT-20210625/1009791-light/run1009791-light.h5 tag-1496849310//
/work/sebastian/BT-20210625/1009791-light/run1009791-light.h5 tag-1496849314//
/work/sebastian/BT-20210625/1009791-light/run1009791-light.h5 tag-1496849316//
/work/sebastian/BT-20210625/1009791-light/run1009791-light.h5 tag-1496849318//
/work/sebastian/BT-20210625/1009791-light/run1009791-light.h5 tag-1496849320//
/work/sebastian/BT-20210625/1009791-light/run1009791-light.h5 tag-1496849324//
/work/sebastian/BT-20210625/1009791-light/run1009791-light.h5 tag-1496849330//
/work/sebastian/BT-20210625/1009791-light/run1009791-light.h5 tag-1496849332//
/work/sebastian/BT-20210625/1009791-light/run1009791-light.h5 tag-1496849334//
/work/sebastian/BT-20210625/1009791-light/run1009791-light.h5 tag-1496849336//
/work/sebastian/BT-20210625/1009791-light/run1009791-light.h5 tag-1496849342//
/work/sebastian/BT-20210625/1009791-light/run1009791-light.h5 tag-1496849344//
/work/sebastian/BT-20210625/1009791-light/run1009791-light.h5 tag-1496849346//
/work/sebastian/BT-20210625/1009791-light/run1009791-light.h5 tag-1496849362//
/work/sebastian/BT-20210625/1009791-light/run1009791-light.h5 tag-1496849364//
/work/sebastian/BT-20210625/1009791-light/run1009791-light.h5 tag-1496849368//
/work/sebastian/BT-20210625/1009791-light/run1009791-light.h5 tag-1496849370//
/work/sebastian/BT-20210625/1009791-light/run1009791-light.h5 tag-1496849372//
/work/sebastian/BT-20210625/1009791-light/run1009791-light.h5 tag-1496849374//
/work/sebastian/BT-20210625/1009791-light/run1009791-light.h5 tag-1496849378//
/work/sebastian/BT-20210625/1009791-light/run1009791-light.h5 tag-1496849382//
/work/sebastian/BT-20210625/1009791-light/run1009791-light.h5 tag-1496849384//
/work/sebastian/BT-20210625/1009791-light/run1009791-light.h5 tag-1496849386//
/work/sebastian/BT-20210625/1009791-light/run1009791-light.h5 tag-1496849392//
/work/sebastian/BT-20210625/1009791-light/run1009791-light.h5 tag-1496849394//
/work/sebastian/BT-20210625/1009791-light/run1009791-light.h5 tag-1496849400//
/work/sebastian/BT-20210625/1009791-light/run1009791-light.h5 tag-1496849406//
/work/sebastian/BT-20210625/1009791-light/run1009791-light.h5 tag-1496849408//
/work/sebastian/BT-20210625/1009791-light/run1009791-light.h5 tag-1496849410//
/work/sebastian/BT-20210625/1009791-light/run1009791-light.h5 tag-1496849412//
/work/sebastian/BT-20210625/1009791-light/run1009791-light.h5 tag-1496849414//
/work/sebastian/BT-20210625/1009791-light/run1009791-light.h5 tag-1496849420//
/work/sebastian/BT-20210625/1009791-light/run1009791-light.h5 tag-1496849422//
/work/sebastian/BT-20210625/1009791-light/run1009791-light.h5 tag-1496849424//
/work/sebastian/BT-20210625/1009791-light/run1009791-light.h5 tag-1496849426//
/work/sebastian/BT-20210625/1009791-light/run1009791-light.h5 tag-1496849430//
/work/sebastian/BT-20210625/1009791-light/run1009791-light.h5 tag-1496849432//
/work/sebastian/BT-20210625/1009791-light/run1009791-light.h5 tag-1496849436//
/work/sebastian/BT-20210625/1009791-light/run1009791-light.h5 tag-1496849440//
/work/sebastian/BT-20210625/1009791-light/run1009791-light.h5 tag-1496849444//
/work/sebastian/BT-20210625/1009791-light/run1009791-light.h5 tag-1496849446//
/work/sebastian/BT-20210625/1009791-light/run1009791-light.h5 tag-1496849448//
/work/sebastian/BT-20210625/1009791-light/run1009791-light.h5 tag-1496849450//
/work/sebastian/BT-20210625/1009791-light/run1009791-light.h5 tag-1496849454//
/work/sebastian/BT-20210625/1009791-light/run1009791-light.h5 tag-1496849458//
/work/sebastian/BT-20210625/1009791-light/run1009791-light.h5 tag-1496849460//
/work/sebastian/BT-20210625/1009791-light/run1009791-light.h5 tag-1496849462//
/work/sebastian/BT-20210625/1009791-light/run1009791-light.h5 tag-1496849466//
/work/sebastian/BT-20210625/1009791-light/run1009791-light.h5 tag-1496849474//
/work/sebastian/BT-20210625/1009791-light/run1009791-light.h5 tag-1496849476//
/work/sebastian/BT-20210625/1009791-light/run1009791-light.h5 tag-1496849478//
/work/sebastian/BT-20210625/1009791-light/run1009791-light.h5 tag-1496849480//
/work/sebastian/BT-20210625/1009791-light/run1009791-light.h5 tag-1496849486//
/work/sebastian/BT-20210625/1009791-light/run1009791-light.h5 tag-1496849488//
/work/sebastian/BT-20210625/1009791-light/run1009791-light.h5 tag-1496849490//
/work/sebastian/BT-20210625/1009791-light/run1009791-light.h5 tag-1496849492//
/work/sebastian/BT-20210625/1009791-light/run1009791-light.h5 tag-1496849498//
/work/sebastian/BT-20210625/1009791-light/run1009791-light.h5 tag-1496849512//
/work/sebastian/BT-20210625/1009791-light/run1009791-light.h5 tag-1496849514//
/work/sebastian/BT-20210625/1009791-light/run1009791-light.h5 tag-1496849516//
/work/sebastian/BT-20210625/1009791-light/run1009791-light.h5 tag-1496849518//
/work/sebastian/BT-20210625/1009791-light/run1009791-light.h5 tag-1496849524//
/work/sebastian/BT-20210625/1009791-light/run1009791-light.h5 tag-1496849526//
/work/sebastian/BT-20210625/1009791-light/run1009791-light.h5 tag-1496849528//
/work/sebastian/BT-20210625/1009791-light/run1009791-light.h5 tag-1496849538//
/work/sebastian/BT-20210625/1009791-light/run1009791-light.h5 tag-1496849540//
/work/sebastian/BT-20210625/1009791-light/run1009791-light.h5 tag-1496849542//
/work/sebastian/BT-20210625/1009791-light/run1009791-light.h5 tag-1496849544//
/work/sebastian/BT-20210625/1009791-light/run1009791-light.h5 tag-1496849546//
/work/sebastian/BT-20210625/1009791-light/run1009791-light.h5 tag-1496849550//
/work/sebastian/BT-20210625/1009791-light/run1009791-light.h5 tag-1496849556//
/work/sebastian/BT-20210625/1009791-light/run1009791-light.h5 tag-1496849558//
/work/sebastian/BT-20210625/1009791-light/run1009791-light.h5 tag-1496849566//
/work/sebastian/BT-20210625/1009791-light/run1009791-light.h5 tag-1496849568//
/work/sebastian/BT-20210625/1009791-light/run1009791-light.h5 tag-1496849570//
/work/sebastian/BT-20210625/1009791-light/run1009791-light.h5 tag-1496849574//
/work/sebastian/BT-20210625/1009791-light/run1009791-light.h5 tag-1496849578//
/work/sebastian/BT-20210625/1009791-light/run1009791-light.h5 tag-1496849580//
/work/sebastian/BT-20210625/1009791-light/run1009791-light.h5 tag-1496849582//
/work/sebastian/BT-20210625/1009791-light/run1009791-light.h5 tag-1496849594//
/work/sebastian/BT-20210625/1009791-light/run1009791-light.h5 tag-1496849600//
/work/sebastian/BT-20210625/1009791-light/run1009791-light.h5 tag-1496849602//
/work/sebastian/BT-20210625/1009791-light/run1009791-light.h5 tag-1496849608//
/work/sebastian/BT-20210625/1009791-light/run1009791-light.h5 tag-1496849612//
/work/sebastian/BT-20210625/1009791-light/run1009791-light.h5 tag-1496849614//
/work/sebastian/BT-20210625/1009791-light/run1009791-light.h5 tag-1496849616//
/work/sebastian/BT-20210625/1009791-light/run1009791-light.h5 tag-1496849622//
/work/sebastian/BT-20210625/1009791-light/run1009791-light.h5 tag-1496849626//
/work/sebastian/BT-20210625/1009791-light/run1009791-light.h5 tag-1496849628//
/work/sebastian/BT-20210625/1009791-light/run1009791-light.h5 tag-1496849630//
/work/sebastian/BT-20210625/1009791-light/run1009791-light.h5 tag-1496849636//
/work/sebastian/BT-20210625/1009791-light/run1009791-light.h5 tag-1496849640//
/work/sebastian/BT-20210625/1009791-light/run1009791-light.h5 tag-1496849642//
/work/sebastian/BT-20210625/1009791-light/run1009791-light.h5 tag-1496849652//
/work/sebastian/BT-20210625/1009791-light/run1009791-light.h5 tag-1496849656//
/work/sebastian/BT-20210625/1009791-light/run1009791-light.h5 tag-1496849658//
/work/sebastian/BT-20210625/1009791-light/run1009791-light.h5 tag-1496849664//
/work/sebastian/BT-20210625/1009791-light/run1009791-light.h5 tag-1496849668//
/work/sebastian/BT-20210625/1009791-light/run1009791-light.h5 tag-1496849682//
/work/sebastian/BT-20210625/1009791-light/run1009791-light.h5 tag-1496849684//
/work/sebastian/BT-20210625/1009791-light/run1009791-light.h5 tag-1496849694//
/work/sebastian/BT-20210625/1009791-light/run1009791-light.h5 tag-1496849698//
/work/sebastian/BT-20210625/1009791-light/run1009791-light.h5 tag-1496849704//
/work/sebastian/BT-20210625/1009791-light/run1009791-light.h5 tag-1496849706//
/work/sebastian/BT-20210625/1009791-light/run1009791-light.h5 tag-1496849708//
/work/sebastian/BT-20210625/1009791-light/run1009791-light.h5 tag-1496849710//
/work/sebastian/BT-20210625/1009791-light/run1009791-light.h5 tag-1496849712//
/work/sebastian/BT-20210625/1009791-light/run1009791-light.h5 tag-1496849714//
/work/sebastian/BT-20210625/1009791-light/run1009791-light.h5 tag-1496849722//
/work/sebastian/BT-20210625/1009791-light/run1009791-light.h5 tag-1496849724//
/work/sebastian/BT-20210625/1009791-light/run1009791-light.h5 tag-1496849726//
/work/sebastian/BT-20210625/1009791-light/run1009791-light.h5 tag-1496849728//
/work/sebastian/BT-20210625/1009791-light/run1009791-light.h5 tag-1496849730//
/work/sebastian/BT-20210625/1009791-light/run1009791-light.h5 tag-1496849732//
/work/sebastian/BT-20210625/1009791-light/run1009791-light.h5 tag-1496849734//
/work/sebastian/BT-20210625/1009791-light/run1009791-light.h5 tag-1496849736//
/work/sebastian/BT-20210625/1009791-light/run1009791-light.h5 tag-1496849738//
/work/sebastian/BT-20210625/1009791-light/run1009791-light.h5 tag-1496849746//
/work/sebastian/BT-20210625/1009791-light/run1009791-light.h5 tag-1496849752//
/work/sebastian/BT-20210625/1009791-light/run1009791-light.h5 tag-1496849754//
/work/sebastian/BT-20210625/1009791-light/run1009791-light.h5 tag-1496849760//
/work/sebastian/BT-20210625/1009791-light/run1009791-light.h5 tag-1496849762//
/work/sebastian/BT-20210625/1009791-light/run1009791-light.h5 tag-1496849764//
/work/sebastian/BT-20210625/1009791-light/run1009791-light.h5 tag-1496849766//
/work/sebastian/BT-20210625/1009791-light/run1009791-light.h5 tag-1496849772//
/work/sebastian/BT-20210625/1009791-light/run1009791-light.h5 tag-1496849776//
/work/sebastian/BT-20210625/1009791-light/run1009791-light.h5 tag-1496849780//
/work/sebastian/BT-20210625/1009791-light/run1009791-light.h5 tag-1496849782//
/work/sebastian/BT-20210625/1009791-light/run1009791-light.h5 tag-1496849784//
/work/sebastian/BT-20210625/1009791-light/run1009791-light.h5 tag-1496849788//
/work/sebastian/BT-20210625/1009791-light/run1009791-light.h5 tag-1496849790//
/work/sebastian/BT-20210625/1009791-light/run1009791-light.h5 tag-1496849796//
/work/sebastian/BT-20210625/1009791-light/run1009791-light.h5 tag-1496849798//
/work/sebastian/BT-20210625/1009791-light/run1009791-light.h5 tag-1496849800//
/work/sebastian/BT-20210625/1009791-light/run1009791-light.h5 tag-1496849802//
/work/sebastian/BT-20210625/1009791-light/run1009791-light.h5 tag-1496849816//
/work/sebastian/BT-20210625/1009791-light/run1009791-light.h5 tag-1496849828//
/work/sebastian/BT-20210625/1009791-light/run1009791-light.h5 tag-1496849830//
/work/sebastian/BT-20210625/1009791-light/run1009791-light.h5 tag-1496849838//
/work/sebastian/BT-20210625/1009791-light/run1009791-light.h5 tag-1496849844//
/work/sebastian/BT-20210625/1009791-light/run1009791-light.h5 tag-1496849846//
/work/sebastian/BT-20210625/1009791-light/run1009791-light.h5 tag-1496849852//
/work/sebastian/BT-20210625/1009791-light/run1009791-light.h5 tag-1496849856//
/work/sebastian/BT-20210625/1009791-light/run1009791-light.h5 tag-1496849858//
/work/sebastian/BT-20210625/1009791-light/run1009791-light.h5 tag-1496849860//
/work/sebastian/BT-20210625/1009791-light/run1009791-light.h5 tag-1496849868//
/work/sebastian/BT-20210625/1009791-light/run1009791-light.h5 tag-1496849870//
/work/sebastian/BT-20210625/1009791-light/run1009791-light.h5 tag-1496849872//
/work/sebastian/BT-20210625/1009791-light/run1009791-light.h5 tag-1496849874//
/work/sebastian/BT-20210625/1009791-light/run1009791-light.h5 tag-1496849876//
/work/sebastian/BT-20210625/1009791-light/run1009791-light.h5 tag-1496849880//
/work/sebastian/BT-20210625/1009791-light/run1009791-light.h5 tag-1496849882//
/work/sebastian/BT-20210625/1009791-light/run1009791-light.h5 tag-1496849884//
/work/sebastian/BT-20210625/1009791-light/run1009791-light.h5 tag-1496849886//
/work/sebastian/BT-20210625/1009791-light/run1009791-light.h5 tag-1496849890//
/work/sebastian/BT-20210625/1009791-light/run1009791-light.h5 tag-1496849892//
/work/sebastian/BT-20210625/1009791-light/run1009791-light.h5 tag-1496849894//
/work/sebastian/BT-20210625/1009791-light/run1009791-light.h5 tag-1496849896//
/work/sebastian/BT-20210625/1009791-light/run1009791-light.h5 tag-1496849898//
/work/sebastian/BT-20210625/1009791-light/run1009791-light.h5 tag-1496849900//
/work/sebastian/BT-20210625/1009791-light/run1009791-light.h5 tag-1496849902//
/work/sebastian/BT-20210625/1009791-light/run1009791-light.h5 tag-1496849908//
/work/sebastian/BT-20210625/1009791-light/run1009791-light.h5 tag-1496849910//
/work/sebastian/BT-20210625/1009791-light/run1009791-light.h5 tag-1496849912//
/work/sebastian/BT-20210625/1009791-light/run1009791-light.h5 tag-1496849914//
/work/sebastian/BT-20210625/1009791-light/run1009791-light.h5 tag-1496849918//
/work/sebastian/BT-20210625/1009791-light/run1009791-light.h5 tag-1496849920//
/work/sebastian/BT-20210625/1009791-light/run1009791-light.h5 tag-1496849922//
/work/sebastian/BT-20210625/1009791-light/run1009791-light.h5 tag-1496849928//
/work/sebastian/BT-20210625/1009791-light/run1009791-light.h5 tag-1496849940//
/work/sebastian/BT-20210625/1009791-light/run1009791-light.h5 tag-1496849942//
/work/sebastian/BT-20210625/1009791-light/run1009791-light.h5 tag-1496849944//
/work/sebastian/BT-20210625/1009791-light/run1009791-light.h5 tag-1496849952//
/work/sebastian/BT-20210625/1009791-light/run1009791-light.h5 tag-1496849954//
/work/sebastian/BT-20210625/1009791-light/run1009791-light.h5 tag-1496849956//
/work/sebastian/BT-20210625/1009791-light/run1009791-light.h5 tag-1496849968//
/work/sebastian/BT-20210625/1009791-light/run1009791-light.h5 tag-1496849970//
/work/sebastian/BT-20210625/1009791-light/run1009791-light.h5 tag-1496849982//
/work/sebastian/BT-20210625/1009791-light/run1009791-light.h5 tag-1496849986//
/work/sebastian/BT-20210625/1009791-light/run1009791-light.h5 tag-1496849988//
/work/sebastian/BT-20210625/1009791-light/run1009791-light.h5 tag-1496849990//
/work/sebastian/BT-20210625/1009791-light/run1009791-light.h5 tag-1496849994//
/work/sebastian/BT-20210625/1009791-light/run1009791-light.h5 tag-1496849996//
/work/sebastian/BT-20210625/1009791-light/run1009791-light.h5 tag-1496849998//
/work/sebastian/BT-20210625/1009791-light/run1009791-light.h5 tag-1496850002//
/work/sebastian/BT-20210625/1009791-light/run1009791-light.h5 tag-1496850008//
/work/sebastian/BT-20210625/1009791-light/run1009791-light.h5 tag-1496850012//
/work/sebastian/BT-20210625/1009791-light/run1009791-light.h5 tag-1496850014//
/work/sebastian/BT-20210625/1009791-light/run1009791-light.h5 tag-1496850022//
/work/sebastian/BT-20210625/1009791-light/run1009791-light.h5 tag-1496850026//
/work/sebastian/BT-20210625/1009791-light/run1009791-light.h5 tag-1496850028//
/work/sebastian/BT-20210625/1009791-light/run1009791-light.h5 tag-1496850034//
/work/sebastian/BT-20210625/1009791-light/run1009791-light.h5 tag-1496850036//
/work/sebastian/BT-20210625/1009791-light/run1009791-light.h5 tag-1496850038//
/work/sebastian/BT-20210625/1009791-light/run1009791-light.h5 tag-1496850040//
/work/sebastian/BT-20210625/1009791-light/run1009791-light.h5 tag-1496850042//
/work/sebastian/BT-20210625/1009791-light/run1009791-light.h5 tag-1496850044//
/work/sebastian/BT-20210625/1009791-light/run1009791-light.h5 tag-1496850046//
/work/sebastian/BT-20210625/1009791-light/run1009791-light.h5 tag-1496850048//
/work/sebastian/BT-20210625/1009791-light/run1009791-light.h5 tag-1496850050//
/work/sebastian/BT-20210625/1009791-light/run1009791-light.h5 tag-1496850056//
/work/sebastian/BT-20210625/1009791-light/run1009791-light.h5 tag-1496850058//
/work/sebastian/BT-20210625/1009791-light/run1009791-light.h5 tag-1496850064//
/work/sebastian/BT-20210625/1009791-light/run1009791-light.h5 tag-1496850066//
/work/sebastian/BT-20210625/1009791-light/run1009791-light.h5 tag-1496850068//
/work/sebastian/BT-20210625/1009791-light/run1009791-light.h5 tag-1496850070//
/work/sebastian/BT-20210625/1009791-light/run1009791-light.h5 tag-1496850072//
/work/sebastian/BT-20210625/1009791-light/run1009791-light.h5 tag-1496850080//
/work/sebastian/BT-20210625/1009791-light/run1009791-light.h5 tag-1496850082//
/work/sebastian/BT-20210625/1009791-light/run1009791-light.h5 tag-1496850084//
/work/sebastian/BT-20210625/1009791-light/run1009791-light.h5 tag-1496850086//
/work/sebastian/BT-20210625/1009791-light/run1009791-light.h5 tag-1496850090//
/work/sebastian/BT-20210625/1009791-light/run1009791-light.h5 tag-1496850092//
/work/sebastian/BT-20210625/1009791-light/run1009791-light.h5 tag-1496850094//
/work/sebastian/BT-20210625/1009791-light/run1009791-light.h5 tag-1496850096//
/work/sebastian/BT-20210625/1009791-light/run1009791-light.h5 tag-1496850098//
/work/sebastian/BT-20210625/1009791-light/run1009791-light.h5 tag-1496850100//
/work/sebastian/BT-20210625/1009791-light/run1009791-light.h5 tag-1496850102//
/work/sebastian/BT-20210625/1009791-light/run1009791-light.h5 tag-1496850106//
/work/sebastian/BT-20210625/1009791-light/run1009791-light.h5 tag-1496850108//
/work/sebastian/BT-20210625/1009791-light/run1009791-light.h5 tag-1496850110//
/work/sebastian/BT-20210625/1009791-light/run1009791-light.h5 tag-1496850118//
/work/sebastian/BT-20210625/1009791-light/run1009791-light.h5 tag-1496850120//
/work/sebastian/BT-20210625/1009791-light/run1009791-light.h5 tag-1496850122//
/work/sebastian/BT-20210625/1009791-light/run1009791-light.h5 tag-1496850124//
/work/sebastian/BT-20210625/1009791-light/run1009791-light.h5 tag-1496850126//
/work/sebastian/BT-20210625/1009791-light/run1009791-light.h5 tag-1496850128//
/work/sebastian/BT-20210625/1009791-light/run1009791-light.h5 tag-1496850134//
/work/sebastian/BT-20210625/1009791-light/run1009791-light.h5 tag-1496850138//
/work/sebastian/BT-20210625/1009791-light/run1009791-light.h5 tag-1496850140//
/work/sebastian/BT-20210625/1009791-light/run1009791-light.h5 tag-1496850150//
/work/sebastian/BT-20210625/1009791-light/run1009791-light.h5 tag-1496850152//
/work/sebastian/BT-20210625/1009791-light/run1009791-light.h5 tag-1496850160//
/work/sebastian/BT-20210625/1009791-light/run1009791-light.h5 tag-1496850166//
/work/sebastian/BT-20210625/1009791-light/run1009791-light.h5 tag-1496850168//
/work/sebastian/BT-20210625/1009791-light/run1009791-light.h5 tag-1496850176//
/work/sebastian/BT-20210625/1009791-light/run1009791-light.h5 tag-1496850178//
/work/sebastian/BT-20210625/1009791-light/run1009791-light.h5 tag-1496850180//
/work/sebastian/BT-20210625/1009791-light/run1009791-light.h5 tag-1496850184//
/work/sebastian/BT-20210625/1009791-light/run1009791-light.h5 tag-1496850188//
/work/sebastian/BT-20210625/1009791-light/run1009791-light.h5 tag-1496850190//
/work/sebastian/BT-20210625/1009791-light/run1009791-light.h5 tag-1496850196//
/work/sebastian/BT-20210625/1009791-light/run1009791-light.h5 tag-1496850198//
/work/sebastian/BT-20210625/1009791-light/run1009791-light.h5 tag-1496850200//
/work/sebastian/BT-20210625/1009791-light/run1009791-light.h5 tag-1496850202//
/work/sebastian/BT-20210625/1009791-light/run1009791-light.h5 tag-1496850206//
/work/sebastian/BT-20210625/1009791-light/run1009791-light.h5 tag-1496850210//
/work/sebastian/BT-20210625/1009791-light/run1009791-light.h5 tag-1496850212//
/work/sebastian/BT-20210625/1009791-light/run1009791-light.h5 tag-1496850216//
/work/sebastian/BT-20210625/1009791-light/run1009791-light.h5 tag-1496850218//
/work/sebastian/BT-20210625/1009791-light/run1009791-light.h5 tag-1496850220//
/work/sebastian/BT-20210625/1009791-light/run1009791-light.h5 tag-1496850226//
/work/sebastian/BT-20210625/1009791-light/run1009791-light.h5 tag-1496850228//
/work/sebastian/BT-20210625/1009791-light/run1009791-light.h5 tag-1496850230//
/work/sebastian/BT-20210625/1009791-light/run1009791-light.h5 tag-1496850232//
/work/sebastian/BT-20210625/1009791-light/run1009791-light.h5 tag-1496850234//
/work/sebastian/BT-20210625/1009791-light/run1009791-light.h5 tag-1496850236//
/work/sebastian/BT-20210625/1009791-light/run1009791-light.h5 tag-1496850238//
/work/sebastian/BT-20210625/1009791-light/run1009791-light.h5 tag-1496850240//
/work/sebastian/BT-20210625/1009791-light/run1009791-light.h5 tag-1496850254//
/work/sebastian/BT-20210625/1009791-light/run1009791-light.h5 tag-1496850258//
/work/sebastian/BT-20210625/1009791-light/run1009791-light.h5 tag-1496850260//
/work/sebastian/BT-20210625/1009791-light/run1009791-light.h5 tag-1496850262//
/work/sebastian/BT-20210625/1009791-light/run1009791-light.h5 tag-1496850266//
/work/sebastian/BT-20210625/1009791-light/run1009791-light.h5 tag-1496850268//
/work/sebastian/BT-20210625/1009791-light/run1009791-light.h5 tag-1496850270//
/work/sebastian/BT-20210625/1009791-light/run1009791-light.h5 tag-1496850272//
/work/sebastian/BT-20210625/1009791-light/run1009791-light.h5 tag-1496850274//
/work/sebastian/BT-20210625/1009791-light/run1009791-light.h5 tag-1496850276//
/work/sebastian/BT-20210625/1009791-light/run1009791-light.h5 tag-1496850282//
/work/sebastian/BT-20210625/1009791-light/run1009791-light.h5 tag-1496850284//
/work/sebastian/BT-20210625/1009791-light/run1009791-light.h5 tag-1496850288//
/work/sebastian/BT-20210625/1009791-light/run1009791-light.h5 tag-1496850290//
/work/sebastian/BT-20210625/1009791-light/run1009791-light.h5 tag-1496850298//
/work/sebastian/BT-20210625/1009791-light/run1009791-light.h5 tag-1496850304//
/work/sebastian/BT-20210625/1009791-light/run1009791-light.h5 tag-1496850306//
/work/sebastian/BT-20210625/1009791-light/run1009791-light.h5 tag-1496850308//
/work/sebastian/BT-20210625/1009791-light/run1009791-light.h5 tag-1496850310//
/work/sebastian/BT-20210625/1009791-light/run1009791-light.h5 tag-1496850312//
/work/sebastian/BT-20210625/1009791-light/run1009791-light.h5 tag-1496850314//
/work/sebastian/BT-20210625/1009791-light/run1009791-light.h5 tag-1496850316//
/work/sebastian/BT-20210625/1009791-light/run1009791-light.h5 tag-1496850318//
/work/sebastian/BT-20210625/1009791-light/run1009791-light.h5 tag-1496850328//
/work/sebastian/BT-20210625/1009791-light/run1009791-light.h5 tag-1496850330//
/work/sebastian/BT-20210625/1009791-light/run1009791-light.h5 tag-1496850332//
/work/sebastian/BT-20210625/1009791-light/run1009791-light.h5 tag-1496850334//
/work/sebastian/BT-20210625/1009791-light/run1009791-light.h5 tag-1496850338//
/work/sebastian/BT-20210625/1009791-light/run1009791-light.h5 tag-1496850344//
/work/sebastian/BT-20210625/1009791-light/run1009791-light.h5 tag-1496850348//
/work/sebastian/BT-20210625/1009791-light/run1009791-light.h5 tag-1496850350//
/work/sebastian/BT-20210625/1009791-light/run1009791-light.h5 tag-1496850360//
/work/sebastian/BT-20210625/1009791-light/run1009791-light.h5 tag-1496850362//
/work/sebastian/BT-20210625/1009791-light/run1009791-light.h5 tag-1496850364//
/work/sebastian/BT-20210625/1009791-light/run1009791-light.h5 tag-1496850366//
/work/sebastian/BT-20210625/1009791-light/run1009791-light.h5 tag-1496850368//
/work/sebastian/BT-20210625/1009791-light/run1009791-light.h5 tag-1496850376//
/work/sebastian/BT-20210625/1009791-light/run1009791-light.h5 tag-1496850378//
/work/sebastian/BT-20210625/1009791-light/run1009791-light.h5 tag-1496850380//
/work/sebastian/BT-20210625/1009791-light/run1009791-light.h5 tag-1496850382//
/work/sebastian/BT-20210625/1009791-light/run1009791-light.h5 tag-1496850388//
/work/sebastian/BT-20210625/1009791-light/run1009791-light.h5 tag-1496850392//
/work/sebastian/BT-20210625/1009791-light/run1009791-light.h5 tag-1496850394//
/work/sebastian/BT-20210625/1009791-light/run1009791-light.h5 tag-1496850398//
/work/sebastian/BT-20210625/1009791-light/run1009791-light.h5 tag-1496850400//
/work/sebastian/BT-20210625/1009791-light/run1009791-light.h5 tag-1496850402//
/work/sebastian/BT-20210625/1009791-light/run1009791-light.h5 tag-1496850404//
/work/sebastian/BT-20210625/1009791-light/run1009791-light.h5 tag-1496850406//
/work/sebastian/BT-20210625/1009791-light/run1009791-light.h5 tag-1496850416//
/work/sebastian/BT-20210625/1009791-light/run1009791-light.h5 tag-1496850418//
/work/sebastian/BT-20210625/1009791-light/run1009791-light.h5 tag-1496850420//
/work/sebastian/BT-20210625/1009791-light/run1009791-light.h5 tag-1496850430//
/work/sebastian/BT-20210625/1009791-light/run1009791-light.h5 tag-1496850434//
/work/sebastian/BT-20210625/1009791-light/run1009791-light.h5 tag-1496850438//
/work/sebastian/BT-20210625/1009791-light/run1009791-light.h5 tag-1496850440//
/work/sebastian/BT-20210625/1009791-light/run1009791-light.h5 tag-1496850442//
/work/sebastian/BT-20210625/1009791-light/run1009791-light.h5 tag-1496850444//
/work/sebastian/BT-20210625/1009791-light/run1009791-light.h5 tag-1496850452//
/work/sebastian/BT-20210625/1009791-light/run1009791-light.h5 tag-1496850454//
/work/sebastian/BT-20210625/1009791-light/run1009791-light.h5 tag-1496850456//
/work/sebastian/BT-20210625/1009791-light/run1009791-light.h5 tag-1496850458//
/work/sebastian/BT-20210625/1009791-light/run1009791-light.h5 tag-1496850460//
/work/sebastian/BT-20210625/1009791-light/run1009791-light.h5 tag-1496850464//
/work/sebastian/BT-20210625/1009791-light/run1009791-light.h5 tag-1496850468//
/work/sebastian/BT-20210625/1009791-light/run1009791-light.h5 tag-1496850472//
/work/sebastian/BT-20210625/1009791-light/run1009791-light.h5 tag-1496850474//
/work/sebastian/BT-20210625/1009791-light/run1009791-light.h5 tag-1496850482//
/work/sebastian/BT-20210625/1009791-light/run1009791-light.h5 tag-1496850484//
/work/sebastian/BT-20210625/1009791-light/run1009791-light.h5 tag-1496850486//
/work/sebastian/BT-20210625/1009791-light/run1009791-light.h5 tag-1496850488//
/work/sebastian/BT-20210625/1009791-light/run1009791-light.h5 tag-1496850490//
/work/sebastian/BT-20210625/1009791-light/run1009791-light.h5 tag-1496850494//
/work/sebastian/BT-20210625/1009791-light/run1009791-light.h5 tag-1496850496//
/work/sebastian/BT-20210625/1009791-light/run1009791-light.h5 tag-1496850500//
/work/sebastian/BT-20210625/1009791-light/run1009791-light.h5 tag-1496850502//
/work/sebastian/BT-20210625/1009791-light/run1009791-light.h5 tag-1496850512//
/work/sebastian/BT-20210625/1009791-light/run1009791-light.h5 tag-1496850516//
/work/sebastian/BT-20210625/1009791-light/run1009791-light.h5 tag-1496850518//
/work/sebastian/BT-20210625/1009791-light/run1009791-light.h5 tag-1496850526//
/work/sebastian/BT-20210625/1009791-light/run1009791-light.h5 tag-1496850530//
/work/sebastian/BT-20210625/1009791-light/run1009791-light.h5 tag-1496850534//
/work/sebastian/BT-20210625/1009791-light/run1009791-light.h5 tag-1496850540//
/work/sebastian/BT-20210625/1009791-light/run1009791-light.h5 tag-1496850542//
/work/sebastian/BT-20210625/1009791-light/run1009791-light.h5 tag-1496850544//
/work/sebastian/BT-20210625/1009791-light/run1009791-light.h5 tag-1496850552//
/work/sebastian/BT-20210625/1009791-light/run1009791-light.h5 tag-1496850554//
/work/sebastian/BT-20210625/1009791-light/run1009791-light.h5 tag-1496850560//
/work/sebastian/BT-20210625/1009791-light/run1009791-light.h5 tag-1496850566//
/work/sebastian/BT-20210625/1009791-light/run1009791-light.h5 tag-1496850568//
/work/sebastian/BT-20210625/1009791-light/run1009791-light.h5 tag-1496850576//
/work/sebastian/BT-20210625/1009791-light/run1009791-light.h5 tag-1496850582//
/work/sebastian/BT-20210625/1009791-light/run1009791-light.h5 tag-1496850584//
/work/sebastian/BT-20210625/1009791-light/run1009791-light.h5 tag-1496850586//
/work/sebastian/BT-20210625/1009791-light/run1009791-light.h5 tag-1496850588//
/work/sebastian/BT-20210625/1009791-light/run1009791-light.h5 tag-1496850590//
/work/sebastian/BT-20210625/1009791-light/run1009791-light.h5 tag-1496850592//
/work/sebastian/BT-20210625/1009791-light/run1009791-light.h5 tag-1496850594//
/work/sebastian/BT-20210625/1009791-light/run1009791-light.h5 tag-1496850596//
/work/sebastian/BT-20210625/1009791-light/run1009791-light.h5 tag-1496850604//
/work/sebastian/BT-20210625/1009791-light/run1009791-light.h5 tag-1496850606//
/work/sebastian/BT-20210625/1009791-light/run1009791-light.h5 tag-1496850608//
/work/sebastian/BT-20210625/1009791-light/run1009791-light.h5 tag-1496850610//
/work/sebastian/BT-20210625/1009791-light/run1009791-light.h5 tag-1496850612//
/work/sebastian/BT-20210625/1009791-light/run1009791-light.h5 tag-1496850622//
/work/sebastian/BT-20210625/1009791-light/run1009791-light.h5 tag-1496850624//
/work/sebastian/BT-20210625/1009791-light/run1009791-light.h5 tag-1496850626//
/work/sebastian/BT-20210625/1009791-light/run1009791-light.h5 tag-1496850632//
/work/sebastian/BT-20210625/1009791-light/run1009791-light.h5 tag-1496850634//
/work/sebastian/BT-20210625/1009791-light/run1009791-light.h5 tag-1496850636//
/work/sebastian/BT-20210625/1009791-light/run1009791-light.h5 tag-1496850638//
/work/sebastian/BT-20210625/1009791-light/run1009791-light.h5 tag-1496850640//
/work/sebastian/BT-20210625/1009791-light/run1009791-light.h5 tag-1496850646//
/work/sebastian/BT-20210625/1009791-light/run1009791-light.h5 tag-1496850648//
/work/sebastian/BT-20210625/1009791-light/run1009791-light.h5 tag-1496850650//
/work/sebastian/BT-20210625/1009791-light/run1009791-light.h5 tag-1496850654//
/work/sebastian/BT-20210625/1009791-light/run1009791-light.h5 tag-1496850660//
/work/sebastian/BT-20210625/1009791-light/run1009791-light.h5 tag-1496850662//
/work/sebastian/BT-20210625/1009791-light/run1009791-light.h5 tag-1496850666//
/work/sebastian/BT-20210625/1009791-light/run1009791-light.h5 tag-1496850676//
/work/sebastian/BT-20210625/1009791-light/run1009791-light.h5 tag-1496850678//
/work/sebastian/BT-20210625/1009791-light/run1009791-light.h5 tag-1496850680//
/work/sebastian/BT-20210625/1009791-light/run1009791-light.h5 tag-1496850682//
/work/sebastian/BT-20210625/1009791-light/run1009791-light.h5 tag-1496850684//
/work/sebastian/BT-20210625/1009791-light/run1009791-light.h5 tag-1496850688//
/work/sebastian/BT-20210625/1009791-light/run1009791-light.h5 tag-1496850690//
/work/sebastian/BT-20210625/1009791-light/run1009791-light.h5 tag-1496850692//
/work/sebastian/BT-20210625/1009791-light/run1009791-light.h5 tag-1496850694//
/work/sebastian/BT-20210625/1009791-light/run1009791-light.h5 tag-1496850696//
/work/sebastian/BT-20210625/1009791-light/run1009791-light.h5 tag-1496850700//
/work/sebastian/BT-20210625/1009791-light/run1009791-light.h5 tag-1496850704//
/work/sebastian/BT-20210625/1009791-light/run1009791-light.h5 tag-1496850706//
/work/sebastian/BT-20210625/1009791-light/run1009791-light.h5 tag-1496850708//
/work/sebastian/BT-20210625/1009791-light/run1009791-light.h5 tag-1496850712//
/work/sebastian/BT-20210625/1009791-light/run1009791-light.h5 tag-1496850718//
/work/sebastian/BT-20210625/1009791-light/run1009791-light.h5 tag-1496850720//
/work/sebastian/BT-20210625/1009791-light/run1009791-light.h5 tag-1496850722//
/work/sebastian/BT-20210625/1009791-light/run1009791-light.h5 tag-1496850726//
/work/sebastian/BT-20210625/1009791-light/run1009791-light.h5 tag-1496850734//
/work/sebastian/BT-20210625/1009791-light/run1009791-light.h5 tag-1496850736//
/work/sebastian/BT-20210625/1009791-light/run1009791-light.h5 tag-1496850740//
/work/sebastian/BT-20210625/1009791-light/run1009791-light.h5 tag-1496850746//
/work/sebastian/BT-20210625/1009791-light/run1009791-light.h5 tag-1496850748//
/work/sebastian/BT-20210625/1009791-light/run1009791-light.h5 tag-1496850752//
/work/sebastian/BT-20210625/1009791-light/run1009791-light.h5 tag-1496850760//
/work/sebastian/BT-20210625/1009791-light/run1009791-light.h5 tag-1496850766//
/work/sebastian/BT-20210625/1009791-light/run1009791-light.h5 tag-1496850776//
/work/sebastian/BT-20210625/1009791-light/run1009791-light.h5 tag-1496850778//
/work/sebastian/BT-20210625/1009791-light/run1009791-light.h5 tag-1496850780//
/work/sebastian/BT-20210625/1009791-light/run1009791-light.h5 tag-1496850784//
/work/sebastian/BT-20210625/1009791-light/run1009791-light.h5 tag-1496850790//
/work/sebastian/BT-20210625/1009791-light/run1009791-light.h5 tag-1496850792//
/work/sebastian/BT-20210625/1009791-light/run1009791-light.h5 tag-1496850806//
/work/sebastian/BT-20210625/1009791-light/run1009791-light.h5 tag-1496850812//
/work/sebastian/BT-20210625/1009791-light/run1009791-light.h5 tag-1496850814//
/work/sebastian/BT-20210625/1009791-light/run1009791-light.h5 tag-1496850816//
/work/sebastian/BT-20210625/1009791-light/run1009791-light.h5 tag-1496850818//
/work/sebastian/BT-20210625/1009791-light/run1009791-light.h5 tag-1496850820//
/work/sebastian/BT-20210625/1009791-light/run1009791-light.h5 tag-1496850822//
/work/sebastian/BT-20210625/1009791-light/run1009791-light.h5 tag-1496850824//
/work/sebastian/BT-20210625/1009791-light/run1009791-light.h5 tag-1496850828//
/work/sebastian/BT-20210625/1009791-light/run1009791-light.h5 tag-1496850830//
/work/sebastian/BT-20210625/1009791-light/run1009791-light.h5 tag-1496850832//
/work/sebastian/BT-20210625/1009791-light/run1009791-light.h5 tag-1496850834//
/work/sebastian/BT-20210625/1009791-light/run1009791-light.h5 tag-1496850836//
/work/sebastian/BT-20210625/1009791-light/run1009791-light.h5 tag-1496850844//
/work/sebastian/BT-20210625/1009791-light/run1009791-light.h5 tag-1496850846//
/work/sebastian/BT-20210625/1009791-light/run1009791-light.h5 tag-1496850854//
/work/sebastian/BT-20210625/1009791-light/run1009791-light.h5 tag-1496850860//
/work/sebastian/BT-20210625/1009791-light/run1009791-light.h5 tag-1496850862//
/work/sebastian/BT-20210625/1009791-light/run1009791-light.h5 tag-1496850864//
/work/sebastian/BT-20210625/1009791-light/run1009791-light.h5 tag-1496850866//
/work/sebastian/BT-20210625/1009791-light/run1009791-light.h5 tag-1496850870//
/work/sebastian/BT-20210625/1009791-light/run1009791-light.h5 tag-1496850876//
/work/sebastian/BT-20210625/1009791-light/run1009791-light.h5 tag-1496850878//
/work/sebastian/BT-20210625/1009791-light/run1009791-light.h5 tag-1496850880//
/work/sebastian/BT-20210625/1009791-light/run1009791-light.h5 tag-1496850882//
/work/sebastian/BT-20210625/1009791-light/run1009791-light.h5 tag-1496850884//
/work/sebastian/BT-20210625/1009791-light/run1009791-light.h5 tag-1496850892//
/work/sebastian/BT-20210625/1009791-light/run1009791-light.h5 tag-1496850912//
/work/sebastian/BT-20210625/1009791-light/run1009791-light.h5 tag-1496850922//
/work/sebastian/BT-20210625/1009791-light/run1009791-light.h5 tag-1496850924//
/work/sebastian/BT-20210625/1009791-light/run1009791-light.h5 tag-1496850928//
/work/sebastian/BT-20210625/1009791-light/run1009791-light.h5 tag-1496850932//
/work/sebastian/BT-20210625/1009791-light/run1009791-light.h5 tag-1496850934//
/work/sebastian/BT-20210625/1009791-light/run1009791-light.h5 tag-1496850938//
/work/sebastian/BT-20210625/1009791-light/run1009791-light.h5 tag-1496850940//
/work/sebastian/BT-20210625/1009791-light/run1009791-light.h5 tag-1496850942//
/work/sebastian/BT-20210625/1009791-light/run1009791-light.h5 tag-1496850944//
/work/sebastian/BT-20210625/1009791-light/run1009791-light.h5 tag-1496850946//
/work/sebastian/BT-20210625/1009791-light/run1009791-light.h5 tag-1496850948//
/work/sebastian/BT-20210625/1009791-light/run1009791-light.h5 tag-1496850950//
/work/sebastian/BT-20210625/1009791-light/run1009791-light.h5 tag-1496850952//
/work/sebastian/BT-20210625/1009791-light/run1009791-light.h5 tag-1496850962//
/work/sebastian/BT-20210625/1009791-light/run1009791-light.h5 tag-1496850966//
/work/sebastian/BT-20210625/1009791-light/run1009791-light.h5 tag-1496850968//
/work/sebastian/BT-20210625/1009791-light/run1009791-light.h5 tag-1496850970//
/work/sebastian/BT-20210625/1009791-light/run1009791-light.h5 tag-1496850972//
/work/sebastian/BT-20210625/1009791-light/run1009791-light.h5 tag-1496850974//
/work/sebastian/BT-20210625/1009791-light/run1009791-light.h5 tag-1496850976//
/work/sebastian/BT-20210625/1009791-light/run1009791-light.h5 tag-1496850978//
/work/sebastian/BT-20210625/1009791-light/run1009791-light.h5 tag-1496850980//
/work/sebastian/BT-20210625/1009791-light/run1009791-light.h5 tag-1496850982//
/work/sebastian/BT-20210625/1009791-light/run1009791-light.h5 tag-1496850984//
/work/sebastian/BT-20210625/1009791-light/run1009791-light.h5 tag-1496850986//
/work/sebastian/BT-20210625/1009791-light/run1009791-light.h5 tag-1496850990//
/work/sebastian/BT-20210625/1009791-light/run1009791-light.h5 tag-1496850992//
/work/sebastian/BT-20210625/1009791-light/run1009791-light.h5 tag-1496850994//
/work/sebastian/BT-20210625/1009791-light/run1009791-light.h5 tag-1496850996//
/work/sebastian/BT-20210625/1009791-light/run1009791-light.h5 tag-1496850998//
/work/sebastian/BT-20210625/1009791-light/run1009791-light.h5 tag-1496851004//
/work/sebastian/BT-20210625/1009791-light/run1009791-light.h5 tag-1496851008//
/work/sebastian/BT-20210625/1009791-light/run1009791-light.h5 tag-1496851010//
/work/sebastian/BT-20210625/1009791-light/run1009791-light.h5 tag-1496851012//
/work/sebastian/BT-20210625/1009791-light/run1009791-light.h5 tag-1496851014//
/work/sebastian/BT-20210625/1009791-light/run1009791-light.h5 tag-1496851016//
/work/sebastian/BT-20210625/1009791-light/run1009791-light.h5 tag-1496851018//
/work/sebastian/BT-20210625/1009791-light/run1009791-light.h5 tag-1496851020//
/work/sebastian/BT-20210625/1009791-light/run1009791-light.h5 tag-1496851024//
/work/sebastian/BT-20210625/1009791-light/run1009791-light.h5 tag-1496851026//
/work/sebastian/BT-20210625/1009791-light/run1009791-light.h5 tag-1496851028//
/work/sebastian/BT-20210625/1009791-light/run1009791-light.h5 tag-1496851030//
/work/sebastian/BT-20210625/1009791-light/run1009791-light.h5 tag-1496851038//
/work/sebastian/BT-20210625/1009791-light/run1009791-light.h5 tag-1496851042//
/work/sebastian/BT-20210625/1009791-light/run1009791-light.h5 tag-1496851050//
/work/sebastian/BT-20210625/1009791-light/run1009791-light.h5 tag-1496851052//
/work/sebastian/BT-20210625/1009791-light/run1009791-light.h5 tag-1496851062//
/work/sebastian/BT-20210625/1009791-light/run1009791-light.h5 tag-1496851064//
/work/sebastian/BT-20210625/1009791-light/run1009791-light.h5 tag-1496851068//
/work/sebastian/BT-20210625/1009791-light/run1009791-light.h5 tag-1496851072//
/work/sebastian/BT-20210625/1009791-light/run1009791-light.h5 tag-1496851074//
/work/sebastian/BT-20210625/1009791-light/run1009791-light.h5 tag-1496851082//
/work/sebastian/BT-20210625/1009791-light/run1009791-light.h5 tag-1496851088//
/work/sebastian/BT-20210625/1009791-light/run1009791-light.h5 tag-1496851092//
/work/sebastian/BT-20210625/1009791-light/run1009791-light.h5 tag-1496851100//
/work/sebastian/BT-20210625/1009791-light/run1009791-light.h5 tag-1496851106//
/work/sebastian/BT-20210625/1009791-light/run1009791-light.h5 tag-1496851108//
/work/sebastian/BT-20210625/1009791-light/run1009791-light.h5 tag-1496851114//
/work/sebastian/BT-20210625/1009791-light/run1009791-light.h5 tag-1496851116//
/work/sebastian/BT-20210625/1009791-light/run1009791-light.h5 tag-1496851118//
/work/sebastian/BT-20210625/1009791-light/run1009791-light.h5 tag-1496851124//
/work/sebastian/BT-20210625/1009791-light/run1009791-light.h5 tag-1496851130//
/work/sebastian/BT-20210625/1009791-light/run1009791-light.h5 tag-1496851132//
/work/sebastian/BT-20210625/1009791-light/run1009791-light.h5 tag-1496851134//
/work/sebastian/BT-20210625/1009791-light/run1009791-light.h5 tag-1496851146//
/work/sebastian/BT-20210625/1009791-light/run1009791-light.h5 tag-1496851148//
/work/sebastian/BT-20210625/1009791-light/run1009791-light.h5 tag-1496851152//
/work/sebastian/BT-20210625/1009791-light/run1009791-light.h5 tag-1496851154//
/work/sebastian/BT-20210625/1009791-light/run1009791-light.h5 tag-1496851156//
/work/sebastian/BT-20210625/1009791-light/run1009791-light.h5 tag-1496851158//
/work/sebastian/BT-20210625/1009791-light/run1009791-light.h5 tag-1496851160//
/work/sebastian/BT-20210625/1009791-light/run1009791-light.h5 tag-1496851162//
/work/sebastian/BT-20210625/1009791-light/run1009791-light.h5 tag-1496851166//
/work/sebastian/BT-20210625/1009791-light/run1009791-light.h5 tag-1496851168//
/work/sebastian/BT-20210625/1009791-light/run1009791-light.h5 tag-1496851170//
/work/sebastian/BT-20210625/1009791-light/run1009791-light.h5 tag-1496851174//
/work/sebastian/BT-20210625/1009791-light/run1009791-light.h5 tag-1496851176//
/work/sebastian/BT-20210625/1009791-light/run1009791-light.h5 tag-1496851178//
/work/sebastian/BT-20210625/1009791-light/run1009791-light.h5 tag-1496851180//
/work/sebastian/BT-20210625/1009791-light/run1009791-light.h5 tag-1496851182//
/work/sebastian/BT-20210625/1009791-light/run1009791-light.h5 tag-1496851188//
/work/sebastian/BT-20210625/1009791-light/run1009791-light.h5 tag-1496851190//
/work/sebastian/BT-20210625/1009791-light/run1009791-light.h5 tag-1496851192//
/work/sebastian/BT-20210625/1009791-light/run1009791-light.h5 tag-1496851194//
/work/sebastian/BT-20210625/1009791-light/run1009791-light.h5 tag-1496851196//
/work/sebastian/BT-20210625/1009791-light/run1009791-light.h5 tag-1496851200//
/work/sebastian/BT-20210625/1009791-light/run1009791-light.h5 tag-1496851202//
/work/sebastian/BT-20210625/1009791-light/run1009791-light.h5 tag-1496851204//
/work/sebastian/BT-20210625/1009791-light/run1009791-light.h5 tag-1496851208//
/work/sebastian/BT-20210625/1009791-light/run1009791-light.h5 tag-1496851220//
/work/sebastian/BT-20210625/1009791-light/run1009791-light.h5 tag-1496851224//
/work/sebastian/BT-20210625/1009791-light/run1009791-light.h5 tag-1496851232//
/work/sebastian/BT-20210625/1009791-light/run1009791-light.h5 tag-1496851234//
/work/sebastian/BT-20210625/1009791-light/run1009791-light.h5 tag-1496851236//
/work/sebastian/BT-20210625/1009791-light/run1009791-light.h5 tag-1496851238//
/work/sebastian/BT-20210625/1009791-light/run1009791-light.h5 tag-1496851240//
/work/sebastian/BT-20210625/1009791-light/run1009791-light.h5 tag-1496851244//
/work/sebastian/BT-20210625/1009791-light/run1009791-light.h5 tag-1496851246//
/work/sebastian/BT-20210625/1009791-light/run1009791-light.h5 tag-1496851248//
/work/sebastian/BT-20210625/1009791-light/run1009791-light.h5 tag-1496851250//
/work/sebastian/BT-20210625/1009791-light/run1009791-light.h5 tag-1496851252//
/work/sebastian/BT-20210625/1009791-light/run1009791-light.h5 tag-1496851254//
/work/sebastian/BT-20210625/1009791-light/run1009791-light.h5 tag-1496851256//
/work/sebastian/BT-20210625/1009791-light/run1009791-light.h5 tag-1496851258//
/work/sebastian/BT-20210625/1009791-light/run1009791-light.h5 tag-1496851262//
/work/sebastian/BT-20210625/1009791-light/run1009791-light.h5 tag-1496851264//
/work/sebastian/BT-20210625/1009791-light/run1009791-light.h5 tag-1496851266//
/work/sebastian/BT-20210625/1009791-light/run1009791-light.h5 tag-1496851268//
/work/sebastian/BT-20210625/1009791-light/run1009791-light.h5 tag-1496851276//
/work/sebastian/BT-20210625/1009791-light/run1009791-light.h5 tag-1496851278//
/work/sebastian/BT-20210625/1009791-light/run1009791-light.h5 tag-1496851280//
/work/sebastian/BT-20210625/1009791-light/run1009791-light.h5 tag-1496851282//
/work/sebastian/BT-20210625/1009791-light/run1009791-light.h5 tag-1496851284//
/work/sebastian/BT-20210625/1009791-light/run1009791-light.h5 tag-1496851292//
/work/sebastian/BT-20210625/1009791-light/run1009791-light.h5 tag-1496851294//
/work/sebastian/BT-20210625/1009791-light/run1009791-light.h5 tag-1496851296//
/work/sebastian/BT-20210625/1009791-light/run1009791-light.h5 tag-1496851298//
/work/sebastian/BT-20210625/1009791-light/run1009791-light.h5 tag-1496851306//
/work/sebastian/BT-20210625/1009791-light/run1009791-light.h5 tag-1496851312//
/work/sebastian/BT-20210625/1009791-light/run1009791-light.h5 tag-1496851314//
/work/sebastian/BT-20210625/1009791-light/run1009791-light.h5 tag-1496851316//
/work/sebastian/BT-20210625/1009791-light/run1009791-light.h5 tag-1496851324//
/work/sebastian/BT-20210625/1009791-light/run1009791-light.h5 tag-1496851326//
/work/sebastian/BT-20210625/1009791-light/run1009791-light.h5 tag-1496851328//
/work/sebastian/BT-20210625/1009791-light/run1009791-light.h5 tag-1496851330//
/work/sebastian/BT-20210625/1009791-light/run1009791-light.h5 tag-1496851332//
/work/sebastian/BT-20210625/1009791-light/run1009791-light.h5 tag-1496851338//
/work/sebastian/BT-20210625/1009791-light/run1009791-light.h5 tag-1496851340//
/work/sebastian/BT-20210625/1009791-light/run1009791-light.h5 tag-1496851342//
/work/sebastian/BT-20210625/1009791-light/run1009791-light.h5 tag-1496851354//
/work/sebastian/BT-20210625/1009791-light/run1009791-light.h5 tag-1496851356//
/work/sebastian/BT-20210625/1009791-light/run1009791-light.h5 tag-1496851358//
/work/sebastian/BT-20210625/1009791-light/run1009791-light.h5 tag-1496851362//
/work/sebastian/BT-20210625/1009791-light/run1009791-light.h5 tag-1496851372//
/work/sebastian/BT-20210625/1009791-light/run1009791-light.h5 tag-1496851374//
/work/sebastian/BT-20210625/1009791-light/run1009791-light.h5 tag-1496851380//
/work/sebastian/BT-20210625/1009791-light/run1009791-light.h5 tag-1496851384//
/work/sebastian/BT-20210625/1009791-light/run1009791-light.h5 tag-1496851386//
/work/sebastian/BT-20210625/1009791-light/run1009791-light.h5 tag-1496851388//
/work/sebastian/BT-20210625/1009791-light/run1009791-light.h5 tag-1496851390//
/work/sebastian/BT-20210625/1009791-light/run1009791-light.h5 tag-1496851400//
/work/sebastian/BT-20210625/1009791-light/run1009791-light.h5 tag-1496851402//
/work/sebastian/BT-20210625/1009791-light/run1009791-light.h5 tag-1496851410//
/work/sebastian/BT-20210625/1009791-light/run1009791-light.h5 tag-1496851412//
/work/sebastian/BT-20210625/1009791-light/run1009791-light.h5 tag-1496851416//
/work/sebastian/BT-20210625/1009791-light/run1009791-light.h5 tag-1496851418//
/work/sebastian/BT-20210625/1009791-light/run1009791-light.h5 tag-1496851420//
/work/sebastian/BT-20210625/1009791-light/run1009791-light.h5 tag-1496851428//
/work/sebastian/BT-20210625/1009791-light/run1009791-light.h5 tag-1496851430//
/work/sebastian/BT-20210625/1009791-light/run1009791-light.h5 tag-1496851432//
/work/sebastian/BT-20210625/1009791-light/run1009791-light.h5 tag-1496851434//
/work/sebastian/BT-20210625/1009791-light/run1009791-light.h5 tag-1496851436//
/work/sebastian/BT-20210625/1009791-light/run1009791-light.h5 tag-1496851444//
/work/sebastian/BT-20210625/1009791-light/run1009791-light.h5 tag-1496851446//
/work/sebastian/BT-20210625/1009791-light/run1009791-light.h5 tag-1496851456//
/work/sebastian/BT-20210625/1009791-light/run1009791-light.h5 tag-1496851458//
/work/sebastian/BT-20210625/1009791-light/run1009791-light.h5 tag-1496851460//
/work/sebastian/BT-20210625/1009791-light/run1009791-light.h5 tag-1496851462//
/work/sebastian/BT-20210625/1009791-light/run1009791-light.h5 tag-1496851464//
/work/sebastian/BT-20210625/1009791-light/run1009791-light.h5 tag-1496851466//
/work/sebastian/BT-20210625/1009791-light/run1009791-light.h5 tag-1496851470//
/work/sebastian/BT-20210625/1009791-light/run1009791-light.h5 tag-1496851472//
/work/sebastian/BT-20210625/1009791-light/run1009791-light.h5 tag-1496851474//
/work/sebastian/BT-20210625/1009791-light/run1009791-light.h5 tag-1496851476//
/work/sebastian/BT-20210625/1009791-light/run1009791-light.h5 tag-1496851478//
/work/sebastian/BT-20210625/1009791-light/run1009791-light.h5 tag-1496851486//
/work/sebastian/BT-20210625/1009791-light/run1009791-light.h5 tag-1496851488//
/work/sebastian/BT-20210625/1009791-light/run1009791-light.h5 tag-1496851490//
/work/sebastian/BT-20210625/1009791-light/run1009791-light.h5 tag-1496851492//
/work/sebastian/BT-20210625/1009791-light/run1009791-light.h5 tag-1496851494//
/work/sebastian/BT-20210625/1009791-light/run1009791-light.h5 tag-1496851500//
/work/sebastian/BT-20210625/1009791-light/run1009791-light.h5 tag-1496851502//
/work/sebastian/BT-20210625/1009791-light/run1009791-light.h5 tag-1496851504//
/work/sebastian/BT-20210625/1009791-light/run1009791-light.h5 tag-1496851506//
/work/sebastian/BT-20210625/1009791-light/run1009791-light.h5 tag-1496851508//
/work/sebastian/BT-20210625/1009791-light/run1009791-light.h5 tag-1496851512//
/work/sebastian/BT-20210625/1009791-light/run1009791-light.h5 tag-1496851514//
/work/sebastian/BT-20210625/1009791-light/run1009791-light.h5 tag-1496851518//
/work/sebastian/BT-20210625/1009791-light/run1009791-light.h5 tag-1496851520//
/work/sebastian/BT-20210625/1009791-light/run1009791-light.h5 tag-1496851524//
/work/sebastian/BT-20210625/1009791-light/run1009791-light.h5 tag-1496851526//
/work/sebastian/BT-20210625/1009791-light/run1009791-light.h5 tag-1496851528//
/work/sebastian/BT-20210625/1009791-light/run1009791-light.h5 tag-1496851536//
/work/sebastian/BT-20210625/1009791-light/run1009791-light.h5 tag-1496851538//
/work/sebastian/BT-20210625/1009791-light/run1009791-light.h5 tag-1496851542//
/work/sebastian/BT-20210625/1009791-light/run1009791-light.h5 tag-1496851546//
/work/sebastian/BT-20210625/1009791-light/run1009791-light.h5 tag-1496851550//
/work/sebastian/BT-20210625/1009791-light/run1009791-light.h5 tag-1496851552//
/work/sebastian/BT-20210625/1009791-light/run1009791-light.h5 tag-1496851554//
/work/sebastian/BT-20210625/1009791-light/run1009791-light.h5 tag-1496851556//
/work/sebastian/BT-20210625/1009791-light/run1009791-light.h5 tag-1496851564//
/work/sebastian/BT-20210625/1009791-light/run1009791-light.h5 tag-1496851566//
/work/sebastian/BT-20210625/1009791-light/run1009791-light.h5 tag-1496851568//
/work/sebastian/BT-20210625/1009791-light/run1009791-light.h5 tag-1496851570//
/work/sebastian/BT-20210625/1009791-light/run1009791-light.h5 tag-1496851572//
/work/sebastian/BT-20210625/1009791-light/run1009791-light.h5 tag-1496851578//
/work/sebastian/BT-20210625/1009791-light/run1009791-light.h5 tag-1496851580//
/work/sebastian/BT-20210625/1009791-light/run1009791-light.h5 tag-1496851584//
/work/sebastian/BT-20210625/1009791-light/run1009791-light.h5 tag-1496851586//
/work/sebastian/BT-20210625/1009791-light/run1009791-light.h5 tag-1496851588//
/work/sebastian/BT-20210625/1009791-light/run1009791-light.h5 tag-1496851594//
/work/sebastian/BT-20210625/1009791-light/run1009791-light.h5 tag-1496851596//
/work/sebastian/BT-20210625/1009791-light/run1009791-light.h5 tag-1496851600//
/work/sebastian/BT-20210625/1009791-light/run1009791-light.h5 tag-1496851610//
/work/sebastian/BT-20210625/1009791-light/run1009791-light.h5 tag-1496851612//
/work/sebastian/BT-20210625/1009791-light/run1009791-light.h5 tag-1496851618//
/work/sebastian/BT-20210625/1009791-light/run1009791-light.h5 tag-1496851620//
/work/sebastian/BT-20210625/1009791-light/run1009791-light.h5 tag-1496851630//
/work/sebastian/BT-20210625/1009791-light/run1009791-light.h5 tag-1496851632//
/work/sebastian/BT-20210625/1009791-light/run1009791-light.h5 tag-1496851644//
/work/sebastian/BT-20210625/1009791-light/run1009791-light.h5 tag-1496851646//
/work/sebastian/BT-20210625/1009791-light/run1009791-light.h5 tag-1496851650//
/work/sebastian/BT-20210625/1009791-light/run1009791-light.h5 tag-1496851652//
/work/sebastian/BT-20210625/1009791-light/run1009791-light.h5 tag-1496851658//
/work/sebastian/BT-20210625/1009791-light/run1009791-light.h5 tag-1496851662//
/work/sebastian/BT-20210625/1009791-light/run1009791-light.h5 tag-1496851664//
/work/sebastian/BT-20210625/1009791-light/run1009791-light.h5 tag-1496851680//
/work/sebastian/BT-20210625/1009791-light/run1009791-light.h5 tag-1496851682//
/work/sebastian/BT-20210625/1009791-light/run1009791-light.h5 tag-1496851684//
/work/sebastian/BT-20210625/1009791-light/run1009791-light.h5 tag-1496851688//
/work/sebastian/BT-20210625/1009791-light/run1009791-light.h5 tag-1496851690//
/work/sebastian/BT-20210625/1009791-light/run1009791-light.h5 tag-1496851694//
/work/sebastian/BT-20210625/1009791-light/run1009791-light.h5 tag-1496851704//
/work/sebastian/BT-20210625/1009791-light/run1009791-light.h5 tag-1496851706//
/work/sebastian/BT-20210625/1009791-light/run1009791-light.h5 tag-1496851708//
/work/sebastian/BT-20210625/1009791-light/run1009791-light.h5 tag-1496851710//
/work/sebastian/BT-20210625/1009791-light/run1009791-light.h5 tag-1496851712//
/work/sebastian/BT-20210625/1009791-light/run1009791-light.h5 tag-1496851716//
/work/sebastian/BT-20210625/1009791-light/run1009791-light.h5 tag-1496851720//
/work/sebastian/BT-20210625/1009791-light/run1009791-light.h5 tag-1496851722//
/work/sebastian/BT-20210625/1009791-light/run1009791-light.h5 tag-1496851724//
/work/sebastian/BT-20210625/1009791-light/run1009791-light.h5 tag-1496851726//
/work/sebastian/BT-20210625/1009791-light/run1009791-light.h5 tag-1496851728//
/work/sebastian/BT-20210625/1009791-light/run1009791-light.h5 tag-1496851734//
/work/sebastian/BT-20210625/1009791-light/run1009791-light.h5 tag-1496851736//
/work/sebastian/BT-20210625/1009791-light/run1009791-light.h5 tag-1496851738//
/work/sebastian/BT-20210625/1009791-light/run1009791-light.h5 tag-1496851740//
/work/sebastian/BT-20210625/1009791-light/run1009791-light.h5 tag-1496851742//
/work/sebastian/BT-20210625/1009791-light/run1009791-light.h5 tag-1496851748//
/work/sebastian/BT-20210625/1009791-light/run1009791-light.h5 tag-1496851752//
/work/sebastian/BT-20210625/1009791-light/run1009791-light.h5 tag-1496851754//
/work/sebastian/BT-20210625/1009791-light/run1009791-light.h5 tag-1496851756//
/work/sebastian/BT-20210625/1009791-light/run1009791-light.h5 tag-1496851758//
/work/sebastian/BT-20210625/1009791-light/run1009791-light.h5 tag-1496851760//
/work/sebastian/BT-20210625/1009791-light/run1009791-light.h5 tag-1496851762//
/work/sebastian/BT-20210625/1009791-light/run1009791-light.h5 tag-1496851772//
/work/sebastian/BT-20210625/1009791-light/run1009791-light.h5 tag-1496851774//
/work/sebastian/BT-20210625/1009791-light/run1009791-light.h5 tag-1496851776//
/work/sebastian/BT-20210625/1009791-light/run1009791-light.h5 tag-1496851784//
/work/sebastian/BT-20210625/1009791-light/run1009791-light.h5 tag-1496851786//
/work/sebastian/BT-20210625/1009791-light/run1009791-light.h5 tag-1496851788//
/work/sebastian/BT-20210625/1009791-light/run1009791-light.h5 tag-1496851790//
/work/sebastian/BT-20210625/1009791-light/run1009791-light.h5 tag-1496851792//
/work/sebastian/BT-20210625/1009791-light/run1009791-light.h5 tag-1496851798//
/work/sebastian/BT-20210625/1009791-light/run1009791-light.h5 tag-1496851800//
/work/sebastian/BT-20210625/1009791-light/run1009791-light.h5 tag-1496851804//
/work/sebastian/BT-20210625/1009791-light/run1009791-light.h5 tag-1496851812//
/work/sebastian/BT-20210625/1009791-light/run1009791-light.h5 tag-1496851814//
/work/sebastian/BT-20210625/1009791-light/run1009791-light.h5 tag-1496851818//
/work/sebastian/BT-20210625/1009791-light/run1009791-light.h5 tag-1496851820//
/work/sebastian/BT-20210625/1009791-light/run1009791-light.h5 tag-1496851824//
/work/sebastian/BT-20210625/1009791-light/run1009791-light.h5 tag-1496851826//
/work/sebastian/BT-20210625/1009791-light/run1009791-light.h5 tag-1496851830//
/work/sebastian/BT-20210625/1009791-light/run1009791-light.h5 tag-1496851832//
/work/sebastian/BT-20210625/1009791-light/run1009791-light.h5 tag-1496851840//
/work/sebastian/BT-20210625/1009791-light/run1009791-light.h5 tag-1496851842//
/work/sebastian/BT-20210625/1009791-light/run1009791-light.h5 tag-1496851846//
/work/sebastian/BT-20210625/1009791-light/run1009791-light.h5 tag-1496851854//
/work/sebastian/BT-20210625/1009791-light/run1009791-light.h5 tag-1496851856//
/work/sebastian/BT-20210625/1009791-light/run1009791-light.h5 tag-1496851868//
/work/sebastian/BT-20210625/1009791-light/run1009791-light.h5 tag-1496851872//
/work/sebastian/BT-20210625/1009791-light/run1009791-light.h5 tag-1496851874//
/work/sebastian/BT-20210625/1009791-light/run1009791-light.h5 tag-1496851880//
/work/sebastian/BT-20210625/1009791-light/run1009791-light.h5 tag-1496851886//
/work/sebastian/BT-20210625/1009791-light/run1009791-light.h5 tag-1496851888//
/work/sebastian/BT-20210625/1009791-light/run1009791-light.h5 tag-1496851894//
/work/sebastian/BT-20210625/1009791-light/run1009791-light.h5 tag-1496851896//
/work/sebastian/BT-20210625/1009791-light/run1009791-light.h5 tag-1496851900//
/work/sebastian/BT-20210625/1009791-light/run1009791-light.h5 tag-1496851908//
/work/sebastian/BT-20210625/1009791-light/run1009791-light.h5 tag-1496851910//
/work/sebastian/BT-20210625/1009791-light/run1009791-light.h5 tag-1496851912//
/work/sebastian/BT-20210625/1009791-light/run1009791-light.h5 tag-1496851914//
/work/sebastian/BT-20210625/1009791-light/run1009791-light.h5 tag-1496851916//
/work/sebastian/BT-20210625/1009791-light/run1009791-light.h5 tag-1496851920//
/work/sebastian/BT-20210625/1009791-light/run1009791-light.h5 tag-1496851922//
/work/sebastian/BT-20210625/1009791-light/run1009791-light.h5 tag-1496851924//
/work/sebastian/BT-20210625/1009791-light/run1009791-light.h5 tag-1496851934//
/work/sebastian/BT-20210625/1009791-light/run1009791-light.h5 tag-1496851938//
/work/sebastian/BT-20210625/1009791-light/run1009791-light.h5 tag-1496851940//
/work/sebastian/BT-20210625/1009791-light/run1009791-light.h5 tag-1496851942//
/work/sebastian/BT-20210625/1009791-light/run1009791-light.h5 tag-1496851946//
/work/sebastian/BT-20210625/1009791-light/run1009791-light.h5 tag-1496851948//
/work/sebastian/BT-20210625/1009791-light/run1009791-light.h5 tag-1496851950//
/work/sebastian/BT-20210625/1009791-light/run1009791-light.h5 tag-1496851952//
/work/sebastian/BT-20210625/1009791-light/run1009791-light.h5 tag-1496851954//
/work/sebastian/BT-20210625/1009791-light/run1009791-light.h5 tag-1496851958//
/work/sebastian/BT-20210625/1009791-light/run1009791-light.h5 tag-1496851960//
