/work/sebastian/BT-20210625/1009928-light/run1009928-light.h5 tag-1498051180//
/work/sebastian/BT-20210625/1009928-light/run1009928-light.h5 tag-1498051182//
/work/sebastian/BT-20210625/1009928-light/run1009928-light.h5 tag-1498051184//
/work/sebastian/BT-20210625/1009928-light/run1009928-light.h5 tag-1498051186//
/work/sebastian/BT-20210625/1009928-light/run1009928-light.h5 tag-1498051188//
/work/sebastian/BT-20210625/1009928-light/run1009928-light.h5 tag-1498051194//
/work/sebastian/BT-20210625/1009928-light/run1009928-light.h5 tag-1498051202//
/work/sebastian/BT-20210625/1009928-light/run1009928-light.h5 tag-1498051204//
/work/sebastian/BT-20210625/1009928-light/run1009928-light.h5 tag-1498051208//
/work/sebastian/BT-20210625/1009928-light/run1009928-light.h5 tag-1498051216//
/work/sebastian/BT-20210625/1009928-light/run1009928-light.h5 tag-1498051218//
/work/sebastian/BT-20210625/1009928-light/run1009928-light.h5 tag-1498051222//
/work/sebastian/BT-20210625/1009928-light/run1009928-light.h5 tag-1498051224//
/work/sebastian/BT-20210625/1009928-light/run1009928-light.h5 tag-1498051232//
/work/sebastian/BT-20210625/1009928-light/run1009928-light.h5 tag-1498051234//
/work/sebastian/BT-20210625/1009928-light/run1009928-light.h5 tag-1498051238//
/work/sebastian/BT-20210625/1009928-light/run1009928-light.h5 tag-1498051242//
/work/sebastian/BT-20210625/1009928-light/run1009928-light.h5 tag-1498051244//
/work/sebastian/BT-20210625/1009928-light/run1009928-light.h5 tag-1498051246//
/work/sebastian/BT-20210625/1009928-light/run1009928-light.h5 tag-1498051248//
/work/sebastian/BT-20210625/1009928-light/run1009928-light.h5 tag-1498051250//
/work/sebastian/BT-20210625/1009928-light/run1009928-light.h5 tag-1498051260//
/work/sebastian/BT-20210625/1009928-light/run1009928-light.h5 tag-1498051264//
/work/sebastian/BT-20210625/1009928-light/run1009928-light.h5 tag-1498051270//
/work/sebastian/BT-20210625/1009928-light/run1009928-light.h5 tag-1498051272//
/work/sebastian/BT-20210625/1009928-light/run1009928-light.h5 tag-1498051274//
/work/sebastian/BT-20210625/1009928-light/run1009928-light.h5 tag-1498051276//
/work/sebastian/BT-20210625/1009928-light/run1009928-light.h5 tag-1498051282//
/work/sebastian/BT-20210625/1009928-light/run1009928-light.h5 tag-1498051294//
/work/sebastian/BT-20210625/1009928-light/run1009928-light.h5 tag-1498051296//
/work/sebastian/BT-20210625/1009928-light/run1009928-light.h5 tag-1498051300//
/work/sebastian/BT-20210625/1009928-light/run1009928-light.h5 tag-1498051304//
/work/sebastian/BT-20210625/1009928-light/run1009928-light.h5 tag-1498051306//
/work/sebastian/BT-20210625/1009928-light/run1009928-light.h5 tag-1498051308//
/work/sebastian/BT-20210625/1009928-light/run1009928-light.h5 tag-1498051312//
/work/sebastian/BT-20210625/1009928-light/run1009928-light.h5 tag-1498051316//
/work/sebastian/BT-20210625/1009928-light/run1009928-light.h5 tag-1498051318//
/work/sebastian/BT-20210625/1009928-light/run1009928-light.h5 tag-1498051322//
/work/sebastian/BT-20210625/1009928-light/run1009928-light.h5 tag-1498051326//
/work/sebastian/BT-20210625/1009928-light/run1009928-light.h5 tag-1498051330//
/work/sebastian/BT-20210625/1009928-light/run1009928-light.h5 tag-1498051332//
/work/sebastian/BT-20210625/1009928-light/run1009928-light.h5 tag-1498051336//
/work/sebastian/BT-20210625/1009928-light/run1009928-light.h5 tag-1498051338//
/work/sebastian/BT-20210625/1009928-light/run1009928-light.h5 tag-1498051344//
/work/sebastian/BT-20210625/1009928-light/run1009928-light.h5 tag-1498051350//
/work/sebastian/BT-20210625/1009928-light/run1009928-light.h5 tag-1498051352//
/work/sebastian/BT-20210625/1009928-light/run1009928-light.h5 tag-1498051358//
/work/sebastian/BT-20210625/1009928-light/run1009928-light.h5 tag-1498051362//
/work/sebastian/BT-20210625/1009928-light/run1009928-light.h5 tag-1498051364//
/work/sebastian/BT-20210625/1009928-light/run1009928-light.h5 tag-1498051366//
/work/sebastian/BT-20210625/1009928-light/run1009928-light.h5 tag-1498051372//
/work/sebastian/BT-20210625/1009928-light/run1009928-light.h5 tag-1498051378//
/work/sebastian/BT-20210625/1009928-light/run1009928-light.h5 tag-1498051384//
/work/sebastian/BT-20210625/1009928-light/run1009928-light.h5 tag-1498051390//
/work/sebastian/BT-20210625/1009928-light/run1009928-light.h5 tag-1498051392//
/work/sebastian/BT-20210625/1009928-light/run1009928-light.h5 tag-1498051394//
/work/sebastian/BT-20210625/1009928-light/run1009928-light.h5 tag-1498051400//
/work/sebastian/BT-20210625/1009928-light/run1009928-light.h5 tag-1498051406//
/work/sebastian/BT-20210625/1009928-light/run1009928-light.h5 tag-1498051408//
/work/sebastian/BT-20210625/1009928-light/run1009928-light.h5 tag-1498051410//
/work/sebastian/BT-20210625/1009928-light/run1009928-light.h5 tag-1498051416//
/work/sebastian/BT-20210625/1009928-light/run1009928-light.h5 tag-1498051420//
/work/sebastian/BT-20210625/1009928-light/run1009928-light.h5 tag-1498051428//
/work/sebastian/BT-20210625/1009928-light/run1009928-light.h5 tag-1498051430//
/work/sebastian/BT-20210625/1009928-light/run1009928-light.h5 tag-1498051432//
/work/sebastian/BT-20210625/1009928-light/run1009928-light.h5 tag-1498051434//
/work/sebastian/BT-20210625/1009928-light/run1009928-light.h5 tag-1498051442//
/work/sebastian/BT-20210625/1009928-light/run1009928-light.h5 tag-1498051444//
/work/sebastian/BT-20210625/1009928-light/run1009928-light.h5 tag-1498051448//
/work/sebastian/BT-20210625/1009928-light/run1009928-light.h5 tag-1498051454//
/work/sebastian/BT-20210625/1009928-light/run1009928-light.h5 tag-1498051456//
/work/sebastian/BT-20210625/1009928-light/run1009928-light.h5 tag-1498051462//
/work/sebastian/BT-20210625/1009928-light/run1009928-light.h5 tag-1498051464//
/work/sebastian/BT-20210625/1009928-light/run1009928-light.h5 tag-1498051468//
/work/sebastian/BT-20210625/1009928-light/run1009928-light.h5 tag-1498051472//
/work/sebastian/BT-20210625/1009928-light/run1009928-light.h5 tag-1498051490//
/work/sebastian/BT-20210625/1009928-light/run1009928-light.h5 tag-1498051492//
/work/sebastian/BT-20210625/1009928-light/run1009928-light.h5 tag-1498051502//
/work/sebastian/BT-20210625/1009928-light/run1009928-light.h5 tag-1498051504//
/work/sebastian/BT-20210625/1009928-light/run1009928-light.h5 tag-1498051508//
/work/sebastian/BT-20210625/1009928-light/run1009928-light.h5 tag-1498051512//
/work/sebastian/BT-20210625/1009928-light/run1009928-light.h5 tag-1498051514//
/work/sebastian/BT-20210625/1009928-light/run1009928-light.h5 tag-1498051520//
/work/sebastian/BT-20210625/1009928-light/run1009928-light.h5 tag-1498051522//
/work/sebastian/BT-20210625/1009928-light/run1009928-light.h5 tag-1498051534//
/work/sebastian/BT-20210625/1009928-light/run1009928-light.h5 tag-1498051540//
/work/sebastian/BT-20210625/1009928-light/run1009928-light.h5 tag-1498051542//
/work/sebastian/BT-20210625/1009928-light/run1009928-light.h5 tag-1498051544//
/work/sebastian/BT-20210625/1009928-light/run1009928-light.h5 tag-1498051546//
/work/sebastian/BT-20210625/1009928-light/run1009928-light.h5 tag-1498051548//
/work/sebastian/BT-20210625/1009928-light/run1009928-light.h5 tag-1498051552//
/work/sebastian/BT-20210625/1009928-light/run1009928-light.h5 tag-1498051564//
/work/sebastian/BT-20210625/1009928-light/run1009928-light.h5 tag-1498051568//
/work/sebastian/BT-20210625/1009928-light/run1009928-light.h5 tag-1498051572//
/work/sebastian/BT-20210625/1009928-light/run1009928-light.h5 tag-1498051578//
/work/sebastian/BT-20210625/1009928-light/run1009928-light.h5 tag-1498051586//
/work/sebastian/BT-20210625/1009928-light/run1009928-light.h5 tag-1498051592//
/work/sebastian/BT-20210625/1009928-light/run1009928-light.h5 tag-1498051594//
/work/sebastian/BT-20210625/1009928-light/run1009928-light.h5 tag-1498051608//
/work/sebastian/BT-20210625/1009928-light/run1009928-light.h5 tag-1498051610//
/work/sebastian/BT-20210625/1009928-light/run1009928-light.h5 tag-1498051616//
/work/sebastian/BT-20210625/1009928-light/run1009928-light.h5 tag-1498051618//
/work/sebastian/BT-20210625/1009928-light/run1009928-light.h5 tag-1498051620//
/work/sebastian/BT-20210625/1009928-light/run1009928-light.h5 tag-1498051624//
/work/sebastian/BT-20210625/1009928-light/run1009928-light.h5 tag-1498051626//
/work/sebastian/BT-20210625/1009928-light/run1009928-light.h5 tag-1498051628//
/work/sebastian/BT-20210625/1009928-light/run1009928-light.h5 tag-1498051636//
/work/sebastian/BT-20210625/1009928-light/run1009928-light.h5 tag-1498051638//
/work/sebastian/BT-20210625/1009928-light/run1009928-light.h5 tag-1498051640//
/work/sebastian/BT-20210625/1009928-light/run1009928-light.h5 tag-1498051642//
/work/sebastian/BT-20210625/1009928-light/run1009928-light.h5 tag-1498051648//
/work/sebastian/BT-20210625/1009928-light/run1009928-light.h5 tag-1498051652//
/work/sebastian/BT-20210625/1009928-light/run1009928-light.h5 tag-1498051658//
/work/sebastian/BT-20210625/1009928-light/run1009928-light.h5 tag-1498051662//
/work/sebastian/BT-20210625/1009928-light/run1009928-light.h5 tag-1498051670//
/work/sebastian/BT-20210625/1009928-light/run1009928-light.h5 tag-1498051674//
/work/sebastian/BT-20210625/1009928-light/run1009928-light.h5 tag-1498051678//
/work/sebastian/BT-20210625/1009928-light/run1009928-light.h5 tag-1498051680//
/work/sebastian/BT-20210625/1009928-light/run1009928-light.h5 tag-1498051682//
/work/sebastian/BT-20210625/1009928-light/run1009928-light.h5 tag-1498051684//
/work/sebastian/BT-20210625/1009928-light/run1009928-light.h5 tag-1498051688//
/work/sebastian/BT-20210625/1009928-light/run1009928-light.h5 tag-1498051692//
/work/sebastian/BT-20210625/1009928-light/run1009928-light.h5 tag-1498051696//
/work/sebastian/BT-20210625/1009928-light/run1009928-light.h5 tag-1498051700//
/work/sebastian/BT-20210625/1009928-light/run1009928-light.h5 tag-1498051708//
/work/sebastian/BT-20210625/1009928-light/run1009928-light.h5 tag-1498051710//
/work/sebastian/BT-20210625/1009928-light/run1009928-light.h5 tag-1498051712//
/work/sebastian/BT-20210625/1009928-light/run1009928-light.h5 tag-1498051714//
/work/sebastian/BT-20210625/1009928-light/run1009928-light.h5 tag-1498051716//
/work/sebastian/BT-20210625/1009928-light/run1009928-light.h5 tag-1498051718//
/work/sebastian/BT-20210625/1009928-light/run1009928-light.h5 tag-1498051720//
/work/sebastian/BT-20210625/1009928-light/run1009928-light.h5 tag-1498051724//
/work/sebastian/BT-20210625/1009928-light/run1009928-light.h5 tag-1498051726//
/work/sebastian/BT-20210625/1009928-light/run1009928-light.h5 tag-1498051734//
/work/sebastian/BT-20210625/1009928-light/run1009928-light.h5 tag-1498051736//
/work/sebastian/BT-20210625/1009928-light/run1009928-light.h5 tag-1498051740//
/work/sebastian/BT-20210625/1009928-light/run1009928-light.h5 tag-1498051748//
/work/sebastian/BT-20210625/1009928-light/run1009928-light.h5 tag-1498051750//
/work/sebastian/BT-20210625/1009928-light/run1009928-light.h5 tag-1498051756//
/work/sebastian/BT-20210625/1009928-light/run1009928-light.h5 tag-1498051762//
/work/sebastian/BT-20210625/1009928-light/run1009928-light.h5 tag-1498051764//
/work/sebastian/BT-20210625/1009928-light/run1009928-light.h5 tag-1498051768//
/work/sebastian/BT-20210625/1009928-light/run1009928-light.h5 tag-1498051788//
/work/sebastian/BT-20210625/1009928-light/run1009928-light.h5 tag-1498051792//
/work/sebastian/BT-20210625/1009928-light/run1009928-light.h5 tag-1498051798//
/work/sebastian/BT-20210625/1009928-light/run1009928-light.h5 tag-1498051800//
/work/sebastian/BT-20210625/1009928-light/run1009928-light.h5 tag-1498051802//
/work/sebastian/BT-20210625/1009928-light/run1009928-light.h5 tag-1498051808//
/work/sebastian/BT-20210625/1009928-light/run1009928-light.h5 tag-1498051810//
/work/sebastian/BT-20210625/1009928-light/run1009928-light.h5 tag-1498051812//
/work/sebastian/BT-20210625/1009928-light/run1009928-light.h5 tag-1498051814//
/work/sebastian/BT-20210625/1009928-light/run1009928-light.h5 tag-1498051816//
/work/sebastian/BT-20210625/1009928-light/run1009928-light.h5 tag-1498051818//
/work/sebastian/BT-20210625/1009928-light/run1009928-light.h5 tag-1498051820//
/work/sebastian/BT-20210625/1009928-light/run1009928-light.h5 tag-1498051824//
/work/sebastian/BT-20210625/1009928-light/run1009928-light.h5 tag-1498051830//
/work/sebastian/BT-20210625/1009928-light/run1009928-light.h5 tag-1498051832//
/work/sebastian/BT-20210625/1009928-light/run1009928-light.h5 tag-1498051834//
/work/sebastian/BT-20210625/1009928-light/run1009928-light.h5 tag-1498051840//
/work/sebastian/BT-20210625/1009928-light/run1009928-light.h5 tag-1498051842//
/work/sebastian/BT-20210625/1009928-light/run1009928-light.h5 tag-1498051846//
/work/sebastian/BT-20210625/1009928-light/run1009928-light.h5 tag-1498051858//
/work/sebastian/BT-20210625/1009928-light/run1009928-light.h5 tag-1498051864//
/work/sebastian/BT-20210625/1009928-light/run1009928-light.h5 tag-1498051866//
/work/sebastian/BT-20210625/1009928-light/run1009928-light.h5 tag-1498051868//
/work/sebastian/BT-20210625/1009928-light/run1009928-light.h5 tag-1498051872//
/work/sebastian/BT-20210625/1009928-light/run1009928-light.h5 tag-1498051874//
/work/sebastian/BT-20210625/1009928-light/run1009928-light.h5 tag-1498051878//
/work/sebastian/BT-20210625/1009928-light/run1009928-light.h5 tag-1498051880//
/work/sebastian/BT-20210625/1009928-light/run1009928-light.h5 tag-1498051884//
/work/sebastian/BT-20210625/1009928-light/run1009928-light.h5 tag-1498051886//
/work/sebastian/BT-20210625/1009928-light/run1009928-light.h5 tag-1498051888//
/work/sebastian/BT-20210625/1009928-light/run1009928-light.h5 tag-1498051892//
/work/sebastian/BT-20210625/1009928-light/run1009928-light.h5 tag-1498051894//
/work/sebastian/BT-20210625/1009928-light/run1009928-light.h5 tag-1498051902//
/work/sebastian/BT-20210625/1009928-light/run1009928-light.h5 tag-1498051910//
/work/sebastian/BT-20210625/1009928-light/run1009928-light.h5 tag-1498051920//
/work/sebastian/BT-20210625/1009928-light/run1009928-light.h5 tag-1498051922//
/work/sebastian/BT-20210625/1009928-light/run1009928-light.h5 tag-1498051926//
/work/sebastian/BT-20210625/1009928-light/run1009928-light.h5 tag-1498051930//
/work/sebastian/BT-20210625/1009928-light/run1009928-light.h5 tag-1498051938//
/work/sebastian/BT-20210625/1009928-light/run1009928-light.h5 tag-1498051940//
/work/sebastian/BT-20210625/1009928-light/run1009928-light.h5 tag-1498051946//
/work/sebastian/BT-20210625/1009928-light/run1009928-light.h5 tag-1498051950//
/work/sebastian/BT-20210625/1009928-light/run1009928-light.h5 tag-1498051958//
/work/sebastian/BT-20210625/1009928-light/run1009928-light.h5 tag-1498051968//
/work/sebastian/BT-20210625/1009928-light/run1009928-light.h5 tag-1498051970//
/work/sebastian/BT-20210625/1009928-light/run1009928-light.h5 tag-1498051974//
/work/sebastian/BT-20210625/1009928-light/run1009928-light.h5 tag-1498051976//
/work/sebastian/BT-20210625/1009928-light/run1009928-light.h5 tag-1498051978//
/work/sebastian/BT-20210625/1009928-light/run1009928-light.h5 tag-1498051980//
/work/sebastian/BT-20210625/1009928-light/run1009928-light.h5 tag-1498051984//
/work/sebastian/BT-20210625/1009928-light/run1009928-light.h5 tag-1498051992//
/work/sebastian/BT-20210625/1009928-light/run1009928-light.h5 tag-1498051998//
/work/sebastian/BT-20210625/1009928-light/run1009928-light.h5 tag-1498052000//
/work/sebastian/BT-20210625/1009928-light/run1009928-light.h5 tag-1498052002//
/work/sebastian/BT-20210625/1009928-light/run1009928-light.h5 tag-1498052006//
/work/sebastian/BT-20210625/1009928-light/run1009928-light.h5 tag-1498052014//
/work/sebastian/BT-20210625/1009928-light/run1009928-light.h5 tag-1498052020//
/work/sebastian/BT-20210625/1009928-light/run1009928-light.h5 tag-1498052022//
/work/sebastian/BT-20210625/1009928-light/run1009928-light.h5 tag-1498052030//
/work/sebastian/BT-20210625/1009928-light/run1009928-light.h5 tag-1498052032//
/work/sebastian/BT-20210625/1009928-light/run1009928-light.h5 tag-1498052036//
/work/sebastian/BT-20210625/1009928-light/run1009928-light.h5 tag-1498052044//
/work/sebastian/BT-20210625/1009928-light/run1009928-light.h5 tag-1498052060//
/work/sebastian/BT-20210625/1009928-light/run1009928-light.h5 tag-1498052062//
/work/sebastian/BT-20210625/1009928-light/run1009928-light.h5 tag-1498052064//
/work/sebastian/BT-20210625/1009928-light/run1009928-light.h5 tag-1498052066//
/work/sebastian/BT-20210625/1009928-light/run1009928-light.h5 tag-1498052070//
/work/sebastian/BT-20210625/1009928-light/run1009928-light.h5 tag-1498052076//
/work/sebastian/BT-20210625/1009928-light/run1009928-light.h5 tag-1498052082//
/work/sebastian/BT-20210625/1009928-light/run1009928-light.h5 tag-1498052084//
/work/sebastian/BT-20210625/1009928-light/run1009928-light.h5 tag-1498052088//
/work/sebastian/BT-20210625/1009928-light/run1009928-light.h5 tag-1498052106//
/work/sebastian/BT-20210625/1009928-light/run1009928-light.h5 tag-1498052112//
/work/sebastian/BT-20210625/1009928-light/run1009928-light.h5 tag-1498052118//
/work/sebastian/BT-20210625/1009928-light/run1009928-light.h5 tag-1498052124//
/work/sebastian/BT-20210625/1009928-light/run1009928-light.h5 tag-1498052126//
/work/sebastian/BT-20210625/1009928-light/run1009928-light.h5 tag-1498052128//
/work/sebastian/BT-20210625/1009928-light/run1009928-light.h5 tag-1498052132//
/work/sebastian/BT-20210625/1009928-light/run1009928-light.h5 tag-1498052136//
/work/sebastian/BT-20210625/1009928-light/run1009928-light.h5 tag-1498052138//
/work/sebastian/BT-20210625/1009928-light/run1009928-light.h5 tag-1498052140//
/work/sebastian/BT-20210625/1009928-light/run1009928-light.h5 tag-1498052142//
/work/sebastian/BT-20210625/1009928-light/run1009928-light.h5 tag-1498052144//
/work/sebastian/BT-20210625/1009928-light/run1009928-light.h5 tag-1498052154//
/work/sebastian/BT-20210625/1009928-light/run1009928-light.h5 tag-1498052160//
/work/sebastian/BT-20210625/1009928-light/run1009928-light.h5 tag-1498052164//
/work/sebastian/BT-20210625/1009928-light/run1009928-light.h5 tag-1498052166//
/work/sebastian/BT-20210625/1009928-light/run1009928-light.h5 tag-1498052168//
/work/sebastian/BT-20210625/1009928-light/run1009928-light.h5 tag-1498052170//
/work/sebastian/BT-20210625/1009928-light/run1009928-light.h5 tag-1498052178//
/work/sebastian/BT-20210625/1009928-light/run1009928-light.h5 tag-1498052180//
/work/sebastian/BT-20210625/1009928-light/run1009928-light.h5 tag-1498052184//
/work/sebastian/BT-20210625/1009928-light/run1009928-light.h5 tag-1498052186//
/work/sebastian/BT-20210625/1009928-light/run1009928-light.h5 tag-1498052188//
/work/sebastian/BT-20210625/1009928-light/run1009928-light.h5 tag-1498052190//
/work/sebastian/BT-20210625/1009928-light/run1009928-light.h5 tag-1498052192//
/work/sebastian/BT-20210625/1009928-light/run1009928-light.h5 tag-1498052196//
/work/sebastian/BT-20210625/1009928-light/run1009928-light.h5 tag-1498052208//
/work/sebastian/BT-20210625/1009928-light/run1009928-light.h5 tag-1498052212//
/work/sebastian/BT-20210625/1009928-light/run1009928-light.h5 tag-1498052214//
/work/sebastian/BT-20210625/1009928-light/run1009928-light.h5 tag-1498052216//
/work/sebastian/BT-20210625/1009928-light/run1009928-light.h5 tag-1498052220//
/work/sebastian/BT-20210625/1009928-light/run1009928-light.h5 tag-1498052228//
/work/sebastian/BT-20210625/1009928-light/run1009928-light.h5 tag-1498052230//
/work/sebastian/BT-20210625/1009928-light/run1009928-light.h5 tag-1498052232//
/work/sebastian/BT-20210625/1009928-light/run1009928-light.h5 tag-1498052236//
/work/sebastian/BT-20210625/1009928-light/run1009928-light.h5 tag-1498052238//
/work/sebastian/BT-20210625/1009928-light/run1009928-light.h5 tag-1498052240//
/work/sebastian/BT-20210625/1009928-light/run1009928-light.h5 tag-1498052246//
/work/sebastian/BT-20210625/1009928-light/run1009928-light.h5 tag-1498052254//
/work/sebastian/BT-20210625/1009928-light/run1009928-light.h5 tag-1498052256//
/work/sebastian/BT-20210625/1009928-light/run1009928-light.h5 tag-1498052258//
/work/sebastian/BT-20210625/1009928-light/run1009928-light.h5 tag-1498052264//
/work/sebastian/BT-20210625/1009928-light/run1009928-light.h5 tag-1498052268//
/work/sebastian/BT-20210625/1009928-light/run1009928-light.h5 tag-1498052274//
/work/sebastian/BT-20210625/1009928-light/run1009928-light.h5 tag-1498052276//
/work/sebastian/BT-20210625/1009928-light/run1009928-light.h5 tag-1498052278//
/work/sebastian/BT-20210625/1009928-light/run1009928-light.h5 tag-1498052280//
/work/sebastian/BT-20210625/1009928-light/run1009928-light.h5 tag-1498052284//
/work/sebastian/BT-20210625/1009928-light/run1009928-light.h5 tag-1498052288//
/work/sebastian/BT-20210625/1009928-light/run1009928-light.h5 tag-1498052298//
/work/sebastian/BT-20210625/1009928-light/run1009928-light.h5 tag-1498052300//
/work/sebastian/BT-20210625/1009928-light/run1009928-light.h5 tag-1498052304//
/work/sebastian/BT-20210625/1009928-light/run1009928-light.h5 tag-1498052308//
/work/sebastian/BT-20210625/1009928-light/run1009928-light.h5 tag-1498052318//
/work/sebastian/BT-20210625/1009928-light/run1009928-light.h5 tag-1498052324//
/work/sebastian/BT-20210625/1009928-light/run1009928-light.h5 tag-1498052328//
/work/sebastian/BT-20210625/1009928-light/run1009928-light.h5 tag-1498052334//
/work/sebastian/BT-20210625/1009928-light/run1009928-light.h5 tag-1498052336//
/work/sebastian/BT-20210625/1009928-light/run1009928-light.h5 tag-1498052338//
/work/sebastian/BT-20210625/1009928-light/run1009928-light.h5 tag-1498052346//
/work/sebastian/BT-20210625/1009928-light/run1009928-light.h5 tag-1498052350//
/work/sebastian/BT-20210625/1009928-light/run1009928-light.h5 tag-1498052352//
/work/sebastian/BT-20210625/1009928-light/run1009928-light.h5 tag-1498052358//
/work/sebastian/BT-20210625/1009928-light/run1009928-light.h5 tag-1498052366//
/work/sebastian/BT-20210625/1009928-light/run1009928-light.h5 tag-1498052368//
/work/sebastian/BT-20210625/1009928-light/run1009928-light.h5 tag-1498052372//
/work/sebastian/BT-20210625/1009928-light/run1009928-light.h5 tag-1498052376//
/work/sebastian/BT-20210625/1009928-light/run1009928-light.h5 tag-1498052380//
/work/sebastian/BT-20210625/1009928-light/run1009928-light.h5 tag-1498052388//
/work/sebastian/BT-20210625/1009928-light/run1009928-light.h5 tag-1498052394//
/work/sebastian/BT-20210625/1009928-light/run1009928-light.h5 tag-1498052396//
/work/sebastian/BT-20210625/1009928-light/run1009928-light.h5 tag-1498052406//
/work/sebastian/BT-20210625/1009928-light/run1009928-light.h5 tag-1498052416//
/work/sebastian/BT-20210625/1009928-light/run1009928-light.h5 tag-1498052418//
/work/sebastian/BT-20210625/1009928-light/run1009928-light.h5 tag-1498052428//
/work/sebastian/BT-20210625/1009928-light/run1009928-light.h5 tag-1498052430//
/work/sebastian/BT-20210625/1009928-light/run1009928-light.h5 tag-1498052438//
/work/sebastian/BT-20210625/1009928-light/run1009928-light.h5 tag-1498052442//
/work/sebastian/BT-20210625/1009928-light/run1009928-light.h5 tag-1498052444//
/work/sebastian/BT-20210625/1009928-light/run1009928-light.h5 tag-1498052446//
/work/sebastian/BT-20210625/1009928-light/run1009928-light.h5 tag-1498052450//
/work/sebastian/BT-20210625/1009928-light/run1009928-light.h5 tag-1498052452//
/work/sebastian/BT-20210625/1009928-light/run1009928-light.h5 tag-1498052458//
/work/sebastian/BT-20210625/1009928-light/run1009928-light.h5 tag-1498052460//
/work/sebastian/BT-20210625/1009928-light/run1009928-light.h5 tag-1498052464//
/work/sebastian/BT-20210625/1009928-light/run1009928-light.h5 tag-1498052470//
/work/sebastian/BT-20210625/1009928-light/run1009928-light.h5 tag-1498052476//
/work/sebastian/BT-20210625/1009928-light/run1009928-light.h5 tag-1498052480//
/work/sebastian/BT-20210625/1009928-light/run1009928-light.h5 tag-1498052482//
/work/sebastian/BT-20210625/1009928-light/run1009928-light.h5 tag-1498052486//
/work/sebastian/BT-20210625/1009928-light/run1009928-light.h5 tag-1498052488//
/work/sebastian/BT-20210625/1009928-light/run1009928-light.h5 tag-1498052500//
/work/sebastian/BT-20210625/1009928-light/run1009928-light.h5 tag-1498052506//
/work/sebastian/BT-20210625/1009928-light/run1009928-light.h5 tag-1498052508//
/work/sebastian/BT-20210625/1009928-light/run1009928-light.h5 tag-1498052512//
/work/sebastian/BT-20210625/1009928-light/run1009928-light.h5 tag-1498052516//
/work/sebastian/BT-20210625/1009928-light/run1009928-light.h5 tag-1498052520//
/work/sebastian/BT-20210625/1009928-light/run1009928-light.h5 tag-1498052534//
/work/sebastian/BT-20210625/1009928-light/run1009928-light.h5 tag-1498052538//
/work/sebastian/BT-20210625/1009928-light/run1009928-light.h5 tag-1498052544//
/work/sebastian/BT-20210625/1009928-light/run1009928-light.h5 tag-1498052546//
/work/sebastian/BT-20210625/1009928-light/run1009928-light.h5 tag-1498052548//
/work/sebastian/BT-20210625/1009928-light/run1009928-light.h5 tag-1498052554//
/work/sebastian/BT-20210625/1009928-light/run1009928-light.h5 tag-1498052558//
/work/sebastian/BT-20210625/1009928-light/run1009928-light.h5 tag-1498052564//
/work/sebastian/BT-20210625/1009928-light/run1009928-light.h5 tag-1498052568//
/work/sebastian/BT-20210625/1009928-light/run1009928-light.h5 tag-1498052570//
/work/sebastian/BT-20210625/1009928-light/run1009928-light.h5 tag-1498052574//
/work/sebastian/BT-20210625/1009928-light/run1009928-light.h5 tag-1498052580//
/work/sebastian/BT-20210625/1009928-light/run1009928-light.h5 tag-1498052582//
/work/sebastian/BT-20210625/1009928-light/run1009928-light.h5 tag-1498052584//
/work/sebastian/BT-20210625/1009928-light/run1009928-light.h5 tag-1498052594//
/work/sebastian/BT-20210625/1009928-light/run1009928-light.h5 tag-1498052596//
/work/sebastian/BT-20210625/1009928-light/run1009928-light.h5 tag-1498052598//
/work/sebastian/BT-20210625/1009928-light/run1009928-light.h5 tag-1498052602//
/work/sebastian/BT-20210625/1009928-light/run1009928-light.h5 tag-1498052604//
/work/sebastian/BT-20210625/1009928-light/run1009928-light.h5 tag-1498052610//
/work/sebastian/BT-20210625/1009928-light/run1009928-light.h5 tag-1498052612//
/work/sebastian/BT-20210625/1009928-light/run1009928-light.h5 tag-1498052614//
/work/sebastian/BT-20210625/1009928-light/run1009928-light.h5 tag-1498052616//
/work/sebastian/BT-20210625/1009928-light/run1009928-light.h5 tag-1498052626//
/work/sebastian/BT-20210625/1009928-light/run1009928-light.h5 tag-1498052644//
/work/sebastian/BT-20210625/1009928-light/run1009928-light.h5 tag-1498052652//
/work/sebastian/BT-20210625/1009928-light/run1009928-light.h5 tag-1498052654//
/work/sebastian/BT-20210625/1009928-light/run1009928-light.h5 tag-1498052658//
/work/sebastian/BT-20210625/1009928-light/run1009928-light.h5 tag-1498052666//
/work/sebastian/BT-20210625/1009928-light/run1009928-light.h5 tag-1498052668//
/work/sebastian/BT-20210625/1009928-light/run1009928-light.h5 tag-1498052670//
/work/sebastian/BT-20210625/1009928-light/run1009928-light.h5 tag-1498052680//
/work/sebastian/BT-20210625/1009928-light/run1009928-light.h5 tag-1498052690//
/work/sebastian/BT-20210625/1009928-light/run1009928-light.h5 tag-1498052692//
/work/sebastian/BT-20210625/1009928-light/run1009928-light.h5 tag-1498052702//
/work/sebastian/BT-20210625/1009928-light/run1009928-light.h5 tag-1498052704//
/work/sebastian/BT-20210625/1009928-light/run1009928-light.h5 tag-1498052708//
/work/sebastian/BT-20210625/1009928-light/run1009928-light.h5 tag-1498052714//
/work/sebastian/BT-20210625/1009928-light/run1009928-light.h5 tag-1498052716//
/work/sebastian/BT-20210625/1009928-light/run1009928-light.h5 tag-1498052720//
/work/sebastian/BT-20210625/1009928-light/run1009928-light.h5 tag-1498052724//
/work/sebastian/BT-20210625/1009928-light/run1009928-light.h5 tag-1498052726//
/work/sebastian/BT-20210625/1009928-light/run1009928-light.h5 tag-1498052734//
/work/sebastian/BT-20210625/1009928-light/run1009928-light.h5 tag-1498052736//
/work/sebastian/BT-20210625/1009928-light/run1009928-light.h5 tag-1498052742//
/work/sebastian/BT-20210625/1009928-light/run1009928-light.h5 tag-1498052744//
/work/sebastian/BT-20210625/1009928-light/run1009928-light.h5 tag-1498052746//
/work/sebastian/BT-20210625/1009928-light/run1009928-light.h5 tag-1498052748//
/work/sebastian/BT-20210625/1009928-light/run1009928-light.h5 tag-1498052756//
/work/sebastian/BT-20210625/1009928-light/run1009928-light.h5 tag-1498052760//
/work/sebastian/BT-20210625/1009928-light/run1009928-light.h5 tag-1498052762//
/work/sebastian/BT-20210625/1009928-light/run1009928-light.h5 tag-1498052764//
/work/sebastian/BT-20210625/1009928-light/run1009928-light.h5 tag-1498052782//
/work/sebastian/BT-20210625/1009928-light/run1009928-light.h5 tag-1498052784//
/work/sebastian/BT-20210625/1009928-light/run1009928-light.h5 tag-1498052786//
/work/sebastian/BT-20210625/1009928-light/run1009928-light.h5 tag-1498052790//
/work/sebastian/BT-20210625/1009928-light/run1009928-light.h5 tag-1498052800//
/work/sebastian/BT-20210625/1009928-light/run1009928-light.h5 tag-1498052802//
/work/sebastian/BT-20210625/1009928-light/run1009928-light.h5 tag-1498052804//
/work/sebastian/BT-20210625/1009928-light/run1009928-light.h5 tag-1498052808//
/work/sebastian/BT-20210625/1009928-light/run1009928-light.h5 tag-1498052810//
/work/sebastian/BT-20210625/1009928-light/run1009928-light.h5 tag-1498052812//
/work/sebastian/BT-20210625/1009928-light/run1009928-light.h5 tag-1498052814//
/work/sebastian/BT-20210625/1009928-light/run1009928-light.h5 tag-1498052816//
/work/sebastian/BT-20210625/1009928-light/run1009928-light.h5 tag-1498052820//
/work/sebastian/BT-20210625/1009928-light/run1009928-light.h5 tag-1498052822//
/work/sebastian/BT-20210625/1009928-light/run1009928-light.h5 tag-1498052826//
/work/sebastian/BT-20210625/1009928-light/run1009928-light.h5 tag-1498052834//
/work/sebastian/BT-20210625/1009928-light/run1009928-light.h5 tag-1498052838//
/work/sebastian/BT-20210625/1009928-light/run1009928-light.h5 tag-1498052840//
/work/sebastian/BT-20210625/1009928-light/run1009928-light.h5 tag-1498052844//
/work/sebastian/BT-20210625/1009928-light/run1009928-light.h5 tag-1498052846//
/work/sebastian/BT-20210625/1009928-light/run1009928-light.h5 tag-1498052848//
/work/sebastian/BT-20210625/1009928-light/run1009928-light.h5 tag-1498052850//
/work/sebastian/BT-20210625/1009928-light/run1009928-light.h5 tag-1498052854//
/work/sebastian/BT-20210625/1009928-light/run1009928-light.h5 tag-1498052860//
/work/sebastian/BT-20210625/1009928-light/run1009928-light.h5 tag-1498052866//
/work/sebastian/BT-20210625/1009928-light/run1009928-light.h5 tag-1498052868//
/work/sebastian/BT-20210625/1009928-light/run1009928-light.h5 tag-1498052870//
/work/sebastian/BT-20210625/1009928-light/run1009928-light.h5 tag-1498052872//
/work/sebastian/BT-20210625/1009928-light/run1009928-light.h5 tag-1498052874//
/work/sebastian/BT-20210625/1009928-light/run1009928-light.h5 tag-1498052882//
/work/sebastian/BT-20210625/1009928-light/run1009928-light.h5 tag-1498052884//
/work/sebastian/BT-20210625/1009928-light/run1009928-light.h5 tag-1498052886//
/work/sebastian/BT-20210625/1009928-light/run1009928-light.h5 tag-1498052890//
/work/sebastian/BT-20210625/1009928-light/run1009928-light.h5 tag-1498052896//
/work/sebastian/BT-20210625/1009928-light/run1009928-light.h5 tag-1498052898//
/work/sebastian/BT-20210625/1009928-light/run1009928-light.h5 tag-1498052902//
/work/sebastian/BT-20210625/1009928-light/run1009928-light.h5 tag-1498052916//
/work/sebastian/BT-20210625/1009928-light/run1009928-light.h5 tag-1498052918//
/work/sebastian/BT-20210625/1009928-light/run1009928-light.h5 tag-1498052920//
/work/sebastian/BT-20210625/1009928-light/run1009928-light.h5 tag-1498052922//
/work/sebastian/BT-20210625/1009928-light/run1009928-light.h5 tag-1498052932//
/work/sebastian/BT-20210625/1009928-light/run1009928-light.h5 tag-1498052934//
/work/sebastian/BT-20210625/1009928-light/run1009928-light.h5 tag-1498052946//
/work/sebastian/BT-20210625/1009928-light/run1009928-light.h5 tag-1498052952//
/work/sebastian/BT-20210625/1009928-light/run1009928-light.h5 tag-1498052954//
/work/sebastian/BT-20210625/1009928-light/run1009928-light.h5 tag-1498052956//
/work/sebastian/BT-20210625/1009928-light/run1009928-light.h5 tag-1498052958//
/work/sebastian/BT-20210625/1009928-light/run1009928-light.h5 tag-1498052972//
/work/sebastian/BT-20210625/1009928-light/run1009928-light.h5 tag-1498052976//
/work/sebastian/BT-20210625/1009928-light/run1009928-light.h5 tag-1498052978//
/work/sebastian/BT-20210625/1009928-light/run1009928-light.h5 tag-1498052982//
/work/sebastian/BT-20210625/1009928-light/run1009928-light.h5 tag-1498052988//
/work/sebastian/BT-20210625/1009928-light/run1009928-light.h5 tag-1498052994//
/work/sebastian/BT-20210625/1009928-light/run1009928-light.h5 tag-1498052996//
/work/sebastian/BT-20210625/1009928-light/run1009928-light.h5 tag-1498053000//
/work/sebastian/BT-20210625/1009928-light/run1009928-light.h5 tag-1498053002//
/work/sebastian/BT-20210625/1009928-light/run1009928-light.h5 tag-1498053004//
/work/sebastian/BT-20210625/1009928-light/run1009928-light.h5 tag-1498053006//
/work/sebastian/BT-20210625/1009928-light/run1009928-light.h5 tag-1498053008//
/work/sebastian/BT-20210625/1009928-light/run1009928-light.h5 tag-1498053012//
/work/sebastian/BT-20210625/1009928-light/run1009928-light.h5 tag-1498053020//
/work/sebastian/BT-20210625/1009928-light/run1009928-light.h5 tag-1498053022//
/work/sebastian/BT-20210625/1009928-light/run1009928-light.h5 tag-1498053032//
/work/sebastian/BT-20210625/1009928-light/run1009928-light.h5 tag-1498053038//
/work/sebastian/BT-20210625/1009928-light/run1009928-light.h5 tag-1498053040//
/work/sebastian/BT-20210625/1009928-light/run1009928-light.h5 tag-1498053046//
/work/sebastian/BT-20210625/1009928-light/run1009928-light.h5 tag-1498053048//
/work/sebastian/BT-20210625/1009928-light/run1009928-light.h5 tag-1498053052//
/work/sebastian/BT-20210625/1009928-light/run1009928-light.h5 tag-1498053054//
/work/sebastian/BT-20210625/1009928-light/run1009928-light.h5 tag-1498053056//
/work/sebastian/BT-20210625/1009928-light/run1009928-light.h5 tag-1498053058//
/work/sebastian/BT-20210625/1009928-light/run1009928-light.h5 tag-1498053060//
/work/sebastian/BT-20210625/1009928-light/run1009928-light.h5 tag-1498053072//
/work/sebastian/BT-20210625/1009928-light/run1009928-light.h5 tag-1498053078//
/work/sebastian/BT-20210625/1009928-light/run1009928-light.h5 tag-1498053084//
/work/sebastian/BT-20210625/1009928-light/run1009928-light.h5 tag-1498053092//
/work/sebastian/BT-20210625/1009928-light/run1009928-light.h5 tag-1498053094//
/work/sebastian/BT-20210625/1009928-light/run1009928-light.h5 tag-1498053098//
/work/sebastian/BT-20210625/1009928-light/run1009928-light.h5 tag-1498053100//
/work/sebastian/BT-20210625/1009928-light/run1009928-light.h5 tag-1498053106//
/work/sebastian/BT-20210625/1009928-light/run1009928-light.h5 tag-1498053110//
/work/sebastian/BT-20210625/1009928-light/run1009928-light.h5 tag-1498053116//
/work/sebastian/BT-20210625/1009928-light/run1009928-light.h5 tag-1498053118//
/work/sebastian/BT-20210625/1009928-light/run1009928-light.h5 tag-1498053120//
/work/sebastian/BT-20210625/1009928-light/run1009928-light.h5 tag-1498053122//
/work/sebastian/BT-20210625/1009928-light/run1009928-light.h5 tag-1498053124//
/work/sebastian/BT-20210625/1009928-light/run1009928-light.h5 tag-1498053130//
/work/sebastian/BT-20210625/1009928-light/run1009928-light.h5 tag-1498053132//
/work/sebastian/BT-20210625/1009928-light/run1009928-light.h5 tag-1498053134//
/work/sebastian/BT-20210625/1009928-light/run1009928-light.h5 tag-1498053140//
/work/sebastian/BT-20210625/1009928-light/run1009928-light.h5 tag-1498053148//
/work/sebastian/BT-20210625/1009928-light/run1009928-light.h5 tag-1498053150//
/work/sebastian/BT-20210625/1009928-light/run1009928-light.h5 tag-1498053152//
/work/sebastian/BT-20210625/1009928-light/run1009928-light.h5 tag-1498053158//
/work/sebastian/BT-20210625/1009928-light/run1009928-light.h5 tag-1498053160//
/work/sebastian/BT-20210625/1009928-light/run1009928-light.h5 tag-1498053170//
/work/sebastian/BT-20210625/1009928-light/run1009928-light.h5 tag-1498053174//
/work/sebastian/BT-20210625/1009928-light/run1009928-light.h5 tag-1498053178//
/work/sebastian/BT-20210625/1009928-light/run1009928-light.h5 tag-1498053184//
/work/sebastian/BT-20210625/1009928-light/run1009928-light.h5 tag-1498053188//
/work/sebastian/BT-20210625/1009928-light/run1009928-light.h5 tag-1498053192//
/work/sebastian/BT-20210625/1009928-light/run1009928-light.h5 tag-1498053202//
/work/sebastian/BT-20210625/1009928-light/run1009928-light.h5 tag-1498053204//
/work/sebastian/BT-20210625/1009928-light/run1009928-light.h5 tag-1498053208//
/work/sebastian/BT-20210625/1009928-light/run1009928-light.h5 tag-1498053210//
/work/sebastian/BT-20210625/1009928-light/run1009928-light.h5 tag-1498053214//
/work/sebastian/BT-20210625/1009928-light/run1009928-light.h5 tag-1498053224//
/work/sebastian/BT-20210625/1009928-light/run1009928-light.h5 tag-1498053226//
/work/sebastian/BT-20210625/1009928-light/run1009928-light.h5 tag-1498053228//
/work/sebastian/BT-20210625/1009928-light/run1009928-light.h5 tag-1498053230//
/work/sebastian/BT-20210625/1009928-light/run1009928-light.h5 tag-1498053236//
/work/sebastian/BT-20210625/1009928-light/run1009928-light.h5 tag-1498053238//
/work/sebastian/BT-20210625/1009928-light/run1009928-light.h5 tag-1498053240//
/work/sebastian/BT-20210625/1009928-light/run1009928-light.h5 tag-1498053242//
/work/sebastian/BT-20210625/1009928-light/run1009928-light.h5 tag-1498053244//
/work/sebastian/BT-20210625/1009928-light/run1009928-light.h5 tag-1498053260//
/work/sebastian/BT-20210625/1009928-light/run1009928-light.h5 tag-1498053264//
/work/sebastian/BT-20210625/1009928-light/run1009928-light.h5 tag-1498053270//
/work/sebastian/BT-20210625/1009928-light/run1009928-light.h5 tag-1498053274//
/work/sebastian/BT-20210625/1009928-light/run1009928-light.h5 tag-1498053278//
/work/sebastian/BT-20210625/1009928-light/run1009928-light.h5 tag-1498053280//
/work/sebastian/BT-20210625/1009928-light/run1009928-light.h5 tag-1498053282//
/work/sebastian/BT-20210625/1009928-light/run1009928-light.h5 tag-1498053288//
/work/sebastian/BT-20210625/1009928-light/run1009928-light.h5 tag-1498053290//
/work/sebastian/BT-20210625/1009928-light/run1009928-light.h5 tag-1498053296//
/work/sebastian/BT-20210625/1009928-light/run1009928-light.h5 tag-1498053304//
/work/sebastian/BT-20210625/1009928-light/run1009928-light.h5 tag-1498053308//
/work/sebastian/BT-20210625/1009928-light/run1009928-light.h5 tag-1498053316//
/work/sebastian/BT-20210625/1009928-light/run1009928-light.h5 tag-1498053320//
/work/sebastian/BT-20210625/1009928-light/run1009928-light.h5 tag-1498053338//
/work/sebastian/BT-20210625/1009928-light/run1009928-light.h5 tag-1498053342//
/work/sebastian/BT-20210625/1009928-light/run1009928-light.h5 tag-1498053346//
/work/sebastian/BT-20210625/1009928-light/run1009928-light.h5 tag-1498053352//
/work/sebastian/BT-20210625/1009928-light/run1009928-light.h5 tag-1498053360//
/work/sebastian/BT-20210625/1009928-light/run1009928-light.h5 tag-1498053362//
/work/sebastian/BT-20210625/1009928-light/run1009928-light.h5 tag-1498053364//
/work/sebastian/BT-20210625/1009928-light/run1009928-light.h5 tag-1498053366//
/work/sebastian/BT-20210625/1009928-light/run1009928-light.h5 tag-1498053374//
/work/sebastian/BT-20210625/1009928-light/run1009928-light.h5 tag-1498053376//
/work/sebastian/BT-20210625/1009928-light/run1009928-light.h5 tag-1498053378//
/work/sebastian/BT-20210625/1009928-light/run1009928-light.h5 tag-1498053380//
/work/sebastian/BT-20210625/1009928-light/run1009928-light.h5 tag-1498053382//
/work/sebastian/BT-20210625/1009928-light/run1009928-light.h5 tag-1498053384//
/work/sebastian/BT-20210625/1009928-light/run1009928-light.h5 tag-1498053388//
/work/sebastian/BT-20210625/1009928-light/run1009928-light.h5 tag-1498053396//
/work/sebastian/BT-20210625/1009928-light/run1009928-light.h5 tag-1498053398//
/work/sebastian/BT-20210625/1009928-light/run1009928-light.h5 tag-1498053400//
/work/sebastian/BT-20210625/1009928-light/run1009928-light.h5 tag-1498053402//
/work/sebastian/BT-20210625/1009928-light/run1009928-light.h5 tag-1498053404//
/work/sebastian/BT-20210625/1009928-light/run1009928-light.h5 tag-1498053408//
/work/sebastian/BT-20210625/1009928-light/run1009928-light.h5 tag-1498053410//
/work/sebastian/BT-20210625/1009928-light/run1009928-light.h5 tag-1498053414//
/work/sebastian/BT-20210625/1009928-light/run1009928-light.h5 tag-1498053416//
/work/sebastian/BT-20210625/1009928-light/run1009928-light.h5 tag-1498053422//
/work/sebastian/BT-20210625/1009928-light/run1009928-light.h5 tag-1498053426//
/work/sebastian/BT-20210625/1009928-light/run1009928-light.h5 tag-1498053430//
/work/sebastian/BT-20210625/1009928-light/run1009928-light.h5 tag-1498053434//
/work/sebastian/BT-20210625/1009928-light/run1009928-light.h5 tag-1498053436//
/work/sebastian/BT-20210625/1009928-light/run1009928-light.h5 tag-1498053438//
/work/sebastian/BT-20210625/1009928-light/run1009928-light.h5 tag-1498053448//
/work/sebastian/BT-20210625/1009928-light/run1009928-light.h5 tag-1498053452//
/work/sebastian/BT-20210625/1009928-light/run1009928-light.h5 tag-1498053454//
/work/sebastian/BT-20210625/1009928-light/run1009928-light.h5 tag-1498053456//
/work/sebastian/BT-20210625/1009928-light/run1009928-light.h5 tag-1498053460//
/work/sebastian/BT-20210625/1009928-light/run1009928-light.h5 tag-1498053462//
/work/sebastian/BT-20210625/1009928-light/run1009928-light.h5 tag-1498053466//
/work/sebastian/BT-20210625/1009928-light/run1009928-light.h5 tag-1498053470//
/work/sebastian/BT-20210625/1009928-light/run1009928-light.h5 tag-1498053476//
/work/sebastian/BT-20210625/1009928-light/run1009928-light.h5 tag-1498053478//
/work/sebastian/BT-20210625/1009928-light/run1009928-light.h5 tag-1498053480//
/work/sebastian/BT-20210625/1009928-light/run1009928-light.h5 tag-1498053486//
/work/sebastian/BT-20210625/1009928-light/run1009928-light.h5 tag-1498053488//
/work/sebastian/BT-20210625/1009928-light/run1009928-light.h5 tag-1498053492//
/work/sebastian/BT-20210625/1009928-light/run1009928-light.h5 tag-1498053496//
/work/sebastian/BT-20210625/1009928-light/run1009928-light.h5 tag-1498053498//
/work/sebastian/BT-20210625/1009928-light/run1009928-light.h5 tag-1498053512//
/work/sebastian/BT-20210625/1009928-light/run1009928-light.h5 tag-1498053516//
/work/sebastian/BT-20210625/1009928-light/run1009928-light.h5 tag-1498053518//
/work/sebastian/BT-20210625/1009928-light/run1009928-light.h5 tag-1498053520//
/work/sebastian/BT-20210625/1009928-light/run1009928-light.h5 tag-1498053522//
/work/sebastian/BT-20210625/1009928-light/run1009928-light.h5 tag-1498053530//
/work/sebastian/BT-20210625/1009928-light/run1009928-light.h5 tag-1498053532//
/work/sebastian/BT-20210625/1009928-light/run1009928-light.h5 tag-1498053534//
/work/sebastian/BT-20210625/1009928-light/run1009928-light.h5 tag-1498053546//
/work/sebastian/BT-20210625/1009928-light/run1009928-light.h5 tag-1498053548//
/work/sebastian/BT-20210625/1009928-light/run1009928-light.h5 tag-1498053550//
/work/sebastian/BT-20210625/1009928-light/run1009928-light.h5 tag-1498053552//
/work/sebastian/BT-20210625/1009928-light/run1009928-light.h5 tag-1498053556//
/work/sebastian/BT-20210625/1009928-light/run1009928-light.h5 tag-1498053558//
/work/sebastian/BT-20210625/1009928-light/run1009928-light.h5 tag-1498053560//
/work/sebastian/BT-20210625/1009928-light/run1009928-light.h5 tag-1498053562//
/work/sebastian/BT-20210625/1009928-light/run1009928-light.h5 tag-1498053566//
/work/sebastian/BT-20210625/1009928-light/run1009928-light.h5 tag-1498053568//
/work/sebastian/BT-20210625/1009928-light/run1009928-light.h5 tag-1498053570//
/work/sebastian/BT-20210625/1009928-light/run1009928-light.h5 tag-1498053572//
/work/sebastian/BT-20210625/1009928-light/run1009928-light.h5 tag-1498053578//
/work/sebastian/BT-20210625/1009928-light/run1009928-light.h5 tag-1498053584//
/work/sebastian/BT-20210625/1009928-light/run1009928-light.h5 tag-1498053586//
/work/sebastian/BT-20210625/1009928-light/run1009928-light.h5 tag-1498053598//
/work/sebastian/BT-20210625/1009928-light/run1009928-light.h5 tag-1498053602//
/work/sebastian/BT-20210625/1009928-light/run1009928-light.h5 tag-1498053604//
/work/sebastian/BT-20210625/1009928-light/run1009928-light.h5 tag-1498053606//
/work/sebastian/BT-20210625/1009928-light/run1009928-light.h5 tag-1498053610//
/work/sebastian/BT-20210625/1009928-light/run1009928-light.h5 tag-1498053616//
/work/sebastian/BT-20210625/1009928-light/run1009928-light.h5 tag-1498053618//
/work/sebastian/BT-20210625/1009928-light/run1009928-light.h5 tag-1498053622//
/work/sebastian/BT-20210625/1009928-light/run1009928-light.h5 tag-1498053624//
/work/sebastian/BT-20210625/1009928-light/run1009928-light.h5 tag-1498053632//
/work/sebastian/BT-20210625/1009928-light/run1009928-light.h5 tag-1498053634//
/work/sebastian/BT-20210625/1009928-light/run1009928-light.h5 tag-1498053636//
/work/sebastian/BT-20210625/1009928-light/run1009928-light.h5 tag-1498053640//
/work/sebastian/BT-20210625/1009928-light/run1009928-light.h5 tag-1498053644//
/work/sebastian/BT-20210625/1009928-light/run1009928-light.h5 tag-1498053650//
/work/sebastian/BT-20210625/1009928-light/run1009928-light.h5 tag-1498053656//
/work/sebastian/BT-20210625/1009928-light/run1009928-light.h5 tag-1498053658//
/work/sebastian/BT-20210625/1009928-light/run1009928-light.h5 tag-1498053664//
/work/sebastian/BT-20210625/1009928-light/run1009928-light.h5 tag-1498053668//
/work/sebastian/BT-20210625/1009928-light/run1009928-light.h5 tag-1498053676//
/work/sebastian/BT-20210625/1009928-light/run1009928-light.h5 tag-1498053678//
/work/sebastian/BT-20210625/1009928-light/run1009928-light.h5 tag-1498053680//
/work/sebastian/BT-20210625/1009928-light/run1009928-light.h5 tag-1498053684//
/work/sebastian/BT-20210625/1009928-light/run1009928-light.h5 tag-1498053686//
/work/sebastian/BT-20210625/1009928-light/run1009928-light.h5 tag-1498053696//
/work/sebastian/BT-20210625/1009928-light/run1009928-light.h5 tag-1498053698//
/work/sebastian/BT-20210625/1009928-light/run1009928-light.h5 tag-1498053700//
/work/sebastian/BT-20210625/1009928-light/run1009928-light.h5 tag-1498053702//
/work/sebastian/BT-20210625/1009928-light/run1009928-light.h5 tag-1498053706//
/work/sebastian/BT-20210625/1009928-light/run1009928-light.h5 tag-1498053708//
/work/sebastian/BT-20210625/1009928-light/run1009928-light.h5 tag-1498053712//
/work/sebastian/BT-20210625/1009928-light/run1009928-light.h5 tag-1498053714//
/work/sebastian/BT-20210625/1009928-light/run1009928-light.h5 tag-1498053718//
/work/sebastian/BT-20210625/1009928-light/run1009928-light.h5 tag-1498053720//
/work/sebastian/BT-20210625/1009928-light/run1009928-light.h5 tag-1498053724//
/work/sebastian/BT-20210625/1009928-light/run1009928-light.h5 tag-1498053726//
/work/sebastian/BT-20210625/1009928-light/run1009928-light.h5 tag-1498053738//
/work/sebastian/BT-20210625/1009928-light/run1009928-light.h5 tag-1498053740//
/work/sebastian/BT-20210625/1009928-light/run1009928-light.h5 tag-1498053744//
/work/sebastian/BT-20210625/1009928-light/run1009928-light.h5 tag-1498053746//
/work/sebastian/BT-20210625/1009928-light/run1009928-light.h5 tag-1498053750//
/work/sebastian/BT-20210625/1009928-light/run1009928-light.h5 tag-1498053752//
/work/sebastian/BT-20210625/1009928-light/run1009928-light.h5 tag-1498053760//
/work/sebastian/BT-20210625/1009928-light/run1009928-light.h5 tag-1498053762//
/work/sebastian/BT-20210625/1009928-light/run1009928-light.h5 tag-1498053766//
/work/sebastian/BT-20210625/1009928-light/run1009928-light.h5 tag-1498053768//
/work/sebastian/BT-20210625/1009928-light/run1009928-light.h5 tag-1498053774//
/work/sebastian/BT-20210625/1009928-light/run1009928-light.h5 tag-1498053778//
/work/sebastian/BT-20210625/1009928-light/run1009928-light.h5 tag-1498053780//
/work/sebastian/BT-20210625/1009928-light/run1009928-light.h5 tag-1498053782//
/work/sebastian/BT-20210625/1009928-light/run1009928-light.h5 tag-1498053788//
/work/sebastian/BT-20210625/1009928-light/run1009928-light.h5 tag-1498053792//
/work/sebastian/BT-20210625/1009928-light/run1009928-light.h5 tag-1498053798//
/work/sebastian/BT-20210625/1009928-light/run1009928-light.h5 tag-1498053804//
/work/sebastian/BT-20210625/1009928-light/run1009928-light.h5 tag-1498053808//
/work/sebastian/BT-20210625/1009928-light/run1009928-light.h5 tag-1498053834//
/work/sebastian/BT-20210625/1009928-light/run1009928-light.h5 tag-1498053836//
/work/sebastian/BT-20210625/1009928-light/run1009928-light.h5 tag-1498053838//
/work/sebastian/BT-20210625/1009928-light/run1009928-light.h5 tag-1498053840//
/work/sebastian/BT-20210625/1009928-light/run1009928-light.h5 tag-1498053842//
/work/sebastian/BT-20210625/1009928-light/run1009928-light.h5 tag-1498053846//
/work/sebastian/BT-20210625/1009928-light/run1009928-light.h5 tag-1498053850//
/work/sebastian/BT-20210625/1009928-light/run1009928-light.h5 tag-1498053862//
/work/sebastian/BT-20210625/1009928-light/run1009928-light.h5 tag-1498053864//
/work/sebastian/BT-20210625/1009928-light/run1009928-light.h5 tag-1498053868//
/work/sebastian/BT-20210625/1009928-light/run1009928-light.h5 tag-1498053874//
/work/sebastian/BT-20210625/1009928-light/run1009928-light.h5 tag-1498053884//
/work/sebastian/BT-20210625/1009928-light/run1009928-light.h5 tag-1498053886//
/work/sebastian/BT-20210625/1009928-light/run1009928-light.h5 tag-1498053888//
/work/sebastian/BT-20210625/1009928-light/run1009928-light.h5 tag-1498053892//
/work/sebastian/BT-20210625/1009928-light/run1009928-light.h5 tag-1498053910//
/work/sebastian/BT-20210625/1009928-light/run1009928-light.h5 tag-1498053926//
/work/sebastian/BT-20210625/1009928-light/run1009928-light.h5 tag-1498053930//
/work/sebastian/BT-20210625/1009928-light/run1009928-light.h5 tag-1498053932//
/work/sebastian/BT-20210625/1009928-light/run1009928-light.h5 tag-1498053934//
/work/sebastian/BT-20210625/1009928-light/run1009928-light.h5 tag-1498053944//
/work/sebastian/BT-20210625/1009928-light/run1009928-light.h5 tag-1498053952//
/work/sebastian/BT-20210625/1009928-light/run1009928-light.h5 tag-1498053964//
/work/sebastian/BT-20210625/1009928-light/run1009928-light.h5 tag-1498053968//
/work/sebastian/BT-20210625/1009928-light/run1009928-light.h5 tag-1498053972//
/work/sebastian/BT-20210625/1009928-light/run1009928-light.h5 tag-1498053982//
/work/sebastian/BT-20210625/1009928-light/run1009928-light.h5 tag-1498053992//
/work/sebastian/BT-20210625/1009928-light/run1009928-light.h5 tag-1498053994//
/work/sebastian/BT-20210625/1009928-light/run1009928-light.h5 tag-1498054008//
/work/sebastian/BT-20210625/1009928-light/run1009928-light.h5 tag-1498054014//
/work/sebastian/BT-20210625/1009928-light/run1009928-light.h5 tag-1498054016//
/work/sebastian/BT-20210625/1009928-light/run1009928-light.h5 tag-1498054018//
/work/sebastian/BT-20210625/1009928-light/run1009928-light.h5 tag-1498054020//
/work/sebastian/BT-20210625/1009928-light/run1009928-light.h5 tag-1498054022//
/work/sebastian/BT-20210625/1009928-light/run1009928-light.h5 tag-1498054026//
/work/sebastian/BT-20210625/1009928-light/run1009928-light.h5 tag-1498054028//
/work/sebastian/BT-20210625/1009928-light/run1009928-light.h5 tag-1498054040//
/work/sebastian/BT-20210625/1009928-light/run1009928-light.h5 tag-1498054042//
/work/sebastian/BT-20210625/1009928-light/run1009928-light.h5 tag-1498054044//
/work/sebastian/BT-20210625/1009928-light/run1009928-light.h5 tag-1498054050//
/work/sebastian/BT-20210625/1009928-light/run1009928-light.h5 tag-1498054052//
/work/sebastian/BT-20210625/1009928-light/run1009928-light.h5 tag-1498054062//
/work/sebastian/BT-20210625/1009928-light/run1009928-light.h5 tag-1498054066//
/work/sebastian/BT-20210625/1009928-light/run1009928-light.h5 tag-1498054068//
/work/sebastian/BT-20210625/1009928-light/run1009928-light.h5 tag-1498054072//
/work/sebastian/BT-20210625/1009928-light/run1009928-light.h5 tag-1498054074//
/work/sebastian/BT-20210625/1009928-light/run1009928-light.h5 tag-1498054076//
/work/sebastian/BT-20210625/1009928-light/run1009928-light.h5 tag-1498054086//
/work/sebastian/BT-20210625/1009928-light/run1009928-light.h5 tag-1498054092//
/work/sebastian/BT-20210625/1009928-light/run1009928-light.h5 tag-1498054094//
/work/sebastian/BT-20210625/1009928-light/run1009928-light.h5 tag-1498054102//
/work/sebastian/BT-20210625/1009928-light/run1009928-light.h5 tag-1498054108//
/work/sebastian/BT-20210625/1009928-light/run1009928-light.h5 tag-1498054112//
/work/sebastian/BT-20210625/1009928-light/run1009928-light.h5 tag-1498054118//
/work/sebastian/BT-20210625/1009928-light/run1009928-light.h5 tag-1498054120//
/work/sebastian/BT-20210625/1009928-light/run1009928-light.h5 tag-1498054122//
/work/sebastian/BT-20210625/1009928-light/run1009928-light.h5 tag-1498054136//
/work/sebastian/BT-20210625/1009928-light/run1009928-light.h5 tag-1498054138//
/work/sebastian/BT-20210625/1009928-light/run1009928-light.h5 tag-1498054150//
/work/sebastian/BT-20210625/1009928-light/run1009928-light.h5 tag-1498054152//
/work/sebastian/BT-20210625/1009928-light/run1009928-light.h5 tag-1498054154//
/work/sebastian/BT-20210625/1009928-light/run1009928-light.h5 tag-1498054160//
/work/sebastian/BT-20210625/1009928-light/run1009928-light.h5 tag-1498054162//
/work/sebastian/BT-20210625/1009928-light/run1009928-light.h5 tag-1498054164//
/work/sebastian/BT-20210625/1009928-light/run1009928-light.h5 tag-1498054166//
/work/sebastian/BT-20210625/1009928-light/run1009928-light.h5 tag-1498054168//
/work/sebastian/BT-20210625/1009928-light/run1009928-light.h5 tag-1498054176//
/work/sebastian/BT-20210625/1009928-light/run1009928-light.h5 tag-1498054186//
/work/sebastian/BT-20210625/1009928-light/run1009928-light.h5 tag-1498054188//
/work/sebastian/BT-20210625/1009928-light/run1009928-light.h5 tag-1498054190//
/work/sebastian/BT-20210625/1009928-light/run1009928-light.h5 tag-1498054194//
/work/sebastian/BT-20210625/1009928-light/run1009928-light.h5 tag-1498054200//
/work/sebastian/BT-20210625/1009928-light/run1009928-light.h5 tag-1498054206//
/work/sebastian/BT-20210625/1009928-light/run1009928-light.h5 tag-1498054208//
/work/sebastian/BT-20210625/1009928-light/run1009928-light.h5 tag-1498054214//
/work/sebastian/BT-20210625/1009928-light/run1009928-light.h5 tag-1498054216//
/work/sebastian/BT-20210625/1009928-light/run1009928-light.h5 tag-1498054218//
/work/sebastian/BT-20210625/1009928-light/run1009928-light.h5 tag-1498054228//
/work/sebastian/BT-20210625/1009928-light/run1009928-light.h5 tag-1498054230//
/work/sebastian/BT-20210625/1009928-light/run1009928-light.h5 tag-1498054232//
/work/sebastian/BT-20210625/1009928-light/run1009928-light.h5 tag-1498054234//
/work/sebastian/BT-20210625/1009928-light/run1009928-light.h5 tag-1498054238//
/work/sebastian/BT-20210625/1009928-light/run1009928-light.h5 tag-1498054242//
/work/sebastian/BT-20210625/1009928-light/run1009928-light.h5 tag-1498054246//
/work/sebastian/BT-20210625/1009928-light/run1009928-light.h5 tag-1498054248//
/work/sebastian/BT-20210625/1009928-light/run1009928-light.h5 tag-1498054250//
/work/sebastian/BT-20210625/1009928-light/run1009928-light.h5 tag-1498054254//
/work/sebastian/BT-20210625/1009928-light/run1009928-light.h5 tag-1498054260//
/work/sebastian/BT-20210625/1009928-light/run1009928-light.h5 tag-1498054264//
/work/sebastian/BT-20210625/1009928-light/run1009928-light.h5 tag-1498054266//
/work/sebastian/BT-20210625/1009928-light/run1009928-light.h5 tag-1498054268//
/work/sebastian/BT-20210625/1009928-light/run1009928-light.h5 tag-1498054274//
/work/sebastian/BT-20210625/1009928-light/run1009928-light.h5 tag-1498054280//
/work/sebastian/BT-20210625/1009928-light/run1009928-light.h5 tag-1498054284//
/work/sebastian/BT-20210625/1009928-light/run1009928-light.h5 tag-1498054288//
/work/sebastian/BT-20210625/1009928-light/run1009928-light.h5 tag-1498054290//
/work/sebastian/BT-20210625/1009928-light/run1009928-light.h5 tag-1498054292//
/work/sebastian/BT-20210625/1009928-light/run1009928-light.h5 tag-1498054296//
/work/sebastian/BT-20210625/1009928-light/run1009928-light.h5 tag-1498054304//
/work/sebastian/BT-20210625/1009928-light/run1009928-light.h5 tag-1498054320//
/work/sebastian/BT-20210625/1009928-light/run1009928-light.h5 tag-1498054324//
/work/sebastian/BT-20210625/1009928-light/run1009928-light.h5 tag-1498054332//
/work/sebastian/BT-20210625/1009928-light/run1009928-light.h5 tag-1498054334//
/work/sebastian/BT-20210625/1009928-light/run1009928-light.h5 tag-1498054340//
/work/sebastian/BT-20210625/1009928-light/run1009928-light.h5 tag-1498054342//
/work/sebastian/BT-20210625/1009928-light/run1009928-light.h5 tag-1498054350//
/work/sebastian/BT-20210625/1009928-light/run1009928-light.h5 tag-1498054352//
/work/sebastian/BT-20210625/1009928-light/run1009928-light.h5 tag-1498054356//
/work/sebastian/BT-20210625/1009928-light/run1009928-light.h5 tag-1498054358//
/work/sebastian/BT-20210625/1009928-light/run1009928-light.h5 tag-1498054360//
/work/sebastian/BT-20210625/1009928-light/run1009928-light.h5 tag-1498054362//
/work/sebastian/BT-20210625/1009928-light/run1009928-light.h5 tag-1498054364//
/work/sebastian/BT-20210625/1009928-light/run1009928-light.h5 tag-1498054368//
/work/sebastian/BT-20210625/1009928-light/run1009928-light.h5 tag-1498054370//
/work/sebastian/BT-20210625/1009928-light/run1009928-light.h5 tag-1498054372//
/work/sebastian/BT-20210625/1009928-light/run1009928-light.h5 tag-1498054376//
/work/sebastian/BT-20210625/1009928-light/run1009928-light.h5 tag-1498054382//
/work/sebastian/BT-20210625/1009928-light/run1009928-light.h5 tag-1498054386//
/work/sebastian/BT-20210625/1009928-light/run1009928-light.h5 tag-1498054394//
/work/sebastian/BT-20210625/1009928-light/run1009928-light.h5 tag-1498054396//
/work/sebastian/BT-20210625/1009928-light/run1009928-light.h5 tag-1498054398//
/work/sebastian/BT-20210625/1009928-light/run1009928-light.h5 tag-1498054410//
/work/sebastian/BT-20210625/1009928-light/run1009928-light.h5 tag-1498054414//
/work/sebastian/BT-20210625/1009928-light/run1009928-light.h5 tag-1498054420//
/work/sebastian/BT-20210625/1009928-light/run1009928-light.h5 tag-1498054424//
/work/sebastian/BT-20210625/1009928-light/run1009928-light.h5 tag-1498054428//
/work/sebastian/BT-20210625/1009928-light/run1009928-light.h5 tag-1498054432//
/work/sebastian/BT-20210625/1009928-light/run1009928-light.h5 tag-1498054434//
/work/sebastian/BT-20210625/1009928-light/run1009928-light.h5 tag-1498054438//
/work/sebastian/BT-20210625/1009928-light/run1009928-light.h5 tag-1498054440//
/work/sebastian/BT-20210625/1009928-light/run1009928-light.h5 tag-1498054442//
/work/sebastian/BT-20210625/1009928-light/run1009928-light.h5 tag-1498054450//
/work/sebastian/BT-20210625/1009928-light/run1009928-light.h5 tag-1498054454//
/work/sebastian/BT-20210625/1009928-light/run1009928-light.h5 tag-1498054460//
/work/sebastian/BT-20210625/1009928-light/run1009928-light.h5 tag-1498054462//
/work/sebastian/BT-20210625/1009928-light/run1009928-light.h5 tag-1498054464//
/work/sebastian/BT-20210625/1009928-light/run1009928-light.h5 tag-1498054468//
/work/sebastian/BT-20210625/1009928-light/run1009928-light.h5 tag-1498054470//
/work/sebastian/BT-20210625/1009928-light/run1009928-light.h5 tag-1498054472//
/work/sebastian/BT-20210625/1009928-light/run1009928-light.h5 tag-1498054474//
/work/sebastian/BT-20210625/1009928-light/run1009928-light.h5 tag-1498054476//
/work/sebastian/BT-20210625/1009928-light/run1009928-light.h5 tag-1498054480//
/work/sebastian/BT-20210625/1009928-light/run1009928-light.h5 tag-1498054484//
/work/sebastian/BT-20210625/1009928-light/run1009928-light.h5 tag-1498054486//
/work/sebastian/BT-20210625/1009928-light/run1009928-light.h5 tag-1498054490//
/work/sebastian/BT-20210625/1009928-light/run1009928-light.h5 tag-1498054492//
/work/sebastian/BT-20210625/1009928-light/run1009928-light.h5 tag-1498054494//
/work/sebastian/BT-20210625/1009928-light/run1009928-light.h5 tag-1498054498//
/work/sebastian/BT-20210625/1009928-light/run1009928-light.h5 tag-1498054502//
/work/sebastian/BT-20210625/1009928-light/run1009928-light.h5 tag-1498054504//
/work/sebastian/BT-20210625/1009928-light/run1009928-light.h5 tag-1498054508//
/work/sebastian/BT-20210625/1009928-light/run1009928-light.h5 tag-1498054514//
/work/sebastian/BT-20210625/1009928-light/run1009928-light.h5 tag-1498054516//
/work/sebastian/BT-20210625/1009928-light/run1009928-light.h5 tag-1498054524//
/work/sebastian/BT-20210625/1009928-light/run1009928-light.h5 tag-1498054526//
/work/sebastian/BT-20210625/1009928-light/run1009928-light.h5 tag-1498054528//
/work/sebastian/BT-20210625/1009928-light/run1009928-light.h5 tag-1498054536//
/work/sebastian/BT-20210625/1009928-light/run1009928-light.h5 tag-1498054538//
/work/sebastian/BT-20210625/1009928-light/run1009928-light.h5 tag-1498054540//
/work/sebastian/BT-20210625/1009928-light/run1009928-light.h5 tag-1498054548//
/work/sebastian/BT-20210625/1009928-light/run1009928-light.h5 tag-1498054556//
/work/sebastian/BT-20210625/1009928-light/run1009928-light.h5 tag-1498054562//
/work/sebastian/BT-20210625/1009928-light/run1009928-light.h5 tag-1498054566//
/work/sebastian/BT-20210625/1009928-light/run1009928-light.h5 tag-1498054576//
/work/sebastian/BT-20210625/1009928-light/run1009928-light.h5 tag-1498054578//
/work/sebastian/BT-20210625/1009928-light/run1009928-light.h5 tag-1498054586//
/work/sebastian/BT-20210625/1009928-light/run1009928-light.h5 tag-1498054588//
/work/sebastian/BT-20210625/1009928-light/run1009928-light.h5 tag-1498054598//
/work/sebastian/BT-20210625/1009928-light/run1009928-light.h5 tag-1498054600//
/work/sebastian/BT-20210625/1009928-light/run1009928-light.h5 tag-1498054604//
/work/sebastian/BT-20210625/1009928-light/run1009928-light.h5 tag-1498054606//
/work/sebastian/BT-20210625/1009928-light/run1009928-light.h5 tag-1498054608//
/work/sebastian/BT-20210625/1009928-light/run1009928-light.h5 tag-1498054610//
/work/sebastian/BT-20210625/1009928-light/run1009928-light.h5 tag-1498054614//
/work/sebastian/BT-20210625/1009928-light/run1009928-light.h5 tag-1498054622//
/work/sebastian/BT-20210625/1009928-light/run1009928-light.h5 tag-1498054624//
/work/sebastian/BT-20210625/1009928-light/run1009928-light.h5 tag-1498054632//
/work/sebastian/BT-20210625/1009928-light/run1009928-light.h5 tag-1498054634//
/work/sebastian/BT-20210625/1009928-light/run1009928-light.h5 tag-1498054636//
/work/sebastian/BT-20210625/1009928-light/run1009928-light.h5 tag-1498054638//
/work/sebastian/BT-20210625/1009928-light/run1009928-light.h5 tag-1498054640//
/work/sebastian/BT-20210625/1009928-light/run1009928-light.h5 tag-1498054646//
/work/sebastian/BT-20210625/1009928-light/run1009928-light.h5 tag-1498054650//
/work/sebastian/BT-20210625/1009928-light/run1009928-light.h5 tag-1498054654//
/work/sebastian/BT-20210625/1009928-light/run1009928-light.h5 tag-1498054670//
/work/sebastian/BT-20210625/1009928-light/run1009928-light.h5 tag-1498054674//
/work/sebastian/BT-20210625/1009928-light/run1009928-light.h5 tag-1498054678//
/work/sebastian/BT-20210625/1009928-light/run1009928-light.h5 tag-1498054682//
/work/sebastian/BT-20210625/1009928-light/run1009928-light.h5 tag-1498054684//
/work/sebastian/BT-20210625/1009928-light/run1009928-light.h5 tag-1498054698//
/work/sebastian/BT-20210625/1009928-light/run1009928-light.h5 tag-1498054700//
/work/sebastian/BT-20210625/1009928-light/run1009928-light.h5 tag-1498054722//
/work/sebastian/BT-20210625/1009928-light/run1009928-light.h5 tag-1498054724//
/work/sebastian/BT-20210625/1009928-light/run1009928-light.h5 tag-1498054726//
/work/sebastian/BT-20210625/1009928-light/run1009928-light.h5 tag-1498054732//
/work/sebastian/BT-20210625/1009928-light/run1009928-light.h5 tag-1498054734//
/work/sebastian/BT-20210625/1009928-light/run1009928-light.h5 tag-1498054736//
/work/sebastian/BT-20210625/1009928-light/run1009928-light.h5 tag-1498054738//
/work/sebastian/BT-20210625/1009928-light/run1009928-light.h5 tag-1498054740//
/work/sebastian/BT-20210625/1009928-light/run1009928-light.h5 tag-1498054748//
/work/sebastian/BT-20210625/1009928-light/run1009928-light.h5 tag-1498054750//
/work/sebastian/BT-20210625/1009928-light/run1009928-light.h5 tag-1498054758//
/work/sebastian/BT-20210625/1009928-light/run1009928-light.h5 tag-1498054762//
/work/sebastian/BT-20210625/1009928-light/run1009928-light.h5 tag-1498054764//
/work/sebastian/BT-20210625/1009928-light/run1009928-light.h5 tag-1498054770//
/work/sebastian/BT-20210625/1009928-light/run1009928-light.h5 tag-1498054772//
/work/sebastian/BT-20210625/1009928-light/run1009928-light.h5 tag-1498054776//
/work/sebastian/BT-20210625/1009928-light/run1009928-light.h5 tag-1498054788//
/work/sebastian/BT-20210625/1009928-light/run1009928-light.h5 tag-1498054790//
/work/sebastian/BT-20210625/1009928-light/run1009928-light.h5 tag-1498054792//
/work/sebastian/BT-20210625/1009928-light/run1009928-light.h5 tag-1498054798//
/work/sebastian/BT-20210625/1009928-light/run1009928-light.h5 tag-1498054806//
/work/sebastian/BT-20210625/1009928-light/run1009928-light.h5 tag-1498054808//
/work/sebastian/BT-20210625/1009928-light/run1009928-light.h5 tag-1498054810//
/work/sebastian/BT-20210625/1009928-light/run1009928-light.h5 tag-1498054812//
/work/sebastian/BT-20210625/1009928-light/run1009928-light.h5 tag-1498054816//
/work/sebastian/BT-20210625/1009928-light/run1009928-light.h5 tag-1498054820//
/work/sebastian/BT-20210625/1009928-light/run1009928-light.h5 tag-1498054822//
/work/sebastian/BT-20210625/1009928-light/run1009928-light.h5 tag-1498054838//
/work/sebastian/BT-20210625/1009928-light/run1009928-light.h5 tag-1498054844//
/work/sebastian/BT-20210625/1009928-light/run1009928-light.h5 tag-1498054846//
/work/sebastian/BT-20210625/1009928-light/run1009928-light.h5 tag-1498054850//
/work/sebastian/BT-20210625/1009928-light/run1009928-light.h5 tag-1498054856//
/work/sebastian/BT-20210625/1009928-light/run1009928-light.h5 tag-1498054872//
/work/sebastian/BT-20210625/1009928-light/run1009928-light.h5 tag-1498054874//
/work/sebastian/BT-20210625/1009928-light/run1009928-light.h5 tag-1498054876//
/work/sebastian/BT-20210625/1009928-light/run1009928-light.h5 tag-1498054880//
/work/sebastian/BT-20210625/1009928-light/run1009928-light.h5 tag-1498054884//
/work/sebastian/BT-20210625/1009928-light/run1009928-light.h5 tag-1498054890//
/work/sebastian/BT-20210625/1009928-light/run1009928-light.h5 tag-1498054892//
/work/sebastian/BT-20210625/1009928-light/run1009928-light.h5 tag-1498054894//
/work/sebastian/BT-20210625/1009928-light/run1009928-light.h5 tag-1498054898//
/work/sebastian/BT-20210625/1009928-light/run1009928-light.h5 tag-1498054902//
/work/sebastian/BT-20210625/1009928-light/run1009928-light.h5 tag-1498054908//
/work/sebastian/BT-20210625/1009928-light/run1009928-light.h5 tag-1498054910//
/work/sebastian/BT-20210625/1009928-light/run1009928-light.h5 tag-1498054912//
/work/sebastian/BT-20210625/1009928-light/run1009928-light.h5 tag-1498054914//
/work/sebastian/BT-20210625/1009928-light/run1009928-light.h5 tag-1498054918//
/work/sebastian/BT-20210625/1009928-light/run1009928-light.h5 tag-1498054920//
/work/sebastian/BT-20210625/1009928-light/run1009928-light.h5 tag-1498054926//
/work/sebastian/BT-20210625/1009928-light/run1009928-light.h5 tag-1498054928//
/work/sebastian/BT-20210625/1009928-light/run1009928-light.h5 tag-1498054934//
/work/sebastian/BT-20210625/1009928-light/run1009928-light.h5 tag-1498054938//
/work/sebastian/BT-20210625/1009928-light/run1009928-light.h5 tag-1498054942//
/work/sebastian/BT-20210625/1009928-light/run1009928-light.h5 tag-1498054944//
/work/sebastian/BT-20210625/1009928-light/run1009928-light.h5 tag-1498054946//
/work/sebastian/BT-20210625/1009928-light/run1009928-light.h5 tag-1498054954//
/work/sebastian/BT-20210625/1009928-light/run1009928-light.h5 tag-1498054956//
/work/sebastian/BT-20210625/1009928-light/run1009928-light.h5 tag-1498054966//
/work/sebastian/BT-20210625/1009928-light/run1009928-light.h5 tag-1498054968//
/work/sebastian/BT-20210625/1009928-light/run1009928-light.h5 tag-1498054976//
/work/sebastian/BT-20210625/1009928-light/run1009928-light.h5 tag-1498054980//
/work/sebastian/BT-20210625/1009928-light/run1009928-light.h5 tag-1498054982//
/work/sebastian/BT-20210625/1009928-light/run1009928-light.h5 tag-1498054986//
/work/sebastian/BT-20210625/1009928-light/run1009928-light.h5 tag-1498054998//
/work/sebastian/BT-20210625/1009928-light/run1009928-light.h5 tag-1498055000//
/work/sebastian/BT-20210625/1009928-light/run1009928-light.h5 tag-1498055004//
/work/sebastian/BT-20210625/1009928-light/run1009928-light.h5 tag-1498055006//
/work/sebastian/BT-20210625/1009928-light/run1009928-light.h5 tag-1498055010//
/work/sebastian/BT-20210625/1009928-light/run1009928-light.h5 tag-1498055012//
/work/sebastian/BT-20210625/1009928-light/run1009928-light.h5 tag-1498055014//
/work/sebastian/BT-20210625/1009928-light/run1009928-light.h5 tag-1498055016//
/work/sebastian/BT-20210625/1009928-light/run1009928-light.h5 tag-1498055018//
/work/sebastian/BT-20210625/1009928-light/run1009928-light.h5 tag-1498055022//
/work/sebastian/BT-20210625/1009928-light/run1009928-light.h5 tag-1498055032//
/work/sebastian/BT-20210625/1009928-light/run1009928-light.h5 tag-1498055036//
/work/sebastian/BT-20210625/1009928-light/run1009928-light.h5 tag-1498055038//
/work/sebastian/BT-20210625/1009928-light/run1009928-light.h5 tag-1498055040//
/work/sebastian/BT-20210625/1009928-light/run1009928-light.h5 tag-1498055042//
/work/sebastian/BT-20210625/1009928-light/run1009928-light.h5 tag-1498055048//
/work/sebastian/BT-20210625/1009928-light/run1009928-light.h5 tag-1498055050//
/work/sebastian/BT-20210625/1009928-light/run1009928-light.h5 tag-1498055052//
/work/sebastian/BT-20210625/1009928-light/run1009928-light.h5 tag-1498055054//
/work/sebastian/BT-20210625/1009928-light/run1009928-light.h5 tag-1498055064//
/work/sebastian/BT-20210625/1009928-light/run1009928-light.h5 tag-1498055066//
/work/sebastian/BT-20210625/1009928-light/run1009928-light.h5 tag-1498055068//
/work/sebastian/BT-20210625/1009928-light/run1009928-light.h5 tag-1498055070//
/work/sebastian/BT-20210625/1009928-light/run1009928-light.h5 tag-1498055074//
/work/sebastian/BT-20210625/1009928-light/run1009928-light.h5 tag-1498055076//
/work/sebastian/BT-20210625/1009928-light/run1009928-light.h5 tag-1498055088//
/work/sebastian/BT-20210625/1009928-light/run1009928-light.h5 tag-1498055090//
/work/sebastian/BT-20210625/1009928-light/run1009928-light.h5 tag-1498055092//
/work/sebastian/BT-20210625/1009928-light/run1009928-light.h5 tag-1498055094//
/work/sebastian/BT-20210625/1009928-light/run1009928-light.h5 tag-1498055106//
/work/sebastian/BT-20210625/1009928-light/run1009928-light.h5 tag-1498055108//
/work/sebastian/BT-20210625/1009928-light/run1009928-light.h5 tag-1498055116//
/work/sebastian/BT-20210625/1009928-light/run1009928-light.h5 tag-1498055118//
/work/sebastian/BT-20210625/1009928-light/run1009928-light.h5 tag-1498055120//
/work/sebastian/BT-20210625/1009928-light/run1009928-light.h5 tag-1498055122//
/work/sebastian/BT-20210625/1009928-light/run1009928-light.h5 tag-1498055124//
/work/sebastian/BT-20210625/1009928-light/run1009928-light.h5 tag-1498055128//
/work/sebastian/BT-20210625/1009928-light/run1009928-light.h5 tag-1498055134//
/work/sebastian/BT-20210625/1009928-light/run1009928-light.h5 tag-1498055142//
/work/sebastian/BT-20210625/1009928-light/run1009928-light.h5 tag-1498055144//
/work/sebastian/BT-20210625/1009928-light/run1009928-light.h5 tag-1498055146//
/work/sebastian/BT-20210625/1009928-light/run1009928-light.h5 tag-1498055148//
/work/sebastian/BT-20210625/1009928-light/run1009928-light.h5 tag-1498055150//
/work/sebastian/BT-20210625/1009928-light/run1009928-light.h5 tag-1498055154//
/work/sebastian/BT-20210625/1009928-light/run1009928-light.h5 tag-1498055160//
/work/sebastian/BT-20210625/1009928-light/run1009928-light.h5 tag-1498055170//
/work/sebastian/BT-20210625/1009928-light/run1009928-light.h5 tag-1498055172//
/work/sebastian/BT-20210625/1009928-light/run1009928-light.h5 tag-1498055176//
