/work/sebastian/BT-20210625/1009315-light/run1009315-light.h5 tag-1490899408//
/work/sebastian/BT-20210625/1009315-light/run1009315-light.h5 tag-1490899412//
/work/sebastian/BT-20210625/1009315-light/run1009315-light.h5 tag-1490899416//
/work/sebastian/BT-20210625/1009315-light/run1009315-light.h5 tag-1490899432//
/work/sebastian/BT-20210625/1009315-light/run1009315-light.h5 tag-1490899442//
/work/sebastian/BT-20210625/1009315-light/run1009315-light.h5 tag-1490899444//
/work/sebastian/BT-20210625/1009315-light/run1009315-light.h5 tag-1490899446//
/work/sebastian/BT-20210625/1009315-light/run1009315-light.h5 tag-1490899450//
/work/sebastian/BT-20210625/1009315-light/run1009315-light.h5 tag-1490899454//
/work/sebastian/BT-20210625/1009315-light/run1009315-light.h5 tag-1490899470//
/work/sebastian/BT-20210625/1009315-light/run1009315-light.h5 tag-1490899488//
/work/sebastian/BT-20210625/1009315-light/run1009315-light.h5 tag-1490899490//
/work/sebastian/BT-20210625/1009315-light/run1009315-light.h5 tag-1490899494//
/work/sebastian/BT-20210625/1009315-light/run1009315-light.h5 tag-1490899496//
/work/sebastian/BT-20210625/1009315-light/run1009315-light.h5 tag-1490899500//
/work/sebastian/BT-20210625/1009315-light/run1009315-light.h5 tag-1490899504//
/work/sebastian/BT-20210625/1009315-light/run1009315-light.h5 tag-1490899514//
/work/sebastian/BT-20210625/1009315-light/run1009315-light.h5 tag-1490899518//
/work/sebastian/BT-20210625/1009315-light/run1009315-light.h5 tag-1490899520//
/work/sebastian/BT-20210625/1009315-light/run1009315-light.h5 tag-1490899524//
/work/sebastian/BT-20210625/1009315-light/run1009315-light.h5 tag-1490899526//
/work/sebastian/BT-20210625/1009315-light/run1009315-light.h5 tag-1490899532//
/work/sebastian/BT-20210625/1009315-light/run1009315-light.h5 tag-1490899534//
/work/sebastian/BT-20210625/1009315-light/run1009315-light.h5 tag-1490899536//
/work/sebastian/BT-20210625/1009315-light/run1009315-light.h5 tag-1490899542//
/work/sebastian/BT-20210625/1009315-light/run1009315-light.h5 tag-1490899546//
/work/sebastian/BT-20210625/1009315-light/run1009315-light.h5 tag-1490899548//
/work/sebastian/BT-20210625/1009315-light/run1009315-light.h5 tag-1490899558//
/work/sebastian/BT-20210625/1009315-light/run1009315-light.h5 tag-1490899562//
/work/sebastian/BT-20210625/1009315-light/run1009315-light.h5 tag-1490899576//
/work/sebastian/BT-20210625/1009315-light/run1009315-light.h5 tag-1490899580//
/work/sebastian/BT-20210625/1009315-light/run1009315-light.h5 tag-1490899584//
/work/sebastian/BT-20210625/1009315-light/run1009315-light.h5 tag-1490899586//
/work/sebastian/BT-20210625/1009315-light/run1009315-light.h5 tag-1490899592//
/work/sebastian/BT-20210625/1009315-light/run1009315-light.h5 tag-1490899598//
/work/sebastian/BT-20210625/1009315-light/run1009315-light.h5 tag-1490899606//
/work/sebastian/BT-20210625/1009315-light/run1009315-light.h5 tag-1490899610//
/work/sebastian/BT-20210625/1009315-light/run1009315-light.h5 tag-1490899616//
/work/sebastian/BT-20210625/1009315-light/run1009315-light.h5 tag-1490899628//
/work/sebastian/BT-20210625/1009315-light/run1009315-light.h5 tag-1490899630//
/work/sebastian/BT-20210625/1009315-light/run1009315-light.h5 tag-1490899632//
/work/sebastian/BT-20210625/1009315-light/run1009315-light.h5 tag-1490899636//
/work/sebastian/BT-20210625/1009315-light/run1009315-light.h5 tag-1490899640//
/work/sebastian/BT-20210625/1009315-light/run1009315-light.h5 tag-1490899648//
/work/sebastian/BT-20210625/1009315-light/run1009315-light.h5 tag-1490899650//
/work/sebastian/BT-20210625/1009315-light/run1009315-light.h5 tag-1490899660//
/work/sebastian/BT-20210625/1009315-light/run1009315-light.h5 tag-1490899662//
/work/sebastian/BT-20210625/1009315-light/run1009315-light.h5 tag-1490899666//
/work/sebastian/BT-20210625/1009315-light/run1009315-light.h5 tag-1490899672//
/work/sebastian/BT-20210625/1009315-light/run1009315-light.h5 tag-1490899682//
/work/sebastian/BT-20210625/1009315-light/run1009315-light.h5 tag-1490899684//
/work/sebastian/BT-20210625/1009315-light/run1009315-light.h5 tag-1490899688//
/work/sebastian/BT-20210625/1009315-light/run1009315-light.h5 tag-1490899692//
/work/sebastian/BT-20210625/1009315-light/run1009315-light.h5 tag-1490899694//
/work/sebastian/BT-20210625/1009315-light/run1009315-light.h5 tag-1490899698//
/work/sebastian/BT-20210625/1009315-light/run1009315-light.h5 tag-1490899700//
/work/sebastian/BT-20210625/1009315-light/run1009315-light.h5 tag-1490899702//
/work/sebastian/BT-20210625/1009315-light/run1009315-light.h5 tag-1490899706//
/work/sebastian/BT-20210625/1009315-light/run1009315-light.h5 tag-1490899708//
/work/sebastian/BT-20210625/1009315-light/run1009315-light.h5 tag-1490899710//
/work/sebastian/BT-20210625/1009315-light/run1009315-light.h5 tag-1490899714//
/work/sebastian/BT-20210625/1009315-light/run1009315-light.h5 tag-1490899716//
/work/sebastian/BT-20210625/1009315-light/run1009315-light.h5 tag-1490899718//
/work/sebastian/BT-20210625/1009315-light/run1009315-light.h5 tag-1490899728//
/work/sebastian/BT-20210625/1009315-light/run1009315-light.h5 tag-1490899740//
/work/sebastian/BT-20210625/1009315-light/run1009315-light.h5 tag-1490899742//
/work/sebastian/BT-20210625/1009315-light/run1009315-light.h5 tag-1490899748//
/work/sebastian/BT-20210625/1009315-light/run1009315-light.h5 tag-1490899750//
/work/sebastian/BT-20210625/1009315-light/run1009315-light.h5 tag-1490899762//
/work/sebastian/BT-20210625/1009315-light/run1009315-light.h5 tag-1490899770//
/work/sebastian/BT-20210625/1009315-light/run1009315-light.h5 tag-1490899772//
/work/sebastian/BT-20210625/1009315-light/run1009315-light.h5 tag-1490899778//
/work/sebastian/BT-20210625/1009315-light/run1009315-light.h5 tag-1490899780//
/work/sebastian/BT-20210625/1009315-light/run1009315-light.h5 tag-1490899782//
/work/sebastian/BT-20210625/1009315-light/run1009315-light.h5 tag-1490899784//
/work/sebastian/BT-20210625/1009315-light/run1009315-light.h5 tag-1490899790//
/work/sebastian/BT-20210625/1009315-light/run1009315-light.h5 tag-1490899802//
/work/sebastian/BT-20210625/1009315-light/run1009315-light.h5 tag-1490899804//
/work/sebastian/BT-20210625/1009315-light/run1009315-light.h5 tag-1490899808//
/work/sebastian/BT-20210625/1009315-light/run1009315-light.h5 tag-1490899812//
/work/sebastian/BT-20210625/1009315-light/run1009315-light.h5 tag-1490899814//
/work/sebastian/BT-20210625/1009315-light/run1009315-light.h5 tag-1490899818//
/work/sebastian/BT-20210625/1009315-light/run1009315-light.h5 tag-1490899820//
/work/sebastian/BT-20210625/1009315-light/run1009315-light.h5 tag-1490899826//
/work/sebastian/BT-20210625/1009315-light/run1009315-light.h5 tag-1490899828//
/work/sebastian/BT-20210625/1009315-light/run1009315-light.h5 tag-1490899832//
/work/sebastian/BT-20210625/1009315-light/run1009315-light.h5 tag-1490899834//
/work/sebastian/BT-20210625/1009315-light/run1009315-light.h5 tag-1490899838//
/work/sebastian/BT-20210625/1009315-light/run1009315-light.h5 tag-1490899848//
/work/sebastian/BT-20210625/1009315-light/run1009315-light.h5 tag-1490899856//
/work/sebastian/BT-20210625/1009315-light/run1009315-light.h5 tag-1490899864//
/work/sebastian/BT-20210625/1009315-light/run1009315-light.h5 tag-1490899870//
/work/sebastian/BT-20210625/1009315-light/run1009315-light.h5 tag-1490899872//
/work/sebastian/BT-20210625/1009315-light/run1009315-light.h5 tag-1490899874//
/work/sebastian/BT-20210625/1009315-light/run1009315-light.h5 tag-1490899878//
/work/sebastian/BT-20210625/1009315-light/run1009315-light.h5 tag-1490899880//
/work/sebastian/BT-20210625/1009315-light/run1009315-light.h5 tag-1490899888//
/work/sebastian/BT-20210625/1009315-light/run1009315-light.h5 tag-1490899890//
/work/sebastian/BT-20210625/1009315-light/run1009315-light.h5 tag-1490899892//
/work/sebastian/BT-20210625/1009315-light/run1009315-light.h5 tag-1490899912//
/work/sebastian/BT-20210625/1009315-light/run1009315-light.h5 tag-1490899916//
/work/sebastian/BT-20210625/1009315-light/run1009315-light.h5 tag-1490899924//
/work/sebastian/BT-20210625/1009315-light/run1009315-light.h5 tag-1490899926//
/work/sebastian/BT-20210625/1009315-light/run1009315-light.h5 tag-1490899936//
/work/sebastian/BT-20210625/1009315-light/run1009315-light.h5 tag-1490899938//
/work/sebastian/BT-20210625/1009315-light/run1009315-light.h5 tag-1490899940//
/work/sebastian/BT-20210625/1009315-light/run1009315-light.h5 tag-1490899944//
/work/sebastian/BT-20210625/1009315-light/run1009315-light.h5 tag-1490899956//
/work/sebastian/BT-20210625/1009315-light/run1009315-light.h5 tag-1490899958//
/work/sebastian/BT-20210625/1009315-light/run1009315-light.h5 tag-1490899974//
/work/sebastian/BT-20210625/1009315-light/run1009315-light.h5 tag-1490899988//
/work/sebastian/BT-20210625/1009315-light/run1009315-light.h5 tag-1490899998//
/work/sebastian/BT-20210625/1009315-light/run1009315-light.h5 tag-1490900016//
/work/sebastian/BT-20210625/1009315-light/run1009315-light.h5 tag-1490900018//
/work/sebastian/BT-20210625/1009315-light/run1009315-light.h5 tag-1490900020//
/work/sebastian/BT-20210625/1009315-light/run1009315-light.h5 tag-1490900026//
/work/sebastian/BT-20210625/1009315-light/run1009315-light.h5 tag-1490900038//
/work/sebastian/BT-20210625/1009315-light/run1009315-light.h5 tag-1490900042//
/work/sebastian/BT-20210625/1009315-light/run1009315-light.h5 tag-1490900044//
/work/sebastian/BT-20210625/1009315-light/run1009315-light.h5 tag-1490900054//
/work/sebastian/BT-20210625/1009315-light/run1009315-light.h5 tag-1490900056//
/work/sebastian/BT-20210625/1009315-light/run1009315-light.h5 tag-1490900058//
/work/sebastian/BT-20210625/1009315-light/run1009315-light.h5 tag-1490900066//
/work/sebastian/BT-20210625/1009315-light/run1009315-light.h5 tag-1490900068//
/work/sebastian/BT-20210625/1009315-light/run1009315-light.h5 tag-1490900070//
/work/sebastian/BT-20210625/1009315-light/run1009315-light.h5 tag-1490900072//
/work/sebastian/BT-20210625/1009315-light/run1009315-light.h5 tag-1490900078//
/work/sebastian/BT-20210625/1009315-light/run1009315-light.h5 tag-1490900080//
/work/sebastian/BT-20210625/1009315-light/run1009315-light.h5 tag-1490900098//
/work/sebastian/BT-20210625/1009315-light/run1009315-light.h5 tag-1490900106//
/work/sebastian/BT-20210625/1009315-light/run1009315-light.h5 tag-1490900112//
/work/sebastian/BT-20210625/1009315-light/run1009315-light.h5 tag-1490900126//
/work/sebastian/BT-20210625/1009315-light/run1009315-light.h5 tag-1490900130//
/work/sebastian/BT-20210625/1009315-light/run1009315-light.h5 tag-1490900132//
/work/sebastian/BT-20210625/1009315-light/run1009315-light.h5 tag-1490900134//
/work/sebastian/BT-20210625/1009315-light/run1009315-light.h5 tag-1490900140//
/work/sebastian/BT-20210625/1009315-light/run1009315-light.h5 tag-1490900146//
/work/sebastian/BT-20210625/1009315-light/run1009315-light.h5 tag-1490900150//
/work/sebastian/BT-20210625/1009315-light/run1009315-light.h5 tag-1490900152//
/work/sebastian/BT-20210625/1009315-light/run1009315-light.h5 tag-1490900154//
/work/sebastian/BT-20210625/1009315-light/run1009315-light.h5 tag-1490900160//
/work/sebastian/BT-20210625/1009315-light/run1009315-light.h5 tag-1490900178//
/work/sebastian/BT-20210625/1009315-light/run1009315-light.h5 tag-1490900184//
/work/sebastian/BT-20210625/1009315-light/run1009315-light.h5 tag-1490900190//
/work/sebastian/BT-20210625/1009315-light/run1009315-light.h5 tag-1490900194//
/work/sebastian/BT-20210625/1009315-light/run1009315-light.h5 tag-1490900196//
/work/sebastian/BT-20210625/1009315-light/run1009315-light.h5 tag-1490900204//
/work/sebastian/BT-20210625/1009315-light/run1009315-light.h5 tag-1490900208//
/work/sebastian/BT-20210625/1009315-light/run1009315-light.h5 tag-1490900210//
/work/sebastian/BT-20210625/1009315-light/run1009315-light.h5 tag-1490900212//
/work/sebastian/BT-20210625/1009315-light/run1009315-light.h5 tag-1490900214//
/work/sebastian/BT-20210625/1009315-light/run1009315-light.h5 tag-1490900216//
/work/sebastian/BT-20210625/1009315-light/run1009315-light.h5 tag-1490900222//
/work/sebastian/BT-20210625/1009315-light/run1009315-light.h5 tag-1490900226//
/work/sebastian/BT-20210625/1009315-light/run1009315-light.h5 tag-1490900230//
/work/sebastian/BT-20210625/1009315-light/run1009315-light.h5 tag-1490900234//
/work/sebastian/BT-20210625/1009315-light/run1009315-light.h5 tag-1490900236//
/work/sebastian/BT-20210625/1009315-light/run1009315-light.h5 tag-1490900238//
/work/sebastian/BT-20210625/1009315-light/run1009315-light.h5 tag-1490900240//
/work/sebastian/BT-20210625/1009315-light/run1009315-light.h5 tag-1490900252//
/work/sebastian/BT-20210625/1009315-light/run1009315-light.h5 tag-1490900254//
/work/sebastian/BT-20210625/1009315-light/run1009315-light.h5 tag-1490900258//
/work/sebastian/BT-20210625/1009315-light/run1009315-light.h5 tag-1490900272//
/work/sebastian/BT-20210625/1009315-light/run1009315-light.h5 tag-1490900280//
/work/sebastian/BT-20210625/1009315-light/run1009315-light.h5 tag-1490900282//
/work/sebastian/BT-20210625/1009315-light/run1009315-light.h5 tag-1490900292//
/work/sebastian/BT-20210625/1009315-light/run1009315-light.h5 tag-1490900294//
/work/sebastian/BT-20210625/1009315-light/run1009315-light.h5 tag-1490900300//
/work/sebastian/BT-20210625/1009315-light/run1009315-light.h5 tag-1490900302//
/work/sebastian/BT-20210625/1009315-light/run1009315-light.h5 tag-1490900308//
/work/sebastian/BT-20210625/1009315-light/run1009315-light.h5 tag-1490900310//
/work/sebastian/BT-20210625/1009315-light/run1009315-light.h5 tag-1490900312//
/work/sebastian/BT-20210625/1009315-light/run1009315-light.h5 tag-1490900328//
/work/sebastian/BT-20210625/1009315-light/run1009315-light.h5 tag-1490900332//
/work/sebastian/BT-20210625/1009315-light/run1009315-light.h5 tag-1490900334//
/work/sebastian/BT-20210625/1009315-light/run1009315-light.h5 tag-1490900338//
/work/sebastian/BT-20210625/1009315-light/run1009315-light.h5 tag-1490900340//
/work/sebastian/BT-20210625/1009315-light/run1009315-light.h5 tag-1490900344//
/work/sebastian/BT-20210625/1009315-light/run1009315-light.h5 tag-1490900348//
/work/sebastian/BT-20210625/1009315-light/run1009315-light.h5 tag-1490900350//
/work/sebastian/BT-20210625/1009315-light/run1009315-light.h5 tag-1490900352//
/work/sebastian/BT-20210625/1009315-light/run1009315-light.h5 tag-1490900354//
/work/sebastian/BT-20210625/1009315-light/run1009315-light.h5 tag-1490900366//
/work/sebastian/BT-20210625/1009315-light/run1009315-light.h5 tag-1490900368//
/work/sebastian/BT-20210625/1009315-light/run1009315-light.h5 tag-1490900376//
/work/sebastian/BT-20210625/1009315-light/run1009315-light.h5 tag-1490900378//
/work/sebastian/BT-20210625/1009315-light/run1009315-light.h5 tag-1490900380//
/work/sebastian/BT-20210625/1009315-light/run1009315-light.h5 tag-1490900386//
/work/sebastian/BT-20210625/1009315-light/run1009315-light.h5 tag-1490900392//
/work/sebastian/BT-20210625/1009315-light/run1009315-light.h5 tag-1490900394//
/work/sebastian/BT-20210625/1009315-light/run1009315-light.h5 tag-1490900408//
/work/sebastian/BT-20210625/1009315-light/run1009315-light.h5 tag-1490900412//
/work/sebastian/BT-20210625/1009315-light/run1009315-light.h5 tag-1490900414//
/work/sebastian/BT-20210625/1009315-light/run1009315-light.h5 tag-1490900418//
/work/sebastian/BT-20210625/1009315-light/run1009315-light.h5 tag-1490900426//
/work/sebastian/BT-20210625/1009315-light/run1009315-light.h5 tag-1490900432//
/work/sebastian/BT-20210625/1009315-light/run1009315-light.h5 tag-1490900440//
/work/sebastian/BT-20210625/1009315-light/run1009315-light.h5 tag-1490900442//
/work/sebastian/BT-20210625/1009315-light/run1009315-light.h5 tag-1490900468//
/work/sebastian/BT-20210625/1009315-light/run1009315-light.h5 tag-1490900470//
/work/sebastian/BT-20210625/1009315-light/run1009315-light.h5 tag-1490900474//
/work/sebastian/BT-20210625/1009315-light/run1009315-light.h5 tag-1490900476//
/work/sebastian/BT-20210625/1009315-light/run1009315-light.h5 tag-1490900478//
/work/sebastian/BT-20210625/1009315-light/run1009315-light.h5 tag-1490900480//
/work/sebastian/BT-20210625/1009315-light/run1009315-light.h5 tag-1490900482//
/work/sebastian/BT-20210625/1009315-light/run1009315-light.h5 tag-1490900488//
/work/sebastian/BT-20210625/1009315-light/run1009315-light.h5 tag-1490900494//
/work/sebastian/BT-20210625/1009315-light/run1009315-light.h5 tag-1490900496//
/work/sebastian/BT-20210625/1009315-light/run1009315-light.h5 tag-1490900498//
/work/sebastian/BT-20210625/1009315-light/run1009315-light.h5 tag-1490900506//
/work/sebastian/BT-20210625/1009315-light/run1009315-light.h5 tag-1490900516//
/work/sebastian/BT-20210625/1009315-light/run1009315-light.h5 tag-1490900518//
/work/sebastian/BT-20210625/1009315-light/run1009315-light.h5 tag-1490900524//
/work/sebastian/BT-20210625/1009315-light/run1009315-light.h5 tag-1490900530//
/work/sebastian/BT-20210625/1009315-light/run1009315-light.h5 tag-1490900560//
/work/sebastian/BT-20210625/1009315-light/run1009315-light.h5 tag-1490900574//
/work/sebastian/BT-20210625/1009315-light/run1009315-light.h5 tag-1490900578//
/work/sebastian/BT-20210625/1009315-light/run1009315-light.h5 tag-1490900586//
/work/sebastian/BT-20210625/1009315-light/run1009315-light.h5 tag-1490900592//
/work/sebastian/BT-20210625/1009315-light/run1009315-light.h5 tag-1490900600//
/work/sebastian/BT-20210625/1009315-light/run1009315-light.h5 tag-1490900620//
/work/sebastian/BT-20210625/1009315-light/run1009315-light.h5 tag-1490900634//
/work/sebastian/BT-20210625/1009315-light/run1009315-light.h5 tag-1490900642//
/work/sebastian/BT-20210625/1009315-light/run1009315-light.h5 tag-1490900644//
/work/sebastian/BT-20210625/1009315-light/run1009315-light.h5 tag-1490900646//
/work/sebastian/BT-20210625/1009315-light/run1009315-light.h5 tag-1490900648//
/work/sebastian/BT-20210625/1009315-light/run1009315-light.h5 tag-1490900652//
/work/sebastian/BT-20210625/1009315-light/run1009315-light.h5 tag-1490900660//
/work/sebastian/BT-20210625/1009315-light/run1009315-light.h5 tag-1490900664//
/work/sebastian/BT-20210625/1009315-light/run1009315-light.h5 tag-1490900670//
/work/sebastian/BT-20210625/1009315-light/run1009315-light.h5 tag-1490900672//
/work/sebastian/BT-20210625/1009315-light/run1009315-light.h5 tag-1490900678//
/work/sebastian/BT-20210625/1009315-light/run1009315-light.h5 tag-1490900684//
/work/sebastian/BT-20210625/1009315-light/run1009315-light.h5 tag-1490900686//
/work/sebastian/BT-20210625/1009315-light/run1009315-light.h5 tag-1490900698//
/work/sebastian/BT-20210625/1009315-light/run1009315-light.h5 tag-1490900704//
/work/sebastian/BT-20210625/1009315-light/run1009315-light.h5 tag-1490900718//
/work/sebastian/BT-20210625/1009315-light/run1009315-light.h5 tag-1490900722//
/work/sebastian/BT-20210625/1009315-light/run1009315-light.h5 tag-1490900728//
/work/sebastian/BT-20210625/1009315-light/run1009315-light.h5 tag-1490900736//
/work/sebastian/BT-20210625/1009315-light/run1009315-light.h5 tag-1490900742//
/work/sebastian/BT-20210625/1009315-light/run1009315-light.h5 tag-1490900772//
/work/sebastian/BT-20210625/1009315-light/run1009315-light.h5 tag-1490900784//
/work/sebastian/BT-20210625/1009315-light/run1009315-light.h5 tag-1490900792//
/work/sebastian/BT-20210625/1009315-light/run1009315-light.h5 tag-1490900798//
/work/sebastian/BT-20210625/1009315-light/run1009315-light.h5 tag-1490900800//
/work/sebastian/BT-20210625/1009315-light/run1009315-light.h5 tag-1490900804//
/work/sebastian/BT-20210625/1009315-light/run1009315-light.h5 tag-1490900810//
/work/sebastian/BT-20210625/1009315-light/run1009315-light.h5 tag-1490900812//
/work/sebastian/BT-20210625/1009315-light/run1009315-light.h5 tag-1490900814//
/work/sebastian/BT-20210625/1009315-light/run1009315-light.h5 tag-1490900816//
/work/sebastian/BT-20210625/1009315-light/run1009315-light.h5 tag-1490900826//
/work/sebastian/BT-20210625/1009315-light/run1009315-light.h5 tag-1490900832//
/work/sebastian/BT-20210625/1009315-light/run1009315-light.h5 tag-1490900834//
/work/sebastian/BT-20210625/1009315-light/run1009315-light.h5 tag-1490900844//
/work/sebastian/BT-20210625/1009315-light/run1009315-light.h5 tag-1490900858//
/work/sebastian/BT-20210625/1009315-light/run1009315-light.h5 tag-1490900864//
/work/sebastian/BT-20210625/1009315-light/run1009315-light.h5 tag-1490900866//
/work/sebastian/BT-20210625/1009315-light/run1009315-light.h5 tag-1490900868//
/work/sebastian/BT-20210625/1009315-light/run1009315-light.h5 tag-1490900870//
/work/sebastian/BT-20210625/1009315-light/run1009315-light.h5 tag-1490900880//
/work/sebastian/BT-20210625/1009315-light/run1009315-light.h5 tag-1490900882//
/work/sebastian/BT-20210625/1009315-light/run1009315-light.h5 tag-1490900884//
/work/sebastian/BT-20210625/1009315-light/run1009315-light.h5 tag-1490900886//
/work/sebastian/BT-20210625/1009315-light/run1009315-light.h5 tag-1490900892//
/work/sebastian/BT-20210625/1009315-light/run1009315-light.h5 tag-1490900894//
/work/sebastian/BT-20210625/1009315-light/run1009315-light.h5 tag-1490900902//
/work/sebastian/BT-20210625/1009315-light/run1009315-light.h5 tag-1490900914//
/work/sebastian/BT-20210625/1009315-light/run1009315-light.h5 tag-1490900916//
/work/sebastian/BT-20210625/1009315-light/run1009315-light.h5 tag-1490900924//
/work/sebastian/BT-20210625/1009315-light/run1009315-light.h5 tag-1490900928//
/work/sebastian/BT-20210625/1009315-light/run1009315-light.h5 tag-1490900942//
/work/sebastian/BT-20210625/1009315-light/run1009315-light.h5 tag-1490900946//
/work/sebastian/BT-20210625/1009315-light/run1009315-light.h5 tag-1490900956//
/work/sebastian/BT-20210625/1009315-light/run1009315-light.h5 tag-1490900958//
/work/sebastian/BT-20210625/1009315-light/run1009315-light.h5 tag-1490900960//
/work/sebastian/BT-20210625/1009315-light/run1009315-light.h5 tag-1490900964//
/work/sebastian/BT-20210625/1009315-light/run1009315-light.h5 tag-1490900974//
/work/sebastian/BT-20210625/1009315-light/run1009315-light.h5 tag-1490900978//
/work/sebastian/BT-20210625/1009315-light/run1009315-light.h5 tag-1490900984//
/work/sebastian/BT-20210625/1009315-light/run1009315-light.h5 tag-1490900986//
/work/sebastian/BT-20210625/1009315-light/run1009315-light.h5 tag-1490900990//
/work/sebastian/BT-20210625/1009315-light/run1009315-light.h5 tag-1490900994//
/work/sebastian/BT-20210625/1009315-light/run1009315-light.h5 tag-1490901000//
/work/sebastian/BT-20210625/1009315-light/run1009315-light.h5 tag-1490901004//
/work/sebastian/BT-20210625/1009315-light/run1009315-light.h5 tag-1490901006//
/work/sebastian/BT-20210625/1009315-light/run1009315-light.h5 tag-1490901012//
/work/sebastian/BT-20210625/1009315-light/run1009315-light.h5 tag-1490901014//
/work/sebastian/BT-20210625/1009315-light/run1009315-light.h5 tag-1490901016//
/work/sebastian/BT-20210625/1009315-light/run1009315-light.h5 tag-1490901018//
/work/sebastian/BT-20210625/1009315-light/run1009315-light.h5 tag-1490901022//
/work/sebastian/BT-20210625/1009315-light/run1009315-light.h5 tag-1490901024//
/work/sebastian/BT-20210625/1009315-light/run1009315-light.h5 tag-1490901026//
/work/sebastian/BT-20210625/1009315-light/run1009315-light.h5 tag-1490901030//
/work/sebastian/BT-20210625/1009315-light/run1009315-light.h5 tag-1490901032//
/work/sebastian/BT-20210625/1009315-light/run1009315-light.h5 tag-1490901034//
/work/sebastian/BT-20210625/1009315-light/run1009315-light.h5 tag-1490901038//
/work/sebastian/BT-20210625/1009315-light/run1009315-light.h5 tag-1490901042//
/work/sebastian/BT-20210625/1009315-light/run1009315-light.h5 tag-1490901054//
/work/sebastian/BT-20210625/1009315-light/run1009315-light.h5 tag-1490901058//
/work/sebastian/BT-20210625/1009315-light/run1009315-light.h5 tag-1490901066//
/work/sebastian/BT-20210625/1009315-light/run1009315-light.h5 tag-1490901068//
/work/sebastian/BT-20210625/1009315-light/run1009315-light.h5 tag-1490901072//
/work/sebastian/BT-20210625/1009315-light/run1009315-light.h5 tag-1490901074//
/work/sebastian/BT-20210625/1009315-light/run1009315-light.h5 tag-1490901084//
/work/sebastian/BT-20210625/1009315-light/run1009315-light.h5 tag-1490901096//
/work/sebastian/BT-20210625/1009315-light/run1009315-light.h5 tag-1490901100//
/work/sebastian/BT-20210625/1009315-light/run1009315-light.h5 tag-1490901102//
/work/sebastian/BT-20210625/1009315-light/run1009315-light.h5 tag-1490901106//
/work/sebastian/BT-20210625/1009315-light/run1009315-light.h5 tag-1490901114//
/work/sebastian/BT-20210625/1009315-light/run1009315-light.h5 tag-1490901126//
/work/sebastian/BT-20210625/1009315-light/run1009315-light.h5 tag-1490901128//
/work/sebastian/BT-20210625/1009315-light/run1009315-light.h5 tag-1490901130//
/work/sebastian/BT-20210625/1009315-light/run1009315-light.h5 tag-1490901136//
/work/sebastian/BT-20210625/1009315-light/run1009315-light.h5 tag-1490901140//
/work/sebastian/BT-20210625/1009315-light/run1009315-light.h5 tag-1490901144//
/work/sebastian/BT-20210625/1009315-light/run1009315-light.h5 tag-1490901156//
/work/sebastian/BT-20210625/1009315-light/run1009315-light.h5 tag-1490901162//
/work/sebastian/BT-20210625/1009315-light/run1009315-light.h5 tag-1490901164//
/work/sebastian/BT-20210625/1009315-light/run1009315-light.h5 tag-1490901170//
/work/sebastian/BT-20210625/1009315-light/run1009315-light.h5 tag-1490901176//
/work/sebastian/BT-20210625/1009315-light/run1009315-light.h5 tag-1490901178//
/work/sebastian/BT-20210625/1009315-light/run1009315-light.h5 tag-1490901184//
/work/sebastian/BT-20210625/1009315-light/run1009315-light.h5 tag-1490901186//
/work/sebastian/BT-20210625/1009315-light/run1009315-light.h5 tag-1490901192//
/work/sebastian/BT-20210625/1009315-light/run1009315-light.h5 tag-1490901200//
/work/sebastian/BT-20210625/1009315-light/run1009315-light.h5 tag-1490901208//
/work/sebastian/BT-20210625/1009315-light/run1009315-light.h5 tag-1490901212//
/work/sebastian/BT-20210625/1009315-light/run1009315-light.h5 tag-1490901214//
/work/sebastian/BT-20210625/1009315-light/run1009315-light.h5 tag-1490901218//
/work/sebastian/BT-20210625/1009315-light/run1009315-light.h5 tag-1490901222//
/work/sebastian/BT-20210625/1009315-light/run1009315-light.h5 tag-1490901224//
/work/sebastian/BT-20210625/1009315-light/run1009315-light.h5 tag-1490901228//
/work/sebastian/BT-20210625/1009315-light/run1009315-light.h5 tag-1490901232//
/work/sebastian/BT-20210625/1009315-light/run1009315-light.h5 tag-1490901246//
/work/sebastian/BT-20210625/1009315-light/run1009315-light.h5 tag-1490901248//
/work/sebastian/BT-20210625/1009315-light/run1009315-light.h5 tag-1490901258//
/work/sebastian/BT-20210625/1009315-light/run1009315-light.h5 tag-1490901266//
/work/sebastian/BT-20210625/1009315-light/run1009315-light.h5 tag-1490901268//
/work/sebastian/BT-20210625/1009315-light/run1009315-light.h5 tag-1490901274//
/work/sebastian/BT-20210625/1009315-light/run1009315-light.h5 tag-1490901286//
/work/sebastian/BT-20210625/1009315-light/run1009315-light.h5 tag-1490901292//
/work/sebastian/BT-20210625/1009315-light/run1009315-light.h5 tag-1490901298//
/work/sebastian/BT-20210625/1009315-light/run1009315-light.h5 tag-1490901300//
/work/sebastian/BT-20210625/1009315-light/run1009315-light.h5 tag-1490901302//
/work/sebastian/BT-20210625/1009315-light/run1009315-light.h5 tag-1490901306//
/work/sebastian/BT-20210625/1009315-light/run1009315-light.h5 tag-1490901310//
/work/sebastian/BT-20210625/1009315-light/run1009315-light.h5 tag-1490901316//
/work/sebastian/BT-20210625/1009315-light/run1009315-light.h5 tag-1490901326//
/work/sebastian/BT-20210625/1009315-light/run1009315-light.h5 tag-1490901328//
/work/sebastian/BT-20210625/1009315-light/run1009315-light.h5 tag-1490901330//
/work/sebastian/BT-20210625/1009315-light/run1009315-light.h5 tag-1490901336//
/work/sebastian/BT-20210625/1009315-light/run1009315-light.h5 tag-1490901338//
/work/sebastian/BT-20210625/1009315-light/run1009315-light.h5 tag-1490901344//
/work/sebastian/BT-20210625/1009315-light/run1009315-light.h5 tag-1490901346//
/work/sebastian/BT-20210625/1009315-light/run1009315-light.h5 tag-1490901372//
/work/sebastian/BT-20210625/1009315-light/run1009315-light.h5 tag-1490901378//
/work/sebastian/BT-20210625/1009315-light/run1009315-light.h5 tag-1490901380//
/work/sebastian/BT-20210625/1009315-light/run1009315-light.h5 tag-1490901388//
/work/sebastian/BT-20210625/1009315-light/run1009315-light.h5 tag-1490901394//
/work/sebastian/BT-20210625/1009315-light/run1009315-light.h5 tag-1490901400//
/work/sebastian/BT-20210625/1009315-light/run1009315-light.h5 tag-1490901402//
/work/sebastian/BT-20210625/1009315-light/run1009315-light.h5 tag-1490901426//
/work/sebastian/BT-20210625/1009315-light/run1009315-light.h5 tag-1490901434//
/work/sebastian/BT-20210625/1009315-light/run1009315-light.h5 tag-1490901438//
/work/sebastian/BT-20210625/1009315-light/run1009315-light.h5 tag-1490901442//
/work/sebastian/BT-20210625/1009315-light/run1009315-light.h5 tag-1490901444//
/work/sebastian/BT-20210625/1009315-light/run1009315-light.h5 tag-1490901446//
/work/sebastian/BT-20210625/1009315-light/run1009315-light.h5 tag-1490901460//
/work/sebastian/BT-20210625/1009315-light/run1009315-light.h5 tag-1490901468//
/work/sebastian/BT-20210625/1009315-light/run1009315-light.h5 tag-1490901472//
/work/sebastian/BT-20210625/1009315-light/run1009315-light.h5 tag-1490901474//
/work/sebastian/BT-20210625/1009315-light/run1009315-light.h5 tag-1490901476//
/work/sebastian/BT-20210625/1009315-light/run1009315-light.h5 tag-1490901480//
/work/sebastian/BT-20210625/1009315-light/run1009315-light.h5 tag-1490901486//
/work/sebastian/BT-20210625/1009315-light/run1009315-light.h5 tag-1490901496//
/work/sebastian/BT-20210625/1009315-light/run1009315-light.h5 tag-1490901500//
/work/sebastian/BT-20210625/1009315-light/run1009315-light.h5 tag-1490901514//
/work/sebastian/BT-20210625/1009315-light/run1009315-light.h5 tag-1490901518//
/work/sebastian/BT-20210625/1009315-light/run1009315-light.h5 tag-1490901520//
/work/sebastian/BT-20210625/1009315-light/run1009315-light.h5 tag-1490901524//
/work/sebastian/BT-20210625/1009315-light/run1009315-light.h5 tag-1490901532//
/work/sebastian/BT-20210625/1009315-light/run1009315-light.h5 tag-1490901538//
/work/sebastian/BT-20210625/1009315-light/run1009315-light.h5 tag-1490901546//
/work/sebastian/BT-20210625/1009315-light/run1009315-light.h5 tag-1490901558//
/work/sebastian/BT-20210625/1009315-light/run1009315-light.h5 tag-1490901560//
/work/sebastian/BT-20210625/1009315-light/run1009315-light.h5 tag-1490901564//
/work/sebastian/BT-20210625/1009315-light/run1009315-light.h5 tag-1490901566//
/work/sebastian/BT-20210625/1009315-light/run1009315-light.h5 tag-1490901568//
/work/sebastian/BT-20210625/1009315-light/run1009315-light.h5 tag-1490901570//
/work/sebastian/BT-20210625/1009315-light/run1009315-light.h5 tag-1490901574//
/work/sebastian/BT-20210625/1009315-light/run1009315-light.h5 tag-1490901576//
/work/sebastian/BT-20210625/1009315-light/run1009315-light.h5 tag-1490901582//
/work/sebastian/BT-20210625/1009315-light/run1009315-light.h5 tag-1490901606//
/work/sebastian/BT-20210625/1009315-light/run1009315-light.h5 tag-1490901608//
/work/sebastian/BT-20210625/1009315-light/run1009315-light.h5 tag-1490901610//
/work/sebastian/BT-20210625/1009315-light/run1009315-light.h5 tag-1490901616//
/work/sebastian/BT-20210625/1009315-light/run1009315-light.h5 tag-1490901618//
/work/sebastian/BT-20210625/1009315-light/run1009315-light.h5 tag-1490901630//
/work/sebastian/BT-20210625/1009315-light/run1009315-light.h5 tag-1490901644//
/work/sebastian/BT-20210625/1009315-light/run1009315-light.h5 tag-1490901646//
/work/sebastian/BT-20210625/1009315-light/run1009315-light.h5 tag-1490901654//
/work/sebastian/BT-20210625/1009315-light/run1009315-light.h5 tag-1490901662//
/work/sebastian/BT-20210625/1009315-light/run1009315-light.h5 tag-1490901666//
/work/sebastian/BT-20210625/1009315-light/run1009315-light.h5 tag-1490901682//
/work/sebastian/BT-20210625/1009315-light/run1009315-light.h5 tag-1490901690//
/work/sebastian/BT-20210625/1009315-light/run1009315-light.h5 tag-1490901706//
/work/sebastian/BT-20210625/1009315-light/run1009315-light.h5 tag-1490901714//
/work/sebastian/BT-20210625/1009315-light/run1009315-light.h5 tag-1490901722//
/work/sebastian/BT-20210625/1009315-light/run1009315-light.h5 tag-1490901726//
/work/sebastian/BT-20210625/1009315-light/run1009315-light.h5 tag-1490901728//
/work/sebastian/BT-20210625/1009315-light/run1009315-light.h5 tag-1490901742//
/work/sebastian/BT-20210625/1009315-light/run1009315-light.h5 tag-1490901750//
/work/sebastian/BT-20210625/1009315-light/run1009315-light.h5 tag-1490901752//
/work/sebastian/BT-20210625/1009315-light/run1009315-light.h5 tag-1490901756//
/work/sebastian/BT-20210625/1009315-light/run1009315-light.h5 tag-1490901758//
/work/sebastian/BT-20210625/1009315-light/run1009315-light.h5 tag-1490901760//
/work/sebastian/BT-20210625/1009315-light/run1009315-light.h5 tag-1490901770//
/work/sebastian/BT-20210625/1009315-light/run1009315-light.h5 tag-1490901774//
/work/sebastian/BT-20210625/1009315-light/run1009315-light.h5 tag-1490901780//
/work/sebastian/BT-20210625/1009315-light/run1009315-light.h5 tag-1490901782//
/work/sebastian/BT-20210625/1009315-light/run1009315-light.h5 tag-1490901784//
/work/sebastian/BT-20210625/1009315-light/run1009315-light.h5 tag-1490901788//
/work/sebastian/BT-20210625/1009315-light/run1009315-light.h5 tag-1490901794//
/work/sebastian/BT-20210625/1009315-light/run1009315-light.h5 tag-1490901796//
/work/sebastian/BT-20210625/1009315-light/run1009315-light.h5 tag-1490901798//
/work/sebastian/BT-20210625/1009315-light/run1009315-light.h5 tag-1490901818//
/work/sebastian/BT-20210625/1009315-light/run1009315-light.h5 tag-1490901820//
/work/sebastian/BT-20210625/1009315-light/run1009315-light.h5 tag-1490901824//
/work/sebastian/BT-20210625/1009315-light/run1009315-light.h5 tag-1490901830//
/work/sebastian/BT-20210625/1009315-light/run1009315-light.h5 tag-1490901832//
/work/sebastian/BT-20210625/1009315-light/run1009315-light.h5 tag-1490901838//
/work/sebastian/BT-20210625/1009315-light/run1009315-light.h5 tag-1490901840//
/work/sebastian/BT-20210625/1009315-light/run1009315-light.h5 tag-1490901844//
/work/sebastian/BT-20210625/1009315-light/run1009315-light.h5 tag-1490901854//
/work/sebastian/BT-20210625/1009315-light/run1009315-light.h5 tag-1490901860//
/work/sebastian/BT-20210625/1009315-light/run1009315-light.h5 tag-1490901864//
/work/sebastian/BT-20210625/1009315-light/run1009315-light.h5 tag-1490901872//
/work/sebastian/BT-20210625/1009315-light/run1009315-light.h5 tag-1490901892//
/work/sebastian/BT-20210625/1009315-light/run1009315-light.h5 tag-1490901902//
/work/sebastian/BT-20210625/1009315-light/run1009315-light.h5 tag-1490901912//
/work/sebastian/BT-20210625/1009315-light/run1009315-light.h5 tag-1490901914//
/work/sebastian/BT-20210625/1009315-light/run1009315-light.h5 tag-1490901922//
/work/sebastian/BT-20210625/1009315-light/run1009315-light.h5 tag-1490901924//
/work/sebastian/BT-20210625/1009315-light/run1009315-light.h5 tag-1490901928//
/work/sebastian/BT-20210625/1009315-light/run1009315-light.h5 tag-1490901930//
/work/sebastian/BT-20210625/1009315-light/run1009315-light.h5 tag-1490901938//
/work/sebastian/BT-20210625/1009315-light/run1009315-light.h5 tag-1490901964//
/work/sebastian/BT-20210625/1009315-light/run1009315-light.h5 tag-1490901968//
/work/sebastian/BT-20210625/1009315-light/run1009315-light.h5 tag-1490901972//
/work/sebastian/BT-20210625/1009315-light/run1009315-light.h5 tag-1490901978//
/work/sebastian/BT-20210625/1009315-light/run1009315-light.h5 tag-1490901992//
/work/sebastian/BT-20210625/1009315-light/run1009315-light.h5 tag-1490901996//
/work/sebastian/BT-20210625/1009315-light/run1009315-light.h5 tag-1490902006//
/work/sebastian/BT-20210625/1009315-light/run1009315-light.h5 tag-1490902008//
/work/sebastian/BT-20210625/1009315-light/run1009315-light.h5 tag-1490902010//
/work/sebastian/BT-20210625/1009315-light/run1009315-light.h5 tag-1490902016//
/work/sebastian/BT-20210625/1009315-light/run1009315-light.h5 tag-1490902020//
/work/sebastian/BT-20210625/1009315-light/run1009315-light.h5 tag-1490902022//
/work/sebastian/BT-20210625/1009315-light/run1009315-light.h5 tag-1490902024//
/work/sebastian/BT-20210625/1009315-light/run1009315-light.h5 tag-1490902030//
/work/sebastian/BT-20210625/1009315-light/run1009315-light.h5 tag-1490902032//
/work/sebastian/BT-20210625/1009315-light/run1009315-light.h5 tag-1490902040//
/work/sebastian/BT-20210625/1009315-light/run1009315-light.h5 tag-1490902042//
/work/sebastian/BT-20210625/1009315-light/run1009315-light.h5 tag-1490902046//
/work/sebastian/BT-20210625/1009315-light/run1009315-light.h5 tag-1490902050//
/work/sebastian/BT-20210625/1009315-light/run1009315-light.h5 tag-1490902052//
/work/sebastian/BT-20210625/1009315-light/run1009315-light.h5 tag-1490902054//
/work/sebastian/BT-20210625/1009315-light/run1009315-light.h5 tag-1490902056//
/work/sebastian/BT-20210625/1009315-light/run1009315-light.h5 tag-1490902060//
/work/sebastian/BT-20210625/1009315-light/run1009315-light.h5 tag-1490902064//
/work/sebastian/BT-20210625/1009315-light/run1009315-light.h5 tag-1490902066//
/work/sebastian/BT-20210625/1009315-light/run1009315-light.h5 tag-1490902072//
/work/sebastian/BT-20210625/1009315-light/run1009315-light.h5 tag-1490902078//
/work/sebastian/BT-20210625/1009315-light/run1009315-light.h5 tag-1490902080//
/work/sebastian/BT-20210625/1009315-light/run1009315-light.h5 tag-1490902084//
/work/sebastian/BT-20210625/1009315-light/run1009315-light.h5 tag-1490902086//
/work/sebastian/BT-20210625/1009315-light/run1009315-light.h5 tag-1490902088//
/work/sebastian/BT-20210625/1009315-light/run1009315-light.h5 tag-1490902090//
/work/sebastian/BT-20210625/1009315-light/run1009315-light.h5 tag-1490902092//
/work/sebastian/BT-20210625/1009315-light/run1009315-light.h5 tag-1490902096//
/work/sebastian/BT-20210625/1009315-light/run1009315-light.h5 tag-1490902102//
/work/sebastian/BT-20210625/1009315-light/run1009315-light.h5 tag-1490902106//
/work/sebastian/BT-20210625/1009315-light/run1009315-light.h5 tag-1490902114//
/work/sebastian/BT-20210625/1009315-light/run1009315-light.h5 tag-1490902116//
/work/sebastian/BT-20210625/1009315-light/run1009315-light.h5 tag-1490902120//
/work/sebastian/BT-20210625/1009315-light/run1009315-light.h5 tag-1490902134//
/work/sebastian/BT-20210625/1009315-light/run1009315-light.h5 tag-1490902144//
/work/sebastian/BT-20210625/1009315-light/run1009315-light.h5 tag-1490902146//
/work/sebastian/BT-20210625/1009315-light/run1009315-light.h5 tag-1490902150//
/work/sebastian/BT-20210625/1009315-light/run1009315-light.h5 tag-1490902152//
/work/sebastian/BT-20210625/1009315-light/run1009315-light.h5 tag-1490902156//
/work/sebastian/BT-20210625/1009315-light/run1009315-light.h5 tag-1490902158//
/work/sebastian/BT-20210625/1009315-light/run1009315-light.h5 tag-1490902160//
/work/sebastian/BT-20210625/1009315-light/run1009315-light.h5 tag-1490902166//
/work/sebastian/BT-20210625/1009315-light/run1009315-light.h5 tag-1490902190//
/work/sebastian/BT-20210625/1009315-light/run1009315-light.h5 tag-1490902194//
/work/sebastian/BT-20210625/1009315-light/run1009315-light.h5 tag-1490902202//
/work/sebastian/BT-20210625/1009315-light/run1009315-light.h5 tag-1490902206//
/work/sebastian/BT-20210625/1009315-light/run1009315-light.h5 tag-1490902208//
/work/sebastian/BT-20210625/1009315-light/run1009315-light.h5 tag-1490902222//
/work/sebastian/BT-20210625/1009315-light/run1009315-light.h5 tag-1490902226//
/work/sebastian/BT-20210625/1009315-light/run1009315-light.h5 tag-1490902230//
/work/sebastian/BT-20210625/1009315-light/run1009315-light.h5 tag-1490902234//
/work/sebastian/BT-20210625/1009315-light/run1009315-light.h5 tag-1490902236//
/work/sebastian/BT-20210625/1009315-light/run1009315-light.h5 tag-1490902240//
/work/sebastian/BT-20210625/1009315-light/run1009315-light.h5 tag-1490902254//
/work/sebastian/BT-20210625/1009315-light/run1009315-light.h5 tag-1490902256//
/work/sebastian/BT-20210625/1009315-light/run1009315-light.h5 tag-1490902262//
/work/sebastian/BT-20210625/1009315-light/run1009315-light.h5 tag-1490902264//
/work/sebastian/BT-20210625/1009315-light/run1009315-light.h5 tag-1490902266//
/work/sebastian/BT-20210625/1009315-light/run1009315-light.h5 tag-1490902278//
/work/sebastian/BT-20210625/1009315-light/run1009315-light.h5 tag-1490902284//
/work/sebastian/BT-20210625/1009315-light/run1009315-light.h5 tag-1490902288//
/work/sebastian/BT-20210625/1009315-light/run1009315-light.h5 tag-1490902298//
/work/sebastian/BT-20210625/1009315-light/run1009315-light.h5 tag-1490902300//
/work/sebastian/BT-20210625/1009315-light/run1009315-light.h5 tag-1490902306//
/work/sebastian/BT-20210625/1009315-light/run1009315-light.h5 tag-1490902308//
/work/sebastian/BT-20210625/1009315-light/run1009315-light.h5 tag-1490902314//
/work/sebastian/BT-20210625/1009315-light/run1009315-light.h5 tag-1490902328//
/work/sebastian/BT-20210625/1009315-light/run1009315-light.h5 tag-1490902332//
/work/sebastian/BT-20210625/1009315-light/run1009315-light.h5 tag-1490902340//
/work/sebastian/BT-20210625/1009315-light/run1009315-light.h5 tag-1490902358//
/work/sebastian/BT-20210625/1009315-light/run1009315-light.h5 tag-1490902388//
/work/sebastian/BT-20210625/1009315-light/run1009315-light.h5 tag-1490902398//
/work/sebastian/BT-20210625/1009315-light/run1009315-light.h5 tag-1490902404//
/work/sebastian/BT-20210625/1009315-light/run1009315-light.h5 tag-1490902416//
/work/sebastian/BT-20210625/1009315-light/run1009315-light.h5 tag-1490902422//
/work/sebastian/BT-20210625/1009315-light/run1009315-light.h5 tag-1490902424//
/work/sebastian/BT-20210625/1009315-light/run1009315-light.h5 tag-1490902426//
/work/sebastian/BT-20210625/1009315-light/run1009315-light.h5 tag-1490902430//
/work/sebastian/BT-20210625/1009315-light/run1009315-light.h5 tag-1490902432//
/work/sebastian/BT-20210625/1009315-light/run1009315-light.h5 tag-1490902434//
/work/sebastian/BT-20210625/1009315-light/run1009315-light.h5 tag-1490902440//
/work/sebastian/BT-20210625/1009315-light/run1009315-light.h5 tag-1490902448//
/work/sebastian/BT-20210625/1009315-light/run1009315-light.h5 tag-1490902452//
/work/sebastian/BT-20210625/1009315-light/run1009315-light.h5 tag-1490902460//
/work/sebastian/BT-20210625/1009315-light/run1009315-light.h5 tag-1490902462//
/work/sebastian/BT-20210625/1009315-light/run1009315-light.h5 tag-1490902472//
/work/sebastian/BT-20210625/1009315-light/run1009315-light.h5 tag-1490902476//
/work/sebastian/BT-20210625/1009315-light/run1009315-light.h5 tag-1490902486//
/work/sebastian/BT-20210625/1009315-light/run1009315-light.h5 tag-1490902494//
/work/sebastian/BT-20210625/1009315-light/run1009315-light.h5 tag-1490902498//
/work/sebastian/BT-20210625/1009315-light/run1009315-light.h5 tag-1490902500//
/work/sebastian/BT-20210625/1009315-light/run1009315-light.h5 tag-1490902508//
/work/sebastian/BT-20210625/1009315-light/run1009315-light.h5 tag-1490902510//
/work/sebastian/BT-20210625/1009315-light/run1009315-light.h5 tag-1490902512//
/work/sebastian/BT-20210625/1009315-light/run1009315-light.h5 tag-1490902516//
/work/sebastian/BT-20210625/1009315-light/run1009315-light.h5 tag-1490902524//
/work/sebastian/BT-20210625/1009315-light/run1009315-light.h5 tag-1490902530//
/work/sebastian/BT-20210625/1009315-light/run1009315-light.h5 tag-1490902534//
/work/sebastian/BT-20210625/1009315-light/run1009315-light.h5 tag-1490902542//
/work/sebastian/BT-20210625/1009315-light/run1009315-light.h5 tag-1490902546//
/work/sebastian/BT-20210625/1009315-light/run1009315-light.h5 tag-1490902550//
/work/sebastian/BT-20210625/1009315-light/run1009315-light.h5 tag-1490902552//
/work/sebastian/BT-20210625/1009315-light/run1009315-light.h5 tag-1490902554//
/work/sebastian/BT-20210625/1009315-light/run1009315-light.h5 tag-1490902558//
/work/sebastian/BT-20210625/1009315-light/run1009315-light.h5 tag-1490902566//
/work/sebastian/BT-20210625/1009315-light/run1009315-light.h5 tag-1490902570//
/work/sebastian/BT-20210625/1009315-light/run1009315-light.h5 tag-1490902572//
/work/sebastian/BT-20210625/1009315-light/run1009315-light.h5 tag-1490902578//
/work/sebastian/BT-20210625/1009315-light/run1009315-light.h5 tag-1490902584//
/work/sebastian/BT-20210625/1009315-light/run1009315-light.h5 tag-1490902586//
/work/sebastian/BT-20210625/1009315-light/run1009315-light.h5 tag-1490902590//
/work/sebastian/BT-20210625/1009315-light/run1009315-light.h5 tag-1490902592//
/work/sebastian/BT-20210625/1009315-light/run1009315-light.h5 tag-1490902596//
/work/sebastian/BT-20210625/1009315-light/run1009315-light.h5 tag-1490902598//
/work/sebastian/BT-20210625/1009315-light/run1009315-light.h5 tag-1490902614//
/work/sebastian/BT-20210625/1009315-light/run1009315-light.h5 tag-1490902620//
/work/sebastian/BT-20210625/1009315-light/run1009315-light.h5 tag-1490902628//
/work/sebastian/BT-20210625/1009315-light/run1009315-light.h5 tag-1490902632//
/work/sebastian/BT-20210625/1009315-light/run1009315-light.h5 tag-1490902636//
/work/sebastian/BT-20210625/1009315-light/run1009315-light.h5 tag-1490902640//
/work/sebastian/BT-20210625/1009315-light/run1009315-light.h5 tag-1490902652//
/work/sebastian/BT-20210625/1009315-light/run1009315-light.h5 tag-1490902662//
/work/sebastian/BT-20210625/1009315-light/run1009315-light.h5 tag-1490902668//
/work/sebastian/BT-20210625/1009315-light/run1009315-light.h5 tag-1490902670//
/work/sebastian/BT-20210625/1009315-light/run1009315-light.h5 tag-1490902684//
/work/sebastian/BT-20210625/1009315-light/run1009315-light.h5 tag-1490902690//
/work/sebastian/BT-20210625/1009315-light/run1009315-light.h5 tag-1490902694//
/work/sebastian/BT-20210625/1009315-light/run1009315-light.h5 tag-1490902698//
/work/sebastian/BT-20210625/1009315-light/run1009315-light.h5 tag-1490902700//
/work/sebastian/BT-20210625/1009315-light/run1009315-light.h5 tag-1490902704//
/work/sebastian/BT-20210625/1009315-light/run1009315-light.h5 tag-1490902708//
/work/sebastian/BT-20210625/1009315-light/run1009315-light.h5 tag-1490902712//
/work/sebastian/BT-20210625/1009315-light/run1009315-light.h5 tag-1490902718//
/work/sebastian/BT-20210625/1009315-light/run1009315-light.h5 tag-1490902722//
/work/sebastian/BT-20210625/1009315-light/run1009315-light.h5 tag-1490902724//
/work/sebastian/BT-20210625/1009315-light/run1009315-light.h5 tag-1490902726//
/work/sebastian/BT-20210625/1009315-light/run1009315-light.h5 tag-1490902732//
/work/sebastian/BT-20210625/1009315-light/run1009315-light.h5 tag-1490902734//
/work/sebastian/BT-20210625/1009315-light/run1009315-light.h5 tag-1490902738//
/work/sebastian/BT-20210625/1009315-light/run1009315-light.h5 tag-1490902742//
/work/sebastian/BT-20210625/1009315-light/run1009315-light.h5 tag-1490902746//
/work/sebastian/BT-20210625/1009315-light/run1009315-light.h5 tag-1490902750//
/work/sebastian/BT-20210625/1009315-light/run1009315-light.h5 tag-1490902752//
/work/sebastian/BT-20210625/1009315-light/run1009315-light.h5 tag-1490902754//
/work/sebastian/BT-20210625/1009315-light/run1009315-light.h5 tag-1490902774//
/work/sebastian/BT-20210625/1009315-light/run1009315-light.h5 tag-1490902780//
/work/sebastian/BT-20210625/1009315-light/run1009315-light.h5 tag-1490902782//
/work/sebastian/BT-20210625/1009315-light/run1009315-light.h5 tag-1490902786//
/work/sebastian/BT-20210625/1009315-light/run1009315-light.h5 tag-1490902794//
/work/sebastian/BT-20210625/1009315-light/run1009315-light.h5 tag-1490902796//
/work/sebastian/BT-20210625/1009315-light/run1009315-light.h5 tag-1490902804//
/work/sebastian/BT-20210625/1009315-light/run1009315-light.h5 tag-1490902814//
/work/sebastian/BT-20210625/1009315-light/run1009315-light.h5 tag-1490902830//
/work/sebastian/BT-20210625/1009315-light/run1009315-light.h5 tag-1490902834//
/work/sebastian/BT-20210625/1009315-light/run1009315-light.h5 tag-1490902838//
/work/sebastian/BT-20210625/1009315-light/run1009315-light.h5 tag-1490902840//
/work/sebastian/BT-20210625/1009315-light/run1009315-light.h5 tag-1490902844//
/work/sebastian/BT-20210625/1009315-light/run1009315-light.h5 tag-1490902848//
/work/sebastian/BT-20210625/1009315-light/run1009315-light.h5 tag-1490902850//
/work/sebastian/BT-20210625/1009315-light/run1009315-light.h5 tag-1490902852//
/work/sebastian/BT-20210625/1009315-light/run1009315-light.h5 tag-1490902856//
/work/sebastian/BT-20210625/1009315-light/run1009315-light.h5 tag-1490902858//
/work/sebastian/BT-20210625/1009315-light/run1009315-light.h5 tag-1490902860//
/work/sebastian/BT-20210625/1009315-light/run1009315-light.h5 tag-1490902864//
/work/sebastian/BT-20210625/1009315-light/run1009315-light.h5 tag-1490902866//
/work/sebastian/BT-20210625/1009315-light/run1009315-light.h5 tag-1490902874//
/work/sebastian/BT-20210625/1009315-light/run1009315-light.h5 tag-1490902878//
/work/sebastian/BT-20210625/1009315-light/run1009315-light.h5 tag-1490902884//
/work/sebastian/BT-20210625/1009315-light/run1009315-light.h5 tag-1490902886//
/work/sebastian/BT-20210625/1009315-light/run1009315-light.h5 tag-1490902888//
/work/sebastian/BT-20210625/1009315-light/run1009315-light.h5 tag-1490902898//
/work/sebastian/BT-20210625/1009315-light/run1009315-light.h5 tag-1490902902//
/work/sebastian/BT-20210625/1009315-light/run1009315-light.h5 tag-1490902904//
/work/sebastian/BT-20210625/1009315-light/run1009315-light.h5 tag-1490902914//
/work/sebastian/BT-20210625/1009315-light/run1009315-light.h5 tag-1490902920//
/work/sebastian/BT-20210625/1009315-light/run1009315-light.h5 tag-1490902922//
/work/sebastian/BT-20210625/1009315-light/run1009315-light.h5 tag-1490902930//
/work/sebastian/BT-20210625/1009315-light/run1009315-light.h5 tag-1490902934//
/work/sebastian/BT-20210625/1009315-light/run1009315-light.h5 tag-1490902944//
/work/sebastian/BT-20210625/1009315-light/run1009315-light.h5 tag-1490902956//
/work/sebastian/BT-20210625/1009315-light/run1009315-light.h5 tag-1490902958//
/work/sebastian/BT-20210625/1009315-light/run1009315-light.h5 tag-1490902964//
/work/sebastian/BT-20210625/1009315-light/run1009315-light.h5 tag-1490902968//
/work/sebastian/BT-20210625/1009315-light/run1009315-light.h5 tag-1490902976//
/work/sebastian/BT-20210625/1009315-light/run1009315-light.h5 tag-1490902982//
/work/sebastian/BT-20210625/1009315-light/run1009315-light.h5 tag-1490902984//
/work/sebastian/BT-20210625/1009315-light/run1009315-light.h5 tag-1490902990//
/work/sebastian/BT-20210625/1009315-light/run1009315-light.h5 tag-1490903000//
/work/sebastian/BT-20210625/1009315-light/run1009315-light.h5 tag-1490903008//
/work/sebastian/BT-20210625/1009315-light/run1009315-light.h5 tag-1490903014//
/work/sebastian/BT-20210625/1009315-light/run1009315-light.h5 tag-1490903018//
/work/sebastian/BT-20210625/1009315-light/run1009315-light.h5 tag-1490903020//
/work/sebastian/BT-20210625/1009315-light/run1009315-light.h5 tag-1490903024//
/work/sebastian/BT-20210625/1009315-light/run1009315-light.h5 tag-1490903028//
/work/sebastian/BT-20210625/1009315-light/run1009315-light.h5 tag-1490903044//
/work/sebastian/BT-20210625/1009315-light/run1009315-light.h5 tag-1490903066//
/work/sebastian/BT-20210625/1009315-light/run1009315-light.h5 tag-1490903074//
/work/sebastian/BT-20210625/1009315-light/run1009315-light.h5 tag-1490903078//
/work/sebastian/BT-20210625/1009315-light/run1009315-light.h5 tag-1490903080//
/work/sebastian/BT-20210625/1009315-light/run1009315-light.h5 tag-1490903094//
/work/sebastian/BT-20210625/1009315-light/run1009315-light.h5 tag-1490903118//
/work/sebastian/BT-20210625/1009315-light/run1009315-light.h5 tag-1490903124//
/work/sebastian/BT-20210625/1009315-light/run1009315-light.h5 tag-1490903130//
/work/sebastian/BT-20210625/1009315-light/run1009315-light.h5 tag-1490903136//
/work/sebastian/BT-20210625/1009315-light/run1009315-light.h5 tag-1490903154//
/work/sebastian/BT-20210625/1009315-light/run1009315-light.h5 tag-1490903158//
/work/sebastian/BT-20210625/1009315-light/run1009315-light.h5 tag-1490903160//
/work/sebastian/BT-20210625/1009315-light/run1009315-light.h5 tag-1490903174//
/work/sebastian/BT-20210625/1009315-light/run1009315-light.h5 tag-1490903182//
/work/sebastian/BT-20210625/1009315-light/run1009315-light.h5 tag-1490903184//
/work/sebastian/BT-20210625/1009315-light/run1009315-light.h5 tag-1490903186//
/work/sebastian/BT-20210625/1009315-light/run1009315-light.h5 tag-1490903190//
/work/sebastian/BT-20210625/1009315-light/run1009315-light.h5 tag-1490903194//
/work/sebastian/BT-20210625/1009315-light/run1009315-light.h5 tag-1490903196//
/work/sebastian/BT-20210625/1009315-light/run1009315-light.h5 tag-1490903214//
/work/sebastian/BT-20210625/1009315-light/run1009315-light.h5 tag-1490903216//
/work/sebastian/BT-20210625/1009315-light/run1009315-light.h5 tag-1490903222//
/work/sebastian/BT-20210625/1009315-light/run1009315-light.h5 tag-1490903224//
/work/sebastian/BT-20210625/1009315-light/run1009315-light.h5 tag-1490903230//
/work/sebastian/BT-20210625/1009315-light/run1009315-light.h5 tag-1490903232//
/work/sebastian/BT-20210625/1009315-light/run1009315-light.h5 tag-1490903250//
/work/sebastian/BT-20210625/1009315-light/run1009315-light.h5 tag-1490903266//
/work/sebastian/BT-20210625/1009315-light/run1009315-light.h5 tag-1490903270//
/work/sebastian/BT-20210625/1009315-light/run1009315-light.h5 tag-1490903272//
/work/sebastian/BT-20210625/1009315-light/run1009315-light.h5 tag-1490903280//
/work/sebastian/BT-20210625/1009315-light/run1009315-light.h5 tag-1490903304//
/work/sebastian/BT-20210625/1009315-light/run1009315-light.h5 tag-1490903306//
/work/sebastian/BT-20210625/1009315-light/run1009315-light.h5 tag-1490903310//
/work/sebastian/BT-20210625/1009315-light/run1009315-light.h5 tag-1490903314//
/work/sebastian/BT-20210625/1009315-light/run1009315-light.h5 tag-1490903324//
/work/sebastian/BT-20210625/1009315-light/run1009315-light.h5 tag-1490903328//
/work/sebastian/BT-20210625/1009315-light/run1009315-light.h5 tag-1490903330//
/work/sebastian/BT-20210625/1009315-light/run1009315-light.h5 tag-1490903332//
/work/sebastian/BT-20210625/1009315-light/run1009315-light.h5 tag-1490903342//
/work/sebastian/BT-20210625/1009315-light/run1009315-light.h5 tag-1490903348//
/work/sebastian/BT-20210625/1009315-light/run1009315-light.h5 tag-1490903356//
/work/sebastian/BT-20210625/1009315-light/run1009315-light.h5 tag-1490903358//
/work/sebastian/BT-20210625/1009315-light/run1009315-light.h5 tag-1490903360//
/work/sebastian/BT-20210625/1009315-light/run1009315-light.h5 tag-1490903380//
/work/sebastian/BT-20210625/1009315-light/run1009315-light.h5 tag-1490903386//
/work/sebastian/BT-20210625/1009315-light/run1009315-light.h5 tag-1490903392//
/work/sebastian/BT-20210625/1009315-light/run1009315-light.h5 tag-1490903402//
