/work/sebastian/BT-20210625/1009629-light/run1009629-light.h5 tag-1495412864//
/work/sebastian/BT-20210625/1009629-light/run1009629-light.h5 tag-1495412872//
/work/sebastian/BT-20210625/1009629-light/run1009629-light.h5 tag-1495412876//
/work/sebastian/BT-20210625/1009629-light/run1009629-light.h5 tag-1495412908//
/work/sebastian/BT-20210625/1009629-light/run1009629-light.h5 tag-1495412920//
/work/sebastian/BT-20210625/1009629-light/run1009629-light.h5 tag-1495412940//
/work/sebastian/BT-20210625/1009629-light/run1009629-light.h5 tag-1495412948//
/work/sebastian/BT-20210625/1009629-light/run1009629-light.h5 tag-1495412952//
/work/sebastian/BT-20210625/1009629-light/run1009629-light.h5 tag-1495412956//
/work/sebastian/BT-20210625/1009629-light/run1009629-light.h5 tag-1495412964//
/work/sebastian/BT-20210625/1009629-light/run1009629-light.h5 tag-1495412976//
/work/sebastian/BT-20210625/1009629-light/run1009629-light.h5 tag-1495412984//
/work/sebastian/BT-20210625/1009629-light/run1009629-light.h5 tag-1495412992//
/work/sebastian/BT-20210625/1009629-light/run1009629-light.h5 tag-1495413056//
/work/sebastian/BT-20210625/1009629-light/run1009629-light.h5 tag-1495413060//
/work/sebastian/BT-20210625/1009629-light/run1009629-light.h5 tag-1495413064//
/work/sebastian/BT-20210625/1009629-light/run1009629-light.h5 tag-1495413068//
/work/sebastian/BT-20210625/1009629-light/run1009629-light.h5 tag-1495413080//
/work/sebastian/BT-20210625/1009629-light/run1009629-light.h5 tag-1495413116//
/work/sebastian/BT-20210625/1009629-light/run1009629-light.h5 tag-1495413124//
/work/sebastian/BT-20210625/1009629-light/run1009629-light.h5 tag-1495413136//
/work/sebastian/BT-20210625/1009629-light/run1009629-light.h5 tag-1495413140//
/work/sebastian/BT-20210625/1009629-light/run1009629-light.h5 tag-1495413148//
/work/sebastian/BT-20210625/1009629-light/run1009629-light.h5 tag-1495413164//
/work/sebastian/BT-20210625/1009629-light/run1009629-light.h5 tag-1495413188//
/work/sebastian/BT-20210625/1009629-light/run1009629-light.h5 tag-1495413200//
/work/sebastian/BT-20210625/1009629-light/run1009629-light.h5 tag-1495413232//
/work/sebastian/BT-20210625/1009629-light/run1009629-light.h5 tag-1495413244//
/work/sebastian/BT-20210625/1009629-light/run1009629-light.h5 tag-1495413256//
/work/sebastian/BT-20210625/1009629-light/run1009629-light.h5 tag-1495413260//
/work/sebastian/BT-20210625/1009629-light/run1009629-light.h5 tag-1495413276//
/work/sebastian/BT-20210625/1009629-light/run1009629-light.h5 tag-1495413288//
/work/sebastian/BT-20210625/1009629-light/run1009629-light.h5 tag-1495413300//
/work/sebastian/BT-20210625/1009629-light/run1009629-light.h5 tag-1495413304//
/work/sebastian/BT-20210625/1009629-light/run1009629-light.h5 tag-1495413308//
/work/sebastian/BT-20210625/1009629-light/run1009629-light.h5 tag-1495413316//
/work/sebastian/BT-20210625/1009629-light/run1009629-light.h5 tag-1495413336//
/work/sebastian/BT-20210625/1009629-light/run1009629-light.h5 tag-1495413344//
/work/sebastian/BT-20210625/1009629-light/run1009629-light.h5 tag-1495413360//
/work/sebastian/BT-20210625/1009629-light/run1009629-light.h5 tag-1495413380//
/work/sebastian/BT-20210625/1009629-light/run1009629-light.h5 tag-1495413384//
/work/sebastian/BT-20210625/1009629-light/run1009629-light.h5 tag-1495413400//
/work/sebastian/BT-20210625/1009629-light/run1009629-light.h5 tag-1495413408//
/work/sebastian/BT-20210625/1009629-light/run1009629-light.h5 tag-1495413416//
/work/sebastian/BT-20210625/1009629-light/run1009629-light.h5 tag-1495413432//
/work/sebastian/BT-20210625/1009629-light/run1009629-light.h5 tag-1495413440//
/work/sebastian/BT-20210625/1009629-light/run1009629-light.h5 tag-1495413464//
/work/sebastian/BT-20210625/1009629-light/run1009629-light.h5 tag-1495413472//
/work/sebastian/BT-20210625/1009629-light/run1009629-light.h5 tag-1495413476//
/work/sebastian/BT-20210625/1009629-light/run1009629-light.h5 tag-1495413484//
/work/sebastian/BT-20210625/1009629-light/run1009629-light.h5 tag-1495413496//
/work/sebastian/BT-20210625/1009629-light/run1009629-light.h5 tag-1495413500//
/work/sebastian/BT-20210625/1009629-light/run1009629-light.h5 tag-1495413516//
/work/sebastian/BT-20210625/1009629-light/run1009629-light.h5 tag-1495413520//
/work/sebastian/BT-20210625/1009629-light/run1009629-light.h5 tag-1495413524//
/work/sebastian/BT-20210625/1009629-light/run1009629-light.h5 tag-1495413536//
/work/sebastian/BT-20210625/1009629-light/run1009629-light.h5 tag-1495413544//
/work/sebastian/BT-20210625/1009629-light/run1009629-light.h5 tag-1495413600//
/work/sebastian/BT-20210625/1009629-light/run1009629-light.h5 tag-1495413616//
/work/sebastian/BT-20210625/1009629-light/run1009629-light.h5 tag-1495413624//
/work/sebastian/BT-20210625/1009629-light/run1009629-light.h5 tag-1495413636//
/work/sebastian/BT-20210625/1009629-light/run1009629-light.h5 tag-1495413644//
/work/sebastian/BT-20210625/1009629-light/run1009629-light.h5 tag-1495413652//
/work/sebastian/BT-20210625/1009629-light/run1009629-light.h5 tag-1495413656//
/work/sebastian/BT-20210625/1009629-light/run1009629-light.h5 tag-1495413660//
/work/sebastian/BT-20210625/1009629-light/run1009629-light.h5 tag-1495413672//
/work/sebastian/BT-20210625/1009629-light/run1009629-light.h5 tag-1495413676//
/work/sebastian/BT-20210625/1009629-light/run1009629-light.h5 tag-1495413680//
/work/sebastian/BT-20210625/1009629-light/run1009629-light.h5 tag-1495413684//
/work/sebastian/BT-20210625/1009629-light/run1009629-light.h5 tag-1495413692//
/work/sebastian/BT-20210625/1009629-light/run1009629-light.h5 tag-1495413708//
/work/sebastian/BT-20210625/1009629-light/run1009629-light.h5 tag-1495413712//
/work/sebastian/BT-20210625/1009629-light/run1009629-light.h5 tag-1495413720//
/work/sebastian/BT-20210625/1009629-light/run1009629-light.h5 tag-1495413724//
/work/sebastian/BT-20210625/1009629-light/run1009629-light.h5 tag-1495413736//
/work/sebastian/BT-20210625/1009629-light/run1009629-light.h5 tag-1495413760//
/work/sebastian/BT-20210625/1009629-light/run1009629-light.h5 tag-1495413764//
/work/sebastian/BT-20210625/1009629-light/run1009629-light.h5 tag-1495413776//
/work/sebastian/BT-20210625/1009629-light/run1009629-light.h5 tag-1495413780//
/work/sebastian/BT-20210625/1009629-light/run1009629-light.h5 tag-1495413784//
/work/sebastian/BT-20210625/1009629-light/run1009629-light.h5 tag-1495413788//
/work/sebastian/BT-20210625/1009629-light/run1009629-light.h5 tag-1495413796//
/work/sebastian/BT-20210625/1009629-light/run1009629-light.h5 tag-1495413804//
/work/sebastian/BT-20210625/1009629-light/run1009629-light.h5 tag-1495413816//
/work/sebastian/BT-20210625/1009629-light/run1009629-light.h5 tag-1495413824//
/work/sebastian/BT-20210625/1009629-light/run1009629-light.h5 tag-1495413840//
/work/sebastian/BT-20210625/1009629-light/run1009629-light.h5 tag-1495413844//
/work/sebastian/BT-20210625/1009629-light/run1009629-light.h5 tag-1495413848//
/work/sebastian/BT-20210625/1009629-light/run1009629-light.h5 tag-1495413932//
/work/sebastian/BT-20210625/1009629-light/run1009629-light.h5 tag-1495413976//
/work/sebastian/BT-20210625/1009629-light/run1009629-light.h5 tag-1495413980//
/work/sebastian/BT-20210625/1009629-light/run1009629-light.h5 tag-1495413988//
/work/sebastian/BT-20210625/1009629-light/run1009629-light.h5 tag-1495413992//
/work/sebastian/BT-20210625/1009629-light/run1009629-light.h5 tag-1495414012//
/work/sebastian/BT-20210625/1009629-light/run1009629-light.h5 tag-1495414032//
/work/sebastian/BT-20210625/1009629-light/run1009629-light.h5 tag-1495414036//
/work/sebastian/BT-20210625/1009629-light/run1009629-light.h5 tag-1495414044//
/work/sebastian/BT-20210625/1009629-light/run1009629-light.h5 tag-1495414052//
/work/sebastian/BT-20210625/1009629-light/run1009629-light.h5 tag-1495414056//
/work/sebastian/BT-20210625/1009629-light/run1009629-light.h5 tag-1495414084//
/work/sebastian/BT-20210625/1009629-light/run1009629-light.h5 tag-1495414100//
/work/sebastian/BT-20210625/1009629-light/run1009629-light.h5 tag-1495414108//
/work/sebastian/BT-20210625/1009629-light/run1009629-light.h5 tag-1495414112//
/work/sebastian/BT-20210625/1009629-light/run1009629-light.h5 tag-1495414120//
/work/sebastian/BT-20210625/1009629-light/run1009629-light.h5 tag-1495414164//
/work/sebastian/BT-20210625/1009629-light/run1009629-light.h5 tag-1495414192//
/work/sebastian/BT-20210625/1009629-light/run1009629-light.h5 tag-1495414196//
/work/sebastian/BT-20210625/1009629-light/run1009629-light.h5 tag-1495414204//
/work/sebastian/BT-20210625/1009629-light/run1009629-light.h5 tag-1495414224//
/work/sebastian/BT-20210625/1009629-light/run1009629-light.h5 tag-1495414228//
/work/sebastian/BT-20210625/1009629-light/run1009629-light.h5 tag-1495414248//
/work/sebastian/BT-20210625/1009629-light/run1009629-light.h5 tag-1495414260//
/work/sebastian/BT-20210625/1009629-light/run1009629-light.h5 tag-1495414264//
/work/sebastian/BT-20210625/1009629-light/run1009629-light.h5 tag-1495414292//
/work/sebastian/BT-20210625/1009629-light/run1009629-light.h5 tag-1495414300//
/work/sebastian/BT-20210625/1009629-light/run1009629-light.h5 tag-1495414304//
/work/sebastian/BT-20210625/1009629-light/run1009629-light.h5 tag-1495414308//
/work/sebastian/BT-20210625/1009629-light/run1009629-light.h5 tag-1495414336//
/work/sebastian/BT-20210625/1009629-light/run1009629-light.h5 tag-1495414340//
/work/sebastian/BT-20210625/1009629-light/run1009629-light.h5 tag-1495414356//
/work/sebastian/BT-20210625/1009629-light/run1009629-light.h5 tag-1495414360//
/work/sebastian/BT-20210625/1009629-light/run1009629-light.h5 tag-1495414372//
/work/sebastian/BT-20210625/1009629-light/run1009629-light.h5 tag-1495414380//
/work/sebastian/BT-20210625/1009629-light/run1009629-light.h5 tag-1495414384//
/work/sebastian/BT-20210625/1009629-light/run1009629-light.h5 tag-1495414440//
/work/sebastian/BT-20210625/1009629-light/run1009629-light.h5 tag-1495414456//
/work/sebastian/BT-20210625/1009629-light/run1009629-light.h5 tag-1495414464//
/work/sebastian/BT-20210625/1009629-light/run1009629-light.h5 tag-1495414496//
/work/sebastian/BT-20210625/1009629-light/run1009629-light.h5 tag-1495414520//
/work/sebastian/BT-20210625/1009629-light/run1009629-light.h5 tag-1495414528//
/work/sebastian/BT-20210625/1009629-light/run1009629-light.h5 tag-1495414548//
/work/sebastian/BT-20210625/1009629-light/run1009629-light.h5 tag-1495414568//
/work/sebastian/BT-20210625/1009629-light/run1009629-light.h5 tag-1495414572//
/work/sebastian/BT-20210625/1009629-light/run1009629-light.h5 tag-1495414580//
/work/sebastian/BT-20210625/1009629-light/run1009629-light.h5 tag-1495414584//
/work/sebastian/BT-20210625/1009629-light/run1009629-light.h5 tag-1495414596//
/work/sebastian/BT-20210625/1009629-light/run1009629-light.h5 tag-1495414616//
/work/sebastian/BT-20210625/1009629-light/run1009629-light.h5 tag-1495414640//
/work/sebastian/BT-20210625/1009629-light/run1009629-light.h5 tag-1495414652//
/work/sebastian/BT-20210625/1009629-light/run1009629-light.h5 tag-1495414668//
/work/sebastian/BT-20210625/1009629-light/run1009629-light.h5 tag-1495414680//
/work/sebastian/BT-20210625/1009629-light/run1009629-light.h5 tag-1495414688//
/work/sebastian/BT-20210625/1009629-light/run1009629-light.h5 tag-1495414704//
/work/sebastian/BT-20210625/1009629-light/run1009629-light.h5 tag-1495414716//
/work/sebastian/BT-20210625/1009629-light/run1009629-light.h5 tag-1495414724//
/work/sebastian/BT-20210625/1009629-light/run1009629-light.h5 tag-1495414732//
/work/sebastian/BT-20210625/1009629-light/run1009629-light.h5 tag-1495414744//
/work/sebastian/BT-20210625/1009629-light/run1009629-light.h5 tag-1495414764//
/work/sebastian/BT-20210625/1009629-light/run1009629-light.h5 tag-1495414776//
/work/sebastian/BT-20210625/1009629-light/run1009629-light.h5 tag-1495414780//
/work/sebastian/BT-20210625/1009629-light/run1009629-light.h5 tag-1495414788//
/work/sebastian/BT-20210625/1009629-light/run1009629-light.h5 tag-1495414804//
/work/sebastian/BT-20210625/1009629-light/run1009629-light.h5 tag-1495414808//
/work/sebastian/BT-20210625/1009629-light/run1009629-light.h5 tag-1495414860//
/work/sebastian/BT-20210625/1009629-light/run1009629-light.h5 tag-1495414896//
/work/sebastian/BT-20210625/1009629-light/run1009629-light.h5 tag-1495414900//
/work/sebastian/BT-20210625/1009629-light/run1009629-light.h5 tag-1495414924//
/work/sebastian/BT-20210625/1009629-light/run1009629-light.h5 tag-1495414968//
/work/sebastian/BT-20210625/1009629-light/run1009629-light.h5 tag-1495414976//
/work/sebastian/BT-20210625/1009629-light/run1009629-light.h5 tag-1495414988//
/work/sebastian/BT-20210625/1009629-light/run1009629-light.h5 tag-1495414992//
/work/sebastian/BT-20210625/1009629-light/run1009629-light.h5 tag-1495415000//
/work/sebastian/BT-20210625/1009629-light/run1009629-light.h5 tag-1495415012//
/work/sebastian/BT-20210625/1009629-light/run1009629-light.h5 tag-1495415040//
/work/sebastian/BT-20210625/1009629-light/run1009629-light.h5 tag-1495415056//
/work/sebastian/BT-20210625/1009629-light/run1009629-light.h5 tag-1495415060//
/work/sebastian/BT-20210625/1009629-light/run1009629-light.h5 tag-1495415064//
/work/sebastian/BT-20210625/1009629-light/run1009629-light.h5 tag-1495415080//
/work/sebastian/BT-20210625/1009629-light/run1009629-light.h5 tag-1495415084//
/work/sebastian/BT-20210625/1009629-light/run1009629-light.h5 tag-1495415100//
/work/sebastian/BT-20210625/1009629-light/run1009629-light.h5 tag-1495415104//
/work/sebastian/BT-20210625/1009629-light/run1009629-light.h5 tag-1495415108//
/work/sebastian/BT-20210625/1009629-light/run1009629-light.h5 tag-1495415156//
/work/sebastian/BT-20210625/1009629-light/run1009629-light.h5 tag-1495415180//
/work/sebastian/BT-20210625/1009629-light/run1009629-light.h5 tag-1495415192//
/work/sebastian/BT-20210625/1009629-light/run1009629-light.h5 tag-1495415200//
/work/sebastian/BT-20210625/1009629-light/run1009629-light.h5 tag-1495415212//
/work/sebastian/BT-20210625/1009629-light/run1009629-light.h5 tag-1495415216//
/work/sebastian/BT-20210625/1009629-light/run1009629-light.h5 tag-1495415224//
/work/sebastian/BT-20210625/1009629-light/run1009629-light.h5 tag-1495415236//
/work/sebastian/BT-20210625/1009629-light/run1009629-light.h5 tag-1495415240//
/work/sebastian/BT-20210625/1009629-light/run1009629-light.h5 tag-1495415252//
/work/sebastian/BT-20210625/1009629-light/run1009629-light.h5 tag-1495415304//
/work/sebastian/BT-20210625/1009629-light/run1009629-light.h5 tag-1495415312//
/work/sebastian/BT-20210625/1009629-light/run1009629-light.h5 tag-1495415324//
/work/sebastian/BT-20210625/1009629-light/run1009629-light.h5 tag-1495415360//
/work/sebastian/BT-20210625/1009629-light/run1009629-light.h5 tag-1495415372//
/work/sebastian/BT-20210625/1009629-light/run1009629-light.h5 tag-1495415396//
/work/sebastian/BT-20210625/1009629-light/run1009629-light.h5 tag-1495415404//
/work/sebastian/BT-20210625/1009629-light/run1009629-light.h5 tag-1495415408//
/work/sebastian/BT-20210625/1009629-light/run1009629-light.h5 tag-1495415420//
/work/sebastian/BT-20210625/1009629-light/run1009629-light.h5 tag-1495415424//
/work/sebastian/BT-20210625/1009629-light/run1009629-light.h5 tag-1495415428//
/work/sebastian/BT-20210625/1009629-light/run1009629-light.h5 tag-1495415436//
/work/sebastian/BT-20210625/1009629-light/run1009629-light.h5 tag-1495415456//
/work/sebastian/BT-20210625/1009629-light/run1009629-light.h5 tag-1495415468//
/work/sebastian/BT-20210625/1009629-light/run1009629-light.h5 tag-1495415492//
/work/sebastian/BT-20210625/1009629-light/run1009629-light.h5 tag-1495415508//
/work/sebastian/BT-20210625/1009629-light/run1009629-light.h5 tag-1495415512//
/work/sebastian/BT-20210625/1009629-light/run1009629-light.h5 tag-1495415528//
/work/sebastian/BT-20210625/1009629-light/run1009629-light.h5 tag-1495415540//
/work/sebastian/BT-20210625/1009629-light/run1009629-light.h5 tag-1495415544//
/work/sebastian/BT-20210625/1009629-light/run1009629-light.h5 tag-1495415548//
/work/sebastian/BT-20210625/1009629-light/run1009629-light.h5 tag-1495415568//
/work/sebastian/BT-20210625/1009629-light/run1009629-light.h5 tag-1495415572//
/work/sebastian/BT-20210625/1009629-light/run1009629-light.h5 tag-1495415604//
/work/sebastian/BT-20210625/1009629-light/run1009629-light.h5 tag-1495415624//
/work/sebastian/BT-20210625/1009629-light/run1009629-light.h5 tag-1495415632//
/work/sebastian/BT-20210625/1009629-light/run1009629-light.h5 tag-1495415636//
/work/sebastian/BT-20210625/1009629-light/run1009629-light.h5 tag-1495415684//
/work/sebastian/BT-20210625/1009629-light/run1009629-light.h5 tag-1495415688//
/work/sebastian/BT-20210625/1009629-light/run1009629-light.h5 tag-1495415692//
/work/sebastian/BT-20210625/1009629-light/run1009629-light.h5 tag-1495415696//
/work/sebastian/BT-20210625/1009629-light/run1009629-light.h5 tag-1495415708//
/work/sebastian/BT-20210625/1009629-light/run1009629-light.h5 tag-1495415712//
/work/sebastian/BT-20210625/1009629-light/run1009629-light.h5 tag-1495415740//
/work/sebastian/BT-20210625/1009629-light/run1009629-light.h5 tag-1495415752//
/work/sebastian/BT-20210625/1009629-light/run1009629-light.h5 tag-1495415760//
/work/sebastian/BT-20210625/1009629-light/run1009629-light.h5 tag-1495415772//
/work/sebastian/BT-20210625/1009629-light/run1009629-light.h5 tag-1495415796//
/work/sebastian/BT-20210625/1009629-light/run1009629-light.h5 tag-1495415804//
/work/sebastian/BT-20210625/1009629-light/run1009629-light.h5 tag-1495415828//
/work/sebastian/BT-20210625/1009629-light/run1009629-light.h5 tag-1495415836//
/work/sebastian/BT-20210625/1009629-light/run1009629-light.h5 tag-1495415848//
/work/sebastian/BT-20210625/1009629-light/run1009629-light.h5 tag-1495415872//
/work/sebastian/BT-20210625/1009629-light/run1009629-light.h5 tag-1495415876//
/work/sebastian/BT-20210625/1009629-light/run1009629-light.h5 tag-1495415904//
/work/sebastian/BT-20210625/1009629-light/run1009629-light.h5 tag-1495415980//
/work/sebastian/BT-20210625/1009629-light/run1009629-light.h5 tag-1495415984//
/work/sebastian/BT-20210625/1009629-light/run1009629-light.h5 tag-1495416012//
/work/sebastian/BT-20210625/1009629-light/run1009629-light.h5 tag-1495416024//
/work/sebastian/BT-20210625/1009629-light/run1009629-light.h5 tag-1495416036//
/work/sebastian/BT-20210625/1009629-light/run1009629-light.h5 tag-1495416056//
/work/sebastian/BT-20210625/1009629-light/run1009629-light.h5 tag-1495416060//
/work/sebastian/BT-20210625/1009629-light/run1009629-light.h5 tag-1495416076//
/work/sebastian/BT-20210625/1009629-light/run1009629-light.h5 tag-1495416080//
/work/sebastian/BT-20210625/1009629-light/run1009629-light.h5 tag-1495416092//
/work/sebastian/BT-20210625/1009629-light/run1009629-light.h5 tag-1495416112//
/work/sebastian/BT-20210625/1009629-light/run1009629-light.h5 tag-1495416116//
/work/sebastian/BT-20210625/1009629-light/run1009629-light.h5 tag-1495416128//
/work/sebastian/BT-20210625/1009629-light/run1009629-light.h5 tag-1495416152//
/work/sebastian/BT-20210625/1009629-light/run1009629-light.h5 tag-1495416168//
/work/sebastian/BT-20210625/1009629-light/run1009629-light.h5 tag-1495416172//
/work/sebastian/BT-20210625/1009629-light/run1009629-light.h5 tag-1495416192//
/work/sebastian/BT-20210625/1009629-light/run1009629-light.h5 tag-1495416212//
/work/sebastian/BT-20210625/1009629-light/run1009629-light.h5 tag-1495416220//
/work/sebastian/BT-20210625/1009629-light/run1009629-light.h5 tag-1495416236//
/work/sebastian/BT-20210625/1009629-light/run1009629-light.h5 tag-1495416256//
/work/sebastian/BT-20210625/1009629-light/run1009629-light.h5 tag-1495416260//
/work/sebastian/BT-20210625/1009629-light/run1009629-light.h5 tag-1495416272//
/work/sebastian/BT-20210625/1009629-light/run1009629-light.h5 tag-1495416288//
/work/sebastian/BT-20210625/1009629-light/run1009629-light.h5 tag-1495416312//
/work/sebastian/BT-20210625/1009629-light/run1009629-light.h5 tag-1495416328//
/work/sebastian/BT-20210625/1009629-light/run1009629-light.h5 tag-1495416356//
/work/sebastian/BT-20210625/1009629-light/run1009629-light.h5 tag-1495416360//
/work/sebastian/BT-20210625/1009629-light/run1009629-light.h5 tag-1495416364//
/work/sebastian/BT-20210625/1009629-light/run1009629-light.h5 tag-1495416368//
/work/sebastian/BT-20210625/1009629-light/run1009629-light.h5 tag-1495416396//
/work/sebastian/BT-20210625/1009629-light/run1009629-light.h5 tag-1495416404//
/work/sebastian/BT-20210625/1009629-light/run1009629-light.h5 tag-1495416416//
/work/sebastian/BT-20210625/1009629-light/run1009629-light.h5 tag-1495416424//
/work/sebastian/BT-20210625/1009629-light/run1009629-light.h5 tag-1495416444//
/work/sebastian/BT-20210625/1009629-light/run1009629-light.h5 tag-1495416472//
/work/sebastian/BT-20210625/1009629-light/run1009629-light.h5 tag-1495416496//
/work/sebastian/BT-20210625/1009629-light/run1009629-light.h5 tag-1495416516//
/work/sebastian/BT-20210625/1009629-light/run1009629-light.h5 tag-1495416524//
/work/sebastian/BT-20210625/1009629-light/run1009629-light.h5 tag-1495416528//
/work/sebastian/BT-20210625/1009629-light/run1009629-light.h5 tag-1495416552//
/work/sebastian/BT-20210625/1009629-light/run1009629-light.h5 tag-1495416600//
/work/sebastian/BT-20210625/1009629-light/run1009629-light.h5 tag-1495416604//
/work/sebastian/BT-20210625/1009629-light/run1009629-light.h5 tag-1495416624//
/work/sebastian/BT-20210625/1009629-light/run1009629-light.h5 tag-1495416644//
/work/sebastian/BT-20210625/1009629-light/run1009629-light.h5 tag-1495416652//
/work/sebastian/BT-20210625/1009629-light/run1009629-light.h5 tag-1495416684//
/work/sebastian/BT-20210625/1009629-light/run1009629-light.h5 tag-1495416688//
/work/sebastian/BT-20210625/1009629-light/run1009629-light.h5 tag-1495416696//
/work/sebastian/BT-20210625/1009629-light/run1009629-light.h5 tag-1495416712//
/work/sebastian/BT-20210625/1009629-light/run1009629-light.h5 tag-1495416720//
/work/sebastian/BT-20210625/1009629-light/run1009629-light.h5 tag-1495416724//
/work/sebastian/BT-20210625/1009629-light/run1009629-light.h5 tag-1495416732//
/work/sebastian/BT-20210625/1009629-light/run1009629-light.h5 tag-1495416764//
/work/sebastian/BT-20210625/1009629-light/run1009629-light.h5 tag-1495416768//
/work/sebastian/BT-20210625/1009629-light/run1009629-light.h5 tag-1495416772//
/work/sebastian/BT-20210625/1009629-light/run1009629-light.h5 tag-1495416784//
/work/sebastian/BT-20210625/1009629-light/run1009629-light.h5 tag-1495416792//
/work/sebastian/BT-20210625/1009629-light/run1009629-light.h5 tag-1495416796//
/work/sebastian/BT-20210625/1009629-light/run1009629-light.h5 tag-1495416828//
/work/sebastian/BT-20210625/1009629-light/run1009629-light.h5 tag-1495416832//
/work/sebastian/BT-20210625/1009629-light/run1009629-light.h5 tag-1495416852//
/work/sebastian/BT-20210625/1009629-light/run1009629-light.h5 tag-1495416856//
/work/sebastian/BT-20210625/1009629-light/run1009629-light.h5 tag-1495416860//
/work/sebastian/BT-20210625/1009629-light/run1009629-light.h5 tag-1495416872//
/work/sebastian/BT-20210625/1009629-light/run1009629-light.h5 tag-1495416876//
/work/sebastian/BT-20210625/1009629-light/run1009629-light.h5 tag-1495416880//
/work/sebastian/BT-20210625/1009629-light/run1009629-light.h5 tag-1495416888//
/work/sebastian/BT-20210625/1009629-light/run1009629-light.h5 tag-1495416904//
/work/sebastian/BT-20210625/1009629-light/run1009629-light.h5 tag-1495416908//
/work/sebastian/BT-20210625/1009629-light/run1009629-light.h5 tag-1495416912//
/work/sebastian/BT-20210625/1009629-light/run1009629-light.h5 tag-1495416920//
/work/sebastian/BT-20210625/1009629-light/run1009629-light.h5 tag-1495416928//
/work/sebastian/BT-20210625/1009629-light/run1009629-light.h5 tag-1495416944//
/work/sebastian/BT-20210625/1009629-light/run1009629-light.h5 tag-1495416952//
/work/sebastian/BT-20210625/1009629-light/run1009629-light.h5 tag-1495416960//
/work/sebastian/BT-20210625/1009629-light/run1009629-light.h5 tag-1495416968//
/work/sebastian/BT-20210625/1009629-light/run1009629-light.h5 tag-1495416976//
/work/sebastian/BT-20210625/1009629-light/run1009629-light.h5 tag-1495417004//
/work/sebastian/BT-20210625/1009629-light/run1009629-light.h5 tag-1495417008//
/work/sebastian/BT-20210625/1009629-light/run1009629-light.h5 tag-1495417012//
/work/sebastian/BT-20210625/1009629-light/run1009629-light.h5 tag-1495417028//
/work/sebastian/BT-20210625/1009629-light/run1009629-light.h5 tag-1495417036//
/work/sebastian/BT-20210625/1009629-light/run1009629-light.h5 tag-1495417048//
/work/sebastian/BT-20210625/1009629-light/run1009629-light.h5 tag-1495417060//
/work/sebastian/BT-20210625/1009629-light/run1009629-light.h5 tag-1495417064//
/work/sebastian/BT-20210625/1009629-light/run1009629-light.h5 tag-1495417076//
/work/sebastian/BT-20210625/1009629-light/run1009629-light.h5 tag-1495417084//
/work/sebastian/BT-20210625/1009629-light/run1009629-light.h5 tag-1495417088//
/work/sebastian/BT-20210625/1009629-light/run1009629-light.h5 tag-1495417096//
/work/sebastian/BT-20210625/1009629-light/run1009629-light.h5 tag-1495417120//
/work/sebastian/BT-20210625/1009629-light/run1009629-light.h5 tag-1495417124//
/work/sebastian/BT-20210625/1009629-light/run1009629-light.h5 tag-1495417128//
/work/sebastian/BT-20210625/1009629-light/run1009629-light.h5 tag-1495417132//
/work/sebastian/BT-20210625/1009629-light/run1009629-light.h5 tag-1495417136//
/work/sebastian/BT-20210625/1009629-light/run1009629-light.h5 tag-1495417140//
/work/sebastian/BT-20210625/1009629-light/run1009629-light.h5 tag-1495417144//
/work/sebastian/BT-20210625/1009629-light/run1009629-light.h5 tag-1495417156//
/work/sebastian/BT-20210625/1009629-light/run1009629-light.h5 tag-1495417176//
/work/sebastian/BT-20210625/1009629-light/run1009629-light.h5 tag-1495417184//
/work/sebastian/BT-20210625/1009629-light/run1009629-light.h5 tag-1495417188//
/work/sebastian/BT-20210625/1009629-light/run1009629-light.h5 tag-1495417196//
/work/sebastian/BT-20210625/1009629-light/run1009629-light.h5 tag-1495417228//
/work/sebastian/BT-20210625/1009629-light/run1009629-light.h5 tag-1495417232//
/work/sebastian/BT-20210625/1009629-light/run1009629-light.h5 tag-1495417240//
/work/sebastian/BT-20210625/1009629-light/run1009629-light.h5 tag-1495417296//
/work/sebastian/BT-20210625/1009629-light/run1009629-light.h5 tag-1495417304//
/work/sebastian/BT-20210625/1009629-light/run1009629-light.h5 tag-1495417324//
/work/sebastian/BT-20210625/1009629-light/run1009629-light.h5 tag-1495417356//
/work/sebastian/BT-20210625/1009629-light/run1009629-light.h5 tag-1495417360//
/work/sebastian/BT-20210625/1009629-light/run1009629-light.h5 tag-1495417364//
/work/sebastian/BT-20210625/1009629-light/run1009629-light.h5 tag-1495417388//
/work/sebastian/BT-20210625/1009629-light/run1009629-light.h5 tag-1495417420//
/work/sebastian/BT-20210625/1009629-light/run1009629-light.h5 tag-1495417440//
/work/sebastian/BT-20210625/1009629-light/run1009629-light.h5 tag-1495417456//
/work/sebastian/BT-20210625/1009629-light/run1009629-light.h5 tag-1495417476//
/work/sebastian/BT-20210625/1009629-light/run1009629-light.h5 tag-1495417484//
/work/sebastian/BT-20210625/1009629-light/run1009629-light.h5 tag-1495417488//
/work/sebastian/BT-20210625/1009629-light/run1009629-light.h5 tag-1495417492//
/work/sebastian/BT-20210625/1009629-light/run1009629-light.h5 tag-1495417512//
/work/sebastian/BT-20210625/1009629-light/run1009629-light.h5 tag-1495417656//
/work/sebastian/BT-20210625/1009629-light/run1009629-light.h5 tag-1495417660//
/work/sebastian/BT-20210625/1009629-light/run1009629-light.h5 tag-1495417684//
/work/sebastian/BT-20210625/1009629-light/run1009629-light.h5 tag-1495417696//
/work/sebastian/BT-20210625/1009629-light/run1009629-light.h5 tag-1495417760//
/work/sebastian/BT-20210625/1009629-light/run1009629-light.h5 tag-1495417764//
/work/sebastian/BT-20210625/1009629-light/run1009629-light.h5 tag-1495417812//
/work/sebastian/BT-20210625/1009629-light/run1009629-light.h5 tag-1495417824//
/work/sebastian/BT-20210625/1009629-light/run1009629-light.h5 tag-1495417884//
/work/sebastian/BT-20210625/1009629-light/run1009629-light.h5 tag-1495417940//
/work/sebastian/BT-20210625/1009629-light/run1009629-light.h5 tag-1495417956//
/work/sebastian/BT-20210625/1009629-light/run1009629-light.h5 tag-1495417960//
/work/sebastian/BT-20210625/1009629-light/run1009629-light.h5 tag-1495417976//
/work/sebastian/BT-20210625/1009629-light/run1009629-light.h5 tag-1495417992//
/work/sebastian/BT-20210625/1009629-light/run1009629-light.h5 tag-1495417996//
/work/sebastian/BT-20210625/1009629-light/run1009629-light.h5 tag-1495418012//
/work/sebastian/BT-20210625/1009629-light/run1009629-light.h5 tag-1495418024//
/work/sebastian/BT-20210625/1009629-light/run1009629-light.h5 tag-1495418044//
/work/sebastian/BT-20210625/1009629-light/run1009629-light.h5 tag-1495418056//
/work/sebastian/BT-20210625/1009629-light/run1009629-light.h5 tag-1495418068//
/work/sebastian/BT-20210625/1009629-light/run1009629-light.h5 tag-1495418100//
/work/sebastian/BT-20210625/1009629-light/run1009629-light.h5 tag-1495418104//
/work/sebastian/BT-20210625/1009629-light/run1009629-light.h5 tag-1495418108//
/work/sebastian/BT-20210625/1009629-light/run1009629-light.h5 tag-1495418112//
/work/sebastian/BT-20210625/1009629-light/run1009629-light.h5 tag-1495418152//
/work/sebastian/BT-20210625/1009629-light/run1009629-light.h5 tag-1495418160//
/work/sebastian/BT-20210625/1009629-light/run1009629-light.h5 tag-1495418172//
/work/sebastian/BT-20210625/1009629-light/run1009629-light.h5 tag-1495418204//
/work/sebastian/BT-20210625/1009629-light/run1009629-light.h5 tag-1495418224//
/work/sebastian/BT-20210625/1009629-light/run1009629-light.h5 tag-1495418228//
/work/sebastian/BT-20210625/1009629-light/run1009629-light.h5 tag-1495418240//
/work/sebastian/BT-20210625/1009629-light/run1009629-light.h5 tag-1495418264//
/work/sebastian/BT-20210625/1009629-light/run1009629-light.h5 tag-1495418276//
/work/sebastian/BT-20210625/1009629-light/run1009629-light.h5 tag-1495418280//
/work/sebastian/BT-20210625/1009629-light/run1009629-light.h5 tag-1495418296//
/work/sebastian/BT-20210625/1009629-light/run1009629-light.h5 tag-1495418312//
/work/sebastian/BT-20210625/1009629-light/run1009629-light.h5 tag-1495418328//
/work/sebastian/BT-20210625/1009629-light/run1009629-light.h5 tag-1495418340//
/work/sebastian/BT-20210625/1009629-light/run1009629-light.h5 tag-1495418344//
/work/sebastian/BT-20210625/1009629-light/run1009629-light.h5 tag-1495418348//
/work/sebastian/BT-20210625/1009629-light/run1009629-light.h5 tag-1495418352//
/work/sebastian/BT-20210625/1009629-light/run1009629-light.h5 tag-1495418376//
/work/sebastian/BT-20210625/1009629-light/run1009629-light.h5 tag-1495418392//
/work/sebastian/BT-20210625/1009629-light/run1009629-light.h5 tag-1495418416//
/work/sebastian/BT-20210625/1009629-light/run1009629-light.h5 tag-1495418420//
/work/sebastian/BT-20210625/1009629-light/run1009629-light.h5 tag-1495418440//
/work/sebastian/BT-20210625/1009629-light/run1009629-light.h5 tag-1495418444//
/work/sebastian/BT-20210625/1009629-light/run1009629-light.h5 tag-1495418448//
/work/sebastian/BT-20210625/1009629-light/run1009629-light.h5 tag-1495418456//
/work/sebastian/BT-20210625/1009629-light/run1009629-light.h5 tag-1495418472//
/work/sebastian/BT-20210625/1009629-light/run1009629-light.h5 tag-1495418504//
/work/sebastian/BT-20210625/1009629-light/run1009629-light.h5 tag-1495418524//
/work/sebastian/BT-20210625/1009629-light/run1009629-light.h5 tag-1495418536//
/work/sebastian/BT-20210625/1009629-light/run1009629-light.h5 tag-1495418544//
/work/sebastian/BT-20210625/1009629-light/run1009629-light.h5 tag-1495418552//
/work/sebastian/BT-20210625/1009629-light/run1009629-light.h5 tag-1495418560//
/work/sebastian/BT-20210625/1009629-light/run1009629-light.h5 tag-1495418580//
/work/sebastian/BT-20210625/1009629-light/run1009629-light.h5 tag-1495418588//
/work/sebastian/BT-20210625/1009629-light/run1009629-light.h5 tag-1495418592//
/work/sebastian/BT-20210625/1009629-light/run1009629-light.h5 tag-1495418596//
/work/sebastian/BT-20210625/1009629-light/run1009629-light.h5 tag-1495418608//
/work/sebastian/BT-20210625/1009629-light/run1009629-light.h5 tag-1495418612//
/work/sebastian/BT-20210625/1009629-light/run1009629-light.h5 tag-1495418640//
/work/sebastian/BT-20210625/1009629-light/run1009629-light.h5 tag-1495418644//
/work/sebastian/BT-20210625/1009629-light/run1009629-light.h5 tag-1495418648//
/work/sebastian/BT-20210625/1009629-light/run1009629-light.h5 tag-1495418660//
/work/sebastian/BT-20210625/1009629-light/run1009629-light.h5 tag-1495418664//
/work/sebastian/BT-20210625/1009629-light/run1009629-light.h5 tag-1495418672//
/work/sebastian/BT-20210625/1009629-light/run1009629-light.h5 tag-1495418676//
/work/sebastian/BT-20210625/1009629-light/run1009629-light.h5 tag-1495418712//
/work/sebastian/BT-20210625/1009629-light/run1009629-light.h5 tag-1495418724//
/work/sebastian/BT-20210625/1009629-light/run1009629-light.h5 tag-1495418728//
/work/sebastian/BT-20210625/1009629-light/run1009629-light.h5 tag-1495418744//
/work/sebastian/BT-20210625/1009629-light/run1009629-light.h5 tag-1495418760//
/work/sebastian/BT-20210625/1009629-light/run1009629-light.h5 tag-1495418796//
/work/sebastian/BT-20210625/1009629-light/run1009629-light.h5 tag-1495418808//
/work/sebastian/BT-20210625/1009629-light/run1009629-light.h5 tag-1495418812//
/work/sebastian/BT-20210625/1009629-light/run1009629-light.h5 tag-1495418816//
/work/sebastian/BT-20210625/1009629-light/run1009629-light.h5 tag-1495418820//
/work/sebastian/BT-20210625/1009629-light/run1009629-light.h5 tag-1495418828//
/work/sebastian/BT-20210625/1009629-light/run1009629-light.h5 tag-1495418840//
/work/sebastian/BT-20210625/1009629-light/run1009629-light.h5 tag-1495418856//
/work/sebastian/BT-20210625/1009629-light/run1009629-light.h5 tag-1495418860//
/work/sebastian/BT-20210625/1009629-light/run1009629-light.h5 tag-1495418880//
/work/sebastian/BT-20210625/1009629-light/run1009629-light.h5 tag-1495418888//
/work/sebastian/BT-20210625/1009629-light/run1009629-light.h5 tag-1495418892//
/work/sebastian/BT-20210625/1009629-light/run1009629-light.h5 tag-1495418900//
/work/sebastian/BT-20210625/1009629-light/run1009629-light.h5 tag-1495418924//
/work/sebastian/BT-20210625/1009629-light/run1009629-light.h5 tag-1495418932//
/work/sebastian/BT-20210625/1009629-light/run1009629-light.h5 tag-1495418972//
/work/sebastian/BT-20210625/1009629-light/run1009629-light.h5 tag-1495418976//
/work/sebastian/BT-20210625/1009629-light/run1009629-light.h5 tag-1495419000//
/work/sebastian/BT-20210625/1009629-light/run1009629-light.h5 tag-1495419012//
/work/sebastian/BT-20210625/1009629-light/run1009629-light.h5 tag-1495419032//
/work/sebastian/BT-20210625/1009629-light/run1009629-light.h5 tag-1495419044//
/work/sebastian/BT-20210625/1009629-light/run1009629-light.h5 tag-1495419052//
/work/sebastian/BT-20210625/1009629-light/run1009629-light.h5 tag-1495419116//
/work/sebastian/BT-20210625/1009629-light/run1009629-light.h5 tag-1495419128//
/work/sebastian/BT-20210625/1009629-light/run1009629-light.h5 tag-1495419144//
/work/sebastian/BT-20210625/1009629-light/run1009629-light.h5 tag-1495419152//
/work/sebastian/BT-20210625/1009629-light/run1009629-light.h5 tag-1495419164//
/work/sebastian/BT-20210625/1009629-light/run1009629-light.h5 tag-1495419184//
/work/sebastian/BT-20210625/1009629-light/run1009629-light.h5 tag-1495419188//
/work/sebastian/BT-20210625/1009629-light/run1009629-light.h5 tag-1495419200//
/work/sebastian/BT-20210625/1009629-light/run1009629-light.h5 tag-1495419208//
/work/sebastian/BT-20210625/1009629-light/run1009629-light.h5 tag-1495419220//
/work/sebastian/BT-20210625/1009629-light/run1009629-light.h5 tag-1495419228//
/work/sebastian/BT-20210625/1009629-light/run1009629-light.h5 tag-1495419236//
/work/sebastian/BT-20210625/1009629-light/run1009629-light.h5 tag-1495419252//
/work/sebastian/BT-20210625/1009629-light/run1009629-light.h5 tag-1495419272//
/work/sebastian/BT-20210625/1009629-light/run1009629-light.h5 tag-1495419280//
/work/sebastian/BT-20210625/1009629-light/run1009629-light.h5 tag-1495419296//
/work/sebastian/BT-20210625/1009629-light/run1009629-light.h5 tag-1495419312//
/work/sebastian/BT-20210625/1009629-light/run1009629-light.h5 tag-1495419320//
/work/sebastian/BT-20210625/1009629-light/run1009629-light.h5 tag-1495419344//
/work/sebastian/BT-20210625/1009629-light/run1009629-light.h5 tag-1495419356//
/work/sebastian/BT-20210625/1009629-light/run1009629-light.h5 tag-1495419368//
/work/sebastian/BT-20210625/1009629-light/run1009629-light.h5 tag-1495419396//
/work/sebastian/BT-20210625/1009629-light/run1009629-light.h5 tag-1495419400//
/work/sebastian/BT-20210625/1009629-light/run1009629-light.h5 tag-1495419412//
/work/sebastian/BT-20210625/1009629-light/run1009629-light.h5 tag-1495419424//
/work/sebastian/BT-20210625/1009629-light/run1009629-light.h5 tag-1495419436//
/work/sebastian/BT-20210625/1009629-light/run1009629-light.h5 tag-1495419452//
/work/sebastian/BT-20210625/1009629-light/run1009629-light.h5 tag-1495419500//
/work/sebastian/BT-20210625/1009629-light/run1009629-light.h5 tag-1495419516//
/work/sebastian/BT-20210625/1009629-light/run1009629-light.h5 tag-1495419536//
/work/sebastian/BT-20210625/1009629-light/run1009629-light.h5 tag-1495419572//
/work/sebastian/BT-20210625/1009629-light/run1009629-light.h5 tag-1495419576//
/work/sebastian/BT-20210625/1009629-light/run1009629-light.h5 tag-1495419580//
/work/sebastian/BT-20210625/1009629-light/run1009629-light.h5 tag-1495419584//
/work/sebastian/BT-20210625/1009629-light/run1009629-light.h5 tag-1495419588//
/work/sebastian/BT-20210625/1009629-light/run1009629-light.h5 tag-1495419612//
/work/sebastian/BT-20210625/1009629-light/run1009629-light.h5 tag-1495419628//
/work/sebastian/BT-20210625/1009629-light/run1009629-light.h5 tag-1495419636//
/work/sebastian/BT-20210625/1009629-light/run1009629-light.h5 tag-1495419640//
/work/sebastian/BT-20210625/1009629-light/run1009629-light.h5 tag-1495419644//
/work/sebastian/BT-20210625/1009629-light/run1009629-light.h5 tag-1495419660//
/work/sebastian/BT-20210625/1009629-light/run1009629-light.h5 tag-1495419668//
/work/sebastian/BT-20210625/1009629-light/run1009629-light.h5 tag-1495419672//
/work/sebastian/BT-20210625/1009629-light/run1009629-light.h5 tag-1495419676//
/work/sebastian/BT-20210625/1009629-light/run1009629-light.h5 tag-1495419712//
/work/sebastian/BT-20210625/1009629-light/run1009629-light.h5 tag-1495419728//
/work/sebastian/BT-20210625/1009629-light/run1009629-light.h5 tag-1495419780//
/work/sebastian/BT-20210625/1009629-light/run1009629-light.h5 tag-1495419788//
/work/sebastian/BT-20210625/1009629-light/run1009629-light.h5 tag-1495419812//
/work/sebastian/BT-20210625/1009629-light/run1009629-light.h5 tag-1495419816//
/work/sebastian/BT-20210625/1009629-light/run1009629-light.h5 tag-1495419820//
/work/sebastian/BT-20210625/1009629-light/run1009629-light.h5 tag-1495419824//
/work/sebastian/BT-20210625/1009629-light/run1009629-light.h5 tag-1495419836//
/work/sebastian/BT-20210625/1009629-light/run1009629-light.h5 tag-1495419844//
/work/sebastian/BT-20210625/1009629-light/run1009629-light.h5 tag-1495419852//
/work/sebastian/BT-20210625/1009629-light/run1009629-light.h5 tag-1495419880//
/work/sebastian/BT-20210625/1009629-light/run1009629-light.h5 tag-1495419892//
/work/sebastian/BT-20210625/1009629-light/run1009629-light.h5 tag-1495419896//
/work/sebastian/BT-20210625/1009629-light/run1009629-light.h5 tag-1495419900//
/work/sebastian/BT-20210625/1009629-light/run1009629-light.h5 tag-1495419924//
/work/sebastian/BT-20210625/1009629-light/run1009629-light.h5 tag-1495419936//
/work/sebastian/BT-20210625/1009629-light/run1009629-light.h5 tag-1495419956//
/work/sebastian/BT-20210625/1009629-light/run1009629-light.h5 tag-1495419960//
/work/sebastian/BT-20210625/1009629-light/run1009629-light.h5 tag-1495419976//
/work/sebastian/BT-20210625/1009629-light/run1009629-light.h5 tag-1495419980//
/work/sebastian/BT-20210625/1009629-light/run1009629-light.h5 tag-1495419984//
/work/sebastian/BT-20210625/1009629-light/run1009629-light.h5 tag-1495419988//
/work/sebastian/BT-20210625/1009629-light/run1009629-light.h5 tag-1495419992//
/work/sebastian/BT-20210625/1009629-light/run1009629-light.h5 tag-1495420016//
/work/sebastian/BT-20210625/1009629-light/run1009629-light.h5 tag-1495420052//
/work/sebastian/BT-20210625/1009629-light/run1009629-light.h5 tag-1495420060//
/work/sebastian/BT-20210625/1009629-light/run1009629-light.h5 tag-1495420072//
/work/sebastian/BT-20210625/1009629-light/run1009629-light.h5 tag-1495420092//
/work/sebastian/BT-20210625/1009629-light/run1009629-light.h5 tag-1495420100//
/work/sebastian/BT-20210625/1009629-light/run1009629-light.h5 tag-1495420120//
/work/sebastian/BT-20210625/1009629-light/run1009629-light.h5 tag-1495420128//
/work/sebastian/BT-20210625/1009629-light/run1009629-light.h5 tag-1495420164//
/work/sebastian/BT-20210625/1009629-light/run1009629-light.h5 tag-1495420188//
/work/sebastian/BT-20210625/1009629-light/run1009629-light.h5 tag-1495420216//
/work/sebastian/BT-20210625/1009629-light/run1009629-light.h5 tag-1495420220//
/work/sebastian/BT-20210625/1009629-light/run1009629-light.h5 tag-1495420236//
/work/sebastian/BT-20210625/1009629-light/run1009629-light.h5 tag-1495420240//
/work/sebastian/BT-20210625/1009629-light/run1009629-light.h5 tag-1495420264//
/work/sebastian/BT-20210625/1009629-light/run1009629-light.h5 tag-1495420272//
/work/sebastian/BT-20210625/1009629-light/run1009629-light.h5 tag-1495420288//
/work/sebastian/BT-20210625/1009629-light/run1009629-light.h5 tag-1495420308//
/work/sebastian/BT-20210625/1009629-light/run1009629-light.h5 tag-1495420316//
/work/sebastian/BT-20210625/1009629-light/run1009629-light.h5 tag-1495420320//
/work/sebastian/BT-20210625/1009629-light/run1009629-light.h5 tag-1495420340//
/work/sebastian/BT-20210625/1009629-light/run1009629-light.h5 tag-1495420344//
/work/sebastian/BT-20210625/1009629-light/run1009629-light.h5 tag-1495420352//
/work/sebastian/BT-20210625/1009629-light/run1009629-light.h5 tag-1495420360//
/work/sebastian/BT-20210625/1009629-light/run1009629-light.h5 tag-1495420364//
/work/sebastian/BT-20210625/1009629-light/run1009629-light.h5 tag-1495420380//
/work/sebastian/BT-20210625/1009629-light/run1009629-light.h5 tag-1495420384//
/work/sebastian/BT-20210625/1009629-light/run1009629-light.h5 tag-1495420400//
/work/sebastian/BT-20210625/1009629-light/run1009629-light.h5 tag-1495420424//
/work/sebastian/BT-20210625/1009629-light/run1009629-light.h5 tag-1495420428//
/work/sebastian/BT-20210625/1009629-light/run1009629-light.h5 tag-1495420452//
/work/sebastian/BT-20210625/1009629-light/run1009629-light.h5 tag-1495420456//
/work/sebastian/BT-20210625/1009629-light/run1009629-light.h5 tag-1495420460//
/work/sebastian/BT-20210625/1009629-light/run1009629-light.h5 tag-1495420476//
/work/sebastian/BT-20210625/1009629-light/run1009629-light.h5 tag-1495420488//
/work/sebastian/BT-20210625/1009629-light/run1009629-light.h5 tag-1495420496//
/work/sebastian/BT-20210625/1009629-light/run1009629-light.h5 tag-1495420512//
/work/sebastian/BT-20210625/1009629-light/run1009629-light.h5 tag-1495420520//
/work/sebastian/BT-20210625/1009629-light/run1009629-light.h5 tag-1495420536//
/work/sebastian/BT-20210625/1009629-light/run1009629-light.h5 tag-1495420564//
/work/sebastian/BT-20210625/1009629-light/run1009629-light.h5 tag-1495420576//
/work/sebastian/BT-20210625/1009629-light/run1009629-light.h5 tag-1495420628//
/work/sebastian/BT-20210625/1009629-light/run1009629-light.h5 tag-1495420632//
/work/sebastian/BT-20210625/1009629-light/run1009629-light.h5 tag-1495420648//
/work/sebastian/BT-20210625/1009629-light/run1009629-light.h5 tag-1495420656//
/work/sebastian/BT-20210625/1009629-light/run1009629-light.h5 tag-1495420680//
/work/sebastian/BT-20210625/1009629-light/run1009629-light.h5 tag-1495420700//
/work/sebastian/BT-20210625/1009629-light/run1009629-light.h5 tag-1495420728//
/work/sebastian/BT-20210625/1009629-light/run1009629-light.h5 tag-1495420752//
/work/sebastian/BT-20210625/1009629-light/run1009629-light.h5 tag-1495420764//
/work/sebastian/BT-20210625/1009629-light/run1009629-light.h5 tag-1495420768//
/work/sebastian/BT-20210625/1009629-light/run1009629-light.h5 tag-1495420780//
/work/sebastian/BT-20210625/1009629-light/run1009629-light.h5 tag-1495420788//
/work/sebastian/BT-20210625/1009629-light/run1009629-light.h5 tag-1495420812//
/work/sebastian/BT-20210625/1009629-light/run1009629-light.h5 tag-1495420824//
/work/sebastian/BT-20210625/1009629-light/run1009629-light.h5 tag-1495420836//
