/work/sebastian/BT-20210625/1009427-light/run1009427-light.h5 tag-1491699268//
/work/sebastian/BT-20210625/1009427-light/run1009427-light.h5 tag-1491699270//
/work/sebastian/BT-20210625/1009427-light/run1009427-light.h5 tag-1491699274//
/work/sebastian/BT-20210625/1009427-light/run1009427-light.h5 tag-1491699278//
/work/sebastian/BT-20210625/1009427-light/run1009427-light.h5 tag-1491699280//
/work/sebastian/BT-20210625/1009427-light/run1009427-light.h5 tag-1491699284//
/work/sebastian/BT-20210625/1009427-light/run1009427-light.h5 tag-1491699286//
/work/sebastian/BT-20210625/1009427-light/run1009427-light.h5 tag-1491699288//
/work/sebastian/BT-20210625/1009427-light/run1009427-light.h5 tag-1491699294//
/work/sebastian/BT-20210625/1009427-light/run1009427-light.h5 tag-1491699296//
/work/sebastian/BT-20210625/1009427-light/run1009427-light.h5 tag-1491699300//
/work/sebastian/BT-20210625/1009427-light/run1009427-light.h5 tag-1491699302//
/work/sebastian/BT-20210625/1009427-light/run1009427-light.h5 tag-1491699308//
/work/sebastian/BT-20210625/1009427-light/run1009427-light.h5 tag-1491699310//
/work/sebastian/BT-20210625/1009427-light/run1009427-light.h5 tag-1491699312//
/work/sebastian/BT-20210625/1009427-light/run1009427-light.h5 tag-1491699314//
/work/sebastian/BT-20210625/1009427-light/run1009427-light.h5 tag-1491699316//
/work/sebastian/BT-20210625/1009427-light/run1009427-light.h5 tag-1491699318//
/work/sebastian/BT-20210625/1009427-light/run1009427-light.h5 tag-1491699320//
/work/sebastian/BT-20210625/1009427-light/run1009427-light.h5 tag-1491699322//
/work/sebastian/BT-20210625/1009427-light/run1009427-light.h5 tag-1491699326//
/work/sebastian/BT-20210625/1009427-light/run1009427-light.h5 tag-1491699328//
/work/sebastian/BT-20210625/1009427-light/run1009427-light.h5 tag-1491699330//
/work/sebastian/BT-20210625/1009427-light/run1009427-light.h5 tag-1491699336//
/work/sebastian/BT-20210625/1009427-light/run1009427-light.h5 tag-1491699338//
/work/sebastian/BT-20210625/1009427-light/run1009427-light.h5 tag-1491699340//
/work/sebastian/BT-20210625/1009427-light/run1009427-light.h5 tag-1491699342//
/work/sebastian/BT-20210625/1009427-light/run1009427-light.h5 tag-1491699346//
/work/sebastian/BT-20210625/1009427-light/run1009427-light.h5 tag-1491699348//
/work/sebastian/BT-20210625/1009427-light/run1009427-light.h5 tag-1491699354//
/work/sebastian/BT-20210625/1009427-light/run1009427-light.h5 tag-1491699356//
/work/sebastian/BT-20210625/1009427-light/run1009427-light.h5 tag-1491699362//
/work/sebastian/BT-20210625/1009427-light/run1009427-light.h5 tag-1491699368//
/work/sebastian/BT-20210625/1009427-light/run1009427-light.h5 tag-1491699372//
/work/sebastian/BT-20210625/1009427-light/run1009427-light.h5 tag-1491699374//
/work/sebastian/BT-20210625/1009427-light/run1009427-light.h5 tag-1491699376//
/work/sebastian/BT-20210625/1009427-light/run1009427-light.h5 tag-1491699378//
/work/sebastian/BT-20210625/1009427-light/run1009427-light.h5 tag-1491699382//
/work/sebastian/BT-20210625/1009427-light/run1009427-light.h5 tag-1491699384//
/work/sebastian/BT-20210625/1009427-light/run1009427-light.h5 tag-1491699386//
/work/sebastian/BT-20210625/1009427-light/run1009427-light.h5 tag-1491699388//
/work/sebastian/BT-20210625/1009427-light/run1009427-light.h5 tag-1491699390//
/work/sebastian/BT-20210625/1009427-light/run1009427-light.h5 tag-1491699392//
/work/sebastian/BT-20210625/1009427-light/run1009427-light.h5 tag-1491699394//
/work/sebastian/BT-20210625/1009427-light/run1009427-light.h5 tag-1491699398//
/work/sebastian/BT-20210625/1009427-light/run1009427-light.h5 tag-1491699400//
/work/sebastian/BT-20210625/1009427-light/run1009427-light.h5 tag-1491699402//
/work/sebastian/BT-20210625/1009427-light/run1009427-light.h5 tag-1491699404//
/work/sebastian/BT-20210625/1009427-light/run1009427-light.h5 tag-1491699406//
/work/sebastian/BT-20210625/1009427-light/run1009427-light.h5 tag-1491699408//
/work/sebastian/BT-20210625/1009427-light/run1009427-light.h5 tag-1491699414//
/work/sebastian/BT-20210625/1009427-light/run1009427-light.h5 tag-1491699416//
/work/sebastian/BT-20210625/1009427-light/run1009427-light.h5 tag-1491699420//
/work/sebastian/BT-20210625/1009427-light/run1009427-light.h5 tag-1491699428//
/work/sebastian/BT-20210625/1009427-light/run1009427-light.h5 tag-1491699436//
/work/sebastian/BT-20210625/1009427-light/run1009427-light.h5 tag-1491699438//
/work/sebastian/BT-20210625/1009427-light/run1009427-light.h5 tag-1491699442//
/work/sebastian/BT-20210625/1009427-light/run1009427-light.h5 tag-1491699444//
/work/sebastian/BT-20210625/1009427-light/run1009427-light.h5 tag-1491699446//
/work/sebastian/BT-20210625/1009427-light/run1009427-light.h5 tag-1491699448//
/work/sebastian/BT-20210625/1009427-light/run1009427-light.h5 tag-1491699450//
/work/sebastian/BT-20210625/1009427-light/run1009427-light.h5 tag-1491699458//
/work/sebastian/BT-20210625/1009427-light/run1009427-light.h5 tag-1491699460//
/work/sebastian/BT-20210625/1009427-light/run1009427-light.h5 tag-1491699464//
/work/sebastian/BT-20210625/1009427-light/run1009427-light.h5 tag-1491699466//
/work/sebastian/BT-20210625/1009427-light/run1009427-light.h5 tag-1491699468//
/work/sebastian/BT-20210625/1009427-light/run1009427-light.h5 tag-1491699470//
/work/sebastian/BT-20210625/1009427-light/run1009427-light.h5 tag-1491699472//
/work/sebastian/BT-20210625/1009427-light/run1009427-light.h5 tag-1491699478//
/work/sebastian/BT-20210625/1009427-light/run1009427-light.h5 tag-1491699484//
/work/sebastian/BT-20210625/1009427-light/run1009427-light.h5 tag-1491699494//
/work/sebastian/BT-20210625/1009427-light/run1009427-light.h5 tag-1491699498//
/work/sebastian/BT-20210625/1009427-light/run1009427-light.h5 tag-1491699500//
/work/sebastian/BT-20210625/1009427-light/run1009427-light.h5 tag-1491699502//
/work/sebastian/BT-20210625/1009427-light/run1009427-light.h5 tag-1491699506//
/work/sebastian/BT-20210625/1009427-light/run1009427-light.h5 tag-1491699508//
/work/sebastian/BT-20210625/1009427-light/run1009427-light.h5 tag-1491699512//
/work/sebastian/BT-20210625/1009427-light/run1009427-light.h5 tag-1491699514//
/work/sebastian/BT-20210625/1009427-light/run1009427-light.h5 tag-1491699516//
/work/sebastian/BT-20210625/1009427-light/run1009427-light.h5 tag-1491699518//
/work/sebastian/BT-20210625/1009427-light/run1009427-light.h5 tag-1491699522//
/work/sebastian/BT-20210625/1009427-light/run1009427-light.h5 tag-1491699526//
/work/sebastian/BT-20210625/1009427-light/run1009427-light.h5 tag-1491699530//
/work/sebastian/BT-20210625/1009427-light/run1009427-light.h5 tag-1491699532//
/work/sebastian/BT-20210625/1009427-light/run1009427-light.h5 tag-1491699536//
/work/sebastian/BT-20210625/1009427-light/run1009427-light.h5 tag-1491699546//
/work/sebastian/BT-20210625/1009427-light/run1009427-light.h5 tag-1491699548//
/work/sebastian/BT-20210625/1009427-light/run1009427-light.h5 tag-1491699552//
/work/sebastian/BT-20210625/1009427-light/run1009427-light.h5 tag-1491699554//
/work/sebastian/BT-20210625/1009427-light/run1009427-light.h5 tag-1491699558//
/work/sebastian/BT-20210625/1009427-light/run1009427-light.h5 tag-1491699560//
/work/sebastian/BT-20210625/1009427-light/run1009427-light.h5 tag-1491699562//
/work/sebastian/BT-20210625/1009427-light/run1009427-light.h5 tag-1491699566//
/work/sebastian/BT-20210625/1009427-light/run1009427-light.h5 tag-1491699568//
/work/sebastian/BT-20210625/1009427-light/run1009427-light.h5 tag-1491699574//
/work/sebastian/BT-20210625/1009427-light/run1009427-light.h5 tag-1491699576//
/work/sebastian/BT-20210625/1009427-light/run1009427-light.h5 tag-1491699582//
/work/sebastian/BT-20210625/1009427-light/run1009427-light.h5 tag-1491699584//
/work/sebastian/BT-20210625/1009427-light/run1009427-light.h5 tag-1491699586//
/work/sebastian/BT-20210625/1009427-light/run1009427-light.h5 tag-1491699588//
/work/sebastian/BT-20210625/1009427-light/run1009427-light.h5 tag-1491699590//
/work/sebastian/BT-20210625/1009427-light/run1009427-light.h5 tag-1491699594//
/work/sebastian/BT-20210625/1009427-light/run1009427-light.h5 tag-1491699596//
/work/sebastian/BT-20210625/1009427-light/run1009427-light.h5 tag-1491699598//
/work/sebastian/BT-20210625/1009427-light/run1009427-light.h5 tag-1491699600//
/work/sebastian/BT-20210625/1009427-light/run1009427-light.h5 tag-1491699602//
/work/sebastian/BT-20210625/1009427-light/run1009427-light.h5 tag-1491699604//
/work/sebastian/BT-20210625/1009427-light/run1009427-light.h5 tag-1491699610//
/work/sebastian/BT-20210625/1009427-light/run1009427-light.h5 tag-1491699614//
/work/sebastian/BT-20210625/1009427-light/run1009427-light.h5 tag-1491699616//
/work/sebastian/BT-20210625/1009427-light/run1009427-light.h5 tag-1491699618//
/work/sebastian/BT-20210625/1009427-light/run1009427-light.h5 tag-1491699622//
/work/sebastian/BT-20210625/1009427-light/run1009427-light.h5 tag-1491699624//
/work/sebastian/BT-20210625/1009427-light/run1009427-light.h5 tag-1491699628//
/work/sebastian/BT-20210625/1009427-light/run1009427-light.h5 tag-1491699632//
/work/sebastian/BT-20210625/1009427-light/run1009427-light.h5 tag-1491699636//
/work/sebastian/BT-20210625/1009427-light/run1009427-light.h5 tag-1491699638//
/work/sebastian/BT-20210625/1009427-light/run1009427-light.h5 tag-1491699640//
/work/sebastian/BT-20210625/1009427-light/run1009427-light.h5 tag-1491699644//
/work/sebastian/BT-20210625/1009427-light/run1009427-light.h5 tag-1491699648//
/work/sebastian/BT-20210625/1009427-light/run1009427-light.h5 tag-1491699654//
/work/sebastian/BT-20210625/1009427-light/run1009427-light.h5 tag-1491699656//
/work/sebastian/BT-20210625/1009427-light/run1009427-light.h5 tag-1491699658//
/work/sebastian/BT-20210625/1009427-light/run1009427-light.h5 tag-1491699660//
/work/sebastian/BT-20210625/1009427-light/run1009427-light.h5 tag-1491699662//
/work/sebastian/BT-20210625/1009427-light/run1009427-light.h5 tag-1491699664//
/work/sebastian/BT-20210625/1009427-light/run1009427-light.h5 tag-1491699668//
/work/sebastian/BT-20210625/1009427-light/run1009427-light.h5 tag-1491699672//
/work/sebastian/BT-20210625/1009427-light/run1009427-light.h5 tag-1491699674//
/work/sebastian/BT-20210625/1009427-light/run1009427-light.h5 tag-1491699680//
/work/sebastian/BT-20210625/1009427-light/run1009427-light.h5 tag-1491699692//
/work/sebastian/BT-20210625/1009427-light/run1009427-light.h5 tag-1491699694//
/work/sebastian/BT-20210625/1009427-light/run1009427-light.h5 tag-1491699696//
/work/sebastian/BT-20210625/1009427-light/run1009427-light.h5 tag-1491699698//
/work/sebastian/BT-20210625/1009427-light/run1009427-light.h5 tag-1491699700//
/work/sebastian/BT-20210625/1009427-light/run1009427-light.h5 tag-1491699702//
/work/sebastian/BT-20210625/1009427-light/run1009427-light.h5 tag-1491699710//
/work/sebastian/BT-20210625/1009427-light/run1009427-light.h5 tag-1491699712//
/work/sebastian/BT-20210625/1009427-light/run1009427-light.h5 tag-1491699714//
/work/sebastian/BT-20210625/1009427-light/run1009427-light.h5 tag-1491699716//
/work/sebastian/BT-20210625/1009427-light/run1009427-light.h5 tag-1491699718//
/work/sebastian/BT-20210625/1009427-light/run1009427-light.h5 tag-1491699720//
/work/sebastian/BT-20210625/1009427-light/run1009427-light.h5 tag-1491699728//
/work/sebastian/BT-20210625/1009427-light/run1009427-light.h5 tag-1491699730//
/work/sebastian/BT-20210625/1009427-light/run1009427-light.h5 tag-1491699732//
/work/sebastian/BT-20210625/1009427-light/run1009427-light.h5 tag-1491699738//
/work/sebastian/BT-20210625/1009427-light/run1009427-light.h5 tag-1491699742//
/work/sebastian/BT-20210625/1009427-light/run1009427-light.h5 tag-1491699744//
/work/sebastian/BT-20210625/1009427-light/run1009427-light.h5 tag-1491699748//
/work/sebastian/BT-20210625/1009427-light/run1009427-light.h5 tag-1491699752//
/work/sebastian/BT-20210625/1009427-light/run1009427-light.h5 tag-1491699754//
/work/sebastian/BT-20210625/1009427-light/run1009427-light.h5 tag-1491699764//
/work/sebastian/BT-20210625/1009427-light/run1009427-light.h5 tag-1491699766//
/work/sebastian/BT-20210625/1009427-light/run1009427-light.h5 tag-1491699768//
/work/sebastian/BT-20210625/1009427-light/run1009427-light.h5 tag-1491699770//
/work/sebastian/BT-20210625/1009427-light/run1009427-light.h5 tag-1491699776//
/work/sebastian/BT-20210625/1009427-light/run1009427-light.h5 tag-1491699778//
/work/sebastian/BT-20210625/1009427-light/run1009427-light.h5 tag-1491699782//
/work/sebastian/BT-20210625/1009427-light/run1009427-light.h5 tag-1491699784//
/work/sebastian/BT-20210625/1009427-light/run1009427-light.h5 tag-1491699786//
/work/sebastian/BT-20210625/1009427-light/run1009427-light.h5 tag-1491699788//
/work/sebastian/BT-20210625/1009427-light/run1009427-light.h5 tag-1491699790//
/work/sebastian/BT-20210625/1009427-light/run1009427-light.h5 tag-1491699796//
/work/sebastian/BT-20210625/1009427-light/run1009427-light.h5 tag-1491699798//
/work/sebastian/BT-20210625/1009427-light/run1009427-light.h5 tag-1491699800//
/work/sebastian/BT-20210625/1009427-light/run1009427-light.h5 tag-1491699806//
/work/sebastian/BT-20210625/1009427-light/run1009427-light.h5 tag-1491699808//
/work/sebastian/BT-20210625/1009427-light/run1009427-light.h5 tag-1491699810//
/work/sebastian/BT-20210625/1009427-light/run1009427-light.h5 tag-1491699812//
/work/sebastian/BT-20210625/1009427-light/run1009427-light.h5 tag-1491699820//
/work/sebastian/BT-20210625/1009427-light/run1009427-light.h5 tag-1491699824//
/work/sebastian/BT-20210625/1009427-light/run1009427-light.h5 tag-1491699830//
/work/sebastian/BT-20210625/1009427-light/run1009427-light.h5 tag-1491699832//
/work/sebastian/BT-20210625/1009427-light/run1009427-light.h5 tag-1491699834//
/work/sebastian/BT-20210625/1009427-light/run1009427-light.h5 tag-1491699836//
/work/sebastian/BT-20210625/1009427-light/run1009427-light.h5 tag-1491699844//
/work/sebastian/BT-20210625/1009427-light/run1009427-light.h5 tag-1491699850//
/work/sebastian/BT-20210625/1009427-light/run1009427-light.h5 tag-1491699852//
/work/sebastian/BT-20210625/1009427-light/run1009427-light.h5 tag-1491699854//
/work/sebastian/BT-20210625/1009427-light/run1009427-light.h5 tag-1491699856//
/work/sebastian/BT-20210625/1009427-light/run1009427-light.h5 tag-1491699860//
/work/sebastian/BT-20210625/1009427-light/run1009427-light.h5 tag-1491699862//
/work/sebastian/BT-20210625/1009427-light/run1009427-light.h5 tag-1491699864//
/work/sebastian/BT-20210625/1009427-light/run1009427-light.h5 tag-1491699872//
/work/sebastian/BT-20210625/1009427-light/run1009427-light.h5 tag-1491699874//
/work/sebastian/BT-20210625/1009427-light/run1009427-light.h5 tag-1491699876//
/work/sebastian/BT-20210625/1009427-light/run1009427-light.h5 tag-1491699878//
/work/sebastian/BT-20210625/1009427-light/run1009427-light.h5 tag-1491699882//
/work/sebastian/BT-20210625/1009427-light/run1009427-light.h5 tag-1491699886//
/work/sebastian/BT-20210625/1009427-light/run1009427-light.h5 tag-1491699890//
/work/sebastian/BT-20210625/1009427-light/run1009427-light.h5 tag-1491699892//
/work/sebastian/BT-20210625/1009427-light/run1009427-light.h5 tag-1491699894//
/work/sebastian/BT-20210625/1009427-light/run1009427-light.h5 tag-1491699896//
/work/sebastian/BT-20210625/1009427-light/run1009427-light.h5 tag-1491699898//
/work/sebastian/BT-20210625/1009427-light/run1009427-light.h5 tag-1491699904//
/work/sebastian/BT-20210625/1009427-light/run1009427-light.h5 tag-1491699906//
/work/sebastian/BT-20210625/1009427-light/run1009427-light.h5 tag-1491699908//
/work/sebastian/BT-20210625/1009427-light/run1009427-light.h5 tag-1491699914//
/work/sebastian/BT-20210625/1009427-light/run1009427-light.h5 tag-1491699916//
/work/sebastian/BT-20210625/1009427-light/run1009427-light.h5 tag-1491699918//
/work/sebastian/BT-20210625/1009427-light/run1009427-light.h5 tag-1491699926//
/work/sebastian/BT-20210625/1009427-light/run1009427-light.h5 tag-1491699928//
/work/sebastian/BT-20210625/1009427-light/run1009427-light.h5 tag-1491699936//
/work/sebastian/BT-20210625/1009427-light/run1009427-light.h5 tag-1491699940//
/work/sebastian/BT-20210625/1009427-light/run1009427-light.h5 tag-1491699944//
/work/sebastian/BT-20210625/1009427-light/run1009427-light.h5 tag-1491699946//
/work/sebastian/BT-20210625/1009427-light/run1009427-light.h5 tag-1491699948//
/work/sebastian/BT-20210625/1009427-light/run1009427-light.h5 tag-1491699950//
/work/sebastian/BT-20210625/1009427-light/run1009427-light.h5 tag-1491699954//
/work/sebastian/BT-20210625/1009427-light/run1009427-light.h5 tag-1491699966//
/work/sebastian/BT-20210625/1009427-light/run1009427-light.h5 tag-1491699968//
/work/sebastian/BT-20210625/1009427-light/run1009427-light.h5 tag-1491699974//
/work/sebastian/BT-20210625/1009427-light/run1009427-light.h5 tag-1491699978//
/work/sebastian/BT-20210625/1009427-light/run1009427-light.h5 tag-1491699980//
/work/sebastian/BT-20210625/1009427-light/run1009427-light.h5 tag-1491699982//
/work/sebastian/BT-20210625/1009427-light/run1009427-light.h5 tag-1491699986//
/work/sebastian/BT-20210625/1009427-light/run1009427-light.h5 tag-1491699988//
/work/sebastian/BT-20210625/1009427-light/run1009427-light.h5 tag-1491699992//
/work/sebastian/BT-20210625/1009427-light/run1009427-light.h5 tag-1491699994//
/work/sebastian/BT-20210625/1009427-light/run1009427-light.h5 tag-1491699996//
/work/sebastian/BT-20210625/1009427-light/run1009427-light.h5 tag-1491700002//
/work/sebastian/BT-20210625/1009427-light/run1009427-light.h5 tag-1491700004//
/work/sebastian/BT-20210625/1009427-light/run1009427-light.h5 tag-1491700006//
/work/sebastian/BT-20210625/1009427-light/run1009427-light.h5 tag-1491700008//
/work/sebastian/BT-20210625/1009427-light/run1009427-light.h5 tag-1491700010//
/work/sebastian/BT-20210625/1009427-light/run1009427-light.h5 tag-1491700012//
/work/sebastian/BT-20210625/1009427-light/run1009427-light.h5 tag-1491700016//
/work/sebastian/BT-20210625/1009427-light/run1009427-light.h5 tag-1491700022//
/work/sebastian/BT-20210625/1009427-light/run1009427-light.h5 tag-1491700024//
/work/sebastian/BT-20210625/1009427-light/run1009427-light.h5 tag-1491700026//
/work/sebastian/BT-20210625/1009427-light/run1009427-light.h5 tag-1491700028//
/work/sebastian/BT-20210625/1009427-light/run1009427-light.h5 tag-1491700034//
/work/sebastian/BT-20210625/1009427-light/run1009427-light.h5 tag-1491700036//
/work/sebastian/BT-20210625/1009427-light/run1009427-light.h5 tag-1491700040//
/work/sebastian/BT-20210625/1009427-light/run1009427-light.h5 tag-1491700042//
/work/sebastian/BT-20210625/1009427-light/run1009427-light.h5 tag-1491700046//
/work/sebastian/BT-20210625/1009427-light/run1009427-light.h5 tag-1491700052//
/work/sebastian/BT-20210625/1009427-light/run1009427-light.h5 tag-1491700054//
/work/sebastian/BT-20210625/1009427-light/run1009427-light.h5 tag-1491700056//
/work/sebastian/BT-20210625/1009427-light/run1009427-light.h5 tag-1491700060//
/work/sebastian/BT-20210625/1009427-light/run1009427-light.h5 tag-1491700066//
/work/sebastian/BT-20210625/1009427-light/run1009427-light.h5 tag-1491700068//
/work/sebastian/BT-20210625/1009427-light/run1009427-light.h5 tag-1491700072//
/work/sebastian/BT-20210625/1009427-light/run1009427-light.h5 tag-1491700074//
/work/sebastian/BT-20210625/1009427-light/run1009427-light.h5 tag-1491700076//
/work/sebastian/BT-20210625/1009427-light/run1009427-light.h5 tag-1491700082//
/work/sebastian/BT-20210625/1009427-light/run1009427-light.h5 tag-1491700084//
/work/sebastian/BT-20210625/1009427-light/run1009427-light.h5 tag-1491700086//
/work/sebastian/BT-20210625/1009427-light/run1009427-light.h5 tag-1491700092//
/work/sebastian/BT-20210625/1009427-light/run1009427-light.h5 tag-1491700094//
/work/sebastian/BT-20210625/1009427-light/run1009427-light.h5 tag-1491700096//
/work/sebastian/BT-20210625/1009427-light/run1009427-light.h5 tag-1491700102//
/work/sebastian/BT-20210625/1009427-light/run1009427-light.h5 tag-1491700104//
/work/sebastian/BT-20210625/1009427-light/run1009427-light.h5 tag-1491700106//
/work/sebastian/BT-20210625/1009427-light/run1009427-light.h5 tag-1491700108//
/work/sebastian/BT-20210625/1009427-light/run1009427-light.h5 tag-1491700110//
/work/sebastian/BT-20210625/1009427-light/run1009427-light.h5 tag-1491700118//
/work/sebastian/BT-20210625/1009427-light/run1009427-light.h5 tag-1491700124//
/work/sebastian/BT-20210625/1009427-light/run1009427-light.h5 tag-1491700126//
/work/sebastian/BT-20210625/1009427-light/run1009427-light.h5 tag-1491700128//
/work/sebastian/BT-20210625/1009427-light/run1009427-light.h5 tag-1491700132//
/work/sebastian/BT-20210625/1009427-light/run1009427-light.h5 tag-1491700136//
/work/sebastian/BT-20210625/1009427-light/run1009427-light.h5 tag-1491700138//
/work/sebastian/BT-20210625/1009427-light/run1009427-light.h5 tag-1491700142//
/work/sebastian/BT-20210625/1009427-light/run1009427-light.h5 tag-1491700146//
/work/sebastian/BT-20210625/1009427-light/run1009427-light.h5 tag-1491700148//
/work/sebastian/BT-20210625/1009427-light/run1009427-light.h5 tag-1491700152//
/work/sebastian/BT-20210625/1009427-light/run1009427-light.h5 tag-1491700154//
/work/sebastian/BT-20210625/1009427-light/run1009427-light.h5 tag-1491700164//
/work/sebastian/BT-20210625/1009427-light/run1009427-light.h5 tag-1491700166//
/work/sebastian/BT-20210625/1009427-light/run1009427-light.h5 tag-1491700174//
/work/sebastian/BT-20210625/1009427-light/run1009427-light.h5 tag-1491700176//
/work/sebastian/BT-20210625/1009427-light/run1009427-light.h5 tag-1491700178//
/work/sebastian/BT-20210625/1009427-light/run1009427-light.h5 tag-1491700180//
/work/sebastian/BT-20210625/1009427-light/run1009427-light.h5 tag-1491700182//
/work/sebastian/BT-20210625/1009427-light/run1009427-light.h5 tag-1491700184//
/work/sebastian/BT-20210625/1009427-light/run1009427-light.h5 tag-1491700186//
/work/sebastian/BT-20210625/1009427-light/run1009427-light.h5 tag-1491700190//
/work/sebastian/BT-20210625/1009427-light/run1009427-light.h5 tag-1491700192//
/work/sebastian/BT-20210625/1009427-light/run1009427-light.h5 tag-1491700196//
/work/sebastian/BT-20210625/1009427-light/run1009427-light.h5 tag-1491700200//
/work/sebastian/BT-20210625/1009427-light/run1009427-light.h5 tag-1491700204//
/work/sebastian/BT-20210625/1009427-light/run1009427-light.h5 tag-1491700206//
/work/sebastian/BT-20210625/1009427-light/run1009427-light.h5 tag-1491700214//
/work/sebastian/BT-20210625/1009427-light/run1009427-light.h5 tag-1491700218//
/work/sebastian/BT-20210625/1009427-light/run1009427-light.h5 tag-1491700220//
/work/sebastian/BT-20210625/1009427-light/run1009427-light.h5 tag-1491700222//
/work/sebastian/BT-20210625/1009427-light/run1009427-light.h5 tag-1491700226//
/work/sebastian/BT-20210625/1009427-light/run1009427-light.h5 tag-1491700230//
/work/sebastian/BT-20210625/1009427-light/run1009427-light.h5 tag-1491700232//
/work/sebastian/BT-20210625/1009427-light/run1009427-light.h5 tag-1491700234//
/work/sebastian/BT-20210625/1009427-light/run1009427-light.h5 tag-1491700236//
/work/sebastian/BT-20210625/1009427-light/run1009427-light.h5 tag-1491700240//
/work/sebastian/BT-20210625/1009427-light/run1009427-light.h5 tag-1491700252//
/work/sebastian/BT-20210625/1009427-light/run1009427-light.h5 tag-1491700262//
/work/sebastian/BT-20210625/1009427-light/run1009427-light.h5 tag-1491700268//
/work/sebastian/BT-20210625/1009427-light/run1009427-light.h5 tag-1491700272//
/work/sebastian/BT-20210625/1009427-light/run1009427-light.h5 tag-1491700274//
/work/sebastian/BT-20210625/1009427-light/run1009427-light.h5 tag-1491700276//
/work/sebastian/BT-20210625/1009427-light/run1009427-light.h5 tag-1491700282//
/work/sebastian/BT-20210625/1009427-light/run1009427-light.h5 tag-1491700284//
/work/sebastian/BT-20210625/1009427-light/run1009427-light.h5 tag-1491700296//
/work/sebastian/BT-20210625/1009427-light/run1009427-light.h5 tag-1491700304//
/work/sebastian/BT-20210625/1009427-light/run1009427-light.h5 tag-1491700308//
/work/sebastian/BT-20210625/1009427-light/run1009427-light.h5 tag-1491700314//
/work/sebastian/BT-20210625/1009427-light/run1009427-light.h5 tag-1491700316//
/work/sebastian/BT-20210625/1009427-light/run1009427-light.h5 tag-1491700318//
/work/sebastian/BT-20210625/1009427-light/run1009427-light.h5 tag-1491700326//
/work/sebastian/BT-20210625/1009427-light/run1009427-light.h5 tag-1491700328//
/work/sebastian/BT-20210625/1009427-light/run1009427-light.h5 tag-1491700338//
/work/sebastian/BT-20210625/1009427-light/run1009427-light.h5 tag-1491700340//
/work/sebastian/BT-20210625/1009427-light/run1009427-light.h5 tag-1491700342//
/work/sebastian/BT-20210625/1009427-light/run1009427-light.h5 tag-1491700348//
/work/sebastian/BT-20210625/1009427-light/run1009427-light.h5 tag-1491700350//
/work/sebastian/BT-20210625/1009427-light/run1009427-light.h5 tag-1491700352//
/work/sebastian/BT-20210625/1009427-light/run1009427-light.h5 tag-1491700354//
/work/sebastian/BT-20210625/1009427-light/run1009427-light.h5 tag-1491700362//
/work/sebastian/BT-20210625/1009427-light/run1009427-light.h5 tag-1491700364//
/work/sebastian/BT-20210625/1009427-light/run1009427-light.h5 tag-1491700370//
/work/sebastian/BT-20210625/1009427-light/run1009427-light.h5 tag-1491700372//
/work/sebastian/BT-20210625/1009427-light/run1009427-light.h5 tag-1491700378//
/work/sebastian/BT-20210625/1009427-light/run1009427-light.h5 tag-1491700380//
/work/sebastian/BT-20210625/1009427-light/run1009427-light.h5 tag-1491700382//
/work/sebastian/BT-20210625/1009427-light/run1009427-light.h5 tag-1491700384//
/work/sebastian/BT-20210625/1009427-light/run1009427-light.h5 tag-1491700390//
/work/sebastian/BT-20210625/1009427-light/run1009427-light.h5 tag-1491700392//
/work/sebastian/BT-20210625/1009427-light/run1009427-light.h5 tag-1491700396//
/work/sebastian/BT-20210625/1009427-light/run1009427-light.h5 tag-1491700398//
/work/sebastian/BT-20210625/1009427-light/run1009427-light.h5 tag-1491700408//
/work/sebastian/BT-20210625/1009427-light/run1009427-light.h5 tag-1491700410//
/work/sebastian/BT-20210625/1009427-light/run1009427-light.h5 tag-1491700414//
/work/sebastian/BT-20210625/1009427-light/run1009427-light.h5 tag-1491700416//
/work/sebastian/BT-20210625/1009427-light/run1009427-light.h5 tag-1491700418//
/work/sebastian/BT-20210625/1009427-light/run1009427-light.h5 tag-1491700420//
/work/sebastian/BT-20210625/1009427-light/run1009427-light.h5 tag-1491700424//
/work/sebastian/BT-20210625/1009427-light/run1009427-light.h5 tag-1491700434//
/work/sebastian/BT-20210625/1009427-light/run1009427-light.h5 tag-1491700436//
/work/sebastian/BT-20210625/1009427-light/run1009427-light.h5 tag-1491700446//
/work/sebastian/BT-20210625/1009427-light/run1009427-light.h5 tag-1491700448//
/work/sebastian/BT-20210625/1009427-light/run1009427-light.h5 tag-1491700452//
/work/sebastian/BT-20210625/1009427-light/run1009427-light.h5 tag-1491700454//
/work/sebastian/BT-20210625/1009427-light/run1009427-light.h5 tag-1491700456//
/work/sebastian/BT-20210625/1009427-light/run1009427-light.h5 tag-1491700458//
/work/sebastian/BT-20210625/1009427-light/run1009427-light.h5 tag-1491700460//
/work/sebastian/BT-20210625/1009427-light/run1009427-light.h5 tag-1491700462//
/work/sebastian/BT-20210625/1009427-light/run1009427-light.h5 tag-1491700464//
/work/sebastian/BT-20210625/1009427-light/run1009427-light.h5 tag-1491700466//
/work/sebastian/BT-20210625/1009427-light/run1009427-light.h5 tag-1491700470//
/work/sebastian/BT-20210625/1009427-light/run1009427-light.h5 tag-1491700472//
/work/sebastian/BT-20210625/1009427-light/run1009427-light.h5 tag-1491700474//
/work/sebastian/BT-20210625/1009427-light/run1009427-light.h5 tag-1491700476//
/work/sebastian/BT-20210625/1009427-light/run1009427-light.h5 tag-1491700478//
/work/sebastian/BT-20210625/1009427-light/run1009427-light.h5 tag-1491700482//
/work/sebastian/BT-20210625/1009427-light/run1009427-light.h5 tag-1491700484//
/work/sebastian/BT-20210625/1009427-light/run1009427-light.h5 tag-1491700490//
/work/sebastian/BT-20210625/1009427-light/run1009427-light.h5 tag-1491700492//
/work/sebastian/BT-20210625/1009427-light/run1009427-light.h5 tag-1491700494//
/work/sebastian/BT-20210625/1009427-light/run1009427-light.h5 tag-1491700498//
/work/sebastian/BT-20210625/1009427-light/run1009427-light.h5 tag-1491700504//
/work/sebastian/BT-20210625/1009427-light/run1009427-light.h5 tag-1491700508//
/work/sebastian/BT-20210625/1009427-light/run1009427-light.h5 tag-1491700510//
/work/sebastian/BT-20210625/1009427-light/run1009427-light.h5 tag-1491700512//
/work/sebastian/BT-20210625/1009427-light/run1009427-light.h5 tag-1491700518//
/work/sebastian/BT-20210625/1009427-light/run1009427-light.h5 tag-1491700520//
/work/sebastian/BT-20210625/1009427-light/run1009427-light.h5 tag-1491700524//
/work/sebastian/BT-20210625/1009427-light/run1009427-light.h5 tag-1491700526//
/work/sebastian/BT-20210625/1009427-light/run1009427-light.h5 tag-1491700528//
/work/sebastian/BT-20210625/1009427-light/run1009427-light.h5 tag-1491700530//
/work/sebastian/BT-20210625/1009427-light/run1009427-light.h5 tag-1491700534//
/work/sebastian/BT-20210625/1009427-light/run1009427-light.h5 tag-1491700544//
/work/sebastian/BT-20210625/1009427-light/run1009427-light.h5 tag-1491700546//
/work/sebastian/BT-20210625/1009427-light/run1009427-light.h5 tag-1491700552//
/work/sebastian/BT-20210625/1009427-light/run1009427-light.h5 tag-1491700556//
/work/sebastian/BT-20210625/1009427-light/run1009427-light.h5 tag-1491700562//
/work/sebastian/BT-20210625/1009427-light/run1009427-light.h5 tag-1491700564//
/work/sebastian/BT-20210625/1009427-light/run1009427-light.h5 tag-1491700566//
/work/sebastian/BT-20210625/1009427-light/run1009427-light.h5 tag-1491700574//
/work/sebastian/BT-20210625/1009427-light/run1009427-light.h5 tag-1491700576//
/work/sebastian/BT-20210625/1009427-light/run1009427-light.h5 tag-1491700578//
/work/sebastian/BT-20210625/1009427-light/run1009427-light.h5 tag-1491700580//
/work/sebastian/BT-20210625/1009427-light/run1009427-light.h5 tag-1491700582//
/work/sebastian/BT-20210625/1009427-light/run1009427-light.h5 tag-1491700584//
/work/sebastian/BT-20210625/1009427-light/run1009427-light.h5 tag-1491700588//
/work/sebastian/BT-20210625/1009427-light/run1009427-light.h5 tag-1491700590//
/work/sebastian/BT-20210625/1009427-light/run1009427-light.h5 tag-1491700592//
/work/sebastian/BT-20210625/1009427-light/run1009427-light.h5 tag-1491700596//
/work/sebastian/BT-20210625/1009427-light/run1009427-light.h5 tag-1491700604//
/work/sebastian/BT-20210625/1009427-light/run1009427-light.h5 tag-1491700606//
/work/sebastian/BT-20210625/1009427-light/run1009427-light.h5 tag-1491700608//
/work/sebastian/BT-20210625/1009427-light/run1009427-light.h5 tag-1491700614//
/work/sebastian/BT-20210625/1009427-light/run1009427-light.h5 tag-1491700616//
/work/sebastian/BT-20210625/1009427-light/run1009427-light.h5 tag-1491700618//
/work/sebastian/BT-20210625/1009427-light/run1009427-light.h5 tag-1491700624//
/work/sebastian/BT-20210625/1009427-light/run1009427-light.h5 tag-1491700626//
/work/sebastian/BT-20210625/1009427-light/run1009427-light.h5 tag-1491700628//
/work/sebastian/BT-20210625/1009427-light/run1009427-light.h5 tag-1491700634//
/work/sebastian/BT-20210625/1009427-light/run1009427-light.h5 tag-1491700636//
/work/sebastian/BT-20210625/1009427-light/run1009427-light.h5 tag-1491700640//
/work/sebastian/BT-20210625/1009427-light/run1009427-light.h5 tag-1491700642//
/work/sebastian/BT-20210625/1009427-light/run1009427-light.h5 tag-1491700644//
/work/sebastian/BT-20210625/1009427-light/run1009427-light.h5 tag-1491700646//
/work/sebastian/BT-20210625/1009427-light/run1009427-light.h5 tag-1491700650//
/work/sebastian/BT-20210625/1009427-light/run1009427-light.h5 tag-1491700652//
/work/sebastian/BT-20210625/1009427-light/run1009427-light.h5 tag-1491700654//
/work/sebastian/BT-20210625/1009427-light/run1009427-light.h5 tag-1491700656//
/work/sebastian/BT-20210625/1009427-light/run1009427-light.h5 tag-1491700658//
/work/sebastian/BT-20210625/1009427-light/run1009427-light.h5 tag-1491700664//
/work/sebastian/BT-20210625/1009427-light/run1009427-light.h5 tag-1491700666//
/work/sebastian/BT-20210625/1009427-light/run1009427-light.h5 tag-1491700670//
/work/sebastian/BT-20210625/1009427-light/run1009427-light.h5 tag-1491700672//
/work/sebastian/BT-20210625/1009427-light/run1009427-light.h5 tag-1491700676//
/work/sebastian/BT-20210625/1009427-light/run1009427-light.h5 tag-1491700682//
/work/sebastian/BT-20210625/1009427-light/run1009427-light.h5 tag-1491700686//
/work/sebastian/BT-20210625/1009427-light/run1009427-light.h5 tag-1491700688//
/work/sebastian/BT-20210625/1009427-light/run1009427-light.h5 tag-1491700690//
/work/sebastian/BT-20210625/1009427-light/run1009427-light.h5 tag-1491700694//
/work/sebastian/BT-20210625/1009427-light/run1009427-light.h5 tag-1491700696//
/work/sebastian/BT-20210625/1009427-light/run1009427-light.h5 tag-1491700698//
/work/sebastian/BT-20210625/1009427-light/run1009427-light.h5 tag-1491700700//
/work/sebastian/BT-20210625/1009427-light/run1009427-light.h5 tag-1491700702//
/work/sebastian/BT-20210625/1009427-light/run1009427-light.h5 tag-1491700704//
/work/sebastian/BT-20210625/1009427-light/run1009427-light.h5 tag-1491700706//
/work/sebastian/BT-20210625/1009427-light/run1009427-light.h5 tag-1491700708//
/work/sebastian/BT-20210625/1009427-light/run1009427-light.h5 tag-1491700710//
/work/sebastian/BT-20210625/1009427-light/run1009427-light.h5 tag-1491700712//
/work/sebastian/BT-20210625/1009427-light/run1009427-light.h5 tag-1491700714//
/work/sebastian/BT-20210625/1009427-light/run1009427-light.h5 tag-1491700716//
/work/sebastian/BT-20210625/1009427-light/run1009427-light.h5 tag-1491700720//
/work/sebastian/BT-20210625/1009427-light/run1009427-light.h5 tag-1491701302//
/work/sebastian/BT-20210625/1009427-light/run1009427-light.h5 tag-1491701304//
/work/sebastian/BT-20210625/1009427-light/run1009427-light.h5 tag-1491701316//
/work/sebastian/BT-20210625/1009427-light/run1009427-light.h5 tag-1491701318//
/work/sebastian/BT-20210625/1009427-light/run1009427-light.h5 tag-1491701320//
/work/sebastian/BT-20210625/1009427-light/run1009427-light.h5 tag-1491701324//
/work/sebastian/BT-20210625/1009427-light/run1009427-light.h5 tag-1491701332//
/work/sebastian/BT-20210625/1009427-light/run1009427-light.h5 tag-1491701334//
/work/sebastian/BT-20210625/1009427-light/run1009427-light.h5 tag-1491701336//
/work/sebastian/BT-20210625/1009427-light/run1009427-light.h5 tag-1491701338//
/work/sebastian/BT-20210625/1009427-light/run1009427-light.h5 tag-1491701342//
/work/sebastian/BT-20210625/1009427-light/run1009427-light.h5 tag-1491701344//
/work/sebastian/BT-20210625/1009427-light/run1009427-light.h5 tag-1491701346//
/work/sebastian/BT-20210625/1009427-light/run1009427-light.h5 tag-1491701348//
/work/sebastian/BT-20210625/1009427-light/run1009427-light.h5 tag-1491701352//
/work/sebastian/BT-20210625/1009427-light/run1009427-light.h5 tag-1491701354//
/work/sebastian/BT-20210625/1009427-light/run1009427-light.h5 tag-1491701356//
/work/sebastian/BT-20210625/1009427-light/run1009427-light.h5 tag-1491701358//
/work/sebastian/BT-20210625/1009427-light/run1009427-light.h5 tag-1491701364//
/work/sebastian/BT-20210625/1009427-light/run1009427-light.h5 tag-1491701368//
/work/sebastian/BT-20210625/1009427-light/run1009427-light.h5 tag-1491701372//
/work/sebastian/BT-20210625/1009427-light/run1009427-light.h5 tag-1491701374//
/work/sebastian/BT-20210625/1009427-light/run1009427-light.h5 tag-1491701376//
/work/sebastian/BT-20210625/1009427-light/run1009427-light.h5 tag-1491701378//
/work/sebastian/BT-20210625/1009427-light/run1009427-light.h5 tag-1491701380//
/work/sebastian/BT-20210625/1009427-light/run1009427-light.h5 tag-1491701382//
/work/sebastian/BT-20210625/1009427-light/run1009427-light.h5 tag-1491701384//
/work/sebastian/BT-20210625/1009427-light/run1009427-light.h5 tag-1491701386//
/work/sebastian/BT-20210625/1009427-light/run1009427-light.h5 tag-1491701388//
/work/sebastian/BT-20210625/1009427-light/run1009427-light.h5 tag-1491701390//
/work/sebastian/BT-20210625/1009427-light/run1009427-light.h5 tag-1491701392//
/work/sebastian/BT-20210625/1009427-light/run1009427-light.h5 tag-1491701394//
/work/sebastian/BT-20210625/1009427-light/run1009427-light.h5 tag-1491701396//
/work/sebastian/BT-20210625/1009427-light/run1009427-light.h5 tag-1491701402//
/work/sebastian/BT-20210625/1009427-light/run1009427-light.h5 tag-1491701404//
/work/sebastian/BT-20210625/1009427-light/run1009427-light.h5 tag-1491701406//
/work/sebastian/BT-20210625/1009427-light/run1009427-light.h5 tag-1491701408//
/work/sebastian/BT-20210625/1009427-light/run1009427-light.h5 tag-1491701412//
/work/sebastian/BT-20210625/1009427-light/run1009427-light.h5 tag-1491701414//
/work/sebastian/BT-20210625/1009427-light/run1009427-light.h5 tag-1491701418//
/work/sebastian/BT-20210625/1009427-light/run1009427-light.h5 tag-1491701420//
/work/sebastian/BT-20210625/1009427-light/run1009427-light.h5 tag-1491701424//
/work/sebastian/BT-20210625/1009427-light/run1009427-light.h5 tag-1491701426//
/work/sebastian/BT-20210625/1009427-light/run1009427-light.h5 tag-1491701430//
/work/sebastian/BT-20210625/1009427-light/run1009427-light.h5 tag-1491701436//
/work/sebastian/BT-20210625/1009427-light/run1009427-light.h5 tag-1491701438//
/work/sebastian/BT-20210625/1009427-light/run1009427-light.h5 tag-1491701442//
/work/sebastian/BT-20210625/1009427-light/run1009427-light.h5 tag-1491701444//
/work/sebastian/BT-20210625/1009427-light/run1009427-light.h5 tag-1491701448//
/work/sebastian/BT-20210625/1009427-light/run1009427-light.h5 tag-1491701450//
/work/sebastian/BT-20210625/1009427-light/run1009427-light.h5 tag-1491701452//
/work/sebastian/BT-20210625/1009427-light/run1009427-light.h5 tag-1491701454//
/work/sebastian/BT-20210625/1009427-light/run1009427-light.h5 tag-1491701456//
/work/sebastian/BT-20210625/1009427-light/run1009427-light.h5 tag-1491701458//
/work/sebastian/BT-20210625/1009427-light/run1009427-light.h5 tag-1491701460//
/work/sebastian/BT-20210625/1009427-light/run1009427-light.h5 tag-1491701462//
/work/sebastian/BT-20210625/1009427-light/run1009427-light.h5 tag-1491701464//
/work/sebastian/BT-20210625/1009427-light/run1009427-light.h5 tag-1491701466//
/work/sebastian/BT-20210625/1009427-light/run1009427-light.h5 tag-1491701470//
/work/sebastian/BT-20210625/1009427-light/run1009427-light.h5 tag-1491701472//
/work/sebastian/BT-20210625/1009427-light/run1009427-light.h5 tag-1491701474//
/work/sebastian/BT-20210625/1009427-light/run1009427-light.h5 tag-1491701476//
/work/sebastian/BT-20210625/1009427-light/run1009427-light.h5 tag-1491701480//
/work/sebastian/BT-20210625/1009427-light/run1009427-light.h5 tag-1491701482//
/work/sebastian/BT-20210625/1009427-light/run1009427-light.h5 tag-1491701486//
/work/sebastian/BT-20210625/1009427-light/run1009427-light.h5 tag-1491701488//
/work/sebastian/BT-20210625/1009427-light/run1009427-light.h5 tag-1491701490//
/work/sebastian/BT-20210625/1009427-light/run1009427-light.h5 tag-1491701492//
/work/sebastian/BT-20210625/1009427-light/run1009427-light.h5 tag-1491701494//
/work/sebastian/BT-20210625/1009427-light/run1009427-light.h5 tag-1491701496//
/work/sebastian/BT-20210625/1009427-light/run1009427-light.h5 tag-1491701498//
/work/sebastian/BT-20210625/1009427-light/run1009427-light.h5 tag-1491701506//
/work/sebastian/BT-20210625/1009427-light/run1009427-light.h5 tag-1491701508//
/work/sebastian/BT-20210625/1009427-light/run1009427-light.h5 tag-1491701514//
/work/sebastian/BT-20210625/1009427-light/run1009427-light.h5 tag-1491701516//
/work/sebastian/BT-20210625/1009427-light/run1009427-light.h5 tag-1491701518//
/work/sebastian/BT-20210625/1009427-light/run1009427-light.h5 tag-1491701520//
/work/sebastian/BT-20210625/1009427-light/run1009427-light.h5 tag-1491701522//
/work/sebastian/BT-20210625/1009427-light/run1009427-light.h5 tag-1491701526//
/work/sebastian/BT-20210625/1009427-light/run1009427-light.h5 tag-1491701528//
/work/sebastian/BT-20210625/1009427-light/run1009427-light.h5 tag-1491701530//
/work/sebastian/BT-20210625/1009427-light/run1009427-light.h5 tag-1491701532//
/work/sebastian/BT-20210625/1009427-light/run1009427-light.h5 tag-1491701534//
/work/sebastian/BT-20210625/1009427-light/run1009427-light.h5 tag-1491701536//
/work/sebastian/BT-20210625/1009427-light/run1009427-light.h5 tag-1491701542//
/work/sebastian/BT-20210625/1009427-light/run1009427-light.h5 tag-1491701546//
/work/sebastian/BT-20210625/1009427-light/run1009427-light.h5 tag-1491701548//
/work/sebastian/BT-20210625/1009427-light/run1009427-light.h5 tag-1491701550//
/work/sebastian/BT-20210625/1009427-light/run1009427-light.h5 tag-1491701552//
/work/sebastian/BT-20210625/1009427-light/run1009427-light.h5 tag-1491701554//
/work/sebastian/BT-20210625/1009427-light/run1009427-light.h5 tag-1491701560//
/work/sebastian/BT-20210625/1009427-light/run1009427-light.h5 tag-1491701562//
/work/sebastian/BT-20210625/1009427-light/run1009427-light.h5 tag-1491701566//
/work/sebastian/BT-20210625/1009427-light/run1009427-light.h5 tag-1491701568//
/work/sebastian/BT-20210625/1009427-light/run1009427-light.h5 tag-1491701570//
/work/sebastian/BT-20210625/1009427-light/run1009427-light.h5 tag-1491701572//
/work/sebastian/BT-20210625/1009427-light/run1009427-light.h5 tag-1491701578//
/work/sebastian/BT-20210625/1009427-light/run1009427-light.h5 tag-1491701586//
/work/sebastian/BT-20210625/1009427-light/run1009427-light.h5 tag-1491701588//
/work/sebastian/BT-20210625/1009427-light/run1009427-light.h5 tag-1491701590//
/work/sebastian/BT-20210625/1009427-light/run1009427-light.h5 tag-1491701592//
/work/sebastian/BT-20210625/1009427-light/run1009427-light.h5 tag-1491701594//
/work/sebastian/BT-20210625/1009427-light/run1009427-light.h5 tag-1491701596//
/work/sebastian/BT-20210625/1009427-light/run1009427-light.h5 tag-1491701598//
/work/sebastian/BT-20210625/1009427-light/run1009427-light.h5 tag-1491701602//
/work/sebastian/BT-20210625/1009427-light/run1009427-light.h5 tag-1491701604//
/work/sebastian/BT-20210625/1009427-light/run1009427-light.h5 tag-1491701606//
/work/sebastian/BT-20210625/1009427-light/run1009427-light.h5 tag-1491701608//
/work/sebastian/BT-20210625/1009427-light/run1009427-light.h5 tag-1491701610//
/work/sebastian/BT-20210625/1009427-light/run1009427-light.h5 tag-1491701612//
/work/sebastian/BT-20210625/1009427-light/run1009427-light.h5 tag-1491701614//
/work/sebastian/BT-20210625/1009427-light/run1009427-light.h5 tag-1491701616//
/work/sebastian/BT-20210625/1009427-light/run1009427-light.h5 tag-1491701620//
/work/sebastian/BT-20210625/1009427-light/run1009427-light.h5 tag-1491701622//
/work/sebastian/BT-20210625/1009427-light/run1009427-light.h5 tag-1491701624//
/work/sebastian/BT-20210625/1009427-light/run1009427-light.h5 tag-1491701626//
/work/sebastian/BT-20210625/1009427-light/run1009427-light.h5 tag-1491701628//
/work/sebastian/BT-20210625/1009427-light/run1009427-light.h5 tag-1491701630//
/work/sebastian/BT-20210625/1009427-light/run1009427-light.h5 tag-1491701634//
/work/sebastian/BT-20210625/1009427-light/run1009427-light.h5 tag-1491701636//
/work/sebastian/BT-20210625/1009427-light/run1009427-light.h5 tag-1491701638//
/work/sebastian/BT-20210625/1009427-light/run1009427-light.h5 tag-1491701640//
/work/sebastian/BT-20210625/1009427-light/run1009427-light.h5 tag-1491701646//
/work/sebastian/BT-20210625/1009427-light/run1009427-light.h5 tag-1491701648//
/work/sebastian/BT-20210625/1009427-light/run1009427-light.h5 tag-1491701650//
/work/sebastian/BT-20210625/1009427-light/run1009427-light.h5 tag-1491701652//
/work/sebastian/BT-20210625/1009427-light/run1009427-light.h5 tag-1491701658//
/work/sebastian/BT-20210625/1009427-light/run1009427-light.h5 tag-1491701660//
/work/sebastian/BT-20210625/1009427-light/run1009427-light.h5 tag-1491701662//
/work/sebastian/BT-20210625/1009427-light/run1009427-light.h5 tag-1491701666//
/work/sebastian/BT-20210625/1009427-light/run1009427-light.h5 tag-1491701668//
/work/sebastian/BT-20210625/1009427-light/run1009427-light.h5 tag-1491701670//
/work/sebastian/BT-20210625/1009427-light/run1009427-light.h5 tag-1491701674//
/work/sebastian/BT-20210625/1009427-light/run1009427-light.h5 tag-1491701676//
/work/sebastian/BT-20210625/1009427-light/run1009427-light.h5 tag-1491701678//
/work/sebastian/BT-20210625/1009427-light/run1009427-light.h5 tag-1491701682//
/work/sebastian/BT-20210625/1009427-light/run1009427-light.h5 tag-1491701684//
/work/sebastian/BT-20210625/1009427-light/run1009427-light.h5 tag-1491701688//
/work/sebastian/BT-20210625/1009427-light/run1009427-light.h5 tag-1491701690//
/work/sebastian/BT-20210625/1009427-light/run1009427-light.h5 tag-1491701692//
/work/sebastian/BT-20210625/1009427-light/run1009427-light.h5 tag-1491701694//
/work/sebastian/BT-20210625/1009427-light/run1009427-light.h5 tag-1491701696//
/work/sebastian/BT-20210625/1009427-light/run1009427-light.h5 tag-1491701698//
/work/sebastian/BT-20210625/1009427-light/run1009427-light.h5 tag-1491701700//
/work/sebastian/BT-20210625/1009427-light/run1009427-light.h5 tag-1491701702//
/work/sebastian/BT-20210625/1009427-light/run1009427-light.h5 tag-1491701706//
/work/sebastian/BT-20210625/1009427-light/run1009427-light.h5 tag-1491701708//
/work/sebastian/BT-20210625/1009427-light/run1009427-light.h5 tag-1491701710//
/work/sebastian/BT-20210625/1009427-light/run1009427-light.h5 tag-1491701712//
/work/sebastian/BT-20210625/1009427-light/run1009427-light.h5 tag-1491701714//
/work/sebastian/BT-20210625/1009427-light/run1009427-light.h5 tag-1491701716//
/work/sebastian/BT-20210625/1009427-light/run1009427-light.h5 tag-1491701722//
/work/sebastian/BT-20210625/1009427-light/run1009427-light.h5 tag-1491701724//
/work/sebastian/BT-20210625/1009427-light/run1009427-light.h5 tag-1491701728//
/work/sebastian/BT-20210625/1009427-light/run1009427-light.h5 tag-1491701730//
/work/sebastian/BT-20210625/1009427-light/run1009427-light.h5 tag-1491701734//
/work/sebastian/BT-20210625/1009427-light/run1009427-light.h5 tag-1491701736//
/work/sebastian/BT-20210625/1009427-light/run1009427-light.h5 tag-1491701738//
/work/sebastian/BT-20210625/1009427-light/run1009427-light.h5 tag-1491701744//
/work/sebastian/BT-20210625/1009427-light/run1009427-light.h5 tag-1491701746//
/work/sebastian/BT-20210625/1009427-light/run1009427-light.h5 tag-1491701748//
/work/sebastian/BT-20210625/1009427-light/run1009427-light.h5 tag-1491701750//
/work/sebastian/BT-20210625/1009427-light/run1009427-light.h5 tag-1491701752//
/work/sebastian/BT-20210625/1009427-light/run1009427-light.h5 tag-1491701754//
/work/sebastian/BT-20210625/1009427-light/run1009427-light.h5 tag-1491701758//
/work/sebastian/BT-20210625/1009427-light/run1009427-light.h5 tag-1491701760//
/work/sebastian/BT-20210625/1009427-light/run1009427-light.h5 tag-1491701762//
/work/sebastian/BT-20210625/1009427-light/run1009427-light.h5 tag-1491701764//
/work/sebastian/BT-20210625/1009427-light/run1009427-light.h5 tag-1491701766//
/work/sebastian/BT-20210625/1009427-light/run1009427-light.h5 tag-1491701770//
/work/sebastian/BT-20210625/1009427-light/run1009427-light.h5 tag-1491701772//
/work/sebastian/BT-20210625/1009427-light/run1009427-light.h5 tag-1491701776//
/work/sebastian/BT-20210625/1009427-light/run1009427-light.h5 tag-1491701780//
/work/sebastian/BT-20210625/1009427-light/run1009427-light.h5 tag-1491701782//
/work/sebastian/BT-20210625/1009427-light/run1009427-light.h5 tag-1491701786//
/work/sebastian/BT-20210625/1009427-light/run1009427-light.h5 tag-1491701788//
/work/sebastian/BT-20210625/1009427-light/run1009427-light.h5 tag-1491701790//
/work/sebastian/BT-20210625/1009427-light/run1009427-light.h5 tag-1491701798//
/work/sebastian/BT-20210625/1009427-light/run1009427-light.h5 tag-1491701800//
/work/sebastian/BT-20210625/1009427-light/run1009427-light.h5 tag-1491701802//
/work/sebastian/BT-20210625/1009427-light/run1009427-light.h5 tag-1491701804//
/work/sebastian/BT-20210625/1009427-light/run1009427-light.h5 tag-1491701806//
/work/sebastian/BT-20210625/1009427-light/run1009427-light.h5 tag-1491701812//
/work/sebastian/BT-20210625/1009427-light/run1009427-light.h5 tag-1491701814//
/work/sebastian/BT-20210625/1009427-light/run1009427-light.h5 tag-1491701816//
/work/sebastian/BT-20210625/1009427-light/run1009427-light.h5 tag-1491701820//
/work/sebastian/BT-20210625/1009427-light/run1009427-light.h5 tag-1491701822//
/work/sebastian/BT-20210625/1009427-light/run1009427-light.h5 tag-1491701826//
/work/sebastian/BT-20210625/1009427-light/run1009427-light.h5 tag-1491701828//
/work/sebastian/BT-20210625/1009427-light/run1009427-light.h5 tag-1491701834//
/work/sebastian/BT-20210625/1009427-light/run1009427-light.h5 tag-1491701836//
/work/sebastian/BT-20210625/1009427-light/run1009427-light.h5 tag-1491701838//
/work/sebastian/BT-20210625/1009427-light/run1009427-light.h5 tag-1491701846//
/work/sebastian/BT-20210625/1009427-light/run1009427-light.h5 tag-1491701848//
/work/sebastian/BT-20210625/1009427-light/run1009427-light.h5 tag-1491701850//
/work/sebastian/BT-20210625/1009427-light/run1009427-light.h5 tag-1491701852//
/work/sebastian/BT-20210625/1009427-light/run1009427-light.h5 tag-1491701854//
/work/sebastian/BT-20210625/1009427-light/run1009427-light.h5 tag-1491701856//
/work/sebastian/BT-20210625/1009427-light/run1009427-light.h5 tag-1491701858//
/work/sebastian/BT-20210625/1009427-light/run1009427-light.h5 tag-1491701862//
/work/sebastian/BT-20210625/1009427-light/run1009427-light.h5 tag-1491701864//
/work/sebastian/BT-20210625/1009427-light/run1009427-light.h5 tag-1491701866//
/work/sebastian/BT-20210625/1009427-light/run1009427-light.h5 tag-1491701868//
/work/sebastian/BT-20210625/1009427-light/run1009427-light.h5 tag-1491701870//
/work/sebastian/BT-20210625/1009427-light/run1009427-light.h5 tag-1491701872//
/work/sebastian/BT-20210625/1009427-light/run1009427-light.h5 tag-1491701874//
/work/sebastian/BT-20210625/1009427-light/run1009427-light.h5 tag-1491701876//
/work/sebastian/BT-20210625/1009427-light/run1009427-light.h5 tag-1491701878//
/work/sebastian/BT-20210625/1009427-light/run1009427-light.h5 tag-1491701880//
/work/sebastian/BT-20210625/1009427-light/run1009427-light.h5 tag-1491701882//
/work/sebastian/BT-20210625/1009427-light/run1009427-light.h5 tag-1491701884//
/work/sebastian/BT-20210625/1009427-light/run1009427-light.h5 tag-1491701886//
/work/sebastian/BT-20210625/1009427-light/run1009427-light.h5 tag-1491701888//
/work/sebastian/BT-20210625/1009427-light/run1009427-light.h5 tag-1491701890//
/work/sebastian/BT-20210625/1009427-light/run1009427-light.h5 tag-1491701892//
/work/sebastian/BT-20210625/1009427-light/run1009427-light.h5 tag-1491701896//
/work/sebastian/BT-20210625/1009427-light/run1009427-light.h5 tag-1491701898//
/work/sebastian/BT-20210625/1009427-light/run1009427-light.h5 tag-1491701900//
/work/sebastian/BT-20210625/1009427-light/run1009427-light.h5 tag-1491701902//
/work/sebastian/BT-20210625/1009427-light/run1009427-light.h5 tag-1491701904//
/work/sebastian/BT-20210625/1009427-light/run1009427-light.h5 tag-1491701908//
/work/sebastian/BT-20210625/1009427-light/run1009427-light.h5 tag-1491701910//
/work/sebastian/BT-20210625/1009427-light/run1009427-light.h5 tag-1491701912//
/work/sebastian/BT-20210625/1009427-light/run1009427-light.h5 tag-1491701914//
/work/sebastian/BT-20210625/1009427-light/run1009427-light.h5 tag-1491701916//
/work/sebastian/BT-20210625/1009427-light/run1009427-light.h5 tag-1491701920//
/work/sebastian/BT-20210625/1009427-light/run1009427-light.h5 tag-1491701922//
/work/sebastian/BT-20210625/1009427-light/run1009427-light.h5 tag-1491701924//
/work/sebastian/BT-20210625/1009427-light/run1009427-light.h5 tag-1491701928//
/work/sebastian/BT-20210625/1009427-light/run1009427-light.h5 tag-1491701930//
/work/sebastian/BT-20210625/1009427-light/run1009427-light.h5 tag-1491701932//
/work/sebastian/BT-20210625/1009427-light/run1009427-light.h5 tag-1491701934//
/work/sebastian/BT-20210625/1009427-light/run1009427-light.h5 tag-1491701938//
/work/sebastian/BT-20210625/1009427-light/run1009427-light.h5 tag-1491701940//
/work/sebastian/BT-20210625/1009427-light/run1009427-light.h5 tag-1491701942//
/work/sebastian/BT-20210625/1009427-light/run1009427-light.h5 tag-1491701946//
/work/sebastian/BT-20210625/1009427-light/run1009427-light.h5 tag-1491701948//
/work/sebastian/BT-20210625/1009427-light/run1009427-light.h5 tag-1491701952//
/work/sebastian/BT-20210625/1009427-light/run1009427-light.h5 tag-1491701954//
/work/sebastian/BT-20210625/1009427-light/run1009427-light.h5 tag-1491701956//
/work/sebastian/BT-20210625/1009427-light/run1009427-light.h5 tag-1491701958//
/work/sebastian/BT-20210625/1009427-light/run1009427-light.h5 tag-1491701960//
/work/sebastian/BT-20210625/1009427-light/run1009427-light.h5 tag-1491701962//
/work/sebastian/BT-20210625/1009427-light/run1009427-light.h5 tag-1491701964//
/work/sebastian/BT-20210625/1009427-light/run1009427-light.h5 tag-1491701966//
/work/sebastian/BT-20210625/1009427-light/run1009427-light.h5 tag-1491701968//
/work/sebastian/BT-20210625/1009427-light/run1009427-light.h5 tag-1491701970//
/work/sebastian/BT-20210625/1009427-light/run1009427-light.h5 tag-1491701972//
/work/sebastian/BT-20210625/1009427-light/run1009427-light.h5 tag-1491701974//
/work/sebastian/BT-20210625/1009427-light/run1009427-light.h5 tag-1491701976//
/work/sebastian/BT-20210625/1009427-light/run1009427-light.h5 tag-1491701980//
/work/sebastian/BT-20210625/1009427-light/run1009427-light.h5 tag-1491701982//
/work/sebastian/BT-20210625/1009427-light/run1009427-light.h5 tag-1491701984//
/work/sebastian/BT-20210625/1009427-light/run1009427-light.h5 tag-1491701986//
/work/sebastian/BT-20210625/1009427-light/run1009427-light.h5 tag-1491701988//
/work/sebastian/BT-20210625/1009427-light/run1009427-light.h5 tag-1491701990//
/work/sebastian/BT-20210625/1009427-light/run1009427-light.h5 tag-1491701994//
/work/sebastian/BT-20210625/1009427-light/run1009427-light.h5 tag-1491702000//
/work/sebastian/BT-20210625/1009427-light/run1009427-light.h5 tag-1491702002//
/work/sebastian/BT-20210625/1009427-light/run1009427-light.h5 tag-1491702006//
/work/sebastian/BT-20210625/1009427-light/run1009427-light.h5 tag-1491702008//
/work/sebastian/BT-20210625/1009427-light/run1009427-light.h5 tag-1491702010//
/work/sebastian/BT-20210625/1009427-light/run1009427-light.h5 tag-1491702012//
/work/sebastian/BT-20210625/1009427-light/run1009427-light.h5 tag-1491702024//
/work/sebastian/BT-20210625/1009427-light/run1009427-light.h5 tag-1491702026//
/work/sebastian/BT-20210625/1009427-light/run1009427-light.h5 tag-1491702028//
/work/sebastian/BT-20210625/1009427-light/run1009427-light.h5 tag-1491702030//
/work/sebastian/BT-20210625/1009427-light/run1009427-light.h5 tag-1491702034//
/work/sebastian/BT-20210625/1009427-light/run1009427-light.h5 tag-1491702036//
/work/sebastian/BT-20210625/1009427-light/run1009427-light.h5 tag-1491702038//
/work/sebastian/BT-20210625/1009427-light/run1009427-light.h5 tag-1491702040//
/work/sebastian/BT-20210625/1009427-light/run1009427-light.h5 tag-1491702042//
/work/sebastian/BT-20210625/1009427-light/run1009427-light.h5 tag-1491702048//
/work/sebastian/BT-20210625/1009427-light/run1009427-light.h5 tag-1491702054//
/work/sebastian/BT-20210625/1009427-light/run1009427-light.h5 tag-1491702060//
/work/sebastian/BT-20210625/1009427-light/run1009427-light.h5 tag-1491702064//
/work/sebastian/BT-20210625/1009427-light/run1009427-light.h5 tag-1491702070//
/work/sebastian/BT-20210625/1009427-light/run1009427-light.h5 tag-1491702072//
/work/sebastian/BT-20210625/1009427-light/run1009427-light.h5 tag-1491702074//
/work/sebastian/BT-20210625/1009427-light/run1009427-light.h5 tag-1491702076//
/work/sebastian/BT-20210625/1009427-light/run1009427-light.h5 tag-1491702078//
/work/sebastian/BT-20210625/1009427-light/run1009427-light.h5 tag-1491702080//
/work/sebastian/BT-20210625/1009427-light/run1009427-light.h5 tag-1491702082//
/work/sebastian/BT-20210625/1009427-light/run1009427-light.h5 tag-1491702084//
/work/sebastian/BT-20210625/1009427-light/run1009427-light.h5 tag-1491702086//
/work/sebastian/BT-20210625/1009427-light/run1009427-light.h5 tag-1491702090//
/work/sebastian/BT-20210625/1009427-light/run1009427-light.h5 tag-1491702092//
/work/sebastian/BT-20210625/1009427-light/run1009427-light.h5 tag-1491702094//
/work/sebastian/BT-20210625/1009427-light/run1009427-light.h5 tag-1491702100//
/work/sebastian/BT-20210625/1009427-light/run1009427-light.h5 tag-1491702102//
/work/sebastian/BT-20210625/1009427-light/run1009427-light.h5 tag-1491702104//
/work/sebastian/BT-20210625/1009427-light/run1009427-light.h5 tag-1491702110//
/work/sebastian/BT-20210625/1009427-light/run1009427-light.h5 tag-1491702112//
/work/sebastian/BT-20210625/1009427-light/run1009427-light.h5 tag-1491702114//
/work/sebastian/BT-20210625/1009427-light/run1009427-light.h5 tag-1491702116//
/work/sebastian/BT-20210625/1009427-light/run1009427-light.h5 tag-1491702118//
/work/sebastian/BT-20210625/1009427-light/run1009427-light.h5 tag-1491702120//
/work/sebastian/BT-20210625/1009427-light/run1009427-light.h5 tag-1491702122//
/work/sebastian/BT-20210625/1009427-light/run1009427-light.h5 tag-1491702124//
/work/sebastian/BT-20210625/1009427-light/run1009427-light.h5 tag-1491702128//
/work/sebastian/BT-20210625/1009427-light/run1009427-light.h5 tag-1491702130//
/work/sebastian/BT-20210625/1009427-light/run1009427-light.h5 tag-1491702132//
/work/sebastian/BT-20210625/1009427-light/run1009427-light.h5 tag-1491702134//
/work/sebastian/BT-20210625/1009427-light/run1009427-light.h5 tag-1491702136//
/work/sebastian/BT-20210625/1009427-light/run1009427-light.h5 tag-1491702140//
/work/sebastian/BT-20210625/1009427-light/run1009427-light.h5 tag-1491702142//
/work/sebastian/BT-20210625/1009427-light/run1009427-light.h5 tag-1491702146//
/work/sebastian/BT-20210625/1009427-light/run1009427-light.h5 tag-1491702148//
/work/sebastian/BT-20210625/1009427-light/run1009427-light.h5 tag-1491702152//
/work/sebastian/BT-20210625/1009427-light/run1009427-light.h5 tag-1491702154//
/work/sebastian/BT-20210625/1009427-light/run1009427-light.h5 tag-1491702156//
/work/sebastian/BT-20210625/1009427-light/run1009427-light.h5 tag-1491702158//
/work/sebastian/BT-20210625/1009427-light/run1009427-light.h5 tag-1491702160//
/work/sebastian/BT-20210625/1009427-light/run1009427-light.h5 tag-1491702162//
/work/sebastian/BT-20210625/1009427-light/run1009427-light.h5 tag-1491702166//
/work/sebastian/BT-20210625/1009427-light/run1009427-light.h5 tag-1491702168//
/work/sebastian/BT-20210625/1009427-light/run1009427-light.h5 tag-1491702172//
/work/sebastian/BT-20210625/1009427-light/run1009427-light.h5 tag-1491702174//
/work/sebastian/BT-20210625/1009427-light/run1009427-light.h5 tag-1491702176//
/work/sebastian/BT-20210625/1009427-light/run1009427-light.h5 tag-1491702178//
/work/sebastian/BT-20210625/1009427-light/run1009427-light.h5 tag-1491702180//
/work/sebastian/BT-20210625/1009427-light/run1009427-light.h5 tag-1491702182//
/work/sebastian/BT-20210625/1009427-light/run1009427-light.h5 tag-1491702184//
/work/sebastian/BT-20210625/1009427-light/run1009427-light.h5 tag-1491702190//
/work/sebastian/BT-20210625/1009427-light/run1009427-light.h5 tag-1491702194//
/work/sebastian/BT-20210625/1009427-light/run1009427-light.h5 tag-1491702196//
/work/sebastian/BT-20210625/1009427-light/run1009427-light.h5 tag-1491702200//
/work/sebastian/BT-20210625/1009427-light/run1009427-light.h5 tag-1491702206//
/work/sebastian/BT-20210625/1009427-light/run1009427-light.h5 tag-1491702210//
/work/sebastian/BT-20210625/1009427-light/run1009427-light.h5 tag-1491702212//
/work/sebastian/BT-20210625/1009427-light/run1009427-light.h5 tag-1491702214//
/work/sebastian/BT-20210625/1009427-light/run1009427-light.h5 tag-1491702218//
/work/sebastian/BT-20210625/1009427-light/run1009427-light.h5 tag-1491702224//
/work/sebastian/BT-20210625/1009427-light/run1009427-light.h5 tag-1491702228//
/work/sebastian/BT-20210625/1009427-light/run1009427-light.h5 tag-1491702230//
/work/sebastian/BT-20210625/1009427-light/run1009427-light.h5 tag-1491702232//
/work/sebastian/BT-20210625/1009427-light/run1009427-light.h5 tag-1491702236//
/work/sebastian/BT-20210625/1009427-light/run1009427-light.h5 tag-1491702238//
/work/sebastian/BT-20210625/1009427-light/run1009427-light.h5 tag-1491702244//
/work/sebastian/BT-20210625/1009427-light/run1009427-light.h5 tag-1491702246//
/work/sebastian/BT-20210625/1009427-light/run1009427-light.h5 tag-1491702248//
/work/sebastian/BT-20210625/1009427-light/run1009427-light.h5 tag-1491702250//
/work/sebastian/BT-20210625/1009427-light/run1009427-light.h5 tag-1491702252//
/work/sebastian/BT-20210625/1009427-light/run1009427-light.h5 tag-1491702254//
/work/sebastian/BT-20210625/1009427-light/run1009427-light.h5 tag-1491702256//
/work/sebastian/BT-20210625/1009427-light/run1009427-light.h5 tag-1491702260//
/work/sebastian/BT-20210625/1009427-light/run1009427-light.h5 tag-1491702262//
/work/sebastian/BT-20210625/1009427-light/run1009427-light.h5 tag-1491702268//
/work/sebastian/BT-20210625/1009427-light/run1009427-light.h5 tag-1491702272//
/work/sebastian/BT-20210625/1009427-light/run1009427-light.h5 tag-1491702274//
/work/sebastian/BT-20210625/1009427-light/run1009427-light.h5 tag-1491702278//
/work/sebastian/BT-20210625/1009427-light/run1009427-light.h5 tag-1491702280//
/work/sebastian/BT-20210625/1009427-light/run1009427-light.h5 tag-1491702282//
/work/sebastian/BT-20210625/1009427-light/run1009427-light.h5 tag-1491702290//
/work/sebastian/BT-20210625/1009427-light/run1009427-light.h5 tag-1491702294//
/work/sebastian/BT-20210625/1009427-light/run1009427-light.h5 tag-1491702296//
/work/sebastian/BT-20210625/1009427-light/run1009427-light.h5 tag-1491702300//
/work/sebastian/BT-20210625/1009427-light/run1009427-light.h5 tag-1491702306//
/work/sebastian/BT-20210625/1009427-light/run1009427-light.h5 tag-1491702308//
/work/sebastian/BT-20210625/1009427-light/run1009427-light.h5 tag-1491702310//
/work/sebastian/BT-20210625/1009427-light/run1009427-light.h5 tag-1491702312//
/work/sebastian/BT-20210625/1009427-light/run1009427-light.h5 tag-1491702316//
/work/sebastian/BT-20210625/1009427-light/run1009427-light.h5 tag-1491702318//
/work/sebastian/BT-20210625/1009427-light/run1009427-light.h5 tag-1491702320//
/work/sebastian/BT-20210625/1009427-light/run1009427-light.h5 tag-1491702322//
/work/sebastian/BT-20210625/1009427-light/run1009427-light.h5 tag-1491702324//
/work/sebastian/BT-20210625/1009427-light/run1009427-light.h5 tag-1491702326//
/work/sebastian/BT-20210625/1009427-light/run1009427-light.h5 tag-1491702328//
/work/sebastian/BT-20210625/1009427-light/run1009427-light.h5 tag-1491702332//
/work/sebastian/BT-20210625/1009427-light/run1009427-light.h5 tag-1491702334//
/work/sebastian/BT-20210625/1009427-light/run1009427-light.h5 tag-1491702338//
/work/sebastian/BT-20210625/1009427-light/run1009427-light.h5 tag-1491702340//
/work/sebastian/BT-20210625/1009427-light/run1009427-light.h5 tag-1491702344//
/work/sebastian/BT-20210625/1009427-light/run1009427-light.h5 tag-1491702348//
/work/sebastian/BT-20210625/1009427-light/run1009427-light.h5 tag-1491702350//
/work/sebastian/BT-20210625/1009427-light/run1009427-light.h5 tag-1491702354//
/work/sebastian/BT-20210625/1009427-light/run1009427-light.h5 tag-1491702356//
/work/sebastian/BT-20210625/1009427-light/run1009427-light.h5 tag-1491702360//
/work/sebastian/BT-20210625/1009427-light/run1009427-light.h5 tag-1491702362//
/work/sebastian/BT-20210625/1009427-light/run1009427-light.h5 tag-1491702364//
/work/sebastian/BT-20210625/1009427-light/run1009427-light.h5 tag-1491702366//
/work/sebastian/BT-20210625/1009427-light/run1009427-light.h5 tag-1491702368//
/work/sebastian/BT-20210625/1009427-light/run1009427-light.h5 tag-1491702370//
/work/sebastian/BT-20210625/1009427-light/run1009427-light.h5 tag-1491702374//
/work/sebastian/BT-20210625/1009427-light/run1009427-light.h5 tag-1491702378//
/work/sebastian/BT-20210625/1009427-light/run1009427-light.h5 tag-1491702382//
/work/sebastian/BT-20210625/1009427-light/run1009427-light.h5 tag-1491702384//
/work/sebastian/BT-20210625/1009427-light/run1009427-light.h5 tag-1491702388//
/work/sebastian/BT-20210625/1009427-light/run1009427-light.h5 tag-1491702392//
/work/sebastian/BT-20210625/1009427-light/run1009427-light.h5 tag-1491702398//
/work/sebastian/BT-20210625/1009427-light/run1009427-light.h5 tag-1491702400//
/work/sebastian/BT-20210625/1009427-light/run1009427-light.h5 tag-1491702402//
/work/sebastian/BT-20210625/1009427-light/run1009427-light.h5 tag-1491702404//
/work/sebastian/BT-20210625/1009427-light/run1009427-light.h5 tag-1491702406//
/work/sebastian/BT-20210625/1009427-light/run1009427-light.h5 tag-1491702408//
/work/sebastian/BT-20210625/1009427-light/run1009427-light.h5 tag-1491702410//
/work/sebastian/BT-20210625/1009427-light/run1009427-light.h5 tag-1491702412//
/work/sebastian/BT-20210625/1009427-light/run1009427-light.h5 tag-1491702416//
/work/sebastian/BT-20210625/1009427-light/run1009427-light.h5 tag-1491702418//
/work/sebastian/BT-20210625/1009427-light/run1009427-light.h5 tag-1491702420//
/work/sebastian/BT-20210625/1009427-light/run1009427-light.h5 tag-1491702424//
/work/sebastian/BT-20210625/1009427-light/run1009427-light.h5 tag-1491702428//
/work/sebastian/BT-20210625/1009427-light/run1009427-light.h5 tag-1491702430//
/work/sebastian/BT-20210625/1009427-light/run1009427-light.h5 tag-1491702432//
/work/sebastian/BT-20210625/1009427-light/run1009427-light.h5 tag-1491702436//
/work/sebastian/BT-20210625/1009427-light/run1009427-light.h5 tag-1491702438//
/work/sebastian/BT-20210625/1009427-light/run1009427-light.h5 tag-1491702440//
/work/sebastian/BT-20210625/1009427-light/run1009427-light.h5 tag-1491702442//
/work/sebastian/BT-20210625/1009427-light/run1009427-light.h5 tag-1491702444//
/work/sebastian/BT-20210625/1009427-light/run1009427-light.h5 tag-1491702446//
/work/sebastian/BT-20210625/1009427-light/run1009427-light.h5 tag-1491702448//
/work/sebastian/BT-20210625/1009427-light/run1009427-light.h5 tag-1491702450//
/work/sebastian/BT-20210625/1009427-light/run1009427-light.h5 tag-1491702452//
/work/sebastian/BT-20210625/1009427-light/run1009427-light.h5 tag-1491702454//
/work/sebastian/BT-20210625/1009427-light/run1009427-light.h5 tag-1491702456//
/work/sebastian/BT-20210625/1009427-light/run1009427-light.h5 tag-1491702458//
/work/sebastian/BT-20210625/1009427-light/run1009427-light.h5 tag-1491702462//
/work/sebastian/BT-20210625/1009427-light/run1009427-light.h5 tag-1491702464//
/work/sebastian/BT-20210625/1009427-light/run1009427-light.h5 tag-1491702468//
/work/sebastian/BT-20210625/1009427-light/run1009427-light.h5 tag-1491702470//
/work/sebastian/BT-20210625/1009427-light/run1009427-light.h5 tag-1491702472//
/work/sebastian/BT-20210625/1009427-light/run1009427-light.h5 tag-1491702474//
/work/sebastian/BT-20210625/1009427-light/run1009427-light.h5 tag-1491702476//
/work/sebastian/BT-20210625/1009427-light/run1009427-light.h5 tag-1491702478//
/work/sebastian/BT-20210625/1009427-light/run1009427-light.h5 tag-1491702480//
/work/sebastian/BT-20210625/1009427-light/run1009427-light.h5 tag-1491702484//
/work/sebastian/BT-20210625/1009427-light/run1009427-light.h5 tag-1491702486//
/work/sebastian/BT-20210625/1009427-light/run1009427-light.h5 tag-1491702490//
/work/sebastian/BT-20210625/1009427-light/run1009427-light.h5 tag-1491702494//
/work/sebastian/BT-20210625/1009427-light/run1009427-light.h5 tag-1491702498//
/work/sebastian/BT-20210625/1009427-light/run1009427-light.h5 tag-1491702500//
/work/sebastian/BT-20210625/1009427-light/run1009427-light.h5 tag-1491702502//
/work/sebastian/BT-20210625/1009427-light/run1009427-light.h5 tag-1491702504//
/work/sebastian/BT-20210625/1009427-light/run1009427-light.h5 tag-1491702508//
/work/sebastian/BT-20210625/1009427-light/run1009427-light.h5 tag-1491702510//
/work/sebastian/BT-20210625/1009427-light/run1009427-light.h5 tag-1491702514//
/work/sebastian/BT-20210625/1009427-light/run1009427-light.h5 tag-1491702516//
/work/sebastian/BT-20210625/1009427-light/run1009427-light.h5 tag-1491702518//
/work/sebastian/BT-20210625/1009427-light/run1009427-light.h5 tag-1491702520//
/work/sebastian/BT-20210625/1009427-light/run1009427-light.h5 tag-1491702524//
/work/sebastian/BT-20210625/1009427-light/run1009427-light.h5 tag-1491702526//
/work/sebastian/BT-20210625/1009427-light/run1009427-light.h5 tag-1491702530//
/work/sebastian/BT-20210625/1009427-light/run1009427-light.h5 tag-1491702532//
/work/sebastian/BT-20210625/1009427-light/run1009427-light.h5 tag-1491702536//
/work/sebastian/BT-20210625/1009427-light/run1009427-light.h5 tag-1491702538//
/work/sebastian/BT-20210625/1009427-light/run1009427-light.h5 tag-1491702542//
/work/sebastian/BT-20210625/1009427-light/run1009427-light.h5 tag-1491702546//
/work/sebastian/BT-20210625/1009427-light/run1009427-light.h5 tag-1491702548//
/work/sebastian/BT-20210625/1009427-light/run1009427-light.h5 tag-1491702552//
/work/sebastian/BT-20210625/1009427-light/run1009427-light.h5 tag-1491702554//
/work/sebastian/BT-20210625/1009427-light/run1009427-light.h5 tag-1491702556//
/work/sebastian/BT-20210625/1009427-light/run1009427-light.h5 tag-1491702560//
/work/sebastian/BT-20210625/1009427-light/run1009427-light.h5 tag-1491702562//
/work/sebastian/BT-20210625/1009427-light/run1009427-light.h5 tag-1491702564//
/work/sebastian/BT-20210625/1009427-light/run1009427-light.h5 tag-1491702568//
/work/sebastian/BT-20210625/1009427-light/run1009427-light.h5 tag-1491702570//
/work/sebastian/BT-20210625/1009427-light/run1009427-light.h5 tag-1491702572//
/work/sebastian/BT-20210625/1009427-light/run1009427-light.h5 tag-1491702576//
/work/sebastian/BT-20210625/1009427-light/run1009427-light.h5 tag-1491702578//
/work/sebastian/BT-20210625/1009427-light/run1009427-light.h5 tag-1491702580//
/work/sebastian/BT-20210625/1009427-light/run1009427-light.h5 tag-1491702582//
/work/sebastian/BT-20210625/1009427-light/run1009427-light.h5 tag-1491702584//
/work/sebastian/BT-20210625/1009427-light/run1009427-light.h5 tag-1491702588//
/work/sebastian/BT-20210625/1009427-light/run1009427-light.h5 tag-1491702592//
/work/sebastian/BT-20210625/1009427-light/run1009427-light.h5 tag-1491702594//
/work/sebastian/BT-20210625/1009427-light/run1009427-light.h5 tag-1491702596//
/work/sebastian/BT-20210625/1009427-light/run1009427-light.h5 tag-1491702598//
/work/sebastian/BT-20210625/1009427-light/run1009427-light.h5 tag-1491702600//
/work/sebastian/BT-20210625/1009427-light/run1009427-light.h5 tag-1491702602//
/work/sebastian/BT-20210625/1009427-light/run1009427-light.h5 tag-1491702606//
/work/sebastian/BT-20210625/1009427-light/run1009427-light.h5 tag-1491702608//
/work/sebastian/BT-20210625/1009427-light/run1009427-light.h5 tag-1491702610//
/work/sebastian/BT-20210625/1009427-light/run1009427-light.h5 tag-1491702612//
/work/sebastian/BT-20210625/1009427-light/run1009427-light.h5 tag-1491702614//
/work/sebastian/BT-20210625/1009427-light/run1009427-light.h5 tag-1491702616//
/work/sebastian/BT-20210625/1009427-light/run1009427-light.h5 tag-1491702618//
/work/sebastian/BT-20210625/1009427-light/run1009427-light.h5 tag-1491702620//
/work/sebastian/BT-20210625/1009427-light/run1009427-light.h5 tag-1491702622//
/work/sebastian/BT-20210625/1009427-light/run1009427-light.h5 tag-1491702624//
/work/sebastian/BT-20210625/1009427-light/run1009427-light.h5 tag-1491702626//
/work/sebastian/BT-20210625/1009427-light/run1009427-light.h5 tag-1491702630//
/work/sebastian/BT-20210625/1009427-light/run1009427-light.h5 tag-1491702632//
/work/sebastian/BT-20210625/1009427-light/run1009427-light.h5 tag-1491702634//
/work/sebastian/BT-20210625/1009427-light/run1009427-light.h5 tag-1491702636//
/work/sebastian/BT-20210625/1009427-light/run1009427-light.h5 tag-1491702640//
/work/sebastian/BT-20210625/1009427-light/run1009427-light.h5 tag-1491702642//
/work/sebastian/BT-20210625/1009427-light/run1009427-light.h5 tag-1491702644//
/work/sebastian/BT-20210625/1009427-light/run1009427-light.h5 tag-1491702646//
/work/sebastian/BT-20210625/1009427-light/run1009427-light.h5 tag-1491702648//
/work/sebastian/BT-20210625/1009427-light/run1009427-light.h5 tag-1491702652//
/work/sebastian/BT-20210625/1009427-light/run1009427-light.h5 tag-1491702654//
/work/sebastian/BT-20210625/1009427-light/run1009427-light.h5 tag-1491702656//
/work/sebastian/BT-20210625/1009427-light/run1009427-light.h5 tag-1491702658//
/work/sebastian/BT-20210625/1009427-light/run1009427-light.h5 tag-1491702660//
/work/sebastian/BT-20210625/1009427-light/run1009427-light.h5 tag-1491702662//
/work/sebastian/BT-20210625/1009427-light/run1009427-light.h5 tag-1491702666//
/work/sebastian/BT-20210625/1009427-light/run1009427-light.h5 tag-1491702668//
/work/sebastian/BT-20210625/1009427-light/run1009427-light.h5 tag-1491702672//
/work/sebastian/BT-20210625/1009427-light/run1009427-light.h5 tag-1491702680//
/work/sebastian/BT-20210625/1009427-light/run1009427-light.h5 tag-1491702684//
/work/sebastian/BT-20210625/1009427-light/run1009427-light.h5 tag-1491702688//
/work/sebastian/BT-20210625/1009427-light/run1009427-light.h5 tag-1491702692//
/work/sebastian/BT-20210625/1009427-light/run1009427-light.h5 tag-1491702694//
/work/sebastian/BT-20210625/1009427-light/run1009427-light.h5 tag-1491702700//
/work/sebastian/BT-20210625/1009427-light/run1009427-light.h5 tag-1491702706//
/work/sebastian/BT-20210625/1009427-light/run1009427-light.h5 tag-1491702708//
/work/sebastian/BT-20210625/1009427-light/run1009427-light.h5 tag-1491702714//
/work/sebastian/BT-20210625/1009427-light/run1009427-light.h5 tag-1491702716//
/work/sebastian/BT-20210625/1009427-light/run1009427-light.h5 tag-1491702722//
/work/sebastian/BT-20210625/1009427-light/run1009427-light.h5 tag-1491702724//
/work/sebastian/BT-20210625/1009427-light/run1009427-light.h5 tag-1491702726//
/work/sebastian/BT-20210625/1009427-light/run1009427-light.h5 tag-1491702728//
/work/sebastian/BT-20210625/1009427-light/run1009427-light.h5 tag-1491702730//
/work/sebastian/BT-20210625/1009427-light/run1009427-light.h5 tag-1491702732//
/work/sebastian/BT-20210625/1009427-light/run1009427-light.h5 tag-1491702734//
/work/sebastian/BT-20210625/1009427-light/run1009427-light.h5 tag-1491702736//
/work/sebastian/BT-20210625/1009427-light/run1009427-light.h5 tag-1491702738//
/work/sebastian/BT-20210625/1009427-light/run1009427-light.h5 tag-1491702740//
/work/sebastian/BT-20210625/1009427-light/run1009427-light.h5 tag-1491702742//
/work/sebastian/BT-20210625/1009427-light/run1009427-light.h5 tag-1491702744//
/work/sebastian/BT-20210625/1009427-light/run1009427-light.h5 tag-1491702746//
/work/sebastian/BT-20210625/1009427-light/run1009427-light.h5 tag-1491702748//
/work/sebastian/BT-20210625/1009427-light/run1009427-light.h5 tag-1491702750//
/work/sebastian/BT-20210625/1009427-light/run1009427-light.h5 tag-1491702754//
/work/sebastian/BT-20210625/1009427-light/run1009427-light.h5 tag-1491702756//
/work/sebastian/BT-20210625/1009427-light/run1009427-light.h5 tag-1491702758//
/work/sebastian/BT-20210625/1009427-light/run1009427-light.h5 tag-1491702762//
/work/sebastian/BT-20210625/1009427-light/run1009427-light.h5 tag-1491702764//
/work/sebastian/BT-20210625/1009427-light/run1009427-light.h5 tag-1491702768//
/work/sebastian/BT-20210625/1009427-light/run1009427-light.h5 tag-1491702770//
/work/sebastian/BT-20210625/1009427-light/run1009427-light.h5 tag-1491702772//
/work/sebastian/BT-20210625/1009427-light/run1009427-light.h5 tag-1491702774//
/work/sebastian/BT-20210625/1009427-light/run1009427-light.h5 tag-1491702778//
/work/sebastian/BT-20210625/1009427-light/run1009427-light.h5 tag-1491702780//
/work/sebastian/BT-20210625/1009427-light/run1009427-light.h5 tag-1491702782//
/work/sebastian/BT-20210625/1009427-light/run1009427-light.h5 tag-1491702786//
/work/sebastian/BT-20210625/1009427-light/run1009427-light.h5 tag-1491702788//
/work/sebastian/BT-20210625/1009427-light/run1009427-light.h5 tag-1491702790//
/work/sebastian/BT-20210625/1009427-light/run1009427-light.h5 tag-1491702794//
/work/sebastian/BT-20210625/1009427-light/run1009427-light.h5 tag-1491702796//
/work/sebastian/BT-20210625/1009427-light/run1009427-light.h5 tag-1491702798//
/work/sebastian/BT-20210625/1009427-light/run1009427-light.h5 tag-1491702802//
/work/sebastian/BT-20210625/1009427-light/run1009427-light.h5 tag-1491702804//
/work/sebastian/BT-20210625/1009427-light/run1009427-light.h5 tag-1491702806//
/work/sebastian/BT-20210625/1009427-light/run1009427-light.h5 tag-1491702808//
/work/sebastian/BT-20210625/1009427-light/run1009427-light.h5 tag-1491702810//
/work/sebastian/BT-20210625/1009427-light/run1009427-light.h5 tag-1491702812//
/work/sebastian/BT-20210625/1009427-light/run1009427-light.h5 tag-1491702814//
/work/sebastian/BT-20210625/1009427-light/run1009427-light.h5 tag-1491702816//
/work/sebastian/BT-20210625/1009427-light/run1009427-light.h5 tag-1491702818//
/work/sebastian/BT-20210625/1009427-light/run1009427-light.h5 tag-1491702820//
/work/sebastian/BT-20210625/1009427-light/run1009427-light.h5 tag-1491702822//
/work/sebastian/BT-20210625/1009427-light/run1009427-light.h5 tag-1491702824//
/work/sebastian/BT-20210625/1009427-light/run1009427-light.h5 tag-1491702828//
/work/sebastian/BT-20210625/1009427-light/run1009427-light.h5 tag-1491702830//
/work/sebastian/BT-20210625/1009427-light/run1009427-light.h5 tag-1491702834//
/work/sebastian/BT-20210625/1009427-light/run1009427-light.h5 tag-1491702836//
/work/sebastian/BT-20210625/1009427-light/run1009427-light.h5 tag-1491702838//
/work/sebastian/BT-20210625/1009427-light/run1009427-light.h5 tag-1491702840//
/work/sebastian/BT-20210625/1009427-light/run1009427-light.h5 tag-1491702842//
/work/sebastian/BT-20210625/1009427-light/run1009427-light.h5 tag-1491702844//
/work/sebastian/BT-20210625/1009427-light/run1009427-light.h5 tag-1491702846//
/work/sebastian/BT-20210625/1009427-light/run1009427-light.h5 tag-1491702848//
/work/sebastian/BT-20210625/1009427-light/run1009427-light.h5 tag-1491702854//
/work/sebastian/BT-20210625/1009427-light/run1009427-light.h5 tag-1491702856//
/work/sebastian/BT-20210625/1009427-light/run1009427-light.h5 tag-1491702858//
/work/sebastian/BT-20210625/1009427-light/run1009427-light.h5 tag-1491702860//
/work/sebastian/BT-20210625/1009427-light/run1009427-light.h5 tag-1491702864//
/work/sebastian/BT-20210625/1009427-light/run1009427-light.h5 tag-1491702868//
/work/sebastian/BT-20210625/1009427-light/run1009427-light.h5 tag-1491702870//
/work/sebastian/BT-20210625/1009427-light/run1009427-light.h5 tag-1491702872//
/work/sebastian/BT-20210625/1009427-light/run1009427-light.h5 tag-1491702874//
/work/sebastian/BT-20210625/1009427-light/run1009427-light.h5 tag-1491702876//
/work/sebastian/BT-20210625/1009427-light/run1009427-light.h5 tag-1491702880//
/work/sebastian/BT-20210625/1009427-light/run1009427-light.h5 tag-1491702882//
/work/sebastian/BT-20210625/1009427-light/run1009427-light.h5 tag-1491702884//
/work/sebastian/BT-20210625/1009427-light/run1009427-light.h5 tag-1491702890//
/work/sebastian/BT-20210625/1009427-light/run1009427-light.h5 tag-1491702892//
/work/sebastian/BT-20210625/1009427-light/run1009427-light.h5 tag-1491702894//
/work/sebastian/BT-20210625/1009427-light/run1009427-light.h5 tag-1491702896//
/work/sebastian/BT-20210625/1009427-light/run1009427-light.h5 tag-1491702898//
/work/sebastian/BT-20210625/1009427-light/run1009427-light.h5 tag-1491702900//
/work/sebastian/BT-20210625/1009427-light/run1009427-light.h5 tag-1491702902//
/work/sebastian/BT-20210625/1009427-light/run1009427-light.h5 tag-1491702906//
/work/sebastian/BT-20210625/1009427-light/run1009427-light.h5 tag-1491702910//
/work/sebastian/BT-20210625/1009427-light/run1009427-light.h5 tag-1491702912//
/work/sebastian/BT-20210625/1009427-light/run1009427-light.h5 tag-1491702914//
/work/sebastian/BT-20210625/1009427-light/run1009427-light.h5 tag-1491702918//
/work/sebastian/BT-20210625/1009427-light/run1009427-light.h5 tag-1491702924//
/work/sebastian/BT-20210625/1009427-light/run1009427-light.h5 tag-1491702926//
/work/sebastian/BT-20210625/1009427-light/run1009427-light.h5 tag-1491702930//
/work/sebastian/BT-20210625/1009427-light/run1009427-light.h5 tag-1491702932//
/work/sebastian/BT-20210625/1009427-light/run1009427-light.h5 tag-1491702934//
/work/sebastian/BT-20210625/1009427-light/run1009427-light.h5 tag-1491702940//
/work/sebastian/BT-20210625/1009427-light/run1009427-light.h5 tag-1491702942//
/work/sebastian/BT-20210625/1009427-light/run1009427-light.h5 tag-1491702946//
/work/sebastian/BT-20210625/1009427-light/run1009427-light.h5 tag-1491702950//
/work/sebastian/BT-20210625/1009427-light/run1009427-light.h5 tag-1491702952//
/work/sebastian/BT-20210625/1009427-light/run1009427-light.h5 tag-1491702954//
/work/sebastian/BT-20210625/1009427-light/run1009427-light.h5 tag-1491702956//
/work/sebastian/BT-20210625/1009427-light/run1009427-light.h5 tag-1491702958//
/work/sebastian/BT-20210625/1009427-light/run1009427-light.h5 tag-1491702960//
/work/sebastian/BT-20210625/1009427-light/run1009427-light.h5 tag-1491702962//
/work/sebastian/BT-20210625/1009427-light/run1009427-light.h5 tag-1491702964//
/work/sebastian/BT-20210625/1009427-light/run1009427-light.h5 tag-1491702968//
/work/sebastian/BT-20210625/1009427-light/run1009427-light.h5 tag-1491702970//
/work/sebastian/BT-20210625/1009427-light/run1009427-light.h5 tag-1491702974//
/work/sebastian/BT-20210625/1009427-light/run1009427-light.h5 tag-1491702976//
/work/sebastian/BT-20210625/1009427-light/run1009427-light.h5 tag-1491702982//
/work/sebastian/BT-20210625/1009427-light/run1009427-light.h5 tag-1491702984//
/work/sebastian/BT-20210625/1009427-light/run1009427-light.h5 tag-1491702988//
/work/sebastian/BT-20210625/1009427-light/run1009427-light.h5 tag-1491702990//
/work/sebastian/BT-20210625/1009427-light/run1009427-light.h5 tag-1491702992//
/work/sebastian/BT-20210625/1009427-light/run1009427-light.h5 tag-1491702994//
/work/sebastian/BT-20210625/1009427-light/run1009427-light.h5 tag-1491702998//
/work/sebastian/BT-20210625/1009427-light/run1009427-light.h5 tag-1491703000//
/work/sebastian/BT-20210625/1009427-light/run1009427-light.h5 tag-1491703002//
/work/sebastian/BT-20210625/1009427-light/run1009427-light.h5 tag-1491703004//
/work/sebastian/BT-20210625/1009427-light/run1009427-light.h5 tag-1491703006//
/work/sebastian/BT-20210625/1009427-light/run1009427-light.h5 tag-1491703008//
/work/sebastian/BT-20210625/1009427-light/run1009427-light.h5 tag-1491703010//
/work/sebastian/BT-20210625/1009427-light/run1009427-light.h5 tag-1491703014//
/work/sebastian/BT-20210625/1009427-light/run1009427-light.h5 tag-1491703018//
/work/sebastian/BT-20210625/1009427-light/run1009427-light.h5 tag-1491703020//
/work/sebastian/BT-20210625/1009427-light/run1009427-light.h5 tag-1491703024//
/work/sebastian/BT-20210625/1009427-light/run1009427-light.h5 tag-1491703026//
/work/sebastian/BT-20210625/1009427-light/run1009427-light.h5 tag-1491703030//
/work/sebastian/BT-20210625/1009427-light/run1009427-light.h5 tag-1491703034//
/work/sebastian/BT-20210625/1009427-light/run1009427-light.h5 tag-1491703038//
/work/sebastian/BT-20210625/1009427-light/run1009427-light.h5 tag-1491703040//
/work/sebastian/BT-20210625/1009427-light/run1009427-light.h5 tag-1491703042//
/work/sebastian/BT-20210625/1009427-light/run1009427-light.h5 tag-1491703048//
/work/sebastian/BT-20210625/1009427-light/run1009427-light.h5 tag-1491703050//
/work/sebastian/BT-20210625/1009427-light/run1009427-light.h5 tag-1491703052//
/work/sebastian/BT-20210625/1009427-light/run1009427-light.h5 tag-1491703054//
/work/sebastian/BT-20210625/1009427-light/run1009427-light.h5 tag-1491703058//
/work/sebastian/BT-20210625/1009427-light/run1009427-light.h5 tag-1491703060//
/work/sebastian/BT-20210625/1009427-light/run1009427-light.h5 tag-1491703066//
/work/sebastian/BT-20210625/1009427-light/run1009427-light.h5 tag-1491703072//
/work/sebastian/BT-20210625/1009427-light/run1009427-light.h5 tag-1491703074//
/work/sebastian/BT-20210625/1009427-light/run1009427-light.h5 tag-1491703076//
/work/sebastian/BT-20210625/1009427-light/run1009427-light.h5 tag-1491703078//
/work/sebastian/BT-20210625/1009427-light/run1009427-light.h5 tag-1491703080//
/work/sebastian/BT-20210625/1009427-light/run1009427-light.h5 tag-1491703084//
/work/sebastian/BT-20210625/1009427-light/run1009427-light.h5 tag-1491703090//
/work/sebastian/BT-20210625/1009427-light/run1009427-light.h5 tag-1491703092//
/work/sebastian/BT-20210625/1009427-light/run1009427-light.h5 tag-1491703094//
/work/sebastian/BT-20210625/1009427-light/run1009427-light.h5 tag-1491703096//
/work/sebastian/BT-20210625/1009427-light/run1009427-light.h5 tag-1491703100//
/work/sebastian/BT-20210625/1009427-light/run1009427-light.h5 tag-1491703102//
/work/sebastian/BT-20210625/1009427-light/run1009427-light.h5 tag-1491703104//
/work/sebastian/BT-20210625/1009427-light/run1009427-light.h5 tag-1491703106//
/work/sebastian/BT-20210625/1009427-light/run1009427-light.h5 tag-1491703108//
/work/sebastian/BT-20210625/1009427-light/run1009427-light.h5 tag-1491703112//
/work/sebastian/BT-20210625/1009427-light/run1009427-light.h5 tag-1491703118//
/work/sebastian/BT-20210625/1009427-light/run1009427-light.h5 tag-1491703120//
/work/sebastian/BT-20210625/1009427-light/run1009427-light.h5 tag-1491703124//
/work/sebastian/BT-20210625/1009427-light/run1009427-light.h5 tag-1491703126//
/work/sebastian/BT-20210625/1009427-light/run1009427-light.h5 tag-1491703128//
/work/sebastian/BT-20210625/1009427-light/run1009427-light.h5 tag-1491703132//
/work/sebastian/BT-20210625/1009427-light/run1009427-light.h5 tag-1491703136//
/work/sebastian/BT-20210625/1009427-light/run1009427-light.h5 tag-1491703138//
/work/sebastian/BT-20210625/1009427-light/run1009427-light.h5 tag-1491703142//
/work/sebastian/BT-20210625/1009427-light/run1009427-light.h5 tag-1491703144//
/work/sebastian/BT-20210625/1009427-light/run1009427-light.h5 tag-1491703146//
/work/sebastian/BT-20210625/1009427-light/run1009427-light.h5 tag-1491703148//
/work/sebastian/BT-20210625/1009427-light/run1009427-light.h5 tag-1491703150//
/work/sebastian/BT-20210625/1009427-light/run1009427-light.h5 tag-1491703152//
/work/sebastian/BT-20210625/1009427-light/run1009427-light.h5 tag-1491703154//
/work/sebastian/BT-20210625/1009427-light/run1009427-light.h5 tag-1491703156//
/work/sebastian/BT-20210625/1009427-light/run1009427-light.h5 tag-1491703158//
/work/sebastian/BT-20210625/1009427-light/run1009427-light.h5 tag-1491703160//
/work/sebastian/BT-20210625/1009427-light/run1009427-light.h5 tag-1491703164//
/work/sebastian/BT-20210625/1009427-light/run1009427-light.h5 tag-1491703166//
/work/sebastian/BT-20210625/1009427-light/run1009427-light.h5 tag-1491703168//
/work/sebastian/BT-20210625/1009427-light/run1009427-light.h5 tag-1491703172//
/work/sebastian/BT-20210625/1009427-light/run1009427-light.h5 tag-1491703174//
/work/sebastian/BT-20210625/1009427-light/run1009427-light.h5 tag-1491703178//
/work/sebastian/BT-20210625/1009427-light/run1009427-light.h5 tag-1491703180//
/work/sebastian/BT-20210625/1009427-light/run1009427-light.h5 tag-1491703182//
/work/sebastian/BT-20210625/1009427-light/run1009427-light.h5 tag-1491703184//
/work/sebastian/BT-20210625/1009427-light/run1009427-light.h5 tag-1491703186//
/work/sebastian/BT-20210625/1009427-light/run1009427-light.h5 tag-1491703188//
/work/sebastian/BT-20210625/1009427-light/run1009427-light.h5 tag-1491703190//
/work/sebastian/BT-20210625/1009427-light/run1009427-light.h5 tag-1491703192//
/work/sebastian/BT-20210625/1009427-light/run1009427-light.h5 tag-1491703194//
/work/sebastian/BT-20210625/1009427-light/run1009427-light.h5 tag-1491703196//
/work/sebastian/BT-20210625/1009427-light/run1009427-light.h5 tag-1491703198//
/work/sebastian/BT-20210625/1009427-light/run1009427-light.h5 tag-1491703202//
/work/sebastian/BT-20210625/1009427-light/run1009427-light.h5 tag-1491703204//
/work/sebastian/BT-20210625/1009427-light/run1009427-light.h5 tag-1491703206//
/work/sebastian/BT-20210625/1009427-light/run1009427-light.h5 tag-1491703208//
/work/sebastian/BT-20210625/1009427-light/run1009427-light.h5 tag-1491703210//
/work/sebastian/BT-20210625/1009427-light/run1009427-light.h5 tag-1491703212//
/work/sebastian/BT-20210625/1009427-light/run1009427-light.h5 tag-1491703218//
/work/sebastian/BT-20210625/1009427-light/run1009427-light.h5 tag-1491703220//
/work/sebastian/BT-20210625/1009427-light/run1009427-light.h5 tag-1491703224//
/work/sebastian/BT-20210625/1009427-light/run1009427-light.h5 tag-1491703226//
/work/sebastian/BT-20210625/1009427-light/run1009427-light.h5 tag-1491703228//
/work/sebastian/BT-20210625/1009427-light/run1009427-light.h5 tag-1491703230//
/work/sebastian/BT-20210625/1009427-light/run1009427-light.h5 tag-1491703232//
/work/sebastian/BT-20210625/1009427-light/run1009427-light.h5 tag-1491703234//
/work/sebastian/BT-20210625/1009427-light/run1009427-light.h5 tag-1491703240//
/work/sebastian/BT-20210625/1009427-light/run1009427-light.h5 tag-1491703242//
/work/sebastian/BT-20210625/1009427-light/run1009427-light.h5 tag-1491703244//
/work/sebastian/BT-20210625/1009427-light/run1009427-light.h5 tag-1491703248//
/work/sebastian/BT-20210625/1009427-light/run1009427-light.h5 tag-1491703252//
/work/sebastian/BT-20210625/1009427-light/run1009427-light.h5 tag-1491703254//
/work/sebastian/BT-20210625/1009427-light/run1009427-light.h5 tag-1491703256//
/work/sebastian/BT-20210625/1009427-light/run1009427-light.h5 tag-1491703258//
/work/sebastian/BT-20210625/1009427-light/run1009427-light.h5 tag-1491703260//
/work/sebastian/BT-20210625/1009427-light/run1009427-light.h5 tag-1491703264//
/work/sebastian/BT-20210625/1009427-light/run1009427-light.h5 tag-1491703266//
