/work/sebastian/BT-20210625/1009177-light/run1009177-light.h5 tag-1490400154//
/work/sebastian/BT-20210625/1009177-light/run1009177-light.h5 tag-1490400156//
/work/sebastian/BT-20210625/1009177-light/run1009177-light.h5 tag-1490400160//
/work/sebastian/BT-20210625/1009177-light/run1009177-light.h5 tag-1490400164//
/work/sebastian/BT-20210625/1009177-light/run1009177-light.h5 tag-1490400172//
/work/sebastian/BT-20210625/1009177-light/run1009177-light.h5 tag-1490400174//
/work/sebastian/BT-20210625/1009177-light/run1009177-light.h5 tag-1490400176//
/work/sebastian/BT-20210625/1009177-light/run1009177-light.h5 tag-1490400178//
/work/sebastian/BT-20210625/1009177-light/run1009177-light.h5 tag-1490400184//
/work/sebastian/BT-20210625/1009177-light/run1009177-light.h5 tag-1490400192//
/work/sebastian/BT-20210625/1009177-light/run1009177-light.h5 tag-1490400194//
/work/sebastian/BT-20210625/1009177-light/run1009177-light.h5 tag-1490400196//
/work/sebastian/BT-20210625/1009177-light/run1009177-light.h5 tag-1490400198//
/work/sebastian/BT-20210625/1009177-light/run1009177-light.h5 tag-1490400204//
/work/sebastian/BT-20210625/1009177-light/run1009177-light.h5 tag-1490400208//
/work/sebastian/BT-20210625/1009177-light/run1009177-light.h5 tag-1490400210//
/work/sebastian/BT-20210625/1009177-light/run1009177-light.h5 tag-1490400218//
/work/sebastian/BT-20210625/1009177-light/run1009177-light.h5 tag-1490400222//
/work/sebastian/BT-20210625/1009177-light/run1009177-light.h5 tag-1490400226//
/work/sebastian/BT-20210625/1009177-light/run1009177-light.h5 tag-1490400228//
/work/sebastian/BT-20210625/1009177-light/run1009177-light.h5 tag-1490400230//
/work/sebastian/BT-20210625/1009177-light/run1009177-light.h5 tag-1490400238//
/work/sebastian/BT-20210625/1009177-light/run1009177-light.h5 tag-1490400242//
/work/sebastian/BT-20210625/1009177-light/run1009177-light.h5 tag-1490400244//
/work/sebastian/BT-20210625/1009177-light/run1009177-light.h5 tag-1490400248//
/work/sebastian/BT-20210625/1009177-light/run1009177-light.h5 tag-1490400250//
/work/sebastian/BT-20210625/1009177-light/run1009177-light.h5 tag-1490400254//
/work/sebastian/BT-20210625/1009177-light/run1009177-light.h5 tag-1490400256//
/work/sebastian/BT-20210625/1009177-light/run1009177-light.h5 tag-1490400260//
/work/sebastian/BT-20210625/1009177-light/run1009177-light.h5 tag-1490400264//
/work/sebastian/BT-20210625/1009177-light/run1009177-light.h5 tag-1490400266//
/work/sebastian/BT-20210625/1009177-light/run1009177-light.h5 tag-1490400272//
/work/sebastian/BT-20210625/1009177-light/run1009177-light.h5 tag-1490400274//
/work/sebastian/BT-20210625/1009177-light/run1009177-light.h5 tag-1490400276//
/work/sebastian/BT-20210625/1009177-light/run1009177-light.h5 tag-1490400282//
/work/sebastian/BT-20210625/1009177-light/run1009177-light.h5 tag-1490400284//
/work/sebastian/BT-20210625/1009177-light/run1009177-light.h5 tag-1490400286//
/work/sebastian/BT-20210625/1009177-light/run1009177-light.h5 tag-1490400288//
/work/sebastian/BT-20210625/1009177-light/run1009177-light.h5 tag-1490400290//
/work/sebastian/BT-20210625/1009177-light/run1009177-light.h5 tag-1490400294//
/work/sebastian/BT-20210625/1009177-light/run1009177-light.h5 tag-1490400296//
/work/sebastian/BT-20210625/1009177-light/run1009177-light.h5 tag-1490400300//
/work/sebastian/BT-20210625/1009177-light/run1009177-light.h5 tag-1490400306//
/work/sebastian/BT-20210625/1009177-light/run1009177-light.h5 tag-1490400308//
/work/sebastian/BT-20210625/1009177-light/run1009177-light.h5 tag-1490400310//
/work/sebastian/BT-20210625/1009177-light/run1009177-light.h5 tag-1490400312//
/work/sebastian/BT-20210625/1009177-light/run1009177-light.h5 tag-1490400314//
/work/sebastian/BT-20210625/1009177-light/run1009177-light.h5 tag-1490400316//
/work/sebastian/BT-20210625/1009177-light/run1009177-light.h5 tag-1490400320//
/work/sebastian/BT-20210625/1009177-light/run1009177-light.h5 tag-1490400322//
/work/sebastian/BT-20210625/1009177-light/run1009177-light.h5 tag-1490400324//
/work/sebastian/BT-20210625/1009177-light/run1009177-light.h5 tag-1490400326//
/work/sebastian/BT-20210625/1009177-light/run1009177-light.h5 tag-1490400330//
/work/sebastian/BT-20210625/1009177-light/run1009177-light.h5 tag-1490400338//
/work/sebastian/BT-20210625/1009177-light/run1009177-light.h5 tag-1490400340//
/work/sebastian/BT-20210625/1009177-light/run1009177-light.h5 tag-1490400346//
/work/sebastian/BT-20210625/1009177-light/run1009177-light.h5 tag-1490400348//
/work/sebastian/BT-20210625/1009177-light/run1009177-light.h5 tag-1490400350//
/work/sebastian/BT-20210625/1009177-light/run1009177-light.h5 tag-1490400352//
/work/sebastian/BT-20210625/1009177-light/run1009177-light.h5 tag-1490400356//
/work/sebastian/BT-20210625/1009177-light/run1009177-light.h5 tag-1490400360//
/work/sebastian/BT-20210625/1009177-light/run1009177-light.h5 tag-1490400364//
/work/sebastian/BT-20210625/1009177-light/run1009177-light.h5 tag-1490400368//
/work/sebastian/BT-20210625/1009177-light/run1009177-light.h5 tag-1490400370//
/work/sebastian/BT-20210625/1009177-light/run1009177-light.h5 tag-1490400374//
/work/sebastian/BT-20210625/1009177-light/run1009177-light.h5 tag-1490400378//
/work/sebastian/BT-20210625/1009177-light/run1009177-light.h5 tag-1490400380//
/work/sebastian/BT-20210625/1009177-light/run1009177-light.h5 tag-1490400382//
/work/sebastian/BT-20210625/1009177-light/run1009177-light.h5 tag-1490400386//
/work/sebastian/BT-20210625/1009177-light/run1009177-light.h5 tag-1490400394//
/work/sebastian/BT-20210625/1009177-light/run1009177-light.h5 tag-1490400398//
/work/sebastian/BT-20210625/1009177-light/run1009177-light.h5 tag-1490400402//
/work/sebastian/BT-20210625/1009177-light/run1009177-light.h5 tag-1490400404//
/work/sebastian/BT-20210625/1009177-light/run1009177-light.h5 tag-1490400408//
/work/sebastian/BT-20210625/1009177-light/run1009177-light.h5 tag-1490400410//
/work/sebastian/BT-20210625/1009177-light/run1009177-light.h5 tag-1490400416//
/work/sebastian/BT-20210625/1009177-light/run1009177-light.h5 tag-1490400420//
/work/sebastian/BT-20210625/1009177-light/run1009177-light.h5 tag-1490400422//
/work/sebastian/BT-20210625/1009177-light/run1009177-light.h5 tag-1490400426//
/work/sebastian/BT-20210625/1009177-light/run1009177-light.h5 tag-1490400428//
/work/sebastian/BT-20210625/1009177-light/run1009177-light.h5 tag-1490400430//
/work/sebastian/BT-20210625/1009177-light/run1009177-light.h5 tag-1490400434//
/work/sebastian/BT-20210625/1009177-light/run1009177-light.h5 tag-1490400436//
/work/sebastian/BT-20210625/1009177-light/run1009177-light.h5 tag-1490400438//
/work/sebastian/BT-20210625/1009177-light/run1009177-light.h5 tag-1490400444//
/work/sebastian/BT-20210625/1009177-light/run1009177-light.h5 tag-1490400446//
/work/sebastian/BT-20210625/1009177-light/run1009177-light.h5 tag-1490400448//
/work/sebastian/BT-20210625/1009177-light/run1009177-light.h5 tag-1490400450//
/work/sebastian/BT-20210625/1009177-light/run1009177-light.h5 tag-1490400454//
/work/sebastian/BT-20210625/1009177-light/run1009177-light.h5 tag-1490400460//
/work/sebastian/BT-20210625/1009177-light/run1009177-light.h5 tag-1490400464//
/work/sebastian/BT-20210625/1009177-light/run1009177-light.h5 tag-1490400468//
/work/sebastian/BT-20210625/1009177-light/run1009177-light.h5 tag-1490400472//
/work/sebastian/BT-20210625/1009177-light/run1009177-light.h5 tag-1490400474//
/work/sebastian/BT-20210625/1009177-light/run1009177-light.h5 tag-1490400476//
/work/sebastian/BT-20210625/1009177-light/run1009177-light.h5 tag-1490400482//
/work/sebastian/BT-20210625/1009177-light/run1009177-light.h5 tag-1490400496//
/work/sebastian/BT-20210625/1009177-light/run1009177-light.h5 tag-1490400498//
/work/sebastian/BT-20210625/1009177-light/run1009177-light.h5 tag-1490400500//
/work/sebastian/BT-20210625/1009177-light/run1009177-light.h5 tag-1490400508//
/work/sebastian/BT-20210625/1009177-light/run1009177-light.h5 tag-1490400512//
/work/sebastian/BT-20210625/1009177-light/run1009177-light.h5 tag-1490400518//
/work/sebastian/BT-20210625/1009177-light/run1009177-light.h5 tag-1490400520//
/work/sebastian/BT-20210625/1009177-light/run1009177-light.h5 tag-1490400524//
/work/sebastian/BT-20210625/1009177-light/run1009177-light.h5 tag-1490400530//
/work/sebastian/BT-20210625/1009177-light/run1009177-light.h5 tag-1490400532//
/work/sebastian/BT-20210625/1009177-light/run1009177-light.h5 tag-1490400536//
/work/sebastian/BT-20210625/1009177-light/run1009177-light.h5 tag-1490400538//
/work/sebastian/BT-20210625/1009177-light/run1009177-light.h5 tag-1490400542//
/work/sebastian/BT-20210625/1009177-light/run1009177-light.h5 tag-1490400544//
/work/sebastian/BT-20210625/1009177-light/run1009177-light.h5 tag-1490400550//
/work/sebastian/BT-20210625/1009177-light/run1009177-light.h5 tag-1490400552//
/work/sebastian/BT-20210625/1009177-light/run1009177-light.h5 tag-1490400554//
/work/sebastian/BT-20210625/1009177-light/run1009177-light.h5 tag-1490400556//
/work/sebastian/BT-20210625/1009177-light/run1009177-light.h5 tag-1490400560//
/work/sebastian/BT-20210625/1009177-light/run1009177-light.h5 tag-1490400562//
/work/sebastian/BT-20210625/1009177-light/run1009177-light.h5 tag-1490400568//
/work/sebastian/BT-20210625/1009177-light/run1009177-light.h5 tag-1490400570//
/work/sebastian/BT-20210625/1009177-light/run1009177-light.h5 tag-1490400572//
/work/sebastian/BT-20210625/1009177-light/run1009177-light.h5 tag-1490400574//
/work/sebastian/BT-20210625/1009177-light/run1009177-light.h5 tag-1490400580//
/work/sebastian/BT-20210625/1009177-light/run1009177-light.h5 tag-1490400582//
/work/sebastian/BT-20210625/1009177-light/run1009177-light.h5 tag-1490400584//
/work/sebastian/BT-20210625/1009177-light/run1009177-light.h5 tag-1490400586//
/work/sebastian/BT-20210625/1009177-light/run1009177-light.h5 tag-1490400588//
/work/sebastian/BT-20210625/1009177-light/run1009177-light.h5 tag-1490400594//
/work/sebastian/BT-20210625/1009177-light/run1009177-light.h5 tag-1490400600//
/work/sebastian/BT-20210625/1009177-light/run1009177-light.h5 tag-1490400602//
/work/sebastian/BT-20210625/1009177-light/run1009177-light.h5 tag-1490400604//
/work/sebastian/BT-20210625/1009177-light/run1009177-light.h5 tag-1490400606//
/work/sebastian/BT-20210625/1009177-light/run1009177-light.h5 tag-1490400610//
/work/sebastian/BT-20210625/1009177-light/run1009177-light.h5 tag-1490400614//
/work/sebastian/BT-20210625/1009177-light/run1009177-light.h5 tag-1490400616//
/work/sebastian/BT-20210625/1009177-light/run1009177-light.h5 tag-1490400620//
/work/sebastian/BT-20210625/1009177-light/run1009177-light.h5 tag-1490400622//
/work/sebastian/BT-20210625/1009177-light/run1009177-light.h5 tag-1490400626//
/work/sebastian/BT-20210625/1009177-light/run1009177-light.h5 tag-1490400628//
/work/sebastian/BT-20210625/1009177-light/run1009177-light.h5 tag-1490400630//
/work/sebastian/BT-20210625/1009177-light/run1009177-light.h5 tag-1490400632//
/work/sebastian/BT-20210625/1009177-light/run1009177-light.h5 tag-1490400634//
/work/sebastian/BT-20210625/1009177-light/run1009177-light.h5 tag-1490400636//
/work/sebastian/BT-20210625/1009177-light/run1009177-light.h5 tag-1490400638//
/work/sebastian/BT-20210625/1009177-light/run1009177-light.h5 tag-1490400640//
/work/sebastian/BT-20210625/1009177-light/run1009177-light.h5 tag-1490400642//
/work/sebastian/BT-20210625/1009177-light/run1009177-light.h5 tag-1490400644//
/work/sebastian/BT-20210625/1009177-light/run1009177-light.h5 tag-1490400648//
/work/sebastian/BT-20210625/1009177-light/run1009177-light.h5 tag-1490400656//
/work/sebastian/BT-20210625/1009177-light/run1009177-light.h5 tag-1490400658//
/work/sebastian/BT-20210625/1009177-light/run1009177-light.h5 tag-1490400660//
/work/sebastian/BT-20210625/1009177-light/run1009177-light.h5 tag-1490400664//
/work/sebastian/BT-20210625/1009177-light/run1009177-light.h5 tag-1490400666//
/work/sebastian/BT-20210625/1009177-light/run1009177-light.h5 tag-1490400668//
/work/sebastian/BT-20210625/1009177-light/run1009177-light.h5 tag-1490400670//
/work/sebastian/BT-20210625/1009177-light/run1009177-light.h5 tag-1490400672//
/work/sebastian/BT-20210625/1009177-light/run1009177-light.h5 tag-1490400678//
/work/sebastian/BT-20210625/1009177-light/run1009177-light.h5 tag-1490400680//
/work/sebastian/BT-20210625/1009177-light/run1009177-light.h5 tag-1490400682//
/work/sebastian/BT-20210625/1009177-light/run1009177-light.h5 tag-1490400684//
/work/sebastian/BT-20210625/1009177-light/run1009177-light.h5 tag-1490400686//
/work/sebastian/BT-20210625/1009177-light/run1009177-light.h5 tag-1490400688//
/work/sebastian/BT-20210625/1009177-light/run1009177-light.h5 tag-1490400696//
/work/sebastian/BT-20210625/1009177-light/run1009177-light.h5 tag-1490400698//
/work/sebastian/BT-20210625/1009177-light/run1009177-light.h5 tag-1490400700//
/work/sebastian/BT-20210625/1009177-light/run1009177-light.h5 tag-1490400710//
/work/sebastian/BT-20210625/1009177-light/run1009177-light.h5 tag-1490400720//
/work/sebastian/BT-20210625/1009177-light/run1009177-light.h5 tag-1490400722//
/work/sebastian/BT-20210625/1009177-light/run1009177-light.h5 tag-1490400724//
/work/sebastian/BT-20210625/1009177-light/run1009177-light.h5 tag-1490400726//
/work/sebastian/BT-20210625/1009177-light/run1009177-light.h5 tag-1490400728//
/work/sebastian/BT-20210625/1009177-light/run1009177-light.h5 tag-1490400730//
/work/sebastian/BT-20210625/1009177-light/run1009177-light.h5 tag-1490400732//
/work/sebastian/BT-20210625/1009177-light/run1009177-light.h5 tag-1490400734//
/work/sebastian/BT-20210625/1009177-light/run1009177-light.h5 tag-1490400742//
/work/sebastian/BT-20210625/1009177-light/run1009177-light.h5 tag-1490400748//
/work/sebastian/BT-20210625/1009177-light/run1009177-light.h5 tag-1490400750//
/work/sebastian/BT-20210625/1009177-light/run1009177-light.h5 tag-1490400752//
/work/sebastian/BT-20210625/1009177-light/run1009177-light.h5 tag-1490400756//
/work/sebastian/BT-20210625/1009177-light/run1009177-light.h5 tag-1490400758//
/work/sebastian/BT-20210625/1009177-light/run1009177-light.h5 tag-1490400760//
/work/sebastian/BT-20210625/1009177-light/run1009177-light.h5 tag-1490400764//
/work/sebastian/BT-20210625/1009177-light/run1009177-light.h5 tag-1490400766//
/work/sebastian/BT-20210625/1009177-light/run1009177-light.h5 tag-1490400768//
/work/sebastian/BT-20210625/1009177-light/run1009177-light.h5 tag-1490400774//
/work/sebastian/BT-20210625/1009177-light/run1009177-light.h5 tag-1490400776//
/work/sebastian/BT-20210625/1009177-light/run1009177-light.h5 tag-1490400782//
/work/sebastian/BT-20210625/1009177-light/run1009177-light.h5 tag-1490400784//
/work/sebastian/BT-20210625/1009177-light/run1009177-light.h5 tag-1490400790//
/work/sebastian/BT-20210625/1009177-light/run1009177-light.h5 tag-1490400792//
/work/sebastian/BT-20210625/1009177-light/run1009177-light.h5 tag-1490400794//
/work/sebastian/BT-20210625/1009177-light/run1009177-light.h5 tag-1490400796//
/work/sebastian/BT-20210625/1009177-light/run1009177-light.h5 tag-1490400798//
/work/sebastian/BT-20210625/1009177-light/run1009177-light.h5 tag-1490400802//
/work/sebastian/BT-20210625/1009177-light/run1009177-light.h5 tag-1490400804//
/work/sebastian/BT-20210625/1009177-light/run1009177-light.h5 tag-1490400808//
/work/sebastian/BT-20210625/1009177-light/run1009177-light.h5 tag-1490400820//
/work/sebastian/BT-20210625/1009177-light/run1009177-light.h5 tag-1490400822//
/work/sebastian/BT-20210625/1009177-light/run1009177-light.h5 tag-1490400826//
/work/sebastian/BT-20210625/1009177-light/run1009177-light.h5 tag-1490400828//
/work/sebastian/BT-20210625/1009177-light/run1009177-light.h5 tag-1490400832//
/work/sebastian/BT-20210625/1009177-light/run1009177-light.h5 tag-1490400834//
/work/sebastian/BT-20210625/1009177-light/run1009177-light.h5 tag-1490400836//
/work/sebastian/BT-20210625/1009177-light/run1009177-light.h5 tag-1490400840//
/work/sebastian/BT-20210625/1009177-light/run1009177-light.h5 tag-1490400848//
/work/sebastian/BT-20210625/1009177-light/run1009177-light.h5 tag-1490400850//
/work/sebastian/BT-20210625/1009177-light/run1009177-light.h5 tag-1490400854//
/work/sebastian/BT-20210625/1009177-light/run1009177-light.h5 tag-1490400860//
/work/sebastian/BT-20210625/1009177-light/run1009177-light.h5 tag-1490400864//
/work/sebastian/BT-20210625/1009177-light/run1009177-light.h5 tag-1490400866//
/work/sebastian/BT-20210625/1009177-light/run1009177-light.h5 tag-1490400870//
/work/sebastian/BT-20210625/1009177-light/run1009177-light.h5 tag-1490400872//
/work/sebastian/BT-20210625/1009177-light/run1009177-light.h5 tag-1490400874//
/work/sebastian/BT-20210625/1009177-light/run1009177-light.h5 tag-1490400876//
/work/sebastian/BT-20210625/1009177-light/run1009177-light.h5 tag-1490400880//
/work/sebastian/BT-20210625/1009177-light/run1009177-light.h5 tag-1490400882//
/work/sebastian/BT-20210625/1009177-light/run1009177-light.h5 tag-1490400884//
/work/sebastian/BT-20210625/1009177-light/run1009177-light.h5 tag-1490400886//
/work/sebastian/BT-20210625/1009177-light/run1009177-light.h5 tag-1490400888//
/work/sebastian/BT-20210625/1009177-light/run1009177-light.h5 tag-1490400892//
/work/sebastian/BT-20210625/1009177-light/run1009177-light.h5 tag-1490400894//
/work/sebastian/BT-20210625/1009177-light/run1009177-light.h5 tag-1490400900//
/work/sebastian/BT-20210625/1009177-light/run1009177-light.h5 tag-1490400902//
/work/sebastian/BT-20210625/1009177-light/run1009177-light.h5 tag-1490400906//
/work/sebastian/BT-20210625/1009177-light/run1009177-light.h5 tag-1490400908//
/work/sebastian/BT-20210625/1009177-light/run1009177-light.h5 tag-1490400910//
/work/sebastian/BT-20210625/1009177-light/run1009177-light.h5 tag-1490400912//
/work/sebastian/BT-20210625/1009177-light/run1009177-light.h5 tag-1490400914//
/work/sebastian/BT-20210625/1009177-light/run1009177-light.h5 tag-1490400916//
/work/sebastian/BT-20210625/1009177-light/run1009177-light.h5 tag-1490400924//
/work/sebastian/BT-20210625/1009177-light/run1009177-light.h5 tag-1490400932//
/work/sebastian/BT-20210625/1009177-light/run1009177-light.h5 tag-1490400934//
/work/sebastian/BT-20210625/1009177-light/run1009177-light.h5 tag-1490400936//
/work/sebastian/BT-20210625/1009177-light/run1009177-light.h5 tag-1490400938//
/work/sebastian/BT-20210625/1009177-light/run1009177-light.h5 tag-1490400940//
/work/sebastian/BT-20210625/1009177-light/run1009177-light.h5 tag-1490400946//
/work/sebastian/BT-20210625/1009177-light/run1009177-light.h5 tag-1490400948//
/work/sebastian/BT-20210625/1009177-light/run1009177-light.h5 tag-1490400950//
/work/sebastian/BT-20210625/1009177-light/run1009177-light.h5 tag-1490400952//
/work/sebastian/BT-20210625/1009177-light/run1009177-light.h5 tag-1490400954//
/work/sebastian/BT-20210625/1009177-light/run1009177-light.h5 tag-1490400958//
/work/sebastian/BT-20210625/1009177-light/run1009177-light.h5 tag-1490400960//
/work/sebastian/BT-20210625/1009177-light/run1009177-light.h5 tag-1490400966//
/work/sebastian/BT-20210625/1009177-light/run1009177-light.h5 tag-1490400968//
/work/sebastian/BT-20210625/1009177-light/run1009177-light.h5 tag-1490400976//
/work/sebastian/BT-20210625/1009177-light/run1009177-light.h5 tag-1490400980//
/work/sebastian/BT-20210625/1009177-light/run1009177-light.h5 tag-1490400984//
/work/sebastian/BT-20210625/1009177-light/run1009177-light.h5 tag-1490400990//
/work/sebastian/BT-20210625/1009177-light/run1009177-light.h5 tag-1490400992//
/work/sebastian/BT-20210625/1009177-light/run1009177-light.h5 tag-1490400994//
/work/sebastian/BT-20210625/1009177-light/run1009177-light.h5 tag-1490400996//
/work/sebastian/BT-20210625/1009177-light/run1009177-light.h5 tag-1490401002//
/work/sebastian/BT-20210625/1009177-light/run1009177-light.h5 tag-1490401004//
/work/sebastian/BT-20210625/1009177-light/run1009177-light.h5 tag-1490401010//
/work/sebastian/BT-20210625/1009177-light/run1009177-light.h5 tag-1490401012//
/work/sebastian/BT-20210625/1009177-light/run1009177-light.h5 tag-1490401014//
/work/sebastian/BT-20210625/1009177-light/run1009177-light.h5 tag-1490401020//
/work/sebastian/BT-20210625/1009177-light/run1009177-light.h5 tag-1490401022//
/work/sebastian/BT-20210625/1009177-light/run1009177-light.h5 tag-1490401024//
/work/sebastian/BT-20210625/1009177-light/run1009177-light.h5 tag-1490401026//
/work/sebastian/BT-20210625/1009177-light/run1009177-light.h5 tag-1490401036//
/work/sebastian/BT-20210625/1009177-light/run1009177-light.h5 tag-1490401038//
/work/sebastian/BT-20210625/1009177-light/run1009177-light.h5 tag-1490401040//
/work/sebastian/BT-20210625/1009177-light/run1009177-light.h5 tag-1490401042//
/work/sebastian/BT-20210625/1009177-light/run1009177-light.h5 tag-1490401044//
/work/sebastian/BT-20210625/1009177-light/run1009177-light.h5 tag-1490401046//
/work/sebastian/BT-20210625/1009177-light/run1009177-light.h5 tag-1490401048//
/work/sebastian/BT-20210625/1009177-light/run1009177-light.h5 tag-1490401054//
/work/sebastian/BT-20210625/1009177-light/run1009177-light.h5 tag-1490401056//
/work/sebastian/BT-20210625/1009177-light/run1009177-light.h5 tag-1490401062//
/work/sebastian/BT-20210625/1009177-light/run1009177-light.h5 tag-1490401064//
/work/sebastian/BT-20210625/1009177-light/run1009177-light.h5 tag-1490401068//
/work/sebastian/BT-20210625/1009177-light/run1009177-light.h5 tag-1490401070//
/work/sebastian/BT-20210625/1009177-light/run1009177-light.h5 tag-1490401072//
/work/sebastian/BT-20210625/1009177-light/run1009177-light.h5 tag-1490401076//
/work/sebastian/BT-20210625/1009177-light/run1009177-light.h5 tag-1490401080//
/work/sebastian/BT-20210625/1009177-light/run1009177-light.h5 tag-1490401088//
/work/sebastian/BT-20210625/1009177-light/run1009177-light.h5 tag-1490401090//
/work/sebastian/BT-20210625/1009177-light/run1009177-light.h5 tag-1490401096//
/work/sebastian/BT-20210625/1009177-light/run1009177-light.h5 tag-1490401098//
/work/sebastian/BT-20210625/1009177-light/run1009177-light.h5 tag-1490401110//
/work/sebastian/BT-20210625/1009177-light/run1009177-light.h5 tag-1490401112//
/work/sebastian/BT-20210625/1009177-light/run1009177-light.h5 tag-1490401116//
/work/sebastian/BT-20210625/1009177-light/run1009177-light.h5 tag-1490401118//
/work/sebastian/BT-20210625/1009177-light/run1009177-light.h5 tag-1490401122//
/work/sebastian/BT-20210625/1009177-light/run1009177-light.h5 tag-1490401124//
/work/sebastian/BT-20210625/1009177-light/run1009177-light.h5 tag-1490401128//
/work/sebastian/BT-20210625/1009177-light/run1009177-light.h5 tag-1490401134//
/work/sebastian/BT-20210625/1009177-light/run1009177-light.h5 tag-1490401140//
/work/sebastian/BT-20210625/1009177-light/run1009177-light.h5 tag-1490401142//
/work/sebastian/BT-20210625/1009177-light/run1009177-light.h5 tag-1490401144//
/work/sebastian/BT-20210625/1009177-light/run1009177-light.h5 tag-1490401146//
/work/sebastian/BT-20210625/1009177-light/run1009177-light.h5 tag-1490401152//
/work/sebastian/BT-20210625/1009177-light/run1009177-light.h5 tag-1490401156//
/work/sebastian/BT-20210625/1009177-light/run1009177-light.h5 tag-1490401164//
/work/sebastian/BT-20210625/1009177-light/run1009177-light.h5 tag-1490401172//
/work/sebastian/BT-20210625/1009177-light/run1009177-light.h5 tag-1490401178//
/work/sebastian/BT-20210625/1009177-light/run1009177-light.h5 tag-1490401180//
/work/sebastian/BT-20210625/1009177-light/run1009177-light.h5 tag-1490401182//
/work/sebastian/BT-20210625/1009177-light/run1009177-light.h5 tag-1490401184//
/work/sebastian/BT-20210625/1009177-light/run1009177-light.h5 tag-1490401186//
/work/sebastian/BT-20210625/1009177-light/run1009177-light.h5 tag-1490401190//
/work/sebastian/BT-20210625/1009177-light/run1009177-light.h5 tag-1490401192//
/work/sebastian/BT-20210625/1009177-light/run1009177-light.h5 tag-1490401194//
/work/sebastian/BT-20210625/1009177-light/run1009177-light.h5 tag-1490401196//
/work/sebastian/BT-20210625/1009177-light/run1009177-light.h5 tag-1490401198//
/work/sebastian/BT-20210625/1009177-light/run1009177-light.h5 tag-1490401200//
/work/sebastian/BT-20210625/1009177-light/run1009177-light.h5 tag-1490401202//
/work/sebastian/BT-20210625/1009177-light/run1009177-light.h5 tag-1490401204//
/work/sebastian/BT-20210625/1009177-light/run1009177-light.h5 tag-1490401206//
/work/sebastian/BT-20210625/1009177-light/run1009177-light.h5 tag-1490401208//
/work/sebastian/BT-20210625/1009177-light/run1009177-light.h5 tag-1490401210//
/work/sebastian/BT-20210625/1009177-light/run1009177-light.h5 tag-1490401214//
/work/sebastian/BT-20210625/1009177-light/run1009177-light.h5 tag-1490401220//
/work/sebastian/BT-20210625/1009177-light/run1009177-light.h5 tag-1490401222//
/work/sebastian/BT-20210625/1009177-light/run1009177-light.h5 tag-1490401226//
/work/sebastian/BT-20210625/1009177-light/run1009177-light.h5 tag-1490401234//
/work/sebastian/BT-20210625/1009177-light/run1009177-light.h5 tag-1490401240//
/work/sebastian/BT-20210625/1009177-light/run1009177-light.h5 tag-1490401244//
/work/sebastian/BT-20210625/1009177-light/run1009177-light.h5 tag-1490401246//
/work/sebastian/BT-20210625/1009177-light/run1009177-light.h5 tag-1490401248//
/work/sebastian/BT-20210625/1009177-light/run1009177-light.h5 tag-1490401252//
/work/sebastian/BT-20210625/1009177-light/run1009177-light.h5 tag-1490401254//
/work/sebastian/BT-20210625/1009177-light/run1009177-light.h5 tag-1490401256//
/work/sebastian/BT-20210625/1009177-light/run1009177-light.h5 tag-1490401258//
/work/sebastian/BT-20210625/1009177-light/run1009177-light.h5 tag-1490401262//
/work/sebastian/BT-20210625/1009177-light/run1009177-light.h5 tag-1490401264//
/work/sebastian/BT-20210625/1009177-light/run1009177-light.h5 tag-1490401268//
/work/sebastian/BT-20210625/1009177-light/run1009177-light.h5 tag-1490401274//
/work/sebastian/BT-20210625/1009177-light/run1009177-light.h5 tag-1490401276//
/work/sebastian/BT-20210625/1009177-light/run1009177-light.h5 tag-1490401280//
/work/sebastian/BT-20210625/1009177-light/run1009177-light.h5 tag-1490401286//
/work/sebastian/BT-20210625/1009177-light/run1009177-light.h5 tag-1490401288//
/work/sebastian/BT-20210625/1009177-light/run1009177-light.h5 tag-1490401292//
/work/sebastian/BT-20210625/1009177-light/run1009177-light.h5 tag-1490401296//
/work/sebastian/BT-20210625/1009177-light/run1009177-light.h5 tag-1490401298//
/work/sebastian/BT-20210625/1009177-light/run1009177-light.h5 tag-1490401300//
/work/sebastian/BT-20210625/1009177-light/run1009177-light.h5 tag-1490401304//
/work/sebastian/BT-20210625/1009177-light/run1009177-light.h5 tag-1490401316//
/work/sebastian/BT-20210625/1009177-light/run1009177-light.h5 tag-1490401318//
/work/sebastian/BT-20210625/1009177-light/run1009177-light.h5 tag-1490401322//
/work/sebastian/BT-20210625/1009177-light/run1009177-light.h5 tag-1490401324//
/work/sebastian/BT-20210625/1009177-light/run1009177-light.h5 tag-1490401328//
/work/sebastian/BT-20210625/1009177-light/run1009177-light.h5 tag-1490401332//
/work/sebastian/BT-20210625/1009177-light/run1009177-light.h5 tag-1490401334//
/work/sebastian/BT-20210625/1009177-light/run1009177-light.h5 tag-1490401342//
/work/sebastian/BT-20210625/1009177-light/run1009177-light.h5 tag-1490401346//
/work/sebastian/BT-20210625/1009177-light/run1009177-light.h5 tag-1490401348//
/work/sebastian/BT-20210625/1009177-light/run1009177-light.h5 tag-1490401352//
/work/sebastian/BT-20210625/1009177-light/run1009177-light.h5 tag-1490401360//
/work/sebastian/BT-20210625/1009177-light/run1009177-light.h5 tag-1490401362//
/work/sebastian/BT-20210625/1009177-light/run1009177-light.h5 tag-1490401368//
/work/sebastian/BT-20210625/1009177-light/run1009177-light.h5 tag-1490401370//
/work/sebastian/BT-20210625/1009177-light/run1009177-light.h5 tag-1490401372//
/work/sebastian/BT-20210625/1009177-light/run1009177-light.h5 tag-1490401378//
/work/sebastian/BT-20210625/1009177-light/run1009177-light.h5 tag-1490401382//
/work/sebastian/BT-20210625/1009177-light/run1009177-light.h5 tag-1490401384//
/work/sebastian/BT-20210625/1009177-light/run1009177-light.h5 tag-1490401390//
/work/sebastian/BT-20210625/1009177-light/run1009177-light.h5 tag-1490401392//
/work/sebastian/BT-20210625/1009177-light/run1009177-light.h5 tag-1490401394//
/work/sebastian/BT-20210625/1009177-light/run1009177-light.h5 tag-1490401398//
/work/sebastian/BT-20210625/1009177-light/run1009177-light.h5 tag-1490401402//
/work/sebastian/BT-20210625/1009177-light/run1009177-light.h5 tag-1490401410//
/work/sebastian/BT-20210625/1009177-light/run1009177-light.h5 tag-1490401414//
/work/sebastian/BT-20210625/1009177-light/run1009177-light.h5 tag-1490401418//
/work/sebastian/BT-20210625/1009177-light/run1009177-light.h5 tag-1490401420//
/work/sebastian/BT-20210625/1009177-light/run1009177-light.h5 tag-1490401422//
/work/sebastian/BT-20210625/1009177-light/run1009177-light.h5 tag-1490401426//
/work/sebastian/BT-20210625/1009177-light/run1009177-light.h5 tag-1490401428//
/work/sebastian/BT-20210625/1009177-light/run1009177-light.h5 tag-1490401432//
/work/sebastian/BT-20210625/1009177-light/run1009177-light.h5 tag-1490401434//
/work/sebastian/BT-20210625/1009177-light/run1009177-light.h5 tag-1490401436//
/work/sebastian/BT-20210625/1009177-light/run1009177-light.h5 tag-1490401438//
/work/sebastian/BT-20210625/1009177-light/run1009177-light.h5 tag-1490401440//
/work/sebastian/BT-20210625/1009177-light/run1009177-light.h5 tag-1490401442//
/work/sebastian/BT-20210625/1009177-light/run1009177-light.h5 tag-1490401444//
/work/sebastian/BT-20210625/1009177-light/run1009177-light.h5 tag-1490401446//
/work/sebastian/BT-20210625/1009177-light/run1009177-light.h5 tag-1490401448//
/work/sebastian/BT-20210625/1009177-light/run1009177-light.h5 tag-1490401450//
/work/sebastian/BT-20210625/1009177-light/run1009177-light.h5 tag-1490401454//
/work/sebastian/BT-20210625/1009177-light/run1009177-light.h5 tag-1490401456//
/work/sebastian/BT-20210625/1009177-light/run1009177-light.h5 tag-1490401458//
/work/sebastian/BT-20210625/1009177-light/run1009177-light.h5 tag-1490401472//
/work/sebastian/BT-20210625/1009177-light/run1009177-light.h5 tag-1490401474//
/work/sebastian/BT-20210625/1009177-light/run1009177-light.h5 tag-1490401476//
/work/sebastian/BT-20210625/1009177-light/run1009177-light.h5 tag-1490401478//
/work/sebastian/BT-20210625/1009177-light/run1009177-light.h5 tag-1490401480//
/work/sebastian/BT-20210625/1009177-light/run1009177-light.h5 tag-1490401482//
/work/sebastian/BT-20210625/1009177-light/run1009177-light.h5 tag-1490401484//
/work/sebastian/BT-20210625/1009177-light/run1009177-light.h5 tag-1490401494//
/work/sebastian/BT-20210625/1009177-light/run1009177-light.h5 tag-1490401498//
/work/sebastian/BT-20210625/1009177-light/run1009177-light.h5 tag-1490401500//
/work/sebastian/BT-20210625/1009177-light/run1009177-light.h5 tag-1490401502//
/work/sebastian/BT-20210625/1009177-light/run1009177-light.h5 tag-1490401508//
/work/sebastian/BT-20210625/1009177-light/run1009177-light.h5 tag-1490401510//
/work/sebastian/BT-20210625/1009177-light/run1009177-light.h5 tag-1490401512//
/work/sebastian/BT-20210625/1009177-light/run1009177-light.h5 tag-1490401516//
/work/sebastian/BT-20210625/1009177-light/run1009177-light.h5 tag-1490401518//
/work/sebastian/BT-20210625/1009177-light/run1009177-light.h5 tag-1490401520//
/work/sebastian/BT-20210625/1009177-light/run1009177-light.h5 tag-1490401522//
/work/sebastian/BT-20210625/1009177-light/run1009177-light.h5 tag-1490401526//
/work/sebastian/BT-20210625/1009177-light/run1009177-light.h5 tag-1490401530//
/work/sebastian/BT-20210625/1009177-light/run1009177-light.h5 tag-1490401532//
/work/sebastian/BT-20210625/1009177-light/run1009177-light.h5 tag-1490401534//
/work/sebastian/BT-20210625/1009177-light/run1009177-light.h5 tag-1490401536//
/work/sebastian/BT-20210625/1009177-light/run1009177-light.h5 tag-1490401538//
/work/sebastian/BT-20210625/1009177-light/run1009177-light.h5 tag-1490401540//
/work/sebastian/BT-20210625/1009177-light/run1009177-light.h5 tag-1490401542//
/work/sebastian/BT-20210625/1009177-light/run1009177-light.h5 tag-1490401546//
/work/sebastian/BT-20210625/1009177-light/run1009177-light.h5 tag-1490401548//
/work/sebastian/BT-20210625/1009177-light/run1009177-light.h5 tag-1490401552//
/work/sebastian/BT-20210625/1009177-light/run1009177-light.h5 tag-1490401554//
/work/sebastian/BT-20210625/1009177-light/run1009177-light.h5 tag-1490401558//
/work/sebastian/BT-20210625/1009177-light/run1009177-light.h5 tag-1490401566//
/work/sebastian/BT-20210625/1009177-light/run1009177-light.h5 tag-1490401570//
/work/sebastian/BT-20210625/1009177-light/run1009177-light.h5 tag-1490401572//
/work/sebastian/BT-20210625/1009177-light/run1009177-light.h5 tag-1490401574//
/work/sebastian/BT-20210625/1009177-light/run1009177-light.h5 tag-1490401582//
/work/sebastian/BT-20210625/1009177-light/run1009177-light.h5 tag-1490401584//
/work/sebastian/BT-20210625/1009177-light/run1009177-light.h5 tag-1490401596//
/work/sebastian/BT-20210625/1009177-light/run1009177-light.h5 tag-1490401600//
/work/sebastian/BT-20210625/1009177-light/run1009177-light.h5 tag-1490401602//
/work/sebastian/BT-20210625/1009177-light/run1009177-light.h5 tag-1490401608//
/work/sebastian/BT-20210625/1009177-light/run1009177-light.h5 tag-1490401610//
/work/sebastian/BT-20210625/1009177-light/run1009177-light.h5 tag-1490401612//
/work/sebastian/BT-20210625/1009177-light/run1009177-light.h5 tag-1490401618//
/work/sebastian/BT-20210625/1009177-light/run1009177-light.h5 tag-1490401624//
/work/sebastian/BT-20210625/1009177-light/run1009177-light.h5 tag-1490401626//
/work/sebastian/BT-20210625/1009177-light/run1009177-light.h5 tag-1490401630//
/work/sebastian/BT-20210625/1009177-light/run1009177-light.h5 tag-1490401632//
/work/sebastian/BT-20210625/1009177-light/run1009177-light.h5 tag-1490401636//
/work/sebastian/BT-20210625/1009177-light/run1009177-light.h5 tag-1490401638//
/work/sebastian/BT-20210625/1009177-light/run1009177-light.h5 tag-1490401640//
/work/sebastian/BT-20210625/1009177-light/run1009177-light.h5 tag-1490401642//
/work/sebastian/BT-20210625/1009177-light/run1009177-light.h5 tag-1490401644//
/work/sebastian/BT-20210625/1009177-light/run1009177-light.h5 tag-1490401646//
/work/sebastian/BT-20210625/1009177-light/run1009177-light.h5 tag-1490401654//
/work/sebastian/BT-20210625/1009177-light/run1009177-light.h5 tag-1490401656//
/work/sebastian/BT-20210625/1009177-light/run1009177-light.h5 tag-1490401660//
/work/sebastian/BT-20210625/1009177-light/run1009177-light.h5 tag-1490401662//
/work/sebastian/BT-20210625/1009177-light/run1009177-light.h5 tag-1490401664//
/work/sebastian/BT-20210625/1009177-light/run1009177-light.h5 tag-1490401668//
/work/sebastian/BT-20210625/1009177-light/run1009177-light.h5 tag-1490401670//
/work/sebastian/BT-20210625/1009177-light/run1009177-light.h5 tag-1490401680//
/work/sebastian/BT-20210625/1009177-light/run1009177-light.h5 tag-1490401684//
/work/sebastian/BT-20210625/1009177-light/run1009177-light.h5 tag-1490401688//
/work/sebastian/BT-20210625/1009177-light/run1009177-light.h5 tag-1490401692//
/work/sebastian/BT-20210625/1009177-light/run1009177-light.h5 tag-1490401694//
/work/sebastian/BT-20210625/1009177-light/run1009177-light.h5 tag-1490401696//
/work/sebastian/BT-20210625/1009177-light/run1009177-light.h5 tag-1490401698//
/work/sebastian/BT-20210625/1009177-light/run1009177-light.h5 tag-1490401704//
/work/sebastian/BT-20210625/1009177-light/run1009177-light.h5 tag-1490401710//
/work/sebastian/BT-20210625/1009177-light/run1009177-light.h5 tag-1490401712//
/work/sebastian/BT-20210625/1009177-light/run1009177-light.h5 tag-1490401714//
/work/sebastian/BT-20210625/1009177-light/run1009177-light.h5 tag-1490401716//
/work/sebastian/BT-20210625/1009177-light/run1009177-light.h5 tag-1490401720//
/work/sebastian/BT-20210625/1009177-light/run1009177-light.h5 tag-1490401722//
/work/sebastian/BT-20210625/1009177-light/run1009177-light.h5 tag-1490401726//
/work/sebastian/BT-20210625/1009177-light/run1009177-light.h5 tag-1490401740//
/work/sebastian/BT-20210625/1009177-light/run1009177-light.h5 tag-1490401742//
/work/sebastian/BT-20210625/1009177-light/run1009177-light.h5 tag-1490401744//
/work/sebastian/BT-20210625/1009177-light/run1009177-light.h5 tag-1490401746//
/work/sebastian/BT-20210625/1009177-light/run1009177-light.h5 tag-1490401748//
/work/sebastian/BT-20210625/1009177-light/run1009177-light.h5 tag-1490401752//
/work/sebastian/BT-20210625/1009177-light/run1009177-light.h5 tag-1490401754//
/work/sebastian/BT-20210625/1009177-light/run1009177-light.h5 tag-1490401756//
/work/sebastian/BT-20210625/1009177-light/run1009177-light.h5 tag-1490401764//
/work/sebastian/BT-20210625/1009177-light/run1009177-light.h5 tag-1490401768//
/work/sebastian/BT-20210625/1009177-light/run1009177-light.h5 tag-1490401770//
/work/sebastian/BT-20210625/1009177-light/run1009177-light.h5 tag-1490401774//
/work/sebastian/BT-20210625/1009177-light/run1009177-light.h5 tag-1490401776//
/work/sebastian/BT-20210625/1009177-light/run1009177-light.h5 tag-1490401784//
/work/sebastian/BT-20210625/1009177-light/run1009177-light.h5 tag-1490401786//
/work/sebastian/BT-20210625/1009177-light/run1009177-light.h5 tag-1490401790//
/work/sebastian/BT-20210625/1009177-light/run1009177-light.h5 tag-1490401792//
/work/sebastian/BT-20210625/1009177-light/run1009177-light.h5 tag-1490401794//
/work/sebastian/BT-20210625/1009177-light/run1009177-light.h5 tag-1490401798//
/work/sebastian/BT-20210625/1009177-light/run1009177-light.h5 tag-1490401800//
/work/sebastian/BT-20210625/1009177-light/run1009177-light.h5 tag-1490401802//
/work/sebastian/BT-20210625/1009177-light/run1009177-light.h5 tag-1490401804//
/work/sebastian/BT-20210625/1009177-light/run1009177-light.h5 tag-1490401806//
/work/sebastian/BT-20210625/1009177-light/run1009177-light.h5 tag-1490401808//
/work/sebastian/BT-20210625/1009177-light/run1009177-light.h5 tag-1490401810//
/work/sebastian/BT-20210625/1009177-light/run1009177-light.h5 tag-1490401816//
/work/sebastian/BT-20210625/1009177-light/run1009177-light.h5 tag-1490401820//
/work/sebastian/BT-20210625/1009177-light/run1009177-light.h5 tag-1490401822//
/work/sebastian/BT-20210625/1009177-light/run1009177-light.h5 tag-1490401824//
/work/sebastian/BT-20210625/1009177-light/run1009177-light.h5 tag-1490401828//
/work/sebastian/BT-20210625/1009177-light/run1009177-light.h5 tag-1490401832//
/work/sebastian/BT-20210625/1009177-light/run1009177-light.h5 tag-1490401834//
/work/sebastian/BT-20210625/1009177-light/run1009177-light.h5 tag-1490401836//
/work/sebastian/BT-20210625/1009177-light/run1009177-light.h5 tag-1490401838//
/work/sebastian/BT-20210625/1009177-light/run1009177-light.h5 tag-1490401840//
/work/sebastian/BT-20210625/1009177-light/run1009177-light.h5 tag-1490401844//
/work/sebastian/BT-20210625/1009177-light/run1009177-light.h5 tag-1490401846//
/work/sebastian/BT-20210625/1009177-light/run1009177-light.h5 tag-1490401848//
/work/sebastian/BT-20210625/1009177-light/run1009177-light.h5 tag-1490401850//
/work/sebastian/BT-20210625/1009177-light/run1009177-light.h5 tag-1490401854//
/work/sebastian/BT-20210625/1009177-light/run1009177-light.h5 tag-1490401858//
/work/sebastian/BT-20210625/1009177-light/run1009177-light.h5 tag-1490401860//
/work/sebastian/BT-20210625/1009177-light/run1009177-light.h5 tag-1490401864//
/work/sebastian/BT-20210625/1009177-light/run1009177-light.h5 tag-1490401868//
/work/sebastian/BT-20210625/1009177-light/run1009177-light.h5 tag-1490401874//
/work/sebastian/BT-20210625/1009177-light/run1009177-light.h5 tag-1490401878//
/work/sebastian/BT-20210625/1009177-light/run1009177-light.h5 tag-1490401880//
/work/sebastian/BT-20210625/1009177-light/run1009177-light.h5 tag-1490401882//
/work/sebastian/BT-20210625/1009177-light/run1009177-light.h5 tag-1490401886//
/work/sebastian/BT-20210625/1009177-light/run1009177-light.h5 tag-1490401888//
/work/sebastian/BT-20210625/1009177-light/run1009177-light.h5 tag-1490401890//
/work/sebastian/BT-20210625/1009177-light/run1009177-light.h5 tag-1490401894//
/work/sebastian/BT-20210625/1009177-light/run1009177-light.h5 tag-1490401896//
/work/sebastian/BT-20210625/1009177-light/run1009177-light.h5 tag-1490401900//
/work/sebastian/BT-20210625/1009177-light/run1009177-light.h5 tag-1490401904//
/work/sebastian/BT-20210625/1009177-light/run1009177-light.h5 tag-1490401908//
/work/sebastian/BT-20210625/1009177-light/run1009177-light.h5 tag-1490401912//
/work/sebastian/BT-20210625/1009177-light/run1009177-light.h5 tag-1490401914//
/work/sebastian/BT-20210625/1009177-light/run1009177-light.h5 tag-1490401916//
/work/sebastian/BT-20210625/1009177-light/run1009177-light.h5 tag-1490401918//
/work/sebastian/BT-20210625/1009177-light/run1009177-light.h5 tag-1490401920//
/work/sebastian/BT-20210625/1009177-light/run1009177-light.h5 tag-1490401922//
/work/sebastian/BT-20210625/1009177-light/run1009177-light.h5 tag-1490401924//
/work/sebastian/BT-20210625/1009177-light/run1009177-light.h5 tag-1490401926//
/work/sebastian/BT-20210625/1009177-light/run1009177-light.h5 tag-1490401928//
/work/sebastian/BT-20210625/1009177-light/run1009177-light.h5 tag-1490401930//
/work/sebastian/BT-20210625/1009177-light/run1009177-light.h5 tag-1490401932//
/work/sebastian/BT-20210625/1009177-light/run1009177-light.h5 tag-1490401936//
/work/sebastian/BT-20210625/1009177-light/run1009177-light.h5 tag-1490401942//
/work/sebastian/BT-20210625/1009177-light/run1009177-light.h5 tag-1490401948//
/work/sebastian/BT-20210625/1009177-light/run1009177-light.h5 tag-1490401950//
/work/sebastian/BT-20210625/1009177-light/run1009177-light.h5 tag-1490401952//
/work/sebastian/BT-20210625/1009177-light/run1009177-light.h5 tag-1490401962//
/work/sebastian/BT-20210625/1009177-light/run1009177-light.h5 tag-1490401964//
/work/sebastian/BT-20210625/1009177-light/run1009177-light.h5 tag-1490401966//
/work/sebastian/BT-20210625/1009177-light/run1009177-light.h5 tag-1490401974//
/work/sebastian/BT-20210625/1009177-light/run1009177-light.h5 tag-1490401984//
/work/sebastian/BT-20210625/1009177-light/run1009177-light.h5 tag-1490401986//
/work/sebastian/BT-20210625/1009177-light/run1009177-light.h5 tag-1490401988//
/work/sebastian/BT-20210625/1009177-light/run1009177-light.h5 tag-1490401994//
/work/sebastian/BT-20210625/1009177-light/run1009177-light.h5 tag-1490401996//
/work/sebastian/BT-20210625/1009177-light/run1009177-light.h5 tag-1490401998//
/work/sebastian/BT-20210625/1009177-light/run1009177-light.h5 tag-1490402000//
/work/sebastian/BT-20210625/1009177-light/run1009177-light.h5 tag-1490402002//
/work/sebastian/BT-20210625/1009177-light/run1009177-light.h5 tag-1490402004//
/work/sebastian/BT-20210625/1009177-light/run1009177-light.h5 tag-1490402008//
/work/sebastian/BT-20210625/1009177-light/run1009177-light.h5 tag-1490402014//
/work/sebastian/BT-20210625/1009177-light/run1009177-light.h5 tag-1490402020//
/work/sebastian/BT-20210625/1009177-light/run1009177-light.h5 tag-1490402026//
/work/sebastian/BT-20210625/1009177-light/run1009177-light.h5 tag-1490402038//
/work/sebastian/BT-20210625/1009177-light/run1009177-light.h5 tag-1490402040//
/work/sebastian/BT-20210625/1009177-light/run1009177-light.h5 tag-1490402042//
/work/sebastian/BT-20210625/1009177-light/run1009177-light.h5 tag-1490402048//
/work/sebastian/BT-20210625/1009177-light/run1009177-light.h5 tag-1490402050//
/work/sebastian/BT-20210625/1009177-light/run1009177-light.h5 tag-1490402052//
/work/sebastian/BT-20210625/1009177-light/run1009177-light.h5 tag-1490402056//
/work/sebastian/BT-20210625/1009177-light/run1009177-light.h5 tag-1490402058//
/work/sebastian/BT-20210625/1009177-light/run1009177-light.h5 tag-1490402060//
/work/sebastian/BT-20210625/1009177-light/run1009177-light.h5 tag-1490402066//
/work/sebastian/BT-20210625/1009177-light/run1009177-light.h5 tag-1490402070//
/work/sebastian/BT-20210625/1009177-light/run1009177-light.h5 tag-1490402078//
/work/sebastian/BT-20210625/1009177-light/run1009177-light.h5 tag-1490402082//
/work/sebastian/BT-20210625/1009177-light/run1009177-light.h5 tag-1490402090//
/work/sebastian/BT-20210625/1009177-light/run1009177-light.h5 tag-1490402094//
/work/sebastian/BT-20210625/1009177-light/run1009177-light.h5 tag-1490402098//
/work/sebastian/BT-20210625/1009177-light/run1009177-light.h5 tag-1490402100//
/work/sebastian/BT-20210625/1009177-light/run1009177-light.h5 tag-1490402106//
/work/sebastian/BT-20210625/1009177-light/run1009177-light.h5 tag-1490402118//
/work/sebastian/BT-20210625/1009177-light/run1009177-light.h5 tag-1490402120//
/work/sebastian/BT-20210625/1009177-light/run1009177-light.h5 tag-1490402122//
/work/sebastian/BT-20210625/1009177-light/run1009177-light.h5 tag-1490402124//
/work/sebastian/BT-20210625/1009177-light/run1009177-light.h5 tag-1490402126//
/work/sebastian/BT-20210625/1009177-light/run1009177-light.h5 tag-1490402130//
/work/sebastian/BT-20210625/1009177-light/run1009177-light.h5 tag-1490402132//
/work/sebastian/BT-20210625/1009177-light/run1009177-light.h5 tag-1490402134//
/work/sebastian/BT-20210625/1009177-light/run1009177-light.h5 tag-1490402136//
/work/sebastian/BT-20210625/1009177-light/run1009177-light.h5 tag-1490402144//
/work/sebastian/BT-20210625/1009177-light/run1009177-light.h5 tag-1490402146//
/work/sebastian/BT-20210625/1009177-light/run1009177-light.h5 tag-1490402148//
/work/sebastian/BT-20210625/1009177-light/run1009177-light.h5 tag-1490402150//
/work/sebastian/BT-20210625/1009177-light/run1009177-light.h5 tag-1490402152//
/work/sebastian/BT-20210625/1009177-light/run1009177-light.h5 tag-1490402154//
/work/sebastian/BT-20210625/1009177-light/run1009177-light.h5 tag-1490402158//
/work/sebastian/BT-20210625/1009177-light/run1009177-light.h5 tag-1490402160//
/work/sebastian/BT-20210625/1009177-light/run1009177-light.h5 tag-1490402162//
/work/sebastian/BT-20210625/1009177-light/run1009177-light.h5 tag-1490402164//
/work/sebastian/BT-20210625/1009177-light/run1009177-light.h5 tag-1490402170//
/work/sebastian/BT-20210625/1009177-light/run1009177-light.h5 tag-1490402172//
/work/sebastian/BT-20210625/1009177-light/run1009177-light.h5 tag-1490402174//
/work/sebastian/BT-20210625/1009177-light/run1009177-light.h5 tag-1490402180//
/work/sebastian/BT-20210625/1009177-light/run1009177-light.h5 tag-1490402182//
/work/sebastian/BT-20210625/1009177-light/run1009177-light.h5 tag-1490402184//
/work/sebastian/BT-20210625/1009177-light/run1009177-light.h5 tag-1490402186//
/work/sebastian/BT-20210625/1009177-light/run1009177-light.h5 tag-1490402192//
/work/sebastian/BT-20210625/1009177-light/run1009177-light.h5 tag-1490402194//
/work/sebastian/BT-20210625/1009177-light/run1009177-light.h5 tag-1490402204//
/work/sebastian/BT-20210625/1009177-light/run1009177-light.h5 tag-1490402206//
/work/sebastian/BT-20210625/1009177-light/run1009177-light.h5 tag-1490402208//
/work/sebastian/BT-20210625/1009177-light/run1009177-light.h5 tag-1490402210//
/work/sebastian/BT-20210625/1009177-light/run1009177-light.h5 tag-1490402214//
/work/sebastian/BT-20210625/1009177-light/run1009177-light.h5 tag-1490402218//
/work/sebastian/BT-20210625/1009177-light/run1009177-light.h5 tag-1490402222//
/work/sebastian/BT-20210625/1009177-light/run1009177-light.h5 tag-1490402224//
/work/sebastian/BT-20210625/1009177-light/run1009177-light.h5 tag-1490402226//
/work/sebastian/BT-20210625/1009177-light/run1009177-light.h5 tag-1490402230//
/work/sebastian/BT-20210625/1009177-light/run1009177-light.h5 tag-1490402234//
/work/sebastian/BT-20210625/1009177-light/run1009177-light.h5 tag-1490402236//
/work/sebastian/BT-20210625/1009177-light/run1009177-light.h5 tag-1490402240//
/work/sebastian/BT-20210625/1009177-light/run1009177-light.h5 tag-1490402246//
/work/sebastian/BT-20210625/1009177-light/run1009177-light.h5 tag-1490402248//
/work/sebastian/BT-20210625/1009177-light/run1009177-light.h5 tag-1490402250//
/work/sebastian/BT-20210625/1009177-light/run1009177-light.h5 tag-1490402252//
/work/sebastian/BT-20210625/1009177-light/run1009177-light.h5 tag-1490402254//
/work/sebastian/BT-20210625/1009177-light/run1009177-light.h5 tag-1490402258//
/work/sebastian/BT-20210625/1009177-light/run1009177-light.h5 tag-1490402262//
/work/sebastian/BT-20210625/1009177-light/run1009177-light.h5 tag-1490402264//
/work/sebastian/BT-20210625/1009177-light/run1009177-light.h5 tag-1490402266//
/work/sebastian/BT-20210625/1009177-light/run1009177-light.h5 tag-1490402268//
/work/sebastian/BT-20210625/1009177-light/run1009177-light.h5 tag-1490402274//
/work/sebastian/BT-20210625/1009177-light/run1009177-light.h5 tag-1490402276//
/work/sebastian/BT-20210625/1009177-light/run1009177-light.h5 tag-1490402278//
/work/sebastian/BT-20210625/1009177-light/run1009177-light.h5 tag-1490402282//
/work/sebastian/BT-20210625/1009177-light/run1009177-light.h5 tag-1490402284//
/work/sebastian/BT-20210625/1009177-light/run1009177-light.h5 tag-1490402286//
/work/sebastian/BT-20210625/1009177-light/run1009177-light.h5 tag-1490402290//
/work/sebastian/BT-20210625/1009177-light/run1009177-light.h5 tag-1490402294//
/work/sebastian/BT-20210625/1009177-light/run1009177-light.h5 tag-1490402298//
/work/sebastian/BT-20210625/1009177-light/run1009177-light.h5 tag-1490402300//
/work/sebastian/BT-20210625/1009177-light/run1009177-light.h5 tag-1490402302//
/work/sebastian/BT-20210625/1009177-light/run1009177-light.h5 tag-1490402304//
/work/sebastian/BT-20210625/1009177-light/run1009177-light.h5 tag-1490402308//
/work/sebastian/BT-20210625/1009177-light/run1009177-light.h5 tag-1490402310//
/work/sebastian/BT-20210625/1009177-light/run1009177-light.h5 tag-1490402316//
/work/sebastian/BT-20210625/1009177-light/run1009177-light.h5 tag-1490402326//
/work/sebastian/BT-20210625/1009177-light/run1009177-light.h5 tag-1490402328//
/work/sebastian/BT-20210625/1009177-light/run1009177-light.h5 tag-1490402332//
/work/sebastian/BT-20210625/1009177-light/run1009177-light.h5 tag-1490402334//
/work/sebastian/BT-20210625/1009177-light/run1009177-light.h5 tag-1490402336//
/work/sebastian/BT-20210625/1009177-light/run1009177-light.h5 tag-1490402340//
/work/sebastian/BT-20210625/1009177-light/run1009177-light.h5 tag-1490402346//
/work/sebastian/BT-20210625/1009177-light/run1009177-light.h5 tag-1490402350//
/work/sebastian/BT-20210625/1009177-light/run1009177-light.h5 tag-1490402354//
/work/sebastian/BT-20210625/1009177-light/run1009177-light.h5 tag-1490402358//
/work/sebastian/BT-20210625/1009177-light/run1009177-light.h5 tag-1490402360//
/work/sebastian/BT-20210625/1009177-light/run1009177-light.h5 tag-1490402362//
/work/sebastian/BT-20210625/1009177-light/run1009177-light.h5 tag-1490402366//
/work/sebastian/BT-20210625/1009177-light/run1009177-light.h5 tag-1490402370//
/work/sebastian/BT-20210625/1009177-light/run1009177-light.h5 tag-1490402376//
/work/sebastian/BT-20210625/1009177-light/run1009177-light.h5 tag-1490402380//
/work/sebastian/BT-20210625/1009177-light/run1009177-light.h5 tag-1490402382//
/work/sebastian/BT-20210625/1009177-light/run1009177-light.h5 tag-1490402386//
/work/sebastian/BT-20210625/1009177-light/run1009177-light.h5 tag-1490402388//
/work/sebastian/BT-20210625/1009177-light/run1009177-light.h5 tag-1490402390//
/work/sebastian/BT-20210625/1009177-light/run1009177-light.h5 tag-1490402392//
/work/sebastian/BT-20210625/1009177-light/run1009177-light.h5 tag-1490402396//
/work/sebastian/BT-20210625/1009177-light/run1009177-light.h5 tag-1490402398//
/work/sebastian/BT-20210625/1009177-light/run1009177-light.h5 tag-1490402400//
/work/sebastian/BT-20210625/1009177-light/run1009177-light.h5 tag-1490402404//
/work/sebastian/BT-20210625/1009177-light/run1009177-light.h5 tag-1490402408//
/work/sebastian/BT-20210625/1009177-light/run1009177-light.h5 tag-1490402410//
/work/sebastian/BT-20210625/1009177-light/run1009177-light.h5 tag-1490402412//
/work/sebastian/BT-20210625/1009177-light/run1009177-light.h5 tag-1490402414//
/work/sebastian/BT-20210625/1009177-light/run1009177-light.h5 tag-1490402420//
/work/sebastian/BT-20210625/1009177-light/run1009177-light.h5 tag-1490402430//
/work/sebastian/BT-20210625/1009177-light/run1009177-light.h5 tag-1490402434//
/work/sebastian/BT-20210625/1009177-light/run1009177-light.h5 tag-1490402438//
/work/sebastian/BT-20210625/1009177-light/run1009177-light.h5 tag-1490402440//
/work/sebastian/BT-20210625/1009177-light/run1009177-light.h5 tag-1490402442//
/work/sebastian/BT-20210625/1009177-light/run1009177-light.h5 tag-1490402446//
/work/sebastian/BT-20210625/1009177-light/run1009177-light.h5 tag-1490402452//
/work/sebastian/BT-20210625/1009177-light/run1009177-light.h5 tag-1490402454//
/work/sebastian/BT-20210625/1009177-light/run1009177-light.h5 tag-1490402456//
/work/sebastian/BT-20210625/1009177-light/run1009177-light.h5 tag-1490402458//
/work/sebastian/BT-20210625/1009177-light/run1009177-light.h5 tag-1490402466//
/work/sebastian/BT-20210625/1009177-light/run1009177-light.h5 tag-1490402468//
/work/sebastian/BT-20210625/1009177-light/run1009177-light.h5 tag-1490402470//
/work/sebastian/BT-20210625/1009177-light/run1009177-light.h5 tag-1490402472//
/work/sebastian/BT-20210625/1009177-light/run1009177-light.h5 tag-1490402478//
/work/sebastian/BT-20210625/1009177-light/run1009177-light.h5 tag-1490402482//
/work/sebastian/BT-20210625/1009177-light/run1009177-light.h5 tag-1490402484//
/work/sebastian/BT-20210625/1009177-light/run1009177-light.h5 tag-1490402486//
/work/sebastian/BT-20210625/1009177-light/run1009177-light.h5 tag-1490402488//
/work/sebastian/BT-20210625/1009177-light/run1009177-light.h5 tag-1490402492//
/work/sebastian/BT-20210625/1009177-light/run1009177-light.h5 tag-1490402494//
/work/sebastian/BT-20210625/1009177-light/run1009177-light.h5 tag-1490402496//
/work/sebastian/BT-20210625/1009177-light/run1009177-light.h5 tag-1490402500//
/work/sebastian/BT-20210625/1009177-light/run1009177-light.h5 tag-1490402504//
/work/sebastian/BT-20210625/1009177-light/run1009177-light.h5 tag-1490402508//
/work/sebastian/BT-20210625/1009177-light/run1009177-light.h5 tag-1490402510//
/work/sebastian/BT-20210625/1009177-light/run1009177-light.h5 tag-1490402512//
/work/sebastian/BT-20210625/1009177-light/run1009177-light.h5 tag-1490402516//
/work/sebastian/BT-20210625/1009177-light/run1009177-light.h5 tag-1490402518//
/work/sebastian/BT-20210625/1009177-light/run1009177-light.h5 tag-1490402520//
/work/sebastian/BT-20210625/1009177-light/run1009177-light.h5 tag-1490402524//
/work/sebastian/BT-20210625/1009177-light/run1009177-light.h5 tag-1490402530//
/work/sebastian/BT-20210625/1009177-light/run1009177-light.h5 tag-1490402536//
/work/sebastian/BT-20210625/1009177-light/run1009177-light.h5 tag-1490402538//
/work/sebastian/BT-20210625/1009177-light/run1009177-light.h5 tag-1490402540//
/work/sebastian/BT-20210625/1009177-light/run1009177-light.h5 tag-1490402544//
/work/sebastian/BT-20210625/1009177-light/run1009177-light.h5 tag-1490402546//
/work/sebastian/BT-20210625/1009177-light/run1009177-light.h5 tag-1490402554//
/work/sebastian/BT-20210625/1009177-light/run1009177-light.h5 tag-1490402556//
/work/sebastian/BT-20210625/1009177-light/run1009177-light.h5 tag-1490402560//
/work/sebastian/BT-20210625/1009177-light/run1009177-light.h5 tag-1490402564//
/work/sebastian/BT-20210625/1009177-light/run1009177-light.h5 tag-1490402566//
/work/sebastian/BT-20210625/1009177-light/run1009177-light.h5 tag-1490402568//
/work/sebastian/BT-20210625/1009177-light/run1009177-light.h5 tag-1490402570//
/work/sebastian/BT-20210625/1009177-light/run1009177-light.h5 tag-1490402572//
/work/sebastian/BT-20210625/1009177-light/run1009177-light.h5 tag-1490402576//
/work/sebastian/BT-20210625/1009177-light/run1009177-light.h5 tag-1490402582//
/work/sebastian/BT-20210625/1009177-light/run1009177-light.h5 tag-1490402584//
/work/sebastian/BT-20210625/1009177-light/run1009177-light.h5 tag-1490402588//
/work/sebastian/BT-20210625/1009177-light/run1009177-light.h5 tag-1490402592//
/work/sebastian/BT-20210625/1009177-light/run1009177-light.h5 tag-1490402606//
/work/sebastian/BT-20210625/1009177-light/run1009177-light.h5 tag-1490402608//
/work/sebastian/BT-20210625/1009177-light/run1009177-light.h5 tag-1490402612//
/work/sebastian/BT-20210625/1009177-light/run1009177-light.h5 tag-1490402614//
/work/sebastian/BT-20210625/1009177-light/run1009177-light.h5 tag-1490402618//
/work/sebastian/BT-20210625/1009177-light/run1009177-light.h5 tag-1490402620//
/work/sebastian/BT-20210625/1009177-light/run1009177-light.h5 tag-1490402626//
/work/sebastian/BT-20210625/1009177-light/run1009177-light.h5 tag-1490402628//
/work/sebastian/BT-20210625/1009177-light/run1009177-light.h5 tag-1490402632//
/work/sebastian/BT-20210625/1009177-light/run1009177-light.h5 tag-1490402634//
/work/sebastian/BT-20210625/1009177-light/run1009177-light.h5 tag-1490402638//
/work/sebastian/BT-20210625/1009177-light/run1009177-light.h5 tag-1490402640//
/work/sebastian/BT-20210625/1009177-light/run1009177-light.h5 tag-1490402642//
/work/sebastian/BT-20210625/1009177-light/run1009177-light.h5 tag-1490402648//
/work/sebastian/BT-20210625/1009177-light/run1009177-light.h5 tag-1490402652//
/work/sebastian/BT-20210625/1009177-light/run1009177-light.h5 tag-1490402656//
/work/sebastian/BT-20210625/1009177-light/run1009177-light.h5 tag-1490402658//
/work/sebastian/BT-20210625/1009177-light/run1009177-light.h5 tag-1490402662//
/work/sebastian/BT-20210625/1009177-light/run1009177-light.h5 tag-1490402664//
/work/sebastian/BT-20210625/1009177-light/run1009177-light.h5 tag-1490402674//
/work/sebastian/BT-20210625/1009177-light/run1009177-light.h5 tag-1490402684//
/work/sebastian/BT-20210625/1009177-light/run1009177-light.h5 tag-1490402686//
/work/sebastian/BT-20210625/1009177-light/run1009177-light.h5 tag-1490402692//
/work/sebastian/BT-20210625/1009177-light/run1009177-light.h5 tag-1490402696//
/work/sebastian/BT-20210625/1009177-light/run1009177-light.h5 tag-1490402698//
/work/sebastian/BT-20210625/1009177-light/run1009177-light.h5 tag-1490402700//
/work/sebastian/BT-20210625/1009177-light/run1009177-light.h5 tag-1490402702//
/work/sebastian/BT-20210625/1009177-light/run1009177-light.h5 tag-1490402704//
/work/sebastian/BT-20210625/1009177-light/run1009177-light.h5 tag-1490402706//
/work/sebastian/BT-20210625/1009177-light/run1009177-light.h5 tag-1490402708//
/work/sebastian/BT-20210625/1009177-light/run1009177-light.h5 tag-1490402718//
/work/sebastian/BT-20210625/1009177-light/run1009177-light.h5 tag-1490402720//
/work/sebastian/BT-20210625/1009177-light/run1009177-light.h5 tag-1490402722//
/work/sebastian/BT-20210625/1009177-light/run1009177-light.h5 tag-1490402724//
/work/sebastian/BT-20210625/1009177-light/run1009177-light.h5 tag-1490402726//
/work/sebastian/BT-20210625/1009177-light/run1009177-light.h5 tag-1490402728//
/work/sebastian/BT-20210625/1009177-light/run1009177-light.h5 tag-1490402730//
/work/sebastian/BT-20210625/1009177-light/run1009177-light.h5 tag-1490402732//
/work/sebastian/BT-20210625/1009177-light/run1009177-light.h5 tag-1490402734//
/work/sebastian/BT-20210625/1009177-light/run1009177-light.h5 tag-1490402736//
/work/sebastian/BT-20210625/1009177-light/run1009177-light.h5 tag-1490402740//
/work/sebastian/BT-20210625/1009177-light/run1009177-light.h5 tag-1490402746//
/work/sebastian/BT-20210625/1009177-light/run1009177-light.h5 tag-1490402754//
/work/sebastian/BT-20210625/1009177-light/run1009177-light.h5 tag-1490402756//
/work/sebastian/BT-20210625/1009177-light/run1009177-light.h5 tag-1490402758//
/work/sebastian/BT-20210625/1009177-light/run1009177-light.h5 tag-1490402760//
/work/sebastian/BT-20210625/1009177-light/run1009177-light.h5 tag-1490402762//
/work/sebastian/BT-20210625/1009177-light/run1009177-light.h5 tag-1490402764//
/work/sebastian/BT-20210625/1009177-light/run1009177-light.h5 tag-1490402766//
/work/sebastian/BT-20210625/1009177-light/run1009177-light.h5 tag-1490402770//
/work/sebastian/BT-20210625/1009177-light/run1009177-light.h5 tag-1490402772//
/work/sebastian/BT-20210625/1009177-light/run1009177-light.h5 tag-1490402774//
/work/sebastian/BT-20210625/1009177-light/run1009177-light.h5 tag-1490402776//
/work/sebastian/BT-20210625/1009177-light/run1009177-light.h5 tag-1490402780//
/work/sebastian/BT-20210625/1009177-light/run1009177-light.h5 tag-1490402782//
/work/sebastian/BT-20210625/1009177-light/run1009177-light.h5 tag-1490402784//
/work/sebastian/BT-20210625/1009177-light/run1009177-light.h5 tag-1490402786//
/work/sebastian/BT-20210625/1009177-light/run1009177-light.h5 tag-1490402790//
/work/sebastian/BT-20210625/1009177-light/run1009177-light.h5 tag-1490402792//
/work/sebastian/BT-20210625/1009177-light/run1009177-light.h5 tag-1490402794//
/work/sebastian/BT-20210625/1009177-light/run1009177-light.h5 tag-1490402796//
/work/sebastian/BT-20210625/1009177-light/run1009177-light.h5 tag-1490402798//
/work/sebastian/BT-20210625/1009177-light/run1009177-light.h5 tag-1490402802//
/work/sebastian/BT-20210625/1009177-light/run1009177-light.h5 tag-1490402808//
/work/sebastian/BT-20210625/1009177-light/run1009177-light.h5 tag-1490402812//
/work/sebastian/BT-20210625/1009177-light/run1009177-light.h5 tag-1490402814//
/work/sebastian/BT-20210625/1009177-light/run1009177-light.h5 tag-1490402816//
/work/sebastian/BT-20210625/1009177-light/run1009177-light.h5 tag-1490402818//
/work/sebastian/BT-20210625/1009177-light/run1009177-light.h5 tag-1490402820//
/work/sebastian/BT-20210625/1009177-light/run1009177-light.h5 tag-1490402826//
/work/sebastian/BT-20210625/1009177-light/run1009177-light.h5 tag-1490402828//
/work/sebastian/BT-20210625/1009177-light/run1009177-light.h5 tag-1490402838//
/work/sebastian/BT-20210625/1009177-light/run1009177-light.h5 tag-1490402842//
/work/sebastian/BT-20210625/1009177-light/run1009177-light.h5 tag-1490402844//
/work/sebastian/BT-20210625/1009177-light/run1009177-light.h5 tag-1490402854//
/work/sebastian/BT-20210625/1009177-light/run1009177-light.h5 tag-1490402856//
/work/sebastian/BT-20210625/1009177-light/run1009177-light.h5 tag-1490402858//
/work/sebastian/BT-20210625/1009177-light/run1009177-light.h5 tag-1490402864//
/work/sebastian/BT-20210625/1009177-light/run1009177-light.h5 tag-1490402866//
/work/sebastian/BT-20210625/1009177-light/run1009177-light.h5 tag-1490402870//
/work/sebastian/BT-20210625/1009177-light/run1009177-light.h5 tag-1490402872//
/work/sebastian/BT-20210625/1009177-light/run1009177-light.h5 tag-1490402874//
/work/sebastian/BT-20210625/1009177-light/run1009177-light.h5 tag-1490402880//
/work/sebastian/BT-20210625/1009177-light/run1009177-light.h5 tag-1490402882//
/work/sebastian/BT-20210625/1009177-light/run1009177-light.h5 tag-1490402886//
/work/sebastian/BT-20210625/1009177-light/run1009177-light.h5 tag-1490402888//
/work/sebastian/BT-20210625/1009177-light/run1009177-light.h5 tag-1490402890//
/work/sebastian/BT-20210625/1009177-light/run1009177-light.h5 tag-1490402894//
/work/sebastian/BT-20210625/1009177-light/run1009177-light.h5 tag-1490402896//
/work/sebastian/BT-20210625/1009177-light/run1009177-light.h5 tag-1490402902//
/work/sebastian/BT-20210625/1009177-light/run1009177-light.h5 tag-1490402910//
/work/sebastian/BT-20210625/1009177-light/run1009177-light.h5 tag-1490402916//
/work/sebastian/BT-20210625/1009177-light/run1009177-light.h5 tag-1490402920//
/work/sebastian/BT-20210625/1009177-light/run1009177-light.h5 tag-1490402922//
/work/sebastian/BT-20210625/1009177-light/run1009177-light.h5 tag-1490402926//
/work/sebastian/BT-20210625/1009177-light/run1009177-light.h5 tag-1490402928//
/work/sebastian/BT-20210625/1009177-light/run1009177-light.h5 tag-1490402932//
/work/sebastian/BT-20210625/1009177-light/run1009177-light.h5 tag-1490402934//
/work/sebastian/BT-20210625/1009177-light/run1009177-light.h5 tag-1490402936//
/work/sebastian/BT-20210625/1009177-light/run1009177-light.h5 tag-1490402938//
/work/sebastian/BT-20210625/1009177-light/run1009177-light.h5 tag-1490402940//
/work/sebastian/BT-20210625/1009177-light/run1009177-light.h5 tag-1490402942//
/work/sebastian/BT-20210625/1009177-light/run1009177-light.h5 tag-1490402950//
/work/sebastian/BT-20210625/1009177-light/run1009177-light.h5 tag-1490402952//
/work/sebastian/BT-20210625/1009177-light/run1009177-light.h5 tag-1490402954//
/work/sebastian/BT-20210625/1009177-light/run1009177-light.h5 tag-1490402956//
/work/sebastian/BT-20210625/1009177-light/run1009177-light.h5 tag-1490402958//
/work/sebastian/BT-20210625/1009177-light/run1009177-light.h5 tag-1490402960//
/work/sebastian/BT-20210625/1009177-light/run1009177-light.h5 tag-1490402962//
/work/sebastian/BT-20210625/1009177-light/run1009177-light.h5 tag-1490402964//
/work/sebastian/BT-20210625/1009177-light/run1009177-light.h5 tag-1490402968//
/work/sebastian/BT-20210625/1009177-light/run1009177-light.h5 tag-1490402976//
/work/sebastian/BT-20210625/1009177-light/run1009177-light.h5 tag-1490402980//
/work/sebastian/BT-20210625/1009177-light/run1009177-light.h5 tag-1490402982//
/work/sebastian/BT-20210625/1009177-light/run1009177-light.h5 tag-1490402986//
/work/sebastian/BT-20210625/1009177-light/run1009177-light.h5 tag-1490402992//
/work/sebastian/BT-20210625/1009177-light/run1009177-light.h5 tag-1490403000//
/work/sebastian/BT-20210625/1009177-light/run1009177-light.h5 tag-1490403004//
/work/sebastian/BT-20210625/1009177-light/run1009177-light.h5 tag-1490403014//
/work/sebastian/BT-20210625/1009177-light/run1009177-light.h5 tag-1490403018//
/work/sebastian/BT-20210625/1009177-light/run1009177-light.h5 tag-1490403024//
/work/sebastian/BT-20210625/1009177-light/run1009177-light.h5 tag-1490403028//
/work/sebastian/BT-20210625/1009177-light/run1009177-light.h5 tag-1490403036//
/work/sebastian/BT-20210625/1009177-light/run1009177-light.h5 tag-1490403038//
/work/sebastian/BT-20210625/1009177-light/run1009177-light.h5 tag-1490403040//
/work/sebastian/BT-20210625/1009177-light/run1009177-light.h5 tag-1490403042//
/work/sebastian/BT-20210625/1009177-light/run1009177-light.h5 tag-1490403044//
/work/sebastian/BT-20210625/1009177-light/run1009177-light.h5 tag-1490403048//
/work/sebastian/BT-20210625/1009177-light/run1009177-light.h5 tag-1490403050//
/work/sebastian/BT-20210625/1009177-light/run1009177-light.h5 tag-1490403054//
/work/sebastian/BT-20210625/1009177-light/run1009177-light.h5 tag-1490403056//
/work/sebastian/BT-20210625/1009177-light/run1009177-light.h5 tag-1490403060//
/work/sebastian/BT-20210625/1009177-light/run1009177-light.h5 tag-1490403062//
/work/sebastian/BT-20210625/1009177-light/run1009177-light.h5 tag-1490403068//
/work/sebastian/BT-20210625/1009177-light/run1009177-light.h5 tag-1490403070//
/work/sebastian/BT-20210625/1009177-light/run1009177-light.h5 tag-1490403072//
/work/sebastian/BT-20210625/1009177-light/run1009177-light.h5 tag-1490403076//
/work/sebastian/BT-20210625/1009177-light/run1009177-light.h5 tag-1490403078//
/work/sebastian/BT-20210625/1009177-light/run1009177-light.h5 tag-1490403080//
/work/sebastian/BT-20210625/1009177-light/run1009177-light.h5 tag-1490403082//
/work/sebastian/BT-20210625/1009177-light/run1009177-light.h5 tag-1490403090//
/work/sebastian/BT-20210625/1009177-light/run1009177-light.h5 tag-1490403100//
/work/sebastian/BT-20210625/1009177-light/run1009177-light.h5 tag-1490403102//
/work/sebastian/BT-20210625/1009177-light/run1009177-light.h5 tag-1490403104//
/work/sebastian/BT-20210625/1009177-light/run1009177-light.h5 tag-1490403106//
/work/sebastian/BT-20210625/1009177-light/run1009177-light.h5 tag-1490403108//
/work/sebastian/BT-20210625/1009177-light/run1009177-light.h5 tag-1490403112//
/work/sebastian/BT-20210625/1009177-light/run1009177-light.h5 tag-1490403116//
/work/sebastian/BT-20210625/1009177-light/run1009177-light.h5 tag-1490403118//
/work/sebastian/BT-20210625/1009177-light/run1009177-light.h5 tag-1490403120//
/work/sebastian/BT-20210625/1009177-light/run1009177-light.h5 tag-1490403122//
/work/sebastian/BT-20210625/1009177-light/run1009177-light.h5 tag-1490403124//
/work/sebastian/BT-20210625/1009177-light/run1009177-light.h5 tag-1490403128//
/work/sebastian/BT-20210625/1009177-light/run1009177-light.h5 tag-1490403130//
/work/sebastian/BT-20210625/1009177-light/run1009177-light.h5 tag-1490403132//
/work/sebastian/BT-20210625/1009177-light/run1009177-light.h5 tag-1490403134//
/work/sebastian/BT-20210625/1009177-light/run1009177-light.h5 tag-1490403136//
/work/sebastian/BT-20210625/1009177-light/run1009177-light.h5 tag-1490403138//
/work/sebastian/BT-20210625/1009177-light/run1009177-light.h5 tag-1490403142//
/work/sebastian/BT-20210625/1009177-light/run1009177-light.h5 tag-1490403144//
/work/sebastian/BT-20210625/1009177-light/run1009177-light.h5 tag-1490403148//
/work/sebastian/BT-20210625/1009177-light/run1009177-light.h5 tag-1490403152//
/work/sebastian/BT-20210625/1009177-light/run1009177-light.h5 tag-1490403154//
/work/sebastian/BT-20210625/1009177-light/run1009177-light.h5 tag-1490403156//
/work/sebastian/BT-20210625/1009177-light/run1009177-light.h5 tag-1490403162//
/work/sebastian/BT-20210625/1009177-light/run1009177-light.h5 tag-1490403170//
/work/sebastian/BT-20210625/1009177-light/run1009177-light.h5 tag-1490403172//
/work/sebastian/BT-20210625/1009177-light/run1009177-light.h5 tag-1490403174//
/work/sebastian/BT-20210625/1009177-light/run1009177-light.h5 tag-1490403176//
/work/sebastian/BT-20210625/1009177-light/run1009177-light.h5 tag-1490403178//
/work/sebastian/BT-20210625/1009177-light/run1009177-light.h5 tag-1490403180//
/work/sebastian/BT-20210625/1009177-light/run1009177-light.h5 tag-1490403182//
/work/sebastian/BT-20210625/1009177-light/run1009177-light.h5 tag-1490403186//
/work/sebastian/BT-20210625/1009177-light/run1009177-light.h5 tag-1490403188//
/work/sebastian/BT-20210625/1009177-light/run1009177-light.h5 tag-1490403194//
/work/sebastian/BT-20210625/1009177-light/run1009177-light.h5 tag-1490403198//
/work/sebastian/BT-20210625/1009177-light/run1009177-light.h5 tag-1490403200//
/work/sebastian/BT-20210625/1009177-light/run1009177-light.h5 tag-1490403204//
/work/sebastian/BT-20210625/1009177-light/run1009177-light.h5 tag-1490403216//
/work/sebastian/BT-20210625/1009177-light/run1009177-light.h5 tag-1490403220//
/work/sebastian/BT-20210625/1009177-light/run1009177-light.h5 tag-1490403228//
/work/sebastian/BT-20210625/1009177-light/run1009177-light.h5 tag-1490403232//
/work/sebastian/BT-20210625/1009177-light/run1009177-light.h5 tag-1490403236//
/work/sebastian/BT-20210625/1009177-light/run1009177-light.h5 tag-1490403246//
/work/sebastian/BT-20210625/1009177-light/run1009177-light.h5 tag-1490403252//
/work/sebastian/BT-20210625/1009177-light/run1009177-light.h5 tag-1490403256//
/work/sebastian/BT-20210625/1009177-light/run1009177-light.h5 tag-1490403258//
/work/sebastian/BT-20210625/1009177-light/run1009177-light.h5 tag-1490403260//
/work/sebastian/BT-20210625/1009177-light/run1009177-light.h5 tag-1490403262//
/work/sebastian/BT-20210625/1009177-light/run1009177-light.h5 tag-1490403266//
/work/sebastian/BT-20210625/1009177-light/run1009177-light.h5 tag-1490403268//
/work/sebastian/BT-20210625/1009177-light/run1009177-light.h5 tag-1490403270//
/work/sebastian/BT-20210625/1009177-light/run1009177-light.h5 tag-1490403272//
/work/sebastian/BT-20210625/1009177-light/run1009177-light.h5 tag-1490403274//
/work/sebastian/BT-20210625/1009177-light/run1009177-light.h5 tag-1490403276//
/work/sebastian/BT-20210625/1009177-light/run1009177-light.h5 tag-1490403278//
/work/sebastian/BT-20210625/1009177-light/run1009177-light.h5 tag-1490403282//
/work/sebastian/BT-20210625/1009177-light/run1009177-light.h5 tag-1490403284//
/work/sebastian/BT-20210625/1009177-light/run1009177-light.h5 tag-1490403290//
/work/sebastian/BT-20210625/1009177-light/run1009177-light.h5 tag-1490403296//
/work/sebastian/BT-20210625/1009177-light/run1009177-light.h5 tag-1490403302//
/work/sebastian/BT-20210625/1009177-light/run1009177-light.h5 tag-1490403304//
/work/sebastian/BT-20210625/1009177-light/run1009177-light.h5 tag-1490403306//
/work/sebastian/BT-20210625/1009177-light/run1009177-light.h5 tag-1490403310//
/work/sebastian/BT-20210625/1009177-light/run1009177-light.h5 tag-1490403316//
/work/sebastian/BT-20210625/1009177-light/run1009177-light.h5 tag-1490403318//
/work/sebastian/BT-20210625/1009177-light/run1009177-light.h5 tag-1490403320//
/work/sebastian/BT-20210625/1009177-light/run1009177-light.h5 tag-1490403324//
/work/sebastian/BT-20210625/1009177-light/run1009177-light.h5 tag-1490403326//
/work/sebastian/BT-20210625/1009177-light/run1009177-light.h5 tag-1490403332//
/work/sebastian/BT-20210625/1009177-light/run1009177-light.h5 tag-1490403334//
/work/sebastian/BT-20210625/1009177-light/run1009177-light.h5 tag-1490403336//
/work/sebastian/BT-20210625/1009177-light/run1009177-light.h5 tag-1490403342//
/work/sebastian/BT-20210625/1009177-light/run1009177-light.h5 tag-1490403344//
/work/sebastian/BT-20210625/1009177-light/run1009177-light.h5 tag-1490403348//
/work/sebastian/BT-20210625/1009177-light/run1009177-light.h5 tag-1490403352//
/work/sebastian/BT-20210625/1009177-light/run1009177-light.h5 tag-1490403360//
/work/sebastian/BT-20210625/1009177-light/run1009177-light.h5 tag-1490403362//
/work/sebastian/BT-20210625/1009177-light/run1009177-light.h5 tag-1490403366//
/work/sebastian/BT-20210625/1009177-light/run1009177-light.h5 tag-1490403372//
/work/sebastian/BT-20210625/1009177-light/run1009177-light.h5 tag-1490403374//
/work/sebastian/BT-20210625/1009177-light/run1009177-light.h5 tag-1490403376//
/work/sebastian/BT-20210625/1009177-light/run1009177-light.h5 tag-1490403378//
/work/sebastian/BT-20210625/1009177-light/run1009177-light.h5 tag-1490403380//
/work/sebastian/BT-20210625/1009177-light/run1009177-light.h5 tag-1490403382//
/work/sebastian/BT-20210625/1009177-light/run1009177-light.h5 tag-1490403384//
/work/sebastian/BT-20210625/1009177-light/run1009177-light.h5 tag-1490403386//
/work/sebastian/BT-20210625/1009177-light/run1009177-light.h5 tag-1490403388//
/work/sebastian/BT-20210625/1009177-light/run1009177-light.h5 tag-1490403390//
/work/sebastian/BT-20210625/1009177-light/run1009177-light.h5 tag-1490403394//
/work/sebastian/BT-20210625/1009177-light/run1009177-light.h5 tag-1490403396//
/work/sebastian/BT-20210625/1009177-light/run1009177-light.h5 tag-1490403402//
/work/sebastian/BT-20210625/1009177-light/run1009177-light.h5 tag-1490403408//
/work/sebastian/BT-20210625/1009177-light/run1009177-light.h5 tag-1490403410//
/work/sebastian/BT-20210625/1009177-light/run1009177-light.h5 tag-1490403414//
/work/sebastian/BT-20210625/1009177-light/run1009177-light.h5 tag-1490403418//
/work/sebastian/BT-20210625/1009177-light/run1009177-light.h5 tag-1490403420//
/work/sebastian/BT-20210625/1009177-light/run1009177-light.h5 tag-1490403422//
/work/sebastian/BT-20210625/1009177-light/run1009177-light.h5 tag-1490403434//
/work/sebastian/BT-20210625/1009177-light/run1009177-light.h5 tag-1490403436//
/work/sebastian/BT-20210625/1009177-light/run1009177-light.h5 tag-1490403440//
/work/sebastian/BT-20210625/1009177-light/run1009177-light.h5 tag-1490403444//
/work/sebastian/BT-20210625/1009177-light/run1009177-light.h5 tag-1490403448//
/work/sebastian/BT-20210625/1009177-light/run1009177-light.h5 tag-1490403450//
/work/sebastian/BT-20210625/1009177-light/run1009177-light.h5 tag-1490403456//
/work/sebastian/BT-20210625/1009177-light/run1009177-light.h5 tag-1490403460//
/work/sebastian/BT-20210625/1009177-light/run1009177-light.h5 tag-1490403462//
/work/sebastian/BT-20210625/1009177-light/run1009177-light.h5 tag-1490403464//
/work/sebastian/BT-20210625/1009177-light/run1009177-light.h5 tag-1490403466//
/work/sebastian/BT-20210625/1009177-light/run1009177-light.h5 tag-1490403468//
/work/sebastian/BT-20210625/1009177-light/run1009177-light.h5 tag-1490403474//
/work/sebastian/BT-20210625/1009177-light/run1009177-light.h5 tag-1490403478//
/work/sebastian/BT-20210625/1009177-light/run1009177-light.h5 tag-1490403482//
/work/sebastian/BT-20210625/1009177-light/run1009177-light.h5 tag-1490403484//
/work/sebastian/BT-20210625/1009177-light/run1009177-light.h5 tag-1490403488//
/work/sebastian/BT-20210625/1009177-light/run1009177-light.h5 tag-1490403490//
/work/sebastian/BT-20210625/1009177-light/run1009177-light.h5 tag-1490403492//
/work/sebastian/BT-20210625/1009177-light/run1009177-light.h5 tag-1490403494//
/work/sebastian/BT-20210625/1009177-light/run1009177-light.h5 tag-1490403496//
/work/sebastian/BT-20210625/1009177-light/run1009177-light.h5 tag-1490403498//
/work/sebastian/BT-20210625/1009177-light/run1009177-light.h5 tag-1490403500//
/work/sebastian/BT-20210625/1009177-light/run1009177-light.h5 tag-1490403502//
/work/sebastian/BT-20210625/1009177-light/run1009177-light.h5 tag-1490403504//
/work/sebastian/BT-20210625/1009177-light/run1009177-light.h5 tag-1490403510//
/work/sebastian/BT-20210625/1009177-light/run1009177-light.h5 tag-1490403512//
/work/sebastian/BT-20210625/1009177-light/run1009177-light.h5 tag-1490403514//
/work/sebastian/BT-20210625/1009177-light/run1009177-light.h5 tag-1490403516//
/work/sebastian/BT-20210625/1009177-light/run1009177-light.h5 tag-1490403518//
/work/sebastian/BT-20210625/1009177-light/run1009177-light.h5 tag-1490403520//
/work/sebastian/BT-20210625/1009177-light/run1009177-light.h5 tag-1490403522//
/work/sebastian/BT-20210625/1009177-light/run1009177-light.h5 tag-1490403524//
/work/sebastian/BT-20210625/1009177-light/run1009177-light.h5 tag-1490403528//
/work/sebastian/BT-20210625/1009177-light/run1009177-light.h5 tag-1490403530//
/work/sebastian/BT-20210625/1009177-light/run1009177-light.h5 tag-1490403532//
/work/sebastian/BT-20210625/1009177-light/run1009177-light.h5 tag-1490403536//
/work/sebastian/BT-20210625/1009177-light/run1009177-light.h5 tag-1490403538//
/work/sebastian/BT-20210625/1009177-light/run1009177-light.h5 tag-1490403540//
/work/sebastian/BT-20210625/1009177-light/run1009177-light.h5 tag-1490403546//
/work/sebastian/BT-20210625/1009177-light/run1009177-light.h5 tag-1490403548//
/work/sebastian/BT-20210625/1009177-light/run1009177-light.h5 tag-1490403552//
/work/sebastian/BT-20210625/1009177-light/run1009177-light.h5 tag-1490403554//
/work/sebastian/BT-20210625/1009177-light/run1009177-light.h5 tag-1490403558//
/work/sebastian/BT-20210625/1009177-light/run1009177-light.h5 tag-1490403564//
/work/sebastian/BT-20210625/1009177-light/run1009177-light.h5 tag-1490403566//
/work/sebastian/BT-20210625/1009177-light/run1009177-light.h5 tag-1490403570//
/work/sebastian/BT-20210625/1009177-light/run1009177-light.h5 tag-1490403572//
/work/sebastian/BT-20210625/1009177-light/run1009177-light.h5 tag-1490403574//
/work/sebastian/BT-20210625/1009177-light/run1009177-light.h5 tag-1490403576//
/work/sebastian/BT-20210625/1009177-light/run1009177-light.h5 tag-1490403578//
/work/sebastian/BT-20210625/1009177-light/run1009177-light.h5 tag-1490403582//
/work/sebastian/BT-20210625/1009177-light/run1009177-light.h5 tag-1490403584//
/work/sebastian/BT-20210625/1009177-light/run1009177-light.h5 tag-1490403586//
/work/sebastian/BT-20210625/1009177-light/run1009177-light.h5 tag-1490403588//
/work/sebastian/BT-20210625/1009177-light/run1009177-light.h5 tag-1490403594//
/work/sebastian/BT-20210625/1009177-light/run1009177-light.h5 tag-1490403596//
/work/sebastian/BT-20210625/1009177-light/run1009177-light.h5 tag-1490403606//
/work/sebastian/BT-20210625/1009177-light/run1009177-light.h5 tag-1490403612//
/work/sebastian/BT-20210625/1009177-light/run1009177-light.h5 tag-1490403614//
/work/sebastian/BT-20210625/1009177-light/run1009177-light.h5 tag-1490403622//
/work/sebastian/BT-20210625/1009177-light/run1009177-light.h5 tag-1490403624//
/work/sebastian/BT-20210625/1009177-light/run1009177-light.h5 tag-1490403630//
/work/sebastian/BT-20210625/1009177-light/run1009177-light.h5 tag-1490403632//
/work/sebastian/BT-20210625/1009177-light/run1009177-light.h5 tag-1490403634//
/work/sebastian/BT-20210625/1009177-light/run1009177-light.h5 tag-1490403638//
/work/sebastian/BT-20210625/1009177-light/run1009177-light.h5 tag-1490403640//
/work/sebastian/BT-20210625/1009177-light/run1009177-light.h5 tag-1490403642//
/work/sebastian/BT-20210625/1009177-light/run1009177-light.h5 tag-1490403644//
/work/sebastian/BT-20210625/1009177-light/run1009177-light.h5 tag-1490403646//
/work/sebastian/BT-20210625/1009177-light/run1009177-light.h5 tag-1490403648//
/work/sebastian/BT-20210625/1009177-light/run1009177-light.h5 tag-1490403654//
/work/sebastian/BT-20210625/1009177-light/run1009177-light.h5 tag-1490403656//
/work/sebastian/BT-20210625/1009177-light/run1009177-light.h5 tag-1490403658//
/work/sebastian/BT-20210625/1009177-light/run1009177-light.h5 tag-1490403662//
/work/sebastian/BT-20210625/1009177-light/run1009177-light.h5 tag-1490403664//
/work/sebastian/BT-20210625/1009177-light/run1009177-light.h5 tag-1490403666//
/work/sebastian/BT-20210625/1009177-light/run1009177-light.h5 tag-1490403674//
/work/sebastian/BT-20210625/1009177-light/run1009177-light.h5 tag-1490403676//
/work/sebastian/BT-20210625/1009177-light/run1009177-light.h5 tag-1490403678//
/work/sebastian/BT-20210625/1009177-light/run1009177-light.h5 tag-1490403680//
/work/sebastian/BT-20210625/1009177-light/run1009177-light.h5 tag-1490403682//
