/work/sebastian/BT-20210625/1009823-light/run1009823-light.h5 tag-1497087056//
/work/sebastian/BT-20210625/1009823-light/run1009823-light.h5 tag-1497087058//
/work/sebastian/BT-20210625/1009823-light/run1009823-light.h5 tag-1497087064//
/work/sebastian/BT-20210625/1009823-light/run1009823-light.h5 tag-1497087066//
/work/sebastian/BT-20210625/1009823-light/run1009823-light.h5 tag-1497087070//
/work/sebastian/BT-20210625/1009823-light/run1009823-light.h5 tag-1497087072//
/work/sebastian/BT-20210625/1009823-light/run1009823-light.h5 tag-1497087076//
/work/sebastian/BT-20210625/1009823-light/run1009823-light.h5 tag-1497087082//
/work/sebastian/BT-20210625/1009823-light/run1009823-light.h5 tag-1497087084//
/work/sebastian/BT-20210625/1009823-light/run1009823-light.h5 tag-1497087086//
/work/sebastian/BT-20210625/1009823-light/run1009823-light.h5 tag-1497087088//
/work/sebastian/BT-20210625/1009823-light/run1009823-light.h5 tag-1497087094//
/work/sebastian/BT-20210625/1009823-light/run1009823-light.h5 tag-1497087098//
/work/sebastian/BT-20210625/1009823-light/run1009823-light.h5 tag-1497087100//
/work/sebastian/BT-20210625/1009823-light/run1009823-light.h5 tag-1497087102//
/work/sebastian/BT-20210625/1009823-light/run1009823-light.h5 tag-1497087104//
/work/sebastian/BT-20210625/1009823-light/run1009823-light.h5 tag-1497087106//
/work/sebastian/BT-20210625/1009823-light/run1009823-light.h5 tag-1497087108//
/work/sebastian/BT-20210625/1009823-light/run1009823-light.h5 tag-1497087110//
/work/sebastian/BT-20210625/1009823-light/run1009823-light.h5 tag-1497087112//
/work/sebastian/BT-20210625/1009823-light/run1009823-light.h5 tag-1497087114//
/work/sebastian/BT-20210625/1009823-light/run1009823-light.h5 tag-1497087122//
/work/sebastian/BT-20210625/1009823-light/run1009823-light.h5 tag-1497087126//
/work/sebastian/BT-20210625/1009823-light/run1009823-light.h5 tag-1497087128//
/work/sebastian/BT-20210625/1009823-light/run1009823-light.h5 tag-1497087132//
/work/sebastian/BT-20210625/1009823-light/run1009823-light.h5 tag-1497087134//
/work/sebastian/BT-20210625/1009823-light/run1009823-light.h5 tag-1497087138//
/work/sebastian/BT-20210625/1009823-light/run1009823-light.h5 tag-1497087140//
/work/sebastian/BT-20210625/1009823-light/run1009823-light.h5 tag-1497087142//
/work/sebastian/BT-20210625/1009823-light/run1009823-light.h5 tag-1497087144//
/work/sebastian/BT-20210625/1009823-light/run1009823-light.h5 tag-1497087148//
/work/sebastian/BT-20210625/1009823-light/run1009823-light.h5 tag-1497087150//
/work/sebastian/BT-20210625/1009823-light/run1009823-light.h5 tag-1497087154//
/work/sebastian/BT-20210625/1009823-light/run1009823-light.h5 tag-1497087156//
/work/sebastian/BT-20210625/1009823-light/run1009823-light.h5 tag-1497087158//
/work/sebastian/BT-20210625/1009823-light/run1009823-light.h5 tag-1497087160//
/work/sebastian/BT-20210625/1009823-light/run1009823-light.h5 tag-1497087166//
/work/sebastian/BT-20210625/1009823-light/run1009823-light.h5 tag-1497087170//
/work/sebastian/BT-20210625/1009823-light/run1009823-light.h5 tag-1497087172//
/work/sebastian/BT-20210625/1009823-light/run1009823-light.h5 tag-1497087174//
/work/sebastian/BT-20210625/1009823-light/run1009823-light.h5 tag-1497087178//
/work/sebastian/BT-20210625/1009823-light/run1009823-light.h5 tag-1497087182//
/work/sebastian/BT-20210625/1009823-light/run1009823-light.h5 tag-1497087184//
/work/sebastian/BT-20210625/1009823-light/run1009823-light.h5 tag-1497087188//
/work/sebastian/BT-20210625/1009823-light/run1009823-light.h5 tag-1497087194//
/work/sebastian/BT-20210625/1009823-light/run1009823-light.h5 tag-1497087196//
/work/sebastian/BT-20210625/1009823-light/run1009823-light.h5 tag-1497087198//
/work/sebastian/BT-20210625/1009823-light/run1009823-light.h5 tag-1497087200//
/work/sebastian/BT-20210625/1009823-light/run1009823-light.h5 tag-1497087202//
/work/sebastian/BT-20210625/1009823-light/run1009823-light.h5 tag-1497087208//
/work/sebastian/BT-20210625/1009823-light/run1009823-light.h5 tag-1497087210//
/work/sebastian/BT-20210625/1009823-light/run1009823-light.h5 tag-1497087214//
/work/sebastian/BT-20210625/1009823-light/run1009823-light.h5 tag-1497087216//
/work/sebastian/BT-20210625/1009823-light/run1009823-light.h5 tag-1497087222//
/work/sebastian/BT-20210625/1009823-light/run1009823-light.h5 tag-1497087226//
/work/sebastian/BT-20210625/1009823-light/run1009823-light.h5 tag-1497087228//
/work/sebastian/BT-20210625/1009823-light/run1009823-light.h5 tag-1497087232//
/work/sebastian/BT-20210625/1009823-light/run1009823-light.h5 tag-1497087236//
/work/sebastian/BT-20210625/1009823-light/run1009823-light.h5 tag-1497087238//
/work/sebastian/BT-20210625/1009823-light/run1009823-light.h5 tag-1497087240//
/work/sebastian/BT-20210625/1009823-light/run1009823-light.h5 tag-1497087242//
/work/sebastian/BT-20210625/1009823-light/run1009823-light.h5 tag-1497087244//
/work/sebastian/BT-20210625/1009823-light/run1009823-light.h5 tag-1497087248//
/work/sebastian/BT-20210625/1009823-light/run1009823-light.h5 tag-1497087254//
/work/sebastian/BT-20210625/1009823-light/run1009823-light.h5 tag-1497087256//
/work/sebastian/BT-20210625/1009823-light/run1009823-light.h5 tag-1497087260//
/work/sebastian/BT-20210625/1009823-light/run1009823-light.h5 tag-1497087262//
/work/sebastian/BT-20210625/1009823-light/run1009823-light.h5 tag-1497087264//
/work/sebastian/BT-20210625/1009823-light/run1009823-light.h5 tag-1497087268//
/work/sebastian/BT-20210625/1009823-light/run1009823-light.h5 tag-1497087272//
/work/sebastian/BT-20210625/1009823-light/run1009823-light.h5 tag-1497087276//
/work/sebastian/BT-20210625/1009823-light/run1009823-light.h5 tag-1497087280//
/work/sebastian/BT-20210625/1009823-light/run1009823-light.h5 tag-1497087282//
/work/sebastian/BT-20210625/1009823-light/run1009823-light.h5 tag-1497087284//
/work/sebastian/BT-20210625/1009823-light/run1009823-light.h5 tag-1497087286//
/work/sebastian/BT-20210625/1009823-light/run1009823-light.h5 tag-1497087292//
/work/sebastian/BT-20210625/1009823-light/run1009823-light.h5 tag-1497087296//
/work/sebastian/BT-20210625/1009823-light/run1009823-light.h5 tag-1497087304//
/work/sebastian/BT-20210625/1009823-light/run1009823-light.h5 tag-1497087306//
/work/sebastian/BT-20210625/1009823-light/run1009823-light.h5 tag-1497087310//
/work/sebastian/BT-20210625/1009823-light/run1009823-light.h5 tag-1497087312//
/work/sebastian/BT-20210625/1009823-light/run1009823-light.h5 tag-1497087314//
/work/sebastian/BT-20210625/1009823-light/run1009823-light.h5 tag-1497087316//
/work/sebastian/BT-20210625/1009823-light/run1009823-light.h5 tag-1497087320//
/work/sebastian/BT-20210625/1009823-light/run1009823-light.h5 tag-1497087324//
/work/sebastian/BT-20210625/1009823-light/run1009823-light.h5 tag-1497087328//
/work/sebastian/BT-20210625/1009823-light/run1009823-light.h5 tag-1497087332//
/work/sebastian/BT-20210625/1009823-light/run1009823-light.h5 tag-1497087334//
/work/sebastian/BT-20210625/1009823-light/run1009823-light.h5 tag-1497087338//
/work/sebastian/BT-20210625/1009823-light/run1009823-light.h5 tag-1497087340//
/work/sebastian/BT-20210625/1009823-light/run1009823-light.h5 tag-1497087342//
/work/sebastian/BT-20210625/1009823-light/run1009823-light.h5 tag-1497087346//
/work/sebastian/BT-20210625/1009823-light/run1009823-light.h5 tag-1497087348//
/work/sebastian/BT-20210625/1009823-light/run1009823-light.h5 tag-1497087350//
/work/sebastian/BT-20210625/1009823-light/run1009823-light.h5 tag-1497087354//
/work/sebastian/BT-20210625/1009823-light/run1009823-light.h5 tag-1497087356//
/work/sebastian/BT-20210625/1009823-light/run1009823-light.h5 tag-1497087360//
/work/sebastian/BT-20210625/1009823-light/run1009823-light.h5 tag-1497087362//
/work/sebastian/BT-20210625/1009823-light/run1009823-light.h5 tag-1497087364//
/work/sebastian/BT-20210625/1009823-light/run1009823-light.h5 tag-1497087366//
/work/sebastian/BT-20210625/1009823-light/run1009823-light.h5 tag-1497087372//
/work/sebastian/BT-20210625/1009823-light/run1009823-light.h5 tag-1497087376//
/work/sebastian/BT-20210625/1009823-light/run1009823-light.h5 tag-1497087378//
/work/sebastian/BT-20210625/1009823-light/run1009823-light.h5 tag-1497087380//
/work/sebastian/BT-20210625/1009823-light/run1009823-light.h5 tag-1497087386//
/work/sebastian/BT-20210625/1009823-light/run1009823-light.h5 tag-1497087388//
/work/sebastian/BT-20210625/1009823-light/run1009823-light.h5 tag-1497087390//
/work/sebastian/BT-20210625/1009823-light/run1009823-light.h5 tag-1497087394//
/work/sebastian/BT-20210625/1009823-light/run1009823-light.h5 tag-1497087396//
/work/sebastian/BT-20210625/1009823-light/run1009823-light.h5 tag-1497087402//
/work/sebastian/BT-20210625/1009823-light/run1009823-light.h5 tag-1497087408//
/work/sebastian/BT-20210625/1009823-light/run1009823-light.h5 tag-1497087410//
/work/sebastian/BT-20210625/1009823-light/run1009823-light.h5 tag-1497087414//
/work/sebastian/BT-20210625/1009823-light/run1009823-light.h5 tag-1497087416//
/work/sebastian/BT-20210625/1009823-light/run1009823-light.h5 tag-1497087418//
/work/sebastian/BT-20210625/1009823-light/run1009823-light.h5 tag-1497087420//
/work/sebastian/BT-20210625/1009823-light/run1009823-light.h5 tag-1497087422//
/work/sebastian/BT-20210625/1009823-light/run1009823-light.h5 tag-1497087424//
/work/sebastian/BT-20210625/1009823-light/run1009823-light.h5 tag-1497087426//
/work/sebastian/BT-20210625/1009823-light/run1009823-light.h5 tag-1497087428//
/work/sebastian/BT-20210625/1009823-light/run1009823-light.h5 tag-1497087430//
/work/sebastian/BT-20210625/1009823-light/run1009823-light.h5 tag-1497087436//
/work/sebastian/BT-20210625/1009823-light/run1009823-light.h5 tag-1497087438//
/work/sebastian/BT-20210625/1009823-light/run1009823-light.h5 tag-1497087442//
/work/sebastian/BT-20210625/1009823-light/run1009823-light.h5 tag-1497087444//
/work/sebastian/BT-20210625/1009823-light/run1009823-light.h5 tag-1497087448//
/work/sebastian/BT-20210625/1009823-light/run1009823-light.h5 tag-1497087450//
/work/sebastian/BT-20210625/1009823-light/run1009823-light.h5 tag-1497087454//
/work/sebastian/BT-20210625/1009823-light/run1009823-light.h5 tag-1497087458//
/work/sebastian/BT-20210625/1009823-light/run1009823-light.h5 tag-1497087460//
/work/sebastian/BT-20210625/1009823-light/run1009823-light.h5 tag-1497087466//
/work/sebastian/BT-20210625/1009823-light/run1009823-light.h5 tag-1497087472//
/work/sebastian/BT-20210625/1009823-light/run1009823-light.h5 tag-1497087476//
/work/sebastian/BT-20210625/1009823-light/run1009823-light.h5 tag-1497087478//
/work/sebastian/BT-20210625/1009823-light/run1009823-light.h5 tag-1497087480//
/work/sebastian/BT-20210625/1009823-light/run1009823-light.h5 tag-1497087482//
/work/sebastian/BT-20210625/1009823-light/run1009823-light.h5 tag-1497087488//
/work/sebastian/BT-20210625/1009823-light/run1009823-light.h5 tag-1497087492//
/work/sebastian/BT-20210625/1009823-light/run1009823-light.h5 tag-1497087502//
/work/sebastian/BT-20210625/1009823-light/run1009823-light.h5 tag-1497087504//
/work/sebastian/BT-20210625/1009823-light/run1009823-light.h5 tag-1497087506//
/work/sebastian/BT-20210625/1009823-light/run1009823-light.h5 tag-1497087516//
/work/sebastian/BT-20210625/1009823-light/run1009823-light.h5 tag-1497087518//
/work/sebastian/BT-20210625/1009823-light/run1009823-light.h5 tag-1497087520//
/work/sebastian/BT-20210625/1009823-light/run1009823-light.h5 tag-1497087522//
/work/sebastian/BT-20210625/1009823-light/run1009823-light.h5 tag-1497087524//
/work/sebastian/BT-20210625/1009823-light/run1009823-light.h5 tag-1497087526//
/work/sebastian/BT-20210625/1009823-light/run1009823-light.h5 tag-1497087530//
/work/sebastian/BT-20210625/1009823-light/run1009823-light.h5 tag-1497087532//
/work/sebastian/BT-20210625/1009823-light/run1009823-light.h5 tag-1497087536//
/work/sebastian/BT-20210625/1009823-light/run1009823-light.h5 tag-1497087542//
/work/sebastian/BT-20210625/1009823-light/run1009823-light.h5 tag-1497087544//
/work/sebastian/BT-20210625/1009823-light/run1009823-light.h5 tag-1497087546//
/work/sebastian/BT-20210625/1009823-light/run1009823-light.h5 tag-1497087554//
/work/sebastian/BT-20210625/1009823-light/run1009823-light.h5 tag-1497087556//
/work/sebastian/BT-20210625/1009823-light/run1009823-light.h5 tag-1497087562//
/work/sebastian/BT-20210625/1009823-light/run1009823-light.h5 tag-1497087564//
/work/sebastian/BT-20210625/1009823-light/run1009823-light.h5 tag-1497087566//
/work/sebastian/BT-20210625/1009823-light/run1009823-light.h5 tag-1497087568//
/work/sebastian/BT-20210625/1009823-light/run1009823-light.h5 tag-1497087572//
/work/sebastian/BT-20210625/1009823-light/run1009823-light.h5 tag-1497087574//
/work/sebastian/BT-20210625/1009823-light/run1009823-light.h5 tag-1497087576//
/work/sebastian/BT-20210625/1009823-light/run1009823-light.h5 tag-1497087578//
/work/sebastian/BT-20210625/1009823-light/run1009823-light.h5 tag-1497087582//
/work/sebastian/BT-20210625/1009823-light/run1009823-light.h5 tag-1497087588//
/work/sebastian/BT-20210625/1009823-light/run1009823-light.h5 tag-1497087592//
/work/sebastian/BT-20210625/1009823-light/run1009823-light.h5 tag-1497087594//
/work/sebastian/BT-20210625/1009823-light/run1009823-light.h5 tag-1497087600//
/work/sebastian/BT-20210625/1009823-light/run1009823-light.h5 tag-1497087612//
/work/sebastian/BT-20210625/1009823-light/run1009823-light.h5 tag-1497087614//
/work/sebastian/BT-20210625/1009823-light/run1009823-light.h5 tag-1497087616//
/work/sebastian/BT-20210625/1009823-light/run1009823-light.h5 tag-1497087620//
/work/sebastian/BT-20210625/1009823-light/run1009823-light.h5 tag-1497087622//
/work/sebastian/BT-20210625/1009823-light/run1009823-light.h5 tag-1497087624//
/work/sebastian/BT-20210625/1009823-light/run1009823-light.h5 tag-1497087626//
/work/sebastian/BT-20210625/1009823-light/run1009823-light.h5 tag-1497087628//
/work/sebastian/BT-20210625/1009823-light/run1009823-light.h5 tag-1497087630//
/work/sebastian/BT-20210625/1009823-light/run1009823-light.h5 tag-1497087634//
/work/sebastian/BT-20210625/1009823-light/run1009823-light.h5 tag-1497087640//
/work/sebastian/BT-20210625/1009823-light/run1009823-light.h5 tag-1497087648//
/work/sebastian/BT-20210625/1009823-light/run1009823-light.h5 tag-1497087650//
/work/sebastian/BT-20210625/1009823-light/run1009823-light.h5 tag-1497087652//
/work/sebastian/BT-20210625/1009823-light/run1009823-light.h5 tag-1497087656//
/work/sebastian/BT-20210625/1009823-light/run1009823-light.h5 tag-1497087658//
/work/sebastian/BT-20210625/1009823-light/run1009823-light.h5 tag-1497087660//
/work/sebastian/BT-20210625/1009823-light/run1009823-light.h5 tag-1497087662//
/work/sebastian/BT-20210625/1009823-light/run1009823-light.h5 tag-1497087664//
/work/sebastian/BT-20210625/1009823-light/run1009823-light.h5 tag-1497087666//
/work/sebastian/BT-20210625/1009823-light/run1009823-light.h5 tag-1497087668//
/work/sebastian/BT-20210625/1009823-light/run1009823-light.h5 tag-1497087670//
/work/sebastian/BT-20210625/1009823-light/run1009823-light.h5 tag-1497087678//
/work/sebastian/BT-20210625/1009823-light/run1009823-light.h5 tag-1497087680//
/work/sebastian/BT-20210625/1009823-light/run1009823-light.h5 tag-1497087682//
/work/sebastian/BT-20210625/1009823-light/run1009823-light.h5 tag-1497087686//
/work/sebastian/BT-20210625/1009823-light/run1009823-light.h5 tag-1497087690//
/work/sebastian/BT-20210625/1009823-light/run1009823-light.h5 tag-1497087692//
/work/sebastian/BT-20210625/1009823-light/run1009823-light.h5 tag-1497087696//
/work/sebastian/BT-20210625/1009823-light/run1009823-light.h5 tag-1497087698//
/work/sebastian/BT-20210625/1009823-light/run1009823-light.h5 tag-1497087700//
/work/sebastian/BT-20210625/1009823-light/run1009823-light.h5 tag-1497087702//
/work/sebastian/BT-20210625/1009823-light/run1009823-light.h5 tag-1497087704//
/work/sebastian/BT-20210625/1009823-light/run1009823-light.h5 tag-1497087706//
/work/sebastian/BT-20210625/1009823-light/run1009823-light.h5 tag-1497087708//
/work/sebastian/BT-20210625/1009823-light/run1009823-light.h5 tag-1497087710//
/work/sebastian/BT-20210625/1009823-light/run1009823-light.h5 tag-1497087712//
/work/sebastian/BT-20210625/1009823-light/run1009823-light.h5 tag-1497087714//
/work/sebastian/BT-20210625/1009823-light/run1009823-light.h5 tag-1497087716//
/work/sebastian/BT-20210625/1009823-light/run1009823-light.h5 tag-1497087718//
/work/sebastian/BT-20210625/1009823-light/run1009823-light.h5 tag-1497087724//
/work/sebastian/BT-20210625/1009823-light/run1009823-light.h5 tag-1497087726//
/work/sebastian/BT-20210625/1009823-light/run1009823-light.h5 tag-1497087730//
/work/sebastian/BT-20210625/1009823-light/run1009823-light.h5 tag-1497087734//
/work/sebastian/BT-20210625/1009823-light/run1009823-light.h5 tag-1497087744//
/work/sebastian/BT-20210625/1009823-light/run1009823-light.h5 tag-1497087746//
/work/sebastian/BT-20210625/1009823-light/run1009823-light.h5 tag-1497087748//
/work/sebastian/BT-20210625/1009823-light/run1009823-light.h5 tag-1497087752//
/work/sebastian/BT-20210625/1009823-light/run1009823-light.h5 tag-1497087754//
/work/sebastian/BT-20210625/1009823-light/run1009823-light.h5 tag-1497087758//
/work/sebastian/BT-20210625/1009823-light/run1009823-light.h5 tag-1497087764//
/work/sebastian/BT-20210625/1009823-light/run1009823-light.h5 tag-1497087770//
/work/sebastian/BT-20210625/1009823-light/run1009823-light.h5 tag-1497087772//
/work/sebastian/BT-20210625/1009823-light/run1009823-light.h5 tag-1497087774//
/work/sebastian/BT-20210625/1009823-light/run1009823-light.h5 tag-1497087778//
/work/sebastian/BT-20210625/1009823-light/run1009823-light.h5 tag-1497087780//
/work/sebastian/BT-20210625/1009823-light/run1009823-light.h5 tag-1497087784//
/work/sebastian/BT-20210625/1009823-light/run1009823-light.h5 tag-1497087788//
/work/sebastian/BT-20210625/1009823-light/run1009823-light.h5 tag-1497087790//
/work/sebastian/BT-20210625/1009823-light/run1009823-light.h5 tag-1497087792//
/work/sebastian/BT-20210625/1009823-light/run1009823-light.h5 tag-1497087796//
/work/sebastian/BT-20210625/1009823-light/run1009823-light.h5 tag-1497087800//
/work/sebastian/BT-20210625/1009823-light/run1009823-light.h5 tag-1497087804//
/work/sebastian/BT-20210625/1009823-light/run1009823-light.h5 tag-1497087808//
/work/sebastian/BT-20210625/1009823-light/run1009823-light.h5 tag-1497087810//
/work/sebastian/BT-20210625/1009823-light/run1009823-light.h5 tag-1497087818//
/work/sebastian/BT-20210625/1009823-light/run1009823-light.h5 tag-1497087824//
/work/sebastian/BT-20210625/1009823-light/run1009823-light.h5 tag-1497087826//
/work/sebastian/BT-20210625/1009823-light/run1009823-light.h5 tag-1497087828//
/work/sebastian/BT-20210625/1009823-light/run1009823-light.h5 tag-1497087830//
/work/sebastian/BT-20210625/1009823-light/run1009823-light.h5 tag-1497087832//
/work/sebastian/BT-20210625/1009823-light/run1009823-light.h5 tag-1497087836//
/work/sebastian/BT-20210625/1009823-light/run1009823-light.h5 tag-1497087838//
/work/sebastian/BT-20210625/1009823-light/run1009823-light.h5 tag-1497087840//
/work/sebastian/BT-20210625/1009823-light/run1009823-light.h5 tag-1497087844//
/work/sebastian/BT-20210625/1009823-light/run1009823-light.h5 tag-1497087846//
/work/sebastian/BT-20210625/1009823-light/run1009823-light.h5 tag-1497087848//
/work/sebastian/BT-20210625/1009823-light/run1009823-light.h5 tag-1497087850//
/work/sebastian/BT-20210625/1009823-light/run1009823-light.h5 tag-1497087854//
/work/sebastian/BT-20210625/1009823-light/run1009823-light.h5 tag-1497087862//
/work/sebastian/BT-20210625/1009823-light/run1009823-light.h5 tag-1497087864//
/work/sebastian/BT-20210625/1009823-light/run1009823-light.h5 tag-1497087866//
/work/sebastian/BT-20210625/1009823-light/run1009823-light.h5 tag-1497087868//
/work/sebastian/BT-20210625/1009823-light/run1009823-light.h5 tag-1497087874//
/work/sebastian/BT-20210625/1009823-light/run1009823-light.h5 tag-1497087878//
/work/sebastian/BT-20210625/1009823-light/run1009823-light.h5 tag-1497087886//
/work/sebastian/BT-20210625/1009823-light/run1009823-light.h5 tag-1497087888//
/work/sebastian/BT-20210625/1009823-light/run1009823-light.h5 tag-1497087892//
/work/sebastian/BT-20210625/1009823-light/run1009823-light.h5 tag-1497087894//
/work/sebastian/BT-20210625/1009823-light/run1009823-light.h5 tag-1497087898//
/work/sebastian/BT-20210625/1009823-light/run1009823-light.h5 tag-1497087902//
/work/sebastian/BT-20210625/1009823-light/run1009823-light.h5 tag-1497087908//
/work/sebastian/BT-20210625/1009823-light/run1009823-light.h5 tag-1497087910//
/work/sebastian/BT-20210625/1009823-light/run1009823-light.h5 tag-1497087912//
/work/sebastian/BT-20210625/1009823-light/run1009823-light.h5 tag-1497087914//
/work/sebastian/BT-20210625/1009823-light/run1009823-light.h5 tag-1497087920//
/work/sebastian/BT-20210625/1009823-light/run1009823-light.h5 tag-1497087922//
/work/sebastian/BT-20210625/1009823-light/run1009823-light.h5 tag-1497087924//
/work/sebastian/BT-20210625/1009823-light/run1009823-light.h5 tag-1497087926//
/work/sebastian/BT-20210625/1009823-light/run1009823-light.h5 tag-1497087928//
/work/sebastian/BT-20210625/1009823-light/run1009823-light.h5 tag-1497087930//
/work/sebastian/BT-20210625/1009823-light/run1009823-light.h5 tag-1497087934//
/work/sebastian/BT-20210625/1009823-light/run1009823-light.h5 tag-1497087936//
/work/sebastian/BT-20210625/1009823-light/run1009823-light.h5 tag-1497087940//
/work/sebastian/BT-20210625/1009823-light/run1009823-light.h5 tag-1497087952//
/work/sebastian/BT-20210625/1009823-light/run1009823-light.h5 tag-1497087954//
/work/sebastian/BT-20210625/1009823-light/run1009823-light.h5 tag-1497087956//
/work/sebastian/BT-20210625/1009823-light/run1009823-light.h5 tag-1497087958//
/work/sebastian/BT-20210625/1009823-light/run1009823-light.h5 tag-1497087962//
/work/sebastian/BT-20210625/1009823-light/run1009823-light.h5 tag-1497087964//
/work/sebastian/BT-20210625/1009823-light/run1009823-light.h5 tag-1497087966//
/work/sebastian/BT-20210625/1009823-light/run1009823-light.h5 tag-1497087968//
/work/sebastian/BT-20210625/1009823-light/run1009823-light.h5 tag-1497087970//
/work/sebastian/BT-20210625/1009823-light/run1009823-light.h5 tag-1497087972//
/work/sebastian/BT-20210625/1009823-light/run1009823-light.h5 tag-1497087974//
/work/sebastian/BT-20210625/1009823-light/run1009823-light.h5 tag-1497087978//
/work/sebastian/BT-20210625/1009823-light/run1009823-light.h5 tag-1497087980//
/work/sebastian/BT-20210625/1009823-light/run1009823-light.h5 tag-1497087982//
/work/sebastian/BT-20210625/1009823-light/run1009823-light.h5 tag-1497087984//
/work/sebastian/BT-20210625/1009823-light/run1009823-light.h5 tag-1497087988//
/work/sebastian/BT-20210625/1009823-light/run1009823-light.h5 tag-1497087996//
/work/sebastian/BT-20210625/1009823-light/run1009823-light.h5 tag-1497088004//
/work/sebastian/BT-20210625/1009823-light/run1009823-light.h5 tag-1497088006//
/work/sebastian/BT-20210625/1009823-light/run1009823-light.h5 tag-1497088008//
/work/sebastian/BT-20210625/1009823-light/run1009823-light.h5 tag-1497088010//
/work/sebastian/BT-20210625/1009823-light/run1009823-light.h5 tag-1497088012//
/work/sebastian/BT-20210625/1009823-light/run1009823-light.h5 tag-1497088014//
/work/sebastian/BT-20210625/1009823-light/run1009823-light.h5 tag-1497088016//
/work/sebastian/BT-20210625/1009823-light/run1009823-light.h5 tag-1497088018//
/work/sebastian/BT-20210625/1009823-light/run1009823-light.h5 tag-1497088020//
/work/sebastian/BT-20210625/1009823-light/run1009823-light.h5 tag-1497088022//
/work/sebastian/BT-20210625/1009823-light/run1009823-light.h5 tag-1497088024//
/work/sebastian/BT-20210625/1009823-light/run1009823-light.h5 tag-1497088026//
/work/sebastian/BT-20210625/1009823-light/run1009823-light.h5 tag-1497088028//
/work/sebastian/BT-20210625/1009823-light/run1009823-light.h5 tag-1497088034//
/work/sebastian/BT-20210625/1009823-light/run1009823-light.h5 tag-1497088038//
/work/sebastian/BT-20210625/1009823-light/run1009823-light.h5 tag-1497088044//
/work/sebastian/BT-20210625/1009823-light/run1009823-light.h5 tag-1497088046//
/work/sebastian/BT-20210625/1009823-light/run1009823-light.h5 tag-1497088048//
/work/sebastian/BT-20210625/1009823-light/run1009823-light.h5 tag-1497088052//
/work/sebastian/BT-20210625/1009823-light/run1009823-light.h5 tag-1497088054//
/work/sebastian/BT-20210625/1009823-light/run1009823-light.h5 tag-1497088056//
/work/sebastian/BT-20210625/1009823-light/run1009823-light.h5 tag-1497088060//
/work/sebastian/BT-20210625/1009823-light/run1009823-light.h5 tag-1497088062//
/work/sebastian/BT-20210625/1009823-light/run1009823-light.h5 tag-1497088066//
/work/sebastian/BT-20210625/1009823-light/run1009823-light.h5 tag-1497088070//
/work/sebastian/BT-20210625/1009823-light/run1009823-light.h5 tag-1497088076//
/work/sebastian/BT-20210625/1009823-light/run1009823-light.h5 tag-1497088078//
/work/sebastian/BT-20210625/1009823-light/run1009823-light.h5 tag-1497088082//
/work/sebastian/BT-20210625/1009823-light/run1009823-light.h5 tag-1497088084//
/work/sebastian/BT-20210625/1009823-light/run1009823-light.h5 tag-1497088090//
/work/sebastian/BT-20210625/1009823-light/run1009823-light.h5 tag-1497088092//
/work/sebastian/BT-20210625/1009823-light/run1009823-light.h5 tag-1497088094//
/work/sebastian/BT-20210625/1009823-light/run1009823-light.h5 tag-1497088096//
/work/sebastian/BT-20210625/1009823-light/run1009823-light.h5 tag-1497088098//
/work/sebastian/BT-20210625/1009823-light/run1009823-light.h5 tag-1497088100//
/work/sebastian/BT-20210625/1009823-light/run1009823-light.h5 tag-1497088102//
/work/sebastian/BT-20210625/1009823-light/run1009823-light.h5 tag-1497088104//
/work/sebastian/BT-20210625/1009823-light/run1009823-light.h5 tag-1497088108//
/work/sebastian/BT-20210625/1009823-light/run1009823-light.h5 tag-1497088112//
/work/sebastian/BT-20210625/1009823-light/run1009823-light.h5 tag-1497088118//
/work/sebastian/BT-20210625/1009823-light/run1009823-light.h5 tag-1497088132//
/work/sebastian/BT-20210625/1009823-light/run1009823-light.h5 tag-1497088134//
/work/sebastian/BT-20210625/1009823-light/run1009823-light.h5 tag-1497088136//
/work/sebastian/BT-20210625/1009823-light/run1009823-light.h5 tag-1497088142//
/work/sebastian/BT-20210625/1009823-light/run1009823-light.h5 tag-1497088144//
/work/sebastian/BT-20210625/1009823-light/run1009823-light.h5 tag-1497088148//
/work/sebastian/BT-20210625/1009823-light/run1009823-light.h5 tag-1497088152//
/work/sebastian/BT-20210625/1009823-light/run1009823-light.h5 tag-1497088154//
/work/sebastian/BT-20210625/1009823-light/run1009823-light.h5 tag-1497088156//
/work/sebastian/BT-20210625/1009823-light/run1009823-light.h5 tag-1497088158//
/work/sebastian/BT-20210625/1009823-light/run1009823-light.h5 tag-1497088162//
/work/sebastian/BT-20210625/1009823-light/run1009823-light.h5 tag-1497088164//
/work/sebastian/BT-20210625/1009823-light/run1009823-light.h5 tag-1497088170//
/work/sebastian/BT-20210625/1009823-light/run1009823-light.h5 tag-1497088176//
/work/sebastian/BT-20210625/1009823-light/run1009823-light.h5 tag-1497088182//
/work/sebastian/BT-20210625/1009823-light/run1009823-light.h5 tag-1497088184//
/work/sebastian/BT-20210625/1009823-light/run1009823-light.h5 tag-1497088186//
/work/sebastian/BT-20210625/1009823-light/run1009823-light.h5 tag-1497088190//
/work/sebastian/BT-20210625/1009823-light/run1009823-light.h5 tag-1497088192//
/work/sebastian/BT-20210625/1009823-light/run1009823-light.h5 tag-1497088196//
/work/sebastian/BT-20210625/1009823-light/run1009823-light.h5 tag-1497088198//
/work/sebastian/BT-20210625/1009823-light/run1009823-light.h5 tag-1497088200//
/work/sebastian/BT-20210625/1009823-light/run1009823-light.h5 tag-1497088202//
/work/sebastian/BT-20210625/1009823-light/run1009823-light.h5 tag-1497088204//
/work/sebastian/BT-20210625/1009823-light/run1009823-light.h5 tag-1497088206//
/work/sebastian/BT-20210625/1009823-light/run1009823-light.h5 tag-1497088208//
/work/sebastian/BT-20210625/1009823-light/run1009823-light.h5 tag-1497088210//
/work/sebastian/BT-20210625/1009823-light/run1009823-light.h5 tag-1497088212//
/work/sebastian/BT-20210625/1009823-light/run1009823-light.h5 tag-1497088214//
/work/sebastian/BT-20210625/1009823-light/run1009823-light.h5 tag-1497088220//
/work/sebastian/BT-20210625/1009823-light/run1009823-light.h5 tag-1497088222//
/work/sebastian/BT-20210625/1009823-light/run1009823-light.h5 tag-1497088224//
/work/sebastian/BT-20210625/1009823-light/run1009823-light.h5 tag-1497088230//
/work/sebastian/BT-20210625/1009823-light/run1009823-light.h5 tag-1497088232//
/work/sebastian/BT-20210625/1009823-light/run1009823-light.h5 tag-1497088234//
/work/sebastian/BT-20210625/1009823-light/run1009823-light.h5 tag-1497088236//
/work/sebastian/BT-20210625/1009823-light/run1009823-light.h5 tag-1497088240//
/work/sebastian/BT-20210625/1009823-light/run1009823-light.h5 tag-1497088242//
/work/sebastian/BT-20210625/1009823-light/run1009823-light.h5 tag-1497088244//
/work/sebastian/BT-20210625/1009823-light/run1009823-light.h5 tag-1497088250//
/work/sebastian/BT-20210625/1009823-light/run1009823-light.h5 tag-1497088252//
/work/sebastian/BT-20210625/1009823-light/run1009823-light.h5 tag-1497088254//
/work/sebastian/BT-20210625/1009823-light/run1009823-light.h5 tag-1497088256//
/work/sebastian/BT-20210625/1009823-light/run1009823-light.h5 tag-1497088260//
/work/sebastian/BT-20210625/1009823-light/run1009823-light.h5 tag-1497088262//
/work/sebastian/BT-20210625/1009823-light/run1009823-light.h5 tag-1497088264//
/work/sebastian/BT-20210625/1009823-light/run1009823-light.h5 tag-1497088266//
/work/sebastian/BT-20210625/1009823-light/run1009823-light.h5 tag-1497088268//
/work/sebastian/BT-20210625/1009823-light/run1009823-light.h5 tag-1497088272//
/work/sebastian/BT-20210625/1009823-light/run1009823-light.h5 tag-1497088274//
/work/sebastian/BT-20210625/1009823-light/run1009823-light.h5 tag-1497088276//
/work/sebastian/BT-20210625/1009823-light/run1009823-light.h5 tag-1497088280//
/work/sebastian/BT-20210625/1009823-light/run1009823-light.h5 tag-1497088282//
/work/sebastian/BT-20210625/1009823-light/run1009823-light.h5 tag-1497088284//
/work/sebastian/BT-20210625/1009823-light/run1009823-light.h5 tag-1497088290//
/work/sebastian/BT-20210625/1009823-light/run1009823-light.h5 tag-1497088292//
/work/sebastian/BT-20210625/1009823-light/run1009823-light.h5 tag-1497088298//
/work/sebastian/BT-20210625/1009823-light/run1009823-light.h5 tag-1497088302//
/work/sebastian/BT-20210625/1009823-light/run1009823-light.h5 tag-1497088304//
/work/sebastian/BT-20210625/1009823-light/run1009823-light.h5 tag-1497088306//
/work/sebastian/BT-20210625/1009823-light/run1009823-light.h5 tag-1497088308//
/work/sebastian/BT-20210625/1009823-light/run1009823-light.h5 tag-1497088310//
/work/sebastian/BT-20210625/1009823-light/run1009823-light.h5 tag-1497088314//
/work/sebastian/BT-20210625/1009823-light/run1009823-light.h5 tag-1497088316//
/work/sebastian/BT-20210625/1009823-light/run1009823-light.h5 tag-1497088322//
/work/sebastian/BT-20210625/1009823-light/run1009823-light.h5 tag-1497088324//
/work/sebastian/BT-20210625/1009823-light/run1009823-light.h5 tag-1497088326//
/work/sebastian/BT-20210625/1009823-light/run1009823-light.h5 tag-1497088328//
/work/sebastian/BT-20210625/1009823-light/run1009823-light.h5 tag-1497088330//
/work/sebastian/BT-20210625/1009823-light/run1009823-light.h5 tag-1497088332//
/work/sebastian/BT-20210625/1009823-light/run1009823-light.h5 tag-1497088334//
/work/sebastian/BT-20210625/1009823-light/run1009823-light.h5 tag-1497088336//
/work/sebastian/BT-20210625/1009823-light/run1009823-light.h5 tag-1497088342//
/work/sebastian/BT-20210625/1009823-light/run1009823-light.h5 tag-1497088344//
/work/sebastian/BT-20210625/1009823-light/run1009823-light.h5 tag-1497088350//
/work/sebastian/BT-20210625/1009823-light/run1009823-light.h5 tag-1497088352//
/work/sebastian/BT-20210625/1009823-light/run1009823-light.h5 tag-1497088356//
/work/sebastian/BT-20210625/1009823-light/run1009823-light.h5 tag-1497088358//
/work/sebastian/BT-20210625/1009823-light/run1009823-light.h5 tag-1497088362//
/work/sebastian/BT-20210625/1009823-light/run1009823-light.h5 tag-1497088368//
/work/sebastian/BT-20210625/1009823-light/run1009823-light.h5 tag-1497088374//
/work/sebastian/BT-20210625/1009823-light/run1009823-light.h5 tag-1497088376//
/work/sebastian/BT-20210625/1009823-light/run1009823-light.h5 tag-1497088378//
/work/sebastian/BT-20210625/1009823-light/run1009823-light.h5 tag-1497088380//
/work/sebastian/BT-20210625/1009823-light/run1009823-light.h5 tag-1497088384//
/work/sebastian/BT-20210625/1009823-light/run1009823-light.h5 tag-1497088386//
/work/sebastian/BT-20210625/1009823-light/run1009823-light.h5 tag-1497088394//
/work/sebastian/BT-20210625/1009823-light/run1009823-light.h5 tag-1497088398//
/work/sebastian/BT-20210625/1009823-light/run1009823-light.h5 tag-1497088400//
/work/sebastian/BT-20210625/1009823-light/run1009823-light.h5 tag-1497088404//
/work/sebastian/BT-20210625/1009823-light/run1009823-light.h5 tag-1497088406//
/work/sebastian/BT-20210625/1009823-light/run1009823-light.h5 tag-1497088408//
/work/sebastian/BT-20210625/1009823-light/run1009823-light.h5 tag-1497088410//
/work/sebastian/BT-20210625/1009823-light/run1009823-light.h5 tag-1497088414//
/work/sebastian/BT-20210625/1009823-light/run1009823-light.h5 tag-1497088418//
/work/sebastian/BT-20210625/1009823-light/run1009823-light.h5 tag-1497088420//
/work/sebastian/BT-20210625/1009823-light/run1009823-light.h5 tag-1497088422//
/work/sebastian/BT-20210625/1009823-light/run1009823-light.h5 tag-1497088424//
/work/sebastian/BT-20210625/1009823-light/run1009823-light.h5 tag-1497088426//
/work/sebastian/BT-20210625/1009823-light/run1009823-light.h5 tag-1497088430//
/work/sebastian/BT-20210625/1009823-light/run1009823-light.h5 tag-1497088434//
/work/sebastian/BT-20210625/1009823-light/run1009823-light.h5 tag-1497088438//
/work/sebastian/BT-20210625/1009823-light/run1009823-light.h5 tag-1497088442//
/work/sebastian/BT-20210625/1009823-light/run1009823-light.h5 tag-1497088444//
/work/sebastian/BT-20210625/1009823-light/run1009823-light.h5 tag-1497088446//
/work/sebastian/BT-20210625/1009823-light/run1009823-light.h5 tag-1497088452//
/work/sebastian/BT-20210625/1009823-light/run1009823-light.h5 tag-1497088454//
/work/sebastian/BT-20210625/1009823-light/run1009823-light.h5 tag-1497088456//
/work/sebastian/BT-20210625/1009823-light/run1009823-light.h5 tag-1497088458//
/work/sebastian/BT-20210625/1009823-light/run1009823-light.h5 tag-1497088460//
/work/sebastian/BT-20210625/1009823-light/run1009823-light.h5 tag-1497088466//
/work/sebastian/BT-20210625/1009823-light/run1009823-light.h5 tag-1497088468//
/work/sebastian/BT-20210625/1009823-light/run1009823-light.h5 tag-1497088470//
/work/sebastian/BT-20210625/1009823-light/run1009823-light.h5 tag-1497088472//
/work/sebastian/BT-20210625/1009823-light/run1009823-light.h5 tag-1497088474//
/work/sebastian/BT-20210625/1009823-light/run1009823-light.h5 tag-1497088476//
/work/sebastian/BT-20210625/1009823-light/run1009823-light.h5 tag-1497088478//
/work/sebastian/BT-20210625/1009823-light/run1009823-light.h5 tag-1497088484//
/work/sebastian/BT-20210625/1009823-light/run1009823-light.h5 tag-1497088486//
/work/sebastian/BT-20210625/1009823-light/run1009823-light.h5 tag-1497088488//
/work/sebastian/BT-20210625/1009823-light/run1009823-light.h5 tag-1497088490//
/work/sebastian/BT-20210625/1009823-light/run1009823-light.h5 tag-1497088492//
/work/sebastian/BT-20210625/1009823-light/run1009823-light.h5 tag-1497088494//
/work/sebastian/BT-20210625/1009823-light/run1009823-light.h5 tag-1497088496//
/work/sebastian/BT-20210625/1009823-light/run1009823-light.h5 tag-1497088500//
/work/sebastian/BT-20210625/1009823-light/run1009823-light.h5 tag-1497088502//
/work/sebastian/BT-20210625/1009823-light/run1009823-light.h5 tag-1497088504//
/work/sebastian/BT-20210625/1009823-light/run1009823-light.h5 tag-1497088506//
/work/sebastian/BT-20210625/1009823-light/run1009823-light.h5 tag-1497088512//
/work/sebastian/BT-20210625/1009823-light/run1009823-light.h5 tag-1497088514//
/work/sebastian/BT-20210625/1009823-light/run1009823-light.h5 tag-1497088516//
/work/sebastian/BT-20210625/1009823-light/run1009823-light.h5 tag-1497088518//
/work/sebastian/BT-20210625/1009823-light/run1009823-light.h5 tag-1497088520//
/work/sebastian/BT-20210625/1009823-light/run1009823-light.h5 tag-1497088524//
/work/sebastian/BT-20210625/1009823-light/run1009823-light.h5 tag-1497088526//
/work/sebastian/BT-20210625/1009823-light/run1009823-light.h5 tag-1497088530//
/work/sebastian/BT-20210625/1009823-light/run1009823-light.h5 tag-1497088532//
/work/sebastian/BT-20210625/1009823-light/run1009823-light.h5 tag-1497088534//
/work/sebastian/BT-20210625/1009823-light/run1009823-light.h5 tag-1497088546//
/work/sebastian/BT-20210625/1009823-light/run1009823-light.h5 tag-1497088548//
/work/sebastian/BT-20210625/1009823-light/run1009823-light.h5 tag-1497088550//
/work/sebastian/BT-20210625/1009823-light/run1009823-light.h5 tag-1497088552//
/work/sebastian/BT-20210625/1009823-light/run1009823-light.h5 tag-1497088562//
/work/sebastian/BT-20210625/1009823-light/run1009823-light.h5 tag-1497088564//
/work/sebastian/BT-20210625/1009823-light/run1009823-light.h5 tag-1497088566//
/work/sebastian/BT-20210625/1009823-light/run1009823-light.h5 tag-1497088570//
/work/sebastian/BT-20210625/1009823-light/run1009823-light.h5 tag-1497088572//
/work/sebastian/BT-20210625/1009823-light/run1009823-light.h5 tag-1497088574//
/work/sebastian/BT-20210625/1009823-light/run1009823-light.h5 tag-1497088576//
/work/sebastian/BT-20210625/1009823-light/run1009823-light.h5 tag-1497088582//
/work/sebastian/BT-20210625/1009823-light/run1009823-light.h5 tag-1497088586//
/work/sebastian/BT-20210625/1009823-light/run1009823-light.h5 tag-1497088592//
/work/sebastian/BT-20210625/1009823-light/run1009823-light.h5 tag-1497088596//
/work/sebastian/BT-20210625/1009823-light/run1009823-light.h5 tag-1497088598//
/work/sebastian/BT-20210625/1009823-light/run1009823-light.h5 tag-1497088600//
/work/sebastian/BT-20210625/1009823-light/run1009823-light.h5 tag-1497088604//
/work/sebastian/BT-20210625/1009823-light/run1009823-light.h5 tag-1497088606//
/work/sebastian/BT-20210625/1009823-light/run1009823-light.h5 tag-1497088608//
/work/sebastian/BT-20210625/1009823-light/run1009823-light.h5 tag-1497088612//
/work/sebastian/BT-20210625/1009823-light/run1009823-light.h5 tag-1497088614//
/work/sebastian/BT-20210625/1009823-light/run1009823-light.h5 tag-1497088616//
/work/sebastian/BT-20210625/1009823-light/run1009823-light.h5 tag-1497088620//
/work/sebastian/BT-20210625/1009823-light/run1009823-light.h5 tag-1497088626//
/work/sebastian/BT-20210625/1009823-light/run1009823-light.h5 tag-1497088630//
/work/sebastian/BT-20210625/1009823-light/run1009823-light.h5 tag-1497088632//
/work/sebastian/BT-20210625/1009823-light/run1009823-light.h5 tag-1497088634//
/work/sebastian/BT-20210625/1009823-light/run1009823-light.h5 tag-1497088638//
/work/sebastian/BT-20210625/1009823-light/run1009823-light.h5 tag-1497088642//
/work/sebastian/BT-20210625/1009823-light/run1009823-light.h5 tag-1497088646//
/work/sebastian/BT-20210625/1009823-light/run1009823-light.h5 tag-1497088648//
/work/sebastian/BT-20210625/1009823-light/run1009823-light.h5 tag-1497088650//
/work/sebastian/BT-20210625/1009823-light/run1009823-light.h5 tag-1497088652//
/work/sebastian/BT-20210625/1009823-light/run1009823-light.h5 tag-1497088654//
/work/sebastian/BT-20210625/1009823-light/run1009823-light.h5 tag-1497088656//
/work/sebastian/BT-20210625/1009823-light/run1009823-light.h5 tag-1497088660//
/work/sebastian/BT-20210625/1009823-light/run1009823-light.h5 tag-1497088662//
/work/sebastian/BT-20210625/1009823-light/run1009823-light.h5 tag-1497088664//
/work/sebastian/BT-20210625/1009823-light/run1009823-light.h5 tag-1497088666//
/work/sebastian/BT-20210625/1009823-light/run1009823-light.h5 tag-1497088670//
/work/sebastian/BT-20210625/1009823-light/run1009823-light.h5 tag-1497088672//
/work/sebastian/BT-20210625/1009823-light/run1009823-light.h5 tag-1497088678//
/work/sebastian/BT-20210625/1009823-light/run1009823-light.h5 tag-1497088680//
/work/sebastian/BT-20210625/1009823-light/run1009823-light.h5 tag-1497088684//
/work/sebastian/BT-20210625/1009823-light/run1009823-light.h5 tag-1497088686//
/work/sebastian/BT-20210625/1009823-light/run1009823-light.h5 tag-1497088690//
/work/sebastian/BT-20210625/1009823-light/run1009823-light.h5 tag-1497088694//
/work/sebastian/BT-20210625/1009823-light/run1009823-light.h5 tag-1497088698//
/work/sebastian/BT-20210625/1009823-light/run1009823-light.h5 tag-1497088708//
/work/sebastian/BT-20210625/1009823-light/run1009823-light.h5 tag-1497088710//
/work/sebastian/BT-20210625/1009823-light/run1009823-light.h5 tag-1497088714//
/work/sebastian/BT-20210625/1009823-light/run1009823-light.h5 tag-1497088716//
/work/sebastian/BT-20210625/1009823-light/run1009823-light.h5 tag-1497088722//
/work/sebastian/BT-20210625/1009823-light/run1009823-light.h5 tag-1497088724//
/work/sebastian/BT-20210625/1009823-light/run1009823-light.h5 tag-1497088726//
/work/sebastian/BT-20210625/1009823-light/run1009823-light.h5 tag-1497088732//
/work/sebastian/BT-20210625/1009823-light/run1009823-light.h5 tag-1497088734//
/work/sebastian/BT-20210625/1009823-light/run1009823-light.h5 tag-1497088736//
/work/sebastian/BT-20210625/1009823-light/run1009823-light.h5 tag-1497088740//
/work/sebastian/BT-20210625/1009823-light/run1009823-light.h5 tag-1497088742//
/work/sebastian/BT-20210625/1009823-light/run1009823-light.h5 tag-1497088746//
/work/sebastian/BT-20210625/1009823-light/run1009823-light.h5 tag-1497088748//
/work/sebastian/BT-20210625/1009823-light/run1009823-light.h5 tag-1497088754//
/work/sebastian/BT-20210625/1009823-light/run1009823-light.h5 tag-1497088756//
/work/sebastian/BT-20210625/1009823-light/run1009823-light.h5 tag-1497088762//
/work/sebastian/BT-20210625/1009823-light/run1009823-light.h5 tag-1497088764//
/work/sebastian/BT-20210625/1009823-light/run1009823-light.h5 tag-1497088768//
/work/sebastian/BT-20210625/1009823-light/run1009823-light.h5 tag-1497088770//
/work/sebastian/BT-20210625/1009823-light/run1009823-light.h5 tag-1497088774//
/work/sebastian/BT-20210625/1009823-light/run1009823-light.h5 tag-1497088776//
/work/sebastian/BT-20210625/1009823-light/run1009823-light.h5 tag-1497088780//
/work/sebastian/BT-20210625/1009823-light/run1009823-light.h5 tag-1497088784//
/work/sebastian/BT-20210625/1009823-light/run1009823-light.h5 tag-1497088786//
/work/sebastian/BT-20210625/1009823-light/run1009823-light.h5 tag-1497088788//
/work/sebastian/BT-20210625/1009823-light/run1009823-light.h5 tag-1497088792//
/work/sebastian/BT-20210625/1009823-light/run1009823-light.h5 tag-1497088796//
/work/sebastian/BT-20210625/1009823-light/run1009823-light.h5 tag-1497088800//
/work/sebastian/BT-20210625/1009823-light/run1009823-light.h5 tag-1497088802//
/work/sebastian/BT-20210625/1009823-light/run1009823-light.h5 tag-1497088804//
/work/sebastian/BT-20210625/1009823-light/run1009823-light.h5 tag-1497088808//
/work/sebastian/BT-20210625/1009823-light/run1009823-light.h5 tag-1497088810//
/work/sebastian/BT-20210625/1009823-light/run1009823-light.h5 tag-1497088818//
/work/sebastian/BT-20210625/1009823-light/run1009823-light.h5 tag-1497088820//
/work/sebastian/BT-20210625/1009823-light/run1009823-light.h5 tag-1497088824//
/work/sebastian/BT-20210625/1009823-light/run1009823-light.h5 tag-1497088830//
/work/sebastian/BT-20210625/1009823-light/run1009823-light.h5 tag-1497088832//
/work/sebastian/BT-20210625/1009823-light/run1009823-light.h5 tag-1497088834//
/work/sebastian/BT-20210625/1009823-light/run1009823-light.h5 tag-1497088840//
/work/sebastian/BT-20210625/1009823-light/run1009823-light.h5 tag-1497088848//
/work/sebastian/BT-20210625/1009823-light/run1009823-light.h5 tag-1497088850//
/work/sebastian/BT-20210625/1009823-light/run1009823-light.h5 tag-1497088854//
/work/sebastian/BT-20210625/1009823-light/run1009823-light.h5 tag-1497088858//
/work/sebastian/BT-20210625/1009823-light/run1009823-light.h5 tag-1497088862//
/work/sebastian/BT-20210625/1009823-light/run1009823-light.h5 tag-1497088864//
/work/sebastian/BT-20210625/1009823-light/run1009823-light.h5 tag-1497088866//
/work/sebastian/BT-20210625/1009823-light/run1009823-light.h5 tag-1497088868//
/work/sebastian/BT-20210625/1009823-light/run1009823-light.h5 tag-1497088870//
/work/sebastian/BT-20210625/1009823-light/run1009823-light.h5 tag-1497088872//
/work/sebastian/BT-20210625/1009823-light/run1009823-light.h5 tag-1497088874//
/work/sebastian/BT-20210625/1009823-light/run1009823-light.h5 tag-1497088876//
/work/sebastian/BT-20210625/1009823-light/run1009823-light.h5 tag-1497088878//
/work/sebastian/BT-20210625/1009823-light/run1009823-light.h5 tag-1497088880//
/work/sebastian/BT-20210625/1009823-light/run1009823-light.h5 tag-1497088888//
/work/sebastian/BT-20210625/1009823-light/run1009823-light.h5 tag-1497088890//
/work/sebastian/BT-20210625/1009823-light/run1009823-light.h5 tag-1497088892//
/work/sebastian/BT-20210625/1009823-light/run1009823-light.h5 tag-1497088896//
/work/sebastian/BT-20210625/1009823-light/run1009823-light.h5 tag-1497088900//
/work/sebastian/BT-20210625/1009823-light/run1009823-light.h5 tag-1497088902//
/work/sebastian/BT-20210625/1009823-light/run1009823-light.h5 tag-1497088906//
/work/sebastian/BT-20210625/1009823-light/run1009823-light.h5 tag-1497088908//
/work/sebastian/BT-20210625/1009823-light/run1009823-light.h5 tag-1497088914//
/work/sebastian/BT-20210625/1009823-light/run1009823-light.h5 tag-1497088916//
/work/sebastian/BT-20210625/1009823-light/run1009823-light.h5 tag-1497088920//
/work/sebastian/BT-20210625/1009823-light/run1009823-light.h5 tag-1497088924//
/work/sebastian/BT-20210625/1009823-light/run1009823-light.h5 tag-1497088928//
/work/sebastian/BT-20210625/1009823-light/run1009823-light.h5 tag-1497088930//
/work/sebastian/BT-20210625/1009823-light/run1009823-light.h5 tag-1497088934//
/work/sebastian/BT-20210625/1009823-light/run1009823-light.h5 tag-1497088936//
/work/sebastian/BT-20210625/1009823-light/run1009823-light.h5 tag-1497088938//
/work/sebastian/BT-20210625/1009823-light/run1009823-light.h5 tag-1497088940//
/work/sebastian/BT-20210625/1009823-light/run1009823-light.h5 tag-1497088942//
/work/sebastian/BT-20210625/1009823-light/run1009823-light.h5 tag-1497088946//
/work/sebastian/BT-20210625/1009823-light/run1009823-light.h5 tag-1497088948//
/work/sebastian/BT-20210625/1009823-light/run1009823-light.h5 tag-1497088954//
/work/sebastian/BT-20210625/1009823-light/run1009823-light.h5 tag-1497088956//
/work/sebastian/BT-20210625/1009823-light/run1009823-light.h5 tag-1497088960//
/work/sebastian/BT-20210625/1009823-light/run1009823-light.h5 tag-1497088964//
/work/sebastian/BT-20210625/1009823-light/run1009823-light.h5 tag-1497088966//
/work/sebastian/BT-20210625/1009823-light/run1009823-light.h5 tag-1497088968//
/work/sebastian/BT-20210625/1009823-light/run1009823-light.h5 tag-1497088970//
/work/sebastian/BT-20210625/1009823-light/run1009823-light.h5 tag-1497088972//
/work/sebastian/BT-20210625/1009823-light/run1009823-light.h5 tag-1497088974//
/work/sebastian/BT-20210625/1009823-light/run1009823-light.h5 tag-1497088976//
/work/sebastian/BT-20210625/1009823-light/run1009823-light.h5 tag-1497088980//
/work/sebastian/BT-20210625/1009823-light/run1009823-light.h5 tag-1497088984//
/work/sebastian/BT-20210625/1009823-light/run1009823-light.h5 tag-1497088986//
/work/sebastian/BT-20210625/1009823-light/run1009823-light.h5 tag-1497088994//
/work/sebastian/BT-20210625/1009823-light/run1009823-light.h5 tag-1497088996//
/work/sebastian/BT-20210625/1009823-light/run1009823-light.h5 tag-1497088998//
/work/sebastian/BT-20210625/1009823-light/run1009823-light.h5 tag-1497089000//
/work/sebastian/BT-20210625/1009823-light/run1009823-light.h5 tag-1497089002//
/work/sebastian/BT-20210625/1009823-light/run1009823-light.h5 tag-1497089006//
/work/sebastian/BT-20210625/1009823-light/run1009823-light.h5 tag-1497089008//
/work/sebastian/BT-20210625/1009823-light/run1009823-light.h5 tag-1497089010//
/work/sebastian/BT-20210625/1009823-light/run1009823-light.h5 tag-1497089012//
/work/sebastian/BT-20210625/1009823-light/run1009823-light.h5 tag-1497089014//
/work/sebastian/BT-20210625/1009823-light/run1009823-light.h5 tag-1497089016//
/work/sebastian/BT-20210625/1009823-light/run1009823-light.h5 tag-1497089020//
/work/sebastian/BT-20210625/1009823-light/run1009823-light.h5 tag-1497089024//
/work/sebastian/BT-20210625/1009823-light/run1009823-light.h5 tag-1497089032//
/work/sebastian/BT-20210625/1009823-light/run1009823-light.h5 tag-1497089034//
/work/sebastian/BT-20210625/1009823-light/run1009823-light.h5 tag-1497089036//
/work/sebastian/BT-20210625/1009823-light/run1009823-light.h5 tag-1497089038//
/work/sebastian/BT-20210625/1009823-light/run1009823-light.h5 tag-1497089040//
/work/sebastian/BT-20210625/1009823-light/run1009823-light.h5 tag-1497089042//
/work/sebastian/BT-20210625/1009823-light/run1009823-light.h5 tag-1497089044//
/work/sebastian/BT-20210625/1009823-light/run1009823-light.h5 tag-1497089052//
/work/sebastian/BT-20210625/1009823-light/run1009823-light.h5 tag-1497089054//
/work/sebastian/BT-20210625/1009823-light/run1009823-light.h5 tag-1497089056//
/work/sebastian/BT-20210625/1009823-light/run1009823-light.h5 tag-1497089058//
/work/sebastian/BT-20210625/1009823-light/run1009823-light.h5 tag-1497089060//
/work/sebastian/BT-20210625/1009823-light/run1009823-light.h5 tag-1497089070//
/work/sebastian/BT-20210625/1009823-light/run1009823-light.h5 tag-1497089076//
/work/sebastian/BT-20210625/1009823-light/run1009823-light.h5 tag-1497089078//
/work/sebastian/BT-20210625/1009823-light/run1009823-light.h5 tag-1497089082//
/work/sebastian/BT-20210625/1009823-light/run1009823-light.h5 tag-1497089084//
/work/sebastian/BT-20210625/1009823-light/run1009823-light.h5 tag-1497089090//
/work/sebastian/BT-20210625/1009823-light/run1009823-light.h5 tag-1497089092//
/work/sebastian/BT-20210625/1009823-light/run1009823-light.h5 tag-1497089094//
/work/sebastian/BT-20210625/1009823-light/run1009823-light.h5 tag-1497089096//
/work/sebastian/BT-20210625/1009823-light/run1009823-light.h5 tag-1497089098//
/work/sebastian/BT-20210625/1009823-light/run1009823-light.h5 tag-1497089100//
/work/sebastian/BT-20210625/1009823-light/run1009823-light.h5 tag-1497089102//
/work/sebastian/BT-20210625/1009823-light/run1009823-light.h5 tag-1497089108//
/work/sebastian/BT-20210625/1009823-light/run1009823-light.h5 tag-1497089110//
/work/sebastian/BT-20210625/1009823-light/run1009823-light.h5 tag-1497089112//
/work/sebastian/BT-20210625/1009823-light/run1009823-light.h5 tag-1497089114//
/work/sebastian/BT-20210625/1009823-light/run1009823-light.h5 tag-1497089116//
/work/sebastian/BT-20210625/1009823-light/run1009823-light.h5 tag-1497089118//
/work/sebastian/BT-20210625/1009823-light/run1009823-light.h5 tag-1497089120//
/work/sebastian/BT-20210625/1009823-light/run1009823-light.h5 tag-1497089124//
/work/sebastian/BT-20210625/1009823-light/run1009823-light.h5 tag-1497089128//
/work/sebastian/BT-20210625/1009823-light/run1009823-light.h5 tag-1497089130//
/work/sebastian/BT-20210625/1009823-light/run1009823-light.h5 tag-1497089134//
/work/sebastian/BT-20210625/1009823-light/run1009823-light.h5 tag-1497089138//
/work/sebastian/BT-20210625/1009823-light/run1009823-light.h5 tag-1497089140//
/work/sebastian/BT-20210625/1009823-light/run1009823-light.h5 tag-1497089144//
/work/sebastian/BT-20210625/1009823-light/run1009823-light.h5 tag-1497089148//
/work/sebastian/BT-20210625/1009823-light/run1009823-light.h5 tag-1497089152//
/work/sebastian/BT-20210625/1009823-light/run1009823-light.h5 tag-1497089156//
/work/sebastian/BT-20210625/1009823-light/run1009823-light.h5 tag-1497089158//
/work/sebastian/BT-20210625/1009823-light/run1009823-light.h5 tag-1497089160//
/work/sebastian/BT-20210625/1009823-light/run1009823-light.h5 tag-1497089162//
/work/sebastian/BT-20210625/1009823-light/run1009823-light.h5 tag-1497089164//
/work/sebastian/BT-20210625/1009823-light/run1009823-light.h5 tag-1497089166//
/work/sebastian/BT-20210625/1009823-light/run1009823-light.h5 tag-1497089168//
/work/sebastian/BT-20210625/1009823-light/run1009823-light.h5 tag-1497089170//
/work/sebastian/BT-20210625/1009823-light/run1009823-light.h5 tag-1497089172//
/work/sebastian/BT-20210625/1009823-light/run1009823-light.h5 tag-1497089176//
/work/sebastian/BT-20210625/1009823-light/run1009823-light.h5 tag-1497089178//
/work/sebastian/BT-20210625/1009823-light/run1009823-light.h5 tag-1497089182//
/work/sebastian/BT-20210625/1009823-light/run1009823-light.h5 tag-1497089188//
/work/sebastian/BT-20210625/1009823-light/run1009823-light.h5 tag-1497089190//
/work/sebastian/BT-20210625/1009823-light/run1009823-light.h5 tag-1497089192//
/work/sebastian/BT-20210625/1009823-light/run1009823-light.h5 tag-1497089194//
/work/sebastian/BT-20210625/1009823-light/run1009823-light.h5 tag-1497089196//
/work/sebastian/BT-20210625/1009823-light/run1009823-light.h5 tag-1497089200//
/work/sebastian/BT-20210625/1009823-light/run1009823-light.h5 tag-1497089202//
/work/sebastian/BT-20210625/1009823-light/run1009823-light.h5 tag-1497089206//
/work/sebastian/BT-20210625/1009823-light/run1009823-light.h5 tag-1497089208//
/work/sebastian/BT-20210625/1009823-light/run1009823-light.h5 tag-1497089210//
/work/sebastian/BT-20210625/1009823-light/run1009823-light.h5 tag-1497089214//
/work/sebastian/BT-20210625/1009823-light/run1009823-light.h5 tag-1497089218//
/work/sebastian/BT-20210625/1009823-light/run1009823-light.h5 tag-1497089220//
/work/sebastian/BT-20210625/1009823-light/run1009823-light.h5 tag-1497089222//
/work/sebastian/BT-20210625/1009823-light/run1009823-light.h5 tag-1497089228//
/work/sebastian/BT-20210625/1009823-light/run1009823-light.h5 tag-1497089230//
/work/sebastian/BT-20210625/1009823-light/run1009823-light.h5 tag-1497089234//
/work/sebastian/BT-20210625/1009823-light/run1009823-light.h5 tag-1497089236//
/work/sebastian/BT-20210625/1009823-light/run1009823-light.h5 tag-1497089240//
/work/sebastian/BT-20210625/1009823-light/run1009823-light.h5 tag-1497089242//
/work/sebastian/BT-20210625/1009823-light/run1009823-light.h5 tag-1497089244//
/work/sebastian/BT-20210625/1009823-light/run1009823-light.h5 tag-1497089246//
/work/sebastian/BT-20210625/1009823-light/run1009823-light.h5 tag-1497089248//
/work/sebastian/BT-20210625/1009823-light/run1009823-light.h5 tag-1497089252//
/work/sebastian/BT-20210625/1009823-light/run1009823-light.h5 tag-1497089258//
/work/sebastian/BT-20210625/1009823-light/run1009823-light.h5 tag-1497089260//
/work/sebastian/BT-20210625/1009823-light/run1009823-light.h5 tag-1497089264//
/work/sebastian/BT-20210625/1009823-light/run1009823-light.h5 tag-1497089268//
/work/sebastian/BT-20210625/1009823-light/run1009823-light.h5 tag-1497089270//
/work/sebastian/BT-20210625/1009823-light/run1009823-light.h5 tag-1497089272//
/work/sebastian/BT-20210625/1009823-light/run1009823-light.h5 tag-1497089274//
/work/sebastian/BT-20210625/1009823-light/run1009823-light.h5 tag-1497089276//
/work/sebastian/BT-20210625/1009823-light/run1009823-light.h5 tag-1497089280//
/work/sebastian/BT-20210625/1009823-light/run1009823-light.h5 tag-1497089284//
/work/sebastian/BT-20210625/1009823-light/run1009823-light.h5 tag-1497089286//
/work/sebastian/BT-20210625/1009823-light/run1009823-light.h5 tag-1497089288//
/work/sebastian/BT-20210625/1009823-light/run1009823-light.h5 tag-1497089290//
/work/sebastian/BT-20210625/1009823-light/run1009823-light.h5 tag-1497089294//
/work/sebastian/BT-20210625/1009823-light/run1009823-light.h5 tag-1497089296//
/work/sebastian/BT-20210625/1009823-light/run1009823-light.h5 tag-1497089298//
/work/sebastian/BT-20210625/1009823-light/run1009823-light.h5 tag-1497089304//
/work/sebastian/BT-20210625/1009823-light/run1009823-light.h5 tag-1497089308//
/work/sebastian/BT-20210625/1009823-light/run1009823-light.h5 tag-1497089310//
/work/sebastian/BT-20210625/1009823-light/run1009823-light.h5 tag-1497089312//
/work/sebastian/BT-20210625/1009823-light/run1009823-light.h5 tag-1497089314//
/work/sebastian/BT-20210625/1009823-light/run1009823-light.h5 tag-1497089318//
/work/sebastian/BT-20210625/1009823-light/run1009823-light.h5 tag-1497089320//
/work/sebastian/BT-20210625/1009823-light/run1009823-light.h5 tag-1497089322//
/work/sebastian/BT-20210625/1009823-light/run1009823-light.h5 tag-1497089324//
/work/sebastian/BT-20210625/1009823-light/run1009823-light.h5 tag-1497089326//
/work/sebastian/BT-20210625/1009823-light/run1009823-light.h5 tag-1497089328//
/work/sebastian/BT-20210625/1009823-light/run1009823-light.h5 tag-1497089334//
/work/sebastian/BT-20210625/1009823-light/run1009823-light.h5 tag-1497089336//
/work/sebastian/BT-20210625/1009823-light/run1009823-light.h5 tag-1497089338//
/work/sebastian/BT-20210625/1009823-light/run1009823-light.h5 tag-1497089340//
/work/sebastian/BT-20210625/1009823-light/run1009823-light.h5 tag-1497089342//
/work/sebastian/BT-20210625/1009823-light/run1009823-light.h5 tag-1497089346//
/work/sebastian/BT-20210625/1009823-light/run1009823-light.h5 tag-1497089350//
/work/sebastian/BT-20210625/1009823-light/run1009823-light.h5 tag-1497089354//
/work/sebastian/BT-20210625/1009823-light/run1009823-light.h5 tag-1497089356//
/work/sebastian/BT-20210625/1009823-light/run1009823-light.h5 tag-1497089358//
/work/sebastian/BT-20210625/1009823-light/run1009823-light.h5 tag-1497089360//
/work/sebastian/BT-20210625/1009823-light/run1009823-light.h5 tag-1497089362//
/work/sebastian/BT-20210625/1009823-light/run1009823-light.h5 tag-1497089364//
/work/sebastian/BT-20210625/1009823-light/run1009823-light.h5 tag-1497089370//
/work/sebastian/BT-20210625/1009823-light/run1009823-light.h5 tag-1497089372//
/work/sebastian/BT-20210625/1009823-light/run1009823-light.h5 tag-1497089374//
/work/sebastian/BT-20210625/1009823-light/run1009823-light.h5 tag-1497089380//
/work/sebastian/BT-20210625/1009823-light/run1009823-light.h5 tag-1497089382//
/work/sebastian/BT-20210625/1009823-light/run1009823-light.h5 tag-1497089384//
/work/sebastian/BT-20210625/1009823-light/run1009823-light.h5 tag-1497089386//
/work/sebastian/BT-20210625/1009823-light/run1009823-light.h5 tag-1497089390//
/work/sebastian/BT-20210625/1009823-light/run1009823-light.h5 tag-1497089392//
/work/sebastian/BT-20210625/1009823-light/run1009823-light.h5 tag-1497089398//
/work/sebastian/BT-20210625/1009823-light/run1009823-light.h5 tag-1497089404//
/work/sebastian/BT-20210625/1009823-light/run1009823-light.h5 tag-1497089406//
/work/sebastian/BT-20210625/1009823-light/run1009823-light.h5 tag-1497089410//
/work/sebastian/BT-20210625/1009823-light/run1009823-light.h5 tag-1497089412//
/work/sebastian/BT-20210625/1009823-light/run1009823-light.h5 tag-1497089414//
/work/sebastian/BT-20210625/1009823-light/run1009823-light.h5 tag-1497089416//
/work/sebastian/BT-20210625/1009823-light/run1009823-light.h5 tag-1497089420//
/work/sebastian/BT-20210625/1009823-light/run1009823-light.h5 tag-1497089422//
/work/sebastian/BT-20210625/1009823-light/run1009823-light.h5 tag-1497089430//
/work/sebastian/BT-20210625/1009823-light/run1009823-light.h5 tag-1497089434//
/work/sebastian/BT-20210625/1009823-light/run1009823-light.h5 tag-1497089436//
/work/sebastian/BT-20210625/1009823-light/run1009823-light.h5 tag-1497089440//
/work/sebastian/BT-20210625/1009823-light/run1009823-light.h5 tag-1497089442//
/work/sebastian/BT-20210625/1009823-light/run1009823-light.h5 tag-1497089444//
/work/sebastian/BT-20210625/1009823-light/run1009823-light.h5 tag-1497089446//
/work/sebastian/BT-20210625/1009823-light/run1009823-light.h5 tag-1497089450//
/work/sebastian/BT-20210625/1009823-light/run1009823-light.h5 tag-1497089454//
/work/sebastian/BT-20210625/1009823-light/run1009823-light.h5 tag-1497089460//
/work/sebastian/BT-20210625/1009823-light/run1009823-light.h5 tag-1497089462//
/work/sebastian/BT-20210625/1009823-light/run1009823-light.h5 tag-1497089466//
/work/sebastian/BT-20210625/1009823-light/run1009823-light.h5 tag-1497089468//
/work/sebastian/BT-20210625/1009823-light/run1009823-light.h5 tag-1497089474//
/work/sebastian/BT-20210625/1009823-light/run1009823-light.h5 tag-1497089476//
/work/sebastian/BT-20210625/1009823-light/run1009823-light.h5 tag-1497089478//
/work/sebastian/BT-20210625/1009823-light/run1009823-light.h5 tag-1497089482//
/work/sebastian/BT-20210625/1009823-light/run1009823-light.h5 tag-1497089490//
/work/sebastian/BT-20210625/1009823-light/run1009823-light.h5 tag-1497089492//
/work/sebastian/BT-20210625/1009823-light/run1009823-light.h5 tag-1497089496//
/work/sebastian/BT-20210625/1009823-light/run1009823-light.h5 tag-1497089504//
/work/sebastian/BT-20210625/1009823-light/run1009823-light.h5 tag-1497089510//
/work/sebastian/BT-20210625/1009823-light/run1009823-light.h5 tag-1497089512//
/work/sebastian/BT-20210625/1009823-light/run1009823-light.h5 tag-1497089516//
/work/sebastian/BT-20210625/1009823-light/run1009823-light.h5 tag-1497089518//
/work/sebastian/BT-20210625/1009823-light/run1009823-light.h5 tag-1497089522//
/work/sebastian/BT-20210625/1009823-light/run1009823-light.h5 tag-1497089524//
/work/sebastian/BT-20210625/1009823-light/run1009823-light.h5 tag-1497089528//
/work/sebastian/BT-20210625/1009823-light/run1009823-light.h5 tag-1497089534//
/work/sebastian/BT-20210625/1009823-light/run1009823-light.h5 tag-1497089536//
/work/sebastian/BT-20210625/1009823-light/run1009823-light.h5 tag-1497089542//
/work/sebastian/BT-20210625/1009823-light/run1009823-light.h5 tag-1497089544//
/work/sebastian/BT-20210625/1009823-light/run1009823-light.h5 tag-1497089546//
/work/sebastian/BT-20210625/1009823-light/run1009823-light.h5 tag-1497089548//
/work/sebastian/BT-20210625/1009823-light/run1009823-light.h5 tag-1497089550//
/work/sebastian/BT-20210625/1009823-light/run1009823-light.h5 tag-1497089552//
/work/sebastian/BT-20210625/1009823-light/run1009823-light.h5 tag-1497089554//
/work/sebastian/BT-20210625/1009823-light/run1009823-light.h5 tag-1497089558//
/work/sebastian/BT-20210625/1009823-light/run1009823-light.h5 tag-1497089562//
/work/sebastian/BT-20210625/1009823-light/run1009823-light.h5 tag-1497089564//
/work/sebastian/BT-20210625/1009823-light/run1009823-light.h5 tag-1497089566//
/work/sebastian/BT-20210625/1009823-light/run1009823-light.h5 tag-1497089568//
/work/sebastian/BT-20210625/1009823-light/run1009823-light.h5 tag-1497089570//
/work/sebastian/BT-20210625/1009823-light/run1009823-light.h5 tag-1497089574//
/work/sebastian/BT-20210625/1009823-light/run1009823-light.h5 tag-1497089580//
/work/sebastian/BT-20210625/1009823-light/run1009823-light.h5 tag-1497089584//
/work/sebastian/BT-20210625/1009823-light/run1009823-light.h5 tag-1497089586//
/work/sebastian/BT-20210625/1009823-light/run1009823-light.h5 tag-1497089588//
/work/sebastian/BT-20210625/1009823-light/run1009823-light.h5 tag-1497089596//
/work/sebastian/BT-20210625/1009823-light/run1009823-light.h5 tag-1497089598//
/work/sebastian/BT-20210625/1009823-light/run1009823-light.h5 tag-1497089602//
/work/sebastian/BT-20210625/1009823-light/run1009823-light.h5 tag-1497089604//
/work/sebastian/BT-20210625/1009823-light/run1009823-light.h5 tag-1497089620//
/work/sebastian/BT-20210625/1009823-light/run1009823-light.h5 tag-1497089622//
/work/sebastian/BT-20210625/1009823-light/run1009823-light.h5 tag-1497089628//
/work/sebastian/BT-20210625/1009823-light/run1009823-light.h5 tag-1497089630//
/work/sebastian/BT-20210625/1009823-light/run1009823-light.h5 tag-1497089632//
/work/sebastian/BT-20210625/1009823-light/run1009823-light.h5 tag-1497089634//
/work/sebastian/BT-20210625/1009823-light/run1009823-light.h5 tag-1497089638//
/work/sebastian/BT-20210625/1009823-light/run1009823-light.h5 tag-1497089640//
/work/sebastian/BT-20210625/1009823-light/run1009823-light.h5 tag-1497089642//
/work/sebastian/BT-20210625/1009823-light/run1009823-light.h5 tag-1497089644//
/work/sebastian/BT-20210625/1009823-light/run1009823-light.h5 tag-1497089648//
/work/sebastian/BT-20210625/1009823-light/run1009823-light.h5 tag-1497089650//
/work/sebastian/BT-20210625/1009823-light/run1009823-light.h5 tag-1497089652//
/work/sebastian/BT-20210625/1009823-light/run1009823-light.h5 tag-1497089654//
/work/sebastian/BT-20210625/1009823-light/run1009823-light.h5 tag-1497089658//
/work/sebastian/BT-20210625/1009823-light/run1009823-light.h5 tag-1497089662//
/work/sebastian/BT-20210625/1009823-light/run1009823-light.h5 tag-1497089664//
/work/sebastian/BT-20210625/1009823-light/run1009823-light.h5 tag-1497089666//
/work/sebastian/BT-20210625/1009823-light/run1009823-light.h5 tag-1497089670//
/work/sebastian/BT-20210625/1009823-light/run1009823-light.h5 tag-1497089674//
/work/sebastian/BT-20210625/1009823-light/run1009823-light.h5 tag-1497089676//
/work/sebastian/BT-20210625/1009823-light/run1009823-light.h5 tag-1497089678//
/work/sebastian/BT-20210625/1009823-light/run1009823-light.h5 tag-1497089688//
/work/sebastian/BT-20210625/1009823-light/run1009823-light.h5 tag-1497089690//
/work/sebastian/BT-20210625/1009823-light/run1009823-light.h5 tag-1497089692//
/work/sebastian/BT-20210625/1009823-light/run1009823-light.h5 tag-1497089694//
/work/sebastian/BT-20210625/1009823-light/run1009823-light.h5 tag-1497089696//
/work/sebastian/BT-20210625/1009823-light/run1009823-light.h5 tag-1497089698//
/work/sebastian/BT-20210625/1009823-light/run1009823-light.h5 tag-1497089700//
/work/sebastian/BT-20210625/1009823-light/run1009823-light.h5 tag-1497089702//
/work/sebastian/BT-20210625/1009823-light/run1009823-light.h5 tag-1497089704//
/work/sebastian/BT-20210625/1009823-light/run1009823-light.h5 tag-1497089706//
/work/sebastian/BT-20210625/1009823-light/run1009823-light.h5 tag-1497089714//
/work/sebastian/BT-20210625/1009823-light/run1009823-light.h5 tag-1497089716//
/work/sebastian/BT-20210625/1009823-light/run1009823-light.h5 tag-1497089720//
/work/sebastian/BT-20210625/1009823-light/run1009823-light.h5 tag-1497089724//
/work/sebastian/BT-20210625/1009823-light/run1009823-light.h5 tag-1497089732//
/work/sebastian/BT-20210625/1009823-light/run1009823-light.h5 tag-1497089734//
/work/sebastian/BT-20210625/1009823-light/run1009823-light.h5 tag-1497089736//
/work/sebastian/BT-20210625/1009823-light/run1009823-light.h5 tag-1497089738//
/work/sebastian/BT-20210625/1009823-light/run1009823-light.h5 tag-1497089740//
/work/sebastian/BT-20210625/1009823-light/run1009823-light.h5 tag-1497089746//
/work/sebastian/BT-20210625/1009823-light/run1009823-light.h5 tag-1497089748//
/work/sebastian/BT-20210625/1009823-light/run1009823-light.h5 tag-1497089754//
/work/sebastian/BT-20210625/1009823-light/run1009823-light.h5 tag-1497089758//
/work/sebastian/BT-20210625/1009823-light/run1009823-light.h5 tag-1497089762//
/work/sebastian/BT-20210625/1009823-light/run1009823-light.h5 tag-1497089764//
/work/sebastian/BT-20210625/1009823-light/run1009823-light.h5 tag-1497089768//
/work/sebastian/BT-20210625/1009823-light/run1009823-light.h5 tag-1497089770//
/work/sebastian/BT-20210625/1009823-light/run1009823-light.h5 tag-1497089774//
/work/sebastian/BT-20210625/1009823-light/run1009823-light.h5 tag-1497089778//
/work/sebastian/BT-20210625/1009823-light/run1009823-light.h5 tag-1497089784//
/work/sebastian/BT-20210625/1009823-light/run1009823-light.h5 tag-1497089788//
/work/sebastian/BT-20210625/1009823-light/run1009823-light.h5 tag-1497089790//
/work/sebastian/BT-20210625/1009823-light/run1009823-light.h5 tag-1497089792//
/work/sebastian/BT-20210625/1009823-light/run1009823-light.h5 tag-1497089794//
/work/sebastian/BT-20210625/1009823-light/run1009823-light.h5 tag-1497089796//
/work/sebastian/BT-20210625/1009823-light/run1009823-light.h5 tag-1497089802//
/work/sebastian/BT-20210625/1009823-light/run1009823-light.h5 tag-1497089804//
/work/sebastian/BT-20210625/1009823-light/run1009823-light.h5 tag-1497089808//
/work/sebastian/BT-20210625/1009823-light/run1009823-light.h5 tag-1497089810//
/work/sebastian/BT-20210625/1009823-light/run1009823-light.h5 tag-1497089812//
/work/sebastian/BT-20210625/1009823-light/run1009823-light.h5 tag-1497089818//
/work/sebastian/BT-20210625/1009823-light/run1009823-light.h5 tag-1497089820//
/work/sebastian/BT-20210625/1009823-light/run1009823-light.h5 tag-1497089824//
/work/sebastian/BT-20210625/1009823-light/run1009823-light.h5 tag-1497089826//
/work/sebastian/BT-20210625/1009823-light/run1009823-light.h5 tag-1497089828//
/work/sebastian/BT-20210625/1009823-light/run1009823-light.h5 tag-1497089830//
/work/sebastian/BT-20210625/1009823-light/run1009823-light.h5 tag-1497089832//
/work/sebastian/BT-20210625/1009823-light/run1009823-light.h5 tag-1497089836//
/work/sebastian/BT-20210625/1009823-light/run1009823-light.h5 tag-1497089838//
/work/sebastian/BT-20210625/1009823-light/run1009823-light.h5 tag-1497089840//
/work/sebastian/BT-20210625/1009823-light/run1009823-light.h5 tag-1497089844//
/work/sebastian/BT-20210625/1009823-light/run1009823-light.h5 tag-1497089846//
/work/sebastian/BT-20210625/1009823-light/run1009823-light.h5 tag-1497089848//
/work/sebastian/BT-20210625/1009823-light/run1009823-light.h5 tag-1497089850//
/work/sebastian/BT-20210625/1009823-light/run1009823-light.h5 tag-1497089860//
/work/sebastian/BT-20210625/1009823-light/run1009823-light.h5 tag-1497089862//
/work/sebastian/BT-20210625/1009823-light/run1009823-light.h5 tag-1497089868//
/work/sebastian/BT-20210625/1009823-light/run1009823-light.h5 tag-1497089870//
/work/sebastian/BT-20210625/1009823-light/run1009823-light.h5 tag-1497089872//
/work/sebastian/BT-20210625/1009823-light/run1009823-light.h5 tag-1497089876//
/work/sebastian/BT-20210625/1009823-light/run1009823-light.h5 tag-1497089878//
/work/sebastian/BT-20210625/1009823-light/run1009823-light.h5 tag-1497089884//
/work/sebastian/BT-20210625/1009823-light/run1009823-light.h5 tag-1497089886//
/work/sebastian/BT-20210625/1009823-light/run1009823-light.h5 tag-1497089888//
/work/sebastian/BT-20210625/1009823-light/run1009823-light.h5 tag-1497089890//
/work/sebastian/BT-20210625/1009823-light/run1009823-light.h5 tag-1497089892//
/work/sebastian/BT-20210625/1009823-light/run1009823-light.h5 tag-1497089894//
/work/sebastian/BT-20210625/1009823-light/run1009823-light.h5 tag-1497089896//
/work/sebastian/BT-20210625/1009823-light/run1009823-light.h5 tag-1497089898//
/work/sebastian/BT-20210625/1009823-light/run1009823-light.h5 tag-1497089904//
/work/sebastian/BT-20210625/1009823-light/run1009823-light.h5 tag-1497089906//
/work/sebastian/BT-20210625/1009823-light/run1009823-light.h5 tag-1497089912//
/work/sebastian/BT-20210625/1009823-light/run1009823-light.h5 tag-1497089916//
/work/sebastian/BT-20210625/1009823-light/run1009823-light.h5 tag-1497089918//
/work/sebastian/BT-20210625/1009823-light/run1009823-light.h5 tag-1497089924//
/work/sebastian/BT-20210625/1009823-light/run1009823-light.h5 tag-1497089926//
/work/sebastian/BT-20210625/1009823-light/run1009823-light.h5 tag-1497089928//
/work/sebastian/BT-20210625/1009823-light/run1009823-light.h5 tag-1497089932//
/work/sebastian/BT-20210625/1009823-light/run1009823-light.h5 tag-1497089934//
/work/sebastian/BT-20210625/1009823-light/run1009823-light.h5 tag-1497089946//
/work/sebastian/BT-20210625/1009823-light/run1009823-light.h5 tag-1497089950//
/work/sebastian/BT-20210625/1009823-light/run1009823-light.h5 tag-1497089952//
/work/sebastian/BT-20210625/1009823-light/run1009823-light.h5 tag-1497089954//
/work/sebastian/BT-20210625/1009823-light/run1009823-light.h5 tag-1497089956//
/work/sebastian/BT-20210625/1009823-light/run1009823-light.h5 tag-1497089958//
/work/sebastian/BT-20210625/1009823-light/run1009823-light.h5 tag-1497089962//
/work/sebastian/BT-20210625/1009823-light/run1009823-light.h5 tag-1497089964//
/work/sebastian/BT-20210625/1009823-light/run1009823-light.h5 tag-1497089966//
/work/sebastian/BT-20210625/1009823-light/run1009823-light.h5 tag-1497089968//
/work/sebastian/BT-20210625/1009823-light/run1009823-light.h5 tag-1497089970//
/work/sebastian/BT-20210625/1009823-light/run1009823-light.h5 tag-1497089972//
/work/sebastian/BT-20210625/1009823-light/run1009823-light.h5 tag-1497089978//
/work/sebastian/BT-20210625/1009823-light/run1009823-light.h5 tag-1497089986//
/work/sebastian/BT-20210625/1009823-light/run1009823-light.h5 tag-1497089988//
/work/sebastian/BT-20210625/1009823-light/run1009823-light.h5 tag-1497089990//
/work/sebastian/BT-20210625/1009823-light/run1009823-light.h5 tag-1497089992//
/work/sebastian/BT-20210625/1009823-light/run1009823-light.h5 tag-1497089994//
/work/sebastian/BT-20210625/1009823-light/run1009823-light.h5 tag-1497089996//
/work/sebastian/BT-20210625/1009823-light/run1009823-light.h5 tag-1497089998//
/work/sebastian/BT-20210625/1009823-light/run1009823-light.h5 tag-1497090004//
/work/sebastian/BT-20210625/1009823-light/run1009823-light.h5 tag-1497090006//
/work/sebastian/BT-20210625/1009823-light/run1009823-light.h5 tag-1497090008//
/work/sebastian/BT-20210625/1009823-light/run1009823-light.h5 tag-1497090010//
/work/sebastian/BT-20210625/1009823-light/run1009823-light.h5 tag-1497090014//
/work/sebastian/BT-20210625/1009823-light/run1009823-light.h5 tag-1497090024//
/work/sebastian/BT-20210625/1009823-light/run1009823-light.h5 tag-1497090030//
/work/sebastian/BT-20210625/1009823-light/run1009823-light.h5 tag-1497090032//
/work/sebastian/BT-20210625/1009823-light/run1009823-light.h5 tag-1497090036//
/work/sebastian/BT-20210625/1009823-light/run1009823-light.h5 tag-1497090038//
/work/sebastian/BT-20210625/1009823-light/run1009823-light.h5 tag-1497090040//
/work/sebastian/BT-20210625/1009823-light/run1009823-light.h5 tag-1497090046//
/work/sebastian/BT-20210625/1009823-light/run1009823-light.h5 tag-1497090052//
/work/sebastian/BT-20210625/1009823-light/run1009823-light.h5 tag-1497090054//
/work/sebastian/BT-20210625/1009823-light/run1009823-light.h5 tag-1497090058//
/work/sebastian/BT-20210625/1009823-light/run1009823-light.h5 tag-1497090060//
/work/sebastian/BT-20210625/1009823-light/run1009823-light.h5 tag-1497090062//
/work/sebastian/BT-20210625/1009823-light/run1009823-light.h5 tag-1497090066//
/work/sebastian/BT-20210625/1009823-light/run1009823-light.h5 tag-1497090068//
/work/sebastian/BT-20210625/1009823-light/run1009823-light.h5 tag-1497090072//
/work/sebastian/BT-20210625/1009823-light/run1009823-light.h5 tag-1497090074//
/work/sebastian/BT-20210625/1009823-light/run1009823-light.h5 tag-1497090076//
/work/sebastian/BT-20210625/1009823-light/run1009823-light.h5 tag-1497090078//
/work/sebastian/BT-20210625/1009823-light/run1009823-light.h5 tag-1497090080//
/work/sebastian/BT-20210625/1009823-light/run1009823-light.h5 tag-1497090082//
/work/sebastian/BT-20210625/1009823-light/run1009823-light.h5 tag-1497090084//
/work/sebastian/BT-20210625/1009823-light/run1009823-light.h5 tag-1497090088//
/work/sebastian/BT-20210625/1009823-light/run1009823-light.h5 tag-1497090090//
/work/sebastian/BT-20210625/1009823-light/run1009823-light.h5 tag-1497090092//
/work/sebastian/BT-20210625/1009823-light/run1009823-light.h5 tag-1497090104//
/work/sebastian/BT-20210625/1009823-light/run1009823-light.h5 tag-1497090106//
/work/sebastian/BT-20210625/1009823-light/run1009823-light.h5 tag-1497090110//
/work/sebastian/BT-20210625/1009823-light/run1009823-light.h5 tag-1497090112//
/work/sebastian/BT-20210625/1009823-light/run1009823-light.h5 tag-1497090114//
/work/sebastian/BT-20210625/1009823-light/run1009823-light.h5 tag-1497090118//
/work/sebastian/BT-20210625/1009823-light/run1009823-light.h5 tag-1497090122//
/work/sebastian/BT-20210625/1009823-light/run1009823-light.h5 tag-1497090124//
/work/sebastian/BT-20210625/1009823-light/run1009823-light.h5 tag-1497090126//
/work/sebastian/BT-20210625/1009823-light/run1009823-light.h5 tag-1497090128//
/work/sebastian/BT-20210625/1009823-light/run1009823-light.h5 tag-1497090132//
/work/sebastian/BT-20210625/1009823-light/run1009823-light.h5 tag-1497090134//
/work/sebastian/BT-20210625/1009823-light/run1009823-light.h5 tag-1497090136//
/work/sebastian/BT-20210625/1009823-light/run1009823-light.h5 tag-1497090140//
/work/sebastian/BT-20210625/1009823-light/run1009823-light.h5 tag-1497090142//
/work/sebastian/BT-20210625/1009823-light/run1009823-light.h5 tag-1497090146//
/work/sebastian/BT-20210625/1009823-light/run1009823-light.h5 tag-1497090152//
/work/sebastian/BT-20210625/1009823-light/run1009823-light.h5 tag-1497090154//
/work/sebastian/BT-20210625/1009823-light/run1009823-light.h5 tag-1497090156//
/work/sebastian/BT-20210625/1009823-light/run1009823-light.h5 tag-1497090158//
/work/sebastian/BT-20210625/1009823-light/run1009823-light.h5 tag-1497090160//
/work/sebastian/BT-20210625/1009823-light/run1009823-light.h5 tag-1497090162//
/work/sebastian/BT-20210625/1009823-light/run1009823-light.h5 tag-1497090164//
/work/sebastian/BT-20210625/1009823-light/run1009823-light.h5 tag-1497090166//
/work/sebastian/BT-20210625/1009823-light/run1009823-light.h5 tag-1497090170//
/work/sebastian/BT-20210625/1009823-light/run1009823-light.h5 tag-1497090174//
/work/sebastian/BT-20210625/1009823-light/run1009823-light.h5 tag-1497090176//
/work/sebastian/BT-20210625/1009823-light/run1009823-light.h5 tag-1497090180//
/work/sebastian/BT-20210625/1009823-light/run1009823-light.h5 tag-1497090186//
/work/sebastian/BT-20210625/1009823-light/run1009823-light.h5 tag-1497090188//
/work/sebastian/BT-20210625/1009823-light/run1009823-light.h5 tag-1497090190//
/work/sebastian/BT-20210625/1009823-light/run1009823-light.h5 tag-1497090194//
/work/sebastian/BT-20210625/1009823-light/run1009823-light.h5 tag-1497090198//
/work/sebastian/BT-20210625/1009823-light/run1009823-light.h5 tag-1497090200//
/work/sebastian/BT-20210625/1009823-light/run1009823-light.h5 tag-1497090202//
/work/sebastian/BT-20210625/1009823-light/run1009823-light.h5 tag-1497090206//
/work/sebastian/BT-20210625/1009823-light/run1009823-light.h5 tag-1497090210//
/work/sebastian/BT-20210625/1009823-light/run1009823-light.h5 tag-1497090212//
/work/sebastian/BT-20210625/1009823-light/run1009823-light.h5 tag-1497090214//
/work/sebastian/BT-20210625/1009823-light/run1009823-light.h5 tag-1497090220//
/work/sebastian/BT-20210625/1009823-light/run1009823-light.h5 tag-1497090222//
/work/sebastian/BT-20210625/1009823-light/run1009823-light.h5 tag-1497090226//
/work/sebastian/BT-20210625/1009823-light/run1009823-light.h5 tag-1497090228//
/work/sebastian/BT-20210625/1009823-light/run1009823-light.h5 tag-1497090230//
/work/sebastian/BT-20210625/1009823-light/run1009823-light.h5 tag-1497090232//
/work/sebastian/BT-20210625/1009823-light/run1009823-light.h5 tag-1497090244//
/work/sebastian/BT-20210625/1009823-light/run1009823-light.h5 tag-1497090246//
/work/sebastian/BT-20210625/1009823-light/run1009823-light.h5 tag-1497090248//
/work/sebastian/BT-20210625/1009823-light/run1009823-light.h5 tag-1497090250//
/work/sebastian/BT-20210625/1009823-light/run1009823-light.h5 tag-1497090254//
/work/sebastian/BT-20210625/1009823-light/run1009823-light.h5 tag-1497090256//
/work/sebastian/BT-20210625/1009823-light/run1009823-light.h5 tag-1497090260//
/work/sebastian/BT-20210625/1009823-light/run1009823-light.h5 tag-1497090262//
/work/sebastian/BT-20210625/1009823-light/run1009823-light.h5 tag-1497090266//
/work/sebastian/BT-20210625/1009823-light/run1009823-light.h5 tag-1497090268//
/work/sebastian/BT-20210625/1009823-light/run1009823-light.h5 tag-1497090272//
/work/sebastian/BT-20210625/1009823-light/run1009823-light.h5 tag-1497090274//
/work/sebastian/BT-20210625/1009823-light/run1009823-light.h5 tag-1497090276//
/work/sebastian/BT-20210625/1009823-light/run1009823-light.h5 tag-1497090278//
/work/sebastian/BT-20210625/1009823-light/run1009823-light.h5 tag-1497090280//
/work/sebastian/BT-20210625/1009823-light/run1009823-light.h5 tag-1497090282//
/work/sebastian/BT-20210625/1009823-light/run1009823-light.h5 tag-1497090284//
/work/sebastian/BT-20210625/1009823-light/run1009823-light.h5 tag-1497090288//
/work/sebastian/BT-20210625/1009823-light/run1009823-light.h5 tag-1497090290//
/work/sebastian/BT-20210625/1009823-light/run1009823-light.h5 tag-1497090292//
/work/sebastian/BT-20210625/1009823-light/run1009823-light.h5 tag-1497090294//
/work/sebastian/BT-20210625/1009823-light/run1009823-light.h5 tag-1497090296//
/work/sebastian/BT-20210625/1009823-light/run1009823-light.h5 tag-1497090298//
/work/sebastian/BT-20210625/1009823-light/run1009823-light.h5 tag-1497090302//
/work/sebastian/BT-20210625/1009823-light/run1009823-light.h5 tag-1497090304//
/work/sebastian/BT-20210625/1009823-light/run1009823-light.h5 tag-1497090306//
/work/sebastian/BT-20210625/1009823-light/run1009823-light.h5 tag-1497090308//
/work/sebastian/BT-20210625/1009823-light/run1009823-light.h5 tag-1497090310//
/work/sebastian/BT-20210625/1009823-light/run1009823-light.h5 tag-1497090312//
/work/sebastian/BT-20210625/1009823-light/run1009823-light.h5 tag-1497090314//
/work/sebastian/BT-20210625/1009823-light/run1009823-light.h5 tag-1497090316//
/work/sebastian/BT-20210625/1009823-light/run1009823-light.h5 tag-1497090318//
/work/sebastian/BT-20210625/1009823-light/run1009823-light.h5 tag-1497090322//
/work/sebastian/BT-20210625/1009823-light/run1009823-light.h5 tag-1497090330//
/work/sebastian/BT-20210625/1009823-light/run1009823-light.h5 tag-1497090334//
/work/sebastian/BT-20210625/1009823-light/run1009823-light.h5 tag-1497090336//
/work/sebastian/BT-20210625/1009823-light/run1009823-light.h5 tag-1497090342//
/work/sebastian/BT-20210625/1009823-light/run1009823-light.h5 tag-1497090344//
/work/sebastian/BT-20210625/1009823-light/run1009823-light.h5 tag-1497090346//
/work/sebastian/BT-20210625/1009823-light/run1009823-light.h5 tag-1497090348//
/work/sebastian/BT-20210625/1009823-light/run1009823-light.h5 tag-1497090350//
/work/sebastian/BT-20210625/1009823-light/run1009823-light.h5 tag-1497090352//
/work/sebastian/BT-20210625/1009823-light/run1009823-light.h5 tag-1497090358//
/work/sebastian/BT-20210625/1009823-light/run1009823-light.h5 tag-1497090362//
/work/sebastian/BT-20210625/1009823-light/run1009823-light.h5 tag-1497090368//
/work/sebastian/BT-20210625/1009823-light/run1009823-light.h5 tag-1497090370//
/work/sebastian/BT-20210625/1009823-light/run1009823-light.h5 tag-1497090372//
/work/sebastian/BT-20210625/1009823-light/run1009823-light.h5 tag-1497090374//
/work/sebastian/BT-20210625/1009823-light/run1009823-light.h5 tag-1497090376//
/work/sebastian/BT-20210625/1009823-light/run1009823-light.h5 tag-1497090378//
/work/sebastian/BT-20210625/1009823-light/run1009823-light.h5 tag-1497090382//
/work/sebastian/BT-20210625/1009823-light/run1009823-light.h5 tag-1497090384//
/work/sebastian/BT-20210625/1009823-light/run1009823-light.h5 tag-1497090386//
/work/sebastian/BT-20210625/1009823-light/run1009823-light.h5 tag-1497090388//
/work/sebastian/BT-20210625/1009823-light/run1009823-light.h5 tag-1497090390//
/work/sebastian/BT-20210625/1009823-light/run1009823-light.h5 tag-1497090402//
/work/sebastian/BT-20210625/1009823-light/run1009823-light.h5 tag-1497090404//
/work/sebastian/BT-20210625/1009823-light/run1009823-light.h5 tag-1497090406//
/work/sebastian/BT-20210625/1009823-light/run1009823-light.h5 tag-1497090414//
/work/sebastian/BT-20210625/1009823-light/run1009823-light.h5 tag-1497090418//
/work/sebastian/BT-20210625/1009823-light/run1009823-light.h5 tag-1497090420//
/work/sebastian/BT-20210625/1009823-light/run1009823-light.h5 tag-1497090422//
/work/sebastian/BT-20210625/1009823-light/run1009823-light.h5 tag-1497090426//
/work/sebastian/BT-20210625/1009823-light/run1009823-light.h5 tag-1497090432//
/work/sebastian/BT-20210625/1009823-light/run1009823-light.h5 tag-1497090434//
/work/sebastian/BT-20210625/1009823-light/run1009823-light.h5 tag-1497090436//
/work/sebastian/BT-20210625/1009823-light/run1009823-light.h5 tag-1497090444//
/work/sebastian/BT-20210625/1009823-light/run1009823-light.h5 tag-1497090446//
/work/sebastian/BT-20210625/1009823-light/run1009823-light.h5 tag-1497090452//
/work/sebastian/BT-20210625/1009823-light/run1009823-light.h5 tag-1497090454//
/work/sebastian/BT-20210625/1009823-light/run1009823-light.h5 tag-1497090456//
/work/sebastian/BT-20210625/1009823-light/run1009823-light.h5 tag-1497090468//
/work/sebastian/BT-20210625/1009823-light/run1009823-light.h5 tag-1497090470//
/work/sebastian/BT-20210625/1009823-light/run1009823-light.h5 tag-1497090474//
/work/sebastian/BT-20210625/1009823-light/run1009823-light.h5 tag-1497090476//
/work/sebastian/BT-20210625/1009823-light/run1009823-light.h5 tag-1497090478//
/work/sebastian/BT-20210625/1009823-light/run1009823-light.h5 tag-1497090480//
/work/sebastian/BT-20210625/1009823-light/run1009823-light.h5 tag-1497090482//
/work/sebastian/BT-20210625/1009823-light/run1009823-light.h5 tag-1497090486//
/work/sebastian/BT-20210625/1009823-light/run1009823-light.h5 tag-1497090488//
/work/sebastian/BT-20210625/1009823-light/run1009823-light.h5 tag-1497090490//
/work/sebastian/BT-20210625/1009823-light/run1009823-light.h5 tag-1497090494//
/work/sebastian/BT-20210625/1009823-light/run1009823-light.h5 tag-1497090496//
/work/sebastian/BT-20210625/1009823-light/run1009823-light.h5 tag-1497090498//
/work/sebastian/BT-20210625/1009823-light/run1009823-light.h5 tag-1497090502//
/work/sebastian/BT-20210625/1009823-light/run1009823-light.h5 tag-1497090504//
/work/sebastian/BT-20210625/1009823-light/run1009823-light.h5 tag-1497090510//
/work/sebastian/BT-20210625/1009823-light/run1009823-light.h5 tag-1497090514//
/work/sebastian/BT-20210625/1009823-light/run1009823-light.h5 tag-1497090518//
/work/sebastian/BT-20210625/1009823-light/run1009823-light.h5 tag-1497090520//
/work/sebastian/BT-20210625/1009823-light/run1009823-light.h5 tag-1497090524//
/work/sebastian/BT-20210625/1009823-light/run1009823-light.h5 tag-1497090526//
/work/sebastian/BT-20210625/1009823-light/run1009823-light.h5 tag-1497090532//
/work/sebastian/BT-20210625/1009823-light/run1009823-light.h5 tag-1497090538//
/work/sebastian/BT-20210625/1009823-light/run1009823-light.h5 tag-1497090540//
/work/sebastian/BT-20210625/1009823-light/run1009823-light.h5 tag-1497090544//
/work/sebastian/BT-20210625/1009823-light/run1009823-light.h5 tag-1497090546//
/work/sebastian/BT-20210625/1009823-light/run1009823-light.h5 tag-1497090548//
/work/sebastian/BT-20210625/1009823-light/run1009823-light.h5 tag-1497090552//
/work/sebastian/BT-20210625/1009823-light/run1009823-light.h5 tag-1497090554//
/work/sebastian/BT-20210625/1009823-light/run1009823-light.h5 tag-1497090558//
/work/sebastian/BT-20210625/1009823-light/run1009823-light.h5 tag-1497090560//
/work/sebastian/BT-20210625/1009823-light/run1009823-light.h5 tag-1497090564//
/work/sebastian/BT-20210625/1009823-light/run1009823-light.h5 tag-1497090570//
/work/sebastian/BT-20210625/1009823-light/run1009823-light.h5 tag-1497090572//
/work/sebastian/BT-20210625/1009823-light/run1009823-light.h5 tag-1497090574//
/work/sebastian/BT-20210625/1009823-light/run1009823-light.h5 tag-1497090576//
/work/sebastian/BT-20210625/1009823-light/run1009823-light.h5 tag-1497090580//
/work/sebastian/BT-20210625/1009823-light/run1009823-light.h5 tag-1497090588//
/work/sebastian/BT-20210625/1009823-light/run1009823-light.h5 tag-1497090592//
/work/sebastian/BT-20210625/1009823-light/run1009823-light.h5 tag-1497090594//
/work/sebastian/BT-20210625/1009823-light/run1009823-light.h5 tag-1497090596//
/work/sebastian/BT-20210625/1009823-light/run1009823-light.h5 tag-1497090598//
/work/sebastian/BT-20210625/1009823-light/run1009823-light.h5 tag-1497090602//
/work/sebastian/BT-20210625/1009823-light/run1009823-light.h5 tag-1497090604//
/work/sebastian/BT-20210625/1009823-light/run1009823-light.h5 tag-1497090606//
/work/sebastian/BT-20210625/1009823-light/run1009823-light.h5 tag-1497090610//
/work/sebastian/BT-20210625/1009823-light/run1009823-light.h5 tag-1497090614//
/work/sebastian/BT-20210625/1009823-light/run1009823-light.h5 tag-1497090616//
/work/sebastian/BT-20210625/1009823-light/run1009823-light.h5 tag-1497090618//
/work/sebastian/BT-20210625/1009823-light/run1009823-light.h5 tag-1497090620//
/work/sebastian/BT-20210625/1009823-light/run1009823-light.h5 tag-1497090624//
/work/sebastian/BT-20210625/1009823-light/run1009823-light.h5 tag-1497090626//
/work/sebastian/BT-20210625/1009823-light/run1009823-light.h5 tag-1497090632//
/work/sebastian/BT-20210625/1009823-light/run1009823-light.h5 tag-1497090634//
/work/sebastian/BT-20210625/1009823-light/run1009823-light.h5 tag-1497090638//
/work/sebastian/BT-20210625/1009823-light/run1009823-light.h5 tag-1497090640//
/work/sebastian/BT-20210625/1009823-light/run1009823-light.h5 tag-1497090646//
/work/sebastian/BT-20210625/1009823-light/run1009823-light.h5 tag-1497090650//
/work/sebastian/BT-20210625/1009823-light/run1009823-light.h5 tag-1497090652//
/work/sebastian/BT-20210625/1009823-light/run1009823-light.h5 tag-1497090654//
/work/sebastian/BT-20210625/1009823-light/run1009823-light.h5 tag-1497090658//
/work/sebastian/BT-20210625/1009823-light/run1009823-light.h5 tag-1497090660//
/work/sebastian/BT-20210625/1009823-light/run1009823-light.h5 tag-1497090666//
/work/sebastian/BT-20210625/1009823-light/run1009823-light.h5 tag-1497090668//
/work/sebastian/BT-20210625/1009823-light/run1009823-light.h5 tag-1497090672//
/work/sebastian/BT-20210625/1009823-light/run1009823-light.h5 tag-1497090674//
/work/sebastian/BT-20210625/1009823-light/run1009823-light.h5 tag-1497090676//
/work/sebastian/BT-20210625/1009823-light/run1009823-light.h5 tag-1497090680//
/work/sebastian/BT-20210625/1009823-light/run1009823-light.h5 tag-1497090684//
/work/sebastian/BT-20210625/1009823-light/run1009823-light.h5 tag-1497090688//
/work/sebastian/BT-20210625/1009823-light/run1009823-light.h5 tag-1497090690//
/work/sebastian/BT-20210625/1009823-light/run1009823-light.h5 tag-1497090692//
/work/sebastian/BT-20210625/1009823-light/run1009823-light.h5 tag-1497090696//
/work/sebastian/BT-20210625/1009823-light/run1009823-light.h5 tag-1497090700//
/work/sebastian/BT-20210625/1009823-light/run1009823-light.h5 tag-1497090702//
/work/sebastian/BT-20210625/1009823-light/run1009823-light.h5 tag-1497090710//
/work/sebastian/BT-20210625/1009823-light/run1009823-light.h5 tag-1497090712//
/work/sebastian/BT-20210625/1009823-light/run1009823-light.h5 tag-1497090716//
/work/sebastian/BT-20210625/1009823-light/run1009823-light.h5 tag-1497090724//
/work/sebastian/BT-20210625/1009823-light/run1009823-light.h5 tag-1497090726//
/work/sebastian/BT-20210625/1009823-light/run1009823-light.h5 tag-1497090728//
/work/sebastian/BT-20210625/1009823-light/run1009823-light.h5 tag-1497090730//
/work/sebastian/BT-20210625/1009823-light/run1009823-light.h5 tag-1497090732//
/work/sebastian/BT-20210625/1009823-light/run1009823-light.h5 tag-1497090734//
/work/sebastian/BT-20210625/1009823-light/run1009823-light.h5 tag-1497090736//
/work/sebastian/BT-20210625/1009823-light/run1009823-light.h5 tag-1497090738//
/work/sebastian/BT-20210625/1009823-light/run1009823-light.h5 tag-1497090740//
/work/sebastian/BT-20210625/1009823-light/run1009823-light.h5 tag-1497090742//
/work/sebastian/BT-20210625/1009823-light/run1009823-light.h5 tag-1497090744//
/work/sebastian/BT-20210625/1009823-light/run1009823-light.h5 tag-1497090748//
/work/sebastian/BT-20210625/1009823-light/run1009823-light.h5 tag-1497090750//
/work/sebastian/BT-20210625/1009823-light/run1009823-light.h5 tag-1497090754//
/work/sebastian/BT-20210625/1009823-light/run1009823-light.h5 tag-1497090756//
/work/sebastian/BT-20210625/1009823-light/run1009823-light.h5 tag-1497090760//
/work/sebastian/BT-20210625/1009823-light/run1009823-light.h5 tag-1497090762//
/work/sebastian/BT-20210625/1009823-light/run1009823-light.h5 tag-1497090768//
/work/sebastian/BT-20210625/1009823-light/run1009823-light.h5 tag-1497090770//
/work/sebastian/BT-20210625/1009823-light/run1009823-light.h5 tag-1497090772//
/work/sebastian/BT-20210625/1009823-light/run1009823-light.h5 tag-1497090774//
/work/sebastian/BT-20210625/1009823-light/run1009823-light.h5 tag-1497090776//
/work/sebastian/BT-20210625/1009823-light/run1009823-light.h5 tag-1497090782//
/work/sebastian/BT-20210625/1009823-light/run1009823-light.h5 tag-1497090786//
/work/sebastian/BT-20210625/1009823-light/run1009823-light.h5 tag-1497090788//
/work/sebastian/BT-20210625/1009823-light/run1009823-light.h5 tag-1497090790//
/work/sebastian/BT-20210625/1009823-light/run1009823-light.h5 tag-1497090792//
/work/sebastian/BT-20210625/1009823-light/run1009823-light.h5 tag-1497090802//
/work/sebastian/BT-20210625/1009823-light/run1009823-light.h5 tag-1497090804//
/work/sebastian/BT-20210625/1009823-light/run1009823-light.h5 tag-1497090806//
/work/sebastian/BT-20210625/1009823-light/run1009823-light.h5 tag-1497090808//
/work/sebastian/BT-20210625/1009823-light/run1009823-light.h5 tag-1497090810//
/work/sebastian/BT-20210625/1009823-light/run1009823-light.h5 tag-1497090814//
/work/sebastian/BT-20210625/1009823-light/run1009823-light.h5 tag-1497090816//
/work/sebastian/BT-20210625/1009823-light/run1009823-light.h5 tag-1497090818//
/work/sebastian/BT-20210625/1009823-light/run1009823-light.h5 tag-1497090820//
/work/sebastian/BT-20210625/1009823-light/run1009823-light.h5 tag-1497090822//
/work/sebastian/BT-20210625/1009823-light/run1009823-light.h5 tag-1497090824//
/work/sebastian/BT-20210625/1009823-light/run1009823-light.h5 tag-1497090828//
/work/sebastian/BT-20210625/1009823-light/run1009823-light.h5 tag-1497090830//
/work/sebastian/BT-20210625/1009823-light/run1009823-light.h5 tag-1497090832//
/work/sebastian/BT-20210625/1009823-light/run1009823-light.h5 tag-1497090836//
/work/sebastian/BT-20210625/1009823-light/run1009823-light.h5 tag-1497090838//
/work/sebastian/BT-20210625/1009823-light/run1009823-light.h5 tag-1497090844//
/work/sebastian/BT-20210625/1009823-light/run1009823-light.h5 tag-1497090846//
/work/sebastian/BT-20210625/1009823-light/run1009823-light.h5 tag-1497090850//
/work/sebastian/BT-20210625/1009823-light/run1009823-light.h5 tag-1497090862//
/work/sebastian/BT-20210625/1009823-light/run1009823-light.h5 tag-1497090864//
/work/sebastian/BT-20210625/1009823-light/run1009823-light.h5 tag-1497090868//
/work/sebastian/BT-20210625/1009823-light/run1009823-light.h5 tag-1497090870//
/work/sebastian/BT-20210625/1009823-light/run1009823-light.h5 tag-1497090874//
/work/sebastian/BT-20210625/1009823-light/run1009823-light.h5 tag-1497090878//
/work/sebastian/BT-20210625/1009823-light/run1009823-light.h5 tag-1497090880//
/work/sebastian/BT-20210625/1009823-light/run1009823-light.h5 tag-1497090882//
/work/sebastian/BT-20210625/1009823-light/run1009823-light.h5 tag-1497090884//
/work/sebastian/BT-20210625/1009823-light/run1009823-light.h5 tag-1497090886//
/work/sebastian/BT-20210625/1009823-light/run1009823-light.h5 tag-1497090890//
/work/sebastian/BT-20210625/1009823-light/run1009823-light.h5 tag-1497090894//
/work/sebastian/BT-20210625/1009823-light/run1009823-light.h5 tag-1497090898//
/work/sebastian/BT-20210625/1009823-light/run1009823-light.h5 tag-1497090900//
/work/sebastian/BT-20210625/1009823-light/run1009823-light.h5 tag-1497090902//
/work/sebastian/BT-20210625/1009823-light/run1009823-light.h5 tag-1497090904//
/work/sebastian/BT-20210625/1009823-light/run1009823-light.h5 tag-1497090906//
/work/sebastian/BT-20210625/1009823-light/run1009823-light.h5 tag-1497090908//
/work/sebastian/BT-20210625/1009823-light/run1009823-light.h5 tag-1497090910//
/work/sebastian/BT-20210625/1009823-light/run1009823-light.h5 tag-1497090912//
/work/sebastian/BT-20210625/1009823-light/run1009823-light.h5 tag-1497090916//
/work/sebastian/BT-20210625/1009823-light/run1009823-light.h5 tag-1497090918//
/work/sebastian/BT-20210625/1009823-light/run1009823-light.h5 tag-1497090922//
/work/sebastian/BT-20210625/1009823-light/run1009823-light.h5 tag-1497090926//
/work/sebastian/BT-20210625/1009823-light/run1009823-light.h5 tag-1497090932//
/work/sebastian/BT-20210625/1009823-light/run1009823-light.h5 tag-1497090936//
/work/sebastian/BT-20210625/1009823-light/run1009823-light.h5 tag-1497090940//
/work/sebastian/BT-20210625/1009823-light/run1009823-light.h5 tag-1497090946//
/work/sebastian/BT-20210625/1009823-light/run1009823-light.h5 tag-1497090952//
/work/sebastian/BT-20210625/1009823-light/run1009823-light.h5 tag-1497090954//
/work/sebastian/BT-20210625/1009823-light/run1009823-light.h5 tag-1497090960//
/work/sebastian/BT-20210625/1009823-light/run1009823-light.h5 tag-1497090962//
/work/sebastian/BT-20210625/1009823-light/run1009823-light.h5 tag-1497090966//
/work/sebastian/BT-20210625/1009823-light/run1009823-light.h5 tag-1497090968//
/work/sebastian/BT-20210625/1009823-light/run1009823-light.h5 tag-1497090972//
/work/sebastian/BT-20210625/1009823-light/run1009823-light.h5 tag-1497090974//
/work/sebastian/BT-20210625/1009823-light/run1009823-light.h5 tag-1497090976//
/work/sebastian/BT-20210625/1009823-light/run1009823-light.h5 tag-1497090980//
/work/sebastian/BT-20210625/1009823-light/run1009823-light.h5 tag-1497090982//
/work/sebastian/BT-20210625/1009823-light/run1009823-light.h5 tag-1497090992//
/work/sebastian/BT-20210625/1009823-light/run1009823-light.h5 tag-1497090994//
/work/sebastian/BT-20210625/1009823-light/run1009823-light.h5 tag-1497090996//
/work/sebastian/BT-20210625/1009823-light/run1009823-light.h5 tag-1497091000//
/work/sebastian/BT-20210625/1009823-light/run1009823-light.h5 tag-1497091002//
/work/sebastian/BT-20210625/1009823-light/run1009823-light.h5 tag-1497091004//
/work/sebastian/BT-20210625/1009823-light/run1009823-light.h5 tag-1497091006//
/work/sebastian/BT-20210625/1009823-light/run1009823-light.h5 tag-1497091008//
/work/sebastian/BT-20210625/1009823-light/run1009823-light.h5 tag-1497091010//
/work/sebastian/BT-20210625/1009823-light/run1009823-light.h5 tag-1497091018//
/work/sebastian/BT-20210625/1009823-light/run1009823-light.h5 tag-1497091022//
/work/sebastian/BT-20210625/1009823-light/run1009823-light.h5 tag-1497091026//
/work/sebastian/BT-20210625/1009823-light/run1009823-light.h5 tag-1497091030//
/work/sebastian/BT-20210625/1009823-light/run1009823-light.h5 tag-1497091032//
/work/sebastian/BT-20210625/1009823-light/run1009823-light.h5 tag-1497091034//
/work/sebastian/BT-20210625/1009823-light/run1009823-light.h5 tag-1497091038//
/work/sebastian/BT-20210625/1009823-light/run1009823-light.h5 tag-1497091042//
/work/sebastian/BT-20210625/1009823-light/run1009823-light.h5 tag-1497091050//
/work/sebastian/BT-20210625/1009823-light/run1009823-light.h5 tag-1497091052//
/work/sebastian/BT-20210625/1009823-light/run1009823-light.h5 tag-1497091054//
