/work/sebastian/BT-20210625/1009781-light/run1009781-light.h5 tag-1496802562//
/work/sebastian/BT-20210625/1009781-light/run1009781-light.h5 tag-1496802564//
/work/sebastian/BT-20210625/1009781-light/run1009781-light.h5 tag-1496802572//
/work/sebastian/BT-20210625/1009781-light/run1009781-light.h5 tag-1496802574//
/work/sebastian/BT-20210625/1009781-light/run1009781-light.h5 tag-1496802586//
/work/sebastian/BT-20210625/1009781-light/run1009781-light.h5 tag-1496802588//
/work/sebastian/BT-20210625/1009781-light/run1009781-light.h5 tag-1496802590//
/work/sebastian/BT-20210625/1009781-light/run1009781-light.h5 tag-1496802596//
/work/sebastian/BT-20210625/1009781-light/run1009781-light.h5 tag-1496802602//
/work/sebastian/BT-20210625/1009781-light/run1009781-light.h5 tag-1496802604//
/work/sebastian/BT-20210625/1009781-light/run1009781-light.h5 tag-1496802606//
/work/sebastian/BT-20210625/1009781-light/run1009781-light.h5 tag-1496802610//
/work/sebastian/BT-20210625/1009781-light/run1009781-light.h5 tag-1496802614//
/work/sebastian/BT-20210625/1009781-light/run1009781-light.h5 tag-1496802616//
/work/sebastian/BT-20210625/1009781-light/run1009781-light.h5 tag-1496802618//
/work/sebastian/BT-20210625/1009781-light/run1009781-light.h5 tag-1496802620//
/work/sebastian/BT-20210625/1009781-light/run1009781-light.h5 tag-1496802624//
/work/sebastian/BT-20210625/1009781-light/run1009781-light.h5 tag-1496802626//
/work/sebastian/BT-20210625/1009781-light/run1009781-light.h5 tag-1496802630//
/work/sebastian/BT-20210625/1009781-light/run1009781-light.h5 tag-1496802634//
/work/sebastian/BT-20210625/1009781-light/run1009781-light.h5 tag-1496802636//
/work/sebastian/BT-20210625/1009781-light/run1009781-light.h5 tag-1496802638//
/work/sebastian/BT-20210625/1009781-light/run1009781-light.h5 tag-1496802640//
/work/sebastian/BT-20210625/1009781-light/run1009781-light.h5 tag-1496802652//
/work/sebastian/BT-20210625/1009781-light/run1009781-light.h5 tag-1496802656//
/work/sebastian/BT-20210625/1009781-light/run1009781-light.h5 tag-1496802658//
/work/sebastian/BT-20210625/1009781-light/run1009781-light.h5 tag-1496802660//
/work/sebastian/BT-20210625/1009781-light/run1009781-light.h5 tag-1496802664//
/work/sebastian/BT-20210625/1009781-light/run1009781-light.h5 tag-1496802666//
/work/sebastian/BT-20210625/1009781-light/run1009781-light.h5 tag-1496802668//
/work/sebastian/BT-20210625/1009781-light/run1009781-light.h5 tag-1496802672//
/work/sebastian/BT-20210625/1009781-light/run1009781-light.h5 tag-1496802674//
/work/sebastian/BT-20210625/1009781-light/run1009781-light.h5 tag-1496802676//
/work/sebastian/BT-20210625/1009781-light/run1009781-light.h5 tag-1496802678//
/work/sebastian/BT-20210625/1009781-light/run1009781-light.h5 tag-1496802680//
/work/sebastian/BT-20210625/1009781-light/run1009781-light.h5 tag-1496802686//
/work/sebastian/BT-20210625/1009781-light/run1009781-light.h5 tag-1496802688//
/work/sebastian/BT-20210625/1009781-light/run1009781-light.h5 tag-1496802690//
/work/sebastian/BT-20210625/1009781-light/run1009781-light.h5 tag-1496802692//
/work/sebastian/BT-20210625/1009781-light/run1009781-light.h5 tag-1496802696//
/work/sebastian/BT-20210625/1009781-light/run1009781-light.h5 tag-1496802700//
/work/sebastian/BT-20210625/1009781-light/run1009781-light.h5 tag-1496802704//
/work/sebastian/BT-20210625/1009781-light/run1009781-light.h5 tag-1496802706//
/work/sebastian/BT-20210625/1009781-light/run1009781-light.h5 tag-1496802710//
/work/sebastian/BT-20210625/1009781-light/run1009781-light.h5 tag-1496802712//
/work/sebastian/BT-20210625/1009781-light/run1009781-light.h5 tag-1496802716//
/work/sebastian/BT-20210625/1009781-light/run1009781-light.h5 tag-1496802718//
/work/sebastian/BT-20210625/1009781-light/run1009781-light.h5 tag-1496802720//
/work/sebastian/BT-20210625/1009781-light/run1009781-light.h5 tag-1496802722//
/work/sebastian/BT-20210625/1009781-light/run1009781-light.h5 tag-1496802732//
/work/sebastian/BT-20210625/1009781-light/run1009781-light.h5 tag-1496802734//
/work/sebastian/BT-20210625/1009781-light/run1009781-light.h5 tag-1496802738//
/work/sebastian/BT-20210625/1009781-light/run1009781-light.h5 tag-1496802744//
/work/sebastian/BT-20210625/1009781-light/run1009781-light.h5 tag-1496802746//
/work/sebastian/BT-20210625/1009781-light/run1009781-light.h5 tag-1496802748//
/work/sebastian/BT-20210625/1009781-light/run1009781-light.h5 tag-1496802752//
/work/sebastian/BT-20210625/1009781-light/run1009781-light.h5 tag-1496802756//
/work/sebastian/BT-20210625/1009781-light/run1009781-light.h5 tag-1496802758//
/work/sebastian/BT-20210625/1009781-light/run1009781-light.h5 tag-1496802760//
/work/sebastian/BT-20210625/1009781-light/run1009781-light.h5 tag-1496802764//
/work/sebastian/BT-20210625/1009781-light/run1009781-light.h5 tag-1496802766//
/work/sebastian/BT-20210625/1009781-light/run1009781-light.h5 tag-1496802768//
/work/sebastian/BT-20210625/1009781-light/run1009781-light.h5 tag-1496802770//
/work/sebastian/BT-20210625/1009781-light/run1009781-light.h5 tag-1496802772//
/work/sebastian/BT-20210625/1009781-light/run1009781-light.h5 tag-1496802776//
/work/sebastian/BT-20210625/1009781-light/run1009781-light.h5 tag-1496802778//
/work/sebastian/BT-20210625/1009781-light/run1009781-light.h5 tag-1496802780//
/work/sebastian/BT-20210625/1009781-light/run1009781-light.h5 tag-1496802782//
/work/sebastian/BT-20210625/1009781-light/run1009781-light.h5 tag-1496802790//
/work/sebastian/BT-20210625/1009781-light/run1009781-light.h5 tag-1496802792//
/work/sebastian/BT-20210625/1009781-light/run1009781-light.h5 tag-1496802796//
/work/sebastian/BT-20210625/1009781-light/run1009781-light.h5 tag-1496802802//
/work/sebastian/BT-20210625/1009781-light/run1009781-light.h5 tag-1496802806//
/work/sebastian/BT-20210625/1009781-light/run1009781-light.h5 tag-1496802808//
/work/sebastian/BT-20210625/1009781-light/run1009781-light.h5 tag-1496802812//
/work/sebastian/BT-20210625/1009781-light/run1009781-light.h5 tag-1496802816//
/work/sebastian/BT-20210625/1009781-light/run1009781-light.h5 tag-1496802818//
/work/sebastian/BT-20210625/1009781-light/run1009781-light.h5 tag-1496802822//
/work/sebastian/BT-20210625/1009781-light/run1009781-light.h5 tag-1496802824//
/work/sebastian/BT-20210625/1009781-light/run1009781-light.h5 tag-1496802828//
/work/sebastian/BT-20210625/1009781-light/run1009781-light.h5 tag-1496802830//
/work/sebastian/BT-20210625/1009781-light/run1009781-light.h5 tag-1496802832//
/work/sebastian/BT-20210625/1009781-light/run1009781-light.h5 tag-1496802836//
/work/sebastian/BT-20210625/1009781-light/run1009781-light.h5 tag-1496802838//
/work/sebastian/BT-20210625/1009781-light/run1009781-light.h5 tag-1496802840//
/work/sebastian/BT-20210625/1009781-light/run1009781-light.h5 tag-1496802842//
/work/sebastian/BT-20210625/1009781-light/run1009781-light.h5 tag-1496802850//
/work/sebastian/BT-20210625/1009781-light/run1009781-light.h5 tag-1496802852//
/work/sebastian/BT-20210625/1009781-light/run1009781-light.h5 tag-1496802854//
/work/sebastian/BT-20210625/1009781-light/run1009781-light.h5 tag-1496802862//
/work/sebastian/BT-20210625/1009781-light/run1009781-light.h5 tag-1496802864//
/work/sebastian/BT-20210625/1009781-light/run1009781-light.h5 tag-1496802866//
/work/sebastian/BT-20210625/1009781-light/run1009781-light.h5 tag-1496802868//
/work/sebastian/BT-20210625/1009781-light/run1009781-light.h5 tag-1496802876//
/work/sebastian/BT-20210625/1009781-light/run1009781-light.h5 tag-1496802880//
/work/sebastian/BT-20210625/1009781-light/run1009781-light.h5 tag-1496802882//
/work/sebastian/BT-20210625/1009781-light/run1009781-light.h5 tag-1496802884//
/work/sebastian/BT-20210625/1009781-light/run1009781-light.h5 tag-1496802886//
/work/sebastian/BT-20210625/1009781-light/run1009781-light.h5 tag-1496802890//
/work/sebastian/BT-20210625/1009781-light/run1009781-light.h5 tag-1496802892//
/work/sebastian/BT-20210625/1009781-light/run1009781-light.h5 tag-1496802894//
/work/sebastian/BT-20210625/1009781-light/run1009781-light.h5 tag-1496802898//
/work/sebastian/BT-20210625/1009781-light/run1009781-light.h5 tag-1496802908//
/work/sebastian/BT-20210625/1009781-light/run1009781-light.h5 tag-1496802910//
/work/sebastian/BT-20210625/1009781-light/run1009781-light.h5 tag-1496802920//
/work/sebastian/BT-20210625/1009781-light/run1009781-light.h5 tag-1496802924//
/work/sebastian/BT-20210625/1009781-light/run1009781-light.h5 tag-1496802926//
/work/sebastian/BT-20210625/1009781-light/run1009781-light.h5 tag-1496802934//
/work/sebastian/BT-20210625/1009781-light/run1009781-light.h5 tag-1496802936//
/work/sebastian/BT-20210625/1009781-light/run1009781-light.h5 tag-1496802938//
/work/sebastian/BT-20210625/1009781-light/run1009781-light.h5 tag-1496802940//
/work/sebastian/BT-20210625/1009781-light/run1009781-light.h5 tag-1496802946//
/work/sebastian/BT-20210625/1009781-light/run1009781-light.h5 tag-1496802948//
/work/sebastian/BT-20210625/1009781-light/run1009781-light.h5 tag-1496802950//
/work/sebastian/BT-20210625/1009781-light/run1009781-light.h5 tag-1496802952//
/work/sebastian/BT-20210625/1009781-light/run1009781-light.h5 tag-1496802962//
/work/sebastian/BT-20210625/1009781-light/run1009781-light.h5 tag-1496802964//
/work/sebastian/BT-20210625/1009781-light/run1009781-light.h5 tag-1496802968//
/work/sebastian/BT-20210625/1009781-light/run1009781-light.h5 tag-1496802974//
/work/sebastian/BT-20210625/1009781-light/run1009781-light.h5 tag-1496802976//
/work/sebastian/BT-20210625/1009781-light/run1009781-light.h5 tag-1496802978//
/work/sebastian/BT-20210625/1009781-light/run1009781-light.h5 tag-1496802980//
/work/sebastian/BT-20210625/1009781-light/run1009781-light.h5 tag-1496802982//
/work/sebastian/BT-20210625/1009781-light/run1009781-light.h5 tag-1496802984//
/work/sebastian/BT-20210625/1009781-light/run1009781-light.h5 tag-1496802988//
/work/sebastian/BT-20210625/1009781-light/run1009781-light.h5 tag-1496802990//
/work/sebastian/BT-20210625/1009781-light/run1009781-light.h5 tag-1496802994//
/work/sebastian/BT-20210625/1009781-light/run1009781-light.h5 tag-1496802998//
/work/sebastian/BT-20210625/1009781-light/run1009781-light.h5 tag-1496803000//
/work/sebastian/BT-20210625/1009781-light/run1009781-light.h5 tag-1496803002//
/work/sebastian/BT-20210625/1009781-light/run1009781-light.h5 tag-1496803004//
/work/sebastian/BT-20210625/1009781-light/run1009781-light.h5 tag-1496803006//
/work/sebastian/BT-20210625/1009781-light/run1009781-light.h5 tag-1496803012//
/work/sebastian/BT-20210625/1009781-light/run1009781-light.h5 tag-1496803014//
/work/sebastian/BT-20210625/1009781-light/run1009781-light.h5 tag-1496803016//
/work/sebastian/BT-20210625/1009781-light/run1009781-light.h5 tag-1496803018//
/work/sebastian/BT-20210625/1009781-light/run1009781-light.h5 tag-1496803020//
/work/sebastian/BT-20210625/1009781-light/run1009781-light.h5 tag-1496803028//
/work/sebastian/BT-20210625/1009781-light/run1009781-light.h5 tag-1496803030//
/work/sebastian/BT-20210625/1009781-light/run1009781-light.h5 tag-1496803032//
/work/sebastian/BT-20210625/1009781-light/run1009781-light.h5 tag-1496803040//
/work/sebastian/BT-20210625/1009781-light/run1009781-light.h5 tag-1496803042//
/work/sebastian/BT-20210625/1009781-light/run1009781-light.h5 tag-1496803044//
/work/sebastian/BT-20210625/1009781-light/run1009781-light.h5 tag-1496803046//
/work/sebastian/BT-20210625/1009781-light/run1009781-light.h5 tag-1496803048//
/work/sebastian/BT-20210625/1009781-light/run1009781-light.h5 tag-1496803050//
/work/sebastian/BT-20210625/1009781-light/run1009781-light.h5 tag-1496803056//
/work/sebastian/BT-20210625/1009781-light/run1009781-light.h5 tag-1496803058//
/work/sebastian/BT-20210625/1009781-light/run1009781-light.h5 tag-1496803060//
/work/sebastian/BT-20210625/1009781-light/run1009781-light.h5 tag-1496803062//
/work/sebastian/BT-20210625/1009781-light/run1009781-light.h5 tag-1496803064//
/work/sebastian/BT-20210625/1009781-light/run1009781-light.h5 tag-1496803070//
/work/sebastian/BT-20210625/1009781-light/run1009781-light.h5 tag-1496803072//
/work/sebastian/BT-20210625/1009781-light/run1009781-light.h5 tag-1496803074//
/work/sebastian/BT-20210625/1009781-light/run1009781-light.h5 tag-1496803078//
/work/sebastian/BT-20210625/1009781-light/run1009781-light.h5 tag-1496803082//
/work/sebastian/BT-20210625/1009781-light/run1009781-light.h5 tag-1496803084//
/work/sebastian/BT-20210625/1009781-light/run1009781-light.h5 tag-1496803088//
/work/sebastian/BT-20210625/1009781-light/run1009781-light.h5 tag-1496803090//
/work/sebastian/BT-20210625/1009781-light/run1009781-light.h5 tag-1496803094//
/work/sebastian/BT-20210625/1009781-light/run1009781-light.h5 tag-1496803100//
/work/sebastian/BT-20210625/1009781-light/run1009781-light.h5 tag-1496803102//
/work/sebastian/BT-20210625/1009781-light/run1009781-light.h5 tag-1496803104//
/work/sebastian/BT-20210625/1009781-light/run1009781-light.h5 tag-1496803106//
/work/sebastian/BT-20210625/1009781-light/run1009781-light.h5 tag-1496803108//
/work/sebastian/BT-20210625/1009781-light/run1009781-light.h5 tag-1496803110//
/work/sebastian/BT-20210625/1009781-light/run1009781-light.h5 tag-1496803116//
/work/sebastian/BT-20210625/1009781-light/run1009781-light.h5 tag-1496803120//
/work/sebastian/BT-20210625/1009781-light/run1009781-light.h5 tag-1496803128//
/work/sebastian/BT-20210625/1009781-light/run1009781-light.h5 tag-1496803130//
/work/sebastian/BT-20210625/1009781-light/run1009781-light.h5 tag-1496803132//
/work/sebastian/BT-20210625/1009781-light/run1009781-light.h5 tag-1496803134//
/work/sebastian/BT-20210625/1009781-light/run1009781-light.h5 tag-1496803138//
/work/sebastian/BT-20210625/1009781-light/run1009781-light.h5 tag-1496803142//
/work/sebastian/BT-20210625/1009781-light/run1009781-light.h5 tag-1496803148//
/work/sebastian/BT-20210625/1009781-light/run1009781-light.h5 tag-1496803150//
/work/sebastian/BT-20210625/1009781-light/run1009781-light.h5 tag-1496803152//
/work/sebastian/BT-20210625/1009781-light/run1009781-light.h5 tag-1496803154//
/work/sebastian/BT-20210625/1009781-light/run1009781-light.h5 tag-1496803156//
/work/sebastian/BT-20210625/1009781-light/run1009781-light.h5 tag-1496803158//
/work/sebastian/BT-20210625/1009781-light/run1009781-light.h5 tag-1496803160//
/work/sebastian/BT-20210625/1009781-light/run1009781-light.h5 tag-1496803162//
/work/sebastian/BT-20210625/1009781-light/run1009781-light.h5 tag-1496803170//
/work/sebastian/BT-20210625/1009781-light/run1009781-light.h5 tag-1496803172//
/work/sebastian/BT-20210625/1009781-light/run1009781-light.h5 tag-1496803174//
/work/sebastian/BT-20210625/1009781-light/run1009781-light.h5 tag-1496803178//
/work/sebastian/BT-20210625/1009781-light/run1009781-light.h5 tag-1496803180//
/work/sebastian/BT-20210625/1009781-light/run1009781-light.h5 tag-1496803184//
/work/sebastian/BT-20210625/1009781-light/run1009781-light.h5 tag-1496803186//
/work/sebastian/BT-20210625/1009781-light/run1009781-light.h5 tag-1496803188//
/work/sebastian/BT-20210625/1009781-light/run1009781-light.h5 tag-1496803190//
/work/sebastian/BT-20210625/1009781-light/run1009781-light.h5 tag-1496803196//
/work/sebastian/BT-20210625/1009781-light/run1009781-light.h5 tag-1496803202//
/work/sebastian/BT-20210625/1009781-light/run1009781-light.h5 tag-1496803208//
/work/sebastian/BT-20210625/1009781-light/run1009781-light.h5 tag-1496803214//
/work/sebastian/BT-20210625/1009781-light/run1009781-light.h5 tag-1496803216//
/work/sebastian/BT-20210625/1009781-light/run1009781-light.h5 tag-1496803218//
/work/sebastian/BT-20210625/1009781-light/run1009781-light.h5 tag-1496803220//
/work/sebastian/BT-20210625/1009781-light/run1009781-light.h5 tag-1496803224//
/work/sebastian/BT-20210625/1009781-light/run1009781-light.h5 tag-1496803226//
/work/sebastian/BT-20210625/1009781-light/run1009781-light.h5 tag-1496803234//
/work/sebastian/BT-20210625/1009781-light/run1009781-light.h5 tag-1496803236//
/work/sebastian/BT-20210625/1009781-light/run1009781-light.h5 tag-1496803238//
/work/sebastian/BT-20210625/1009781-light/run1009781-light.h5 tag-1496803242//
/work/sebastian/BT-20210625/1009781-light/run1009781-light.h5 tag-1496803244//
/work/sebastian/BT-20210625/1009781-light/run1009781-light.h5 tag-1496803248//
/work/sebastian/BT-20210625/1009781-light/run1009781-light.h5 tag-1496803274//
/work/sebastian/BT-20210625/1009781-light/run1009781-light.h5 tag-1496803276//
/work/sebastian/BT-20210625/1009781-light/run1009781-light.h5 tag-1496803278//
/work/sebastian/BT-20210625/1009781-light/run1009781-light.h5 tag-1496803282//
/work/sebastian/BT-20210625/1009781-light/run1009781-light.h5 tag-1496803288//
/work/sebastian/BT-20210625/1009781-light/run1009781-light.h5 tag-1496803290//
/work/sebastian/BT-20210625/1009781-light/run1009781-light.h5 tag-1496803294//
/work/sebastian/BT-20210625/1009781-light/run1009781-light.h5 tag-1496803302//
/work/sebastian/BT-20210625/1009781-light/run1009781-light.h5 tag-1496803304//
/work/sebastian/BT-20210625/1009781-light/run1009781-light.h5 tag-1496803306//
/work/sebastian/BT-20210625/1009781-light/run1009781-light.h5 tag-1496803308//
/work/sebastian/BT-20210625/1009781-light/run1009781-light.h5 tag-1496803310//
/work/sebastian/BT-20210625/1009781-light/run1009781-light.h5 tag-1496803312//
/work/sebastian/BT-20210625/1009781-light/run1009781-light.h5 tag-1496803314//
/work/sebastian/BT-20210625/1009781-light/run1009781-light.h5 tag-1496803316//
/work/sebastian/BT-20210625/1009781-light/run1009781-light.h5 tag-1496803318//
/work/sebastian/BT-20210625/1009781-light/run1009781-light.h5 tag-1496803320//
/work/sebastian/BT-20210625/1009781-light/run1009781-light.h5 tag-1496803322//
/work/sebastian/BT-20210625/1009781-light/run1009781-light.h5 tag-1496803324//
/work/sebastian/BT-20210625/1009781-light/run1009781-light.h5 tag-1496803328//
/work/sebastian/BT-20210625/1009781-light/run1009781-light.h5 tag-1496803330//
/work/sebastian/BT-20210625/1009781-light/run1009781-light.h5 tag-1496803332//
/work/sebastian/BT-20210625/1009781-light/run1009781-light.h5 tag-1496803336//
/work/sebastian/BT-20210625/1009781-light/run1009781-light.h5 tag-1496803340//
/work/sebastian/BT-20210625/1009781-light/run1009781-light.h5 tag-1496803342//
/work/sebastian/BT-20210625/1009781-light/run1009781-light.h5 tag-1496803344//
/work/sebastian/BT-20210625/1009781-light/run1009781-light.h5 tag-1496803348//
/work/sebastian/BT-20210625/1009781-light/run1009781-light.h5 tag-1496803352//
/work/sebastian/BT-20210625/1009781-light/run1009781-light.h5 tag-1496803354//
/work/sebastian/BT-20210625/1009781-light/run1009781-light.h5 tag-1496803356//
/work/sebastian/BT-20210625/1009781-light/run1009781-light.h5 tag-1496803366//
/work/sebastian/BT-20210625/1009781-light/run1009781-light.h5 tag-1496803368//
/work/sebastian/BT-20210625/1009781-light/run1009781-light.h5 tag-1496803370//
/work/sebastian/BT-20210625/1009781-light/run1009781-light.h5 tag-1496803372//
/work/sebastian/BT-20210625/1009781-light/run1009781-light.h5 tag-1496803374//
/work/sebastian/BT-20210625/1009781-light/run1009781-light.h5 tag-1496803380//
/work/sebastian/BT-20210625/1009781-light/run1009781-light.h5 tag-1496803382//
/work/sebastian/BT-20210625/1009781-light/run1009781-light.h5 tag-1496803384//
/work/sebastian/BT-20210625/1009781-light/run1009781-light.h5 tag-1496803386//
/work/sebastian/BT-20210625/1009781-light/run1009781-light.h5 tag-1496803392//
/work/sebastian/BT-20210625/1009781-light/run1009781-light.h5 tag-1496803396//
/work/sebastian/BT-20210625/1009781-light/run1009781-light.h5 tag-1496803398//
/work/sebastian/BT-20210625/1009781-light/run1009781-light.h5 tag-1496803400//
/work/sebastian/BT-20210625/1009781-light/run1009781-light.h5 tag-1496803402//
/work/sebastian/BT-20210625/1009781-light/run1009781-light.h5 tag-1496803408//
/work/sebastian/BT-20210625/1009781-light/run1009781-light.h5 tag-1496803410//
/work/sebastian/BT-20210625/1009781-light/run1009781-light.h5 tag-1496803412//
/work/sebastian/BT-20210625/1009781-light/run1009781-light.h5 tag-1496803422//
/work/sebastian/BT-20210625/1009781-light/run1009781-light.h5 tag-1496803424//
/work/sebastian/BT-20210625/1009781-light/run1009781-light.h5 tag-1496803430//
/work/sebastian/BT-20210625/1009781-light/run1009781-light.h5 tag-1496803432//
/work/sebastian/BT-20210625/1009781-light/run1009781-light.h5 tag-1496803434//
/work/sebastian/BT-20210625/1009781-light/run1009781-light.h5 tag-1496803438//
/work/sebastian/BT-20210625/1009781-light/run1009781-light.h5 tag-1496803442//
/work/sebastian/BT-20210625/1009781-light/run1009781-light.h5 tag-1496803452//
/work/sebastian/BT-20210625/1009781-light/run1009781-light.h5 tag-1496803454//
/work/sebastian/BT-20210625/1009781-light/run1009781-light.h5 tag-1496803456//
/work/sebastian/BT-20210625/1009781-light/run1009781-light.h5 tag-1496803458//
/work/sebastian/BT-20210625/1009781-light/run1009781-light.h5 tag-1496803460//
/work/sebastian/BT-20210625/1009781-light/run1009781-light.h5 tag-1496803462//
/work/sebastian/BT-20210625/1009781-light/run1009781-light.h5 tag-1496803464//
/work/sebastian/BT-20210625/1009781-light/run1009781-light.h5 tag-1496803466//
/work/sebastian/BT-20210625/1009781-light/run1009781-light.h5 tag-1496803468//
/work/sebastian/BT-20210625/1009781-light/run1009781-light.h5 tag-1496803470//
/work/sebastian/BT-20210625/1009781-light/run1009781-light.h5 tag-1496803480//
/work/sebastian/BT-20210625/1009781-light/run1009781-light.h5 tag-1496803482//
/work/sebastian/BT-20210625/1009781-light/run1009781-light.h5 tag-1496803484//
/work/sebastian/BT-20210625/1009781-light/run1009781-light.h5 tag-1496803486//
/work/sebastian/BT-20210625/1009781-light/run1009781-light.h5 tag-1496803488//
/work/sebastian/BT-20210625/1009781-light/run1009781-light.h5 tag-1496803492//
/work/sebastian/BT-20210625/1009781-light/run1009781-light.h5 tag-1496803494//
/work/sebastian/BT-20210625/1009781-light/run1009781-light.h5 tag-1496803496//
/work/sebastian/BT-20210625/1009781-light/run1009781-light.h5 tag-1496803498//
/work/sebastian/BT-20210625/1009781-light/run1009781-light.h5 tag-1496803502//
/work/sebastian/BT-20210625/1009781-light/run1009781-light.h5 tag-1496803504//
/work/sebastian/BT-20210625/1009781-light/run1009781-light.h5 tag-1496803506//
/work/sebastian/BT-20210625/1009781-light/run1009781-light.h5 tag-1496803508//
/work/sebastian/BT-20210625/1009781-light/run1009781-light.h5 tag-1496803516//
/work/sebastian/BT-20210625/1009781-light/run1009781-light.h5 tag-1496803520//
/work/sebastian/BT-20210625/1009781-light/run1009781-light.h5 tag-1496803522//
/work/sebastian/BT-20210625/1009781-light/run1009781-light.h5 tag-1496803528//
/work/sebastian/BT-20210625/1009781-light/run1009781-light.h5 tag-1496803530//
/work/sebastian/BT-20210625/1009781-light/run1009781-light.h5 tag-1496803532//
/work/sebastian/BT-20210625/1009781-light/run1009781-light.h5 tag-1496803534//
/work/sebastian/BT-20210625/1009781-light/run1009781-light.h5 tag-1496803544//
/work/sebastian/BT-20210625/1009781-light/run1009781-light.h5 tag-1496803548//
/work/sebastian/BT-20210625/1009781-light/run1009781-light.h5 tag-1496803558//
/work/sebastian/BT-20210625/1009781-light/run1009781-light.h5 tag-1496803560//
/work/sebastian/BT-20210625/1009781-light/run1009781-light.h5 tag-1496803562//
/work/sebastian/BT-20210625/1009781-light/run1009781-light.h5 tag-1496803564//
/work/sebastian/BT-20210625/1009781-light/run1009781-light.h5 tag-1496803572//
/work/sebastian/BT-20210625/1009781-light/run1009781-light.h5 tag-1496803574//
/work/sebastian/BT-20210625/1009781-light/run1009781-light.h5 tag-1496803576//
/work/sebastian/BT-20210625/1009781-light/run1009781-light.h5 tag-1496803578//
/work/sebastian/BT-20210625/1009781-light/run1009781-light.h5 tag-1496803586//
/work/sebastian/BT-20210625/1009781-light/run1009781-light.h5 tag-1496803588//
/work/sebastian/BT-20210625/1009781-light/run1009781-light.h5 tag-1496803590//
/work/sebastian/BT-20210625/1009781-light/run1009781-light.h5 tag-1496803592//
/work/sebastian/BT-20210625/1009781-light/run1009781-light.h5 tag-1496803594//
/work/sebastian/BT-20210625/1009781-light/run1009781-light.h5 tag-1496803596//
/work/sebastian/BT-20210625/1009781-light/run1009781-light.h5 tag-1496803598//
/work/sebastian/BT-20210625/1009781-light/run1009781-light.h5 tag-1496803602//
/work/sebastian/BT-20210625/1009781-light/run1009781-light.h5 tag-1496803604//
/work/sebastian/BT-20210625/1009781-light/run1009781-light.h5 tag-1496803608//
/work/sebastian/BT-20210625/1009781-light/run1009781-light.h5 tag-1496803610//
/work/sebastian/BT-20210625/1009781-light/run1009781-light.h5 tag-1496803612//
/work/sebastian/BT-20210625/1009781-light/run1009781-light.h5 tag-1496803614//
/work/sebastian/BT-20210625/1009781-light/run1009781-light.h5 tag-1496803616//
/work/sebastian/BT-20210625/1009781-light/run1009781-light.h5 tag-1496803618//
/work/sebastian/BT-20210625/1009781-light/run1009781-light.h5 tag-1496803622//
/work/sebastian/BT-20210625/1009781-light/run1009781-light.h5 tag-1496803624//
/work/sebastian/BT-20210625/1009781-light/run1009781-light.h5 tag-1496803626//
/work/sebastian/BT-20210625/1009781-light/run1009781-light.h5 tag-1496803628//
/work/sebastian/BT-20210625/1009781-light/run1009781-light.h5 tag-1496803630//
/work/sebastian/BT-20210625/1009781-light/run1009781-light.h5 tag-1496803638//
/work/sebastian/BT-20210625/1009781-light/run1009781-light.h5 tag-1496803642//
/work/sebastian/BT-20210625/1009781-light/run1009781-light.h5 tag-1496803644//
/work/sebastian/BT-20210625/1009781-light/run1009781-light.h5 tag-1496803652//
/work/sebastian/BT-20210625/1009781-light/run1009781-light.h5 tag-1496803654//
/work/sebastian/BT-20210625/1009781-light/run1009781-light.h5 tag-1496803656//
/work/sebastian/BT-20210625/1009781-light/run1009781-light.h5 tag-1496803666//
/work/sebastian/BT-20210625/1009781-light/run1009781-light.h5 tag-1496803668//
/work/sebastian/BT-20210625/1009781-light/run1009781-light.h5 tag-1496803670//
/work/sebastian/BT-20210625/1009781-light/run1009781-light.h5 tag-1496803672//
/work/sebastian/BT-20210625/1009781-light/run1009781-light.h5 tag-1496803680//
/work/sebastian/BT-20210625/1009781-light/run1009781-light.h5 tag-1496803688//
/work/sebastian/BT-20210625/1009781-light/run1009781-light.h5 tag-1496803694//
/work/sebastian/BT-20210625/1009781-light/run1009781-light.h5 tag-1496803696//
/work/sebastian/BT-20210625/1009781-light/run1009781-light.h5 tag-1496803698//
/work/sebastian/BT-20210625/1009781-light/run1009781-light.h5 tag-1496803700//
/work/sebastian/BT-20210625/1009781-light/run1009781-light.h5 tag-1496803704//
/work/sebastian/BT-20210625/1009781-light/run1009781-light.h5 tag-1496803706//
/work/sebastian/BT-20210625/1009781-light/run1009781-light.h5 tag-1496803708//
/work/sebastian/BT-20210625/1009781-light/run1009781-light.h5 tag-1496803714//
/work/sebastian/BT-20210625/1009781-light/run1009781-light.h5 tag-1496803726//
/work/sebastian/BT-20210625/1009781-light/run1009781-light.h5 tag-1496803728//
/work/sebastian/BT-20210625/1009781-light/run1009781-light.h5 tag-1496803730//
/work/sebastian/BT-20210625/1009781-light/run1009781-light.h5 tag-1496803732//
/work/sebastian/BT-20210625/1009781-light/run1009781-light.h5 tag-1496803734//
/work/sebastian/BT-20210625/1009781-light/run1009781-light.h5 tag-1496803736//
/work/sebastian/BT-20210625/1009781-light/run1009781-light.h5 tag-1496803738//
/work/sebastian/BT-20210625/1009781-light/run1009781-light.h5 tag-1496803740//
/work/sebastian/BT-20210625/1009781-light/run1009781-light.h5 tag-1496803746//
/work/sebastian/BT-20210625/1009781-light/run1009781-light.h5 tag-1496803750//
/work/sebastian/BT-20210625/1009781-light/run1009781-light.h5 tag-1496803752//
/work/sebastian/BT-20210625/1009781-light/run1009781-light.h5 tag-1496803754//
/work/sebastian/BT-20210625/1009781-light/run1009781-light.h5 tag-1496803756//
/work/sebastian/BT-20210625/1009781-light/run1009781-light.h5 tag-1496803758//
/work/sebastian/BT-20210625/1009781-light/run1009781-light.h5 tag-1496803770//
/work/sebastian/BT-20210625/1009781-light/run1009781-light.h5 tag-1496803772//
/work/sebastian/BT-20210625/1009781-light/run1009781-light.h5 tag-1496803776//
/work/sebastian/BT-20210625/1009781-light/run1009781-light.h5 tag-1496803778//
/work/sebastian/BT-20210625/1009781-light/run1009781-light.h5 tag-1496803780//
/work/sebastian/BT-20210625/1009781-light/run1009781-light.h5 tag-1496803782//
/work/sebastian/BT-20210625/1009781-light/run1009781-light.h5 tag-1496803784//
/work/sebastian/BT-20210625/1009781-light/run1009781-light.h5 tag-1496803790//
/work/sebastian/BT-20210625/1009781-light/run1009781-light.h5 tag-1496803794//
/work/sebastian/BT-20210625/1009781-light/run1009781-light.h5 tag-1496803802//
/work/sebastian/BT-20210625/1009781-light/run1009781-light.h5 tag-1496803804//
/work/sebastian/BT-20210625/1009781-light/run1009781-light.h5 tag-1496803806//
/work/sebastian/BT-20210625/1009781-light/run1009781-light.h5 tag-1496803808//
/work/sebastian/BT-20210625/1009781-light/run1009781-light.h5 tag-1496803810//
/work/sebastian/BT-20210625/1009781-light/run1009781-light.h5 tag-1496803814//
/work/sebastian/BT-20210625/1009781-light/run1009781-light.h5 tag-1496803818//
/work/sebastian/BT-20210625/1009781-light/run1009781-light.h5 tag-1496803820//
/work/sebastian/BT-20210625/1009781-light/run1009781-light.h5 tag-1496803832//
/work/sebastian/BT-20210625/1009781-light/run1009781-light.h5 tag-1496803838//
/work/sebastian/BT-20210625/1009781-light/run1009781-light.h5 tag-1496803842//
/work/sebastian/BT-20210625/1009781-light/run1009781-light.h5 tag-1496803844//
/work/sebastian/BT-20210625/1009781-light/run1009781-light.h5 tag-1496803848//
/work/sebastian/BT-20210625/1009781-light/run1009781-light.h5 tag-1496803856//
/work/sebastian/BT-20210625/1009781-light/run1009781-light.h5 tag-1496803860//
/work/sebastian/BT-20210625/1009781-light/run1009781-light.h5 tag-1496803862//
/work/sebastian/BT-20210625/1009781-light/run1009781-light.h5 tag-1496803866//
/work/sebastian/BT-20210625/1009781-light/run1009781-light.h5 tag-1496803868//
/work/sebastian/BT-20210625/1009781-light/run1009781-light.h5 tag-1496803870//
/work/sebastian/BT-20210625/1009781-light/run1009781-light.h5 tag-1496803872//
/work/sebastian/BT-20210625/1009781-light/run1009781-light.h5 tag-1496803874//
/work/sebastian/BT-20210625/1009781-light/run1009781-light.h5 tag-1496803886//
/work/sebastian/BT-20210625/1009781-light/run1009781-light.h5 tag-1496803888//
/work/sebastian/BT-20210625/1009781-light/run1009781-light.h5 tag-1496803890//
/work/sebastian/BT-20210625/1009781-light/run1009781-light.h5 tag-1496803894//
/work/sebastian/BT-20210625/1009781-light/run1009781-light.h5 tag-1496803900//
/work/sebastian/BT-20210625/1009781-light/run1009781-light.h5 tag-1496803902//
/work/sebastian/BT-20210625/1009781-light/run1009781-light.h5 tag-1496803904//
/work/sebastian/BT-20210625/1009781-light/run1009781-light.h5 tag-1496803908//
/work/sebastian/BT-20210625/1009781-light/run1009781-light.h5 tag-1496803910//
/work/sebastian/BT-20210625/1009781-light/run1009781-light.h5 tag-1496803912//
/work/sebastian/BT-20210625/1009781-light/run1009781-light.h5 tag-1496803920//
/work/sebastian/BT-20210625/1009781-light/run1009781-light.h5 tag-1496803922//
/work/sebastian/BT-20210625/1009781-light/run1009781-light.h5 tag-1496803926//
/work/sebastian/BT-20210625/1009781-light/run1009781-light.h5 tag-1496803928//
/work/sebastian/BT-20210625/1009781-light/run1009781-light.h5 tag-1496803930//
/work/sebastian/BT-20210625/1009781-light/run1009781-light.h5 tag-1496803934//
/work/sebastian/BT-20210625/1009781-light/run1009781-light.h5 tag-1496803936//
/work/sebastian/BT-20210625/1009781-light/run1009781-light.h5 tag-1496803938//
/work/sebastian/BT-20210625/1009781-light/run1009781-light.h5 tag-1496803940//
/work/sebastian/BT-20210625/1009781-light/run1009781-light.h5 tag-1496803946//
/work/sebastian/BT-20210625/1009781-light/run1009781-light.h5 tag-1496803948//
/work/sebastian/BT-20210625/1009781-light/run1009781-light.h5 tag-1496803950//
/work/sebastian/BT-20210625/1009781-light/run1009781-light.h5 tag-1496803954//
/work/sebastian/BT-20210625/1009781-light/run1009781-light.h5 tag-1496803960//
/work/sebastian/BT-20210625/1009781-light/run1009781-light.h5 tag-1496803962//
/work/sebastian/BT-20210625/1009781-light/run1009781-light.h5 tag-1496803966//
/work/sebastian/BT-20210625/1009781-light/run1009781-light.h5 tag-1496803968//
/work/sebastian/BT-20210625/1009781-light/run1009781-light.h5 tag-1496803976//
/work/sebastian/BT-20210625/1009781-light/run1009781-light.h5 tag-1496803978//
/work/sebastian/BT-20210625/1009781-light/run1009781-light.h5 tag-1496803980//
/work/sebastian/BT-20210625/1009781-light/run1009781-light.h5 tag-1496803982//
/work/sebastian/BT-20210625/1009781-light/run1009781-light.h5 tag-1496803992//
/work/sebastian/BT-20210625/1009781-light/run1009781-light.h5 tag-1496803994//
/work/sebastian/BT-20210625/1009781-light/run1009781-light.h5 tag-1496803996//
/work/sebastian/BT-20210625/1009781-light/run1009781-light.h5 tag-1496803998//
/work/sebastian/BT-20210625/1009781-light/run1009781-light.h5 tag-1496804002//
/work/sebastian/BT-20210625/1009781-light/run1009781-light.h5 tag-1496804008//
/work/sebastian/BT-20210625/1009781-light/run1009781-light.h5 tag-1496804010//
/work/sebastian/BT-20210625/1009781-light/run1009781-light.h5 tag-1496804012//
/work/sebastian/BT-20210625/1009781-light/run1009781-light.h5 tag-1496804016//
/work/sebastian/BT-20210625/1009781-light/run1009781-light.h5 tag-1496804020//
/work/sebastian/BT-20210625/1009781-light/run1009781-light.h5 tag-1496804022//
/work/sebastian/BT-20210625/1009781-light/run1009781-light.h5 tag-1496804028//
/work/sebastian/BT-20210625/1009781-light/run1009781-light.h5 tag-1496804030//
/work/sebastian/BT-20210625/1009781-light/run1009781-light.h5 tag-1496804032//
/work/sebastian/BT-20210625/1009781-light/run1009781-light.h5 tag-1496804034//
/work/sebastian/BT-20210625/1009781-light/run1009781-light.h5 tag-1496804036//
/work/sebastian/BT-20210625/1009781-light/run1009781-light.h5 tag-1496804038//
/work/sebastian/BT-20210625/1009781-light/run1009781-light.h5 tag-1496804040//
/work/sebastian/BT-20210625/1009781-light/run1009781-light.h5 tag-1496804042//
/work/sebastian/BT-20210625/1009781-light/run1009781-light.h5 tag-1496804048//
/work/sebastian/BT-20210625/1009781-light/run1009781-light.h5 tag-1496804050//
/work/sebastian/BT-20210625/1009781-light/run1009781-light.h5 tag-1496804052//
/work/sebastian/BT-20210625/1009781-light/run1009781-light.h5 tag-1496804054//
/work/sebastian/BT-20210625/1009781-light/run1009781-light.h5 tag-1496804058//
/work/sebastian/BT-20210625/1009781-light/run1009781-light.h5 tag-1496804060//
/work/sebastian/BT-20210625/1009781-light/run1009781-light.h5 tag-1496804062//
/work/sebastian/BT-20210625/1009781-light/run1009781-light.h5 tag-1496804064//
/work/sebastian/BT-20210625/1009781-light/run1009781-light.h5 tag-1496804066//
/work/sebastian/BT-20210625/1009781-light/run1009781-light.h5 tag-1496804070//
/work/sebastian/BT-20210625/1009781-light/run1009781-light.h5 tag-1496804074//
/work/sebastian/BT-20210625/1009781-light/run1009781-light.h5 tag-1496804090//
/work/sebastian/BT-20210625/1009781-light/run1009781-light.h5 tag-1496804092//
/work/sebastian/BT-20210625/1009781-light/run1009781-light.h5 tag-1496804094//
/work/sebastian/BT-20210625/1009781-light/run1009781-light.h5 tag-1496804100//
/work/sebastian/BT-20210625/1009781-light/run1009781-light.h5 tag-1496804102//
/work/sebastian/BT-20210625/1009781-light/run1009781-light.h5 tag-1496804104//
/work/sebastian/BT-20210625/1009781-light/run1009781-light.h5 tag-1496804106//
/work/sebastian/BT-20210625/1009781-light/run1009781-light.h5 tag-1496804108//
/work/sebastian/BT-20210625/1009781-light/run1009781-light.h5 tag-1496804114//
/work/sebastian/BT-20210625/1009781-light/run1009781-light.h5 tag-1496804116//
/work/sebastian/BT-20210625/1009781-light/run1009781-light.h5 tag-1496804118//
/work/sebastian/BT-20210625/1009781-light/run1009781-light.h5 tag-1496804122//
/work/sebastian/BT-20210625/1009781-light/run1009781-light.h5 tag-1496804128//
/work/sebastian/BT-20210625/1009781-light/run1009781-light.h5 tag-1496804130//
/work/sebastian/BT-20210625/1009781-light/run1009781-light.h5 tag-1496804132//
/work/sebastian/BT-20210625/1009781-light/run1009781-light.h5 tag-1496804134//
/work/sebastian/BT-20210625/1009781-light/run1009781-light.h5 tag-1496804144//
/work/sebastian/BT-20210625/1009781-light/run1009781-light.h5 tag-1496804146//
/work/sebastian/BT-20210625/1009781-light/run1009781-light.h5 tag-1496804148//
/work/sebastian/BT-20210625/1009781-light/run1009781-light.h5 tag-1496804156//
/work/sebastian/BT-20210625/1009781-light/run1009781-light.h5 tag-1496804160//
/work/sebastian/BT-20210625/1009781-light/run1009781-light.h5 tag-1496804164//
/work/sebastian/BT-20210625/1009781-light/run1009781-light.h5 tag-1496804168//
/work/sebastian/BT-20210625/1009781-light/run1009781-light.h5 tag-1496804170//
/work/sebastian/BT-20210625/1009781-light/run1009781-light.h5 tag-1496804172//
/work/sebastian/BT-20210625/1009781-light/run1009781-light.h5 tag-1496804174//
/work/sebastian/BT-20210625/1009781-light/run1009781-light.h5 tag-1496804176//
/work/sebastian/BT-20210625/1009781-light/run1009781-light.h5 tag-1496804182//
/work/sebastian/BT-20210625/1009781-light/run1009781-light.h5 tag-1496804190//
/work/sebastian/BT-20210625/1009781-light/run1009781-light.h5 tag-1496804198//
/work/sebastian/BT-20210625/1009781-light/run1009781-light.h5 tag-1496804200//
/work/sebastian/BT-20210625/1009781-light/run1009781-light.h5 tag-1496804202//
/work/sebastian/BT-20210625/1009781-light/run1009781-light.h5 tag-1496804204//
/work/sebastian/BT-20210625/1009781-light/run1009781-light.h5 tag-1496804210//
/work/sebastian/BT-20210625/1009781-light/run1009781-light.h5 tag-1496804212//
/work/sebastian/BT-20210625/1009781-light/run1009781-light.h5 tag-1496804216//
/work/sebastian/BT-20210625/1009781-light/run1009781-light.h5 tag-1496804220//
/work/sebastian/BT-20210625/1009781-light/run1009781-light.h5 tag-1496804222//
/work/sebastian/BT-20210625/1009781-light/run1009781-light.h5 tag-1496804224//
/work/sebastian/BT-20210625/1009781-light/run1009781-light.h5 tag-1496804228//
/work/sebastian/BT-20210625/1009781-light/run1009781-light.h5 tag-1496804232//
/work/sebastian/BT-20210625/1009781-light/run1009781-light.h5 tag-1496804234//
/work/sebastian/BT-20210625/1009781-light/run1009781-light.h5 tag-1496804238//
/work/sebastian/BT-20210625/1009781-light/run1009781-light.h5 tag-1496804242//
/work/sebastian/BT-20210625/1009781-light/run1009781-light.h5 tag-1496804248//
/work/sebastian/BT-20210625/1009781-light/run1009781-light.h5 tag-1496804250//
/work/sebastian/BT-20210625/1009781-light/run1009781-light.h5 tag-1496804252//
/work/sebastian/BT-20210625/1009781-light/run1009781-light.h5 tag-1496804254//
/work/sebastian/BT-20210625/1009781-light/run1009781-light.h5 tag-1496804256//
/work/sebastian/BT-20210625/1009781-light/run1009781-light.h5 tag-1496804262//
/work/sebastian/BT-20210625/1009781-light/run1009781-light.h5 tag-1496804264//
/work/sebastian/BT-20210625/1009781-light/run1009781-light.h5 tag-1496804268//
/work/sebastian/BT-20210625/1009781-light/run1009781-light.h5 tag-1496804294//
/work/sebastian/BT-20210625/1009781-light/run1009781-light.h5 tag-1496804304//
/work/sebastian/BT-20210625/1009781-light/run1009781-light.h5 tag-1496804306//
/work/sebastian/BT-20210625/1009781-light/run1009781-light.h5 tag-1496804308//
/work/sebastian/BT-20210625/1009781-light/run1009781-light.h5 tag-1496804310//
/work/sebastian/BT-20210625/1009781-light/run1009781-light.h5 tag-1496804320//
/work/sebastian/BT-20210625/1009781-light/run1009781-light.h5 tag-1496804322//
/work/sebastian/BT-20210625/1009781-light/run1009781-light.h5 tag-1496804324//
/work/sebastian/BT-20210625/1009781-light/run1009781-light.h5 tag-1496804332//
/work/sebastian/BT-20210625/1009781-light/run1009781-light.h5 tag-1496804334//
/work/sebastian/BT-20210625/1009781-light/run1009781-light.h5 tag-1496804336//
/work/sebastian/BT-20210625/1009781-light/run1009781-light.h5 tag-1496804338//
/work/sebastian/BT-20210625/1009781-light/run1009781-light.h5 tag-1496804346//
/work/sebastian/BT-20210625/1009781-light/run1009781-light.h5 tag-1496804348//
/work/sebastian/BT-20210625/1009781-light/run1009781-light.h5 tag-1496804354//
/work/sebastian/BT-20210625/1009781-light/run1009781-light.h5 tag-1496804360//
/work/sebastian/BT-20210625/1009781-light/run1009781-light.h5 tag-1496804362//
/work/sebastian/BT-20210625/1009781-light/run1009781-light.h5 tag-1496804366//
/work/sebastian/BT-20210625/1009781-light/run1009781-light.h5 tag-1496804368//
/work/sebastian/BT-20210625/1009781-light/run1009781-light.h5 tag-1496804374//
/work/sebastian/BT-20210625/1009781-light/run1009781-light.h5 tag-1496804378//
/work/sebastian/BT-20210625/1009781-light/run1009781-light.h5 tag-1496804380//
/work/sebastian/BT-20210625/1009781-light/run1009781-light.h5 tag-1496804382//
/work/sebastian/BT-20210625/1009781-light/run1009781-light.h5 tag-1496804384//
/work/sebastian/BT-20210625/1009781-light/run1009781-light.h5 tag-1496804388//
/work/sebastian/BT-20210625/1009781-light/run1009781-light.h5 tag-1496804392//
/work/sebastian/BT-20210625/1009781-light/run1009781-light.h5 tag-1496804394//
/work/sebastian/BT-20210625/1009781-light/run1009781-light.h5 tag-1496804402//
/work/sebastian/BT-20210625/1009781-light/run1009781-light.h5 tag-1496804404//
/work/sebastian/BT-20210625/1009781-light/run1009781-light.h5 tag-1496804406//
/work/sebastian/BT-20210625/1009781-light/run1009781-light.h5 tag-1496804414//
/work/sebastian/BT-20210625/1009781-light/run1009781-light.h5 tag-1496804416//
/work/sebastian/BT-20210625/1009781-light/run1009781-light.h5 tag-1496804420//
/work/sebastian/BT-20210625/1009781-light/run1009781-light.h5 tag-1496804422//
/work/sebastian/BT-20210625/1009781-light/run1009781-light.h5 tag-1496804426//
/work/sebastian/BT-20210625/1009781-light/run1009781-light.h5 tag-1496804430//
/work/sebastian/BT-20210625/1009781-light/run1009781-light.h5 tag-1496804432//
/work/sebastian/BT-20210625/1009781-light/run1009781-light.h5 tag-1496804434//
/work/sebastian/BT-20210625/1009781-light/run1009781-light.h5 tag-1496804436//
/work/sebastian/BT-20210625/1009781-light/run1009781-light.h5 tag-1496804438//
/work/sebastian/BT-20210625/1009781-light/run1009781-light.h5 tag-1496804440//
/work/sebastian/BT-20210625/1009781-light/run1009781-light.h5 tag-1496804444//
/work/sebastian/BT-20210625/1009781-light/run1009781-light.h5 tag-1496804458//
/work/sebastian/BT-20210625/1009781-light/run1009781-light.h5 tag-1496804460//
/work/sebastian/BT-20210625/1009781-light/run1009781-light.h5 tag-1496804464//
/work/sebastian/BT-20210625/1009781-light/run1009781-light.h5 tag-1496804474//
/work/sebastian/BT-20210625/1009781-light/run1009781-light.h5 tag-1496804478//
/work/sebastian/BT-20210625/1009781-light/run1009781-light.h5 tag-1496804480//
/work/sebastian/BT-20210625/1009781-light/run1009781-light.h5 tag-1496804486//
/work/sebastian/BT-20210625/1009781-light/run1009781-light.h5 tag-1496804490//
/work/sebastian/BT-20210625/1009781-light/run1009781-light.h5 tag-1496804492//
/work/sebastian/BT-20210625/1009781-light/run1009781-light.h5 tag-1496804494//
/work/sebastian/BT-20210625/1009781-light/run1009781-light.h5 tag-1496804502//
/work/sebastian/BT-20210625/1009781-light/run1009781-light.h5 tag-1496804504//
/work/sebastian/BT-20210625/1009781-light/run1009781-light.h5 tag-1496804506//
/work/sebastian/BT-20210625/1009781-light/run1009781-light.h5 tag-1496804508//
/work/sebastian/BT-20210625/1009781-light/run1009781-light.h5 tag-1496804514//
/work/sebastian/BT-20210625/1009781-light/run1009781-light.h5 tag-1496804516//
/work/sebastian/BT-20210625/1009781-light/run1009781-light.h5 tag-1496804520//
/work/sebastian/BT-20210625/1009781-light/run1009781-light.h5 tag-1496804528//
/work/sebastian/BT-20210625/1009781-light/run1009781-light.h5 tag-1496804530//
/work/sebastian/BT-20210625/1009781-light/run1009781-light.h5 tag-1496804532//
/work/sebastian/BT-20210625/1009781-light/run1009781-light.h5 tag-1496804536//
/work/sebastian/BT-20210625/1009781-light/run1009781-light.h5 tag-1496804544//
/work/sebastian/BT-20210625/1009781-light/run1009781-light.h5 tag-1496804546//
/work/sebastian/BT-20210625/1009781-light/run1009781-light.h5 tag-1496804548//
/work/sebastian/BT-20210625/1009781-light/run1009781-light.h5 tag-1496804556//
/work/sebastian/BT-20210625/1009781-light/run1009781-light.h5 tag-1496804558//
/work/sebastian/BT-20210625/1009781-light/run1009781-light.h5 tag-1496804560//
/work/sebastian/BT-20210625/1009781-light/run1009781-light.h5 tag-1496804562//
/work/sebastian/BT-20210625/1009781-light/run1009781-light.h5 tag-1496804570//
/work/sebastian/BT-20210625/1009781-light/run1009781-light.h5 tag-1496804572//
/work/sebastian/BT-20210625/1009781-light/run1009781-light.h5 tag-1496804574//
/work/sebastian/BT-20210625/1009781-light/run1009781-light.h5 tag-1496804576//
/work/sebastian/BT-20210625/1009781-light/run1009781-light.h5 tag-1496804578//
/work/sebastian/BT-20210625/1009781-light/run1009781-light.h5 tag-1496804584//
/work/sebastian/BT-20210625/1009781-light/run1009781-light.h5 tag-1496804588//
/work/sebastian/BT-20210625/1009781-light/run1009781-light.h5 tag-1496804590//
/work/sebastian/BT-20210625/1009781-light/run1009781-light.h5 tag-1496804592//
/work/sebastian/BT-20210625/1009781-light/run1009781-light.h5 tag-1496804598//
/work/sebastian/BT-20210625/1009781-light/run1009781-light.h5 tag-1496804600//
/work/sebastian/BT-20210625/1009781-light/run1009781-light.h5 tag-1496804606//
/work/sebastian/BT-20210625/1009781-light/run1009781-light.h5 tag-1496804614//
/work/sebastian/BT-20210625/1009781-light/run1009781-light.h5 tag-1496804616//
/work/sebastian/BT-20210625/1009781-light/run1009781-light.h5 tag-1496804618//
/work/sebastian/BT-20210625/1009781-light/run1009781-light.h5 tag-1496804628//
/work/sebastian/BT-20210625/1009781-light/run1009781-light.h5 tag-1496804632//
/work/sebastian/BT-20210625/1009781-light/run1009781-light.h5 tag-1496804642//
/work/sebastian/BT-20210625/1009781-light/run1009781-light.h5 tag-1496804646//
/work/sebastian/BT-20210625/1009781-light/run1009781-light.h5 tag-1496804650//
/work/sebastian/BT-20210625/1009781-light/run1009781-light.h5 tag-1496804654//
/work/sebastian/BT-20210625/1009781-light/run1009781-light.h5 tag-1496804656//
/work/sebastian/BT-20210625/1009781-light/run1009781-light.h5 tag-1496804668//
/work/sebastian/BT-20210625/1009781-light/run1009781-light.h5 tag-1496804672//
/work/sebastian/BT-20210625/1009781-light/run1009781-light.h5 tag-1496804674//
/work/sebastian/BT-20210625/1009781-light/run1009781-light.h5 tag-1496804676//
/work/sebastian/BT-20210625/1009781-light/run1009781-light.h5 tag-1496804678//
/work/sebastian/BT-20210625/1009781-light/run1009781-light.h5 tag-1496804684//
/work/sebastian/BT-20210625/1009781-light/run1009781-light.h5 tag-1496804686//
/work/sebastian/BT-20210625/1009781-light/run1009781-light.h5 tag-1496804690//
/work/sebastian/BT-20210625/1009781-light/run1009781-light.h5 tag-1496804710//
/work/sebastian/BT-20210625/1009781-light/run1009781-light.h5 tag-1496804724//
/work/sebastian/BT-20210625/1009781-light/run1009781-light.h5 tag-1496804726//
/work/sebastian/BT-20210625/1009781-light/run1009781-light.h5 tag-1496804728//
/work/sebastian/BT-20210625/1009781-light/run1009781-light.h5 tag-1496804730//
/work/sebastian/BT-20210625/1009781-light/run1009781-light.h5 tag-1496804740//
/work/sebastian/BT-20210625/1009781-light/run1009781-light.h5 tag-1496804742//
/work/sebastian/BT-20210625/1009781-light/run1009781-light.h5 tag-1496804746//
/work/sebastian/BT-20210625/1009781-light/run1009781-light.h5 tag-1496804748//
/work/sebastian/BT-20210625/1009781-light/run1009781-light.h5 tag-1496804750//
/work/sebastian/BT-20210625/1009781-light/run1009781-light.h5 tag-1496804756//
/work/sebastian/BT-20210625/1009781-light/run1009781-light.h5 tag-1496804758//
/work/sebastian/BT-20210625/1009781-light/run1009781-light.h5 tag-1496804764//
/work/sebastian/BT-20210625/1009781-light/run1009781-light.h5 tag-1496804766//
/work/sebastian/BT-20210625/1009781-light/run1009781-light.h5 tag-1496804770//
/work/sebastian/BT-20210625/1009781-light/run1009781-light.h5 tag-1496804772//
/work/sebastian/BT-20210625/1009781-light/run1009781-light.h5 tag-1496804780//
/work/sebastian/BT-20210625/1009781-light/run1009781-light.h5 tag-1496804782//
/work/sebastian/BT-20210625/1009781-light/run1009781-light.h5 tag-1496804784//
/work/sebastian/BT-20210625/1009781-light/run1009781-light.h5 tag-1496804786//
/work/sebastian/BT-20210625/1009781-light/run1009781-light.h5 tag-1496804788//
/work/sebastian/BT-20210625/1009781-light/run1009781-light.h5 tag-1496804790//
/work/sebastian/BT-20210625/1009781-light/run1009781-light.h5 tag-1496804794//
/work/sebastian/BT-20210625/1009781-light/run1009781-light.h5 tag-1496804796//
/work/sebastian/BT-20210625/1009781-light/run1009781-light.h5 tag-1496804798//
/work/sebastian/BT-20210625/1009781-light/run1009781-light.h5 tag-1496804800//
/work/sebastian/BT-20210625/1009781-light/run1009781-light.h5 tag-1496804802//
/work/sebastian/BT-20210625/1009781-light/run1009781-light.h5 tag-1496804806//
/work/sebastian/BT-20210625/1009781-light/run1009781-light.h5 tag-1496804810//
/work/sebastian/BT-20210625/1009781-light/run1009781-light.h5 tag-1496804812//
/work/sebastian/BT-20210625/1009781-light/run1009781-light.h5 tag-1496804816//
/work/sebastian/BT-20210625/1009781-light/run1009781-light.h5 tag-1496804820//
/work/sebastian/BT-20210625/1009781-light/run1009781-light.h5 tag-1496804822//
/work/sebastian/BT-20210625/1009781-light/run1009781-light.h5 tag-1496804826//
/work/sebastian/BT-20210625/1009781-light/run1009781-light.h5 tag-1496804828//
/work/sebastian/BT-20210625/1009781-light/run1009781-light.h5 tag-1496804830//
/work/sebastian/BT-20210625/1009781-light/run1009781-light.h5 tag-1496804838//
/work/sebastian/BT-20210625/1009781-light/run1009781-light.h5 tag-1496804840//
/work/sebastian/BT-20210625/1009781-light/run1009781-light.h5 tag-1496804842//
/work/sebastian/BT-20210625/1009781-light/run1009781-light.h5 tag-1496804844//
/work/sebastian/BT-20210625/1009781-light/run1009781-light.h5 tag-1496804846//
/work/sebastian/BT-20210625/1009781-light/run1009781-light.h5 tag-1496804854//
/work/sebastian/BT-20210625/1009781-light/run1009781-light.h5 tag-1496804862//
/work/sebastian/BT-20210625/1009781-light/run1009781-light.h5 tag-1496804864//
/work/sebastian/BT-20210625/1009781-light/run1009781-light.h5 tag-1496804868//
/work/sebastian/BT-20210625/1009781-light/run1009781-light.h5 tag-1496804870//
/work/sebastian/BT-20210625/1009781-light/run1009781-light.h5 tag-1496804874//
/work/sebastian/BT-20210625/1009781-light/run1009781-light.h5 tag-1496804876//
/work/sebastian/BT-20210625/1009781-light/run1009781-light.h5 tag-1496804878//
/work/sebastian/BT-20210625/1009781-light/run1009781-light.h5 tag-1496804882//
/work/sebastian/BT-20210625/1009781-light/run1009781-light.h5 tag-1496804892//
/work/sebastian/BT-20210625/1009781-light/run1009781-light.h5 tag-1496804894//
/work/sebastian/BT-20210625/1009781-light/run1009781-light.h5 tag-1496804896//
/work/sebastian/BT-20210625/1009781-light/run1009781-light.h5 tag-1496804898//
/work/sebastian/BT-20210625/1009781-light/run1009781-light.h5 tag-1496804900//
/work/sebastian/BT-20210625/1009781-light/run1009781-light.h5 tag-1496804906//
/work/sebastian/BT-20210625/1009781-light/run1009781-light.h5 tag-1496804912//
/work/sebastian/BT-20210625/1009781-light/run1009781-light.h5 tag-1496804914//
/work/sebastian/BT-20210625/1009781-light/run1009781-light.h5 tag-1496804916//
/work/sebastian/BT-20210625/1009781-light/run1009781-light.h5 tag-1496804924//
/work/sebastian/BT-20210625/1009781-light/run1009781-light.h5 tag-1496804928//
/work/sebastian/BT-20210625/1009781-light/run1009781-light.h5 tag-1496804936//
/work/sebastian/BT-20210625/1009781-light/run1009781-light.h5 tag-1496804938//
/work/sebastian/BT-20210625/1009781-light/run1009781-light.h5 tag-1496804940//
/work/sebastian/BT-20210625/1009781-light/run1009781-light.h5 tag-1496804942//
/work/sebastian/BT-20210625/1009781-light/run1009781-light.h5 tag-1496804946//
/work/sebastian/BT-20210625/1009781-light/run1009781-light.h5 tag-1496804948//
/work/sebastian/BT-20210625/1009781-light/run1009781-light.h5 tag-1496804950//
/work/sebastian/BT-20210625/1009781-light/run1009781-light.h5 tag-1496804952//
/work/sebastian/BT-20210625/1009781-light/run1009781-light.h5 tag-1496804956//
/work/sebastian/BT-20210625/1009781-light/run1009781-light.h5 tag-1496804958//
/work/sebastian/BT-20210625/1009781-light/run1009781-light.h5 tag-1496804966//
/work/sebastian/BT-20210625/1009781-light/run1009781-light.h5 tag-1496804968//
/work/sebastian/BT-20210625/1009781-light/run1009781-light.h5 tag-1496804972//
/work/sebastian/BT-20210625/1009781-light/run1009781-light.h5 tag-1496804980//
/work/sebastian/BT-20210625/1009781-light/run1009781-light.h5 tag-1496804982//
/work/sebastian/BT-20210625/1009781-light/run1009781-light.h5 tag-1496804984//
/work/sebastian/BT-20210625/1009781-light/run1009781-light.h5 tag-1496804986//
/work/sebastian/BT-20210625/1009781-light/run1009781-light.h5 tag-1496804998//
/work/sebastian/BT-20210625/1009781-light/run1009781-light.h5 tag-1496805002//
/work/sebastian/BT-20210625/1009781-light/run1009781-light.h5 tag-1496805004//
/work/sebastian/BT-20210625/1009781-light/run1009781-light.h5 tag-1496805006//
/work/sebastian/BT-20210625/1009781-light/run1009781-light.h5 tag-1496805010//
/work/sebastian/BT-20210625/1009781-light/run1009781-light.h5 tag-1496805018//
/work/sebastian/BT-20210625/1009781-light/run1009781-light.h5 tag-1496805020//
/work/sebastian/BT-20210625/1009781-light/run1009781-light.h5 tag-1496805024//
/work/sebastian/BT-20210625/1009781-light/run1009781-light.h5 tag-1496805026//
/work/sebastian/BT-20210625/1009781-light/run1009781-light.h5 tag-1496805030//
/work/sebastian/BT-20210625/1009781-light/run1009781-light.h5 tag-1496805032//
/work/sebastian/BT-20210625/1009781-light/run1009781-light.h5 tag-1496805034//
/work/sebastian/BT-20210625/1009781-light/run1009781-light.h5 tag-1496805036//
/work/sebastian/BT-20210625/1009781-light/run1009781-light.h5 tag-1496805038//
/work/sebastian/BT-20210625/1009781-light/run1009781-light.h5 tag-1496805042//
/work/sebastian/BT-20210625/1009781-light/run1009781-light.h5 tag-1496805050//
/work/sebastian/BT-20210625/1009781-light/run1009781-light.h5 tag-1496805052//
/work/sebastian/BT-20210625/1009781-light/run1009781-light.h5 tag-1496805056//
/work/sebastian/BT-20210625/1009781-light/run1009781-light.h5 tag-1496805058//
/work/sebastian/BT-20210625/1009781-light/run1009781-light.h5 tag-1496805060//
/work/sebastian/BT-20210625/1009781-light/run1009781-light.h5 tag-1496805062//
/work/sebastian/BT-20210625/1009781-light/run1009781-light.h5 tag-1496805064//
/work/sebastian/BT-20210625/1009781-light/run1009781-light.h5 tag-1496805066//
/work/sebastian/BT-20210625/1009781-light/run1009781-light.h5 tag-1496805068//
/work/sebastian/BT-20210625/1009781-light/run1009781-light.h5 tag-1496805076//
/work/sebastian/BT-20210625/1009781-light/run1009781-light.h5 tag-1496805078//
/work/sebastian/BT-20210625/1009781-light/run1009781-light.h5 tag-1496805082//
/work/sebastian/BT-20210625/1009781-light/run1009781-light.h5 tag-1496805084//
/work/sebastian/BT-20210625/1009781-light/run1009781-light.h5 tag-1496805086//
/work/sebastian/BT-20210625/1009781-light/run1009781-light.h5 tag-1496805088//
/work/sebastian/BT-20210625/1009781-light/run1009781-light.h5 tag-1496805090//
/work/sebastian/BT-20210625/1009781-light/run1009781-light.h5 tag-1496805092//
/work/sebastian/BT-20210625/1009781-light/run1009781-light.h5 tag-1496805094//
/work/sebastian/BT-20210625/1009781-light/run1009781-light.h5 tag-1496805096//
/work/sebastian/BT-20210625/1009781-light/run1009781-light.h5 tag-1496805098//
/work/sebastian/BT-20210625/1009781-light/run1009781-light.h5 tag-1496805102//
/work/sebastian/BT-20210625/1009781-light/run1009781-light.h5 tag-1496805104//
/work/sebastian/BT-20210625/1009781-light/run1009781-light.h5 tag-1496805106//
/work/sebastian/BT-20210625/1009781-light/run1009781-light.h5 tag-1496805110//
/work/sebastian/BT-20210625/1009781-light/run1009781-light.h5 tag-1496805112//
/work/sebastian/BT-20210625/1009781-light/run1009781-light.h5 tag-1496805114//
/work/sebastian/BT-20210625/1009781-light/run1009781-light.h5 tag-1496805116//
/work/sebastian/BT-20210625/1009781-light/run1009781-light.h5 tag-1496805120//
/work/sebastian/BT-20210625/1009781-light/run1009781-light.h5 tag-1496805128//
/work/sebastian/BT-20210625/1009781-light/run1009781-light.h5 tag-1496805130//
/work/sebastian/BT-20210625/1009781-light/run1009781-light.h5 tag-1496805132//
/work/sebastian/BT-20210625/1009781-light/run1009781-light.h5 tag-1496805142//
/work/sebastian/BT-20210625/1009781-light/run1009781-light.h5 tag-1496805144//
/work/sebastian/BT-20210625/1009781-light/run1009781-light.h5 tag-1496805146//
/work/sebastian/BT-20210625/1009781-light/run1009781-light.h5 tag-1496805148//
/work/sebastian/BT-20210625/1009781-light/run1009781-light.h5 tag-1496805150//
/work/sebastian/BT-20210625/1009781-light/run1009781-light.h5 tag-1496805156//
/work/sebastian/BT-20210625/1009781-light/run1009781-light.h5 tag-1496805160//
/work/sebastian/BT-20210625/1009781-light/run1009781-light.h5 tag-1496805164//
/work/sebastian/BT-20210625/1009781-light/run1009781-light.h5 tag-1496805172//
/work/sebastian/BT-20210625/1009781-light/run1009781-light.h5 tag-1496805174//
/work/sebastian/BT-20210625/1009781-light/run1009781-light.h5 tag-1496805176//
/work/sebastian/BT-20210625/1009781-light/run1009781-light.h5 tag-1496805184//
/work/sebastian/BT-20210625/1009781-light/run1009781-light.h5 tag-1496805186//
/work/sebastian/BT-20210625/1009781-light/run1009781-light.h5 tag-1496805188//
/work/sebastian/BT-20210625/1009781-light/run1009781-light.h5 tag-1496805190//
/work/sebastian/BT-20210625/1009781-light/run1009781-light.h5 tag-1496805192//
/work/sebastian/BT-20210625/1009781-light/run1009781-light.h5 tag-1496805194//
/work/sebastian/BT-20210625/1009781-light/run1009781-light.h5 tag-1496805198//
/work/sebastian/BT-20210625/1009781-light/run1009781-light.h5 tag-1496805200//
/work/sebastian/BT-20210625/1009781-light/run1009781-light.h5 tag-1496805204//
/work/sebastian/BT-20210625/1009781-light/run1009781-light.h5 tag-1496805212//
/work/sebastian/BT-20210625/1009781-light/run1009781-light.h5 tag-1496805218//
/work/sebastian/BT-20210625/1009781-light/run1009781-light.h5 tag-1496805222//
/work/sebastian/BT-20210625/1009781-light/run1009781-light.h5 tag-1496805224//
/work/sebastian/BT-20210625/1009781-light/run1009781-light.h5 tag-1496805226//
/work/sebastian/BT-20210625/1009781-light/run1009781-light.h5 tag-1496805228//
/work/sebastian/BT-20210625/1009781-light/run1009781-light.h5 tag-1496805230//
/work/sebastian/BT-20210625/1009781-light/run1009781-light.h5 tag-1496805232//
/work/sebastian/BT-20210625/1009781-light/run1009781-light.h5 tag-1496805236//
/work/sebastian/BT-20210625/1009781-light/run1009781-light.h5 tag-1496805238//
/work/sebastian/BT-20210625/1009781-light/run1009781-light.h5 tag-1496805242//
/work/sebastian/BT-20210625/1009781-light/run1009781-light.h5 tag-1496805244//
/work/sebastian/BT-20210625/1009781-light/run1009781-light.h5 tag-1496805248//
/work/sebastian/BT-20210625/1009781-light/run1009781-light.h5 tag-1496805250//
/work/sebastian/BT-20210625/1009781-light/run1009781-light.h5 tag-1496805256//
/work/sebastian/BT-20210625/1009781-light/run1009781-light.h5 tag-1496805258//
/work/sebastian/BT-20210625/1009781-light/run1009781-light.h5 tag-1496805260//
/work/sebastian/BT-20210625/1009781-light/run1009781-light.h5 tag-1496805262//
/work/sebastian/BT-20210625/1009781-light/run1009781-light.h5 tag-1496805264//
/work/sebastian/BT-20210625/1009781-light/run1009781-light.h5 tag-1496805272//
/work/sebastian/BT-20210625/1009781-light/run1009781-light.h5 tag-1496805276//
/work/sebastian/BT-20210625/1009781-light/run1009781-light.h5 tag-1496805280//
/work/sebastian/BT-20210625/1009781-light/run1009781-light.h5 tag-1496805284//
/work/sebastian/BT-20210625/1009781-light/run1009781-light.h5 tag-1496805288//
/work/sebastian/BT-20210625/1009781-light/run1009781-light.h5 tag-1496805290//
/work/sebastian/BT-20210625/1009781-light/run1009781-light.h5 tag-1496805292//
/work/sebastian/BT-20210625/1009781-light/run1009781-light.h5 tag-1496805298//
/work/sebastian/BT-20210625/1009781-light/run1009781-light.h5 tag-1496805300//
/work/sebastian/BT-20210625/1009781-light/run1009781-light.h5 tag-1496805302//
/work/sebastian/BT-20210625/1009781-light/run1009781-light.h5 tag-1496805304//
/work/sebastian/BT-20210625/1009781-light/run1009781-light.h5 tag-1496805314//
/work/sebastian/BT-20210625/1009781-light/run1009781-light.h5 tag-1496805324//
/work/sebastian/BT-20210625/1009781-light/run1009781-light.h5 tag-1496805326//
/work/sebastian/BT-20210625/1009781-light/run1009781-light.h5 tag-1496805328//
/work/sebastian/BT-20210625/1009781-light/run1009781-light.h5 tag-1496805338//
/work/sebastian/BT-20210625/1009781-light/run1009781-light.h5 tag-1496805342//
/work/sebastian/BT-20210625/1009781-light/run1009781-light.h5 tag-1496805344//
/work/sebastian/BT-20210625/1009781-light/run1009781-light.h5 tag-1496805346//
/work/sebastian/BT-20210625/1009781-light/run1009781-light.h5 tag-1496805352//
/work/sebastian/BT-20210625/1009781-light/run1009781-light.h5 tag-1496805354//
/work/sebastian/BT-20210625/1009781-light/run1009781-light.h5 tag-1496805358//
/work/sebastian/BT-20210625/1009781-light/run1009781-light.h5 tag-1496805360//
/work/sebastian/BT-20210625/1009781-light/run1009781-light.h5 tag-1496805362//
/work/sebastian/BT-20210625/1009781-light/run1009781-light.h5 tag-1496805366//
/work/sebastian/BT-20210625/1009781-light/run1009781-light.h5 tag-1496805368//
/work/sebastian/BT-20210625/1009781-light/run1009781-light.h5 tag-1496805372//
/work/sebastian/BT-20210625/1009781-light/run1009781-light.h5 tag-1496805382//
/work/sebastian/BT-20210625/1009781-light/run1009781-light.h5 tag-1496805386//
/work/sebastian/BT-20210625/1009781-light/run1009781-light.h5 tag-1496805388//
/work/sebastian/BT-20210625/1009781-light/run1009781-light.h5 tag-1496805390//
/work/sebastian/BT-20210625/1009781-light/run1009781-light.h5 tag-1496805392//
/work/sebastian/BT-20210625/1009781-light/run1009781-light.h5 tag-1496805394//
/work/sebastian/BT-20210625/1009781-light/run1009781-light.h5 tag-1496805396//
/work/sebastian/BT-20210625/1009781-light/run1009781-light.h5 tag-1496805400//
/work/sebastian/BT-20210625/1009781-light/run1009781-light.h5 tag-1496805402//
/work/sebastian/BT-20210625/1009781-light/run1009781-light.h5 tag-1496805404//
/work/sebastian/BT-20210625/1009781-light/run1009781-light.h5 tag-1496805408//
/work/sebastian/BT-20210625/1009781-light/run1009781-light.h5 tag-1496805412//
/work/sebastian/BT-20210625/1009781-light/run1009781-light.h5 tag-1496805420//
/work/sebastian/BT-20210625/1009781-light/run1009781-light.h5 tag-1496805422//
/work/sebastian/BT-20210625/1009781-light/run1009781-light.h5 tag-1496805424//
/work/sebastian/BT-20210625/1009781-light/run1009781-light.h5 tag-1496805426//
/work/sebastian/BT-20210625/1009781-light/run1009781-light.h5 tag-1496805428//
/work/sebastian/BT-20210625/1009781-light/run1009781-light.h5 tag-1496805430//
/work/sebastian/BT-20210625/1009781-light/run1009781-light.h5 tag-1496805432//
/work/sebastian/BT-20210625/1009781-light/run1009781-light.h5 tag-1496805434//
/work/sebastian/BT-20210625/1009781-light/run1009781-light.h5 tag-1496805436//
/work/sebastian/BT-20210625/1009781-light/run1009781-light.h5 tag-1496805438//
/work/sebastian/BT-20210625/1009781-light/run1009781-light.h5 tag-1496805440//
/work/sebastian/BT-20210625/1009781-light/run1009781-light.h5 tag-1496805442//
/work/sebastian/BT-20210625/1009781-light/run1009781-light.h5 tag-1496805444//
/work/sebastian/BT-20210625/1009781-light/run1009781-light.h5 tag-1496805446//
/work/sebastian/BT-20210625/1009781-light/run1009781-light.h5 tag-1496805448//
/work/sebastian/BT-20210625/1009781-light/run1009781-light.h5 tag-1496805450//
/work/sebastian/BT-20210625/1009781-light/run1009781-light.h5 tag-1496805454//
/work/sebastian/BT-20210625/1009781-light/run1009781-light.h5 tag-1496805456//
/work/sebastian/BT-20210625/1009781-light/run1009781-light.h5 tag-1496805458//
/work/sebastian/BT-20210625/1009781-light/run1009781-light.h5 tag-1496805464//
/work/sebastian/BT-20210625/1009781-light/run1009781-light.h5 tag-1496805472//
/work/sebastian/BT-20210625/1009781-light/run1009781-light.h5 tag-1496805476//
/work/sebastian/BT-20210625/1009781-light/run1009781-light.h5 tag-1496805478//
/work/sebastian/BT-20210625/1009781-light/run1009781-light.h5 tag-1496805486//
/work/sebastian/BT-20210625/1009781-light/run1009781-light.h5 tag-1496805488//
/work/sebastian/BT-20210625/1009781-light/run1009781-light.h5 tag-1496805490//
/work/sebastian/BT-20210625/1009781-light/run1009781-light.h5 tag-1496805492//
/work/sebastian/BT-20210625/1009781-light/run1009781-light.h5 tag-1496805494//
/work/sebastian/BT-20210625/1009781-light/run1009781-light.h5 tag-1496805498//
/work/sebastian/BT-20210625/1009781-light/run1009781-light.h5 tag-1496805504//
/work/sebastian/BT-20210625/1009781-light/run1009781-light.h5 tag-1496805506//
/work/sebastian/BT-20210625/1009781-light/run1009781-light.h5 tag-1496805514//
/work/sebastian/BT-20210625/1009781-light/run1009781-light.h5 tag-1496805516//
/work/sebastian/BT-20210625/1009781-light/run1009781-light.h5 tag-1496805520//
/work/sebastian/BT-20210625/1009781-light/run1009781-light.h5 tag-1496805522//
/work/sebastian/BT-20210625/1009781-light/run1009781-light.h5 tag-1496805526//
/work/sebastian/BT-20210625/1009781-light/run1009781-light.h5 tag-1496805528//
/work/sebastian/BT-20210625/1009781-light/run1009781-light.h5 tag-1496805530//
/work/sebastian/BT-20210625/1009781-light/run1009781-light.h5 tag-1496805540//
/work/sebastian/BT-20210625/1009781-light/run1009781-light.h5 tag-1496805542//
/work/sebastian/BT-20210625/1009781-light/run1009781-light.h5 tag-1496805544//
/work/sebastian/BT-20210625/1009781-light/run1009781-light.h5 tag-1496805546//
/work/sebastian/BT-20210625/1009781-light/run1009781-light.h5 tag-1496805548//
/work/sebastian/BT-20210625/1009781-light/run1009781-light.h5 tag-1496805550//
/work/sebastian/BT-20210625/1009781-light/run1009781-light.h5 tag-1496805552//
/work/sebastian/BT-20210625/1009781-light/run1009781-light.h5 tag-1496805554//
/work/sebastian/BT-20210625/1009781-light/run1009781-light.h5 tag-1496805558//
/work/sebastian/BT-20210625/1009781-light/run1009781-light.h5 tag-1496805566//
/work/sebastian/BT-20210625/1009781-light/run1009781-light.h5 tag-1496805568//
/work/sebastian/BT-20210625/1009781-light/run1009781-light.h5 tag-1496805570//
/work/sebastian/BT-20210625/1009781-light/run1009781-light.h5 tag-1496805576//
/work/sebastian/BT-20210625/1009781-light/run1009781-light.h5 tag-1496805580//
/work/sebastian/BT-20210625/1009781-light/run1009781-light.h5 tag-1496805582//
/work/sebastian/BT-20210625/1009781-light/run1009781-light.h5 tag-1496805584//
/work/sebastian/BT-20210625/1009781-light/run1009781-light.h5 tag-1496805588//
/work/sebastian/BT-20210625/1009781-light/run1009781-light.h5 tag-1496805590//
/work/sebastian/BT-20210625/1009781-light/run1009781-light.h5 tag-1496805594//
/work/sebastian/BT-20210625/1009781-light/run1009781-light.h5 tag-1496805596//
/work/sebastian/BT-20210625/1009781-light/run1009781-light.h5 tag-1496805600//
/work/sebastian/BT-20210625/1009781-light/run1009781-light.h5 tag-1496805602//
/work/sebastian/BT-20210625/1009781-light/run1009781-light.h5 tag-1496805604//
/work/sebastian/BT-20210625/1009781-light/run1009781-light.h5 tag-1496805608//
/work/sebastian/BT-20210625/1009781-light/run1009781-light.h5 tag-1496805612//
/work/sebastian/BT-20210625/1009781-light/run1009781-light.h5 tag-1496805614//
/work/sebastian/BT-20210625/1009781-light/run1009781-light.h5 tag-1496805616//
/work/sebastian/BT-20210625/1009781-light/run1009781-light.h5 tag-1496805624//
/work/sebastian/BT-20210625/1009781-light/run1009781-light.h5 tag-1496805628//
/work/sebastian/BT-20210625/1009781-light/run1009781-light.h5 tag-1496805636//
/work/sebastian/BT-20210625/1009781-light/run1009781-light.h5 tag-1496805638//
/work/sebastian/BT-20210625/1009781-light/run1009781-light.h5 tag-1496805640//
/work/sebastian/BT-20210625/1009781-light/run1009781-light.h5 tag-1496805642//
/work/sebastian/BT-20210625/1009781-light/run1009781-light.h5 tag-1496805644//
/work/sebastian/BT-20210625/1009781-light/run1009781-light.h5 tag-1496805646//
/work/sebastian/BT-20210625/1009781-light/run1009781-light.h5 tag-1496805654//
/work/sebastian/BT-20210625/1009781-light/run1009781-light.h5 tag-1496805656//
/work/sebastian/BT-20210625/1009781-light/run1009781-light.h5 tag-1496805658//
/work/sebastian/BT-20210625/1009781-light/run1009781-light.h5 tag-1496805662//
/work/sebastian/BT-20210625/1009781-light/run1009781-light.h5 tag-1496805666//
/work/sebastian/BT-20210625/1009781-light/run1009781-light.h5 tag-1496805670//
/work/sebastian/BT-20210625/1009781-light/run1009781-light.h5 tag-1496805674//
/work/sebastian/BT-20210625/1009781-light/run1009781-light.h5 tag-1496805676//
/work/sebastian/BT-20210625/1009781-light/run1009781-light.h5 tag-1496805680//
/work/sebastian/BT-20210625/1009781-light/run1009781-light.h5 tag-1496805682//
/work/sebastian/BT-20210625/1009781-light/run1009781-light.h5 tag-1496805684//
/work/sebastian/BT-20210625/1009781-light/run1009781-light.h5 tag-1496805686//
/work/sebastian/BT-20210625/1009781-light/run1009781-light.h5 tag-1496805688//
/work/sebastian/BT-20210625/1009781-light/run1009781-light.h5 tag-1496805692//
/work/sebastian/BT-20210625/1009781-light/run1009781-light.h5 tag-1496805694//
/work/sebastian/BT-20210625/1009781-light/run1009781-light.h5 tag-1496805696//
/work/sebastian/BT-20210625/1009781-light/run1009781-light.h5 tag-1496805698//
/work/sebastian/BT-20210625/1009781-light/run1009781-light.h5 tag-1496805700//
/work/sebastian/BT-20210625/1009781-light/run1009781-light.h5 tag-1496805702//
/work/sebastian/BT-20210625/1009781-light/run1009781-light.h5 tag-1496805706//
/work/sebastian/BT-20210625/1009781-light/run1009781-light.h5 tag-1496805710//
/work/sebastian/BT-20210625/1009781-light/run1009781-light.h5 tag-1496805712//
/work/sebastian/BT-20210625/1009781-light/run1009781-light.h5 tag-1496805714//
/work/sebastian/BT-20210625/1009781-light/run1009781-light.h5 tag-1496805716//
/work/sebastian/BT-20210625/1009781-light/run1009781-light.h5 tag-1496805718//
/work/sebastian/BT-20210625/1009781-light/run1009781-light.h5 tag-1496805722//
/work/sebastian/BT-20210625/1009781-light/run1009781-light.h5 tag-1496805726//
/work/sebastian/BT-20210625/1009781-light/run1009781-light.h5 tag-1496805728//
/work/sebastian/BT-20210625/1009781-light/run1009781-light.h5 tag-1496805730//
/work/sebastian/BT-20210625/1009781-light/run1009781-light.h5 tag-1496805740//
/work/sebastian/BT-20210625/1009781-light/run1009781-light.h5 tag-1496805742//
/work/sebastian/BT-20210625/1009781-light/run1009781-light.h5 tag-1496805746//
/work/sebastian/BT-20210625/1009781-light/run1009781-light.h5 tag-1496805750//
/work/sebastian/BT-20210625/1009781-light/run1009781-light.h5 tag-1496805752//
/work/sebastian/BT-20210625/1009781-light/run1009781-light.h5 tag-1496805754//
/work/sebastian/BT-20210625/1009781-light/run1009781-light.h5 tag-1496805756//
/work/sebastian/BT-20210625/1009781-light/run1009781-light.h5 tag-1496805758//
/work/sebastian/BT-20210625/1009781-light/run1009781-light.h5 tag-1496805760//
/work/sebastian/BT-20210625/1009781-light/run1009781-light.h5 tag-1496805766//
/work/sebastian/BT-20210625/1009781-light/run1009781-light.h5 tag-1496805768//
/work/sebastian/BT-20210625/1009781-light/run1009781-light.h5 tag-1496805770//
/work/sebastian/BT-20210625/1009781-light/run1009781-light.h5 tag-1496805772//
/work/sebastian/BT-20210625/1009781-light/run1009781-light.h5 tag-1496805774//
/work/sebastian/BT-20210625/1009781-light/run1009781-light.h5 tag-1496805776//
/work/sebastian/BT-20210625/1009781-light/run1009781-light.h5 tag-1496805778//
/work/sebastian/BT-20210625/1009781-light/run1009781-light.h5 tag-1496805780//
/work/sebastian/BT-20210625/1009781-light/run1009781-light.h5 tag-1496805782//
/work/sebastian/BT-20210625/1009781-light/run1009781-light.h5 tag-1496805784//
/work/sebastian/BT-20210625/1009781-light/run1009781-light.h5 tag-1496805790//
/work/sebastian/BT-20210625/1009781-light/run1009781-light.h5 tag-1496805798//
/work/sebastian/BT-20210625/1009781-light/run1009781-light.h5 tag-1496805800//
/work/sebastian/BT-20210625/1009781-light/run1009781-light.h5 tag-1496805802//
/work/sebastian/BT-20210625/1009781-light/run1009781-light.h5 tag-1496805806//
/work/sebastian/BT-20210625/1009781-light/run1009781-light.h5 tag-1496805808//
/work/sebastian/BT-20210625/1009781-light/run1009781-light.h5 tag-1496805812//
/work/sebastian/BT-20210625/1009781-light/run1009781-light.h5 tag-1496805814//
/work/sebastian/BT-20210625/1009781-light/run1009781-light.h5 tag-1496805824//
/work/sebastian/BT-20210625/1009781-light/run1009781-light.h5 tag-1496805826//
/work/sebastian/BT-20210625/1009781-light/run1009781-light.h5 tag-1496805828//
/work/sebastian/BT-20210625/1009781-light/run1009781-light.h5 tag-1496805830//
/work/sebastian/BT-20210625/1009781-light/run1009781-light.h5 tag-1496805836//
/work/sebastian/BT-20210625/1009781-light/run1009781-light.h5 tag-1496805838//
/work/sebastian/BT-20210625/1009781-light/run1009781-light.h5 tag-1496805842//
/work/sebastian/BT-20210625/1009781-light/run1009781-light.h5 tag-1496805844//
/work/sebastian/BT-20210625/1009781-light/run1009781-light.h5 tag-1496805850//
/work/sebastian/BT-20210625/1009781-light/run1009781-light.h5 tag-1496805852//
/work/sebastian/BT-20210625/1009781-light/run1009781-light.h5 tag-1496805854//
/work/sebastian/BT-20210625/1009781-light/run1009781-light.h5 tag-1496805858//
/work/sebastian/BT-20210625/1009781-light/run1009781-light.h5 tag-1496805866//
/work/sebastian/BT-20210625/1009781-light/run1009781-light.h5 tag-1496805868//
/work/sebastian/BT-20210625/1009781-light/run1009781-light.h5 tag-1496805872//
/work/sebastian/BT-20210625/1009781-light/run1009781-light.h5 tag-1496805874//
/work/sebastian/BT-20210625/1009781-light/run1009781-light.h5 tag-1496805876//
/work/sebastian/BT-20210625/1009781-light/run1009781-light.h5 tag-1496805880//
/work/sebastian/BT-20210625/1009781-light/run1009781-light.h5 tag-1496805882//
/work/sebastian/BT-20210625/1009781-light/run1009781-light.h5 tag-1496805886//
/work/sebastian/BT-20210625/1009781-light/run1009781-light.h5 tag-1496805894//
/work/sebastian/BT-20210625/1009781-light/run1009781-light.h5 tag-1496805896//
/work/sebastian/BT-20210625/1009781-light/run1009781-light.h5 tag-1496805900//
/work/sebastian/BT-20210625/1009781-light/run1009781-light.h5 tag-1496805902//
/work/sebastian/BT-20210625/1009781-light/run1009781-light.h5 tag-1496805908//
/work/sebastian/BT-20210625/1009781-light/run1009781-light.h5 tag-1496805912//
/work/sebastian/BT-20210625/1009781-light/run1009781-light.h5 tag-1496805920//
/work/sebastian/BT-20210625/1009781-light/run1009781-light.h5 tag-1496805924//
/work/sebastian/BT-20210625/1009781-light/run1009781-light.h5 tag-1496805928//
/work/sebastian/BT-20210625/1009781-light/run1009781-light.h5 tag-1496805930//
/work/sebastian/BT-20210625/1009781-light/run1009781-light.h5 tag-1496805934//
/work/sebastian/BT-20210625/1009781-light/run1009781-light.h5 tag-1496805936//
/work/sebastian/BT-20210625/1009781-light/run1009781-light.h5 tag-1496805938//
/work/sebastian/BT-20210625/1009781-light/run1009781-light.h5 tag-1496805940//
/work/sebastian/BT-20210625/1009781-light/run1009781-light.h5 tag-1496805942//
/work/sebastian/BT-20210625/1009781-light/run1009781-light.h5 tag-1496805946//
/work/sebastian/BT-20210625/1009781-light/run1009781-light.h5 tag-1496805948//
/work/sebastian/BT-20210625/1009781-light/run1009781-light.h5 tag-1496805950//
/work/sebastian/BT-20210625/1009781-light/run1009781-light.h5 tag-1496805952//
/work/sebastian/BT-20210625/1009781-light/run1009781-light.h5 tag-1496805954//
/work/sebastian/BT-20210625/1009781-light/run1009781-light.h5 tag-1496805958//
/work/sebastian/BT-20210625/1009781-light/run1009781-light.h5 tag-1496805960//
/work/sebastian/BT-20210625/1009781-light/run1009781-light.h5 tag-1496805964//
/work/sebastian/BT-20210625/1009781-light/run1009781-light.h5 tag-1496805966//
/work/sebastian/BT-20210625/1009781-light/run1009781-light.h5 tag-1496805972//
/work/sebastian/BT-20210625/1009781-light/run1009781-light.h5 tag-1496805974//
/work/sebastian/BT-20210625/1009781-light/run1009781-light.h5 tag-1496805976//
/work/sebastian/BT-20210625/1009781-light/run1009781-light.h5 tag-1496805982//
/work/sebastian/BT-20210625/1009781-light/run1009781-light.h5 tag-1496805984//
/work/sebastian/BT-20210625/1009781-light/run1009781-light.h5 tag-1496805990//
/work/sebastian/BT-20210625/1009781-light/run1009781-light.h5 tag-1496805996//
/work/sebastian/BT-20210625/1009781-light/run1009781-light.h5 tag-1496806000//
/work/sebastian/BT-20210625/1009781-light/run1009781-light.h5 tag-1496806002//
/work/sebastian/BT-20210625/1009781-light/run1009781-light.h5 tag-1496806004//
/work/sebastian/BT-20210625/1009781-light/run1009781-light.h5 tag-1496806006//
/work/sebastian/BT-20210625/1009781-light/run1009781-light.h5 tag-1496806008//
/work/sebastian/BT-20210625/1009781-light/run1009781-light.h5 tag-1496806012//
/work/sebastian/BT-20210625/1009781-light/run1009781-light.h5 tag-1496806014//
/work/sebastian/BT-20210625/1009781-light/run1009781-light.h5 tag-1496806016//
/work/sebastian/BT-20210625/1009781-light/run1009781-light.h5 tag-1496806020//
/work/sebastian/BT-20210625/1009781-light/run1009781-light.h5 tag-1496806026//
/work/sebastian/BT-20210625/1009781-light/run1009781-light.h5 tag-1496806030//
/work/sebastian/BT-20210625/1009781-light/run1009781-light.h5 tag-1496806040//
/work/sebastian/BT-20210625/1009781-light/run1009781-light.h5 tag-1496806042//
/work/sebastian/BT-20210625/1009781-light/run1009781-light.h5 tag-1496806046//
/work/sebastian/BT-20210625/1009781-light/run1009781-light.h5 tag-1496806052//
/work/sebastian/BT-20210625/1009781-light/run1009781-light.h5 tag-1496806054//
/work/sebastian/BT-20210625/1009781-light/run1009781-light.h5 tag-1496806056//
/work/sebastian/BT-20210625/1009781-light/run1009781-light.h5 tag-1496806060//
/work/sebastian/BT-20210625/1009781-light/run1009781-light.h5 tag-1496806070//
/work/sebastian/BT-20210625/1009781-light/run1009781-light.h5 tag-1496806082//
/work/sebastian/BT-20210625/1009781-light/run1009781-light.h5 tag-1496806084//
/work/sebastian/BT-20210625/1009781-light/run1009781-light.h5 tag-1496806086//
/work/sebastian/BT-20210625/1009781-light/run1009781-light.h5 tag-1496806094//
/work/sebastian/BT-20210625/1009781-light/run1009781-light.h5 tag-1496806096//
/work/sebastian/BT-20210625/1009781-light/run1009781-light.h5 tag-1496806098//
/work/sebastian/BT-20210625/1009781-light/run1009781-light.h5 tag-1496806100//
/work/sebastian/BT-20210625/1009781-light/run1009781-light.h5 tag-1496806102//
/work/sebastian/BT-20210625/1009781-light/run1009781-light.h5 tag-1496806104//
/work/sebastian/BT-20210625/1009781-light/run1009781-light.h5 tag-1496806108//
/work/sebastian/BT-20210625/1009781-light/run1009781-light.h5 tag-1496806110//
/work/sebastian/BT-20210625/1009781-light/run1009781-light.h5 tag-1496806114//
/work/sebastian/BT-20210625/1009781-light/run1009781-light.h5 tag-1496806124//
/work/sebastian/BT-20210625/1009781-light/run1009781-light.h5 tag-1496806126//
/work/sebastian/BT-20210625/1009781-light/run1009781-light.h5 tag-1496806128//
/work/sebastian/BT-20210625/1009781-light/run1009781-light.h5 tag-1496806138//
/work/sebastian/BT-20210625/1009781-light/run1009781-light.h5 tag-1496806140//
/work/sebastian/BT-20210625/1009781-light/run1009781-light.h5 tag-1496806142//
/work/sebastian/BT-20210625/1009781-light/run1009781-light.h5 tag-1496806144//
/work/sebastian/BT-20210625/1009781-light/run1009781-light.h5 tag-1496806146//
/work/sebastian/BT-20210625/1009781-light/run1009781-light.h5 tag-1496806148//
/work/sebastian/BT-20210625/1009781-light/run1009781-light.h5 tag-1496806150//
/work/sebastian/BT-20210625/1009781-light/run1009781-light.h5 tag-1496806152//
/work/sebastian/BT-20210625/1009781-light/run1009781-light.h5 tag-1496806154//
/work/sebastian/BT-20210625/1009781-light/run1009781-light.h5 tag-1496806164//
/work/sebastian/BT-20210625/1009781-light/run1009781-light.h5 tag-1496806166//
/work/sebastian/BT-20210625/1009781-light/run1009781-light.h5 tag-1496806176//
/work/sebastian/BT-20210625/1009781-light/run1009781-light.h5 tag-1496806178//
/work/sebastian/BT-20210625/1009781-light/run1009781-light.h5 tag-1496806180//
/work/sebastian/BT-20210625/1009781-light/run1009781-light.h5 tag-1496806182//
/work/sebastian/BT-20210625/1009781-light/run1009781-light.h5 tag-1496806190//
/work/sebastian/BT-20210625/1009781-light/run1009781-light.h5 tag-1496806192//
/work/sebastian/BT-20210625/1009781-light/run1009781-light.h5 tag-1496806194//
/work/sebastian/BT-20210625/1009781-light/run1009781-light.h5 tag-1496806196//
/work/sebastian/BT-20210625/1009781-light/run1009781-light.h5 tag-1496806198//
/work/sebastian/BT-20210625/1009781-light/run1009781-light.h5 tag-1496806202//
/work/sebastian/BT-20210625/1009781-light/run1009781-light.h5 tag-1496806204//
/work/sebastian/BT-20210625/1009781-light/run1009781-light.h5 tag-1496806210//
/work/sebastian/BT-20210625/1009781-light/run1009781-light.h5 tag-1496806218//
/work/sebastian/BT-20210625/1009781-light/run1009781-light.h5 tag-1496806220//
/work/sebastian/BT-20210625/1009781-light/run1009781-light.h5 tag-1496806222//
/work/sebastian/BT-20210625/1009781-light/run1009781-light.h5 tag-1496806232//
/work/sebastian/BT-20210625/1009781-light/run1009781-light.h5 tag-1496806236//
/work/sebastian/BT-20210625/1009781-light/run1009781-light.h5 tag-1496806238//
/work/sebastian/BT-20210625/1009781-light/run1009781-light.h5 tag-1496806240//
/work/sebastian/BT-20210625/1009781-light/run1009781-light.h5 tag-1496806248//
/work/sebastian/BT-20210625/1009781-light/run1009781-light.h5 tag-1496806262//
/work/sebastian/BT-20210625/1009781-light/run1009781-light.h5 tag-1496806264//
/work/sebastian/BT-20210625/1009781-light/run1009781-light.h5 tag-1496806268//
/work/sebastian/BT-20210625/1009781-light/run1009781-light.h5 tag-1496806276//
/work/sebastian/BT-20210625/1009781-light/run1009781-light.h5 tag-1496806278//
/work/sebastian/BT-20210625/1009781-light/run1009781-light.h5 tag-1496806280//
/work/sebastian/BT-20210625/1009781-light/run1009781-light.h5 tag-1496806290//
/work/sebastian/BT-20210625/1009781-light/run1009781-light.h5 tag-1496806292//
/work/sebastian/BT-20210625/1009781-light/run1009781-light.h5 tag-1496806294//
/work/sebastian/BT-20210625/1009781-light/run1009781-light.h5 tag-1496806296//
/work/sebastian/BT-20210625/1009781-light/run1009781-light.h5 tag-1496806306//
/work/sebastian/BT-20210625/1009781-light/run1009781-light.h5 tag-1496806310//
/work/sebastian/BT-20210625/1009781-light/run1009781-light.h5 tag-1496806316//
/work/sebastian/BT-20210625/1009781-light/run1009781-light.h5 tag-1496806318//
/work/sebastian/BT-20210625/1009781-light/run1009781-light.h5 tag-1496806320//
/work/sebastian/BT-20210625/1009781-light/run1009781-light.h5 tag-1496806322//
/work/sebastian/BT-20210625/1009781-light/run1009781-light.h5 tag-1496806324//
/work/sebastian/BT-20210625/1009781-light/run1009781-light.h5 tag-1496806326//
/work/sebastian/BT-20210625/1009781-light/run1009781-light.h5 tag-1496806328//
/work/sebastian/BT-20210625/1009781-light/run1009781-light.h5 tag-1496806330//
/work/sebastian/BT-20210625/1009781-light/run1009781-light.h5 tag-1496806332//
/work/sebastian/BT-20210625/1009781-light/run1009781-light.h5 tag-1496806334//
/work/sebastian/BT-20210625/1009781-light/run1009781-light.h5 tag-1496806336//
/work/sebastian/BT-20210625/1009781-light/run1009781-light.h5 tag-1496806340//
/work/sebastian/BT-20210625/1009781-light/run1009781-light.h5 tag-1496806342//
/work/sebastian/BT-20210625/1009781-light/run1009781-light.h5 tag-1496806346//
/work/sebastian/BT-20210625/1009781-light/run1009781-light.h5 tag-1496806348//
/work/sebastian/BT-20210625/1009781-light/run1009781-light.h5 tag-1496806356//
/work/sebastian/BT-20210625/1009781-light/run1009781-light.h5 tag-1496806358//
/work/sebastian/BT-20210625/1009781-light/run1009781-light.h5 tag-1496806362//
/work/sebastian/BT-20210625/1009781-light/run1009781-light.h5 tag-1496806364//
/work/sebastian/BT-20210625/1009781-light/run1009781-light.h5 tag-1496806374//
/work/sebastian/BT-20210625/1009781-light/run1009781-light.h5 tag-1496806378//
/work/sebastian/BT-20210625/1009781-light/run1009781-light.h5 tag-1496806380//
/work/sebastian/BT-20210625/1009781-light/run1009781-light.h5 tag-1496806386//
/work/sebastian/BT-20210625/1009781-light/run1009781-light.h5 tag-1496806388//
/work/sebastian/BT-20210625/1009781-light/run1009781-light.h5 tag-1496806392//
/work/sebastian/BT-20210625/1009781-light/run1009781-light.h5 tag-1496806402//
/work/sebastian/BT-20210625/1009781-light/run1009781-light.h5 tag-1496806404//
/work/sebastian/BT-20210625/1009781-light/run1009781-light.h5 tag-1496806406//
/work/sebastian/BT-20210625/1009781-light/run1009781-light.h5 tag-1496806410//
/work/sebastian/BT-20210625/1009781-light/run1009781-light.h5 tag-1496806414//
/work/sebastian/BT-20210625/1009781-light/run1009781-light.h5 tag-1496806416//
/work/sebastian/BT-20210625/1009781-light/run1009781-light.h5 tag-1496806418//
/work/sebastian/BT-20210625/1009781-light/run1009781-light.h5 tag-1496806420//
/work/sebastian/BT-20210625/1009781-light/run1009781-light.h5 tag-1496806422//
/work/sebastian/BT-20210625/1009781-light/run1009781-light.h5 tag-1496806424//
/work/sebastian/BT-20210625/1009781-light/run1009781-light.h5 tag-1496806426//
/work/sebastian/BT-20210625/1009781-light/run1009781-light.h5 tag-1496806428//
/work/sebastian/BT-20210625/1009781-light/run1009781-light.h5 tag-1496806440//
/work/sebastian/BT-20210625/1009781-light/run1009781-light.h5 tag-1496806442//
/work/sebastian/BT-20210625/1009781-light/run1009781-light.h5 tag-1496806444//
/work/sebastian/BT-20210625/1009781-light/run1009781-light.h5 tag-1496806446//
/work/sebastian/BT-20210625/1009781-light/run1009781-light.h5 tag-1496806448//
/work/sebastian/BT-20210625/1009781-light/run1009781-light.h5 tag-1496806450//
/work/sebastian/BT-20210625/1009781-light/run1009781-light.h5 tag-1496806454//
/work/sebastian/BT-20210625/1009781-light/run1009781-light.h5 tag-1496806456//
/work/sebastian/BT-20210625/1009781-light/run1009781-light.h5 tag-1496806462//
/work/sebastian/BT-20210625/1009781-light/run1009781-light.h5 tag-1496806464//
/work/sebastian/BT-20210625/1009781-light/run1009781-light.h5 tag-1496806466//
/work/sebastian/BT-20210625/1009781-light/run1009781-light.h5 tag-1496806468//
/work/sebastian/BT-20210625/1009781-light/run1009781-light.h5 tag-1496806472//
/work/sebastian/BT-20210625/1009781-light/run1009781-light.h5 tag-1496806478//
/work/sebastian/BT-20210625/1009781-light/run1009781-light.h5 tag-1496806482//
/work/sebastian/BT-20210625/1009781-light/run1009781-light.h5 tag-1496806486//
/work/sebastian/BT-20210625/1009781-light/run1009781-light.h5 tag-1496806488//
/work/sebastian/BT-20210625/1009781-light/run1009781-light.h5 tag-1496806490//
/work/sebastian/BT-20210625/1009781-light/run1009781-light.h5 tag-1496806492//
/work/sebastian/BT-20210625/1009781-light/run1009781-light.h5 tag-1496806494//
/work/sebastian/BT-20210625/1009781-light/run1009781-light.h5 tag-1496806496//
/work/sebastian/BT-20210625/1009781-light/run1009781-light.h5 tag-1496806504//
/work/sebastian/BT-20210625/1009781-light/run1009781-light.h5 tag-1496806506//
/work/sebastian/BT-20210625/1009781-light/run1009781-light.h5 tag-1496806508//
/work/sebastian/BT-20210625/1009781-light/run1009781-light.h5 tag-1496806510//
/work/sebastian/BT-20210625/1009781-light/run1009781-light.h5 tag-1496806516//
/work/sebastian/BT-20210625/1009781-light/run1009781-light.h5 tag-1496806518//
/work/sebastian/BT-20210625/1009781-light/run1009781-light.h5 tag-1496806520//
/work/sebastian/BT-20210625/1009781-light/run1009781-light.h5 tag-1496806522//
/work/sebastian/BT-20210625/1009781-light/run1009781-light.h5 tag-1496806530//
/work/sebastian/BT-20210625/1009781-light/run1009781-light.h5 tag-1496806532//
/work/sebastian/BT-20210625/1009781-light/run1009781-light.h5 tag-1496806534//
/work/sebastian/BT-20210625/1009781-light/run1009781-light.h5 tag-1496806536//
/work/sebastian/BT-20210625/1009781-light/run1009781-light.h5 tag-1496806544//
/work/sebastian/BT-20210625/1009781-light/run1009781-light.h5 tag-1496806546//
/work/sebastian/BT-20210625/1009781-light/run1009781-light.h5 tag-1496806548//
/work/sebastian/BT-20210625/1009781-light/run1009781-light.h5 tag-1496806558//
/work/sebastian/BT-20210625/1009781-light/run1009781-light.h5 tag-1496806560//
