/work/sebastian/BT-20210625/1009675-light/run1009675-light.h5 tag-1495967958//
/work/sebastian/BT-20210625/1009675-light/run1009675-light.h5 tag-1495967960//
/work/sebastian/BT-20210625/1009675-light/run1009675-light.h5 tag-1495967962//
/work/sebastian/BT-20210625/1009675-light/run1009675-light.h5 tag-1495967966//
/work/sebastian/BT-20210625/1009675-light/run1009675-light.h5 tag-1495967970//
/work/sebastian/BT-20210625/1009675-light/run1009675-light.h5 tag-1495967974//
/work/sebastian/BT-20210625/1009675-light/run1009675-light.h5 tag-1495967976//
/work/sebastian/BT-20210625/1009675-light/run1009675-light.h5 tag-1495967978//
/work/sebastian/BT-20210625/1009675-light/run1009675-light.h5 tag-1495967980//
/work/sebastian/BT-20210625/1009675-light/run1009675-light.h5 tag-1495967982//
/work/sebastian/BT-20210625/1009675-light/run1009675-light.h5 tag-1495967984//
/work/sebastian/BT-20210625/1009675-light/run1009675-light.h5 tag-1495967994//
/work/sebastian/BT-20210625/1009675-light/run1009675-light.h5 tag-1495968000//
/work/sebastian/BT-20210625/1009675-light/run1009675-light.h5 tag-1495968008//
/work/sebastian/BT-20210625/1009675-light/run1009675-light.h5 tag-1495968012//
/work/sebastian/BT-20210625/1009675-light/run1009675-light.h5 tag-1495968016//
/work/sebastian/BT-20210625/1009675-light/run1009675-light.h5 tag-1495968020//
/work/sebastian/BT-20210625/1009675-light/run1009675-light.h5 tag-1495968024//
/work/sebastian/BT-20210625/1009675-light/run1009675-light.h5 tag-1495968026//
/work/sebastian/BT-20210625/1009675-light/run1009675-light.h5 tag-1495968030//
/work/sebastian/BT-20210625/1009675-light/run1009675-light.h5 tag-1495968032//
/work/sebastian/BT-20210625/1009675-light/run1009675-light.h5 tag-1495968038//
/work/sebastian/BT-20210625/1009675-light/run1009675-light.h5 tag-1495968040//
/work/sebastian/BT-20210625/1009675-light/run1009675-light.h5 tag-1495968046//
/work/sebastian/BT-20210625/1009675-light/run1009675-light.h5 tag-1495968050//
/work/sebastian/BT-20210625/1009675-light/run1009675-light.h5 tag-1495968058//
/work/sebastian/BT-20210625/1009675-light/run1009675-light.h5 tag-1495968066//
/work/sebastian/BT-20210625/1009675-light/run1009675-light.h5 tag-1495968070//
/work/sebastian/BT-20210625/1009675-light/run1009675-light.h5 tag-1495968074//
/work/sebastian/BT-20210625/1009675-light/run1009675-light.h5 tag-1495968076//
/work/sebastian/BT-20210625/1009675-light/run1009675-light.h5 tag-1495968080//
/work/sebastian/BT-20210625/1009675-light/run1009675-light.h5 tag-1495968084//
/work/sebastian/BT-20210625/1009675-light/run1009675-light.h5 tag-1495968092//
/work/sebastian/BT-20210625/1009675-light/run1009675-light.h5 tag-1495968100//
/work/sebastian/BT-20210625/1009675-light/run1009675-light.h5 tag-1495968106//
/work/sebastian/BT-20210625/1009675-light/run1009675-light.h5 tag-1495968108//
/work/sebastian/BT-20210625/1009675-light/run1009675-light.h5 tag-1495968114//
/work/sebastian/BT-20210625/1009675-light/run1009675-light.h5 tag-1495968118//
/work/sebastian/BT-20210625/1009675-light/run1009675-light.h5 tag-1495968120//
/work/sebastian/BT-20210625/1009675-light/run1009675-light.h5 tag-1495968122//
/work/sebastian/BT-20210625/1009675-light/run1009675-light.h5 tag-1495968126//
/work/sebastian/BT-20210625/1009675-light/run1009675-light.h5 tag-1495968134//
/work/sebastian/BT-20210625/1009675-light/run1009675-light.h5 tag-1495968140//
/work/sebastian/BT-20210625/1009675-light/run1009675-light.h5 tag-1495968142//
/work/sebastian/BT-20210625/1009675-light/run1009675-light.h5 tag-1495968148//
/work/sebastian/BT-20210625/1009675-light/run1009675-light.h5 tag-1495968150//
/work/sebastian/BT-20210625/1009675-light/run1009675-light.h5 tag-1495968154//
/work/sebastian/BT-20210625/1009675-light/run1009675-light.h5 tag-1495968160//
/work/sebastian/BT-20210625/1009675-light/run1009675-light.h5 tag-1495968164//
/work/sebastian/BT-20210625/1009675-light/run1009675-light.h5 tag-1495968166//
/work/sebastian/BT-20210625/1009675-light/run1009675-light.h5 tag-1495968168//
/work/sebastian/BT-20210625/1009675-light/run1009675-light.h5 tag-1495968172//
/work/sebastian/BT-20210625/1009675-light/run1009675-light.h5 tag-1495968184//
/work/sebastian/BT-20210625/1009675-light/run1009675-light.h5 tag-1495968188//
/work/sebastian/BT-20210625/1009675-light/run1009675-light.h5 tag-1495968192//
/work/sebastian/BT-20210625/1009675-light/run1009675-light.h5 tag-1495968196//
/work/sebastian/BT-20210625/1009675-light/run1009675-light.h5 tag-1495968198//
/work/sebastian/BT-20210625/1009675-light/run1009675-light.h5 tag-1495968206//
/work/sebastian/BT-20210625/1009675-light/run1009675-light.h5 tag-1495968214//
/work/sebastian/BT-20210625/1009675-light/run1009675-light.h5 tag-1495968220//
/work/sebastian/BT-20210625/1009675-light/run1009675-light.h5 tag-1495968228//
/work/sebastian/BT-20210625/1009675-light/run1009675-light.h5 tag-1495968232//
/work/sebastian/BT-20210625/1009675-light/run1009675-light.h5 tag-1495968238//
/work/sebastian/BT-20210625/1009675-light/run1009675-light.h5 tag-1495968244//
/work/sebastian/BT-20210625/1009675-light/run1009675-light.h5 tag-1495968246//
/work/sebastian/BT-20210625/1009675-light/run1009675-light.h5 tag-1495968250//
/work/sebastian/BT-20210625/1009675-light/run1009675-light.h5 tag-1495968252//
/work/sebastian/BT-20210625/1009675-light/run1009675-light.h5 tag-1495968256//
/work/sebastian/BT-20210625/1009675-light/run1009675-light.h5 tag-1495968258//
/work/sebastian/BT-20210625/1009675-light/run1009675-light.h5 tag-1495968260//
/work/sebastian/BT-20210625/1009675-light/run1009675-light.h5 tag-1495968262//
/work/sebastian/BT-20210625/1009675-light/run1009675-light.h5 tag-1495968264//
/work/sebastian/BT-20210625/1009675-light/run1009675-light.h5 tag-1495968268//
/work/sebastian/BT-20210625/1009675-light/run1009675-light.h5 tag-1495968270//
/work/sebastian/BT-20210625/1009675-light/run1009675-light.h5 tag-1495968272//
/work/sebastian/BT-20210625/1009675-light/run1009675-light.h5 tag-1495968278//
/work/sebastian/BT-20210625/1009675-light/run1009675-light.h5 tag-1495968280//
/work/sebastian/BT-20210625/1009675-light/run1009675-light.h5 tag-1495968286//
/work/sebastian/BT-20210625/1009675-light/run1009675-light.h5 tag-1495968292//
/work/sebastian/BT-20210625/1009675-light/run1009675-light.h5 tag-1495968294//
/work/sebastian/BT-20210625/1009675-light/run1009675-light.h5 tag-1495968298//
/work/sebastian/BT-20210625/1009675-light/run1009675-light.h5 tag-1495968300//
/work/sebastian/BT-20210625/1009675-light/run1009675-light.h5 tag-1495968302//
/work/sebastian/BT-20210625/1009675-light/run1009675-light.h5 tag-1495968306//
/work/sebastian/BT-20210625/1009675-light/run1009675-light.h5 tag-1495968310//
/work/sebastian/BT-20210625/1009675-light/run1009675-light.h5 tag-1495968312//
/work/sebastian/BT-20210625/1009675-light/run1009675-light.h5 tag-1495968322//
/work/sebastian/BT-20210625/1009675-light/run1009675-light.h5 tag-1495968324//
/work/sebastian/BT-20210625/1009675-light/run1009675-light.h5 tag-1495968332//
/work/sebastian/BT-20210625/1009675-light/run1009675-light.h5 tag-1495968334//
/work/sebastian/BT-20210625/1009675-light/run1009675-light.h5 tag-1495968336//
/work/sebastian/BT-20210625/1009675-light/run1009675-light.h5 tag-1495968340//
/work/sebastian/BT-20210625/1009675-light/run1009675-light.h5 tag-1495968350//
/work/sebastian/BT-20210625/1009675-light/run1009675-light.h5 tag-1495968358//
/work/sebastian/BT-20210625/1009675-light/run1009675-light.h5 tag-1495968360//
/work/sebastian/BT-20210625/1009675-light/run1009675-light.h5 tag-1495968366//
/work/sebastian/BT-20210625/1009675-light/run1009675-light.h5 tag-1495968372//
/work/sebastian/BT-20210625/1009675-light/run1009675-light.h5 tag-1495968374//
/work/sebastian/BT-20210625/1009675-light/run1009675-light.h5 tag-1495968376//
/work/sebastian/BT-20210625/1009675-light/run1009675-light.h5 tag-1495968382//
/work/sebastian/BT-20210625/1009675-light/run1009675-light.h5 tag-1495968384//
/work/sebastian/BT-20210625/1009675-light/run1009675-light.h5 tag-1495968392//
/work/sebastian/BT-20210625/1009675-light/run1009675-light.h5 tag-1495968396//
/work/sebastian/BT-20210625/1009675-light/run1009675-light.h5 tag-1495968398//
/work/sebastian/BT-20210625/1009675-light/run1009675-light.h5 tag-1495968400//
/work/sebastian/BT-20210625/1009675-light/run1009675-light.h5 tag-1495968402//
/work/sebastian/BT-20210625/1009675-light/run1009675-light.h5 tag-1495968406//
/work/sebastian/BT-20210625/1009675-light/run1009675-light.h5 tag-1495968408//
/work/sebastian/BT-20210625/1009675-light/run1009675-light.h5 tag-1495968412//
/work/sebastian/BT-20210625/1009675-light/run1009675-light.h5 tag-1495968414//
/work/sebastian/BT-20210625/1009675-light/run1009675-light.h5 tag-1495968422//
/work/sebastian/BT-20210625/1009675-light/run1009675-light.h5 tag-1495968424//
/work/sebastian/BT-20210625/1009675-light/run1009675-light.h5 tag-1495968426//
/work/sebastian/BT-20210625/1009675-light/run1009675-light.h5 tag-1495968430//
/work/sebastian/BT-20210625/1009675-light/run1009675-light.h5 tag-1495968432//
/work/sebastian/BT-20210625/1009675-light/run1009675-light.h5 tag-1495968436//
/work/sebastian/BT-20210625/1009675-light/run1009675-light.h5 tag-1495968438//
/work/sebastian/BT-20210625/1009675-light/run1009675-light.h5 tag-1495968446//
/work/sebastian/BT-20210625/1009675-light/run1009675-light.h5 tag-1495968448//
/work/sebastian/BT-20210625/1009675-light/run1009675-light.h5 tag-1495968450//
/work/sebastian/BT-20210625/1009675-light/run1009675-light.h5 tag-1495968454//
/work/sebastian/BT-20210625/1009675-light/run1009675-light.h5 tag-1495968456//
/work/sebastian/BT-20210625/1009675-light/run1009675-light.h5 tag-1495968458//
/work/sebastian/BT-20210625/1009675-light/run1009675-light.h5 tag-1495968462//
/work/sebastian/BT-20210625/1009675-light/run1009675-light.h5 tag-1495968464//
/work/sebastian/BT-20210625/1009675-light/run1009675-light.h5 tag-1495968468//
/work/sebastian/BT-20210625/1009675-light/run1009675-light.h5 tag-1495968470//
/work/sebastian/BT-20210625/1009675-light/run1009675-light.h5 tag-1495968472//
/work/sebastian/BT-20210625/1009675-light/run1009675-light.h5 tag-1495968478//
/work/sebastian/BT-20210625/1009675-light/run1009675-light.h5 tag-1495968480//
/work/sebastian/BT-20210625/1009675-light/run1009675-light.h5 tag-1495968482//
/work/sebastian/BT-20210625/1009675-light/run1009675-light.h5 tag-1495968484//
/work/sebastian/BT-20210625/1009675-light/run1009675-light.h5 tag-1495968486//
/work/sebastian/BT-20210625/1009675-light/run1009675-light.h5 tag-1495968488//
/work/sebastian/BT-20210625/1009675-light/run1009675-light.h5 tag-1495968490//
/work/sebastian/BT-20210625/1009675-light/run1009675-light.h5 tag-1495968494//
/work/sebastian/BT-20210625/1009675-light/run1009675-light.h5 tag-1495968504//
/work/sebastian/BT-20210625/1009675-light/run1009675-light.h5 tag-1495968506//
/work/sebastian/BT-20210625/1009675-light/run1009675-light.h5 tag-1495968510//
/work/sebastian/BT-20210625/1009675-light/run1009675-light.h5 tag-1495968512//
/work/sebastian/BT-20210625/1009675-light/run1009675-light.h5 tag-1495968514//
/work/sebastian/BT-20210625/1009675-light/run1009675-light.h5 tag-1495968516//
/work/sebastian/BT-20210625/1009675-light/run1009675-light.h5 tag-1495968520//
/work/sebastian/BT-20210625/1009675-light/run1009675-light.h5 tag-1495968528//
/work/sebastian/BT-20210625/1009675-light/run1009675-light.h5 tag-1495968532//
/work/sebastian/BT-20210625/1009675-light/run1009675-light.h5 tag-1495968536//
/work/sebastian/BT-20210625/1009675-light/run1009675-light.h5 tag-1495968538//
/work/sebastian/BT-20210625/1009675-light/run1009675-light.h5 tag-1495968540//
/work/sebastian/BT-20210625/1009675-light/run1009675-light.h5 tag-1495968542//
/work/sebastian/BT-20210625/1009675-light/run1009675-light.h5 tag-1495968544//
/work/sebastian/BT-20210625/1009675-light/run1009675-light.h5 tag-1495968546//
/work/sebastian/BT-20210625/1009675-light/run1009675-light.h5 tag-1495968548//
/work/sebastian/BT-20210625/1009675-light/run1009675-light.h5 tag-1495968552//
/work/sebastian/BT-20210625/1009675-light/run1009675-light.h5 tag-1495968560//
/work/sebastian/BT-20210625/1009675-light/run1009675-light.h5 tag-1495968562//
/work/sebastian/BT-20210625/1009675-light/run1009675-light.h5 tag-1495968568//
/work/sebastian/BT-20210625/1009675-light/run1009675-light.h5 tag-1495968572//
/work/sebastian/BT-20210625/1009675-light/run1009675-light.h5 tag-1495968574//
/work/sebastian/BT-20210625/1009675-light/run1009675-light.h5 tag-1495968576//
/work/sebastian/BT-20210625/1009675-light/run1009675-light.h5 tag-1495968586//
/work/sebastian/BT-20210625/1009675-light/run1009675-light.h5 tag-1495968588//
/work/sebastian/BT-20210625/1009675-light/run1009675-light.h5 tag-1495968594//
/work/sebastian/BT-20210625/1009675-light/run1009675-light.h5 tag-1495968602//
/work/sebastian/BT-20210625/1009675-light/run1009675-light.h5 tag-1495968604//
/work/sebastian/BT-20210625/1009675-light/run1009675-light.h5 tag-1495968606//
/work/sebastian/BT-20210625/1009675-light/run1009675-light.h5 tag-1495968610//
/work/sebastian/BT-20210625/1009675-light/run1009675-light.h5 tag-1495968614//
/work/sebastian/BT-20210625/1009675-light/run1009675-light.h5 tag-1495968616//
/work/sebastian/BT-20210625/1009675-light/run1009675-light.h5 tag-1495968618//
/work/sebastian/BT-20210625/1009675-light/run1009675-light.h5 tag-1495968620//
/work/sebastian/BT-20210625/1009675-light/run1009675-light.h5 tag-1495968626//
/work/sebastian/BT-20210625/1009675-light/run1009675-light.h5 tag-1495968628//
/work/sebastian/BT-20210625/1009675-light/run1009675-light.h5 tag-1495968634//
/work/sebastian/BT-20210625/1009675-light/run1009675-light.h5 tag-1495968636//
/work/sebastian/BT-20210625/1009675-light/run1009675-light.h5 tag-1495968638//
/work/sebastian/BT-20210625/1009675-light/run1009675-light.h5 tag-1495968640//
/work/sebastian/BT-20210625/1009675-light/run1009675-light.h5 tag-1495968646//
/work/sebastian/BT-20210625/1009675-light/run1009675-light.h5 tag-1495968650//
/work/sebastian/BT-20210625/1009675-light/run1009675-light.h5 tag-1495968652//
/work/sebastian/BT-20210625/1009675-light/run1009675-light.h5 tag-1495968662//
/work/sebastian/BT-20210625/1009675-light/run1009675-light.h5 tag-1495968664//
/work/sebastian/BT-20210625/1009675-light/run1009675-light.h5 tag-1495968668//
/work/sebastian/BT-20210625/1009675-light/run1009675-light.h5 tag-1495968678//
/work/sebastian/BT-20210625/1009675-light/run1009675-light.h5 tag-1495968686//
/work/sebastian/BT-20210625/1009675-light/run1009675-light.h5 tag-1495968688//
/work/sebastian/BT-20210625/1009675-light/run1009675-light.h5 tag-1495968702//
/work/sebastian/BT-20210625/1009675-light/run1009675-light.h5 tag-1495968704//
/work/sebastian/BT-20210625/1009675-light/run1009675-light.h5 tag-1495968706//
/work/sebastian/BT-20210625/1009675-light/run1009675-light.h5 tag-1495968714//
/work/sebastian/BT-20210625/1009675-light/run1009675-light.h5 tag-1495968720//
/work/sebastian/BT-20210625/1009675-light/run1009675-light.h5 tag-1495968728//
/work/sebastian/BT-20210625/1009675-light/run1009675-light.h5 tag-1495968732//
/work/sebastian/BT-20210625/1009675-light/run1009675-light.h5 tag-1495968738//
/work/sebastian/BT-20210625/1009675-light/run1009675-light.h5 tag-1495968746//
/work/sebastian/BT-20210625/1009675-light/run1009675-light.h5 tag-1495968748//
/work/sebastian/BT-20210625/1009675-light/run1009675-light.h5 tag-1495968750//
/work/sebastian/BT-20210625/1009675-light/run1009675-light.h5 tag-1495968760//
/work/sebastian/BT-20210625/1009675-light/run1009675-light.h5 tag-1495968762//
/work/sebastian/BT-20210625/1009675-light/run1009675-light.h5 tag-1495968774//
/work/sebastian/BT-20210625/1009675-light/run1009675-light.h5 tag-1495968780//
/work/sebastian/BT-20210625/1009675-light/run1009675-light.h5 tag-1495968786//
/work/sebastian/BT-20210625/1009675-light/run1009675-light.h5 tag-1495968790//
/work/sebastian/BT-20210625/1009675-light/run1009675-light.h5 tag-1495968792//
/work/sebastian/BT-20210625/1009675-light/run1009675-light.h5 tag-1495968794//
/work/sebastian/BT-20210625/1009675-light/run1009675-light.h5 tag-1495968796//
/work/sebastian/BT-20210625/1009675-light/run1009675-light.h5 tag-1495968798//
/work/sebastian/BT-20210625/1009675-light/run1009675-light.h5 tag-1495968800//
/work/sebastian/BT-20210625/1009675-light/run1009675-light.h5 tag-1495968804//
/work/sebastian/BT-20210625/1009675-light/run1009675-light.h5 tag-1495968810//
/work/sebastian/BT-20210625/1009675-light/run1009675-light.h5 tag-1495968812//
/work/sebastian/BT-20210625/1009675-light/run1009675-light.h5 tag-1495968820//
/work/sebastian/BT-20210625/1009675-light/run1009675-light.h5 tag-1495968824//
/work/sebastian/BT-20210625/1009675-light/run1009675-light.h5 tag-1495968828//
/work/sebastian/BT-20210625/1009675-light/run1009675-light.h5 tag-1495968830//
/work/sebastian/BT-20210625/1009675-light/run1009675-light.h5 tag-1495968838//
/work/sebastian/BT-20210625/1009675-light/run1009675-light.h5 tag-1495968840//
/work/sebastian/BT-20210625/1009675-light/run1009675-light.h5 tag-1495968842//
/work/sebastian/BT-20210625/1009675-light/run1009675-light.h5 tag-1495968844//
/work/sebastian/BT-20210625/1009675-light/run1009675-light.h5 tag-1495968848//
/work/sebastian/BT-20210625/1009675-light/run1009675-light.h5 tag-1495968852//
/work/sebastian/BT-20210625/1009675-light/run1009675-light.h5 tag-1495968854//
/work/sebastian/BT-20210625/1009675-light/run1009675-light.h5 tag-1495968856//
/work/sebastian/BT-20210625/1009675-light/run1009675-light.h5 tag-1495968866//
/work/sebastian/BT-20210625/1009675-light/run1009675-light.h5 tag-1495968868//
/work/sebastian/BT-20210625/1009675-light/run1009675-light.h5 tag-1495968870//
/work/sebastian/BT-20210625/1009675-light/run1009675-light.h5 tag-1495968874//
/work/sebastian/BT-20210625/1009675-light/run1009675-light.h5 tag-1495968878//
/work/sebastian/BT-20210625/1009675-light/run1009675-light.h5 tag-1495968880//
/work/sebastian/BT-20210625/1009675-light/run1009675-light.h5 tag-1495968886//
/work/sebastian/BT-20210625/1009675-light/run1009675-light.h5 tag-1495968890//
/work/sebastian/BT-20210625/1009675-light/run1009675-light.h5 tag-1495968894//
/work/sebastian/BT-20210625/1009675-light/run1009675-light.h5 tag-1495968904//
/work/sebastian/BT-20210625/1009675-light/run1009675-light.h5 tag-1495968914//
/work/sebastian/BT-20210625/1009675-light/run1009675-light.h5 tag-1495968916//
/work/sebastian/BT-20210625/1009675-light/run1009675-light.h5 tag-1495968918//
/work/sebastian/BT-20210625/1009675-light/run1009675-light.h5 tag-1495968924//
/work/sebastian/BT-20210625/1009675-light/run1009675-light.h5 tag-1495968926//
/work/sebastian/BT-20210625/1009675-light/run1009675-light.h5 tag-1495968930//
/work/sebastian/BT-20210625/1009675-light/run1009675-light.h5 tag-1495968932//
/work/sebastian/BT-20210625/1009675-light/run1009675-light.h5 tag-1495968934//
/work/sebastian/BT-20210625/1009675-light/run1009675-light.h5 tag-1495968938//
/work/sebastian/BT-20210625/1009675-light/run1009675-light.h5 tag-1495968948//
/work/sebastian/BT-20210625/1009675-light/run1009675-light.h5 tag-1495968950//
/work/sebastian/BT-20210625/1009675-light/run1009675-light.h5 tag-1495968952//
/work/sebastian/BT-20210625/1009675-light/run1009675-light.h5 tag-1495968960//
/work/sebastian/BT-20210625/1009675-light/run1009675-light.h5 tag-1495968962//
/work/sebastian/BT-20210625/1009675-light/run1009675-light.h5 tag-1495968964//
/work/sebastian/BT-20210625/1009675-light/run1009675-light.h5 tag-1495968966//
/work/sebastian/BT-20210625/1009675-light/run1009675-light.h5 tag-1495968968//
/work/sebastian/BT-20210625/1009675-light/run1009675-light.h5 tag-1495968974//
/work/sebastian/BT-20210625/1009675-light/run1009675-light.h5 tag-1495968976//
/work/sebastian/BT-20210625/1009675-light/run1009675-light.h5 tag-1495968982//
/work/sebastian/BT-20210625/1009675-light/run1009675-light.h5 tag-1495968984//
/work/sebastian/BT-20210625/1009675-light/run1009675-light.h5 tag-1495968986//
/work/sebastian/BT-20210625/1009675-light/run1009675-light.h5 tag-1495968990//
/work/sebastian/BT-20210625/1009675-light/run1009675-light.h5 tag-1495968998//
/work/sebastian/BT-20210625/1009675-light/run1009675-light.h5 tag-1495969000//
/work/sebastian/BT-20210625/1009675-light/run1009675-light.h5 tag-1495969002//
/work/sebastian/BT-20210625/1009675-light/run1009675-light.h5 tag-1495969010//
/work/sebastian/BT-20210625/1009675-light/run1009675-light.h5 tag-1495969018//
/work/sebastian/BT-20210625/1009675-light/run1009675-light.h5 tag-1495969020//
/work/sebastian/BT-20210625/1009675-light/run1009675-light.h5 tag-1495969026//
/work/sebastian/BT-20210625/1009675-light/run1009675-light.h5 tag-1495969028//
/work/sebastian/BT-20210625/1009675-light/run1009675-light.h5 tag-1495969034//
/work/sebastian/BT-20210625/1009675-light/run1009675-light.h5 tag-1495969040//
/work/sebastian/BT-20210625/1009675-light/run1009675-light.h5 tag-1495969042//
/work/sebastian/BT-20210625/1009675-light/run1009675-light.h5 tag-1495969050//
/work/sebastian/BT-20210625/1009675-light/run1009675-light.h5 tag-1495969052//
/work/sebastian/BT-20210625/1009675-light/run1009675-light.h5 tag-1495969054//
/work/sebastian/BT-20210625/1009675-light/run1009675-light.h5 tag-1495969058//
/work/sebastian/BT-20210625/1009675-light/run1009675-light.h5 tag-1495969060//
/work/sebastian/BT-20210625/1009675-light/run1009675-light.h5 tag-1495969066//
/work/sebastian/BT-20210625/1009675-light/run1009675-light.h5 tag-1495969068//
/work/sebastian/BT-20210625/1009675-light/run1009675-light.h5 tag-1495969070//
/work/sebastian/BT-20210625/1009675-light/run1009675-light.h5 tag-1495969074//
/work/sebastian/BT-20210625/1009675-light/run1009675-light.h5 tag-1495969076//
/work/sebastian/BT-20210625/1009675-light/run1009675-light.h5 tag-1495969082//
/work/sebastian/BT-20210625/1009675-light/run1009675-light.h5 tag-1495969084//
/work/sebastian/BT-20210625/1009675-light/run1009675-light.h5 tag-1495969086//
/work/sebastian/BT-20210625/1009675-light/run1009675-light.h5 tag-1495969092//
/work/sebastian/BT-20210625/1009675-light/run1009675-light.h5 tag-1495969094//
/work/sebastian/BT-20210625/1009675-light/run1009675-light.h5 tag-1495969096//
/work/sebastian/BT-20210625/1009675-light/run1009675-light.h5 tag-1495969100//
/work/sebastian/BT-20210625/1009675-light/run1009675-light.h5 tag-1495969102//
/work/sebastian/BT-20210625/1009675-light/run1009675-light.h5 tag-1495969104//
/work/sebastian/BT-20210625/1009675-light/run1009675-light.h5 tag-1495969110//
/work/sebastian/BT-20210625/1009675-light/run1009675-light.h5 tag-1495969112//
/work/sebastian/BT-20210625/1009675-light/run1009675-light.h5 tag-1495969122//
/work/sebastian/BT-20210625/1009675-light/run1009675-light.h5 tag-1495969132//
/work/sebastian/BT-20210625/1009675-light/run1009675-light.h5 tag-1495969138//
/work/sebastian/BT-20210625/1009675-light/run1009675-light.h5 tag-1495969144//
/work/sebastian/BT-20210625/1009675-light/run1009675-light.h5 tag-1495969148//
/work/sebastian/BT-20210625/1009675-light/run1009675-light.h5 tag-1495969154//
/work/sebastian/BT-20210625/1009675-light/run1009675-light.h5 tag-1495969156//
/work/sebastian/BT-20210625/1009675-light/run1009675-light.h5 tag-1495969158//
/work/sebastian/BT-20210625/1009675-light/run1009675-light.h5 tag-1495969160//
/work/sebastian/BT-20210625/1009675-light/run1009675-light.h5 tag-1495969168//
/work/sebastian/BT-20210625/1009675-light/run1009675-light.h5 tag-1495969172//
/work/sebastian/BT-20210625/1009675-light/run1009675-light.h5 tag-1495969176//
/work/sebastian/BT-20210625/1009675-light/run1009675-light.h5 tag-1495969178//
/work/sebastian/BT-20210625/1009675-light/run1009675-light.h5 tag-1495969180//
/work/sebastian/BT-20210625/1009675-light/run1009675-light.h5 tag-1495969188//
/work/sebastian/BT-20210625/1009675-light/run1009675-light.h5 tag-1495969192//
/work/sebastian/BT-20210625/1009675-light/run1009675-light.h5 tag-1495969196//
/work/sebastian/BT-20210625/1009675-light/run1009675-light.h5 tag-1495969200//
/work/sebastian/BT-20210625/1009675-light/run1009675-light.h5 tag-1495969202//
/work/sebastian/BT-20210625/1009675-light/run1009675-light.h5 tag-1495969206//
/work/sebastian/BT-20210625/1009675-light/run1009675-light.h5 tag-1495969208//
/work/sebastian/BT-20210625/1009675-light/run1009675-light.h5 tag-1495969212//
/work/sebastian/BT-20210625/1009675-light/run1009675-light.h5 tag-1495969214//
/work/sebastian/BT-20210625/1009675-light/run1009675-light.h5 tag-1495969218//
/work/sebastian/BT-20210625/1009675-light/run1009675-light.h5 tag-1495969220//
/work/sebastian/BT-20210625/1009675-light/run1009675-light.h5 tag-1495969222//
/work/sebastian/BT-20210625/1009675-light/run1009675-light.h5 tag-1495969224//
/work/sebastian/BT-20210625/1009675-light/run1009675-light.h5 tag-1495969226//
/work/sebastian/BT-20210625/1009675-light/run1009675-light.h5 tag-1495969230//
/work/sebastian/BT-20210625/1009675-light/run1009675-light.h5 tag-1495969234//
/work/sebastian/BT-20210625/1009675-light/run1009675-light.h5 tag-1495969238//
/work/sebastian/BT-20210625/1009675-light/run1009675-light.h5 tag-1495969246//
/work/sebastian/BT-20210625/1009675-light/run1009675-light.h5 tag-1495969248//
/work/sebastian/BT-20210625/1009675-light/run1009675-light.h5 tag-1495969250//
/work/sebastian/BT-20210625/1009675-light/run1009675-light.h5 tag-1495969254//
/work/sebastian/BT-20210625/1009675-light/run1009675-light.h5 tag-1495969256//
/work/sebastian/BT-20210625/1009675-light/run1009675-light.h5 tag-1495969258//
/work/sebastian/BT-20210625/1009675-light/run1009675-light.h5 tag-1495969260//
/work/sebastian/BT-20210625/1009675-light/run1009675-light.h5 tag-1495969262//
/work/sebastian/BT-20210625/1009675-light/run1009675-light.h5 tag-1495969268//
/work/sebastian/BT-20210625/1009675-light/run1009675-light.h5 tag-1495969278//
/work/sebastian/BT-20210625/1009675-light/run1009675-light.h5 tag-1495969282//
/work/sebastian/BT-20210625/1009675-light/run1009675-light.h5 tag-1495969286//
/work/sebastian/BT-20210625/1009675-light/run1009675-light.h5 tag-1495969290//
/work/sebastian/BT-20210625/1009675-light/run1009675-light.h5 tag-1495969292//
/work/sebastian/BT-20210625/1009675-light/run1009675-light.h5 tag-1495969298//
/work/sebastian/BT-20210625/1009675-light/run1009675-light.h5 tag-1495969302//
/work/sebastian/BT-20210625/1009675-light/run1009675-light.h5 tag-1495969306//
/work/sebastian/BT-20210625/1009675-light/run1009675-light.h5 tag-1495969308//
/work/sebastian/BT-20210625/1009675-light/run1009675-light.h5 tag-1495969312//
/work/sebastian/BT-20210625/1009675-light/run1009675-light.h5 tag-1495969314//
/work/sebastian/BT-20210625/1009675-light/run1009675-light.h5 tag-1495969316//
/work/sebastian/BT-20210625/1009675-light/run1009675-light.h5 tag-1495969318//
/work/sebastian/BT-20210625/1009675-light/run1009675-light.h5 tag-1495969326//
/work/sebastian/BT-20210625/1009675-light/run1009675-light.h5 tag-1495969330//
/work/sebastian/BT-20210625/1009675-light/run1009675-light.h5 tag-1495969334//
/work/sebastian/BT-20210625/1009675-light/run1009675-light.h5 tag-1495969342//
/work/sebastian/BT-20210625/1009675-light/run1009675-light.h5 tag-1495969348//
/work/sebastian/BT-20210625/1009675-light/run1009675-light.h5 tag-1495969352//
/work/sebastian/BT-20210625/1009675-light/run1009675-light.h5 tag-1495969354//
/work/sebastian/BT-20210625/1009675-light/run1009675-light.h5 tag-1495969362//
/work/sebastian/BT-20210625/1009675-light/run1009675-light.h5 tag-1495969368//
/work/sebastian/BT-20210625/1009675-light/run1009675-light.h5 tag-1495969370//
/work/sebastian/BT-20210625/1009675-light/run1009675-light.h5 tag-1495969372//
/work/sebastian/BT-20210625/1009675-light/run1009675-light.h5 tag-1495969376//
/work/sebastian/BT-20210625/1009675-light/run1009675-light.h5 tag-1495969378//
/work/sebastian/BT-20210625/1009675-light/run1009675-light.h5 tag-1495969388//
/work/sebastian/BT-20210625/1009675-light/run1009675-light.h5 tag-1495969390//
/work/sebastian/BT-20210625/1009675-light/run1009675-light.h5 tag-1495969394//
/work/sebastian/BT-20210625/1009675-light/run1009675-light.h5 tag-1495969400//
/work/sebastian/BT-20210625/1009675-light/run1009675-light.h5 tag-1495969402//
/work/sebastian/BT-20210625/1009675-light/run1009675-light.h5 tag-1495969406//
/work/sebastian/BT-20210625/1009675-light/run1009675-light.h5 tag-1495969412//
/work/sebastian/BT-20210625/1009675-light/run1009675-light.h5 tag-1495969414//
/work/sebastian/BT-20210625/1009675-light/run1009675-light.h5 tag-1495969416//
/work/sebastian/BT-20210625/1009675-light/run1009675-light.h5 tag-1495969420//
/work/sebastian/BT-20210625/1009675-light/run1009675-light.h5 tag-1495969424//
/work/sebastian/BT-20210625/1009675-light/run1009675-light.h5 tag-1495969432//
/work/sebastian/BT-20210625/1009675-light/run1009675-light.h5 tag-1495969440//
/work/sebastian/BT-20210625/1009675-light/run1009675-light.h5 tag-1495969442//
/work/sebastian/BT-20210625/1009675-light/run1009675-light.h5 tag-1495969450//
/work/sebastian/BT-20210625/1009675-light/run1009675-light.h5 tag-1495969452//
/work/sebastian/BT-20210625/1009675-light/run1009675-light.h5 tag-1495969456//
/work/sebastian/BT-20210625/1009675-light/run1009675-light.h5 tag-1495969460//
/work/sebastian/BT-20210625/1009675-light/run1009675-light.h5 tag-1495969470//
/work/sebastian/BT-20210625/1009675-light/run1009675-light.h5 tag-1495969476//
/work/sebastian/BT-20210625/1009675-light/run1009675-light.h5 tag-1495969478//
/work/sebastian/BT-20210625/1009675-light/run1009675-light.h5 tag-1495969482//
/work/sebastian/BT-20210625/1009675-light/run1009675-light.h5 tag-1495969484//
/work/sebastian/BT-20210625/1009675-light/run1009675-light.h5 tag-1495969486//
/work/sebastian/BT-20210625/1009675-light/run1009675-light.h5 tag-1495969494//
/work/sebastian/BT-20210625/1009675-light/run1009675-light.h5 tag-1495969500//
/work/sebastian/BT-20210625/1009675-light/run1009675-light.h5 tag-1495969508//
/work/sebastian/BT-20210625/1009675-light/run1009675-light.h5 tag-1495969520//
/work/sebastian/BT-20210625/1009675-light/run1009675-light.h5 tag-1495969532//
/work/sebastian/BT-20210625/1009675-light/run1009675-light.h5 tag-1495969540//
/work/sebastian/BT-20210625/1009675-light/run1009675-light.h5 tag-1495969546//
/work/sebastian/BT-20210625/1009675-light/run1009675-light.h5 tag-1495969548//
/work/sebastian/BT-20210625/1009675-light/run1009675-light.h5 tag-1495969550//
/work/sebastian/BT-20210625/1009675-light/run1009675-light.h5 tag-1495969558//
/work/sebastian/BT-20210625/1009675-light/run1009675-light.h5 tag-1495969560//
/work/sebastian/BT-20210625/1009675-light/run1009675-light.h5 tag-1495969564//
/work/sebastian/BT-20210625/1009675-light/run1009675-light.h5 tag-1495969566//
/work/sebastian/BT-20210625/1009675-light/run1009675-light.h5 tag-1495969568//
/work/sebastian/BT-20210625/1009675-light/run1009675-light.h5 tag-1495969574//
/work/sebastian/BT-20210625/1009675-light/run1009675-light.h5 tag-1495969576//
/work/sebastian/BT-20210625/1009675-light/run1009675-light.h5 tag-1495969578//
/work/sebastian/BT-20210625/1009675-light/run1009675-light.h5 tag-1495969584//
/work/sebastian/BT-20210625/1009675-light/run1009675-light.h5 tag-1495969590//
/work/sebastian/BT-20210625/1009675-light/run1009675-light.h5 tag-1495969592//
/work/sebastian/BT-20210625/1009675-light/run1009675-light.h5 tag-1495969594//
/work/sebastian/BT-20210625/1009675-light/run1009675-light.h5 tag-1495969598//
/work/sebastian/BT-20210625/1009675-light/run1009675-light.h5 tag-1495969600//
/work/sebastian/BT-20210625/1009675-light/run1009675-light.h5 tag-1495969602//
/work/sebastian/BT-20210625/1009675-light/run1009675-light.h5 tag-1495969608//
/work/sebastian/BT-20210625/1009675-light/run1009675-light.h5 tag-1495969612//
/work/sebastian/BT-20210625/1009675-light/run1009675-light.h5 tag-1495969618//
/work/sebastian/BT-20210625/1009675-light/run1009675-light.h5 tag-1495969620//
/work/sebastian/BT-20210625/1009675-light/run1009675-light.h5 tag-1495969622//
/work/sebastian/BT-20210625/1009675-light/run1009675-light.h5 tag-1495969626//
/work/sebastian/BT-20210625/1009675-light/run1009675-light.h5 tag-1495969630//
/work/sebastian/BT-20210625/1009675-light/run1009675-light.h5 tag-1495969640//
/work/sebastian/BT-20210625/1009675-light/run1009675-light.h5 tag-1495969650//
/work/sebastian/BT-20210625/1009675-light/run1009675-light.h5 tag-1495969652//
/work/sebastian/BT-20210625/1009675-light/run1009675-light.h5 tag-1495969660//
/work/sebastian/BT-20210625/1009675-light/run1009675-light.h5 tag-1495969664//
/work/sebastian/BT-20210625/1009675-light/run1009675-light.h5 tag-1495969666//
/work/sebastian/BT-20210625/1009675-light/run1009675-light.h5 tag-1495969672//
/work/sebastian/BT-20210625/1009675-light/run1009675-light.h5 tag-1495969674//
/work/sebastian/BT-20210625/1009675-light/run1009675-light.h5 tag-1495969682//
/work/sebastian/BT-20210625/1009675-light/run1009675-light.h5 tag-1495969684//
/work/sebastian/BT-20210625/1009675-light/run1009675-light.h5 tag-1495969702//
/work/sebastian/BT-20210625/1009675-light/run1009675-light.h5 tag-1495969706//
/work/sebastian/BT-20210625/1009675-light/run1009675-light.h5 tag-1495969710//
/work/sebastian/BT-20210625/1009675-light/run1009675-light.h5 tag-1495969718//
/work/sebastian/BT-20210625/1009675-light/run1009675-light.h5 tag-1495969720//
/work/sebastian/BT-20210625/1009675-light/run1009675-light.h5 tag-1495969728//
/work/sebastian/BT-20210625/1009675-light/run1009675-light.h5 tag-1495969732//
/work/sebastian/BT-20210625/1009675-light/run1009675-light.h5 tag-1495969734//
/work/sebastian/BT-20210625/1009675-light/run1009675-light.h5 tag-1495969736//
/work/sebastian/BT-20210625/1009675-light/run1009675-light.h5 tag-1495969738//
/work/sebastian/BT-20210625/1009675-light/run1009675-light.h5 tag-1495969740//
/work/sebastian/BT-20210625/1009675-light/run1009675-light.h5 tag-1495969742//
/work/sebastian/BT-20210625/1009675-light/run1009675-light.h5 tag-1495969752//
/work/sebastian/BT-20210625/1009675-light/run1009675-light.h5 tag-1495969760//
/work/sebastian/BT-20210625/1009675-light/run1009675-light.h5 tag-1495969762//
/work/sebastian/BT-20210625/1009675-light/run1009675-light.h5 tag-1495969770//
/work/sebastian/BT-20210625/1009675-light/run1009675-light.h5 tag-1495969774//
/work/sebastian/BT-20210625/1009675-light/run1009675-light.h5 tag-1495969776//
/work/sebastian/BT-20210625/1009675-light/run1009675-light.h5 tag-1495969784//
/work/sebastian/BT-20210625/1009675-light/run1009675-light.h5 tag-1495969788//
/work/sebastian/BT-20210625/1009675-light/run1009675-light.h5 tag-1495969790//
/work/sebastian/BT-20210625/1009675-light/run1009675-light.h5 tag-1495969792//
/work/sebastian/BT-20210625/1009675-light/run1009675-light.h5 tag-1495969796//
/work/sebastian/BT-20210625/1009675-light/run1009675-light.h5 tag-1495969798//
/work/sebastian/BT-20210625/1009675-light/run1009675-light.h5 tag-1495969800//
/work/sebastian/BT-20210625/1009675-light/run1009675-light.h5 tag-1495969804//
/work/sebastian/BT-20210625/1009675-light/run1009675-light.h5 tag-1495969806//
/work/sebastian/BT-20210625/1009675-light/run1009675-light.h5 tag-1495969814//
/work/sebastian/BT-20210625/1009675-light/run1009675-light.h5 tag-1495969816//
/work/sebastian/BT-20210625/1009675-light/run1009675-light.h5 tag-1495969818//
/work/sebastian/BT-20210625/1009675-light/run1009675-light.h5 tag-1495969820//
/work/sebastian/BT-20210625/1009675-light/run1009675-light.h5 tag-1495969822//
/work/sebastian/BT-20210625/1009675-light/run1009675-light.h5 tag-1495969824//
/work/sebastian/BT-20210625/1009675-light/run1009675-light.h5 tag-1495969826//
/work/sebastian/BT-20210625/1009675-light/run1009675-light.h5 tag-1495969828//
/work/sebastian/BT-20210625/1009675-light/run1009675-light.h5 tag-1495969830//
/work/sebastian/BT-20210625/1009675-light/run1009675-light.h5 tag-1495969836//
/work/sebastian/BT-20210625/1009675-light/run1009675-light.h5 tag-1495969838//
/work/sebastian/BT-20210625/1009675-light/run1009675-light.h5 tag-1495969844//
/work/sebastian/BT-20210625/1009675-light/run1009675-light.h5 tag-1495969846//
/work/sebastian/BT-20210625/1009675-light/run1009675-light.h5 tag-1495969848//
/work/sebastian/BT-20210625/1009675-light/run1009675-light.h5 tag-1495969852//
/work/sebastian/BT-20210625/1009675-light/run1009675-light.h5 tag-1495969860//
/work/sebastian/BT-20210625/1009675-light/run1009675-light.h5 tag-1495969868//
/work/sebastian/BT-20210625/1009675-light/run1009675-light.h5 tag-1495969876//
/work/sebastian/BT-20210625/1009675-light/run1009675-light.h5 tag-1495969878//
/work/sebastian/BT-20210625/1009675-light/run1009675-light.h5 tag-1495969880//
/work/sebastian/BT-20210625/1009675-light/run1009675-light.h5 tag-1495969882//
/work/sebastian/BT-20210625/1009675-light/run1009675-light.h5 tag-1495969884//
/work/sebastian/BT-20210625/1009675-light/run1009675-light.h5 tag-1495969890//
/work/sebastian/BT-20210625/1009675-light/run1009675-light.h5 tag-1495969898//
/work/sebastian/BT-20210625/1009675-light/run1009675-light.h5 tag-1495969900//
/work/sebastian/BT-20210625/1009675-light/run1009675-light.h5 tag-1495969910//
/work/sebastian/BT-20210625/1009675-light/run1009675-light.h5 tag-1495969912//
/work/sebastian/BT-20210625/1009675-light/run1009675-light.h5 tag-1495969916//
/work/sebastian/BT-20210625/1009675-light/run1009675-light.h5 tag-1495969918//
/work/sebastian/BT-20210625/1009675-light/run1009675-light.h5 tag-1495969928//
/work/sebastian/BT-20210625/1009675-light/run1009675-light.h5 tag-1495969932//
/work/sebastian/BT-20210625/1009675-light/run1009675-light.h5 tag-1495969940//
/work/sebastian/BT-20210625/1009675-light/run1009675-light.h5 tag-1495969942//
/work/sebastian/BT-20210625/1009675-light/run1009675-light.h5 tag-1495969948//
/work/sebastian/BT-20210625/1009675-light/run1009675-light.h5 tag-1495969950//
/work/sebastian/BT-20210625/1009675-light/run1009675-light.h5 tag-1495969954//
/work/sebastian/BT-20210625/1009675-light/run1009675-light.h5 tag-1495969956//
/work/sebastian/BT-20210625/1009675-light/run1009675-light.h5 tag-1495969958//
/work/sebastian/BT-20210625/1009675-light/run1009675-light.h5 tag-1495969966//
/work/sebastian/BT-20210625/1009675-light/run1009675-light.h5 tag-1495969972//
/work/sebastian/BT-20210625/1009675-light/run1009675-light.h5 tag-1495969974//
/work/sebastian/BT-20210625/1009675-light/run1009675-light.h5 tag-1495969976//
/work/sebastian/BT-20210625/1009675-light/run1009675-light.h5 tag-1495969980//
/work/sebastian/BT-20210625/1009675-light/run1009675-light.h5 tag-1495969986//
/work/sebastian/BT-20210625/1009675-light/run1009675-light.h5 tag-1495969988//
/work/sebastian/BT-20210625/1009675-light/run1009675-light.h5 tag-1495969992//
/work/sebastian/BT-20210625/1009675-light/run1009675-light.h5 tag-1495969996//
/work/sebastian/BT-20210625/1009675-light/run1009675-light.h5 tag-1495969998//
/work/sebastian/BT-20210625/1009675-light/run1009675-light.h5 tag-1495970004//
/work/sebastian/BT-20210625/1009675-light/run1009675-light.h5 tag-1495970014//
/work/sebastian/BT-20210625/1009675-light/run1009675-light.h5 tag-1495970016//
/work/sebastian/BT-20210625/1009675-light/run1009675-light.h5 tag-1495970020//
/work/sebastian/BT-20210625/1009675-light/run1009675-light.h5 tag-1495970022//
/work/sebastian/BT-20210625/1009675-light/run1009675-light.h5 tag-1495970030//
/work/sebastian/BT-20210625/1009675-light/run1009675-light.h5 tag-1495970034//
/work/sebastian/BT-20210625/1009675-light/run1009675-light.h5 tag-1495970042//
/work/sebastian/BT-20210625/1009675-light/run1009675-light.h5 tag-1495970050//
/work/sebastian/BT-20210625/1009675-light/run1009675-light.h5 tag-1495970058//
/work/sebastian/BT-20210625/1009675-light/run1009675-light.h5 tag-1495970060//
/work/sebastian/BT-20210625/1009675-light/run1009675-light.h5 tag-1495970064//
/work/sebastian/BT-20210625/1009675-light/run1009675-light.h5 tag-1495970066//
/work/sebastian/BT-20210625/1009675-light/run1009675-light.h5 tag-1495970068//
/work/sebastian/BT-20210625/1009675-light/run1009675-light.h5 tag-1495970072//
/work/sebastian/BT-20210625/1009675-light/run1009675-light.h5 tag-1495970074//
/work/sebastian/BT-20210625/1009675-light/run1009675-light.h5 tag-1495970080//
/work/sebastian/BT-20210625/1009675-light/run1009675-light.h5 tag-1495970082//
/work/sebastian/BT-20210625/1009675-light/run1009675-light.h5 tag-1495970084//
/work/sebastian/BT-20210625/1009675-light/run1009675-light.h5 tag-1495970086//
/work/sebastian/BT-20210625/1009675-light/run1009675-light.h5 tag-1495970088//
/work/sebastian/BT-20210625/1009675-light/run1009675-light.h5 tag-1495970090//
/work/sebastian/BT-20210625/1009675-light/run1009675-light.h5 tag-1495970096//
/work/sebastian/BT-20210625/1009675-light/run1009675-light.h5 tag-1495970098//
/work/sebastian/BT-20210625/1009675-light/run1009675-light.h5 tag-1495970100//
/work/sebastian/BT-20210625/1009675-light/run1009675-light.h5 tag-1495970102//
/work/sebastian/BT-20210625/1009675-light/run1009675-light.h5 tag-1495970108//
/work/sebastian/BT-20210625/1009675-light/run1009675-light.h5 tag-1495970114//
/work/sebastian/BT-20210625/1009675-light/run1009675-light.h5 tag-1495970116//
/work/sebastian/BT-20210625/1009675-light/run1009675-light.h5 tag-1495970120//
/work/sebastian/BT-20210625/1009675-light/run1009675-light.h5 tag-1495970130//
/work/sebastian/BT-20210625/1009675-light/run1009675-light.h5 tag-1495970132//
/work/sebastian/BT-20210625/1009675-light/run1009675-light.h5 tag-1495970142//
/work/sebastian/BT-20210625/1009675-light/run1009675-light.h5 tag-1495970146//
/work/sebastian/BT-20210625/1009675-light/run1009675-light.h5 tag-1495970148//
/work/sebastian/BT-20210625/1009675-light/run1009675-light.h5 tag-1495970152//
/work/sebastian/BT-20210625/1009675-light/run1009675-light.h5 tag-1495970158//
/work/sebastian/BT-20210625/1009675-light/run1009675-light.h5 tag-1495970160//
/work/sebastian/BT-20210625/1009675-light/run1009675-light.h5 tag-1495970164//
/work/sebastian/BT-20210625/1009675-light/run1009675-light.h5 tag-1495970170//
/work/sebastian/BT-20210625/1009675-light/run1009675-light.h5 tag-1495970174//
/work/sebastian/BT-20210625/1009675-light/run1009675-light.h5 tag-1495970178//
/work/sebastian/BT-20210625/1009675-light/run1009675-light.h5 tag-1495970186//
/work/sebastian/BT-20210625/1009675-light/run1009675-light.h5 tag-1495970188//
/work/sebastian/BT-20210625/1009675-light/run1009675-light.h5 tag-1495970190//
/work/sebastian/BT-20210625/1009675-light/run1009675-light.h5 tag-1495970192//
/work/sebastian/BT-20210625/1009675-light/run1009675-light.h5 tag-1495970194//
/work/sebastian/BT-20210625/1009675-light/run1009675-light.h5 tag-1495970196//
/work/sebastian/BT-20210625/1009675-light/run1009675-light.h5 tag-1495970202//
/work/sebastian/BT-20210625/1009675-light/run1009675-light.h5 tag-1495970206//
/work/sebastian/BT-20210625/1009675-light/run1009675-light.h5 tag-1495970212//
/work/sebastian/BT-20210625/1009675-light/run1009675-light.h5 tag-1495970222//
/work/sebastian/BT-20210625/1009675-light/run1009675-light.h5 tag-1495970232//
/work/sebastian/BT-20210625/1009675-light/run1009675-light.h5 tag-1495970238//
/work/sebastian/BT-20210625/1009675-light/run1009675-light.h5 tag-1495970240//
/work/sebastian/BT-20210625/1009675-light/run1009675-light.h5 tag-1495970242//
/work/sebastian/BT-20210625/1009675-light/run1009675-light.h5 tag-1495970252//
/work/sebastian/BT-20210625/1009675-light/run1009675-light.h5 tag-1495970254//
/work/sebastian/BT-20210625/1009675-light/run1009675-light.h5 tag-1495970256//
/work/sebastian/BT-20210625/1009675-light/run1009675-light.h5 tag-1495970258//
/work/sebastian/BT-20210625/1009675-light/run1009675-light.h5 tag-1495970262//
/work/sebastian/BT-20210625/1009675-light/run1009675-light.h5 tag-1495970264//
/work/sebastian/BT-20210625/1009675-light/run1009675-light.h5 tag-1495970270//
/work/sebastian/BT-20210625/1009675-light/run1009675-light.h5 tag-1495970274//
/work/sebastian/BT-20210625/1009675-light/run1009675-light.h5 tag-1495970276//
/work/sebastian/BT-20210625/1009675-light/run1009675-light.h5 tag-1495970286//
/work/sebastian/BT-20210625/1009675-light/run1009675-light.h5 tag-1495970288//
/work/sebastian/BT-20210625/1009675-light/run1009675-light.h5 tag-1495970290//
/work/sebastian/BT-20210625/1009675-light/run1009675-light.h5 tag-1495970292//
/work/sebastian/BT-20210625/1009675-light/run1009675-light.h5 tag-1495970296//
/work/sebastian/BT-20210625/1009675-light/run1009675-light.h5 tag-1495970298//
/work/sebastian/BT-20210625/1009675-light/run1009675-light.h5 tag-1495970300//
/work/sebastian/BT-20210625/1009675-light/run1009675-light.h5 tag-1495970302//
/work/sebastian/BT-20210625/1009675-light/run1009675-light.h5 tag-1495970306//
/work/sebastian/BT-20210625/1009675-light/run1009675-light.h5 tag-1495970312//
/work/sebastian/BT-20210625/1009675-light/run1009675-light.h5 tag-1495970318//
/work/sebastian/BT-20210625/1009675-light/run1009675-light.h5 tag-1495970320//
/work/sebastian/BT-20210625/1009675-light/run1009675-light.h5 tag-1495970326//
/work/sebastian/BT-20210625/1009675-light/run1009675-light.h5 tag-1495970328//
/work/sebastian/BT-20210625/1009675-light/run1009675-light.h5 tag-1495970330//
/work/sebastian/BT-20210625/1009675-light/run1009675-light.h5 tag-1495970334//
/work/sebastian/BT-20210625/1009675-light/run1009675-light.h5 tag-1495970338//
/work/sebastian/BT-20210625/1009675-light/run1009675-light.h5 tag-1495970342//
/work/sebastian/BT-20210625/1009675-light/run1009675-light.h5 tag-1495970346//
/work/sebastian/BT-20210625/1009675-light/run1009675-light.h5 tag-1495970356//
/work/sebastian/BT-20210625/1009675-light/run1009675-light.h5 tag-1495970360//
/work/sebastian/BT-20210625/1009675-light/run1009675-light.h5 tag-1495970362//
/work/sebastian/BT-20210625/1009675-light/run1009675-light.h5 tag-1495970364//
/work/sebastian/BT-20210625/1009675-light/run1009675-light.h5 tag-1495970368//
/work/sebastian/BT-20210625/1009675-light/run1009675-light.h5 tag-1495970372//
/work/sebastian/BT-20210625/1009675-light/run1009675-light.h5 tag-1495970374//
/work/sebastian/BT-20210625/1009675-light/run1009675-light.h5 tag-1495970376//
/work/sebastian/BT-20210625/1009675-light/run1009675-light.h5 tag-1495970378//
/work/sebastian/BT-20210625/1009675-light/run1009675-light.h5 tag-1495970392//
/work/sebastian/BT-20210625/1009675-light/run1009675-light.h5 tag-1495970396//
/work/sebastian/BT-20210625/1009675-light/run1009675-light.h5 tag-1495970398//
/work/sebastian/BT-20210625/1009675-light/run1009675-light.h5 tag-1495970400//
/work/sebastian/BT-20210625/1009675-light/run1009675-light.h5 tag-1495970402//
/work/sebastian/BT-20210625/1009675-light/run1009675-light.h5 tag-1495970406//
/work/sebastian/BT-20210625/1009675-light/run1009675-light.h5 tag-1495970410//
/work/sebastian/BT-20210625/1009675-light/run1009675-light.h5 tag-1495970412//
/work/sebastian/BT-20210625/1009675-light/run1009675-light.h5 tag-1495970416//
/work/sebastian/BT-20210625/1009675-light/run1009675-light.h5 tag-1495970418//
/work/sebastian/BT-20210625/1009675-light/run1009675-light.h5 tag-1495970420//
/work/sebastian/BT-20210625/1009675-light/run1009675-light.h5 tag-1495970424//
/work/sebastian/BT-20210625/1009675-light/run1009675-light.h5 tag-1495970428//
/work/sebastian/BT-20210625/1009675-light/run1009675-light.h5 tag-1495970436//
/work/sebastian/BT-20210625/1009675-light/run1009675-light.h5 tag-1495970442//
/work/sebastian/BT-20210625/1009675-light/run1009675-light.h5 tag-1495970444//
/work/sebastian/BT-20210625/1009675-light/run1009675-light.h5 tag-1495970452//
/work/sebastian/BT-20210625/1009675-light/run1009675-light.h5 tag-1495970460//
/work/sebastian/BT-20210625/1009675-light/run1009675-light.h5 tag-1495970464//
/work/sebastian/BT-20210625/1009675-light/run1009675-light.h5 tag-1495970468//
/work/sebastian/BT-20210625/1009675-light/run1009675-light.h5 tag-1495970474//
/work/sebastian/BT-20210625/1009675-light/run1009675-light.h5 tag-1495970476//
/work/sebastian/BT-20210625/1009675-light/run1009675-light.h5 tag-1495970494//
/work/sebastian/BT-20210625/1009675-light/run1009675-light.h5 tag-1495970498//
/work/sebastian/BT-20210625/1009675-light/run1009675-light.h5 tag-1495970506//
/work/sebastian/BT-20210625/1009675-light/run1009675-light.h5 tag-1495970508//
/work/sebastian/BT-20210625/1009675-light/run1009675-light.h5 tag-1495970510//
/work/sebastian/BT-20210625/1009675-light/run1009675-light.h5 tag-1495970514//
/work/sebastian/BT-20210625/1009675-light/run1009675-light.h5 tag-1495970516//
/work/sebastian/BT-20210625/1009675-light/run1009675-light.h5 tag-1495970518//
/work/sebastian/BT-20210625/1009675-light/run1009675-light.h5 tag-1495970520//
/work/sebastian/BT-20210625/1009675-light/run1009675-light.h5 tag-1495970522//
/work/sebastian/BT-20210625/1009675-light/run1009675-light.h5 tag-1495970526//
/work/sebastian/BT-20210625/1009675-light/run1009675-light.h5 tag-1495970528//
/work/sebastian/BT-20210625/1009675-light/run1009675-light.h5 tag-1495970530//
/work/sebastian/BT-20210625/1009675-light/run1009675-light.h5 tag-1495970544//
/work/sebastian/BT-20210625/1009675-light/run1009675-light.h5 tag-1495970548//
/work/sebastian/BT-20210625/1009675-light/run1009675-light.h5 tag-1495970550//
/work/sebastian/BT-20210625/1009675-light/run1009675-light.h5 tag-1495970552//
/work/sebastian/BT-20210625/1009675-light/run1009675-light.h5 tag-1495970554//
/work/sebastian/BT-20210625/1009675-light/run1009675-light.h5 tag-1495970556//
/work/sebastian/BT-20210625/1009675-light/run1009675-light.h5 tag-1495970558//
/work/sebastian/BT-20210625/1009675-light/run1009675-light.h5 tag-1495970564//
/work/sebastian/BT-20210625/1009675-light/run1009675-light.h5 tag-1495970566//
/work/sebastian/BT-20210625/1009675-light/run1009675-light.h5 tag-1495970570//
/work/sebastian/BT-20210625/1009675-light/run1009675-light.h5 tag-1495970574//
/work/sebastian/BT-20210625/1009675-light/run1009675-light.h5 tag-1495970580//
/work/sebastian/BT-20210625/1009675-light/run1009675-light.h5 tag-1495970582//
/work/sebastian/BT-20210625/1009675-light/run1009675-light.h5 tag-1495970586//
/work/sebastian/BT-20210625/1009675-light/run1009675-light.h5 tag-1495970588//
/work/sebastian/BT-20210625/1009675-light/run1009675-light.h5 tag-1495970596//
/work/sebastian/BT-20210625/1009675-light/run1009675-light.h5 tag-1495970598//
/work/sebastian/BT-20210625/1009675-light/run1009675-light.h5 tag-1495970604//
/work/sebastian/BT-20210625/1009675-light/run1009675-light.h5 tag-1495970612//
/work/sebastian/BT-20210625/1009675-light/run1009675-light.h5 tag-1495970614//
/work/sebastian/BT-20210625/1009675-light/run1009675-light.h5 tag-1495970616//
/work/sebastian/BT-20210625/1009675-light/run1009675-light.h5 tag-1495970620//
/work/sebastian/BT-20210625/1009675-light/run1009675-light.h5 tag-1495970622//
/work/sebastian/BT-20210625/1009675-light/run1009675-light.h5 tag-1495970626//
/work/sebastian/BT-20210625/1009675-light/run1009675-light.h5 tag-1495970628//
/work/sebastian/BT-20210625/1009675-light/run1009675-light.h5 tag-1495970630//
/work/sebastian/BT-20210625/1009675-light/run1009675-light.h5 tag-1495970638//
/work/sebastian/BT-20210625/1009675-light/run1009675-light.h5 tag-1495970642//
/work/sebastian/BT-20210625/1009675-light/run1009675-light.h5 tag-1495970644//
/work/sebastian/BT-20210625/1009675-light/run1009675-light.h5 tag-1495970646//
/work/sebastian/BT-20210625/1009675-light/run1009675-light.h5 tag-1495970648//
/work/sebastian/BT-20210625/1009675-light/run1009675-light.h5 tag-1495970650//
/work/sebastian/BT-20210625/1009675-light/run1009675-light.h5 tag-1495970652//
/work/sebastian/BT-20210625/1009675-light/run1009675-light.h5 tag-1495970656//
/work/sebastian/BT-20210625/1009675-light/run1009675-light.h5 tag-1495970658//
/work/sebastian/BT-20210625/1009675-light/run1009675-light.h5 tag-1495970660//
/work/sebastian/BT-20210625/1009675-light/run1009675-light.h5 tag-1495970674//
/work/sebastian/BT-20210625/1009675-light/run1009675-light.h5 tag-1495970676//
/work/sebastian/BT-20210625/1009675-light/run1009675-light.h5 tag-1495970690//
/work/sebastian/BT-20210625/1009675-light/run1009675-light.h5 tag-1495970698//
/work/sebastian/BT-20210625/1009675-light/run1009675-light.h5 tag-1495970716//
/work/sebastian/BT-20210625/1009675-light/run1009675-light.h5 tag-1495970718//
/work/sebastian/BT-20210625/1009675-light/run1009675-light.h5 tag-1495970722//
/work/sebastian/BT-20210625/1009675-light/run1009675-light.h5 tag-1495970726//
/work/sebastian/BT-20210625/1009675-light/run1009675-light.h5 tag-1495970746//
/work/sebastian/BT-20210625/1009675-light/run1009675-light.h5 tag-1495970752//
/work/sebastian/BT-20210625/1009675-light/run1009675-light.h5 tag-1495970754//
/work/sebastian/BT-20210625/1009675-light/run1009675-light.h5 tag-1495970756//
/work/sebastian/BT-20210625/1009675-light/run1009675-light.h5 tag-1495970760//
/work/sebastian/BT-20210625/1009675-light/run1009675-light.h5 tag-1495970764//
/work/sebastian/BT-20210625/1009675-light/run1009675-light.h5 tag-1495970768//
/work/sebastian/BT-20210625/1009675-light/run1009675-light.h5 tag-1495970770//
/work/sebastian/BT-20210625/1009675-light/run1009675-light.h5 tag-1495970772//
/work/sebastian/BT-20210625/1009675-light/run1009675-light.h5 tag-1495970774//
/work/sebastian/BT-20210625/1009675-light/run1009675-light.h5 tag-1495970776//
/work/sebastian/BT-20210625/1009675-light/run1009675-light.h5 tag-1495970778//
/work/sebastian/BT-20210625/1009675-light/run1009675-light.h5 tag-1495970782//
/work/sebastian/BT-20210625/1009675-light/run1009675-light.h5 tag-1495970796//
/work/sebastian/BT-20210625/1009675-light/run1009675-light.h5 tag-1495970798//
/work/sebastian/BT-20210625/1009675-light/run1009675-light.h5 tag-1495970800//
/work/sebastian/BT-20210625/1009675-light/run1009675-light.h5 tag-1495970802//
/work/sebastian/BT-20210625/1009675-light/run1009675-light.h5 tag-1495970804//
/work/sebastian/BT-20210625/1009675-light/run1009675-light.h5 tag-1495970806//
/work/sebastian/BT-20210625/1009675-light/run1009675-light.h5 tag-1495970810//
/work/sebastian/BT-20210625/1009675-light/run1009675-light.h5 tag-1495970812//
/work/sebastian/BT-20210625/1009675-light/run1009675-light.h5 tag-1495970816//
/work/sebastian/BT-20210625/1009675-light/run1009675-light.h5 tag-1495970830//
/work/sebastian/BT-20210625/1009675-light/run1009675-light.h5 tag-1495970832//
/work/sebastian/BT-20210625/1009675-light/run1009675-light.h5 tag-1495970844//
/work/sebastian/BT-20210625/1009675-light/run1009675-light.h5 tag-1495970848//
/work/sebastian/BT-20210625/1009675-light/run1009675-light.h5 tag-1495970850//
/work/sebastian/BT-20210625/1009675-light/run1009675-light.h5 tag-1495970854//
/work/sebastian/BT-20210625/1009675-light/run1009675-light.h5 tag-1495970856//
/work/sebastian/BT-20210625/1009675-light/run1009675-light.h5 tag-1495970858//
/work/sebastian/BT-20210625/1009675-light/run1009675-light.h5 tag-1495970862//
/work/sebastian/BT-20210625/1009675-light/run1009675-light.h5 tag-1495970864//
/work/sebastian/BT-20210625/1009675-light/run1009675-light.h5 tag-1495970870//
/work/sebastian/BT-20210625/1009675-light/run1009675-light.h5 tag-1495970880//
/work/sebastian/BT-20210625/1009675-light/run1009675-light.h5 tag-1495970886//
/work/sebastian/BT-20210625/1009675-light/run1009675-light.h5 tag-1495970888//
/work/sebastian/BT-20210625/1009675-light/run1009675-light.h5 tag-1495970896//
/work/sebastian/BT-20210625/1009675-light/run1009675-light.h5 tag-1495970898//
/work/sebastian/BT-20210625/1009675-light/run1009675-light.h5 tag-1495970900//
/work/sebastian/BT-20210625/1009675-light/run1009675-light.h5 tag-1495970906//
/work/sebastian/BT-20210625/1009675-light/run1009675-light.h5 tag-1495970908//
/work/sebastian/BT-20210625/1009675-light/run1009675-light.h5 tag-1495970910//
/work/sebastian/BT-20210625/1009675-light/run1009675-light.h5 tag-1495970914//
/work/sebastian/BT-20210625/1009675-light/run1009675-light.h5 tag-1495970922//
/work/sebastian/BT-20210625/1009675-light/run1009675-light.h5 tag-1495970924//
/work/sebastian/BT-20210625/1009675-light/run1009675-light.h5 tag-1495970926//
/work/sebastian/BT-20210625/1009675-light/run1009675-light.h5 tag-1495970930//
/work/sebastian/BT-20210625/1009675-light/run1009675-light.h5 tag-1495970932//
/work/sebastian/BT-20210625/1009675-light/run1009675-light.h5 tag-1495970934//
/work/sebastian/BT-20210625/1009675-light/run1009675-light.h5 tag-1495970936//
/work/sebastian/BT-20210625/1009675-light/run1009675-light.h5 tag-1495970946//
/work/sebastian/BT-20210625/1009675-light/run1009675-light.h5 tag-1495970950//
/work/sebastian/BT-20210625/1009675-light/run1009675-light.h5 tag-1495970952//
/work/sebastian/BT-20210625/1009675-light/run1009675-light.h5 tag-1495970958//
/work/sebastian/BT-20210625/1009675-light/run1009675-light.h5 tag-1495970960//
/work/sebastian/BT-20210625/1009675-light/run1009675-light.h5 tag-1495970966//
/work/sebastian/BT-20210625/1009675-light/run1009675-light.h5 tag-1495970968//
/work/sebastian/BT-20210625/1009675-light/run1009675-light.h5 tag-1495970970//
/work/sebastian/BT-20210625/1009675-light/run1009675-light.h5 tag-1495970972//
/work/sebastian/BT-20210625/1009675-light/run1009675-light.h5 tag-1495970974//
/work/sebastian/BT-20210625/1009675-light/run1009675-light.h5 tag-1495970976//
/work/sebastian/BT-20210625/1009675-light/run1009675-light.h5 tag-1495970978//
/work/sebastian/BT-20210625/1009675-light/run1009675-light.h5 tag-1495970980//
/work/sebastian/BT-20210625/1009675-light/run1009675-light.h5 tag-1495970982//
/work/sebastian/BT-20210625/1009675-light/run1009675-light.h5 tag-1495970984//
/work/sebastian/BT-20210625/1009675-light/run1009675-light.h5 tag-1495970986//
/work/sebastian/BT-20210625/1009675-light/run1009675-light.h5 tag-1495970988//
/work/sebastian/BT-20210625/1009675-light/run1009675-light.h5 tag-1495970992//
/work/sebastian/BT-20210625/1009675-light/run1009675-light.h5 tag-1495970994//
/work/sebastian/BT-20210625/1009675-light/run1009675-light.h5 tag-1495970998//
/work/sebastian/BT-20210625/1009675-light/run1009675-light.h5 tag-1495971002//
/work/sebastian/BT-20210625/1009675-light/run1009675-light.h5 tag-1495971008//
/work/sebastian/BT-20210625/1009675-light/run1009675-light.h5 tag-1495971018//
/work/sebastian/BT-20210625/1009675-light/run1009675-light.h5 tag-1495971020//
/work/sebastian/BT-20210625/1009675-light/run1009675-light.h5 tag-1495971028//
/work/sebastian/BT-20210625/1009675-light/run1009675-light.h5 tag-1495971034//
/work/sebastian/BT-20210625/1009675-light/run1009675-light.h5 tag-1495971036//
/work/sebastian/BT-20210625/1009675-light/run1009675-light.h5 tag-1495971038//
/work/sebastian/BT-20210625/1009675-light/run1009675-light.h5 tag-1495971040//
/work/sebastian/BT-20210625/1009675-light/run1009675-light.h5 tag-1495971042//
/work/sebastian/BT-20210625/1009675-light/run1009675-light.h5 tag-1495971052//
/work/sebastian/BT-20210625/1009675-light/run1009675-light.h5 tag-1495971056//
/work/sebastian/BT-20210625/1009675-light/run1009675-light.h5 tag-1495971058//
/work/sebastian/BT-20210625/1009675-light/run1009675-light.h5 tag-1495971060//
/work/sebastian/BT-20210625/1009675-light/run1009675-light.h5 tag-1495971062//
/work/sebastian/BT-20210625/1009675-light/run1009675-light.h5 tag-1495971064//
/work/sebastian/BT-20210625/1009675-light/run1009675-light.h5 tag-1495971066//
/work/sebastian/BT-20210625/1009675-light/run1009675-light.h5 tag-1495971070//
/work/sebastian/BT-20210625/1009675-light/run1009675-light.h5 tag-1495971076//
/work/sebastian/BT-20210625/1009675-light/run1009675-light.h5 tag-1495971078//
/work/sebastian/BT-20210625/1009675-light/run1009675-light.h5 tag-1495971086//
/work/sebastian/BT-20210625/1009675-light/run1009675-light.h5 tag-1495971092//
/work/sebastian/BT-20210625/1009675-light/run1009675-light.h5 tag-1495971094//
/work/sebastian/BT-20210625/1009675-light/run1009675-light.h5 tag-1495971096//
/work/sebastian/BT-20210625/1009675-light/run1009675-light.h5 tag-1495971098//
/work/sebastian/BT-20210625/1009675-light/run1009675-light.h5 tag-1495971100//
/work/sebastian/BT-20210625/1009675-light/run1009675-light.h5 tag-1495971106//
/work/sebastian/BT-20210625/1009675-light/run1009675-light.h5 tag-1495971108//
/work/sebastian/BT-20210625/1009675-light/run1009675-light.h5 tag-1495971110//
/work/sebastian/BT-20210625/1009675-light/run1009675-light.h5 tag-1495971116//
/work/sebastian/BT-20210625/1009675-light/run1009675-light.h5 tag-1495971118//
/work/sebastian/BT-20210625/1009675-light/run1009675-light.h5 tag-1495971120//
/work/sebastian/BT-20210625/1009675-light/run1009675-light.h5 tag-1495971122//
/work/sebastian/BT-20210625/1009675-light/run1009675-light.h5 tag-1495971124//
/work/sebastian/BT-20210625/1009675-light/run1009675-light.h5 tag-1495971126//
/work/sebastian/BT-20210625/1009675-light/run1009675-light.h5 tag-1495971128//
/work/sebastian/BT-20210625/1009675-light/run1009675-light.h5 tag-1495971132//
/work/sebastian/BT-20210625/1009675-light/run1009675-light.h5 tag-1495971142//
/work/sebastian/BT-20210625/1009675-light/run1009675-light.h5 tag-1495971146//
/work/sebastian/BT-20210625/1009675-light/run1009675-light.h5 tag-1495971148//
/work/sebastian/BT-20210625/1009675-light/run1009675-light.h5 tag-1495971152//
/work/sebastian/BT-20210625/1009675-light/run1009675-light.h5 tag-1495971158//
/work/sebastian/BT-20210625/1009675-light/run1009675-light.h5 tag-1495971162//
/work/sebastian/BT-20210625/1009675-light/run1009675-light.h5 tag-1495971166//
/work/sebastian/BT-20210625/1009675-light/run1009675-light.h5 tag-1495971174//
/work/sebastian/BT-20210625/1009675-light/run1009675-light.h5 tag-1495971178//
/work/sebastian/BT-20210625/1009675-light/run1009675-light.h5 tag-1495971182//
/work/sebastian/BT-20210625/1009675-light/run1009675-light.h5 tag-1495971184//
/work/sebastian/BT-20210625/1009675-light/run1009675-light.h5 tag-1495971192//
/work/sebastian/BT-20210625/1009675-light/run1009675-light.h5 tag-1495971198//
/work/sebastian/BT-20210625/1009675-light/run1009675-light.h5 tag-1495971200//
/work/sebastian/BT-20210625/1009675-light/run1009675-light.h5 tag-1495971208//
/work/sebastian/BT-20210625/1009675-light/run1009675-light.h5 tag-1495971210//
/work/sebastian/BT-20210625/1009675-light/run1009675-light.h5 tag-1495971212//
/work/sebastian/BT-20210625/1009675-light/run1009675-light.h5 tag-1495971218//
/work/sebastian/BT-20210625/1009675-light/run1009675-light.h5 tag-1495971226//
/work/sebastian/BT-20210625/1009675-light/run1009675-light.h5 tag-1495971232//
/work/sebastian/BT-20210625/1009675-light/run1009675-light.h5 tag-1495971236//
/work/sebastian/BT-20210625/1009675-light/run1009675-light.h5 tag-1495971242//
/work/sebastian/BT-20210625/1009675-light/run1009675-light.h5 tag-1495971250//
/work/sebastian/BT-20210625/1009675-light/run1009675-light.h5 tag-1495971252//
/work/sebastian/BT-20210625/1009675-light/run1009675-light.h5 tag-1495971254//
/work/sebastian/BT-20210625/1009675-light/run1009675-light.h5 tag-1495971264//
/work/sebastian/BT-20210625/1009675-light/run1009675-light.h5 tag-1495971272//
/work/sebastian/BT-20210625/1009675-light/run1009675-light.h5 tag-1495971274//
/work/sebastian/BT-20210625/1009675-light/run1009675-light.h5 tag-1495971278//
/work/sebastian/BT-20210625/1009675-light/run1009675-light.h5 tag-1495971280//
/work/sebastian/BT-20210625/1009675-light/run1009675-light.h5 tag-1495971282//
/work/sebastian/BT-20210625/1009675-light/run1009675-light.h5 tag-1495971286//
/work/sebastian/BT-20210625/1009675-light/run1009675-light.h5 tag-1495971288//
/work/sebastian/BT-20210625/1009675-light/run1009675-light.h5 tag-1495971294//
/work/sebastian/BT-20210625/1009675-light/run1009675-light.h5 tag-1495971298//
/work/sebastian/BT-20210625/1009675-light/run1009675-light.h5 tag-1495971300//
/work/sebastian/BT-20210625/1009675-light/run1009675-light.h5 tag-1495971308//
/work/sebastian/BT-20210625/1009675-light/run1009675-light.h5 tag-1495971310//
/work/sebastian/BT-20210625/1009675-light/run1009675-light.h5 tag-1495971312//
/work/sebastian/BT-20210625/1009675-light/run1009675-light.h5 tag-1495971318//
/work/sebastian/BT-20210625/1009675-light/run1009675-light.h5 tag-1495971320//
/work/sebastian/BT-20210625/1009675-light/run1009675-light.h5 tag-1495971322//
/work/sebastian/BT-20210625/1009675-light/run1009675-light.h5 tag-1495971326//
/work/sebastian/BT-20210625/1009675-light/run1009675-light.h5 tag-1495971336//
/work/sebastian/BT-20210625/1009675-light/run1009675-light.h5 tag-1495971338//
/work/sebastian/BT-20210625/1009675-light/run1009675-light.h5 tag-1495971342//
/work/sebastian/BT-20210625/1009675-light/run1009675-light.h5 tag-1495971344//
/work/sebastian/BT-20210625/1009675-light/run1009675-light.h5 tag-1495971346//
/work/sebastian/BT-20210625/1009675-light/run1009675-light.h5 tag-1495971350//
/work/sebastian/BT-20210625/1009675-light/run1009675-light.h5 tag-1495971354//
/work/sebastian/BT-20210625/1009675-light/run1009675-light.h5 tag-1495971358//
/work/sebastian/BT-20210625/1009675-light/run1009675-light.h5 tag-1495971360//
/work/sebastian/BT-20210625/1009675-light/run1009675-light.h5 tag-1495971368//
/work/sebastian/BT-20210625/1009675-light/run1009675-light.h5 tag-1495971374//
/work/sebastian/BT-20210625/1009675-light/run1009675-light.h5 tag-1495971376//
/work/sebastian/BT-20210625/1009675-light/run1009675-light.h5 tag-1495971384//
/work/sebastian/BT-20210625/1009675-light/run1009675-light.h5 tag-1495971392//
/work/sebastian/BT-20210625/1009675-light/run1009675-light.h5 tag-1495971396//
/work/sebastian/BT-20210625/1009675-light/run1009675-light.h5 tag-1495971398//
/work/sebastian/BT-20210625/1009675-light/run1009675-light.h5 tag-1495971400//
/work/sebastian/BT-20210625/1009675-light/run1009675-light.h5 tag-1495971404//
/work/sebastian/BT-20210625/1009675-light/run1009675-light.h5 tag-1495971406//
/work/sebastian/BT-20210625/1009675-light/run1009675-light.h5 tag-1495971408//
/work/sebastian/BT-20210625/1009675-light/run1009675-light.h5 tag-1495971414//
/work/sebastian/BT-20210625/1009675-light/run1009675-light.h5 tag-1495971416//
/work/sebastian/BT-20210625/1009675-light/run1009675-light.h5 tag-1495971418//
/work/sebastian/BT-20210625/1009675-light/run1009675-light.h5 tag-1495971426//
/work/sebastian/BT-20210625/1009675-light/run1009675-light.h5 tag-1495971430//
/work/sebastian/BT-20210625/1009675-light/run1009675-light.h5 tag-1495971432//
/work/sebastian/BT-20210625/1009675-light/run1009675-light.h5 tag-1495971434//
/work/sebastian/BT-20210625/1009675-light/run1009675-light.h5 tag-1495971440//
/work/sebastian/BT-20210625/1009675-light/run1009675-light.h5 tag-1495971442//
/work/sebastian/BT-20210625/1009675-light/run1009675-light.h5 tag-1495971444//
/work/sebastian/BT-20210625/1009675-light/run1009675-light.h5 tag-1495971448//
/work/sebastian/BT-20210625/1009675-light/run1009675-light.h5 tag-1495971450//
/work/sebastian/BT-20210625/1009675-light/run1009675-light.h5 tag-1495971452//
/work/sebastian/BT-20210625/1009675-light/run1009675-light.h5 tag-1495971458//
/work/sebastian/BT-20210625/1009675-light/run1009675-light.h5 tag-1495971460//
/work/sebastian/BT-20210625/1009675-light/run1009675-light.h5 tag-1495971468//
/work/sebastian/BT-20210625/1009675-light/run1009675-light.h5 tag-1495971470//
/work/sebastian/BT-20210625/1009675-light/run1009675-light.h5 tag-1495971472//
/work/sebastian/BT-20210625/1009675-light/run1009675-light.h5 tag-1495971476//
/work/sebastian/BT-20210625/1009675-light/run1009675-light.h5 tag-1495971482//
/work/sebastian/BT-20210625/1009675-light/run1009675-light.h5 tag-1495971484//
/work/sebastian/BT-20210625/1009675-light/run1009675-light.h5 tag-1495971492//
/work/sebastian/BT-20210625/1009675-light/run1009675-light.h5 tag-1495971496//
/work/sebastian/BT-20210625/1009675-light/run1009675-light.h5 tag-1495971500//
/work/sebastian/BT-20210625/1009675-light/run1009675-light.h5 tag-1495971514//
/work/sebastian/BT-20210625/1009675-light/run1009675-light.h5 tag-1495971518//
/work/sebastian/BT-20210625/1009675-light/run1009675-light.h5 tag-1495971526//
/work/sebastian/BT-20210625/1009675-light/run1009675-light.h5 tag-1495971528//
/work/sebastian/BT-20210625/1009675-light/run1009675-light.h5 tag-1495971534//
/work/sebastian/BT-20210625/1009675-light/run1009675-light.h5 tag-1495971536//
/work/sebastian/BT-20210625/1009675-light/run1009675-light.h5 tag-1495971538//
/work/sebastian/BT-20210625/1009675-light/run1009675-light.h5 tag-1495971540//
/work/sebastian/BT-20210625/1009675-light/run1009675-light.h5 tag-1495971550//
/work/sebastian/BT-20210625/1009675-light/run1009675-light.h5 tag-1495971552//
/work/sebastian/BT-20210625/1009675-light/run1009675-light.h5 tag-1495971560//
/work/sebastian/BT-20210625/1009675-light/run1009675-light.h5 tag-1495971568//
/work/sebastian/BT-20210625/1009675-light/run1009675-light.h5 tag-1495971574//
/work/sebastian/BT-20210625/1009675-light/run1009675-light.h5 tag-1495971582//
/work/sebastian/BT-20210625/1009675-light/run1009675-light.h5 tag-1495971586//
/work/sebastian/BT-20210625/1009675-light/run1009675-light.h5 tag-1495971588//
/work/sebastian/BT-20210625/1009675-light/run1009675-light.h5 tag-1495971590//
/work/sebastian/BT-20210625/1009675-light/run1009675-light.h5 tag-1495971592//
/work/sebastian/BT-20210625/1009675-light/run1009675-light.h5 tag-1495971600//
/work/sebastian/BT-20210625/1009675-light/run1009675-light.h5 tag-1495971606//
/work/sebastian/BT-20210625/1009675-light/run1009675-light.h5 tag-1495971608//
/work/sebastian/BT-20210625/1009675-light/run1009675-light.h5 tag-1495971616//
/work/sebastian/BT-20210625/1009675-light/run1009675-light.h5 tag-1495971624//
/work/sebastian/BT-20210625/1009675-light/run1009675-light.h5 tag-1495971630//
/work/sebastian/BT-20210625/1009675-light/run1009675-light.h5 tag-1495971632//
/work/sebastian/BT-20210625/1009675-light/run1009675-light.h5 tag-1495971636//
/work/sebastian/BT-20210625/1009675-light/run1009675-light.h5 tag-1495971640//
/work/sebastian/BT-20210625/1009675-light/run1009675-light.h5 tag-1495971648//
/work/sebastian/BT-20210625/1009675-light/run1009675-light.h5 tag-1495971654//
/work/sebastian/BT-20210625/1009675-light/run1009675-light.h5 tag-1495971656//
/work/sebastian/BT-20210625/1009675-light/run1009675-light.h5 tag-1495971658//
/work/sebastian/BT-20210625/1009675-light/run1009675-light.h5 tag-1495971660//
/work/sebastian/BT-20210625/1009675-light/run1009675-light.h5 tag-1495971662//
/work/sebastian/BT-20210625/1009675-light/run1009675-light.h5 tag-1495971666//
/work/sebastian/BT-20210625/1009675-light/run1009675-light.h5 tag-1495971672//
/work/sebastian/BT-20210625/1009675-light/run1009675-light.h5 tag-1495971674//
/work/sebastian/BT-20210625/1009675-light/run1009675-light.h5 tag-1495971678//
/work/sebastian/BT-20210625/1009675-light/run1009675-light.h5 tag-1495971680//
/work/sebastian/BT-20210625/1009675-light/run1009675-light.h5 tag-1495971684//
/work/sebastian/BT-20210625/1009675-light/run1009675-light.h5 tag-1495971686//
/work/sebastian/BT-20210625/1009675-light/run1009675-light.h5 tag-1495971688//
/work/sebastian/BT-20210625/1009675-light/run1009675-light.h5 tag-1495971690//
/work/sebastian/BT-20210625/1009675-light/run1009675-light.h5 tag-1495971692//
/work/sebastian/BT-20210625/1009675-light/run1009675-light.h5 tag-1495971694//
/work/sebastian/BT-20210625/1009675-light/run1009675-light.h5 tag-1495971696//
/work/sebastian/BT-20210625/1009675-light/run1009675-light.h5 tag-1495971698//
/work/sebastian/BT-20210625/1009675-light/run1009675-light.h5 tag-1495971700//
/work/sebastian/BT-20210625/1009675-light/run1009675-light.h5 tag-1495971702//
/work/sebastian/BT-20210625/1009675-light/run1009675-light.h5 tag-1495971706//
/work/sebastian/BT-20210625/1009675-light/run1009675-light.h5 tag-1495971708//
/work/sebastian/BT-20210625/1009675-light/run1009675-light.h5 tag-1495971714//
/work/sebastian/BT-20210625/1009675-light/run1009675-light.h5 tag-1495971718//
/work/sebastian/BT-20210625/1009675-light/run1009675-light.h5 tag-1495971720//
/work/sebastian/BT-20210625/1009675-light/run1009675-light.h5 tag-1495971728//
/work/sebastian/BT-20210625/1009675-light/run1009675-light.h5 tag-1495971730//
/work/sebastian/BT-20210625/1009675-light/run1009675-light.h5 tag-1495971734//
/work/sebastian/BT-20210625/1009675-light/run1009675-light.h5 tag-1495971736//
/work/sebastian/BT-20210625/1009675-light/run1009675-light.h5 tag-1495971738//
/work/sebastian/BT-20210625/1009675-light/run1009675-light.h5 tag-1495971748//
/work/sebastian/BT-20210625/1009675-light/run1009675-light.h5 tag-1495971750//
/work/sebastian/BT-20210625/1009675-light/run1009675-light.h5 tag-1495971752//
/work/sebastian/BT-20210625/1009675-light/run1009675-light.h5 tag-1495971754//
/work/sebastian/BT-20210625/1009675-light/run1009675-light.h5 tag-1495971756//
/work/sebastian/BT-20210625/1009675-light/run1009675-light.h5 tag-1495971758//
/work/sebastian/BT-20210625/1009675-light/run1009675-light.h5 tag-1495971770//
/work/sebastian/BT-20210625/1009675-light/run1009675-light.h5 tag-1495971776//
/work/sebastian/BT-20210625/1009675-light/run1009675-light.h5 tag-1495971784//
/work/sebastian/BT-20210625/1009675-light/run1009675-light.h5 tag-1495971788//
/work/sebastian/BT-20210625/1009675-light/run1009675-light.h5 tag-1495971794//
/work/sebastian/BT-20210625/1009675-light/run1009675-light.h5 tag-1495971804//
/work/sebastian/BT-20210625/1009675-light/run1009675-light.h5 tag-1495971812//
/work/sebastian/BT-20210625/1009675-light/run1009675-light.h5 tag-1495971814//
/work/sebastian/BT-20210625/1009675-light/run1009675-light.h5 tag-1495971818//
/work/sebastian/BT-20210625/1009675-light/run1009675-light.h5 tag-1495971820//
/work/sebastian/BT-20210625/1009675-light/run1009675-light.h5 tag-1495971822//
/work/sebastian/BT-20210625/1009675-light/run1009675-light.h5 tag-1495971828//
/work/sebastian/BT-20210625/1009675-light/run1009675-light.h5 tag-1495971830//
/work/sebastian/BT-20210625/1009675-light/run1009675-light.h5 tag-1495971832//
/work/sebastian/BT-20210625/1009675-light/run1009675-light.h5 tag-1495971838//
/work/sebastian/BT-20210625/1009675-light/run1009675-light.h5 tag-1495971846//
/work/sebastian/BT-20210625/1009675-light/run1009675-light.h5 tag-1495971852//
/work/sebastian/BT-20210625/1009675-light/run1009675-light.h5 tag-1495971856//
/work/sebastian/BT-20210625/1009675-light/run1009675-light.h5 tag-1495971862//
/work/sebastian/BT-20210625/1009675-light/run1009675-light.h5 tag-1495971864//
/work/sebastian/BT-20210625/1009675-light/run1009675-light.h5 tag-1495971868//
/work/sebastian/BT-20210625/1009675-light/run1009675-light.h5 tag-1495971870//
/work/sebastian/BT-20210625/1009675-light/run1009675-light.h5 tag-1495971872//
/work/sebastian/BT-20210625/1009675-light/run1009675-light.h5 tag-1495971874//
/work/sebastian/BT-20210625/1009675-light/run1009675-light.h5 tag-1495971876//
/work/sebastian/BT-20210625/1009675-light/run1009675-light.h5 tag-1495971878//
/work/sebastian/BT-20210625/1009675-light/run1009675-light.h5 tag-1495971890//
/work/sebastian/BT-20210625/1009675-light/run1009675-light.h5 tag-1495971892//
/work/sebastian/BT-20210625/1009675-light/run1009675-light.h5 tag-1495971900//
/work/sebastian/BT-20210625/1009675-light/run1009675-light.h5 tag-1495971902//
/work/sebastian/BT-20210625/1009675-light/run1009675-light.h5 tag-1495971914//
/work/sebastian/BT-20210625/1009675-light/run1009675-light.h5 tag-1495971920//
/work/sebastian/BT-20210625/1009675-light/run1009675-light.h5 tag-1495971922//
/work/sebastian/BT-20210625/1009675-light/run1009675-light.h5 tag-1495971926//
/work/sebastian/BT-20210625/1009675-light/run1009675-light.h5 tag-1495971928//
/work/sebastian/BT-20210625/1009675-light/run1009675-light.h5 tag-1495971930//
/work/sebastian/BT-20210625/1009675-light/run1009675-light.h5 tag-1495971938//
/work/sebastian/BT-20210625/1009675-light/run1009675-light.h5 tag-1495971942//
/work/sebastian/BT-20210625/1009675-light/run1009675-light.h5 tag-1495971948//
/work/sebastian/BT-20210625/1009675-light/run1009675-light.h5 tag-1495971950//
/work/sebastian/BT-20210625/1009675-light/run1009675-light.h5 tag-1495971952//
/work/sebastian/BT-20210625/1009675-light/run1009675-light.h5 tag-1495971954//
