/work/sebastian/BT-20210625/1009875-light/run1009875-light.h5 tag-1497744862//
/work/sebastian/BT-20210625/1009875-light/run1009875-light.h5 tag-1497744864//
/work/sebastian/BT-20210625/1009875-light/run1009875-light.h5 tag-1497744868//
/work/sebastian/BT-20210625/1009875-light/run1009875-light.h5 tag-1497744872//
/work/sebastian/BT-20210625/1009875-light/run1009875-light.h5 tag-1497744876//
/work/sebastian/BT-20210625/1009875-light/run1009875-light.h5 tag-1497744882//
/work/sebastian/BT-20210625/1009875-light/run1009875-light.h5 tag-1497744890//
/work/sebastian/BT-20210625/1009875-light/run1009875-light.h5 tag-1497744900//
/work/sebastian/BT-20210625/1009875-light/run1009875-light.h5 tag-1497744904//
/work/sebastian/BT-20210625/1009875-light/run1009875-light.h5 tag-1497744906//
/work/sebastian/BT-20210625/1009875-light/run1009875-light.h5 tag-1497744908//
/work/sebastian/BT-20210625/1009875-light/run1009875-light.h5 tag-1497744910//
/work/sebastian/BT-20210625/1009875-light/run1009875-light.h5 tag-1497744916//
/work/sebastian/BT-20210625/1009875-light/run1009875-light.h5 tag-1497744918//
/work/sebastian/BT-20210625/1009875-light/run1009875-light.h5 tag-1497744920//
/work/sebastian/BT-20210625/1009875-light/run1009875-light.h5 tag-1497744922//
/work/sebastian/BT-20210625/1009875-light/run1009875-light.h5 tag-1497744926//
/work/sebastian/BT-20210625/1009875-light/run1009875-light.h5 tag-1497744928//
/work/sebastian/BT-20210625/1009875-light/run1009875-light.h5 tag-1497744932//
/work/sebastian/BT-20210625/1009875-light/run1009875-light.h5 tag-1497744934//
/work/sebastian/BT-20210625/1009875-light/run1009875-light.h5 tag-1497744940//
/work/sebastian/BT-20210625/1009875-light/run1009875-light.h5 tag-1497744942//
/work/sebastian/BT-20210625/1009875-light/run1009875-light.h5 tag-1497744946//
/work/sebastian/BT-20210625/1009875-light/run1009875-light.h5 tag-1497744952//
/work/sebastian/BT-20210625/1009875-light/run1009875-light.h5 tag-1497744954//
/work/sebastian/BT-20210625/1009875-light/run1009875-light.h5 tag-1497744956//
/work/sebastian/BT-20210625/1009875-light/run1009875-light.h5 tag-1497744958//
/work/sebastian/BT-20210625/1009875-light/run1009875-light.h5 tag-1497744960//
/work/sebastian/BT-20210625/1009875-light/run1009875-light.h5 tag-1497744964//
/work/sebastian/BT-20210625/1009875-light/run1009875-light.h5 tag-1497744970//
/work/sebastian/BT-20210625/1009875-light/run1009875-light.h5 tag-1497744972//
/work/sebastian/BT-20210625/1009875-light/run1009875-light.h5 tag-1497744988//
/work/sebastian/BT-20210625/1009875-light/run1009875-light.h5 tag-1497744990//
/work/sebastian/BT-20210625/1009875-light/run1009875-light.h5 tag-1497744992//
/work/sebastian/BT-20210625/1009875-light/run1009875-light.h5 tag-1497744996//
/work/sebastian/BT-20210625/1009875-light/run1009875-light.h5 tag-1497745000//
/work/sebastian/BT-20210625/1009875-light/run1009875-light.h5 tag-1497745004//
/work/sebastian/BT-20210625/1009875-light/run1009875-light.h5 tag-1497745008//
/work/sebastian/BT-20210625/1009875-light/run1009875-light.h5 tag-1497745020//
/work/sebastian/BT-20210625/1009875-light/run1009875-light.h5 tag-1497745022//
/work/sebastian/BT-20210625/1009875-light/run1009875-light.h5 tag-1497745024//
/work/sebastian/BT-20210625/1009875-light/run1009875-light.h5 tag-1497745028//
/work/sebastian/BT-20210625/1009875-light/run1009875-light.h5 tag-1497745030//
/work/sebastian/BT-20210625/1009875-light/run1009875-light.h5 tag-1497745032//
/work/sebastian/BT-20210625/1009875-light/run1009875-light.h5 tag-1497745034//
/work/sebastian/BT-20210625/1009875-light/run1009875-light.h5 tag-1497745036//
/work/sebastian/BT-20210625/1009875-light/run1009875-light.h5 tag-1497745040//
/work/sebastian/BT-20210625/1009875-light/run1009875-light.h5 tag-1497745046//
/work/sebastian/BT-20210625/1009875-light/run1009875-light.h5 tag-1497745048//
/work/sebastian/BT-20210625/1009875-light/run1009875-light.h5 tag-1497745050//
/work/sebastian/BT-20210625/1009875-light/run1009875-light.h5 tag-1497745056//
/work/sebastian/BT-20210625/1009875-light/run1009875-light.h5 tag-1497745058//
/work/sebastian/BT-20210625/1009875-light/run1009875-light.h5 tag-1497745062//
/work/sebastian/BT-20210625/1009875-light/run1009875-light.h5 tag-1497745064//
/work/sebastian/BT-20210625/1009875-light/run1009875-light.h5 tag-1497745066//
/work/sebastian/BT-20210625/1009875-light/run1009875-light.h5 tag-1497745070//
/work/sebastian/BT-20210625/1009875-light/run1009875-light.h5 tag-1497745076//
/work/sebastian/BT-20210625/1009875-light/run1009875-light.h5 tag-1497745078//
/work/sebastian/BT-20210625/1009875-light/run1009875-light.h5 tag-1497745084//
/work/sebastian/BT-20210625/1009875-light/run1009875-light.h5 tag-1497745086//
/work/sebastian/BT-20210625/1009875-light/run1009875-light.h5 tag-1497745090//
/work/sebastian/BT-20210625/1009875-light/run1009875-light.h5 tag-1497745092//
/work/sebastian/BT-20210625/1009875-light/run1009875-light.h5 tag-1497745094//
/work/sebastian/BT-20210625/1009875-light/run1009875-light.h5 tag-1497745096//
/work/sebastian/BT-20210625/1009875-light/run1009875-light.h5 tag-1497745100//
/work/sebastian/BT-20210625/1009875-light/run1009875-light.h5 tag-1497745102//
/work/sebastian/BT-20210625/1009875-light/run1009875-light.h5 tag-1497745104//
/work/sebastian/BT-20210625/1009875-light/run1009875-light.h5 tag-1497745108//
/work/sebastian/BT-20210625/1009875-light/run1009875-light.h5 tag-1497745110//
/work/sebastian/BT-20210625/1009875-light/run1009875-light.h5 tag-1497745112//
/work/sebastian/BT-20210625/1009875-light/run1009875-light.h5 tag-1497745114//
/work/sebastian/BT-20210625/1009875-light/run1009875-light.h5 tag-1497745116//
/work/sebastian/BT-20210625/1009875-light/run1009875-light.h5 tag-1497745118//
/work/sebastian/BT-20210625/1009875-light/run1009875-light.h5 tag-1497745122//
/work/sebastian/BT-20210625/1009875-light/run1009875-light.h5 tag-1497745126//
/work/sebastian/BT-20210625/1009875-light/run1009875-light.h5 tag-1497745136//
/work/sebastian/BT-20210625/1009875-light/run1009875-light.h5 tag-1497745138//
/work/sebastian/BT-20210625/1009875-light/run1009875-light.h5 tag-1497745146//
/work/sebastian/BT-20210625/1009875-light/run1009875-light.h5 tag-1497745148//
/work/sebastian/BT-20210625/1009875-light/run1009875-light.h5 tag-1497745152//
/work/sebastian/BT-20210625/1009875-light/run1009875-light.h5 tag-1497745154//
/work/sebastian/BT-20210625/1009875-light/run1009875-light.h5 tag-1497745158//
/work/sebastian/BT-20210625/1009875-light/run1009875-light.h5 tag-1497745160//
/work/sebastian/BT-20210625/1009875-light/run1009875-light.h5 tag-1497745164//
/work/sebastian/BT-20210625/1009875-light/run1009875-light.h5 tag-1497745170//
/work/sebastian/BT-20210625/1009875-light/run1009875-light.h5 tag-1497745172//
/work/sebastian/BT-20210625/1009875-light/run1009875-light.h5 tag-1497745174//
/work/sebastian/BT-20210625/1009875-light/run1009875-light.h5 tag-1497745176//
/work/sebastian/BT-20210625/1009875-light/run1009875-light.h5 tag-1497745180//
/work/sebastian/BT-20210625/1009875-light/run1009875-light.h5 tag-1497745182//
/work/sebastian/BT-20210625/1009875-light/run1009875-light.h5 tag-1497745184//
/work/sebastian/BT-20210625/1009875-light/run1009875-light.h5 tag-1497745188//
/work/sebastian/BT-20210625/1009875-light/run1009875-light.h5 tag-1497745190//
/work/sebastian/BT-20210625/1009875-light/run1009875-light.h5 tag-1497745192//
/work/sebastian/BT-20210625/1009875-light/run1009875-light.h5 tag-1497745196//
/work/sebastian/BT-20210625/1009875-light/run1009875-light.h5 tag-1497745198//
/work/sebastian/BT-20210625/1009875-light/run1009875-light.h5 tag-1497745200//
/work/sebastian/BT-20210625/1009875-light/run1009875-light.h5 tag-1497745202//
/work/sebastian/BT-20210625/1009875-light/run1009875-light.h5 tag-1497745204//
/work/sebastian/BT-20210625/1009875-light/run1009875-light.h5 tag-1497745208//
/work/sebastian/BT-20210625/1009875-light/run1009875-light.h5 tag-1497745212//
/work/sebastian/BT-20210625/1009875-light/run1009875-light.h5 tag-1497745214//
/work/sebastian/BT-20210625/1009875-light/run1009875-light.h5 tag-1497745220//
/work/sebastian/BT-20210625/1009875-light/run1009875-light.h5 tag-1497745224//
/work/sebastian/BT-20210625/1009875-light/run1009875-light.h5 tag-1497745228//
/work/sebastian/BT-20210625/1009875-light/run1009875-light.h5 tag-1497745230//
/work/sebastian/BT-20210625/1009875-light/run1009875-light.h5 tag-1497745232//
/work/sebastian/BT-20210625/1009875-light/run1009875-light.h5 tag-1497745240//
/work/sebastian/BT-20210625/1009875-light/run1009875-light.h5 tag-1497745242//
/work/sebastian/BT-20210625/1009875-light/run1009875-light.h5 tag-1497745248//
/work/sebastian/BT-20210625/1009875-light/run1009875-light.h5 tag-1497745250//
/work/sebastian/BT-20210625/1009875-light/run1009875-light.h5 tag-1497745252//
/work/sebastian/BT-20210625/1009875-light/run1009875-light.h5 tag-1497745254//
/work/sebastian/BT-20210625/1009875-light/run1009875-light.h5 tag-1497745258//
/work/sebastian/BT-20210625/1009875-light/run1009875-light.h5 tag-1497745262//
/work/sebastian/BT-20210625/1009875-light/run1009875-light.h5 tag-1497745264//
/work/sebastian/BT-20210625/1009875-light/run1009875-light.h5 tag-1497745266//
/work/sebastian/BT-20210625/1009875-light/run1009875-light.h5 tag-1497745268//
/work/sebastian/BT-20210625/1009875-light/run1009875-light.h5 tag-1497745272//
/work/sebastian/BT-20210625/1009875-light/run1009875-light.h5 tag-1497745274//
/work/sebastian/BT-20210625/1009875-light/run1009875-light.h5 tag-1497745278//
/work/sebastian/BT-20210625/1009875-light/run1009875-light.h5 tag-1497745282//
/work/sebastian/BT-20210625/1009875-light/run1009875-light.h5 tag-1497745284//
/work/sebastian/BT-20210625/1009875-light/run1009875-light.h5 tag-1497745286//
/work/sebastian/BT-20210625/1009875-light/run1009875-light.h5 tag-1497745290//
/work/sebastian/BT-20210625/1009875-light/run1009875-light.h5 tag-1497745292//
/work/sebastian/BT-20210625/1009875-light/run1009875-light.h5 tag-1497745298//
/work/sebastian/BT-20210625/1009875-light/run1009875-light.h5 tag-1497745302//
/work/sebastian/BT-20210625/1009875-light/run1009875-light.h5 tag-1497745304//
/work/sebastian/BT-20210625/1009875-light/run1009875-light.h5 tag-1497745310//
/work/sebastian/BT-20210625/1009875-light/run1009875-light.h5 tag-1497745320//
/work/sebastian/BT-20210625/1009875-light/run1009875-light.h5 tag-1497745322//
/work/sebastian/BT-20210625/1009875-light/run1009875-light.h5 tag-1497745328//
/work/sebastian/BT-20210625/1009875-light/run1009875-light.h5 tag-1497745330//
/work/sebastian/BT-20210625/1009875-light/run1009875-light.h5 tag-1497745332//
/work/sebastian/BT-20210625/1009875-light/run1009875-light.h5 tag-1497745334//
/work/sebastian/BT-20210625/1009875-light/run1009875-light.h5 tag-1497745336//
/work/sebastian/BT-20210625/1009875-light/run1009875-light.h5 tag-1497745338//
/work/sebastian/BT-20210625/1009875-light/run1009875-light.h5 tag-1497745340//
/work/sebastian/BT-20210625/1009875-light/run1009875-light.h5 tag-1497745342//
/work/sebastian/BT-20210625/1009875-light/run1009875-light.h5 tag-1497745346//
/work/sebastian/BT-20210625/1009875-light/run1009875-light.h5 tag-1497745348//
/work/sebastian/BT-20210625/1009875-light/run1009875-light.h5 tag-1497745352//
/work/sebastian/BT-20210625/1009875-light/run1009875-light.h5 tag-1497745356//
/work/sebastian/BT-20210625/1009875-light/run1009875-light.h5 tag-1497745358//
/work/sebastian/BT-20210625/1009875-light/run1009875-light.h5 tag-1497745362//
/work/sebastian/BT-20210625/1009875-light/run1009875-light.h5 tag-1497745368//
/work/sebastian/BT-20210625/1009875-light/run1009875-light.h5 tag-1497745380//
/work/sebastian/BT-20210625/1009875-light/run1009875-light.h5 tag-1497745382//
/work/sebastian/BT-20210625/1009875-light/run1009875-light.h5 tag-1497745388//
/work/sebastian/BT-20210625/1009875-light/run1009875-light.h5 tag-1497745390//
/work/sebastian/BT-20210625/1009875-light/run1009875-light.h5 tag-1497745392//
/work/sebastian/BT-20210625/1009875-light/run1009875-light.h5 tag-1497745394//
/work/sebastian/BT-20210625/1009875-light/run1009875-light.h5 tag-1497745400//
/work/sebastian/BT-20210625/1009875-light/run1009875-light.h5 tag-1497745402//
/work/sebastian/BT-20210625/1009875-light/run1009875-light.h5 tag-1497745414//
/work/sebastian/BT-20210625/1009875-light/run1009875-light.h5 tag-1497745416//
/work/sebastian/BT-20210625/1009875-light/run1009875-light.h5 tag-1497745420//
/work/sebastian/BT-20210625/1009875-light/run1009875-light.h5 tag-1497745422//
/work/sebastian/BT-20210625/1009875-light/run1009875-light.h5 tag-1497745426//
/work/sebastian/BT-20210625/1009875-light/run1009875-light.h5 tag-1497745430//
/work/sebastian/BT-20210625/1009875-light/run1009875-light.h5 tag-1497745432//
/work/sebastian/BT-20210625/1009875-light/run1009875-light.h5 tag-1497745434//
/work/sebastian/BT-20210625/1009875-light/run1009875-light.h5 tag-1497745438//
/work/sebastian/BT-20210625/1009875-light/run1009875-light.h5 tag-1497745440//
/work/sebastian/BT-20210625/1009875-light/run1009875-light.h5 tag-1497745458//
/work/sebastian/BT-20210625/1009875-light/run1009875-light.h5 tag-1497745460//
/work/sebastian/BT-20210625/1009875-light/run1009875-light.h5 tag-1497745462//
/work/sebastian/BT-20210625/1009875-light/run1009875-light.h5 tag-1497745464//
/work/sebastian/BT-20210625/1009875-light/run1009875-light.h5 tag-1497745466//
/work/sebastian/BT-20210625/1009875-light/run1009875-light.h5 tag-1497745468//
/work/sebastian/BT-20210625/1009875-light/run1009875-light.h5 tag-1497745472//
/work/sebastian/BT-20210625/1009875-light/run1009875-light.h5 tag-1497745474//
/work/sebastian/BT-20210625/1009875-light/run1009875-light.h5 tag-1497745480//
/work/sebastian/BT-20210625/1009875-light/run1009875-light.h5 tag-1497745484//
/work/sebastian/BT-20210625/1009875-light/run1009875-light.h5 tag-1497745486//
/work/sebastian/BT-20210625/1009875-light/run1009875-light.h5 tag-1497745490//
/work/sebastian/BT-20210625/1009875-light/run1009875-light.h5 tag-1497745492//
/work/sebastian/BT-20210625/1009875-light/run1009875-light.h5 tag-1497745496//
/work/sebastian/BT-20210625/1009875-light/run1009875-light.h5 tag-1497745498//
/work/sebastian/BT-20210625/1009875-light/run1009875-light.h5 tag-1497745502//
/work/sebastian/BT-20210625/1009875-light/run1009875-light.h5 tag-1497745508//
/work/sebastian/BT-20210625/1009875-light/run1009875-light.h5 tag-1497745510//
/work/sebastian/BT-20210625/1009875-light/run1009875-light.h5 tag-1497745516//
/work/sebastian/BT-20210625/1009875-light/run1009875-light.h5 tag-1497745520//
/work/sebastian/BT-20210625/1009875-light/run1009875-light.h5 tag-1497745522//
/work/sebastian/BT-20210625/1009875-light/run1009875-light.h5 tag-1497745526//
/work/sebastian/BT-20210625/1009875-light/run1009875-light.h5 tag-1497745530//
/work/sebastian/BT-20210625/1009875-light/run1009875-light.h5 tag-1497745534//
/work/sebastian/BT-20210625/1009875-light/run1009875-light.h5 tag-1497745538//
/work/sebastian/BT-20210625/1009875-light/run1009875-light.h5 tag-1497745540//
/work/sebastian/BT-20210625/1009875-light/run1009875-light.h5 tag-1497745542//
/work/sebastian/BT-20210625/1009875-light/run1009875-light.h5 tag-1497745544//
/work/sebastian/BT-20210625/1009875-light/run1009875-light.h5 tag-1497745546//
/work/sebastian/BT-20210625/1009875-light/run1009875-light.h5 tag-1497745548//
/work/sebastian/BT-20210625/1009875-light/run1009875-light.h5 tag-1497745550//
/work/sebastian/BT-20210625/1009875-light/run1009875-light.h5 tag-1497745552//
/work/sebastian/BT-20210625/1009875-light/run1009875-light.h5 tag-1497745554//
/work/sebastian/BT-20210625/1009875-light/run1009875-light.h5 tag-1497745558//
/work/sebastian/BT-20210625/1009875-light/run1009875-light.h5 tag-1497745560//
/work/sebastian/BT-20210625/1009875-light/run1009875-light.h5 tag-1497745564//
/work/sebastian/BT-20210625/1009875-light/run1009875-light.h5 tag-1497745566//
/work/sebastian/BT-20210625/1009875-light/run1009875-light.h5 tag-1497745570//
/work/sebastian/BT-20210625/1009875-light/run1009875-light.h5 tag-1497745574//
/work/sebastian/BT-20210625/1009875-light/run1009875-light.h5 tag-1497745576//
/work/sebastian/BT-20210625/1009875-light/run1009875-light.h5 tag-1497745578//
/work/sebastian/BT-20210625/1009875-light/run1009875-light.h5 tag-1497745580//
/work/sebastian/BT-20210625/1009875-light/run1009875-light.h5 tag-1497745582//
/work/sebastian/BT-20210625/1009875-light/run1009875-light.h5 tag-1497745584//
/work/sebastian/BT-20210625/1009875-light/run1009875-light.h5 tag-1497745586//
/work/sebastian/BT-20210625/1009875-light/run1009875-light.h5 tag-1497745592//
/work/sebastian/BT-20210625/1009875-light/run1009875-light.h5 tag-1497745594//
/work/sebastian/BT-20210625/1009875-light/run1009875-light.h5 tag-1497745596//
/work/sebastian/BT-20210625/1009875-light/run1009875-light.h5 tag-1497745604//
/work/sebastian/BT-20210625/1009875-light/run1009875-light.h5 tag-1497745610//
/work/sebastian/BT-20210625/1009875-light/run1009875-light.h5 tag-1497745612//
/work/sebastian/BT-20210625/1009875-light/run1009875-light.h5 tag-1497745614//
/work/sebastian/BT-20210625/1009875-light/run1009875-light.h5 tag-1497745616//
/work/sebastian/BT-20210625/1009875-light/run1009875-light.h5 tag-1497745618//
/work/sebastian/BT-20210625/1009875-light/run1009875-light.h5 tag-1497745620//
/work/sebastian/BT-20210625/1009875-light/run1009875-light.h5 tag-1497745622//
/work/sebastian/BT-20210625/1009875-light/run1009875-light.h5 tag-1497745624//
/work/sebastian/BT-20210625/1009875-light/run1009875-light.h5 tag-1497745630//
/work/sebastian/BT-20210625/1009875-light/run1009875-light.h5 tag-1497745632//
/work/sebastian/BT-20210625/1009875-light/run1009875-light.h5 tag-1497745634//
/work/sebastian/BT-20210625/1009875-light/run1009875-light.h5 tag-1497745638//
/work/sebastian/BT-20210625/1009875-light/run1009875-light.h5 tag-1497745640//
/work/sebastian/BT-20210625/1009875-light/run1009875-light.h5 tag-1497745642//
/work/sebastian/BT-20210625/1009875-light/run1009875-light.h5 tag-1497745644//
/work/sebastian/BT-20210625/1009875-light/run1009875-light.h5 tag-1497745648//
/work/sebastian/BT-20210625/1009875-light/run1009875-light.h5 tag-1497745650//
/work/sebastian/BT-20210625/1009875-light/run1009875-light.h5 tag-1497745652//
/work/sebastian/BT-20210625/1009875-light/run1009875-light.h5 tag-1497745654//
/work/sebastian/BT-20210625/1009875-light/run1009875-light.h5 tag-1497745656//
/work/sebastian/BT-20210625/1009875-light/run1009875-light.h5 tag-1497745658//
/work/sebastian/BT-20210625/1009875-light/run1009875-light.h5 tag-1497745660//
/work/sebastian/BT-20210625/1009875-light/run1009875-light.h5 tag-1497745664//
/work/sebastian/BT-20210625/1009875-light/run1009875-light.h5 tag-1497745666//
/work/sebastian/BT-20210625/1009875-light/run1009875-light.h5 tag-1497745668//
/work/sebastian/BT-20210625/1009875-light/run1009875-light.h5 tag-1497745674//
/work/sebastian/BT-20210625/1009875-light/run1009875-light.h5 tag-1497745682//
/work/sebastian/BT-20210625/1009875-light/run1009875-light.h5 tag-1497745688//
/work/sebastian/BT-20210625/1009875-light/run1009875-light.h5 tag-1497745692//
/work/sebastian/BT-20210625/1009875-light/run1009875-light.h5 tag-1497745694//
/work/sebastian/BT-20210625/1009875-light/run1009875-light.h5 tag-1497745698//
/work/sebastian/BT-20210625/1009875-light/run1009875-light.h5 tag-1497745702//
/work/sebastian/BT-20210625/1009875-light/run1009875-light.h5 tag-1497745704//
/work/sebastian/BT-20210625/1009875-light/run1009875-light.h5 tag-1497745706//
/work/sebastian/BT-20210625/1009875-light/run1009875-light.h5 tag-1497745708//
/work/sebastian/BT-20210625/1009875-light/run1009875-light.h5 tag-1497745712//
/work/sebastian/BT-20210625/1009875-light/run1009875-light.h5 tag-1497745714//
/work/sebastian/BT-20210625/1009875-light/run1009875-light.h5 tag-1497745716//
/work/sebastian/BT-20210625/1009875-light/run1009875-light.h5 tag-1497745720//
/work/sebastian/BT-20210625/1009875-light/run1009875-light.h5 tag-1497745726//
/work/sebastian/BT-20210625/1009875-light/run1009875-light.h5 tag-1497745728//
/work/sebastian/BT-20210625/1009875-light/run1009875-light.h5 tag-1497745730//
/work/sebastian/BT-20210625/1009875-light/run1009875-light.h5 tag-1497745732//
/work/sebastian/BT-20210625/1009875-light/run1009875-light.h5 tag-1497745734//
/work/sebastian/BT-20210625/1009875-light/run1009875-light.h5 tag-1497745744//
/work/sebastian/BT-20210625/1009875-light/run1009875-light.h5 tag-1497745746//
/work/sebastian/BT-20210625/1009875-light/run1009875-light.h5 tag-1497745748//
/work/sebastian/BT-20210625/1009875-light/run1009875-light.h5 tag-1497745754//
/work/sebastian/BT-20210625/1009875-light/run1009875-light.h5 tag-1497745756//
/work/sebastian/BT-20210625/1009875-light/run1009875-light.h5 tag-1497745758//
/work/sebastian/BT-20210625/1009875-light/run1009875-light.h5 tag-1497745768//
/work/sebastian/BT-20210625/1009875-light/run1009875-light.h5 tag-1497745770//
/work/sebastian/BT-20210625/1009875-light/run1009875-light.h5 tag-1497745772//
/work/sebastian/BT-20210625/1009875-light/run1009875-light.h5 tag-1497745774//
/work/sebastian/BT-20210625/1009875-light/run1009875-light.h5 tag-1497745776//
/work/sebastian/BT-20210625/1009875-light/run1009875-light.h5 tag-1497745778//
/work/sebastian/BT-20210625/1009875-light/run1009875-light.h5 tag-1497745780//
/work/sebastian/BT-20210625/1009875-light/run1009875-light.h5 tag-1497745782//
/work/sebastian/BT-20210625/1009875-light/run1009875-light.h5 tag-1497745784//
/work/sebastian/BT-20210625/1009875-light/run1009875-light.h5 tag-1497745788//
/work/sebastian/BT-20210625/1009875-light/run1009875-light.h5 tag-1497745790//
/work/sebastian/BT-20210625/1009875-light/run1009875-light.h5 tag-1497745794//
/work/sebastian/BT-20210625/1009875-light/run1009875-light.h5 tag-1497745800//
/work/sebastian/BT-20210625/1009875-light/run1009875-light.h5 tag-1497745802//
/work/sebastian/BT-20210625/1009875-light/run1009875-light.h5 tag-1497745806//
/work/sebastian/BT-20210625/1009875-light/run1009875-light.h5 tag-1497745808//
/work/sebastian/BT-20210625/1009875-light/run1009875-light.h5 tag-1497745810//
/work/sebastian/BT-20210625/1009875-light/run1009875-light.h5 tag-1497745814//
/work/sebastian/BT-20210625/1009875-light/run1009875-light.h5 tag-1497745818//
/work/sebastian/BT-20210625/1009875-light/run1009875-light.h5 tag-1497745820//
/work/sebastian/BT-20210625/1009875-light/run1009875-light.h5 tag-1497745826//
/work/sebastian/BT-20210625/1009875-light/run1009875-light.h5 tag-1497745828//
/work/sebastian/BT-20210625/1009875-light/run1009875-light.h5 tag-1497745830//
/work/sebastian/BT-20210625/1009875-light/run1009875-light.h5 tag-1497745832//
/work/sebastian/BT-20210625/1009875-light/run1009875-light.h5 tag-1497745834//
/work/sebastian/BT-20210625/1009875-light/run1009875-light.h5 tag-1497745836//
/work/sebastian/BT-20210625/1009875-light/run1009875-light.h5 tag-1497745840//
/work/sebastian/BT-20210625/1009875-light/run1009875-light.h5 tag-1497745846//
/work/sebastian/BT-20210625/1009875-light/run1009875-light.h5 tag-1497745848//
/work/sebastian/BT-20210625/1009875-light/run1009875-light.h5 tag-1497745850//
/work/sebastian/BT-20210625/1009875-light/run1009875-light.h5 tag-1497745858//
/work/sebastian/BT-20210625/1009875-light/run1009875-light.h5 tag-1497745860//
/work/sebastian/BT-20210625/1009875-light/run1009875-light.h5 tag-1497745862//
/work/sebastian/BT-20210625/1009875-light/run1009875-light.h5 tag-1497745866//
/work/sebastian/BT-20210625/1009875-light/run1009875-light.h5 tag-1497745868//
/work/sebastian/BT-20210625/1009875-light/run1009875-light.h5 tag-1497745872//
/work/sebastian/BT-20210625/1009875-light/run1009875-light.h5 tag-1497745876//
/work/sebastian/BT-20210625/1009875-light/run1009875-light.h5 tag-1497745880//
/work/sebastian/BT-20210625/1009875-light/run1009875-light.h5 tag-1497745882//
/work/sebastian/BT-20210625/1009875-light/run1009875-light.h5 tag-1497745884//
/work/sebastian/BT-20210625/1009875-light/run1009875-light.h5 tag-1497745886//
/work/sebastian/BT-20210625/1009875-light/run1009875-light.h5 tag-1497745888//
/work/sebastian/BT-20210625/1009875-light/run1009875-light.h5 tag-1497745892//
/work/sebastian/BT-20210625/1009875-light/run1009875-light.h5 tag-1497745898//
/work/sebastian/BT-20210625/1009875-light/run1009875-light.h5 tag-1497745900//
/work/sebastian/BT-20210625/1009875-light/run1009875-light.h5 tag-1497745904//
/work/sebastian/BT-20210625/1009875-light/run1009875-light.h5 tag-1497745906//
/work/sebastian/BT-20210625/1009875-light/run1009875-light.h5 tag-1497745914//
/work/sebastian/BT-20210625/1009875-light/run1009875-light.h5 tag-1497745922//
/work/sebastian/BT-20210625/1009875-light/run1009875-light.h5 tag-1497745926//
/work/sebastian/BT-20210625/1009875-light/run1009875-light.h5 tag-1497745932//
/work/sebastian/BT-20210625/1009875-light/run1009875-light.h5 tag-1497745936//
/work/sebastian/BT-20210625/1009875-light/run1009875-light.h5 tag-1497745938//
/work/sebastian/BT-20210625/1009875-light/run1009875-light.h5 tag-1497745942//
/work/sebastian/BT-20210625/1009875-light/run1009875-light.h5 tag-1497745948//
/work/sebastian/BT-20210625/1009875-light/run1009875-light.h5 tag-1497745952//
/work/sebastian/BT-20210625/1009875-light/run1009875-light.h5 tag-1497745956//
/work/sebastian/BT-20210625/1009875-light/run1009875-light.h5 tag-1497745966//
/work/sebastian/BT-20210625/1009875-light/run1009875-light.h5 tag-1497745968//
/work/sebastian/BT-20210625/1009875-light/run1009875-light.h5 tag-1497745976//
/work/sebastian/BT-20210625/1009875-light/run1009875-light.h5 tag-1497745978//
/work/sebastian/BT-20210625/1009875-light/run1009875-light.h5 tag-1497745980//
/work/sebastian/BT-20210625/1009875-light/run1009875-light.h5 tag-1497745986//
/work/sebastian/BT-20210625/1009875-light/run1009875-light.h5 tag-1497745990//
/work/sebastian/BT-20210625/1009875-light/run1009875-light.h5 tag-1497745992//
/work/sebastian/BT-20210625/1009875-light/run1009875-light.h5 tag-1497745994//
/work/sebastian/BT-20210625/1009875-light/run1009875-light.h5 tag-1497745998//
/work/sebastian/BT-20210625/1009875-light/run1009875-light.h5 tag-1497746002//
/work/sebastian/BT-20210625/1009875-light/run1009875-light.h5 tag-1497746012//
/work/sebastian/BT-20210625/1009875-light/run1009875-light.h5 tag-1497746018//
/work/sebastian/BT-20210625/1009875-light/run1009875-light.h5 tag-1497746022//
/work/sebastian/BT-20210625/1009875-light/run1009875-light.h5 tag-1497746026//
/work/sebastian/BT-20210625/1009875-light/run1009875-light.h5 tag-1497746030//
/work/sebastian/BT-20210625/1009875-light/run1009875-light.h5 tag-1497746032//
/work/sebastian/BT-20210625/1009875-light/run1009875-light.h5 tag-1497746038//
/work/sebastian/BT-20210625/1009875-light/run1009875-light.h5 tag-1497746040//
/work/sebastian/BT-20210625/1009875-light/run1009875-light.h5 tag-1497746042//
/work/sebastian/BT-20210625/1009875-light/run1009875-light.h5 tag-1497746044//
/work/sebastian/BT-20210625/1009875-light/run1009875-light.h5 tag-1497746046//
/work/sebastian/BT-20210625/1009875-light/run1009875-light.h5 tag-1497746050//
/work/sebastian/BT-20210625/1009875-light/run1009875-light.h5 tag-1497746058//
/work/sebastian/BT-20210625/1009875-light/run1009875-light.h5 tag-1497746062//
/work/sebastian/BT-20210625/1009875-light/run1009875-light.h5 tag-1497746068//
/work/sebastian/BT-20210625/1009875-light/run1009875-light.h5 tag-1497746072//
/work/sebastian/BT-20210625/1009875-light/run1009875-light.h5 tag-1497746076//
/work/sebastian/BT-20210625/1009875-light/run1009875-light.h5 tag-1497746080//
/work/sebastian/BT-20210625/1009875-light/run1009875-light.h5 tag-1497746082//
/work/sebastian/BT-20210625/1009875-light/run1009875-light.h5 tag-1497746088//
/work/sebastian/BT-20210625/1009875-light/run1009875-light.h5 tag-1497746090//
/work/sebastian/BT-20210625/1009875-light/run1009875-light.h5 tag-1497746092//
/work/sebastian/BT-20210625/1009875-light/run1009875-light.h5 tag-1497746096//
/work/sebastian/BT-20210625/1009875-light/run1009875-light.h5 tag-1497746098//
/work/sebastian/BT-20210625/1009875-light/run1009875-light.h5 tag-1497746100//
/work/sebastian/BT-20210625/1009875-light/run1009875-light.h5 tag-1497746106//
/work/sebastian/BT-20210625/1009875-light/run1009875-light.h5 tag-1497746116//
/work/sebastian/BT-20210625/1009875-light/run1009875-light.h5 tag-1497746118//
/work/sebastian/BT-20210625/1009875-light/run1009875-light.h5 tag-1497746122//
/work/sebastian/BT-20210625/1009875-light/run1009875-light.h5 tag-1497746126//
/work/sebastian/BT-20210625/1009875-light/run1009875-light.h5 tag-1497746128//
/work/sebastian/BT-20210625/1009875-light/run1009875-light.h5 tag-1497746140//
/work/sebastian/BT-20210625/1009875-light/run1009875-light.h5 tag-1497746144//
/work/sebastian/BT-20210625/1009875-light/run1009875-light.h5 tag-1497746150//
/work/sebastian/BT-20210625/1009875-light/run1009875-light.h5 tag-1497746152//
/work/sebastian/BT-20210625/1009875-light/run1009875-light.h5 tag-1497746156//
/work/sebastian/BT-20210625/1009875-light/run1009875-light.h5 tag-1497746158//
/work/sebastian/BT-20210625/1009875-light/run1009875-light.h5 tag-1497746160//
/work/sebastian/BT-20210625/1009875-light/run1009875-light.h5 tag-1497746162//
/work/sebastian/BT-20210625/1009875-light/run1009875-light.h5 tag-1497746166//
/work/sebastian/BT-20210625/1009875-light/run1009875-light.h5 tag-1497746170//
/work/sebastian/BT-20210625/1009875-light/run1009875-light.h5 tag-1497746178//
/work/sebastian/BT-20210625/1009875-light/run1009875-light.h5 tag-1497746182//
/work/sebastian/BT-20210625/1009875-light/run1009875-light.h5 tag-1497746184//
/work/sebastian/BT-20210625/1009875-light/run1009875-light.h5 tag-1497746186//
/work/sebastian/BT-20210625/1009875-light/run1009875-light.h5 tag-1497746188//
/work/sebastian/BT-20210625/1009875-light/run1009875-light.h5 tag-1497746192//
/work/sebastian/BT-20210625/1009875-light/run1009875-light.h5 tag-1497746200//
/work/sebastian/BT-20210625/1009875-light/run1009875-light.h5 tag-1497746204//
/work/sebastian/BT-20210625/1009875-light/run1009875-light.h5 tag-1497746206//
/work/sebastian/BT-20210625/1009875-light/run1009875-light.h5 tag-1497746208//
/work/sebastian/BT-20210625/1009875-light/run1009875-light.h5 tag-1497746210//
/work/sebastian/BT-20210625/1009875-light/run1009875-light.h5 tag-1497746212//
/work/sebastian/BT-20210625/1009875-light/run1009875-light.h5 tag-1497746220//
/work/sebastian/BT-20210625/1009875-light/run1009875-light.h5 tag-1497746224//
/work/sebastian/BT-20210625/1009875-light/run1009875-light.h5 tag-1497746226//
/work/sebastian/BT-20210625/1009875-light/run1009875-light.h5 tag-1497746228//
/work/sebastian/BT-20210625/1009875-light/run1009875-light.h5 tag-1497746232//
/work/sebastian/BT-20210625/1009875-light/run1009875-light.h5 tag-1497746234//
/work/sebastian/BT-20210625/1009875-light/run1009875-light.h5 tag-1497746236//
/work/sebastian/BT-20210625/1009875-light/run1009875-light.h5 tag-1497746240//
/work/sebastian/BT-20210625/1009875-light/run1009875-light.h5 tag-1497746242//
/work/sebastian/BT-20210625/1009875-light/run1009875-light.h5 tag-1497746244//
/work/sebastian/BT-20210625/1009875-light/run1009875-light.h5 tag-1497746246//
/work/sebastian/BT-20210625/1009875-light/run1009875-light.h5 tag-1497746250//
/work/sebastian/BT-20210625/1009875-light/run1009875-light.h5 tag-1497746252//
/work/sebastian/BT-20210625/1009875-light/run1009875-light.h5 tag-1497746254//
/work/sebastian/BT-20210625/1009875-light/run1009875-light.h5 tag-1497746256//
/work/sebastian/BT-20210625/1009875-light/run1009875-light.h5 tag-1497746258//
/work/sebastian/BT-20210625/1009875-light/run1009875-light.h5 tag-1497746260//
/work/sebastian/BT-20210625/1009875-light/run1009875-light.h5 tag-1497746266//
/work/sebastian/BT-20210625/1009875-light/run1009875-light.h5 tag-1497746268//
/work/sebastian/BT-20210625/1009875-light/run1009875-light.h5 tag-1497746276//
/work/sebastian/BT-20210625/1009875-light/run1009875-light.h5 tag-1497746280//
/work/sebastian/BT-20210625/1009875-light/run1009875-light.h5 tag-1497746284//
/work/sebastian/BT-20210625/1009875-light/run1009875-light.h5 tag-1497746286//
/work/sebastian/BT-20210625/1009875-light/run1009875-light.h5 tag-1497746290//
/work/sebastian/BT-20210625/1009875-light/run1009875-light.h5 tag-1497746292//
/work/sebastian/BT-20210625/1009875-light/run1009875-light.h5 tag-1497746294//
/work/sebastian/BT-20210625/1009875-light/run1009875-light.h5 tag-1497746298//
/work/sebastian/BT-20210625/1009875-light/run1009875-light.h5 tag-1497746300//
/work/sebastian/BT-20210625/1009875-light/run1009875-light.h5 tag-1497746306//
/work/sebastian/BT-20210625/1009875-light/run1009875-light.h5 tag-1497746308//
/work/sebastian/BT-20210625/1009875-light/run1009875-light.h5 tag-1497746310//
/work/sebastian/BT-20210625/1009875-light/run1009875-light.h5 tag-1497746312//
/work/sebastian/BT-20210625/1009875-light/run1009875-light.h5 tag-1497746318//
/work/sebastian/BT-20210625/1009875-light/run1009875-light.h5 tag-1497746322//
/work/sebastian/BT-20210625/1009875-light/run1009875-light.h5 tag-1497746324//
/work/sebastian/BT-20210625/1009875-light/run1009875-light.h5 tag-1497746326//
/work/sebastian/BT-20210625/1009875-light/run1009875-light.h5 tag-1497746328//
/work/sebastian/BT-20210625/1009875-light/run1009875-light.h5 tag-1497746332//
/work/sebastian/BT-20210625/1009875-light/run1009875-light.h5 tag-1497746336//
/work/sebastian/BT-20210625/1009875-light/run1009875-light.h5 tag-1497746342//
/work/sebastian/BT-20210625/1009875-light/run1009875-light.h5 tag-1497746346//
/work/sebastian/BT-20210625/1009875-light/run1009875-light.h5 tag-1497746348//
/work/sebastian/BT-20210625/1009875-light/run1009875-light.h5 tag-1497746354//
/work/sebastian/BT-20210625/1009875-light/run1009875-light.h5 tag-1497746366//
/work/sebastian/BT-20210625/1009875-light/run1009875-light.h5 tag-1497746370//
/work/sebastian/BT-20210625/1009875-light/run1009875-light.h5 tag-1497746372//
/work/sebastian/BT-20210625/1009875-light/run1009875-light.h5 tag-1497746374//
/work/sebastian/BT-20210625/1009875-light/run1009875-light.h5 tag-1497746376//
/work/sebastian/BT-20210625/1009875-light/run1009875-light.h5 tag-1497746380//
/work/sebastian/BT-20210625/1009875-light/run1009875-light.h5 tag-1497746384//
/work/sebastian/BT-20210625/1009875-light/run1009875-light.h5 tag-1497746388//
/work/sebastian/BT-20210625/1009875-light/run1009875-light.h5 tag-1497746390//
/work/sebastian/BT-20210625/1009875-light/run1009875-light.h5 tag-1497746392//
/work/sebastian/BT-20210625/1009875-light/run1009875-light.h5 tag-1497746396//
/work/sebastian/BT-20210625/1009875-light/run1009875-light.h5 tag-1497746402//
/work/sebastian/BT-20210625/1009875-light/run1009875-light.h5 tag-1497746406//
/work/sebastian/BT-20210625/1009875-light/run1009875-light.h5 tag-1497746408//
/work/sebastian/BT-20210625/1009875-light/run1009875-light.h5 tag-1497746414//
/work/sebastian/BT-20210625/1009875-light/run1009875-light.h5 tag-1497746416//
/work/sebastian/BT-20210625/1009875-light/run1009875-light.h5 tag-1497746422//
/work/sebastian/BT-20210625/1009875-light/run1009875-light.h5 tag-1497746424//
/work/sebastian/BT-20210625/1009875-light/run1009875-light.h5 tag-1497746426//
/work/sebastian/BT-20210625/1009875-light/run1009875-light.h5 tag-1497746428//
/work/sebastian/BT-20210625/1009875-light/run1009875-light.h5 tag-1497746430//
/work/sebastian/BT-20210625/1009875-light/run1009875-light.h5 tag-1497746434//
/work/sebastian/BT-20210625/1009875-light/run1009875-light.h5 tag-1497746436//
/work/sebastian/BT-20210625/1009875-light/run1009875-light.h5 tag-1497746446//
/work/sebastian/BT-20210625/1009875-light/run1009875-light.h5 tag-1497746448//
/work/sebastian/BT-20210625/1009875-light/run1009875-light.h5 tag-1497746450//
/work/sebastian/BT-20210625/1009875-light/run1009875-light.h5 tag-1497746452//
/work/sebastian/BT-20210625/1009875-light/run1009875-light.h5 tag-1497746454//
/work/sebastian/BT-20210625/1009875-light/run1009875-light.h5 tag-1497746456//
/work/sebastian/BT-20210625/1009875-light/run1009875-light.h5 tag-1497746458//
/work/sebastian/BT-20210625/1009875-light/run1009875-light.h5 tag-1497746466//
/work/sebastian/BT-20210625/1009875-light/run1009875-light.h5 tag-1497746468//
/work/sebastian/BT-20210625/1009875-light/run1009875-light.h5 tag-1497746470//
/work/sebastian/BT-20210625/1009875-light/run1009875-light.h5 tag-1497746472//
/work/sebastian/BT-20210625/1009875-light/run1009875-light.h5 tag-1497746476//
/work/sebastian/BT-20210625/1009875-light/run1009875-light.h5 tag-1497746478//
/work/sebastian/BT-20210625/1009875-light/run1009875-light.h5 tag-1497746486//
/work/sebastian/BT-20210625/1009875-light/run1009875-light.h5 tag-1497746490//
/work/sebastian/BT-20210625/1009875-light/run1009875-light.h5 tag-1497746498//
/work/sebastian/BT-20210625/1009875-light/run1009875-light.h5 tag-1497746502//
/work/sebastian/BT-20210625/1009875-light/run1009875-light.h5 tag-1497746506//
/work/sebastian/BT-20210625/1009875-light/run1009875-light.h5 tag-1497746508//
/work/sebastian/BT-20210625/1009875-light/run1009875-light.h5 tag-1497746514//
/work/sebastian/BT-20210625/1009875-light/run1009875-light.h5 tag-1497746516//
/work/sebastian/BT-20210625/1009875-light/run1009875-light.h5 tag-1497746518//
/work/sebastian/BT-20210625/1009875-light/run1009875-light.h5 tag-1497746520//
/work/sebastian/BT-20210625/1009875-light/run1009875-light.h5 tag-1497746528//
/work/sebastian/BT-20210625/1009875-light/run1009875-light.h5 tag-1497746534//
/work/sebastian/BT-20210625/1009875-light/run1009875-light.h5 tag-1497746536//
/work/sebastian/BT-20210625/1009875-light/run1009875-light.h5 tag-1497746542//
/work/sebastian/BT-20210625/1009875-light/run1009875-light.h5 tag-1497746544//
/work/sebastian/BT-20210625/1009875-light/run1009875-light.h5 tag-1497746546//
/work/sebastian/BT-20210625/1009875-light/run1009875-light.h5 tag-1497746548//
/work/sebastian/BT-20210625/1009875-light/run1009875-light.h5 tag-1497746550//
/work/sebastian/BT-20210625/1009875-light/run1009875-light.h5 tag-1497746554//
/work/sebastian/BT-20210625/1009875-light/run1009875-light.h5 tag-1497746558//
/work/sebastian/BT-20210625/1009875-light/run1009875-light.h5 tag-1497746562//
/work/sebastian/BT-20210625/1009875-light/run1009875-light.h5 tag-1497746566//
/work/sebastian/BT-20210625/1009875-light/run1009875-light.h5 tag-1497746570//
/work/sebastian/BT-20210625/1009875-light/run1009875-light.h5 tag-1497746580//
/work/sebastian/BT-20210625/1009875-light/run1009875-light.h5 tag-1497746584//
/work/sebastian/BT-20210625/1009875-light/run1009875-light.h5 tag-1497746586//
/work/sebastian/BT-20210625/1009875-light/run1009875-light.h5 tag-1497746590//
/work/sebastian/BT-20210625/1009875-light/run1009875-light.h5 tag-1497746592//
/work/sebastian/BT-20210625/1009875-light/run1009875-light.h5 tag-1497746594//
/work/sebastian/BT-20210625/1009875-light/run1009875-light.h5 tag-1497746604//
/work/sebastian/BT-20210625/1009875-light/run1009875-light.h5 tag-1497746606//
/work/sebastian/BT-20210625/1009875-light/run1009875-light.h5 tag-1497746618//
/work/sebastian/BT-20210625/1009875-light/run1009875-light.h5 tag-1497746620//
/work/sebastian/BT-20210625/1009875-light/run1009875-light.h5 tag-1497746622//
/work/sebastian/BT-20210625/1009875-light/run1009875-light.h5 tag-1497746626//
/work/sebastian/BT-20210625/1009875-light/run1009875-light.h5 tag-1497746630//
/work/sebastian/BT-20210625/1009875-light/run1009875-light.h5 tag-1497746632//
/work/sebastian/BT-20210625/1009875-light/run1009875-light.h5 tag-1497746640//
/work/sebastian/BT-20210625/1009875-light/run1009875-light.h5 tag-1497746646//
/work/sebastian/BT-20210625/1009875-light/run1009875-light.h5 tag-1497746650//
/work/sebastian/BT-20210625/1009875-light/run1009875-light.h5 tag-1497746654//
/work/sebastian/BT-20210625/1009875-light/run1009875-light.h5 tag-1497746658//
/work/sebastian/BT-20210625/1009875-light/run1009875-light.h5 tag-1497746660//
/work/sebastian/BT-20210625/1009875-light/run1009875-light.h5 tag-1497746662//
/work/sebastian/BT-20210625/1009875-light/run1009875-light.h5 tag-1497746666//
/work/sebastian/BT-20210625/1009875-light/run1009875-light.h5 tag-1497746668//
/work/sebastian/BT-20210625/1009875-light/run1009875-light.h5 tag-1497746670//
/work/sebastian/BT-20210625/1009875-light/run1009875-light.h5 tag-1497746678//
/work/sebastian/BT-20210625/1009875-light/run1009875-light.h5 tag-1497746680//
/work/sebastian/BT-20210625/1009875-light/run1009875-light.h5 tag-1497746682//
/work/sebastian/BT-20210625/1009875-light/run1009875-light.h5 tag-1497746684//
/work/sebastian/BT-20210625/1009875-light/run1009875-light.h5 tag-1497746688//
/work/sebastian/BT-20210625/1009875-light/run1009875-light.h5 tag-1497746690//
/work/sebastian/BT-20210625/1009875-light/run1009875-light.h5 tag-1497746692//
/work/sebastian/BT-20210625/1009875-light/run1009875-light.h5 tag-1497746694//
/work/sebastian/BT-20210625/1009875-light/run1009875-light.h5 tag-1497746698//
/work/sebastian/BT-20210625/1009875-light/run1009875-light.h5 tag-1497746700//
/work/sebastian/BT-20210625/1009875-light/run1009875-light.h5 tag-1497746704//
/work/sebastian/BT-20210625/1009875-light/run1009875-light.h5 tag-1497746706//
/work/sebastian/BT-20210625/1009875-light/run1009875-light.h5 tag-1497746708//
/work/sebastian/BT-20210625/1009875-light/run1009875-light.h5 tag-1497746710//
/work/sebastian/BT-20210625/1009875-light/run1009875-light.h5 tag-1497746712//
/work/sebastian/BT-20210625/1009875-light/run1009875-light.h5 tag-1497746714//
/work/sebastian/BT-20210625/1009875-light/run1009875-light.h5 tag-1497746726//
/work/sebastian/BT-20210625/1009875-light/run1009875-light.h5 tag-1497746730//
/work/sebastian/BT-20210625/1009875-light/run1009875-light.h5 tag-1497746732//
/work/sebastian/BT-20210625/1009875-light/run1009875-light.h5 tag-1497746736//
/work/sebastian/BT-20210625/1009875-light/run1009875-light.h5 tag-1497746744//
/work/sebastian/BT-20210625/1009875-light/run1009875-light.h5 tag-1497746748//
/work/sebastian/BT-20210625/1009875-light/run1009875-light.h5 tag-1497746752//
/work/sebastian/BT-20210625/1009875-light/run1009875-light.h5 tag-1497746754//
/work/sebastian/BT-20210625/1009875-light/run1009875-light.h5 tag-1497746758//
/work/sebastian/BT-20210625/1009875-light/run1009875-light.h5 tag-1497746760//
/work/sebastian/BT-20210625/1009875-light/run1009875-light.h5 tag-1497746762//
/work/sebastian/BT-20210625/1009875-light/run1009875-light.h5 tag-1497746770//
/work/sebastian/BT-20210625/1009875-light/run1009875-light.h5 tag-1497746774//
/work/sebastian/BT-20210625/1009875-light/run1009875-light.h5 tag-1497746776//
/work/sebastian/BT-20210625/1009875-light/run1009875-light.h5 tag-1497746778//
/work/sebastian/BT-20210625/1009875-light/run1009875-light.h5 tag-1497746782//
/work/sebastian/BT-20210625/1009875-light/run1009875-light.h5 tag-1497746784//
/work/sebastian/BT-20210625/1009875-light/run1009875-light.h5 tag-1497746786//
/work/sebastian/BT-20210625/1009875-light/run1009875-light.h5 tag-1497746790//
/work/sebastian/BT-20210625/1009875-light/run1009875-light.h5 tag-1497746796//
/work/sebastian/BT-20210625/1009875-light/run1009875-light.h5 tag-1497746798//
/work/sebastian/BT-20210625/1009875-light/run1009875-light.h5 tag-1497746802//
/work/sebastian/BT-20210625/1009875-light/run1009875-light.h5 tag-1497746806//
/work/sebastian/BT-20210625/1009875-light/run1009875-light.h5 tag-1497746808//
/work/sebastian/BT-20210625/1009875-light/run1009875-light.h5 tag-1497746812//
/work/sebastian/BT-20210625/1009875-light/run1009875-light.h5 tag-1497746818//
/work/sebastian/BT-20210625/1009875-light/run1009875-light.h5 tag-1497746820//
/work/sebastian/BT-20210625/1009875-light/run1009875-light.h5 tag-1497746822//
/work/sebastian/BT-20210625/1009875-light/run1009875-light.h5 tag-1497746824//
/work/sebastian/BT-20210625/1009875-light/run1009875-light.h5 tag-1497746830//
/work/sebastian/BT-20210625/1009875-light/run1009875-light.h5 tag-1497746832//
/work/sebastian/BT-20210625/1009875-light/run1009875-light.h5 tag-1497746834//
/work/sebastian/BT-20210625/1009875-light/run1009875-light.h5 tag-1497746840//
/work/sebastian/BT-20210625/1009875-light/run1009875-light.h5 tag-1497746850//
/work/sebastian/BT-20210625/1009875-light/run1009875-light.h5 tag-1497746854//
/work/sebastian/BT-20210625/1009875-light/run1009875-light.h5 tag-1497746856//
/work/sebastian/BT-20210625/1009875-light/run1009875-light.h5 tag-1497746862//
/work/sebastian/BT-20210625/1009875-light/run1009875-light.h5 tag-1497746864//
/work/sebastian/BT-20210625/1009875-light/run1009875-light.h5 tag-1497746866//
/work/sebastian/BT-20210625/1009875-light/run1009875-light.h5 tag-1497746868//
/work/sebastian/BT-20210625/1009875-light/run1009875-light.h5 tag-1497746876//
/work/sebastian/BT-20210625/1009875-light/run1009875-light.h5 tag-1497746878//
/work/sebastian/BT-20210625/1009875-light/run1009875-light.h5 tag-1497746884//
/work/sebastian/BT-20210625/1009875-light/run1009875-light.h5 tag-1497746888//
/work/sebastian/BT-20210625/1009875-light/run1009875-light.h5 tag-1497746890//
/work/sebastian/BT-20210625/1009875-light/run1009875-light.h5 tag-1497746894//
/work/sebastian/BT-20210625/1009875-light/run1009875-light.h5 tag-1497746896//
/work/sebastian/BT-20210625/1009875-light/run1009875-light.h5 tag-1497746898//
/work/sebastian/BT-20210625/1009875-light/run1009875-light.h5 tag-1497746908//
/work/sebastian/BT-20210625/1009875-light/run1009875-light.h5 tag-1497746910//
/work/sebastian/BT-20210625/1009875-light/run1009875-light.h5 tag-1497746912//
/work/sebastian/BT-20210625/1009875-light/run1009875-light.h5 tag-1497746914//
/work/sebastian/BT-20210625/1009875-light/run1009875-light.h5 tag-1497746920//
/work/sebastian/BT-20210625/1009875-light/run1009875-light.h5 tag-1497746926//
/work/sebastian/BT-20210625/1009875-light/run1009875-light.h5 tag-1497746928//
/work/sebastian/BT-20210625/1009875-light/run1009875-light.h5 tag-1497746932//
/work/sebastian/BT-20210625/1009875-light/run1009875-light.h5 tag-1497746934//
/work/sebastian/BT-20210625/1009875-light/run1009875-light.h5 tag-1497746936//
/work/sebastian/BT-20210625/1009875-light/run1009875-light.h5 tag-1497746938//
/work/sebastian/BT-20210625/1009875-light/run1009875-light.h5 tag-1497746940//
/work/sebastian/BT-20210625/1009875-light/run1009875-light.h5 tag-1497746944//
/work/sebastian/BT-20210625/1009875-light/run1009875-light.h5 tag-1497746948//
/work/sebastian/BT-20210625/1009875-light/run1009875-light.h5 tag-1497746950//
/work/sebastian/BT-20210625/1009875-light/run1009875-light.h5 tag-1497746952//
/work/sebastian/BT-20210625/1009875-light/run1009875-light.h5 tag-1497746954//
/work/sebastian/BT-20210625/1009875-light/run1009875-light.h5 tag-1497746958//
/work/sebastian/BT-20210625/1009875-light/run1009875-light.h5 tag-1497746966//
/work/sebastian/BT-20210625/1009875-light/run1009875-light.h5 tag-1497746978//
/work/sebastian/BT-20210625/1009875-light/run1009875-light.h5 tag-1497746980//
/work/sebastian/BT-20210625/1009875-light/run1009875-light.h5 tag-1497746984//
/work/sebastian/BT-20210625/1009875-light/run1009875-light.h5 tag-1497746986//
/work/sebastian/BT-20210625/1009875-light/run1009875-light.h5 tag-1497746990//
/work/sebastian/BT-20210625/1009875-light/run1009875-light.h5 tag-1497746994//
/work/sebastian/BT-20210625/1009875-light/run1009875-light.h5 tag-1497746996//
/work/sebastian/BT-20210625/1009875-light/run1009875-light.h5 tag-1497746998//
/work/sebastian/BT-20210625/1009875-light/run1009875-light.h5 tag-1497747000//
/work/sebastian/BT-20210625/1009875-light/run1009875-light.h5 tag-1497747004//
/work/sebastian/BT-20210625/1009875-light/run1009875-light.h5 tag-1497747006//
/work/sebastian/BT-20210625/1009875-light/run1009875-light.h5 tag-1497747008//
/work/sebastian/BT-20210625/1009875-light/run1009875-light.h5 tag-1497747010//
/work/sebastian/BT-20210625/1009875-light/run1009875-light.h5 tag-1497747012//
/work/sebastian/BT-20210625/1009875-light/run1009875-light.h5 tag-1497747014//
/work/sebastian/BT-20210625/1009875-light/run1009875-light.h5 tag-1497747016//
/work/sebastian/BT-20210625/1009875-light/run1009875-light.h5 tag-1497747020//
/work/sebastian/BT-20210625/1009875-light/run1009875-light.h5 tag-1497747026//
/work/sebastian/BT-20210625/1009875-light/run1009875-light.h5 tag-1497747028//
/work/sebastian/BT-20210625/1009875-light/run1009875-light.h5 tag-1497747030//
/work/sebastian/BT-20210625/1009875-light/run1009875-light.h5 tag-1497747032//
/work/sebastian/BT-20210625/1009875-light/run1009875-light.h5 tag-1497747044//
/work/sebastian/BT-20210625/1009875-light/run1009875-light.h5 tag-1497747048//
/work/sebastian/BT-20210625/1009875-light/run1009875-light.h5 tag-1497747050//
/work/sebastian/BT-20210625/1009875-light/run1009875-light.h5 tag-1497747052//
/work/sebastian/BT-20210625/1009875-light/run1009875-light.h5 tag-1497747054//
/work/sebastian/BT-20210625/1009875-light/run1009875-light.h5 tag-1497747056//
/work/sebastian/BT-20210625/1009875-light/run1009875-light.h5 tag-1497747060//
/work/sebastian/BT-20210625/1009875-light/run1009875-light.h5 tag-1497747064//
/work/sebastian/BT-20210625/1009875-light/run1009875-light.h5 tag-1497747066//
/work/sebastian/BT-20210625/1009875-light/run1009875-light.h5 tag-1497747068//
/work/sebastian/BT-20210625/1009875-light/run1009875-light.h5 tag-1497747078//
/work/sebastian/BT-20210625/1009875-light/run1009875-light.h5 tag-1497747082//
/work/sebastian/BT-20210625/1009875-light/run1009875-light.h5 tag-1497747088//
/work/sebastian/BT-20210625/1009875-light/run1009875-light.h5 tag-1497747090//
/work/sebastian/BT-20210625/1009875-light/run1009875-light.h5 tag-1497747092//
/work/sebastian/BT-20210625/1009875-light/run1009875-light.h5 tag-1497747098//
/work/sebastian/BT-20210625/1009875-light/run1009875-light.h5 tag-1497747100//
/work/sebastian/BT-20210625/1009875-light/run1009875-light.h5 tag-1497747102//
/work/sebastian/BT-20210625/1009875-light/run1009875-light.h5 tag-1497747112//
/work/sebastian/BT-20210625/1009875-light/run1009875-light.h5 tag-1497747114//
/work/sebastian/BT-20210625/1009875-light/run1009875-light.h5 tag-1497747122//
/work/sebastian/BT-20210625/1009875-light/run1009875-light.h5 tag-1497747124//
/work/sebastian/BT-20210625/1009875-light/run1009875-light.h5 tag-1497747126//
/work/sebastian/BT-20210625/1009875-light/run1009875-light.h5 tag-1497747128//
/work/sebastian/BT-20210625/1009875-light/run1009875-light.h5 tag-1497747132//
/work/sebastian/BT-20210625/1009875-light/run1009875-light.h5 tag-1497747142//
/work/sebastian/BT-20210625/1009875-light/run1009875-light.h5 tag-1497747144//
/work/sebastian/BT-20210625/1009875-light/run1009875-light.h5 tag-1497747146//
/work/sebastian/BT-20210625/1009875-light/run1009875-light.h5 tag-1497747150//
/work/sebastian/BT-20210625/1009875-light/run1009875-light.h5 tag-1497747152//
/work/sebastian/BT-20210625/1009875-light/run1009875-light.h5 tag-1497747160//
/work/sebastian/BT-20210625/1009875-light/run1009875-light.h5 tag-1497747162//
/work/sebastian/BT-20210625/1009875-light/run1009875-light.h5 tag-1497747166//
/work/sebastian/BT-20210625/1009875-light/run1009875-light.h5 tag-1497747170//
/work/sebastian/BT-20210625/1009875-light/run1009875-light.h5 tag-1497747174//
/work/sebastian/BT-20210625/1009875-light/run1009875-light.h5 tag-1497747176//
/work/sebastian/BT-20210625/1009875-light/run1009875-light.h5 tag-1497747180//
/work/sebastian/BT-20210625/1009875-light/run1009875-light.h5 tag-1497747186//
/work/sebastian/BT-20210625/1009875-light/run1009875-light.h5 tag-1497747188//
/work/sebastian/BT-20210625/1009875-light/run1009875-light.h5 tag-1497747192//
/work/sebastian/BT-20210625/1009875-light/run1009875-light.h5 tag-1497747202//
/work/sebastian/BT-20210625/1009875-light/run1009875-light.h5 tag-1497747204//
/work/sebastian/BT-20210625/1009875-light/run1009875-light.h5 tag-1497747206//
/work/sebastian/BT-20210625/1009875-light/run1009875-light.h5 tag-1497747216//
/work/sebastian/BT-20210625/1009875-light/run1009875-light.h5 tag-1497747218//
/work/sebastian/BT-20210625/1009875-light/run1009875-light.h5 tag-1497747220//
/work/sebastian/BT-20210625/1009875-light/run1009875-light.h5 tag-1497747224//
/work/sebastian/BT-20210625/1009875-light/run1009875-light.h5 tag-1497747238//
/work/sebastian/BT-20210625/1009875-light/run1009875-light.h5 tag-1497747244//
/work/sebastian/BT-20210625/1009875-light/run1009875-light.h5 tag-1497747246//
/work/sebastian/BT-20210625/1009875-light/run1009875-light.h5 tag-1497747250//
/work/sebastian/BT-20210625/1009875-light/run1009875-light.h5 tag-1497747254//
/work/sebastian/BT-20210625/1009875-light/run1009875-light.h5 tag-1497747262//
/work/sebastian/BT-20210625/1009875-light/run1009875-light.h5 tag-1497747264//
/work/sebastian/BT-20210625/1009875-light/run1009875-light.h5 tag-1497747268//
/work/sebastian/BT-20210625/1009875-light/run1009875-light.h5 tag-1497747274//
/work/sebastian/BT-20210625/1009875-light/run1009875-light.h5 tag-1497747276//
/work/sebastian/BT-20210625/1009875-light/run1009875-light.h5 tag-1497747282//
/work/sebastian/BT-20210625/1009875-light/run1009875-light.h5 tag-1497747284//
/work/sebastian/BT-20210625/1009875-light/run1009875-light.h5 tag-1497747288//
/work/sebastian/BT-20210625/1009875-light/run1009875-light.h5 tag-1497747292//
/work/sebastian/BT-20210625/1009875-light/run1009875-light.h5 tag-1497747296//
/work/sebastian/BT-20210625/1009875-light/run1009875-light.h5 tag-1497747298//
/work/sebastian/BT-20210625/1009875-light/run1009875-light.h5 tag-1497747302//
/work/sebastian/BT-20210625/1009875-light/run1009875-light.h5 tag-1497747306//
/work/sebastian/BT-20210625/1009875-light/run1009875-light.h5 tag-1497747310//
/work/sebastian/BT-20210625/1009875-light/run1009875-light.h5 tag-1497747332//
/work/sebastian/BT-20210625/1009875-light/run1009875-light.h5 tag-1497747338//
/work/sebastian/BT-20210625/1009875-light/run1009875-light.h5 tag-1497747340//
/work/sebastian/BT-20210625/1009875-light/run1009875-light.h5 tag-1497747342//
/work/sebastian/BT-20210625/1009875-light/run1009875-light.h5 tag-1497747344//
/work/sebastian/BT-20210625/1009875-light/run1009875-light.h5 tag-1497747360//
/work/sebastian/BT-20210625/1009875-light/run1009875-light.h5 tag-1497747364//
/work/sebastian/BT-20210625/1009875-light/run1009875-light.h5 tag-1497747366//
/work/sebastian/BT-20210625/1009875-light/run1009875-light.h5 tag-1497747372//
/work/sebastian/BT-20210625/1009875-light/run1009875-light.h5 tag-1497747376//
/work/sebastian/BT-20210625/1009875-light/run1009875-light.h5 tag-1497747378//
/work/sebastian/BT-20210625/1009875-light/run1009875-light.h5 tag-1497747384//
/work/sebastian/BT-20210625/1009875-light/run1009875-light.h5 tag-1497747390//
/work/sebastian/BT-20210625/1009875-light/run1009875-light.h5 tag-1497747392//
/work/sebastian/BT-20210625/1009875-light/run1009875-light.h5 tag-1497747394//
/work/sebastian/BT-20210625/1009875-light/run1009875-light.h5 tag-1497747396//
/work/sebastian/BT-20210625/1009875-light/run1009875-light.h5 tag-1497747398//
/work/sebastian/BT-20210625/1009875-light/run1009875-light.h5 tag-1497747400//
/work/sebastian/BT-20210625/1009875-light/run1009875-light.h5 tag-1497747402//
/work/sebastian/BT-20210625/1009875-light/run1009875-light.h5 tag-1497747404//
/work/sebastian/BT-20210625/1009875-light/run1009875-light.h5 tag-1497747406//
/work/sebastian/BT-20210625/1009875-light/run1009875-light.h5 tag-1497747408//
/work/sebastian/BT-20210625/1009875-light/run1009875-light.h5 tag-1497747414//
/work/sebastian/BT-20210625/1009875-light/run1009875-light.h5 tag-1497747420//
/work/sebastian/BT-20210625/1009875-light/run1009875-light.h5 tag-1497747422//
/work/sebastian/BT-20210625/1009875-light/run1009875-light.h5 tag-1497747424//
/work/sebastian/BT-20210625/1009875-light/run1009875-light.h5 tag-1497747426//
/work/sebastian/BT-20210625/1009875-light/run1009875-light.h5 tag-1497747428//
/work/sebastian/BT-20210625/1009875-light/run1009875-light.h5 tag-1497747430//
/work/sebastian/BT-20210625/1009875-light/run1009875-light.h5 tag-1497747436//
/work/sebastian/BT-20210625/1009875-light/run1009875-light.h5 tag-1497747440//
/work/sebastian/BT-20210625/1009875-light/run1009875-light.h5 tag-1497747446//
/work/sebastian/BT-20210625/1009875-light/run1009875-light.h5 tag-1497747448//
/work/sebastian/BT-20210625/1009875-light/run1009875-light.h5 tag-1497747450//
/work/sebastian/BT-20210625/1009875-light/run1009875-light.h5 tag-1497747454//
/work/sebastian/BT-20210625/1009875-light/run1009875-light.h5 tag-1497747458//
/work/sebastian/BT-20210625/1009875-light/run1009875-light.h5 tag-1497747460//
/work/sebastian/BT-20210625/1009875-light/run1009875-light.h5 tag-1497747462//
/work/sebastian/BT-20210625/1009875-light/run1009875-light.h5 tag-1497747468//
/work/sebastian/BT-20210625/1009875-light/run1009875-light.h5 tag-1497747470//
/work/sebastian/BT-20210625/1009875-light/run1009875-light.h5 tag-1497747472//
/work/sebastian/BT-20210625/1009875-light/run1009875-light.h5 tag-1497747474//
/work/sebastian/BT-20210625/1009875-light/run1009875-light.h5 tag-1497747476//
/work/sebastian/BT-20210625/1009875-light/run1009875-light.h5 tag-1497747478//
/work/sebastian/BT-20210625/1009875-light/run1009875-light.h5 tag-1497747484//
/work/sebastian/BT-20210625/1009875-light/run1009875-light.h5 tag-1497747486//
/work/sebastian/BT-20210625/1009875-light/run1009875-light.h5 tag-1497747490//
/work/sebastian/BT-20210625/1009875-light/run1009875-light.h5 tag-1497747492//
/work/sebastian/BT-20210625/1009875-light/run1009875-light.h5 tag-1497747494//
/work/sebastian/BT-20210625/1009875-light/run1009875-light.h5 tag-1497747496//
/work/sebastian/BT-20210625/1009875-light/run1009875-light.h5 tag-1497747500//
/work/sebastian/BT-20210625/1009875-light/run1009875-light.h5 tag-1497747504//
/work/sebastian/BT-20210625/1009875-light/run1009875-light.h5 tag-1497747508//
/work/sebastian/BT-20210625/1009875-light/run1009875-light.h5 tag-1497747510//
/work/sebastian/BT-20210625/1009875-light/run1009875-light.h5 tag-1497747514//
/work/sebastian/BT-20210625/1009875-light/run1009875-light.h5 tag-1497747516//
/work/sebastian/BT-20210625/1009875-light/run1009875-light.h5 tag-1497747520//
/work/sebastian/BT-20210625/1009875-light/run1009875-light.h5 tag-1497747528//
/work/sebastian/BT-20210625/1009875-light/run1009875-light.h5 tag-1497747530//
/work/sebastian/BT-20210625/1009875-light/run1009875-light.h5 tag-1497747532//
/work/sebastian/BT-20210625/1009875-light/run1009875-light.h5 tag-1497747536//
/work/sebastian/BT-20210625/1009875-light/run1009875-light.h5 tag-1497747538//
/work/sebastian/BT-20210625/1009875-light/run1009875-light.h5 tag-1497747548//
/work/sebastian/BT-20210625/1009875-light/run1009875-light.h5 tag-1497747550//
/work/sebastian/BT-20210625/1009875-light/run1009875-light.h5 tag-1497747552//
/work/sebastian/BT-20210625/1009875-light/run1009875-light.h5 tag-1497747564//
/work/sebastian/BT-20210625/1009875-light/run1009875-light.h5 tag-1497747568//
/work/sebastian/BT-20210625/1009875-light/run1009875-light.h5 tag-1497747570//
/work/sebastian/BT-20210625/1009875-light/run1009875-light.h5 tag-1497747572//
/work/sebastian/BT-20210625/1009875-light/run1009875-light.h5 tag-1497747574//
/work/sebastian/BT-20210625/1009875-light/run1009875-light.h5 tag-1497747576//
/work/sebastian/BT-20210625/1009875-light/run1009875-light.h5 tag-1497747580//
/work/sebastian/BT-20210625/1009875-light/run1009875-light.h5 tag-1497747582//
/work/sebastian/BT-20210625/1009875-light/run1009875-light.h5 tag-1497747586//
/work/sebastian/BT-20210625/1009875-light/run1009875-light.h5 tag-1497747588//
/work/sebastian/BT-20210625/1009875-light/run1009875-light.h5 tag-1497747596//
/work/sebastian/BT-20210625/1009875-light/run1009875-light.h5 tag-1497747600//
/work/sebastian/BT-20210625/1009875-light/run1009875-light.h5 tag-1497747604//
/work/sebastian/BT-20210625/1009875-light/run1009875-light.h5 tag-1497747606//
/work/sebastian/BT-20210625/1009875-light/run1009875-light.h5 tag-1497747614//
/work/sebastian/BT-20210625/1009875-light/run1009875-light.h5 tag-1497747616//
/work/sebastian/BT-20210625/1009875-light/run1009875-light.h5 tag-1497747618//
/work/sebastian/BT-20210625/1009875-light/run1009875-light.h5 tag-1497747622//
/work/sebastian/BT-20210625/1009875-light/run1009875-light.h5 tag-1497747624//
/work/sebastian/BT-20210625/1009875-light/run1009875-light.h5 tag-1497747632//
/work/sebastian/BT-20210625/1009875-light/run1009875-light.h5 tag-1497747634//
/work/sebastian/BT-20210625/1009875-light/run1009875-light.h5 tag-1497747636//
/work/sebastian/BT-20210625/1009875-light/run1009875-light.h5 tag-1497747642//
/work/sebastian/BT-20210625/1009875-light/run1009875-light.h5 tag-1497747644//
/work/sebastian/BT-20210625/1009875-light/run1009875-light.h5 tag-1497747650//
/work/sebastian/BT-20210625/1009875-light/run1009875-light.h5 tag-1497747656//
/work/sebastian/BT-20210625/1009875-light/run1009875-light.h5 tag-1497747664//
/work/sebastian/BT-20210625/1009875-light/run1009875-light.h5 tag-1497747674//
/work/sebastian/BT-20210625/1009875-light/run1009875-light.h5 tag-1497747676//
/work/sebastian/BT-20210625/1009875-light/run1009875-light.h5 tag-1497747680//
/work/sebastian/BT-20210625/1009875-light/run1009875-light.h5 tag-1497747682//
/work/sebastian/BT-20210625/1009875-light/run1009875-light.h5 tag-1497747684//
/work/sebastian/BT-20210625/1009875-light/run1009875-light.h5 tag-1497747686//
/work/sebastian/BT-20210625/1009875-light/run1009875-light.h5 tag-1497747688//
/work/sebastian/BT-20210625/1009875-light/run1009875-light.h5 tag-1497747690//
/work/sebastian/BT-20210625/1009875-light/run1009875-light.h5 tag-1497747692//
/work/sebastian/BT-20210625/1009875-light/run1009875-light.h5 tag-1497747694//
/work/sebastian/BT-20210625/1009875-light/run1009875-light.h5 tag-1497747696//
/work/sebastian/BT-20210625/1009875-light/run1009875-light.h5 tag-1497747698//
/work/sebastian/BT-20210625/1009875-light/run1009875-light.h5 tag-1497747700//
/work/sebastian/BT-20210625/1009875-light/run1009875-light.h5 tag-1497747706//
/work/sebastian/BT-20210625/1009875-light/run1009875-light.h5 tag-1497747708//
/work/sebastian/BT-20210625/1009875-light/run1009875-light.h5 tag-1497747722//
/work/sebastian/BT-20210625/1009875-light/run1009875-light.h5 tag-1497747724//
/work/sebastian/BT-20210625/1009875-light/run1009875-light.h5 tag-1497747726//
/work/sebastian/BT-20210625/1009875-light/run1009875-light.h5 tag-1497747730//
/work/sebastian/BT-20210625/1009875-light/run1009875-light.h5 tag-1497747740//
/work/sebastian/BT-20210625/1009875-light/run1009875-light.h5 tag-1497747744//
/work/sebastian/BT-20210625/1009875-light/run1009875-light.h5 tag-1497747746//
/work/sebastian/BT-20210625/1009875-light/run1009875-light.h5 tag-1497747748//
/work/sebastian/BT-20210625/1009875-light/run1009875-light.h5 tag-1497747750//
/work/sebastian/BT-20210625/1009875-light/run1009875-light.h5 tag-1497747752//
/work/sebastian/BT-20210625/1009875-light/run1009875-light.h5 tag-1497747760//
/work/sebastian/BT-20210625/1009875-light/run1009875-light.h5 tag-1497747762//
/work/sebastian/BT-20210625/1009875-light/run1009875-light.h5 tag-1497747764//
/work/sebastian/BT-20210625/1009875-light/run1009875-light.h5 tag-1497747766//
/work/sebastian/BT-20210625/1009875-light/run1009875-light.h5 tag-1497747768//
/work/sebastian/BT-20210625/1009875-light/run1009875-light.h5 tag-1497747772//
/work/sebastian/BT-20210625/1009875-light/run1009875-light.h5 tag-1497747774//
/work/sebastian/BT-20210625/1009875-light/run1009875-light.h5 tag-1497747776//
/work/sebastian/BT-20210625/1009875-light/run1009875-light.h5 tag-1497747784//
/work/sebastian/BT-20210625/1009875-light/run1009875-light.h5 tag-1497747790//
/work/sebastian/BT-20210625/1009875-light/run1009875-light.h5 tag-1497747794//
/work/sebastian/BT-20210625/1009875-light/run1009875-light.h5 tag-1497747796//
/work/sebastian/BT-20210625/1009875-light/run1009875-light.h5 tag-1497747804//
/work/sebastian/BT-20210625/1009875-light/run1009875-light.h5 tag-1497747814//
/work/sebastian/BT-20210625/1009875-light/run1009875-light.h5 tag-1497747818//
/work/sebastian/BT-20210625/1009875-light/run1009875-light.h5 tag-1497747820//
/work/sebastian/BT-20210625/1009875-light/run1009875-light.h5 tag-1497747822//
/work/sebastian/BT-20210625/1009875-light/run1009875-light.h5 tag-1497747826//
/work/sebastian/BT-20210625/1009875-light/run1009875-light.h5 tag-1497747830//
/work/sebastian/BT-20210625/1009875-light/run1009875-light.h5 tag-1497747832//
/work/sebastian/BT-20210625/1009875-light/run1009875-light.h5 tag-1497747836//
/work/sebastian/BT-20210625/1009875-light/run1009875-light.h5 tag-1497747846//
/work/sebastian/BT-20210625/1009875-light/run1009875-light.h5 tag-1497747850//
/work/sebastian/BT-20210625/1009875-light/run1009875-light.h5 tag-1497747852//
/work/sebastian/BT-20210625/1009875-light/run1009875-light.h5 tag-1497747854//
/work/sebastian/BT-20210625/1009875-light/run1009875-light.h5 tag-1497747856//
/work/sebastian/BT-20210625/1009875-light/run1009875-light.h5 tag-1497747858//
/work/sebastian/BT-20210625/1009875-light/run1009875-light.h5 tag-1497747860//
/work/sebastian/BT-20210625/1009875-light/run1009875-light.h5 tag-1497747868//
/work/sebastian/BT-20210625/1009875-light/run1009875-light.h5 tag-1497747872//
/work/sebastian/BT-20210625/1009875-light/run1009875-light.h5 tag-1497747878//
/work/sebastian/BT-20210625/1009875-light/run1009875-light.h5 tag-1497747880//
/work/sebastian/BT-20210625/1009875-light/run1009875-light.h5 tag-1497747882//
/work/sebastian/BT-20210625/1009875-light/run1009875-light.h5 tag-1497747884//
/work/sebastian/BT-20210625/1009875-light/run1009875-light.h5 tag-1497747890//
/work/sebastian/BT-20210625/1009875-light/run1009875-light.h5 tag-1497747894//
/work/sebastian/BT-20210625/1009875-light/run1009875-light.h5 tag-1497747896//
/work/sebastian/BT-20210625/1009875-light/run1009875-light.h5 tag-1497747908//
/work/sebastian/BT-20210625/1009875-light/run1009875-light.h5 tag-1497747910//
/work/sebastian/BT-20210625/1009875-light/run1009875-light.h5 tag-1497747912//
/work/sebastian/BT-20210625/1009875-light/run1009875-light.h5 tag-1497747914//
/work/sebastian/BT-20210625/1009875-light/run1009875-light.h5 tag-1497747918//
/work/sebastian/BT-20210625/1009875-light/run1009875-light.h5 tag-1497747920//
/work/sebastian/BT-20210625/1009875-light/run1009875-light.h5 tag-1497747922//
/work/sebastian/BT-20210625/1009875-light/run1009875-light.h5 tag-1497747926//
/work/sebastian/BT-20210625/1009875-light/run1009875-light.h5 tag-1497747928//
/work/sebastian/BT-20210625/1009875-light/run1009875-light.h5 tag-1497747932//
/work/sebastian/BT-20210625/1009875-light/run1009875-light.h5 tag-1497747936//
/work/sebastian/BT-20210625/1009875-light/run1009875-light.h5 tag-1497747938//
/work/sebastian/BT-20210625/1009875-light/run1009875-light.h5 tag-1497747946//
/work/sebastian/BT-20210625/1009875-light/run1009875-light.h5 tag-1497747952//
/work/sebastian/BT-20210625/1009875-light/run1009875-light.h5 tag-1497747954//
/work/sebastian/BT-20210625/1009875-light/run1009875-light.h5 tag-1497747956//
/work/sebastian/BT-20210625/1009875-light/run1009875-light.h5 tag-1497747958//
/work/sebastian/BT-20210625/1009875-light/run1009875-light.h5 tag-1497747960//
/work/sebastian/BT-20210625/1009875-light/run1009875-light.h5 tag-1497747964//
/work/sebastian/BT-20210625/1009875-light/run1009875-light.h5 tag-1497747966//
/work/sebastian/BT-20210625/1009875-light/run1009875-light.h5 tag-1497747976//
/work/sebastian/BT-20210625/1009875-light/run1009875-light.h5 tag-1497747980//
/work/sebastian/BT-20210625/1009875-light/run1009875-light.h5 tag-1497747982//
/work/sebastian/BT-20210625/1009875-light/run1009875-light.h5 tag-1497747988//
/work/sebastian/BT-20210625/1009875-light/run1009875-light.h5 tag-1497747992//
/work/sebastian/BT-20210625/1009875-light/run1009875-light.h5 tag-1497747994//
/work/sebastian/BT-20210625/1009875-light/run1009875-light.h5 tag-1497747996//
/work/sebastian/BT-20210625/1009875-light/run1009875-light.h5 tag-1497747998//
/work/sebastian/BT-20210625/1009875-light/run1009875-light.h5 tag-1497748000//
/work/sebastian/BT-20210625/1009875-light/run1009875-light.h5 tag-1497748002//
/work/sebastian/BT-20210625/1009875-light/run1009875-light.h5 tag-1497748008//
/work/sebastian/BT-20210625/1009875-light/run1009875-light.h5 tag-1497748020//
/work/sebastian/BT-20210625/1009875-light/run1009875-light.h5 tag-1497748022//
/work/sebastian/BT-20210625/1009875-light/run1009875-light.h5 tag-1497748024//
/work/sebastian/BT-20210625/1009875-light/run1009875-light.h5 tag-1497748034//
/work/sebastian/BT-20210625/1009875-light/run1009875-light.h5 tag-1497748038//
/work/sebastian/BT-20210625/1009875-light/run1009875-light.h5 tag-1497748040//
/work/sebastian/BT-20210625/1009875-light/run1009875-light.h5 tag-1497748042//
/work/sebastian/BT-20210625/1009875-light/run1009875-light.h5 tag-1497748050//
/work/sebastian/BT-20210625/1009875-light/run1009875-light.h5 tag-1497748052//
/work/sebastian/BT-20210625/1009875-light/run1009875-light.h5 tag-1497748060//
/work/sebastian/BT-20210625/1009875-light/run1009875-light.h5 tag-1497748062//
/work/sebastian/BT-20210625/1009875-light/run1009875-light.h5 tag-1497748064//
/work/sebastian/BT-20210625/1009875-light/run1009875-light.h5 tag-1497748072//
/work/sebastian/BT-20210625/1009875-light/run1009875-light.h5 tag-1497748078//
/work/sebastian/BT-20210625/1009875-light/run1009875-light.h5 tag-1497748084//
/work/sebastian/BT-20210625/1009875-light/run1009875-light.h5 tag-1497748086//
/work/sebastian/BT-20210625/1009875-light/run1009875-light.h5 tag-1497748096//
/work/sebastian/BT-20210625/1009875-light/run1009875-light.h5 tag-1497748098//
/work/sebastian/BT-20210625/1009875-light/run1009875-light.h5 tag-1497748100//
/work/sebastian/BT-20210625/1009875-light/run1009875-light.h5 tag-1497748104//
/work/sebastian/BT-20210625/1009875-light/run1009875-light.h5 tag-1497748106//
/work/sebastian/BT-20210625/1009875-light/run1009875-light.h5 tag-1497748112//
/work/sebastian/BT-20210625/1009875-light/run1009875-light.h5 tag-1497748114//
/work/sebastian/BT-20210625/1009875-light/run1009875-light.h5 tag-1497748122//
/work/sebastian/BT-20210625/1009875-light/run1009875-light.h5 tag-1497748126//
/work/sebastian/BT-20210625/1009875-light/run1009875-light.h5 tag-1497748130//
/work/sebastian/BT-20210625/1009875-light/run1009875-light.h5 tag-1497748132//
/work/sebastian/BT-20210625/1009875-light/run1009875-light.h5 tag-1497748138//
/work/sebastian/BT-20210625/1009875-light/run1009875-light.h5 tag-1497748140//
/work/sebastian/BT-20210625/1009875-light/run1009875-light.h5 tag-1497748148//
/work/sebastian/BT-20210625/1009875-light/run1009875-light.h5 tag-1497748150//
/work/sebastian/BT-20210625/1009875-light/run1009875-light.h5 tag-1497748152//
/work/sebastian/BT-20210625/1009875-light/run1009875-light.h5 tag-1497748154//
/work/sebastian/BT-20210625/1009875-light/run1009875-light.h5 tag-1497748156//
/work/sebastian/BT-20210625/1009875-light/run1009875-light.h5 tag-1497748158//
/work/sebastian/BT-20210625/1009875-light/run1009875-light.h5 tag-1497748162//
/work/sebastian/BT-20210625/1009875-light/run1009875-light.h5 tag-1497748166//
/work/sebastian/BT-20210625/1009875-light/run1009875-light.h5 tag-1497748168//
/work/sebastian/BT-20210625/1009875-light/run1009875-light.h5 tag-1497748170//
/work/sebastian/BT-20210625/1009875-light/run1009875-light.h5 tag-1497748174//
/work/sebastian/BT-20210625/1009875-light/run1009875-light.h5 tag-1497748178//
/work/sebastian/BT-20210625/1009875-light/run1009875-light.h5 tag-1497748180//
/work/sebastian/BT-20210625/1009875-light/run1009875-light.h5 tag-1497748184//
/work/sebastian/BT-20210625/1009875-light/run1009875-light.h5 tag-1497748186//
/work/sebastian/BT-20210625/1009875-light/run1009875-light.h5 tag-1497748188//
/work/sebastian/BT-20210625/1009875-light/run1009875-light.h5 tag-1497748190//
/work/sebastian/BT-20210625/1009875-light/run1009875-light.h5 tag-1497748196//
/work/sebastian/BT-20210625/1009875-light/run1009875-light.h5 tag-1497748198//
/work/sebastian/BT-20210625/1009875-light/run1009875-light.h5 tag-1497748212//
/work/sebastian/BT-20210625/1009875-light/run1009875-light.h5 tag-1497748214//
/work/sebastian/BT-20210625/1009875-light/run1009875-light.h5 tag-1497748216//
/work/sebastian/BT-20210625/1009875-light/run1009875-light.h5 tag-1497748218//
/work/sebastian/BT-20210625/1009875-light/run1009875-light.h5 tag-1497748222//
/work/sebastian/BT-20210625/1009875-light/run1009875-light.h5 tag-1497748224//
/work/sebastian/BT-20210625/1009875-light/run1009875-light.h5 tag-1497748226//
/work/sebastian/BT-20210625/1009875-light/run1009875-light.h5 tag-1497748230//
/work/sebastian/BT-20210625/1009875-light/run1009875-light.h5 tag-1497748234//
/work/sebastian/BT-20210625/1009875-light/run1009875-light.h5 tag-1497748238//
/work/sebastian/BT-20210625/1009875-light/run1009875-light.h5 tag-1497748240//
/work/sebastian/BT-20210625/1009875-light/run1009875-light.h5 tag-1497748242//
/work/sebastian/BT-20210625/1009875-light/run1009875-light.h5 tag-1497748256//
/work/sebastian/BT-20210625/1009875-light/run1009875-light.h5 tag-1497748258//
/work/sebastian/BT-20210625/1009875-light/run1009875-light.h5 tag-1497748264//
/work/sebastian/BT-20210625/1009875-light/run1009875-light.h5 tag-1497748270//
/work/sebastian/BT-20210625/1009875-light/run1009875-light.h5 tag-1497748274//
/work/sebastian/BT-20210625/1009875-light/run1009875-light.h5 tag-1497748276//
/work/sebastian/BT-20210625/1009875-light/run1009875-light.h5 tag-1497748278//
/work/sebastian/BT-20210625/1009875-light/run1009875-light.h5 tag-1497748280//
/work/sebastian/BT-20210625/1009875-light/run1009875-light.h5 tag-1497748290//
/work/sebastian/BT-20210625/1009875-light/run1009875-light.h5 tag-1497748296//
/work/sebastian/BT-20210625/1009875-light/run1009875-light.h5 tag-1497748306//
/work/sebastian/BT-20210625/1009875-light/run1009875-light.h5 tag-1497748310//
/work/sebastian/BT-20210625/1009875-light/run1009875-light.h5 tag-1497748312//
/work/sebastian/BT-20210625/1009875-light/run1009875-light.h5 tag-1497748316//
/work/sebastian/BT-20210625/1009875-light/run1009875-light.h5 tag-1497748320//
/work/sebastian/BT-20210625/1009875-light/run1009875-light.h5 tag-1497748324//
/work/sebastian/BT-20210625/1009875-light/run1009875-light.h5 tag-1497748330//
/work/sebastian/BT-20210625/1009875-light/run1009875-light.h5 tag-1497748334//
/work/sebastian/BT-20210625/1009875-light/run1009875-light.h5 tag-1497748336//
/work/sebastian/BT-20210625/1009875-light/run1009875-light.h5 tag-1497748338//
/work/sebastian/BT-20210625/1009875-light/run1009875-light.h5 tag-1497748340//
/work/sebastian/BT-20210625/1009875-light/run1009875-light.h5 tag-1497748342//
/work/sebastian/BT-20210625/1009875-light/run1009875-light.h5 tag-1497748344//
/work/sebastian/BT-20210625/1009875-light/run1009875-light.h5 tag-1497748350//
/work/sebastian/BT-20210625/1009875-light/run1009875-light.h5 tag-1497748354//
/work/sebastian/BT-20210625/1009875-light/run1009875-light.h5 tag-1497748358//
/work/sebastian/BT-20210625/1009875-light/run1009875-light.h5 tag-1497748360//
/work/sebastian/BT-20210625/1009875-light/run1009875-light.h5 tag-1497748362//
/work/sebastian/BT-20210625/1009875-light/run1009875-light.h5 tag-1497748366//
/work/sebastian/BT-20210625/1009875-light/run1009875-light.h5 tag-1497748368//
/work/sebastian/BT-20210625/1009875-light/run1009875-light.h5 tag-1497748372//
/work/sebastian/BT-20210625/1009875-light/run1009875-light.h5 tag-1497748376//
/work/sebastian/BT-20210625/1009875-light/run1009875-light.h5 tag-1497748380//
/work/sebastian/BT-20210625/1009875-light/run1009875-light.h5 tag-1497748382//
/work/sebastian/BT-20210625/1009875-light/run1009875-light.h5 tag-1497748388//
/work/sebastian/BT-20210625/1009875-light/run1009875-light.h5 tag-1497748390//
/work/sebastian/BT-20210625/1009875-light/run1009875-light.h5 tag-1497748394//
/work/sebastian/BT-20210625/1009875-light/run1009875-light.h5 tag-1497748398//
/work/sebastian/BT-20210625/1009875-light/run1009875-light.h5 tag-1497748404//
/work/sebastian/BT-20210625/1009875-light/run1009875-light.h5 tag-1497748408//
/work/sebastian/BT-20210625/1009875-light/run1009875-light.h5 tag-1497748416//
/work/sebastian/BT-20210625/1009875-light/run1009875-light.h5 tag-1497748422//
/work/sebastian/BT-20210625/1009875-light/run1009875-light.h5 tag-1497748432//
/work/sebastian/BT-20210625/1009875-light/run1009875-light.h5 tag-1497748436//
/work/sebastian/BT-20210625/1009875-light/run1009875-light.h5 tag-1497748444//
/work/sebastian/BT-20210625/1009875-light/run1009875-light.h5 tag-1497748450//
/work/sebastian/BT-20210625/1009875-light/run1009875-light.h5 tag-1497748458//
/work/sebastian/BT-20210625/1009875-light/run1009875-light.h5 tag-1497748460//
/work/sebastian/BT-20210625/1009875-light/run1009875-light.h5 tag-1497748462//
/work/sebastian/BT-20210625/1009875-light/run1009875-light.h5 tag-1497748466//
/work/sebastian/BT-20210625/1009875-light/run1009875-light.h5 tag-1497748470//
/work/sebastian/BT-20210625/1009875-light/run1009875-light.h5 tag-1497748474//
/work/sebastian/BT-20210625/1009875-light/run1009875-light.h5 tag-1497748482//
/work/sebastian/BT-20210625/1009875-light/run1009875-light.h5 tag-1497748484//
/work/sebastian/BT-20210625/1009875-light/run1009875-light.h5 tag-1497748486//
/work/sebastian/BT-20210625/1009875-light/run1009875-light.h5 tag-1497748498//
/work/sebastian/BT-20210625/1009875-light/run1009875-light.h5 tag-1497748500//
/work/sebastian/BT-20210625/1009875-light/run1009875-light.h5 tag-1497748502//
/work/sebastian/BT-20210625/1009875-light/run1009875-light.h5 tag-1497748506//
/work/sebastian/BT-20210625/1009875-light/run1009875-light.h5 tag-1497748514//
/work/sebastian/BT-20210625/1009875-light/run1009875-light.h5 tag-1497748518//
/work/sebastian/BT-20210625/1009875-light/run1009875-light.h5 tag-1497748528//
/work/sebastian/BT-20210625/1009875-light/run1009875-light.h5 tag-1497748530//
/work/sebastian/BT-20210625/1009875-light/run1009875-light.h5 tag-1497748534//
/work/sebastian/BT-20210625/1009875-light/run1009875-light.h5 tag-1497748538//
/work/sebastian/BT-20210625/1009875-light/run1009875-light.h5 tag-1497748540//
/work/sebastian/BT-20210625/1009875-light/run1009875-light.h5 tag-1497748544//
/work/sebastian/BT-20210625/1009875-light/run1009875-light.h5 tag-1497748552//
/work/sebastian/BT-20210625/1009875-light/run1009875-light.h5 tag-1497748554//
/work/sebastian/BT-20210625/1009875-light/run1009875-light.h5 tag-1497748556//
/work/sebastian/BT-20210625/1009875-light/run1009875-light.h5 tag-1497748564//
/work/sebastian/BT-20210625/1009875-light/run1009875-light.h5 tag-1497748566//
/work/sebastian/BT-20210625/1009875-light/run1009875-light.h5 tag-1497748570//
/work/sebastian/BT-20210625/1009875-light/run1009875-light.h5 tag-1497748594//
/work/sebastian/BT-20210625/1009875-light/run1009875-light.h5 tag-1497748596//
/work/sebastian/BT-20210625/1009875-light/run1009875-light.h5 tag-1497748602//
/work/sebastian/BT-20210625/1009875-light/run1009875-light.h5 tag-1497748614//
/work/sebastian/BT-20210625/1009875-light/run1009875-light.h5 tag-1497748616//
/work/sebastian/BT-20210625/1009875-light/run1009875-light.h5 tag-1497748618//
/work/sebastian/BT-20210625/1009875-light/run1009875-light.h5 tag-1497748624//
/work/sebastian/BT-20210625/1009875-light/run1009875-light.h5 tag-1497748626//
/work/sebastian/BT-20210625/1009875-light/run1009875-light.h5 tag-1497748634//
/work/sebastian/BT-20210625/1009875-light/run1009875-light.h5 tag-1497748636//
/work/sebastian/BT-20210625/1009875-light/run1009875-light.h5 tag-1497748638//
/work/sebastian/BT-20210625/1009875-light/run1009875-light.h5 tag-1497748640//
/work/sebastian/BT-20210625/1009875-light/run1009875-light.h5 tag-1497748650//
/work/sebastian/BT-20210625/1009875-light/run1009875-light.h5 tag-1497748658//
/work/sebastian/BT-20210625/1009875-light/run1009875-light.h5 tag-1497748660//
/work/sebastian/BT-20210625/1009875-light/run1009875-light.h5 tag-1497748662//
/work/sebastian/BT-20210625/1009875-light/run1009875-light.h5 tag-1497748666//
/work/sebastian/BT-20210625/1009875-light/run1009875-light.h5 tag-1497748672//
/work/sebastian/BT-20210625/1009875-light/run1009875-light.h5 tag-1497748678//
/work/sebastian/BT-20210625/1009875-light/run1009875-light.h5 tag-1497748686//
/work/sebastian/BT-20210625/1009875-light/run1009875-light.h5 tag-1497748688//
/work/sebastian/BT-20210625/1009875-light/run1009875-light.h5 tag-1497748694//
/work/sebastian/BT-20210625/1009875-light/run1009875-light.h5 tag-1497748700//
/work/sebastian/BT-20210625/1009875-light/run1009875-light.h5 tag-1497748706//
/work/sebastian/BT-20210625/1009875-light/run1009875-light.h5 tag-1497748714//
/work/sebastian/BT-20210625/1009875-light/run1009875-light.h5 tag-1497748716//
/work/sebastian/BT-20210625/1009875-light/run1009875-light.h5 tag-1497748718//
/work/sebastian/BT-20210625/1009875-light/run1009875-light.h5 tag-1497748730//
/work/sebastian/BT-20210625/1009875-light/run1009875-light.h5 tag-1497748732//
/work/sebastian/BT-20210625/1009875-light/run1009875-light.h5 tag-1497748742//
/work/sebastian/BT-20210625/1009875-light/run1009875-light.h5 tag-1497748744//
/work/sebastian/BT-20210625/1009875-light/run1009875-light.h5 tag-1497748750//
/work/sebastian/BT-20210625/1009875-light/run1009875-light.h5 tag-1497748752//
/work/sebastian/BT-20210625/1009875-light/run1009875-light.h5 tag-1497748756//
/work/sebastian/BT-20210625/1009875-light/run1009875-light.h5 tag-1497748760//
/work/sebastian/BT-20210625/1009875-light/run1009875-light.h5 tag-1497748762//
/work/sebastian/BT-20210625/1009875-light/run1009875-light.h5 tag-1497748766//
/work/sebastian/BT-20210625/1009875-light/run1009875-light.h5 tag-1497748768//
/work/sebastian/BT-20210625/1009875-light/run1009875-light.h5 tag-1497748772//
/work/sebastian/BT-20210625/1009875-light/run1009875-light.h5 tag-1497748776//
/work/sebastian/BT-20210625/1009875-light/run1009875-light.h5 tag-1497748780//
/work/sebastian/BT-20210625/1009875-light/run1009875-light.h5 tag-1497748782//
/work/sebastian/BT-20210625/1009875-light/run1009875-light.h5 tag-1497748784//
/work/sebastian/BT-20210625/1009875-light/run1009875-light.h5 tag-1497748786//
/work/sebastian/BT-20210625/1009875-light/run1009875-light.h5 tag-1497748790//
/work/sebastian/BT-20210625/1009875-light/run1009875-light.h5 tag-1497748792//
/work/sebastian/BT-20210625/1009875-light/run1009875-light.h5 tag-1497748794//
/work/sebastian/BT-20210625/1009875-light/run1009875-light.h5 tag-1497748796//
/work/sebastian/BT-20210625/1009875-light/run1009875-light.h5 tag-1497748798//
/work/sebastian/BT-20210625/1009875-light/run1009875-light.h5 tag-1497748802//
/work/sebastian/BT-20210625/1009875-light/run1009875-light.h5 tag-1497748806//
/work/sebastian/BT-20210625/1009875-light/run1009875-light.h5 tag-1497748814//
/work/sebastian/BT-20210625/1009875-light/run1009875-light.h5 tag-1497748816//
/work/sebastian/BT-20210625/1009875-light/run1009875-light.h5 tag-1497748818//
/work/sebastian/BT-20210625/1009875-light/run1009875-light.h5 tag-1497748820//
/work/sebastian/BT-20210625/1009875-light/run1009875-light.h5 tag-1497748824//
/work/sebastian/BT-20210625/1009875-light/run1009875-light.h5 tag-1497748826//
/work/sebastian/BT-20210625/1009875-light/run1009875-light.h5 tag-1497748828//
/work/sebastian/BT-20210625/1009875-light/run1009875-light.h5 tag-1497748830//
/work/sebastian/BT-20210625/1009875-light/run1009875-light.h5 tag-1497748834//
/work/sebastian/BT-20210625/1009875-light/run1009875-light.h5 tag-1497748836//
/work/sebastian/BT-20210625/1009875-light/run1009875-light.h5 tag-1497748840//
/work/sebastian/BT-20210625/1009875-light/run1009875-light.h5 tag-1497748842//
/work/sebastian/BT-20210625/1009875-light/run1009875-light.h5 tag-1497748844//
/work/sebastian/BT-20210625/1009875-light/run1009875-light.h5 tag-1497748854//
/work/sebastian/BT-20210625/1009875-light/run1009875-light.h5 tag-1497748856//
/work/sebastian/BT-20210625/1009875-light/run1009875-light.h5 tag-1497748858//
/work/sebastian/BT-20210625/1009875-light/run1009875-light.h5 tag-1497748860//
