/work/sebastian/BT-20210625/1009519-light/run1009519-light.h5 tag-1492235532//
/work/sebastian/BT-20210625/1009519-light/run1009519-light.h5 tag-1492235536//
/work/sebastian/BT-20210625/1009519-light/run1009519-light.h5 tag-1492235538//
/work/sebastian/BT-20210625/1009519-light/run1009519-light.h5 tag-1492235540//
/work/sebastian/BT-20210625/1009519-light/run1009519-light.h5 tag-1492235546//
/work/sebastian/BT-20210625/1009519-light/run1009519-light.h5 tag-1492235552//
/work/sebastian/BT-20210625/1009519-light/run1009519-light.h5 tag-1492235558//
/work/sebastian/BT-20210625/1009519-light/run1009519-light.h5 tag-1492235566//
/work/sebastian/BT-20210625/1009519-light/run1009519-light.h5 tag-1492235568//
/work/sebastian/BT-20210625/1009519-light/run1009519-light.h5 tag-1492235572//
/work/sebastian/BT-20210625/1009519-light/run1009519-light.h5 tag-1492235580//
/work/sebastian/BT-20210625/1009519-light/run1009519-light.h5 tag-1492235590//
/work/sebastian/BT-20210625/1009519-light/run1009519-light.h5 tag-1492235592//
/work/sebastian/BT-20210625/1009519-light/run1009519-light.h5 tag-1492235596//
/work/sebastian/BT-20210625/1009519-light/run1009519-light.h5 tag-1492235598//
/work/sebastian/BT-20210625/1009519-light/run1009519-light.h5 tag-1492235602//
/work/sebastian/BT-20210625/1009519-light/run1009519-light.h5 tag-1492235606//
/work/sebastian/BT-20210625/1009519-light/run1009519-light.h5 tag-1492235614//
/work/sebastian/BT-20210625/1009519-light/run1009519-light.h5 tag-1492235616//
/work/sebastian/BT-20210625/1009519-light/run1009519-light.h5 tag-1492235622//
/work/sebastian/BT-20210625/1009519-light/run1009519-light.h5 tag-1492235626//
/work/sebastian/BT-20210625/1009519-light/run1009519-light.h5 tag-1492235632//
/work/sebastian/BT-20210625/1009519-light/run1009519-light.h5 tag-1492235634//
/work/sebastian/BT-20210625/1009519-light/run1009519-light.h5 tag-1492235638//
/work/sebastian/BT-20210625/1009519-light/run1009519-light.h5 tag-1492235640//
/work/sebastian/BT-20210625/1009519-light/run1009519-light.h5 tag-1492235642//
/work/sebastian/BT-20210625/1009519-light/run1009519-light.h5 tag-1492235648//
/work/sebastian/BT-20210625/1009519-light/run1009519-light.h5 tag-1492235650//
/work/sebastian/BT-20210625/1009519-light/run1009519-light.h5 tag-1492235656//
/work/sebastian/BT-20210625/1009519-light/run1009519-light.h5 tag-1492235680//
/work/sebastian/BT-20210625/1009519-light/run1009519-light.h5 tag-1492235682//
/work/sebastian/BT-20210625/1009519-light/run1009519-light.h5 tag-1492235688//
/work/sebastian/BT-20210625/1009519-light/run1009519-light.h5 tag-1492235698//
/work/sebastian/BT-20210625/1009519-light/run1009519-light.h5 tag-1492235700//
/work/sebastian/BT-20210625/1009519-light/run1009519-light.h5 tag-1492235706//
/work/sebastian/BT-20210625/1009519-light/run1009519-light.h5 tag-1492235712//
/work/sebastian/BT-20210625/1009519-light/run1009519-light.h5 tag-1492235716//
/work/sebastian/BT-20210625/1009519-light/run1009519-light.h5 tag-1492235726//
/work/sebastian/BT-20210625/1009519-light/run1009519-light.h5 tag-1492235730//
/work/sebastian/BT-20210625/1009519-light/run1009519-light.h5 tag-1492235734//
/work/sebastian/BT-20210625/1009519-light/run1009519-light.h5 tag-1492235742//
/work/sebastian/BT-20210625/1009519-light/run1009519-light.h5 tag-1492235746//
/work/sebastian/BT-20210625/1009519-light/run1009519-light.h5 tag-1492235752//
/work/sebastian/BT-20210625/1009519-light/run1009519-light.h5 tag-1492235754//
/work/sebastian/BT-20210625/1009519-light/run1009519-light.h5 tag-1492235756//
/work/sebastian/BT-20210625/1009519-light/run1009519-light.h5 tag-1492235762//
/work/sebastian/BT-20210625/1009519-light/run1009519-light.h5 tag-1492235764//
/work/sebastian/BT-20210625/1009519-light/run1009519-light.h5 tag-1492235772//
/work/sebastian/BT-20210625/1009519-light/run1009519-light.h5 tag-1492235774//
/work/sebastian/BT-20210625/1009519-light/run1009519-light.h5 tag-1492235778//
/work/sebastian/BT-20210625/1009519-light/run1009519-light.h5 tag-1492235782//
/work/sebastian/BT-20210625/1009519-light/run1009519-light.h5 tag-1492235788//
/work/sebastian/BT-20210625/1009519-light/run1009519-light.h5 tag-1492235792//
/work/sebastian/BT-20210625/1009519-light/run1009519-light.h5 tag-1492235794//
/work/sebastian/BT-20210625/1009519-light/run1009519-light.h5 tag-1492235798//
/work/sebastian/BT-20210625/1009519-light/run1009519-light.h5 tag-1492235800//
/work/sebastian/BT-20210625/1009519-light/run1009519-light.h5 tag-1492235808//
/work/sebastian/BT-20210625/1009519-light/run1009519-light.h5 tag-1492235810//
/work/sebastian/BT-20210625/1009519-light/run1009519-light.h5 tag-1492235812//
/work/sebastian/BT-20210625/1009519-light/run1009519-light.h5 tag-1492235816//
/work/sebastian/BT-20210625/1009519-light/run1009519-light.h5 tag-1492235820//
/work/sebastian/BT-20210625/1009519-light/run1009519-light.h5 tag-1492235826//
/work/sebastian/BT-20210625/1009519-light/run1009519-light.h5 tag-1492235828//
/work/sebastian/BT-20210625/1009519-light/run1009519-light.h5 tag-1492235830//
/work/sebastian/BT-20210625/1009519-light/run1009519-light.h5 tag-1492235832//
/work/sebastian/BT-20210625/1009519-light/run1009519-light.h5 tag-1492235834//
/work/sebastian/BT-20210625/1009519-light/run1009519-light.h5 tag-1492235836//
/work/sebastian/BT-20210625/1009519-light/run1009519-light.h5 tag-1492235840//
/work/sebastian/BT-20210625/1009519-light/run1009519-light.h5 tag-1492235842//
/work/sebastian/BT-20210625/1009519-light/run1009519-light.h5 tag-1492235844//
/work/sebastian/BT-20210625/1009519-light/run1009519-light.h5 tag-1492235846//
/work/sebastian/BT-20210625/1009519-light/run1009519-light.h5 tag-1492235850//
/work/sebastian/BT-20210625/1009519-light/run1009519-light.h5 tag-1492235852//
/work/sebastian/BT-20210625/1009519-light/run1009519-light.h5 tag-1492235856//
/work/sebastian/BT-20210625/1009519-light/run1009519-light.h5 tag-1492235858//
/work/sebastian/BT-20210625/1009519-light/run1009519-light.h5 tag-1492235860//
/work/sebastian/BT-20210625/1009519-light/run1009519-light.h5 tag-1492235866//
/work/sebastian/BT-20210625/1009519-light/run1009519-light.h5 tag-1492235868//
/work/sebastian/BT-20210625/1009519-light/run1009519-light.h5 tag-1492235872//
/work/sebastian/BT-20210625/1009519-light/run1009519-light.h5 tag-1492235876//
/work/sebastian/BT-20210625/1009519-light/run1009519-light.h5 tag-1492235878//
/work/sebastian/BT-20210625/1009519-light/run1009519-light.h5 tag-1492235880//
/work/sebastian/BT-20210625/1009519-light/run1009519-light.h5 tag-1492235882//
/work/sebastian/BT-20210625/1009519-light/run1009519-light.h5 tag-1492235884//
/work/sebastian/BT-20210625/1009519-light/run1009519-light.h5 tag-1492235892//
/work/sebastian/BT-20210625/1009519-light/run1009519-light.h5 tag-1492235894//
/work/sebastian/BT-20210625/1009519-light/run1009519-light.h5 tag-1492235898//
/work/sebastian/BT-20210625/1009519-light/run1009519-light.h5 tag-1492235906//
/work/sebastian/BT-20210625/1009519-light/run1009519-light.h5 tag-1492235908//
/work/sebastian/BT-20210625/1009519-light/run1009519-light.h5 tag-1492235912//
/work/sebastian/BT-20210625/1009519-light/run1009519-light.h5 tag-1492235916//
/work/sebastian/BT-20210625/1009519-light/run1009519-light.h5 tag-1492235924//
/work/sebastian/BT-20210625/1009519-light/run1009519-light.h5 tag-1492235932//
/work/sebastian/BT-20210625/1009519-light/run1009519-light.h5 tag-1492235936//
/work/sebastian/BT-20210625/1009519-light/run1009519-light.h5 tag-1492235944//
/work/sebastian/BT-20210625/1009519-light/run1009519-light.h5 tag-1492235950//
/work/sebastian/BT-20210625/1009519-light/run1009519-light.h5 tag-1492235952//
/work/sebastian/BT-20210625/1009519-light/run1009519-light.h5 tag-1492235958//
/work/sebastian/BT-20210625/1009519-light/run1009519-light.h5 tag-1492235964//
/work/sebastian/BT-20210625/1009519-light/run1009519-light.h5 tag-1492235966//
/work/sebastian/BT-20210625/1009519-light/run1009519-light.h5 tag-1492235968//
/work/sebastian/BT-20210625/1009519-light/run1009519-light.h5 tag-1492235976//
/work/sebastian/BT-20210625/1009519-light/run1009519-light.h5 tag-1492235984//
/work/sebastian/BT-20210625/1009519-light/run1009519-light.h5 tag-1492235988//
/work/sebastian/BT-20210625/1009519-light/run1009519-light.h5 tag-1492235992//
/work/sebastian/BT-20210625/1009519-light/run1009519-light.h5 tag-1492235994//
/work/sebastian/BT-20210625/1009519-light/run1009519-light.h5 tag-1492236000//
/work/sebastian/BT-20210625/1009519-light/run1009519-light.h5 tag-1492236012//
/work/sebastian/BT-20210625/1009519-light/run1009519-light.h5 tag-1492236016//
/work/sebastian/BT-20210625/1009519-light/run1009519-light.h5 tag-1492236024//
/work/sebastian/BT-20210625/1009519-light/run1009519-light.h5 tag-1492236048//
/work/sebastian/BT-20210625/1009519-light/run1009519-light.h5 tag-1492236052//
/work/sebastian/BT-20210625/1009519-light/run1009519-light.h5 tag-1492236058//
/work/sebastian/BT-20210625/1009519-light/run1009519-light.h5 tag-1492236060//
/work/sebastian/BT-20210625/1009519-light/run1009519-light.h5 tag-1492236062//
/work/sebastian/BT-20210625/1009519-light/run1009519-light.h5 tag-1492236082//
/work/sebastian/BT-20210625/1009519-light/run1009519-light.h5 tag-1492236084//
/work/sebastian/BT-20210625/1009519-light/run1009519-light.h5 tag-1492236086//
/work/sebastian/BT-20210625/1009519-light/run1009519-light.h5 tag-1492236088//
/work/sebastian/BT-20210625/1009519-light/run1009519-light.h5 tag-1492236094//
/work/sebastian/BT-20210625/1009519-light/run1009519-light.h5 tag-1492236102//
/work/sebastian/BT-20210625/1009519-light/run1009519-light.h5 tag-1492236110//
/work/sebastian/BT-20210625/1009519-light/run1009519-light.h5 tag-1492236118//
/work/sebastian/BT-20210625/1009519-light/run1009519-light.h5 tag-1492236124//
/work/sebastian/BT-20210625/1009519-light/run1009519-light.h5 tag-1492236128//
/work/sebastian/BT-20210625/1009519-light/run1009519-light.h5 tag-1492236134//
/work/sebastian/BT-20210625/1009519-light/run1009519-light.h5 tag-1492236150//
/work/sebastian/BT-20210625/1009519-light/run1009519-light.h5 tag-1492236152//
/work/sebastian/BT-20210625/1009519-light/run1009519-light.h5 tag-1492236154//
/work/sebastian/BT-20210625/1009519-light/run1009519-light.h5 tag-1492236156//
/work/sebastian/BT-20210625/1009519-light/run1009519-light.h5 tag-1492236158//
/work/sebastian/BT-20210625/1009519-light/run1009519-light.h5 tag-1492236160//
/work/sebastian/BT-20210625/1009519-light/run1009519-light.h5 tag-1492236166//
/work/sebastian/BT-20210625/1009519-light/run1009519-light.h5 tag-1492236168//
/work/sebastian/BT-20210625/1009519-light/run1009519-light.h5 tag-1492236174//
/work/sebastian/BT-20210625/1009519-light/run1009519-light.h5 tag-1492236178//
/work/sebastian/BT-20210625/1009519-light/run1009519-light.h5 tag-1492236180//
/work/sebastian/BT-20210625/1009519-light/run1009519-light.h5 tag-1492236182//
/work/sebastian/BT-20210625/1009519-light/run1009519-light.h5 tag-1492236188//
/work/sebastian/BT-20210625/1009519-light/run1009519-light.h5 tag-1492236194//
/work/sebastian/BT-20210625/1009519-light/run1009519-light.h5 tag-1492236202//
/work/sebastian/BT-20210625/1009519-light/run1009519-light.h5 tag-1492236204//
/work/sebastian/BT-20210625/1009519-light/run1009519-light.h5 tag-1492236208//
/work/sebastian/BT-20210625/1009519-light/run1009519-light.h5 tag-1492236210//
/work/sebastian/BT-20210625/1009519-light/run1009519-light.h5 tag-1492236212//
/work/sebastian/BT-20210625/1009519-light/run1009519-light.h5 tag-1492236216//
/work/sebastian/BT-20210625/1009519-light/run1009519-light.h5 tag-1492236218//
/work/sebastian/BT-20210625/1009519-light/run1009519-light.h5 tag-1492236222//
/work/sebastian/BT-20210625/1009519-light/run1009519-light.h5 tag-1492236232//
/work/sebastian/BT-20210625/1009519-light/run1009519-light.h5 tag-1492236236//
/work/sebastian/BT-20210625/1009519-light/run1009519-light.h5 tag-1492236240//
/work/sebastian/BT-20210625/1009519-light/run1009519-light.h5 tag-1492236242//
/work/sebastian/BT-20210625/1009519-light/run1009519-light.h5 tag-1492236246//
/work/sebastian/BT-20210625/1009519-light/run1009519-light.h5 tag-1492236248//
/work/sebastian/BT-20210625/1009519-light/run1009519-light.h5 tag-1492236274//
/work/sebastian/BT-20210625/1009519-light/run1009519-light.h5 tag-1492236282//
/work/sebastian/BT-20210625/1009519-light/run1009519-light.h5 tag-1492236288//
/work/sebastian/BT-20210625/1009519-light/run1009519-light.h5 tag-1492236290//
/work/sebastian/BT-20210625/1009519-light/run1009519-light.h5 tag-1492236292//
/work/sebastian/BT-20210625/1009519-light/run1009519-light.h5 tag-1492236296//
/work/sebastian/BT-20210625/1009519-light/run1009519-light.h5 tag-1492236300//
/work/sebastian/BT-20210625/1009519-light/run1009519-light.h5 tag-1492236304//
/work/sebastian/BT-20210625/1009519-light/run1009519-light.h5 tag-1492236306//
/work/sebastian/BT-20210625/1009519-light/run1009519-light.h5 tag-1492236316//
/work/sebastian/BT-20210625/1009519-light/run1009519-light.h5 tag-1492236318//
/work/sebastian/BT-20210625/1009519-light/run1009519-light.h5 tag-1492236322//
/work/sebastian/BT-20210625/1009519-light/run1009519-light.h5 tag-1492236326//
/work/sebastian/BT-20210625/1009519-light/run1009519-light.h5 tag-1492236328//
/work/sebastian/BT-20210625/1009519-light/run1009519-light.h5 tag-1492236330//
/work/sebastian/BT-20210625/1009519-light/run1009519-light.h5 tag-1492236332//
/work/sebastian/BT-20210625/1009519-light/run1009519-light.h5 tag-1492236336//
/work/sebastian/BT-20210625/1009519-light/run1009519-light.h5 tag-1492236338//
/work/sebastian/BT-20210625/1009519-light/run1009519-light.h5 tag-1492236344//
/work/sebastian/BT-20210625/1009519-light/run1009519-light.h5 tag-1492236346//
/work/sebastian/BT-20210625/1009519-light/run1009519-light.h5 tag-1492236348//
/work/sebastian/BT-20210625/1009519-light/run1009519-light.h5 tag-1492236352//
/work/sebastian/BT-20210625/1009519-light/run1009519-light.h5 tag-1492236354//
/work/sebastian/BT-20210625/1009519-light/run1009519-light.h5 tag-1492236358//
/work/sebastian/BT-20210625/1009519-light/run1009519-light.h5 tag-1492236360//
/work/sebastian/BT-20210625/1009519-light/run1009519-light.h5 tag-1492236368//
/work/sebastian/BT-20210625/1009519-light/run1009519-light.h5 tag-1492236376//
/work/sebastian/BT-20210625/1009519-light/run1009519-light.h5 tag-1492236384//
/work/sebastian/BT-20210625/1009519-light/run1009519-light.h5 tag-1492236386//
/work/sebastian/BT-20210625/1009519-light/run1009519-light.h5 tag-1492236390//
/work/sebastian/BT-20210625/1009519-light/run1009519-light.h5 tag-1492236392//
/work/sebastian/BT-20210625/1009519-light/run1009519-light.h5 tag-1492236398//
/work/sebastian/BT-20210625/1009519-light/run1009519-light.h5 tag-1492236400//
/work/sebastian/BT-20210625/1009519-light/run1009519-light.h5 tag-1492236402//
/work/sebastian/BT-20210625/1009519-light/run1009519-light.h5 tag-1492236408//
/work/sebastian/BT-20210625/1009519-light/run1009519-light.h5 tag-1492236412//
/work/sebastian/BT-20210625/1009519-light/run1009519-light.h5 tag-1492236426//
/work/sebastian/BT-20210625/1009519-light/run1009519-light.h5 tag-1492236428//
/work/sebastian/BT-20210625/1009519-light/run1009519-light.h5 tag-1492236438//
/work/sebastian/BT-20210625/1009519-light/run1009519-light.h5 tag-1492236442//
/work/sebastian/BT-20210625/1009519-light/run1009519-light.h5 tag-1492236446//
/work/sebastian/BT-20210625/1009519-light/run1009519-light.h5 tag-1492236456//
/work/sebastian/BT-20210625/1009519-light/run1009519-light.h5 tag-1492236462//
/work/sebastian/BT-20210625/1009519-light/run1009519-light.h5 tag-1492236466//
/work/sebastian/BT-20210625/1009519-light/run1009519-light.h5 tag-1492236468//
/work/sebastian/BT-20210625/1009519-light/run1009519-light.h5 tag-1492236472//
/work/sebastian/BT-20210625/1009519-light/run1009519-light.h5 tag-1492236474//
/work/sebastian/BT-20210625/1009519-light/run1009519-light.h5 tag-1492236504//
/work/sebastian/BT-20210625/1009519-light/run1009519-light.h5 tag-1492236508//
/work/sebastian/BT-20210625/1009519-light/run1009519-light.h5 tag-1492236516//
/work/sebastian/BT-20210625/1009519-light/run1009519-light.h5 tag-1492236520//
/work/sebastian/BT-20210625/1009519-light/run1009519-light.h5 tag-1492236528//
/work/sebastian/BT-20210625/1009519-light/run1009519-light.h5 tag-1492236530//
/work/sebastian/BT-20210625/1009519-light/run1009519-light.h5 tag-1492236534//
/work/sebastian/BT-20210625/1009519-light/run1009519-light.h5 tag-1492236536//
/work/sebastian/BT-20210625/1009519-light/run1009519-light.h5 tag-1492236542//
/work/sebastian/BT-20210625/1009519-light/run1009519-light.h5 tag-1492236544//
/work/sebastian/BT-20210625/1009519-light/run1009519-light.h5 tag-1492236554//
/work/sebastian/BT-20210625/1009519-light/run1009519-light.h5 tag-1492236558//
/work/sebastian/BT-20210625/1009519-light/run1009519-light.h5 tag-1492236564//
/work/sebastian/BT-20210625/1009519-light/run1009519-light.h5 tag-1492236566//
/work/sebastian/BT-20210625/1009519-light/run1009519-light.h5 tag-1492236572//
/work/sebastian/BT-20210625/1009519-light/run1009519-light.h5 tag-1492236576//
/work/sebastian/BT-20210625/1009519-light/run1009519-light.h5 tag-1492236580//
/work/sebastian/BT-20210625/1009519-light/run1009519-light.h5 tag-1492236588//
/work/sebastian/BT-20210625/1009519-light/run1009519-light.h5 tag-1492236592//
/work/sebastian/BT-20210625/1009519-light/run1009519-light.h5 tag-1492236596//
/work/sebastian/BT-20210625/1009519-light/run1009519-light.h5 tag-1492236600//
/work/sebastian/BT-20210625/1009519-light/run1009519-light.h5 tag-1492236602//
/work/sebastian/BT-20210625/1009519-light/run1009519-light.h5 tag-1492236606//
/work/sebastian/BT-20210625/1009519-light/run1009519-light.h5 tag-1492236614//
/work/sebastian/BT-20210625/1009519-light/run1009519-light.h5 tag-1492236618//
/work/sebastian/BT-20210625/1009519-light/run1009519-light.h5 tag-1492236620//
/work/sebastian/BT-20210625/1009519-light/run1009519-light.h5 tag-1492236626//
/work/sebastian/BT-20210625/1009519-light/run1009519-light.h5 tag-1492236632//
/work/sebastian/BT-20210625/1009519-light/run1009519-light.h5 tag-1492236634//
/work/sebastian/BT-20210625/1009519-light/run1009519-light.h5 tag-1492236642//
/work/sebastian/BT-20210625/1009519-light/run1009519-light.h5 tag-1492236648//
/work/sebastian/BT-20210625/1009519-light/run1009519-light.h5 tag-1492236650//
/work/sebastian/BT-20210625/1009519-light/run1009519-light.h5 tag-1492236652//
/work/sebastian/BT-20210625/1009519-light/run1009519-light.h5 tag-1492236656//
/work/sebastian/BT-20210625/1009519-light/run1009519-light.h5 tag-1492236658//
/work/sebastian/BT-20210625/1009519-light/run1009519-light.h5 tag-1492236662//
/work/sebastian/BT-20210625/1009519-light/run1009519-light.h5 tag-1492236666//
/work/sebastian/BT-20210625/1009519-light/run1009519-light.h5 tag-1492236672//
/work/sebastian/BT-20210625/1009519-light/run1009519-light.h5 tag-1492236674//
/work/sebastian/BT-20210625/1009519-light/run1009519-light.h5 tag-1492236684//
/work/sebastian/BT-20210625/1009519-light/run1009519-light.h5 tag-1492236688//
/work/sebastian/BT-20210625/1009519-light/run1009519-light.h5 tag-1492236692//
/work/sebastian/BT-20210625/1009519-light/run1009519-light.h5 tag-1492236696//
/work/sebastian/BT-20210625/1009519-light/run1009519-light.h5 tag-1492236700//
/work/sebastian/BT-20210625/1009519-light/run1009519-light.h5 tag-1492236702//
/work/sebastian/BT-20210625/1009519-light/run1009519-light.h5 tag-1492236706//
/work/sebastian/BT-20210625/1009519-light/run1009519-light.h5 tag-1492236710//
/work/sebastian/BT-20210625/1009519-light/run1009519-light.h5 tag-1492236714//
/work/sebastian/BT-20210625/1009519-light/run1009519-light.h5 tag-1492236718//
/work/sebastian/BT-20210625/1009519-light/run1009519-light.h5 tag-1492236722//
/work/sebastian/BT-20210625/1009519-light/run1009519-light.h5 tag-1492236732//
/work/sebastian/BT-20210625/1009519-light/run1009519-light.h5 tag-1492236736//
/work/sebastian/BT-20210625/1009519-light/run1009519-light.h5 tag-1492236738//
/work/sebastian/BT-20210625/1009519-light/run1009519-light.h5 tag-1492236740//
/work/sebastian/BT-20210625/1009519-light/run1009519-light.h5 tag-1492236744//
/work/sebastian/BT-20210625/1009519-light/run1009519-light.h5 tag-1492236752//
/work/sebastian/BT-20210625/1009519-light/run1009519-light.h5 tag-1492236754//
/work/sebastian/BT-20210625/1009519-light/run1009519-light.h5 tag-1492236756//
/work/sebastian/BT-20210625/1009519-light/run1009519-light.h5 tag-1492236758//
/work/sebastian/BT-20210625/1009519-light/run1009519-light.h5 tag-1492236760//
/work/sebastian/BT-20210625/1009519-light/run1009519-light.h5 tag-1492236764//
/work/sebastian/BT-20210625/1009519-light/run1009519-light.h5 tag-1492236770//
/work/sebastian/BT-20210625/1009519-light/run1009519-light.h5 tag-1492236772//
/work/sebastian/BT-20210625/1009519-light/run1009519-light.h5 tag-1492236774//
/work/sebastian/BT-20210625/1009519-light/run1009519-light.h5 tag-1492236776//
/work/sebastian/BT-20210625/1009519-light/run1009519-light.h5 tag-1492236786//
/work/sebastian/BT-20210625/1009519-light/run1009519-light.h5 tag-1492236788//
/work/sebastian/BT-20210625/1009519-light/run1009519-light.h5 tag-1492236790//
/work/sebastian/BT-20210625/1009519-light/run1009519-light.h5 tag-1492236798//
/work/sebastian/BT-20210625/1009519-light/run1009519-light.h5 tag-1492236804//
/work/sebastian/BT-20210625/1009519-light/run1009519-light.h5 tag-1492236806//
/work/sebastian/BT-20210625/1009519-light/run1009519-light.h5 tag-1492236810//
/work/sebastian/BT-20210625/1009519-light/run1009519-light.h5 tag-1492236816//
/work/sebastian/BT-20210625/1009519-light/run1009519-light.h5 tag-1492236826//
/work/sebastian/BT-20210625/1009519-light/run1009519-light.h5 tag-1492236828//
/work/sebastian/BT-20210625/1009519-light/run1009519-light.h5 tag-1492236834//
/work/sebastian/BT-20210625/1009519-light/run1009519-light.h5 tag-1492236838//
/work/sebastian/BT-20210625/1009519-light/run1009519-light.h5 tag-1492236842//
/work/sebastian/BT-20210625/1009519-light/run1009519-light.h5 tag-1492236844//
/work/sebastian/BT-20210625/1009519-light/run1009519-light.h5 tag-1492236848//
/work/sebastian/BT-20210625/1009519-light/run1009519-light.h5 tag-1492236856//
/work/sebastian/BT-20210625/1009519-light/run1009519-light.h5 tag-1492236862//
/work/sebastian/BT-20210625/1009519-light/run1009519-light.h5 tag-1492236866//
/work/sebastian/BT-20210625/1009519-light/run1009519-light.h5 tag-1492236868//
/work/sebastian/BT-20210625/1009519-light/run1009519-light.h5 tag-1492236872//
/work/sebastian/BT-20210625/1009519-light/run1009519-light.h5 tag-1492236876//
/work/sebastian/BT-20210625/1009519-light/run1009519-light.h5 tag-1492236878//
/work/sebastian/BT-20210625/1009519-light/run1009519-light.h5 tag-1492236882//
/work/sebastian/BT-20210625/1009519-light/run1009519-light.h5 tag-1492236886//
/work/sebastian/BT-20210625/1009519-light/run1009519-light.h5 tag-1492236890//
/work/sebastian/BT-20210625/1009519-light/run1009519-light.h5 tag-1492236896//
/work/sebastian/BT-20210625/1009519-light/run1009519-light.h5 tag-1492236898//
/work/sebastian/BT-20210625/1009519-light/run1009519-light.h5 tag-1492236900//
/work/sebastian/BT-20210625/1009519-light/run1009519-light.h5 tag-1492236904//
/work/sebastian/BT-20210625/1009519-light/run1009519-light.h5 tag-1492236906//
/work/sebastian/BT-20210625/1009519-light/run1009519-light.h5 tag-1492236912//
/work/sebastian/BT-20210625/1009519-light/run1009519-light.h5 tag-1492236918//
/work/sebastian/BT-20210625/1009519-light/run1009519-light.h5 tag-1492236924//
/work/sebastian/BT-20210625/1009519-light/run1009519-light.h5 tag-1492236926//
/work/sebastian/BT-20210625/1009519-light/run1009519-light.h5 tag-1492236928//
/work/sebastian/BT-20210625/1009519-light/run1009519-light.h5 tag-1492236934//
/work/sebastian/BT-20210625/1009519-light/run1009519-light.h5 tag-1492236944//
/work/sebastian/BT-20210625/1009519-light/run1009519-light.h5 tag-1492236946//
/work/sebastian/BT-20210625/1009519-light/run1009519-light.h5 tag-1492236952//
/work/sebastian/BT-20210625/1009519-light/run1009519-light.h5 tag-1492236956//
/work/sebastian/BT-20210625/1009519-light/run1009519-light.h5 tag-1492236958//
/work/sebastian/BT-20210625/1009519-light/run1009519-light.h5 tag-1492236960//
/work/sebastian/BT-20210625/1009519-light/run1009519-light.h5 tag-1492236964//
/work/sebastian/BT-20210625/1009519-light/run1009519-light.h5 tag-1492236974//
/work/sebastian/BT-20210625/1009519-light/run1009519-light.h5 tag-1492236982//
/work/sebastian/BT-20210625/1009519-light/run1009519-light.h5 tag-1492236986//
/work/sebastian/BT-20210625/1009519-light/run1009519-light.h5 tag-1492237000//
/work/sebastian/BT-20210625/1009519-light/run1009519-light.h5 tag-1492237002//
/work/sebastian/BT-20210625/1009519-light/run1009519-light.h5 tag-1492237010//
/work/sebastian/BT-20210625/1009519-light/run1009519-light.h5 tag-1492237012//
/work/sebastian/BT-20210625/1009519-light/run1009519-light.h5 tag-1492237026//
/work/sebastian/BT-20210625/1009519-light/run1009519-light.h5 tag-1492237028//
/work/sebastian/BT-20210625/1009519-light/run1009519-light.h5 tag-1492237030//
/work/sebastian/BT-20210625/1009519-light/run1009519-light.h5 tag-1492237038//
/work/sebastian/BT-20210625/1009519-light/run1009519-light.h5 tag-1492237040//
/work/sebastian/BT-20210625/1009519-light/run1009519-light.h5 tag-1492237044//
/work/sebastian/BT-20210625/1009519-light/run1009519-light.h5 tag-1492237046//
/work/sebastian/BT-20210625/1009519-light/run1009519-light.h5 tag-1492237056//
/work/sebastian/BT-20210625/1009519-light/run1009519-light.h5 tag-1492237058//
/work/sebastian/BT-20210625/1009519-light/run1009519-light.h5 tag-1492237062//
/work/sebastian/BT-20210625/1009519-light/run1009519-light.h5 tag-1492237066//
/work/sebastian/BT-20210625/1009519-light/run1009519-light.h5 tag-1492237070//
/work/sebastian/BT-20210625/1009519-light/run1009519-light.h5 tag-1492237072//
/work/sebastian/BT-20210625/1009519-light/run1009519-light.h5 tag-1492237074//
/work/sebastian/BT-20210625/1009519-light/run1009519-light.h5 tag-1492237082//
/work/sebastian/BT-20210625/1009519-light/run1009519-light.h5 tag-1492237084//
/work/sebastian/BT-20210625/1009519-light/run1009519-light.h5 tag-1492237092//
/work/sebastian/BT-20210625/1009519-light/run1009519-light.h5 tag-1492237094//
/work/sebastian/BT-20210625/1009519-light/run1009519-light.h5 tag-1492237102//
/work/sebastian/BT-20210625/1009519-light/run1009519-light.h5 tag-1492237104//
/work/sebastian/BT-20210625/1009519-light/run1009519-light.h5 tag-1492237108//
/work/sebastian/BT-20210625/1009519-light/run1009519-light.h5 tag-1492237116//
/work/sebastian/BT-20210625/1009519-light/run1009519-light.h5 tag-1492237140//
/work/sebastian/BT-20210625/1009519-light/run1009519-light.h5 tag-1492237144//
/work/sebastian/BT-20210625/1009519-light/run1009519-light.h5 tag-1492237148//
/work/sebastian/BT-20210625/1009519-light/run1009519-light.h5 tag-1492237150//
/work/sebastian/BT-20210625/1009519-light/run1009519-light.h5 tag-1492237152//
/work/sebastian/BT-20210625/1009519-light/run1009519-light.h5 tag-1492237156//
/work/sebastian/BT-20210625/1009519-light/run1009519-light.h5 tag-1492237160//
/work/sebastian/BT-20210625/1009519-light/run1009519-light.h5 tag-1492237166//
/work/sebastian/BT-20210625/1009519-light/run1009519-light.h5 tag-1492237168//
/work/sebastian/BT-20210625/1009519-light/run1009519-light.h5 tag-1492237176//
/work/sebastian/BT-20210625/1009519-light/run1009519-light.h5 tag-1492237178//
/work/sebastian/BT-20210625/1009519-light/run1009519-light.h5 tag-1492237196//
/work/sebastian/BT-20210625/1009519-light/run1009519-light.h5 tag-1492237200//
/work/sebastian/BT-20210625/1009519-light/run1009519-light.h5 tag-1492237210//
/work/sebastian/BT-20210625/1009519-light/run1009519-light.h5 tag-1492237212//
/work/sebastian/BT-20210625/1009519-light/run1009519-light.h5 tag-1492237220//
/work/sebastian/BT-20210625/1009519-light/run1009519-light.h5 tag-1492237222//
/work/sebastian/BT-20210625/1009519-light/run1009519-light.h5 tag-1492237234//
/work/sebastian/BT-20210625/1009519-light/run1009519-light.h5 tag-1492237254//
/work/sebastian/BT-20210625/1009519-light/run1009519-light.h5 tag-1492237260//
/work/sebastian/BT-20210625/1009519-light/run1009519-light.h5 tag-1492237262//
/work/sebastian/BT-20210625/1009519-light/run1009519-light.h5 tag-1492237264//
/work/sebastian/BT-20210625/1009519-light/run1009519-light.h5 tag-1492237270//
/work/sebastian/BT-20210625/1009519-light/run1009519-light.h5 tag-1492237278//
/work/sebastian/BT-20210625/1009519-light/run1009519-light.h5 tag-1492237282//
/work/sebastian/BT-20210625/1009519-light/run1009519-light.h5 tag-1492237284//
/work/sebastian/BT-20210625/1009519-light/run1009519-light.h5 tag-1492237288//
/work/sebastian/BT-20210625/1009519-light/run1009519-light.h5 tag-1492237292//
/work/sebastian/BT-20210625/1009519-light/run1009519-light.h5 tag-1492237296//
/work/sebastian/BT-20210625/1009519-light/run1009519-light.h5 tag-1492237298//
/work/sebastian/BT-20210625/1009519-light/run1009519-light.h5 tag-1492237302//
/work/sebastian/BT-20210625/1009519-light/run1009519-light.h5 tag-1492237310//
/work/sebastian/BT-20210625/1009519-light/run1009519-light.h5 tag-1492237312//
/work/sebastian/BT-20210625/1009519-light/run1009519-light.h5 tag-1492237334//
/work/sebastian/BT-20210625/1009519-light/run1009519-light.h5 tag-1492237338//
/work/sebastian/BT-20210625/1009519-light/run1009519-light.h5 tag-1492237340//
/work/sebastian/BT-20210625/1009519-light/run1009519-light.h5 tag-1492237342//
/work/sebastian/BT-20210625/1009519-light/run1009519-light.h5 tag-1492237348//
/work/sebastian/BT-20210625/1009519-light/run1009519-light.h5 tag-1492237350//
/work/sebastian/BT-20210625/1009519-light/run1009519-light.h5 tag-1492237354//
/work/sebastian/BT-20210625/1009519-light/run1009519-light.h5 tag-1492237358//
/work/sebastian/BT-20210625/1009519-light/run1009519-light.h5 tag-1492237364//
/work/sebastian/BT-20210625/1009519-light/run1009519-light.h5 tag-1492237372//
/work/sebastian/BT-20210625/1009519-light/run1009519-light.h5 tag-1492237382//
/work/sebastian/BT-20210625/1009519-light/run1009519-light.h5 tag-1492237384//
/work/sebastian/BT-20210625/1009519-light/run1009519-light.h5 tag-1492237416//
/work/sebastian/BT-20210625/1009519-light/run1009519-light.h5 tag-1492237420//
/work/sebastian/BT-20210625/1009519-light/run1009519-light.h5 tag-1492237424//
/work/sebastian/BT-20210625/1009519-light/run1009519-light.h5 tag-1492237428//
/work/sebastian/BT-20210625/1009519-light/run1009519-light.h5 tag-1492237430//
/work/sebastian/BT-20210625/1009519-light/run1009519-light.h5 tag-1492237436//
/work/sebastian/BT-20210625/1009519-light/run1009519-light.h5 tag-1492237438//
/work/sebastian/BT-20210625/1009519-light/run1009519-light.h5 tag-1492237446//
/work/sebastian/BT-20210625/1009519-light/run1009519-light.h5 tag-1492237448//
/work/sebastian/BT-20210625/1009519-light/run1009519-light.h5 tag-1492237450//
/work/sebastian/BT-20210625/1009519-light/run1009519-light.h5 tag-1492237454//
/work/sebastian/BT-20210625/1009519-light/run1009519-light.h5 tag-1492237456//
/work/sebastian/BT-20210625/1009519-light/run1009519-light.h5 tag-1492237466//
/work/sebastian/BT-20210625/1009519-light/run1009519-light.h5 tag-1492237468//
/work/sebastian/BT-20210625/1009519-light/run1009519-light.h5 tag-1492237474//
/work/sebastian/BT-20210625/1009519-light/run1009519-light.h5 tag-1492237480//
/work/sebastian/BT-20210625/1009519-light/run1009519-light.h5 tag-1492237490//
/work/sebastian/BT-20210625/1009519-light/run1009519-light.h5 tag-1492237492//
/work/sebastian/BT-20210625/1009519-light/run1009519-light.h5 tag-1492237500//
/work/sebastian/BT-20210625/1009519-light/run1009519-light.h5 tag-1492237502//
/work/sebastian/BT-20210625/1009519-light/run1009519-light.h5 tag-1492237512//
/work/sebastian/BT-20210625/1009519-light/run1009519-light.h5 tag-1492237514//
/work/sebastian/BT-20210625/1009519-light/run1009519-light.h5 tag-1492237516//
/work/sebastian/BT-20210625/1009519-light/run1009519-light.h5 tag-1492237520//
/work/sebastian/BT-20210625/1009519-light/run1009519-light.h5 tag-1492237524//
/work/sebastian/BT-20210625/1009519-light/run1009519-light.h5 tag-1492237530//
/work/sebastian/BT-20210625/1009519-light/run1009519-light.h5 tag-1492237550//
/work/sebastian/BT-20210625/1009519-light/run1009519-light.h5 tag-1492237556//
/work/sebastian/BT-20210625/1009519-light/run1009519-light.h5 tag-1492237558//
/work/sebastian/BT-20210625/1009519-light/run1009519-light.h5 tag-1492237566//
/work/sebastian/BT-20210625/1009519-light/run1009519-light.h5 tag-1492237568//
/work/sebastian/BT-20210625/1009519-light/run1009519-light.h5 tag-1492237570//
/work/sebastian/BT-20210625/1009519-light/run1009519-light.h5 tag-1492237576//
/work/sebastian/BT-20210625/1009519-light/run1009519-light.h5 tag-1492237582//
/work/sebastian/BT-20210625/1009519-light/run1009519-light.h5 tag-1492237584//
/work/sebastian/BT-20210625/1009519-light/run1009519-light.h5 tag-1492237586//
/work/sebastian/BT-20210625/1009519-light/run1009519-light.h5 tag-1492237590//
/work/sebastian/BT-20210625/1009519-light/run1009519-light.h5 tag-1492237592//
/work/sebastian/BT-20210625/1009519-light/run1009519-light.h5 tag-1492237598//
/work/sebastian/BT-20210625/1009519-light/run1009519-light.h5 tag-1492237606//
/work/sebastian/BT-20210625/1009519-light/run1009519-light.h5 tag-1492237616//
/work/sebastian/BT-20210625/1009519-light/run1009519-light.h5 tag-1492237626//
/work/sebastian/BT-20210625/1009519-light/run1009519-light.h5 tag-1492237628//
/work/sebastian/BT-20210625/1009519-light/run1009519-light.h5 tag-1492237630//
/work/sebastian/BT-20210625/1009519-light/run1009519-light.h5 tag-1492237636//
/work/sebastian/BT-20210625/1009519-light/run1009519-light.h5 tag-1492237640//
/work/sebastian/BT-20210625/1009519-light/run1009519-light.h5 tag-1492237642//
/work/sebastian/BT-20210625/1009519-light/run1009519-light.h5 tag-1492237644//
/work/sebastian/BT-20210625/1009519-light/run1009519-light.h5 tag-1492237648//
/work/sebastian/BT-20210625/1009519-light/run1009519-light.h5 tag-1492237650//
/work/sebastian/BT-20210625/1009519-light/run1009519-light.h5 tag-1492237656//
/work/sebastian/BT-20210625/1009519-light/run1009519-light.h5 tag-1492237658//
/work/sebastian/BT-20210625/1009519-light/run1009519-light.h5 tag-1492237664//
/work/sebastian/BT-20210625/1009519-light/run1009519-light.h5 tag-1492237670//
/work/sebastian/BT-20210625/1009519-light/run1009519-light.h5 tag-1492237674//
/work/sebastian/BT-20210625/1009519-light/run1009519-light.h5 tag-1492237686//
/work/sebastian/BT-20210625/1009519-light/run1009519-light.h5 tag-1492237688//
/work/sebastian/BT-20210625/1009519-light/run1009519-light.h5 tag-1492237690//
/work/sebastian/BT-20210625/1009519-light/run1009519-light.h5 tag-1492237696//
/work/sebastian/BT-20210625/1009519-light/run1009519-light.h5 tag-1492237698//
/work/sebastian/BT-20210625/1009519-light/run1009519-light.h5 tag-1492237700//
/work/sebastian/BT-20210625/1009519-light/run1009519-light.h5 tag-1492237704//
/work/sebastian/BT-20210625/1009519-light/run1009519-light.h5 tag-1492237710//
/work/sebastian/BT-20210625/1009519-light/run1009519-light.h5 tag-1492237714//
/work/sebastian/BT-20210625/1009519-light/run1009519-light.h5 tag-1492237726//
/work/sebastian/BT-20210625/1009519-light/run1009519-light.h5 tag-1492237730//
/work/sebastian/BT-20210625/1009519-light/run1009519-light.h5 tag-1492237734//
/work/sebastian/BT-20210625/1009519-light/run1009519-light.h5 tag-1492237746//
/work/sebastian/BT-20210625/1009519-light/run1009519-light.h5 tag-1492237754//
/work/sebastian/BT-20210625/1009519-light/run1009519-light.h5 tag-1492237764//
/work/sebastian/BT-20210625/1009519-light/run1009519-light.h5 tag-1492237766//
/work/sebastian/BT-20210625/1009519-light/run1009519-light.h5 tag-1492237772//
/work/sebastian/BT-20210625/1009519-light/run1009519-light.h5 tag-1492237774//
/work/sebastian/BT-20210625/1009519-light/run1009519-light.h5 tag-1492237778//
/work/sebastian/BT-20210625/1009519-light/run1009519-light.h5 tag-1492237780//
/work/sebastian/BT-20210625/1009519-light/run1009519-light.h5 tag-1492237784//
/work/sebastian/BT-20210625/1009519-light/run1009519-light.h5 tag-1492237788//
/work/sebastian/BT-20210625/1009519-light/run1009519-light.h5 tag-1492237806//
/work/sebastian/BT-20210625/1009519-light/run1009519-light.h5 tag-1492237820//
/work/sebastian/BT-20210625/1009519-light/run1009519-light.h5 tag-1492237822//
/work/sebastian/BT-20210625/1009519-light/run1009519-light.h5 tag-1492237830//
/work/sebastian/BT-20210625/1009519-light/run1009519-light.h5 tag-1492237838//
/work/sebastian/BT-20210625/1009519-light/run1009519-light.h5 tag-1492237844//
/work/sebastian/BT-20210625/1009519-light/run1009519-light.h5 tag-1492237848//
/work/sebastian/BT-20210625/1009519-light/run1009519-light.h5 tag-1492237850//
/work/sebastian/BT-20210625/1009519-light/run1009519-light.h5 tag-1492237854//
/work/sebastian/BT-20210625/1009519-light/run1009519-light.h5 tag-1492237858//
/work/sebastian/BT-20210625/1009519-light/run1009519-light.h5 tag-1492237866//
/work/sebastian/BT-20210625/1009519-light/run1009519-light.h5 tag-1492237872//
/work/sebastian/BT-20210625/1009519-light/run1009519-light.h5 tag-1492237878//
/work/sebastian/BT-20210625/1009519-light/run1009519-light.h5 tag-1492237888//
/work/sebastian/BT-20210625/1009519-light/run1009519-light.h5 tag-1492237896//
/work/sebastian/BT-20210625/1009519-light/run1009519-light.h5 tag-1492237898//
/work/sebastian/BT-20210625/1009519-light/run1009519-light.h5 tag-1492237900//
/work/sebastian/BT-20210625/1009519-light/run1009519-light.h5 tag-1492237904//
/work/sebastian/BT-20210625/1009519-light/run1009519-light.h5 tag-1492237906//
/work/sebastian/BT-20210625/1009519-light/run1009519-light.h5 tag-1492237910//
/work/sebastian/BT-20210625/1009519-light/run1009519-light.h5 tag-1492237916//
/work/sebastian/BT-20210625/1009519-light/run1009519-light.h5 tag-1492237918//
/work/sebastian/BT-20210625/1009519-light/run1009519-light.h5 tag-1492237920//
/work/sebastian/BT-20210625/1009519-light/run1009519-light.h5 tag-1492237934//
/work/sebastian/BT-20210625/1009519-light/run1009519-light.h5 tag-1492237940//
/work/sebastian/BT-20210625/1009519-light/run1009519-light.h5 tag-1492237946//
/work/sebastian/BT-20210625/1009519-light/run1009519-light.h5 tag-1492237956//
/work/sebastian/BT-20210625/1009519-light/run1009519-light.h5 tag-1492237964//
/work/sebastian/BT-20210625/1009519-light/run1009519-light.h5 tag-1492237976//
/work/sebastian/BT-20210625/1009519-light/run1009519-light.h5 tag-1492237978//
/work/sebastian/BT-20210625/1009519-light/run1009519-light.h5 tag-1492237992//
/work/sebastian/BT-20210625/1009519-light/run1009519-light.h5 tag-1492238000//
/work/sebastian/BT-20210625/1009519-light/run1009519-light.h5 tag-1492238006//
/work/sebastian/BT-20210625/1009519-light/run1009519-light.h5 tag-1492238008//
/work/sebastian/BT-20210625/1009519-light/run1009519-light.h5 tag-1492238010//
/work/sebastian/BT-20210625/1009519-light/run1009519-light.h5 tag-1492238012//
/work/sebastian/BT-20210625/1009519-light/run1009519-light.h5 tag-1492238014//
/work/sebastian/BT-20210625/1009519-light/run1009519-light.h5 tag-1492238016//
/work/sebastian/BT-20210625/1009519-light/run1009519-light.h5 tag-1492238020//
/work/sebastian/BT-20210625/1009519-light/run1009519-light.h5 tag-1492238024//
/work/sebastian/BT-20210625/1009519-light/run1009519-light.h5 tag-1492238038//
/work/sebastian/BT-20210625/1009519-light/run1009519-light.h5 tag-1492238040//
/work/sebastian/BT-20210625/1009519-light/run1009519-light.h5 tag-1492238042//
/work/sebastian/BT-20210625/1009519-light/run1009519-light.h5 tag-1492238046//
/work/sebastian/BT-20210625/1009519-light/run1009519-light.h5 tag-1492238054//
/work/sebastian/BT-20210625/1009519-light/run1009519-light.h5 tag-1492238066//
/work/sebastian/BT-20210625/1009519-light/run1009519-light.h5 tag-1492238078//
/work/sebastian/BT-20210625/1009519-light/run1009519-light.h5 tag-1492238080//
/work/sebastian/BT-20210625/1009519-light/run1009519-light.h5 tag-1492238084//
/work/sebastian/BT-20210625/1009519-light/run1009519-light.h5 tag-1492238096//
/work/sebastian/BT-20210625/1009519-light/run1009519-light.h5 tag-1492238098//
/work/sebastian/BT-20210625/1009519-light/run1009519-light.h5 tag-1492238100//
/work/sebastian/BT-20210625/1009519-light/run1009519-light.h5 tag-1492238110//
/work/sebastian/BT-20210625/1009519-light/run1009519-light.h5 tag-1492238116//
/work/sebastian/BT-20210625/1009519-light/run1009519-light.h5 tag-1492238120//
/work/sebastian/BT-20210625/1009519-light/run1009519-light.h5 tag-1492238122//
/work/sebastian/BT-20210625/1009519-light/run1009519-light.h5 tag-1492238126//
/work/sebastian/BT-20210625/1009519-light/run1009519-light.h5 tag-1492238128//
/work/sebastian/BT-20210625/1009519-light/run1009519-light.h5 tag-1492238130//
/work/sebastian/BT-20210625/1009519-light/run1009519-light.h5 tag-1492238134//
/work/sebastian/BT-20210625/1009519-light/run1009519-light.h5 tag-1492238136//
/work/sebastian/BT-20210625/1009519-light/run1009519-light.h5 tag-1492238146//
/work/sebastian/BT-20210625/1009519-light/run1009519-light.h5 tag-1492238148//
/work/sebastian/BT-20210625/1009519-light/run1009519-light.h5 tag-1492238150//
/work/sebastian/BT-20210625/1009519-light/run1009519-light.h5 tag-1492238158//
/work/sebastian/BT-20210625/1009519-light/run1009519-light.h5 tag-1492238164//
/work/sebastian/BT-20210625/1009519-light/run1009519-light.h5 tag-1492238166//
/work/sebastian/BT-20210625/1009519-light/run1009519-light.h5 tag-1492238174//
/work/sebastian/BT-20210625/1009519-light/run1009519-light.h5 tag-1492238180//
/work/sebastian/BT-20210625/1009519-light/run1009519-light.h5 tag-1492238188//
/work/sebastian/BT-20210625/1009519-light/run1009519-light.h5 tag-1492238196//
/work/sebastian/BT-20210625/1009519-light/run1009519-light.h5 tag-1492238198//
/work/sebastian/BT-20210625/1009519-light/run1009519-light.h5 tag-1492238210//
/work/sebastian/BT-20210625/1009519-light/run1009519-light.h5 tag-1492238216//
/work/sebastian/BT-20210625/1009519-light/run1009519-light.h5 tag-1492238222//
/work/sebastian/BT-20210625/1009519-light/run1009519-light.h5 tag-1492238228//
/work/sebastian/BT-20210625/1009519-light/run1009519-light.h5 tag-1492238234//
/work/sebastian/BT-20210625/1009519-light/run1009519-light.h5 tag-1492238244//
/work/sebastian/BT-20210625/1009519-light/run1009519-light.h5 tag-1492238246//
/work/sebastian/BT-20210625/1009519-light/run1009519-light.h5 tag-1492238266//
/work/sebastian/BT-20210625/1009519-light/run1009519-light.h5 tag-1492238272//
/work/sebastian/BT-20210625/1009519-light/run1009519-light.h5 tag-1492238274//
/work/sebastian/BT-20210625/1009519-light/run1009519-light.h5 tag-1492238276//
/work/sebastian/BT-20210625/1009519-light/run1009519-light.h5 tag-1492238278//
/work/sebastian/BT-20210625/1009519-light/run1009519-light.h5 tag-1492238280//
/work/sebastian/BT-20210625/1009519-light/run1009519-light.h5 tag-1492238284//
/work/sebastian/BT-20210625/1009519-light/run1009519-light.h5 tag-1492238286//
/work/sebastian/BT-20210625/1009519-light/run1009519-light.h5 tag-1492238290//
/work/sebastian/BT-20210625/1009519-light/run1009519-light.h5 tag-1492238292//
/work/sebastian/BT-20210625/1009519-light/run1009519-light.h5 tag-1492238294//
/work/sebastian/BT-20210625/1009519-light/run1009519-light.h5 tag-1492238300//
/work/sebastian/BT-20210625/1009519-light/run1009519-light.h5 tag-1492238310//
/work/sebastian/BT-20210625/1009519-light/run1009519-light.h5 tag-1492238312//
/work/sebastian/BT-20210625/1009519-light/run1009519-light.h5 tag-1492238314//
/work/sebastian/BT-20210625/1009519-light/run1009519-light.h5 tag-1492238316//
/work/sebastian/BT-20210625/1009519-light/run1009519-light.h5 tag-1492238322//
/work/sebastian/BT-20210625/1009519-light/run1009519-light.h5 tag-1492238330//
/work/sebastian/BT-20210625/1009519-light/run1009519-light.h5 tag-1492238332//
/work/sebastian/BT-20210625/1009519-light/run1009519-light.h5 tag-1492238334//
/work/sebastian/BT-20210625/1009519-light/run1009519-light.h5 tag-1492238336//
/work/sebastian/BT-20210625/1009519-light/run1009519-light.h5 tag-1492238338//
/work/sebastian/BT-20210625/1009519-light/run1009519-light.h5 tag-1492238340//
/work/sebastian/BT-20210625/1009519-light/run1009519-light.h5 tag-1492238346//
/work/sebastian/BT-20210625/1009519-light/run1009519-light.h5 tag-1492238350//
/work/sebastian/BT-20210625/1009519-light/run1009519-light.h5 tag-1492238356//
/work/sebastian/BT-20210625/1009519-light/run1009519-light.h5 tag-1492238360//
/work/sebastian/BT-20210625/1009519-light/run1009519-light.h5 tag-1492238366//
/work/sebastian/BT-20210625/1009519-light/run1009519-light.h5 tag-1492238368//
/work/sebastian/BT-20210625/1009519-light/run1009519-light.h5 tag-1492238374//
/work/sebastian/BT-20210625/1009519-light/run1009519-light.h5 tag-1492238376//
/work/sebastian/BT-20210625/1009519-light/run1009519-light.h5 tag-1492238380//
/work/sebastian/BT-20210625/1009519-light/run1009519-light.h5 tag-1492238394//
/work/sebastian/BT-20210625/1009519-light/run1009519-light.h5 tag-1492238398//
/work/sebastian/BT-20210625/1009519-light/run1009519-light.h5 tag-1492238404//
/work/sebastian/BT-20210625/1009519-light/run1009519-light.h5 tag-1492238406//
/work/sebastian/BT-20210625/1009519-light/run1009519-light.h5 tag-1492238410//
/work/sebastian/BT-20210625/1009519-light/run1009519-light.h5 tag-1492238416//
/work/sebastian/BT-20210625/1009519-light/run1009519-light.h5 tag-1492238418//
/work/sebastian/BT-20210625/1009519-light/run1009519-light.h5 tag-1492238420//
/work/sebastian/BT-20210625/1009519-light/run1009519-light.h5 tag-1492238424//
/work/sebastian/BT-20210625/1009519-light/run1009519-light.h5 tag-1492238426//
/work/sebastian/BT-20210625/1009519-light/run1009519-light.h5 tag-1492238430//
/work/sebastian/BT-20210625/1009519-light/run1009519-light.h5 tag-1492238432//
/work/sebastian/BT-20210625/1009519-light/run1009519-light.h5 tag-1492238436//
/work/sebastian/BT-20210625/1009519-light/run1009519-light.h5 tag-1492238442//
/work/sebastian/BT-20210625/1009519-light/run1009519-light.h5 tag-1492238448//
/work/sebastian/BT-20210625/1009519-light/run1009519-light.h5 tag-1492238450//
/work/sebastian/BT-20210625/1009519-light/run1009519-light.h5 tag-1492238452//
/work/sebastian/BT-20210625/1009519-light/run1009519-light.h5 tag-1492238454//
/work/sebastian/BT-20210625/1009519-light/run1009519-light.h5 tag-1492238460//
/work/sebastian/BT-20210625/1009519-light/run1009519-light.h5 tag-1492238462//
/work/sebastian/BT-20210625/1009519-light/run1009519-light.h5 tag-1492238472//
/work/sebastian/BT-20210625/1009519-light/run1009519-light.h5 tag-1492238474//
/work/sebastian/BT-20210625/1009519-light/run1009519-light.h5 tag-1492238476//
/work/sebastian/BT-20210625/1009519-light/run1009519-light.h5 tag-1492238484//
/work/sebastian/BT-20210625/1009519-light/run1009519-light.h5 tag-1492238488//
/work/sebastian/BT-20210625/1009519-light/run1009519-light.h5 tag-1492238494//
/work/sebastian/BT-20210625/1009519-light/run1009519-light.h5 tag-1492238498//
/work/sebastian/BT-20210625/1009519-light/run1009519-light.h5 tag-1492238502//
/work/sebastian/BT-20210625/1009519-light/run1009519-light.h5 tag-1492238504//
/work/sebastian/BT-20210625/1009519-light/run1009519-light.h5 tag-1492238508//
/work/sebastian/BT-20210625/1009519-light/run1009519-light.h5 tag-1492238514//
/work/sebastian/BT-20210625/1009519-light/run1009519-light.h5 tag-1492238516//
/work/sebastian/BT-20210625/1009519-light/run1009519-light.h5 tag-1492238518//
/work/sebastian/BT-20210625/1009519-light/run1009519-light.h5 tag-1492238524//
/work/sebastian/BT-20210625/1009519-light/run1009519-light.h5 tag-1492238526//
/work/sebastian/BT-20210625/1009519-light/run1009519-light.h5 tag-1492238532//
/work/sebastian/BT-20210625/1009519-light/run1009519-light.h5 tag-1492238536//
/work/sebastian/BT-20210625/1009519-light/run1009519-light.h5 tag-1492238544//
/work/sebastian/BT-20210625/1009519-light/run1009519-light.h5 tag-1492238548//
/work/sebastian/BT-20210625/1009519-light/run1009519-light.h5 tag-1492238550//
/work/sebastian/BT-20210625/1009519-light/run1009519-light.h5 tag-1492238556//
/work/sebastian/BT-20210625/1009519-light/run1009519-light.h5 tag-1492238558//
/work/sebastian/BT-20210625/1009519-light/run1009519-light.h5 tag-1492238560//
/work/sebastian/BT-20210625/1009519-light/run1009519-light.h5 tag-1492238568//
/work/sebastian/BT-20210625/1009519-light/run1009519-light.h5 tag-1492238574//
/work/sebastian/BT-20210625/1009519-light/run1009519-light.h5 tag-1492238576//
/work/sebastian/BT-20210625/1009519-light/run1009519-light.h5 tag-1492238578//
/work/sebastian/BT-20210625/1009519-light/run1009519-light.h5 tag-1492238580//
/work/sebastian/BT-20210625/1009519-light/run1009519-light.h5 tag-1492238584//
/work/sebastian/BT-20210625/1009519-light/run1009519-light.h5 tag-1492238586//
/work/sebastian/BT-20210625/1009519-light/run1009519-light.h5 tag-1492238594//
/work/sebastian/BT-20210625/1009519-light/run1009519-light.h5 tag-1492238598//
/work/sebastian/BT-20210625/1009519-light/run1009519-light.h5 tag-1492238602//
/work/sebastian/BT-20210625/1009519-light/run1009519-light.h5 tag-1492238614//
/work/sebastian/BT-20210625/1009519-light/run1009519-light.h5 tag-1492238618//
/work/sebastian/BT-20210625/1009519-light/run1009519-light.h5 tag-1492238620//
/work/sebastian/BT-20210625/1009519-light/run1009519-light.h5 tag-1492238626//
/work/sebastian/BT-20210625/1009519-light/run1009519-light.h5 tag-1492238630//
/work/sebastian/BT-20210625/1009519-light/run1009519-light.h5 tag-1492238632//
/work/sebastian/BT-20210625/1009519-light/run1009519-light.h5 tag-1492238634//
/work/sebastian/BT-20210625/1009519-light/run1009519-light.h5 tag-1492238638//
/work/sebastian/BT-20210625/1009519-light/run1009519-light.h5 tag-1492238640//
/work/sebastian/BT-20210625/1009519-light/run1009519-light.h5 tag-1492238642//
/work/sebastian/BT-20210625/1009519-light/run1009519-light.h5 tag-1492238644//
/work/sebastian/BT-20210625/1009519-light/run1009519-light.h5 tag-1492238648//
/work/sebastian/BT-20210625/1009519-light/run1009519-light.h5 tag-1492238650//
/work/sebastian/BT-20210625/1009519-light/run1009519-light.h5 tag-1492238652//
/work/sebastian/BT-20210625/1009519-light/run1009519-light.h5 tag-1492238654//
/work/sebastian/BT-20210625/1009519-light/run1009519-light.h5 tag-1492238658//
/work/sebastian/BT-20210625/1009519-light/run1009519-light.h5 tag-1492238670//
/work/sebastian/BT-20210625/1009519-light/run1009519-light.h5 tag-1492238680//
/work/sebastian/BT-20210625/1009519-light/run1009519-light.h5 tag-1492238684//
/work/sebastian/BT-20210625/1009519-light/run1009519-light.h5 tag-1492238688//
/work/sebastian/BT-20210625/1009519-light/run1009519-light.h5 tag-1492238698//
/work/sebastian/BT-20210625/1009519-light/run1009519-light.h5 tag-1492238702//
/work/sebastian/BT-20210625/1009519-light/run1009519-light.h5 tag-1492238712//
/work/sebastian/BT-20210625/1009519-light/run1009519-light.h5 tag-1492238720//
/work/sebastian/BT-20210625/1009519-light/run1009519-light.h5 tag-1492238726//
/work/sebastian/BT-20210625/1009519-light/run1009519-light.h5 tag-1492238728//
/work/sebastian/BT-20210625/1009519-light/run1009519-light.h5 tag-1492238732//
/work/sebastian/BT-20210625/1009519-light/run1009519-light.h5 tag-1492238738//
/work/sebastian/BT-20210625/1009519-light/run1009519-light.h5 tag-1492238742//
/work/sebastian/BT-20210625/1009519-light/run1009519-light.h5 tag-1492238754//
/work/sebastian/BT-20210625/1009519-light/run1009519-light.h5 tag-1492238756//
/work/sebastian/BT-20210625/1009519-light/run1009519-light.h5 tag-1492238762//
/work/sebastian/BT-20210625/1009519-light/run1009519-light.h5 tag-1492238766//
/work/sebastian/BT-20210625/1009519-light/run1009519-light.h5 tag-1492238780//
/work/sebastian/BT-20210625/1009519-light/run1009519-light.h5 tag-1492238784//
/work/sebastian/BT-20210625/1009519-light/run1009519-light.h5 tag-1492238792//
/work/sebastian/BT-20210625/1009519-light/run1009519-light.h5 tag-1492238794//
/work/sebastian/BT-20210625/1009519-light/run1009519-light.h5 tag-1492238796//
/work/sebastian/BT-20210625/1009519-light/run1009519-light.h5 tag-1492238804//
/work/sebastian/BT-20210625/1009519-light/run1009519-light.h5 tag-1492238812//
/work/sebastian/BT-20210625/1009519-light/run1009519-light.h5 tag-1492238820//
/work/sebastian/BT-20210625/1009519-light/run1009519-light.h5 tag-1492238830//
/work/sebastian/BT-20210625/1009519-light/run1009519-light.h5 tag-1492238842//
/work/sebastian/BT-20210625/1009519-light/run1009519-light.h5 tag-1492238844//
/work/sebastian/BT-20210625/1009519-light/run1009519-light.h5 tag-1492238846//
/work/sebastian/BT-20210625/1009519-light/run1009519-light.h5 tag-1492238848//
/work/sebastian/BT-20210625/1009519-light/run1009519-light.h5 tag-1492238852//
/work/sebastian/BT-20210625/1009519-light/run1009519-light.h5 tag-1492238854//
/work/sebastian/BT-20210625/1009519-light/run1009519-light.h5 tag-1492238860//
/work/sebastian/BT-20210625/1009519-light/run1009519-light.h5 tag-1492238862//
/work/sebastian/BT-20210625/1009519-light/run1009519-light.h5 tag-1492238872//
/work/sebastian/BT-20210625/1009519-light/run1009519-light.h5 tag-1492238876//
/work/sebastian/BT-20210625/1009519-light/run1009519-light.h5 tag-1492238884//
/work/sebastian/BT-20210625/1009519-light/run1009519-light.h5 tag-1492238892//
/work/sebastian/BT-20210625/1009519-light/run1009519-light.h5 tag-1492238898//
/work/sebastian/BT-20210625/1009519-light/run1009519-light.h5 tag-1492238900//
/work/sebastian/BT-20210625/1009519-light/run1009519-light.h5 tag-1492238902//
/work/sebastian/BT-20210625/1009519-light/run1009519-light.h5 tag-1492238904//
/work/sebastian/BT-20210625/1009519-light/run1009519-light.h5 tag-1492238908//
/work/sebastian/BT-20210625/1009519-light/run1009519-light.h5 tag-1492238910//
/work/sebastian/BT-20210625/1009519-light/run1009519-light.h5 tag-1492238926//
/work/sebastian/BT-20210625/1009519-light/run1009519-light.h5 tag-1492238930//
/work/sebastian/BT-20210625/1009519-light/run1009519-light.h5 tag-1492238932//
/work/sebastian/BT-20210625/1009519-light/run1009519-light.h5 tag-1492238934//
/work/sebastian/BT-20210625/1009519-light/run1009519-light.h5 tag-1492238938//
/work/sebastian/BT-20210625/1009519-light/run1009519-light.h5 tag-1492238946//
/work/sebastian/BT-20210625/1009519-light/run1009519-light.h5 tag-1492238956//
/work/sebastian/BT-20210625/1009519-light/run1009519-light.h5 tag-1492238960//
/work/sebastian/BT-20210625/1009519-light/run1009519-light.h5 tag-1492238962//
/work/sebastian/BT-20210625/1009519-light/run1009519-light.h5 tag-1492238970//
/work/sebastian/BT-20210625/1009519-light/run1009519-light.h5 tag-1492238976//
/work/sebastian/BT-20210625/1009519-light/run1009519-light.h5 tag-1492238978//
/work/sebastian/BT-20210625/1009519-light/run1009519-light.h5 tag-1492238980//
/work/sebastian/BT-20210625/1009519-light/run1009519-light.h5 tag-1492238984//
/work/sebastian/BT-20210625/1009519-light/run1009519-light.h5 tag-1492238996//
/work/sebastian/BT-20210625/1009519-light/run1009519-light.h5 tag-1492239002//
/work/sebastian/BT-20210625/1009519-light/run1009519-light.h5 tag-1492239006//
/work/sebastian/BT-20210625/1009519-light/run1009519-light.h5 tag-1492239010//
/work/sebastian/BT-20210625/1009519-light/run1009519-light.h5 tag-1492239026//
/work/sebastian/BT-20210625/1009519-light/run1009519-light.h5 tag-1492239028//
/work/sebastian/BT-20210625/1009519-light/run1009519-light.h5 tag-1492239036//
/work/sebastian/BT-20210625/1009519-light/run1009519-light.h5 tag-1492239046//
/work/sebastian/BT-20210625/1009519-light/run1009519-light.h5 tag-1492239056//
/work/sebastian/BT-20210625/1009519-light/run1009519-light.h5 tag-1492239060//
/work/sebastian/BT-20210625/1009519-light/run1009519-light.h5 tag-1492239062//
/work/sebastian/BT-20210625/1009519-light/run1009519-light.h5 tag-1492239068//
/work/sebastian/BT-20210625/1009519-light/run1009519-light.h5 tag-1492239070//
/work/sebastian/BT-20210625/1009519-light/run1009519-light.h5 tag-1492239074//
/work/sebastian/BT-20210625/1009519-light/run1009519-light.h5 tag-1492239086//
/work/sebastian/BT-20210625/1009519-light/run1009519-light.h5 tag-1492239090//
/work/sebastian/BT-20210625/1009519-light/run1009519-light.h5 tag-1492239094//
/work/sebastian/BT-20210625/1009519-light/run1009519-light.h5 tag-1492239096//
/work/sebastian/BT-20210625/1009519-light/run1009519-light.h5 tag-1492239104//
/work/sebastian/BT-20210625/1009519-light/run1009519-light.h5 tag-1492239108//
/work/sebastian/BT-20210625/1009519-light/run1009519-light.h5 tag-1492239116//
/work/sebastian/BT-20210625/1009519-light/run1009519-light.h5 tag-1492239120//
/work/sebastian/BT-20210625/1009519-light/run1009519-light.h5 tag-1492239122//
/work/sebastian/BT-20210625/1009519-light/run1009519-light.h5 tag-1492239124//
/work/sebastian/BT-20210625/1009519-light/run1009519-light.h5 tag-1492239126//
/work/sebastian/BT-20210625/1009519-light/run1009519-light.h5 tag-1492239132//
/work/sebastian/BT-20210625/1009519-light/run1009519-light.h5 tag-1492239138//
/work/sebastian/BT-20210625/1009519-light/run1009519-light.h5 tag-1492239142//
/work/sebastian/BT-20210625/1009519-light/run1009519-light.h5 tag-1492239144//
/work/sebastian/BT-20210625/1009519-light/run1009519-light.h5 tag-1492239152//
/work/sebastian/BT-20210625/1009519-light/run1009519-light.h5 tag-1492239156//
/work/sebastian/BT-20210625/1009519-light/run1009519-light.h5 tag-1492239158//
/work/sebastian/BT-20210625/1009519-light/run1009519-light.h5 tag-1492239162//
/work/sebastian/BT-20210625/1009519-light/run1009519-light.h5 tag-1492239164//
/work/sebastian/BT-20210625/1009519-light/run1009519-light.h5 tag-1492239174//
/work/sebastian/BT-20210625/1009519-light/run1009519-light.h5 tag-1492239178//
/work/sebastian/BT-20210625/1009519-light/run1009519-light.h5 tag-1492239180//
/work/sebastian/BT-20210625/1009519-light/run1009519-light.h5 tag-1492239182//
/work/sebastian/BT-20210625/1009519-light/run1009519-light.h5 tag-1492239184//
/work/sebastian/BT-20210625/1009519-light/run1009519-light.h5 tag-1492239194//
/work/sebastian/BT-20210625/1009519-light/run1009519-light.h5 tag-1492239206//
/work/sebastian/BT-20210625/1009519-light/run1009519-light.h5 tag-1492239208//
/work/sebastian/BT-20210625/1009519-light/run1009519-light.h5 tag-1492239212//
/work/sebastian/BT-20210625/1009519-light/run1009519-light.h5 tag-1492239218//
/work/sebastian/BT-20210625/1009519-light/run1009519-light.h5 tag-1492239220//
/work/sebastian/BT-20210625/1009519-light/run1009519-light.h5 tag-1492239224//
/work/sebastian/BT-20210625/1009519-light/run1009519-light.h5 tag-1492239226//
/work/sebastian/BT-20210625/1009519-light/run1009519-light.h5 tag-1492239250//
/work/sebastian/BT-20210625/1009519-light/run1009519-light.h5 tag-1492239262//
/work/sebastian/BT-20210625/1009519-light/run1009519-light.h5 tag-1492239270//
/work/sebastian/BT-20210625/1009519-light/run1009519-light.h5 tag-1492239276//
/work/sebastian/BT-20210625/1009519-light/run1009519-light.h5 tag-1492239280//
/work/sebastian/BT-20210625/1009519-light/run1009519-light.h5 tag-1492239282//
/work/sebastian/BT-20210625/1009519-light/run1009519-light.h5 tag-1492239284//
/work/sebastian/BT-20210625/1009519-light/run1009519-light.h5 tag-1492239296//
/work/sebastian/BT-20210625/1009519-light/run1009519-light.h5 tag-1492239300//
/work/sebastian/BT-20210625/1009519-light/run1009519-light.h5 tag-1492239302//
/work/sebastian/BT-20210625/1009519-light/run1009519-light.h5 tag-1492239316//
/work/sebastian/BT-20210625/1009519-light/run1009519-light.h5 tag-1492239340//
/work/sebastian/BT-20210625/1009519-light/run1009519-light.h5 tag-1492239342//
/work/sebastian/BT-20210625/1009519-light/run1009519-light.h5 tag-1492239350//
/work/sebastian/BT-20210625/1009519-light/run1009519-light.h5 tag-1492239352//
/work/sebastian/BT-20210625/1009519-light/run1009519-light.h5 tag-1492239358//
/work/sebastian/BT-20210625/1009519-light/run1009519-light.h5 tag-1492239360//
/work/sebastian/BT-20210625/1009519-light/run1009519-light.h5 tag-1492239366//
/work/sebastian/BT-20210625/1009519-light/run1009519-light.h5 tag-1492239378//
/work/sebastian/BT-20210625/1009519-light/run1009519-light.h5 tag-1492239380//
/work/sebastian/BT-20210625/1009519-light/run1009519-light.h5 tag-1492239392//
/work/sebastian/BT-20210625/1009519-light/run1009519-light.h5 tag-1492239400//
/work/sebastian/BT-20210625/1009519-light/run1009519-light.h5 tag-1492239402//
/work/sebastian/BT-20210625/1009519-light/run1009519-light.h5 tag-1492239404//
/work/sebastian/BT-20210625/1009519-light/run1009519-light.h5 tag-1492239406//
/work/sebastian/BT-20210625/1009519-light/run1009519-light.h5 tag-1492239408//
/work/sebastian/BT-20210625/1009519-light/run1009519-light.h5 tag-1492239422//
/work/sebastian/BT-20210625/1009519-light/run1009519-light.h5 tag-1492239424//
/work/sebastian/BT-20210625/1009519-light/run1009519-light.h5 tag-1492239426//
/work/sebastian/BT-20210625/1009519-light/run1009519-light.h5 tag-1492239428//
/work/sebastian/BT-20210625/1009519-light/run1009519-light.h5 tag-1492239442//
/work/sebastian/BT-20210625/1009519-light/run1009519-light.h5 tag-1492239444//
/work/sebastian/BT-20210625/1009519-light/run1009519-light.h5 tag-1492239448//
/work/sebastian/BT-20210625/1009519-light/run1009519-light.h5 tag-1492239454//
/work/sebastian/BT-20210625/1009519-light/run1009519-light.h5 tag-1492239462//
/work/sebastian/BT-20210625/1009519-light/run1009519-light.h5 tag-1492239464//
/work/sebastian/BT-20210625/1009519-light/run1009519-light.h5 tag-1492239474//
/work/sebastian/BT-20210625/1009519-light/run1009519-light.h5 tag-1492239482//
/work/sebastian/BT-20210625/1009519-light/run1009519-light.h5 tag-1492239484//
/work/sebastian/BT-20210625/1009519-light/run1009519-light.h5 tag-1492239488//
/work/sebastian/BT-20210625/1009519-light/run1009519-light.h5 tag-1492239496//
/work/sebastian/BT-20210625/1009519-light/run1009519-light.h5 tag-1492239498//
/work/sebastian/BT-20210625/1009519-light/run1009519-light.h5 tag-1492239504//
/work/sebastian/BT-20210625/1009519-light/run1009519-light.h5 tag-1492239506//
/work/sebastian/BT-20210625/1009519-light/run1009519-light.h5 tag-1492239512//
/work/sebastian/BT-20210625/1009519-light/run1009519-light.h5 tag-1492239514//
/work/sebastian/BT-20210625/1009519-light/run1009519-light.h5 tag-1492239516//
