/work/sebastian/BT-20210625/1009937-light/run1009937-light.h5 tag-1498092194//
/work/sebastian/BT-20210625/1009937-light/run1009937-light.h5 tag-1498092200//
/work/sebastian/BT-20210625/1009937-light/run1009937-light.h5 tag-1498092202//
/work/sebastian/BT-20210625/1009937-light/run1009937-light.h5 tag-1498092214//
/work/sebastian/BT-20210625/1009937-light/run1009937-light.h5 tag-1498092218//
/work/sebastian/BT-20210625/1009937-light/run1009937-light.h5 tag-1498092224//
/work/sebastian/BT-20210625/1009937-light/run1009937-light.h5 tag-1498092226//
/work/sebastian/BT-20210625/1009937-light/run1009937-light.h5 tag-1498092228//
/work/sebastian/BT-20210625/1009937-light/run1009937-light.h5 tag-1498092232//
/work/sebastian/BT-20210625/1009937-light/run1009937-light.h5 tag-1498092264//
/work/sebastian/BT-20210625/1009937-light/run1009937-light.h5 tag-1498092266//
/work/sebastian/BT-20210625/1009937-light/run1009937-light.h5 tag-1498092270//
/work/sebastian/BT-20210625/1009937-light/run1009937-light.h5 tag-1498092274//
/work/sebastian/BT-20210625/1009937-light/run1009937-light.h5 tag-1498092282//
/work/sebastian/BT-20210625/1009937-light/run1009937-light.h5 tag-1498092292//
/work/sebastian/BT-20210625/1009937-light/run1009937-light.h5 tag-1498092296//
/work/sebastian/BT-20210625/1009937-light/run1009937-light.h5 tag-1498092298//
/work/sebastian/BT-20210625/1009937-light/run1009937-light.h5 tag-1498092300//
/work/sebastian/BT-20210625/1009937-light/run1009937-light.h5 tag-1498092304//
/work/sebastian/BT-20210625/1009937-light/run1009937-light.h5 tag-1498092316//
/work/sebastian/BT-20210625/1009937-light/run1009937-light.h5 tag-1498092320//
/work/sebastian/BT-20210625/1009937-light/run1009937-light.h5 tag-1498092322//
/work/sebastian/BT-20210625/1009937-light/run1009937-light.h5 tag-1498092324//
/work/sebastian/BT-20210625/1009937-light/run1009937-light.h5 tag-1498092326//
/work/sebastian/BT-20210625/1009937-light/run1009937-light.h5 tag-1498092332//
/work/sebastian/BT-20210625/1009937-light/run1009937-light.h5 tag-1498092334//
/work/sebastian/BT-20210625/1009937-light/run1009937-light.h5 tag-1498092336//
/work/sebastian/BT-20210625/1009937-light/run1009937-light.h5 tag-1498092338//
/work/sebastian/BT-20210625/1009937-light/run1009937-light.h5 tag-1498092340//
/work/sebastian/BT-20210625/1009937-light/run1009937-light.h5 tag-1498092348//
/work/sebastian/BT-20210625/1009937-light/run1009937-light.h5 tag-1498092350//
/work/sebastian/BT-20210625/1009937-light/run1009937-light.h5 tag-1498092352//
/work/sebastian/BT-20210625/1009937-light/run1009937-light.h5 tag-1498092358//
/work/sebastian/BT-20210625/1009937-light/run1009937-light.h5 tag-1498092360//
/work/sebastian/BT-20210625/1009937-light/run1009937-light.h5 tag-1498092366//
/work/sebastian/BT-20210625/1009937-light/run1009937-light.h5 tag-1498092368//
/work/sebastian/BT-20210625/1009937-light/run1009937-light.h5 tag-1498092370//
/work/sebastian/BT-20210625/1009937-light/run1009937-light.h5 tag-1498092372//
/work/sebastian/BT-20210625/1009937-light/run1009937-light.h5 tag-1498092374//
/work/sebastian/BT-20210625/1009937-light/run1009937-light.h5 tag-1498092376//
/work/sebastian/BT-20210625/1009937-light/run1009937-light.h5 tag-1498092378//
/work/sebastian/BT-20210625/1009937-light/run1009937-light.h5 tag-1498092382//
/work/sebastian/BT-20210625/1009937-light/run1009937-light.h5 tag-1498092386//
/work/sebastian/BT-20210625/1009937-light/run1009937-light.h5 tag-1498092394//
/work/sebastian/BT-20210625/1009937-light/run1009937-light.h5 tag-1498092400//
/work/sebastian/BT-20210625/1009937-light/run1009937-light.h5 tag-1498092404//
/work/sebastian/BT-20210625/1009937-light/run1009937-light.h5 tag-1498092406//
/work/sebastian/BT-20210625/1009937-light/run1009937-light.h5 tag-1498092412//
/work/sebastian/BT-20210625/1009937-light/run1009937-light.h5 tag-1498092418//
/work/sebastian/BT-20210625/1009937-light/run1009937-light.h5 tag-1498092420//
/work/sebastian/BT-20210625/1009937-light/run1009937-light.h5 tag-1498092422//
/work/sebastian/BT-20210625/1009937-light/run1009937-light.h5 tag-1498092426//
/work/sebastian/BT-20210625/1009937-light/run1009937-light.h5 tag-1498092436//
/work/sebastian/BT-20210625/1009937-light/run1009937-light.h5 tag-1498092440//
/work/sebastian/BT-20210625/1009937-light/run1009937-light.h5 tag-1498092442//
/work/sebastian/BT-20210625/1009937-light/run1009937-light.h5 tag-1498092460//
/work/sebastian/BT-20210625/1009937-light/run1009937-light.h5 tag-1498092466//
/work/sebastian/BT-20210625/1009937-light/run1009937-light.h5 tag-1498092470//
/work/sebastian/BT-20210625/1009937-light/run1009937-light.h5 tag-1498092472//
/work/sebastian/BT-20210625/1009937-light/run1009937-light.h5 tag-1498092476//
/work/sebastian/BT-20210625/1009937-light/run1009937-light.h5 tag-1498092480//
/work/sebastian/BT-20210625/1009937-light/run1009937-light.h5 tag-1498092482//
/work/sebastian/BT-20210625/1009937-light/run1009937-light.h5 tag-1498092484//
/work/sebastian/BT-20210625/1009937-light/run1009937-light.h5 tag-1498092492//
/work/sebastian/BT-20210625/1009937-light/run1009937-light.h5 tag-1498092496//
/work/sebastian/BT-20210625/1009937-light/run1009937-light.h5 tag-1498092504//
/work/sebastian/BT-20210625/1009937-light/run1009937-light.h5 tag-1498092510//
/work/sebastian/BT-20210625/1009937-light/run1009937-light.h5 tag-1498092512//
/work/sebastian/BT-20210625/1009937-light/run1009937-light.h5 tag-1498092516//
/work/sebastian/BT-20210625/1009937-light/run1009937-light.h5 tag-1498092520//
/work/sebastian/BT-20210625/1009937-light/run1009937-light.h5 tag-1498092522//
/work/sebastian/BT-20210625/1009937-light/run1009937-light.h5 tag-1498092532//
/work/sebastian/BT-20210625/1009937-light/run1009937-light.h5 tag-1498092538//
/work/sebastian/BT-20210625/1009937-light/run1009937-light.h5 tag-1498092540//
/work/sebastian/BT-20210625/1009937-light/run1009937-light.h5 tag-1498092544//
/work/sebastian/BT-20210625/1009937-light/run1009937-light.h5 tag-1498092552//
/work/sebastian/BT-20210625/1009937-light/run1009937-light.h5 tag-1498092558//
/work/sebastian/BT-20210625/1009937-light/run1009937-light.h5 tag-1498092560//
/work/sebastian/BT-20210625/1009937-light/run1009937-light.h5 tag-1498092566//
/work/sebastian/BT-20210625/1009937-light/run1009937-light.h5 tag-1498092574//
/work/sebastian/BT-20210625/1009937-light/run1009937-light.h5 tag-1498092582//
/work/sebastian/BT-20210625/1009937-light/run1009937-light.h5 tag-1498092598//
/work/sebastian/BT-20210625/1009937-light/run1009937-light.h5 tag-1498092600//
/work/sebastian/BT-20210625/1009937-light/run1009937-light.h5 tag-1498092602//
/work/sebastian/BT-20210625/1009937-light/run1009937-light.h5 tag-1498092606//
/work/sebastian/BT-20210625/1009937-light/run1009937-light.h5 tag-1498092608//
/work/sebastian/BT-20210625/1009937-light/run1009937-light.h5 tag-1498092624//
/work/sebastian/BT-20210625/1009937-light/run1009937-light.h5 tag-1498092636//
/work/sebastian/BT-20210625/1009937-light/run1009937-light.h5 tag-1498092638//
/work/sebastian/BT-20210625/1009937-light/run1009937-light.h5 tag-1498092640//
/work/sebastian/BT-20210625/1009937-light/run1009937-light.h5 tag-1498092646//
/work/sebastian/BT-20210625/1009937-light/run1009937-light.h5 tag-1498092648//
/work/sebastian/BT-20210625/1009937-light/run1009937-light.h5 tag-1498092650//
/work/sebastian/BT-20210625/1009937-light/run1009937-light.h5 tag-1498092652//
/work/sebastian/BT-20210625/1009937-light/run1009937-light.h5 tag-1498092660//
/work/sebastian/BT-20210625/1009937-light/run1009937-light.h5 tag-1498092670//
/work/sebastian/BT-20210625/1009937-light/run1009937-light.h5 tag-1498092672//
/work/sebastian/BT-20210625/1009937-light/run1009937-light.h5 tag-1498092676//
/work/sebastian/BT-20210625/1009937-light/run1009937-light.h5 tag-1498092692//
/work/sebastian/BT-20210625/1009937-light/run1009937-light.h5 tag-1498092696//
/work/sebastian/BT-20210625/1009937-light/run1009937-light.h5 tag-1498092704//
/work/sebastian/BT-20210625/1009937-light/run1009937-light.h5 tag-1498092706//
/work/sebastian/BT-20210625/1009937-light/run1009937-light.h5 tag-1498092716//
/work/sebastian/BT-20210625/1009937-light/run1009937-light.h5 tag-1498092720//
/work/sebastian/BT-20210625/1009937-light/run1009937-light.h5 tag-1498092724//
/work/sebastian/BT-20210625/1009937-light/run1009937-light.h5 tag-1498092728//
/work/sebastian/BT-20210625/1009937-light/run1009937-light.h5 tag-1498092732//
/work/sebastian/BT-20210625/1009937-light/run1009937-light.h5 tag-1498092738//
/work/sebastian/BT-20210625/1009937-light/run1009937-light.h5 tag-1498092740//
/work/sebastian/BT-20210625/1009937-light/run1009937-light.h5 tag-1498092746//
/work/sebastian/BT-20210625/1009937-light/run1009937-light.h5 tag-1498092748//
/work/sebastian/BT-20210625/1009937-light/run1009937-light.h5 tag-1498092772//
/work/sebastian/BT-20210625/1009937-light/run1009937-light.h5 tag-1498092776//
/work/sebastian/BT-20210625/1009937-light/run1009937-light.h5 tag-1498092780//
/work/sebastian/BT-20210625/1009937-light/run1009937-light.h5 tag-1498092786//
/work/sebastian/BT-20210625/1009937-light/run1009937-light.h5 tag-1498092790//
/work/sebastian/BT-20210625/1009937-light/run1009937-light.h5 tag-1498092792//
/work/sebastian/BT-20210625/1009937-light/run1009937-light.h5 tag-1498092798//
/work/sebastian/BT-20210625/1009937-light/run1009937-light.h5 tag-1498092804//
/work/sebastian/BT-20210625/1009937-light/run1009937-light.h5 tag-1498092816//
/work/sebastian/BT-20210625/1009937-light/run1009937-light.h5 tag-1498092818//
/work/sebastian/BT-20210625/1009937-light/run1009937-light.h5 tag-1498092824//
/work/sebastian/BT-20210625/1009937-light/run1009937-light.h5 tag-1498092830//
/work/sebastian/BT-20210625/1009937-light/run1009937-light.h5 tag-1498092840//
/work/sebastian/BT-20210625/1009937-light/run1009937-light.h5 tag-1498092842//
/work/sebastian/BT-20210625/1009937-light/run1009937-light.h5 tag-1498092848//
/work/sebastian/BT-20210625/1009937-light/run1009937-light.h5 tag-1498092852//
/work/sebastian/BT-20210625/1009937-light/run1009937-light.h5 tag-1498092854//
/work/sebastian/BT-20210625/1009937-light/run1009937-light.h5 tag-1498092856//
/work/sebastian/BT-20210625/1009937-light/run1009937-light.h5 tag-1498092858//
/work/sebastian/BT-20210625/1009937-light/run1009937-light.h5 tag-1498092860//
/work/sebastian/BT-20210625/1009937-light/run1009937-light.h5 tag-1498092864//
/work/sebastian/BT-20210625/1009937-light/run1009937-light.h5 tag-1498092868//
/work/sebastian/BT-20210625/1009937-light/run1009937-light.h5 tag-1498092870//
/work/sebastian/BT-20210625/1009937-light/run1009937-light.h5 tag-1498092876//
/work/sebastian/BT-20210625/1009937-light/run1009937-light.h5 tag-1498092888//
/work/sebastian/BT-20210625/1009937-light/run1009937-light.h5 tag-1498092890//
/work/sebastian/BT-20210625/1009937-light/run1009937-light.h5 tag-1498092896//
/work/sebastian/BT-20210625/1009937-light/run1009937-light.h5 tag-1498092900//
/work/sebastian/BT-20210625/1009937-light/run1009937-light.h5 tag-1498092902//
/work/sebastian/BT-20210625/1009937-light/run1009937-light.h5 tag-1498092908//
/work/sebastian/BT-20210625/1009937-light/run1009937-light.h5 tag-1498092912//
/work/sebastian/BT-20210625/1009937-light/run1009937-light.h5 tag-1498092916//
/work/sebastian/BT-20210625/1009937-light/run1009937-light.h5 tag-1498092920//
/work/sebastian/BT-20210625/1009937-light/run1009937-light.h5 tag-1498092926//
/work/sebastian/BT-20210625/1009937-light/run1009937-light.h5 tag-1498092930//
/work/sebastian/BT-20210625/1009937-light/run1009937-light.h5 tag-1498092934//
/work/sebastian/BT-20210625/1009937-light/run1009937-light.h5 tag-1498092936//
/work/sebastian/BT-20210625/1009937-light/run1009937-light.h5 tag-1498092942//
/work/sebastian/BT-20210625/1009937-light/run1009937-light.h5 tag-1498092948//
/work/sebastian/BT-20210625/1009937-light/run1009937-light.h5 tag-1498092950//
/work/sebastian/BT-20210625/1009937-light/run1009937-light.h5 tag-1498092952//
/work/sebastian/BT-20210625/1009937-light/run1009937-light.h5 tag-1498092958//
/work/sebastian/BT-20210625/1009937-light/run1009937-light.h5 tag-1498092960//
/work/sebastian/BT-20210625/1009937-light/run1009937-light.h5 tag-1498092962//
/work/sebastian/BT-20210625/1009937-light/run1009937-light.h5 tag-1498092966//
/work/sebastian/BT-20210625/1009937-light/run1009937-light.h5 tag-1498092970//
/work/sebastian/BT-20210625/1009937-light/run1009937-light.h5 tag-1498092972//
/work/sebastian/BT-20210625/1009937-light/run1009937-light.h5 tag-1498092976//
/work/sebastian/BT-20210625/1009937-light/run1009937-light.h5 tag-1498092978//
/work/sebastian/BT-20210625/1009937-light/run1009937-light.h5 tag-1498092980//
/work/sebastian/BT-20210625/1009937-light/run1009937-light.h5 tag-1498092984//
/work/sebastian/BT-20210625/1009937-light/run1009937-light.h5 tag-1498092986//
/work/sebastian/BT-20210625/1009937-light/run1009937-light.h5 tag-1498092990//
/work/sebastian/BT-20210625/1009937-light/run1009937-light.h5 tag-1498092994//
/work/sebastian/BT-20210625/1009937-light/run1009937-light.h5 tag-1498092996//
/work/sebastian/BT-20210625/1009937-light/run1009937-light.h5 tag-1498093002//
/work/sebastian/BT-20210625/1009937-light/run1009937-light.h5 tag-1498093006//
/work/sebastian/BT-20210625/1009937-light/run1009937-light.h5 tag-1498093016//
/work/sebastian/BT-20210625/1009937-light/run1009937-light.h5 tag-1498093026//
/work/sebastian/BT-20210625/1009937-light/run1009937-light.h5 tag-1498093028//
/work/sebastian/BT-20210625/1009937-light/run1009937-light.h5 tag-1498093030//
/work/sebastian/BT-20210625/1009937-light/run1009937-light.h5 tag-1498093034//
/work/sebastian/BT-20210625/1009937-light/run1009937-light.h5 tag-1498093036//
/work/sebastian/BT-20210625/1009937-light/run1009937-light.h5 tag-1498093038//
/work/sebastian/BT-20210625/1009937-light/run1009937-light.h5 tag-1498093042//
/work/sebastian/BT-20210625/1009937-light/run1009937-light.h5 tag-1498093054//
/work/sebastian/BT-20210625/1009937-light/run1009937-light.h5 tag-1498093056//
/work/sebastian/BT-20210625/1009937-light/run1009937-light.h5 tag-1498093062//
/work/sebastian/BT-20210625/1009937-light/run1009937-light.h5 tag-1498093064//
/work/sebastian/BT-20210625/1009937-light/run1009937-light.h5 tag-1498093078//
/work/sebastian/BT-20210625/1009937-light/run1009937-light.h5 tag-1498093092//
/work/sebastian/BT-20210625/1009937-light/run1009937-light.h5 tag-1498093106//
/work/sebastian/BT-20210625/1009937-light/run1009937-light.h5 tag-1498093110//
/work/sebastian/BT-20210625/1009937-light/run1009937-light.h5 tag-1498093114//
/work/sebastian/BT-20210625/1009937-light/run1009937-light.h5 tag-1498093116//
/work/sebastian/BT-20210625/1009937-light/run1009937-light.h5 tag-1498093120//
/work/sebastian/BT-20210625/1009937-light/run1009937-light.h5 tag-1498093124//
/work/sebastian/BT-20210625/1009937-light/run1009937-light.h5 tag-1498093134//
/work/sebastian/BT-20210625/1009937-light/run1009937-light.h5 tag-1498093136//
/work/sebastian/BT-20210625/1009937-light/run1009937-light.h5 tag-1498093138//
/work/sebastian/BT-20210625/1009937-light/run1009937-light.h5 tag-1498093142//
/work/sebastian/BT-20210625/1009937-light/run1009937-light.h5 tag-1498093152//
/work/sebastian/BT-20210625/1009937-light/run1009937-light.h5 tag-1498093154//
/work/sebastian/BT-20210625/1009937-light/run1009937-light.h5 tag-1498093162//
/work/sebastian/BT-20210625/1009937-light/run1009937-light.h5 tag-1498093166//
/work/sebastian/BT-20210625/1009937-light/run1009937-light.h5 tag-1498093168//
/work/sebastian/BT-20210625/1009937-light/run1009937-light.h5 tag-1498093176//
/work/sebastian/BT-20210625/1009937-light/run1009937-light.h5 tag-1498093180//
/work/sebastian/BT-20210625/1009937-light/run1009937-light.h5 tag-1498093190//
/work/sebastian/BT-20210625/1009937-light/run1009937-light.h5 tag-1498093194//
/work/sebastian/BT-20210625/1009937-light/run1009937-light.h5 tag-1498093200//
/work/sebastian/BT-20210625/1009937-light/run1009937-light.h5 tag-1498093204//
/work/sebastian/BT-20210625/1009937-light/run1009937-light.h5 tag-1498093210//
/work/sebastian/BT-20210625/1009937-light/run1009937-light.h5 tag-1498093216//
/work/sebastian/BT-20210625/1009937-light/run1009937-light.h5 tag-1498093220//
/work/sebastian/BT-20210625/1009937-light/run1009937-light.h5 tag-1498093232//
/work/sebastian/BT-20210625/1009937-light/run1009937-light.h5 tag-1498093236//
/work/sebastian/BT-20210625/1009937-light/run1009937-light.h5 tag-1498093238//
/work/sebastian/BT-20210625/1009937-light/run1009937-light.h5 tag-1498093240//
/work/sebastian/BT-20210625/1009937-light/run1009937-light.h5 tag-1498093260//
/work/sebastian/BT-20210625/1009937-light/run1009937-light.h5 tag-1498093264//
/work/sebastian/BT-20210625/1009937-light/run1009937-light.h5 tag-1498093266//
/work/sebastian/BT-20210625/1009937-light/run1009937-light.h5 tag-1498093270//
/work/sebastian/BT-20210625/1009937-light/run1009937-light.h5 tag-1498093272//
/work/sebastian/BT-20210625/1009937-light/run1009937-light.h5 tag-1498093274//
/work/sebastian/BT-20210625/1009937-light/run1009937-light.h5 tag-1498093284//
/work/sebastian/BT-20210625/1009937-light/run1009937-light.h5 tag-1498093286//
/work/sebastian/BT-20210625/1009937-light/run1009937-light.h5 tag-1498093288//
/work/sebastian/BT-20210625/1009937-light/run1009937-light.h5 tag-1498093294//
/work/sebastian/BT-20210625/1009937-light/run1009937-light.h5 tag-1498093298//
/work/sebastian/BT-20210625/1009937-light/run1009937-light.h5 tag-1498093306//
/work/sebastian/BT-20210625/1009937-light/run1009937-light.h5 tag-1498093318//
/work/sebastian/BT-20210625/1009937-light/run1009937-light.h5 tag-1498093320//
/work/sebastian/BT-20210625/1009937-light/run1009937-light.h5 tag-1498093322//
/work/sebastian/BT-20210625/1009937-light/run1009937-light.h5 tag-1498093326//
/work/sebastian/BT-20210625/1009937-light/run1009937-light.h5 tag-1498093330//
/work/sebastian/BT-20210625/1009937-light/run1009937-light.h5 tag-1498093334//
/work/sebastian/BT-20210625/1009937-light/run1009937-light.h5 tag-1498093338//
/work/sebastian/BT-20210625/1009937-light/run1009937-light.h5 tag-1498093344//
/work/sebastian/BT-20210625/1009937-light/run1009937-light.h5 tag-1498093346//
/work/sebastian/BT-20210625/1009937-light/run1009937-light.h5 tag-1498093356//
/work/sebastian/BT-20210625/1009937-light/run1009937-light.h5 tag-1498093358//
/work/sebastian/BT-20210625/1009937-light/run1009937-light.h5 tag-1498093360//
/work/sebastian/BT-20210625/1009937-light/run1009937-light.h5 tag-1498093362//
/work/sebastian/BT-20210625/1009937-light/run1009937-light.h5 tag-1498093364//
/work/sebastian/BT-20210625/1009937-light/run1009937-light.h5 tag-1498093368//
/work/sebastian/BT-20210625/1009937-light/run1009937-light.h5 tag-1498093374//
/work/sebastian/BT-20210625/1009937-light/run1009937-light.h5 tag-1498093376//
/work/sebastian/BT-20210625/1009937-light/run1009937-light.h5 tag-1498093382//
/work/sebastian/BT-20210625/1009937-light/run1009937-light.h5 tag-1498093390//
/work/sebastian/BT-20210625/1009937-light/run1009937-light.h5 tag-1498093398//
/work/sebastian/BT-20210625/1009937-light/run1009937-light.h5 tag-1498093400//
/work/sebastian/BT-20210625/1009937-light/run1009937-light.h5 tag-1498093402//
/work/sebastian/BT-20210625/1009937-light/run1009937-light.h5 tag-1498093412//
/work/sebastian/BT-20210625/1009937-light/run1009937-light.h5 tag-1498093416//
/work/sebastian/BT-20210625/1009937-light/run1009937-light.h5 tag-1498093420//
/work/sebastian/BT-20210625/1009937-light/run1009937-light.h5 tag-1498093424//
/work/sebastian/BT-20210625/1009937-light/run1009937-light.h5 tag-1498093426//
/work/sebastian/BT-20210625/1009937-light/run1009937-light.h5 tag-1498093428//
/work/sebastian/BT-20210625/1009937-light/run1009937-light.h5 tag-1498093434//
/work/sebastian/BT-20210625/1009937-light/run1009937-light.h5 tag-1498093436//
/work/sebastian/BT-20210625/1009937-light/run1009937-light.h5 tag-1498093444//
/work/sebastian/BT-20210625/1009937-light/run1009937-light.h5 tag-1498093448//
/work/sebastian/BT-20210625/1009937-light/run1009937-light.h5 tag-1498093452//
/work/sebastian/BT-20210625/1009937-light/run1009937-light.h5 tag-1498093458//
/work/sebastian/BT-20210625/1009937-light/run1009937-light.h5 tag-1498093464//
/work/sebastian/BT-20210625/1009937-light/run1009937-light.h5 tag-1498093466//
/work/sebastian/BT-20210625/1009937-light/run1009937-light.h5 tag-1498093468//
/work/sebastian/BT-20210625/1009937-light/run1009937-light.h5 tag-1498093470//
/work/sebastian/BT-20210625/1009937-light/run1009937-light.h5 tag-1498093472//
/work/sebastian/BT-20210625/1009937-light/run1009937-light.h5 tag-1498093474//
/work/sebastian/BT-20210625/1009937-light/run1009937-light.h5 tag-1498093476//
/work/sebastian/BT-20210625/1009937-light/run1009937-light.h5 tag-1498093478//
/work/sebastian/BT-20210625/1009937-light/run1009937-light.h5 tag-1498093480//
/work/sebastian/BT-20210625/1009937-light/run1009937-light.h5 tag-1498093482//
/work/sebastian/BT-20210625/1009937-light/run1009937-light.h5 tag-1498093494//
/work/sebastian/BT-20210625/1009937-light/run1009937-light.h5 tag-1498093500//
/work/sebastian/BT-20210625/1009937-light/run1009937-light.h5 tag-1498093506//
/work/sebastian/BT-20210625/1009937-light/run1009937-light.h5 tag-1498093514//
/work/sebastian/BT-20210625/1009937-light/run1009937-light.h5 tag-1498093516//
/work/sebastian/BT-20210625/1009937-light/run1009937-light.h5 tag-1498093520//
/work/sebastian/BT-20210625/1009937-light/run1009937-light.h5 tag-1498093524//
/work/sebastian/BT-20210625/1009937-light/run1009937-light.h5 tag-1498093526//
/work/sebastian/BT-20210625/1009937-light/run1009937-light.h5 tag-1498093528//
/work/sebastian/BT-20210625/1009937-light/run1009937-light.h5 tag-1498093536//
/work/sebastian/BT-20210625/1009937-light/run1009937-light.h5 tag-1498093540//
/work/sebastian/BT-20210625/1009937-light/run1009937-light.h5 tag-1498093544//
/work/sebastian/BT-20210625/1009937-light/run1009937-light.h5 tag-1498093546//
/work/sebastian/BT-20210625/1009937-light/run1009937-light.h5 tag-1498093548//
/work/sebastian/BT-20210625/1009937-light/run1009937-light.h5 tag-1498093550//
/work/sebastian/BT-20210625/1009937-light/run1009937-light.h5 tag-1498093554//
/work/sebastian/BT-20210625/1009937-light/run1009937-light.h5 tag-1498093556//
/work/sebastian/BT-20210625/1009937-light/run1009937-light.h5 tag-1498093558//
/work/sebastian/BT-20210625/1009937-light/run1009937-light.h5 tag-1498093562//
/work/sebastian/BT-20210625/1009937-light/run1009937-light.h5 tag-1498093574//
/work/sebastian/BT-20210625/1009937-light/run1009937-light.h5 tag-1498093578//
/work/sebastian/BT-20210625/1009937-light/run1009937-light.h5 tag-1498093582//
/work/sebastian/BT-20210625/1009937-light/run1009937-light.h5 tag-1498093586//
/work/sebastian/BT-20210625/1009937-light/run1009937-light.h5 tag-1498093590//
/work/sebastian/BT-20210625/1009937-light/run1009937-light.h5 tag-1498093594//
/work/sebastian/BT-20210625/1009937-light/run1009937-light.h5 tag-1498093600//
/work/sebastian/BT-20210625/1009937-light/run1009937-light.h5 tag-1498093602//
/work/sebastian/BT-20210625/1009937-light/run1009937-light.h5 tag-1498093604//
/work/sebastian/BT-20210625/1009937-light/run1009937-light.h5 tag-1498093608//
/work/sebastian/BT-20210625/1009937-light/run1009937-light.h5 tag-1498093620//
/work/sebastian/BT-20210625/1009937-light/run1009937-light.h5 tag-1498093622//
/work/sebastian/BT-20210625/1009937-light/run1009937-light.h5 tag-1498093626//
/work/sebastian/BT-20210625/1009937-light/run1009937-light.h5 tag-1498093628//
/work/sebastian/BT-20210625/1009937-light/run1009937-light.h5 tag-1498093632//
/work/sebastian/BT-20210625/1009937-light/run1009937-light.h5 tag-1498093636//
/work/sebastian/BT-20210625/1009937-light/run1009937-light.h5 tag-1498093640//
/work/sebastian/BT-20210625/1009937-light/run1009937-light.h5 tag-1498093644//
/work/sebastian/BT-20210625/1009937-light/run1009937-light.h5 tag-1498093646//
/work/sebastian/BT-20210625/1009937-light/run1009937-light.h5 tag-1498093648//
/work/sebastian/BT-20210625/1009937-light/run1009937-light.h5 tag-1498093652//
/work/sebastian/BT-20210625/1009937-light/run1009937-light.h5 tag-1498093656//
/work/sebastian/BT-20210625/1009937-light/run1009937-light.h5 tag-1498093664//
/work/sebastian/BT-20210625/1009937-light/run1009937-light.h5 tag-1498093670//
/work/sebastian/BT-20210625/1009937-light/run1009937-light.h5 tag-1498093672//
/work/sebastian/BT-20210625/1009937-light/run1009937-light.h5 tag-1498093676//
/work/sebastian/BT-20210625/1009937-light/run1009937-light.h5 tag-1498093678//
/work/sebastian/BT-20210625/1009937-light/run1009937-light.h5 tag-1498093682//
/work/sebastian/BT-20210625/1009937-light/run1009937-light.h5 tag-1498093684//
/work/sebastian/BT-20210625/1009937-light/run1009937-light.h5 tag-1498093704//
/work/sebastian/BT-20210625/1009937-light/run1009937-light.h5 tag-1498093708//
/work/sebastian/BT-20210625/1009937-light/run1009937-light.h5 tag-1498093720//
/work/sebastian/BT-20210625/1009937-light/run1009937-light.h5 tag-1498093722//
/work/sebastian/BT-20210625/1009937-light/run1009937-light.h5 tag-1498093726//
/work/sebastian/BT-20210625/1009937-light/run1009937-light.h5 tag-1498093728//
/work/sebastian/BT-20210625/1009937-light/run1009937-light.h5 tag-1498093732//
/work/sebastian/BT-20210625/1009937-light/run1009937-light.h5 tag-1498093738//
/work/sebastian/BT-20210625/1009937-light/run1009937-light.h5 tag-1498093740//
/work/sebastian/BT-20210625/1009937-light/run1009937-light.h5 tag-1498093742//
/work/sebastian/BT-20210625/1009937-light/run1009937-light.h5 tag-1498093744//
/work/sebastian/BT-20210625/1009937-light/run1009937-light.h5 tag-1498093748//
/work/sebastian/BT-20210625/1009937-light/run1009937-light.h5 tag-1498093750//
/work/sebastian/BT-20210625/1009937-light/run1009937-light.h5 tag-1498093768//
/work/sebastian/BT-20210625/1009937-light/run1009937-light.h5 tag-1498093786//
/work/sebastian/BT-20210625/1009937-light/run1009937-light.h5 tag-1498093788//
/work/sebastian/BT-20210625/1009937-light/run1009937-light.h5 tag-1498093790//
/work/sebastian/BT-20210625/1009937-light/run1009937-light.h5 tag-1498093804//
/work/sebastian/BT-20210625/1009937-light/run1009937-light.h5 tag-1498093812//
/work/sebastian/BT-20210625/1009937-light/run1009937-light.h5 tag-1498093820//
/work/sebastian/BT-20210625/1009937-light/run1009937-light.h5 tag-1498093826//
/work/sebastian/BT-20210625/1009937-light/run1009937-light.h5 tag-1498093832//
/work/sebastian/BT-20210625/1009937-light/run1009937-light.h5 tag-1498093846//
/work/sebastian/BT-20210625/1009937-light/run1009937-light.h5 tag-1498093852//
/work/sebastian/BT-20210625/1009937-light/run1009937-light.h5 tag-1498093854//
/work/sebastian/BT-20210625/1009937-light/run1009937-light.h5 tag-1498093856//
/work/sebastian/BT-20210625/1009937-light/run1009937-light.h5 tag-1498093858//
/work/sebastian/BT-20210625/1009937-light/run1009937-light.h5 tag-1498093860//
/work/sebastian/BT-20210625/1009937-light/run1009937-light.h5 tag-1498093864//
/work/sebastian/BT-20210625/1009937-light/run1009937-light.h5 tag-1498093874//
/work/sebastian/BT-20210625/1009937-light/run1009937-light.h5 tag-1498093876//
/work/sebastian/BT-20210625/1009937-light/run1009937-light.h5 tag-1498093882//
/work/sebastian/BT-20210625/1009937-light/run1009937-light.h5 tag-1498093884//
/work/sebastian/BT-20210625/1009937-light/run1009937-light.h5 tag-1498093886//
/work/sebastian/BT-20210625/1009937-light/run1009937-light.h5 tag-1498093888//
/work/sebastian/BT-20210625/1009937-light/run1009937-light.h5 tag-1498093890//
/work/sebastian/BT-20210625/1009937-light/run1009937-light.h5 tag-1498093896//
/work/sebastian/BT-20210625/1009937-light/run1009937-light.h5 tag-1498093900//
/work/sebastian/BT-20210625/1009937-light/run1009937-light.h5 tag-1498093902//
/work/sebastian/BT-20210625/1009937-light/run1009937-light.h5 tag-1498093904//
/work/sebastian/BT-20210625/1009937-light/run1009937-light.h5 tag-1498093906//
/work/sebastian/BT-20210625/1009937-light/run1009937-light.h5 tag-1498093908//
/work/sebastian/BT-20210625/1009937-light/run1009937-light.h5 tag-1498093912//
/work/sebastian/BT-20210625/1009937-light/run1009937-light.h5 tag-1498093918//
/work/sebastian/BT-20210625/1009937-light/run1009937-light.h5 tag-1498093924//
/work/sebastian/BT-20210625/1009937-light/run1009937-light.h5 tag-1498093926//
/work/sebastian/BT-20210625/1009937-light/run1009937-light.h5 tag-1498093932//
/work/sebastian/BT-20210625/1009937-light/run1009937-light.h5 tag-1498093938//
/work/sebastian/BT-20210625/1009937-light/run1009937-light.h5 tag-1498093942//
/work/sebastian/BT-20210625/1009937-light/run1009937-light.h5 tag-1498093952//
/work/sebastian/BT-20210625/1009937-light/run1009937-light.h5 tag-1498093954//
/work/sebastian/BT-20210625/1009937-light/run1009937-light.h5 tag-1498093956//
/work/sebastian/BT-20210625/1009937-light/run1009937-light.h5 tag-1498093960//
/work/sebastian/BT-20210625/1009937-light/run1009937-light.h5 tag-1498093962//
/work/sebastian/BT-20210625/1009937-light/run1009937-light.h5 tag-1498093970//
/work/sebastian/BT-20210625/1009937-light/run1009937-light.h5 tag-1498093972//
/work/sebastian/BT-20210625/1009937-light/run1009937-light.h5 tag-1498093974//
/work/sebastian/BT-20210625/1009937-light/run1009937-light.h5 tag-1498093980//
/work/sebastian/BT-20210625/1009937-light/run1009937-light.h5 tag-1498093984//
/work/sebastian/BT-20210625/1009937-light/run1009937-light.h5 tag-1498093986//
/work/sebastian/BT-20210625/1009937-light/run1009937-light.h5 tag-1498093992//
/work/sebastian/BT-20210625/1009937-light/run1009937-light.h5 tag-1498093994//
/work/sebastian/BT-20210625/1009937-light/run1009937-light.h5 tag-1498094000//
/work/sebastian/BT-20210625/1009937-light/run1009937-light.h5 tag-1498094002//
/work/sebastian/BT-20210625/1009937-light/run1009937-light.h5 tag-1498094004//
/work/sebastian/BT-20210625/1009937-light/run1009937-light.h5 tag-1498094006//
/work/sebastian/BT-20210625/1009937-light/run1009937-light.h5 tag-1498094008//
/work/sebastian/BT-20210625/1009937-light/run1009937-light.h5 tag-1498094010//
/work/sebastian/BT-20210625/1009937-light/run1009937-light.h5 tag-1498094012//
/work/sebastian/BT-20210625/1009937-light/run1009937-light.h5 tag-1498094016//
/work/sebastian/BT-20210625/1009937-light/run1009937-light.h5 tag-1498094018//
/work/sebastian/BT-20210625/1009937-light/run1009937-light.h5 tag-1498094026//
/work/sebastian/BT-20210625/1009937-light/run1009937-light.h5 tag-1498094028//
/work/sebastian/BT-20210625/1009937-light/run1009937-light.h5 tag-1498094034//
/work/sebastian/BT-20210625/1009937-light/run1009937-light.h5 tag-1498094050//
/work/sebastian/BT-20210625/1009937-light/run1009937-light.h5 tag-1498094058//
/work/sebastian/BT-20210625/1009937-light/run1009937-light.h5 tag-1498094066//
/work/sebastian/BT-20210625/1009937-light/run1009937-light.h5 tag-1498094070//
/work/sebastian/BT-20210625/1009937-light/run1009937-light.h5 tag-1498094076//
/work/sebastian/BT-20210625/1009937-light/run1009937-light.h5 tag-1498094082//
/work/sebastian/BT-20210625/1009937-light/run1009937-light.h5 tag-1498094086//
/work/sebastian/BT-20210625/1009937-light/run1009937-light.h5 tag-1498094088//
/work/sebastian/BT-20210625/1009937-light/run1009937-light.h5 tag-1498094094//
/work/sebastian/BT-20210625/1009937-light/run1009937-light.h5 tag-1498094102//
/work/sebastian/BT-20210625/1009937-light/run1009937-light.h5 tag-1498094110//
/work/sebastian/BT-20210625/1009937-light/run1009937-light.h5 tag-1498094112//
/work/sebastian/BT-20210625/1009937-light/run1009937-light.h5 tag-1498094114//
/work/sebastian/BT-20210625/1009937-light/run1009937-light.h5 tag-1498094116//
/work/sebastian/BT-20210625/1009937-light/run1009937-light.h5 tag-1498094118//
/work/sebastian/BT-20210625/1009937-light/run1009937-light.h5 tag-1498094120//
/work/sebastian/BT-20210625/1009937-light/run1009937-light.h5 tag-1498094122//
/work/sebastian/BT-20210625/1009937-light/run1009937-light.h5 tag-1498094128//
/work/sebastian/BT-20210625/1009937-light/run1009937-light.h5 tag-1498094132//
/work/sebastian/BT-20210625/1009937-light/run1009937-light.h5 tag-1498094138//
/work/sebastian/BT-20210625/1009937-light/run1009937-light.h5 tag-1498094140//
/work/sebastian/BT-20210625/1009937-light/run1009937-light.h5 tag-1498094142//
/work/sebastian/BT-20210625/1009937-light/run1009937-light.h5 tag-1498094146//
/work/sebastian/BT-20210625/1009937-light/run1009937-light.h5 tag-1498094148//
/work/sebastian/BT-20210625/1009937-light/run1009937-light.h5 tag-1498094154//
/work/sebastian/BT-20210625/1009937-light/run1009937-light.h5 tag-1498094156//
/work/sebastian/BT-20210625/1009937-light/run1009937-light.h5 tag-1498094160//
/work/sebastian/BT-20210625/1009937-light/run1009937-light.h5 tag-1498094162//
/work/sebastian/BT-20210625/1009937-light/run1009937-light.h5 tag-1498094168//
/work/sebastian/BT-20210625/1009937-light/run1009937-light.h5 tag-1498094176//
/work/sebastian/BT-20210625/1009937-light/run1009937-light.h5 tag-1498094192//
/work/sebastian/BT-20210625/1009937-light/run1009937-light.h5 tag-1498094196//
/work/sebastian/BT-20210625/1009937-light/run1009937-light.h5 tag-1498094200//
/work/sebastian/BT-20210625/1009937-light/run1009937-light.h5 tag-1498094208//
/work/sebastian/BT-20210625/1009937-light/run1009937-light.h5 tag-1498094210//
/work/sebastian/BT-20210625/1009937-light/run1009937-light.h5 tag-1498094216//
/work/sebastian/BT-20210625/1009937-light/run1009937-light.h5 tag-1498094220//
/work/sebastian/BT-20210625/1009937-light/run1009937-light.h5 tag-1498094222//
/work/sebastian/BT-20210625/1009937-light/run1009937-light.h5 tag-1498094224//
/work/sebastian/BT-20210625/1009937-light/run1009937-light.h5 tag-1498094226//
/work/sebastian/BT-20210625/1009937-light/run1009937-light.h5 tag-1498094234//
/work/sebastian/BT-20210625/1009937-light/run1009937-light.h5 tag-1498094236//
/work/sebastian/BT-20210625/1009937-light/run1009937-light.h5 tag-1498094240//
/work/sebastian/BT-20210625/1009937-light/run1009937-light.h5 tag-1498094246//
/work/sebastian/BT-20210625/1009937-light/run1009937-light.h5 tag-1498094250//
/work/sebastian/BT-20210625/1009937-light/run1009937-light.h5 tag-1498094252//
/work/sebastian/BT-20210625/1009937-light/run1009937-light.h5 tag-1498094254//
/work/sebastian/BT-20210625/1009937-light/run1009937-light.h5 tag-1498094262//
/work/sebastian/BT-20210625/1009937-light/run1009937-light.h5 tag-1498094266//
/work/sebastian/BT-20210625/1009937-light/run1009937-light.h5 tag-1498094270//
/work/sebastian/BT-20210625/1009937-light/run1009937-light.h5 tag-1498094276//
/work/sebastian/BT-20210625/1009937-light/run1009937-light.h5 tag-1498094278//
/work/sebastian/BT-20210625/1009937-light/run1009937-light.h5 tag-1498094284//
/work/sebastian/BT-20210625/1009937-light/run1009937-light.h5 tag-1498094290//
/work/sebastian/BT-20210625/1009937-light/run1009937-light.h5 tag-1498094294//
/work/sebastian/BT-20210625/1009937-light/run1009937-light.h5 tag-1498094298//
/work/sebastian/BT-20210625/1009937-light/run1009937-light.h5 tag-1498094304//
/work/sebastian/BT-20210625/1009937-light/run1009937-light.h5 tag-1498094308//
/work/sebastian/BT-20210625/1009937-light/run1009937-light.h5 tag-1498094322//
/work/sebastian/BT-20210625/1009937-light/run1009937-light.h5 tag-1498094324//
/work/sebastian/BT-20210625/1009937-light/run1009937-light.h5 tag-1498094326//
/work/sebastian/BT-20210625/1009937-light/run1009937-light.h5 tag-1498094328//
/work/sebastian/BT-20210625/1009937-light/run1009937-light.h5 tag-1498094336//
/work/sebastian/BT-20210625/1009937-light/run1009937-light.h5 tag-1498094340//
/work/sebastian/BT-20210625/1009937-light/run1009937-light.h5 tag-1498094342//
/work/sebastian/BT-20210625/1009937-light/run1009937-light.h5 tag-1498094344//
/work/sebastian/BT-20210625/1009937-light/run1009937-light.h5 tag-1498094346//
/work/sebastian/BT-20210625/1009937-light/run1009937-light.h5 tag-1498094348//
/work/sebastian/BT-20210625/1009937-light/run1009937-light.h5 tag-1498094350//
/work/sebastian/BT-20210625/1009937-light/run1009937-light.h5 tag-1498094354//
/work/sebastian/BT-20210625/1009937-light/run1009937-light.h5 tag-1498094358//
/work/sebastian/BT-20210625/1009937-light/run1009937-light.h5 tag-1498094362//
/work/sebastian/BT-20210625/1009937-light/run1009937-light.h5 tag-1498094364//
/work/sebastian/BT-20210625/1009937-light/run1009937-light.h5 tag-1498094368//
/work/sebastian/BT-20210625/1009937-light/run1009937-light.h5 tag-1498094374//
/work/sebastian/BT-20210625/1009937-light/run1009937-light.h5 tag-1498094380//
/work/sebastian/BT-20210625/1009937-light/run1009937-light.h5 tag-1498094382//
/work/sebastian/BT-20210625/1009937-light/run1009937-light.h5 tag-1498094386//
/work/sebastian/BT-20210625/1009937-light/run1009937-light.h5 tag-1498094388//
/work/sebastian/BT-20210625/1009937-light/run1009937-light.h5 tag-1498094390//
/work/sebastian/BT-20210625/1009937-light/run1009937-light.h5 tag-1498094398//
/work/sebastian/BT-20210625/1009937-light/run1009937-light.h5 tag-1498094400//
/work/sebastian/BT-20210625/1009937-light/run1009937-light.h5 tag-1498094404//
/work/sebastian/BT-20210625/1009937-light/run1009937-light.h5 tag-1498094408//
/work/sebastian/BT-20210625/1009937-light/run1009937-light.h5 tag-1498094414//
/work/sebastian/BT-20210625/1009937-light/run1009937-light.h5 tag-1498094422//
/work/sebastian/BT-20210625/1009937-light/run1009937-light.h5 tag-1498094426//
/work/sebastian/BT-20210625/1009937-light/run1009937-light.h5 tag-1498094432//
/work/sebastian/BT-20210625/1009937-light/run1009937-light.h5 tag-1498094434//
/work/sebastian/BT-20210625/1009937-light/run1009937-light.h5 tag-1498094446//
/work/sebastian/BT-20210625/1009937-light/run1009937-light.h5 tag-1498094448//
/work/sebastian/BT-20210625/1009937-light/run1009937-light.h5 tag-1498094450//
/work/sebastian/BT-20210625/1009937-light/run1009937-light.h5 tag-1498094458//
/work/sebastian/BT-20210625/1009937-light/run1009937-light.h5 tag-1498094460//
/work/sebastian/BT-20210625/1009937-light/run1009937-light.h5 tag-1498094462//
/work/sebastian/BT-20210625/1009937-light/run1009937-light.h5 tag-1498094466//
/work/sebastian/BT-20210625/1009937-light/run1009937-light.h5 tag-1498094478//
/work/sebastian/BT-20210625/1009937-light/run1009937-light.h5 tag-1498094482//
/work/sebastian/BT-20210625/1009937-light/run1009937-light.h5 tag-1498094484//
/work/sebastian/BT-20210625/1009937-light/run1009937-light.h5 tag-1498094486//
/work/sebastian/BT-20210625/1009937-light/run1009937-light.h5 tag-1498094488//
/work/sebastian/BT-20210625/1009937-light/run1009937-light.h5 tag-1498094490//
/work/sebastian/BT-20210625/1009937-light/run1009937-light.h5 tag-1498094498//
/work/sebastian/BT-20210625/1009937-light/run1009937-light.h5 tag-1498094508//
/work/sebastian/BT-20210625/1009937-light/run1009937-light.h5 tag-1498094510//
/work/sebastian/BT-20210625/1009937-light/run1009937-light.h5 tag-1498094514//
/work/sebastian/BT-20210625/1009937-light/run1009937-light.h5 tag-1498094516//
/work/sebastian/BT-20210625/1009937-light/run1009937-light.h5 tag-1498094518//
/work/sebastian/BT-20210625/1009937-light/run1009937-light.h5 tag-1498094520//
/work/sebastian/BT-20210625/1009937-light/run1009937-light.h5 tag-1498094534//
/work/sebastian/BT-20210625/1009937-light/run1009937-light.h5 tag-1498094540//
/work/sebastian/BT-20210625/1009937-light/run1009937-light.h5 tag-1498094542//
/work/sebastian/BT-20210625/1009937-light/run1009937-light.h5 tag-1498094544//
/work/sebastian/BT-20210625/1009937-light/run1009937-light.h5 tag-1498094550//
/work/sebastian/BT-20210625/1009937-light/run1009937-light.h5 tag-1498094552//
/work/sebastian/BT-20210625/1009937-light/run1009937-light.h5 tag-1498094568//
/work/sebastian/BT-20210625/1009937-light/run1009937-light.h5 tag-1498094570//
/work/sebastian/BT-20210625/1009937-light/run1009937-light.h5 tag-1498094572//
/work/sebastian/BT-20210625/1009937-light/run1009937-light.h5 tag-1498094578//
/work/sebastian/BT-20210625/1009937-light/run1009937-light.h5 tag-1498094584//
/work/sebastian/BT-20210625/1009937-light/run1009937-light.h5 tag-1498094586//
/work/sebastian/BT-20210625/1009937-light/run1009937-light.h5 tag-1498094590//
/work/sebastian/BT-20210625/1009937-light/run1009937-light.h5 tag-1498094600//
/work/sebastian/BT-20210625/1009937-light/run1009937-light.h5 tag-1498094604//
/work/sebastian/BT-20210625/1009937-light/run1009937-light.h5 tag-1498094606//
/work/sebastian/BT-20210625/1009937-light/run1009937-light.h5 tag-1498094608//
/work/sebastian/BT-20210625/1009937-light/run1009937-light.h5 tag-1498094610//
/work/sebastian/BT-20210625/1009937-light/run1009937-light.h5 tag-1498094612//
/work/sebastian/BT-20210625/1009937-light/run1009937-light.h5 tag-1498094620//
/work/sebastian/BT-20210625/1009937-light/run1009937-light.h5 tag-1498094624//
/work/sebastian/BT-20210625/1009937-light/run1009937-light.h5 tag-1498094626//
/work/sebastian/BT-20210625/1009937-light/run1009937-light.h5 tag-1498094630//
/work/sebastian/BT-20210625/1009937-light/run1009937-light.h5 tag-1498094632//
/work/sebastian/BT-20210625/1009937-light/run1009937-light.h5 tag-1498094640//
/work/sebastian/BT-20210625/1009937-light/run1009937-light.h5 tag-1498094642//
/work/sebastian/BT-20210625/1009937-light/run1009937-light.h5 tag-1498094644//
/work/sebastian/BT-20210625/1009937-light/run1009937-light.h5 tag-1498094648//
/work/sebastian/BT-20210625/1009937-light/run1009937-light.h5 tag-1498094662//
/work/sebastian/BT-20210625/1009937-light/run1009937-light.h5 tag-1498094664//
/work/sebastian/BT-20210625/1009937-light/run1009937-light.h5 tag-1498094668//
/work/sebastian/BT-20210625/1009937-light/run1009937-light.h5 tag-1498094670//
/work/sebastian/BT-20210625/1009937-light/run1009937-light.h5 tag-1498094672//
/work/sebastian/BT-20210625/1009937-light/run1009937-light.h5 tag-1498094674//
/work/sebastian/BT-20210625/1009937-light/run1009937-light.h5 tag-1498094676//
/work/sebastian/BT-20210625/1009937-light/run1009937-light.h5 tag-1498094678//
/work/sebastian/BT-20210625/1009937-light/run1009937-light.h5 tag-1498094684//
/work/sebastian/BT-20210625/1009937-light/run1009937-light.h5 tag-1498094686//
/work/sebastian/BT-20210625/1009937-light/run1009937-light.h5 tag-1498094694//
/work/sebastian/BT-20210625/1009937-light/run1009937-light.h5 tag-1498094696//
/work/sebastian/BT-20210625/1009937-light/run1009937-light.h5 tag-1498094706//
/work/sebastian/BT-20210625/1009937-light/run1009937-light.h5 tag-1498094716//
/work/sebastian/BT-20210625/1009937-light/run1009937-light.h5 tag-1498094722//
/work/sebastian/BT-20210625/1009937-light/run1009937-light.h5 tag-1498094724//
/work/sebastian/BT-20210625/1009937-light/run1009937-light.h5 tag-1498094726//
/work/sebastian/BT-20210625/1009937-light/run1009937-light.h5 tag-1498094734//
/work/sebastian/BT-20210625/1009937-light/run1009937-light.h5 tag-1498094738//
/work/sebastian/BT-20210625/1009937-light/run1009937-light.h5 tag-1498094742//
/work/sebastian/BT-20210625/1009937-light/run1009937-light.h5 tag-1498094744//
/work/sebastian/BT-20210625/1009937-light/run1009937-light.h5 tag-1498094748//
/work/sebastian/BT-20210625/1009937-light/run1009937-light.h5 tag-1498094754//
/work/sebastian/BT-20210625/1009937-light/run1009937-light.h5 tag-1498094760//
/work/sebastian/BT-20210625/1009937-light/run1009937-light.h5 tag-1498094762//
/work/sebastian/BT-20210625/1009937-light/run1009937-light.h5 tag-1498094768//
/work/sebastian/BT-20210625/1009937-light/run1009937-light.h5 tag-1498094772//
/work/sebastian/BT-20210625/1009937-light/run1009937-light.h5 tag-1498094778//
/work/sebastian/BT-20210625/1009937-light/run1009937-light.h5 tag-1498094782//
/work/sebastian/BT-20210625/1009937-light/run1009937-light.h5 tag-1498094786//
/work/sebastian/BT-20210625/1009937-light/run1009937-light.h5 tag-1498094788//
/work/sebastian/BT-20210625/1009937-light/run1009937-light.h5 tag-1498094794//
/work/sebastian/BT-20210625/1009937-light/run1009937-light.h5 tag-1498094800//
/work/sebastian/BT-20210625/1009937-light/run1009937-light.h5 tag-1498094806//
/work/sebastian/BT-20210625/1009937-light/run1009937-light.h5 tag-1498094808//
/work/sebastian/BT-20210625/1009937-light/run1009937-light.h5 tag-1498094820//
/work/sebastian/BT-20210625/1009937-light/run1009937-light.h5 tag-1498094824//
/work/sebastian/BT-20210625/1009937-light/run1009937-light.h5 tag-1498094826//
/work/sebastian/BT-20210625/1009937-light/run1009937-light.h5 tag-1498094834//
/work/sebastian/BT-20210625/1009937-light/run1009937-light.h5 tag-1498094836//
/work/sebastian/BT-20210625/1009937-light/run1009937-light.h5 tag-1498094840//
/work/sebastian/BT-20210625/1009937-light/run1009937-light.h5 tag-1498094848//
/work/sebastian/BT-20210625/1009937-light/run1009937-light.h5 tag-1498094854//
/work/sebastian/BT-20210625/1009937-light/run1009937-light.h5 tag-1498094862//
/work/sebastian/BT-20210625/1009937-light/run1009937-light.h5 tag-1498094866//
/work/sebastian/BT-20210625/1009937-light/run1009937-light.h5 tag-1498094868//
/work/sebastian/BT-20210625/1009937-light/run1009937-light.h5 tag-1498094872//
/work/sebastian/BT-20210625/1009937-light/run1009937-light.h5 tag-1498094874//
/work/sebastian/BT-20210625/1009937-light/run1009937-light.h5 tag-1498094876//
/work/sebastian/BT-20210625/1009937-light/run1009937-light.h5 tag-1498094880//
/work/sebastian/BT-20210625/1009937-light/run1009937-light.h5 tag-1498094882//
/work/sebastian/BT-20210625/1009937-light/run1009937-light.h5 tag-1498094884//
/work/sebastian/BT-20210625/1009937-light/run1009937-light.h5 tag-1498094886//
/work/sebastian/BT-20210625/1009937-light/run1009937-light.h5 tag-1498094892//
/work/sebastian/BT-20210625/1009937-light/run1009937-light.h5 tag-1498094896//
/work/sebastian/BT-20210625/1009937-light/run1009937-light.h5 tag-1498094898//
/work/sebastian/BT-20210625/1009937-light/run1009937-light.h5 tag-1498094904//
/work/sebastian/BT-20210625/1009937-light/run1009937-light.h5 tag-1498094906//
/work/sebastian/BT-20210625/1009937-light/run1009937-light.h5 tag-1498094910//
/work/sebastian/BT-20210625/1009937-light/run1009937-light.h5 tag-1498094912//
/work/sebastian/BT-20210625/1009937-light/run1009937-light.h5 tag-1498094918//
/work/sebastian/BT-20210625/1009937-light/run1009937-light.h5 tag-1498094924//
/work/sebastian/BT-20210625/1009937-light/run1009937-light.h5 tag-1498094930//
/work/sebastian/BT-20210625/1009937-light/run1009937-light.h5 tag-1498094934//
/work/sebastian/BT-20210625/1009937-light/run1009937-light.h5 tag-1498094962//
/work/sebastian/BT-20210625/1009937-light/run1009937-light.h5 tag-1498094964//
/work/sebastian/BT-20210625/1009937-light/run1009937-light.h5 tag-1498094966//
/work/sebastian/BT-20210625/1009937-light/run1009937-light.h5 tag-1498094968//
/work/sebastian/BT-20210625/1009937-light/run1009937-light.h5 tag-1498094982//
/work/sebastian/BT-20210625/1009937-light/run1009937-light.h5 tag-1498094984//
/work/sebastian/BT-20210625/1009937-light/run1009937-light.h5 tag-1498094992//
/work/sebastian/BT-20210625/1009937-light/run1009937-light.h5 tag-1498094994//
/work/sebastian/BT-20210625/1009937-light/run1009937-light.h5 tag-1498095000//
/work/sebastian/BT-20210625/1009937-light/run1009937-light.h5 tag-1498095004//
/work/sebastian/BT-20210625/1009937-light/run1009937-light.h5 tag-1498095006//
/work/sebastian/BT-20210625/1009937-light/run1009937-light.h5 tag-1498095008//
/work/sebastian/BT-20210625/1009937-light/run1009937-light.h5 tag-1498095016//
/work/sebastian/BT-20210625/1009937-light/run1009937-light.h5 tag-1498095018//
/work/sebastian/BT-20210625/1009937-light/run1009937-light.h5 tag-1498095020//
/work/sebastian/BT-20210625/1009937-light/run1009937-light.h5 tag-1498095024//
/work/sebastian/BT-20210625/1009937-light/run1009937-light.h5 tag-1498095036//
/work/sebastian/BT-20210625/1009937-light/run1009937-light.h5 tag-1498095040//
/work/sebastian/BT-20210625/1009937-light/run1009937-light.h5 tag-1498095042//
/work/sebastian/BT-20210625/1009937-light/run1009937-light.h5 tag-1498095048//
/work/sebastian/BT-20210625/1009937-light/run1009937-light.h5 tag-1498095050//
/work/sebastian/BT-20210625/1009937-light/run1009937-light.h5 tag-1498095052//
/work/sebastian/BT-20210625/1009937-light/run1009937-light.h5 tag-1498095056//
/work/sebastian/BT-20210625/1009937-light/run1009937-light.h5 tag-1498095058//
/work/sebastian/BT-20210625/1009937-light/run1009937-light.h5 tag-1498095066//
/work/sebastian/BT-20210625/1009937-light/run1009937-light.h5 tag-1498095072//
/work/sebastian/BT-20210625/1009937-light/run1009937-light.h5 tag-1498095076//
/work/sebastian/BT-20210625/1009937-light/run1009937-light.h5 tag-1498095078//
/work/sebastian/BT-20210625/1009937-light/run1009937-light.h5 tag-1498095082//
/work/sebastian/BT-20210625/1009937-light/run1009937-light.h5 tag-1498095088//
/work/sebastian/BT-20210625/1009937-light/run1009937-light.h5 tag-1498095090//
/work/sebastian/BT-20210625/1009937-light/run1009937-light.h5 tag-1498095098//
/work/sebastian/BT-20210625/1009937-light/run1009937-light.h5 tag-1498095100//
/work/sebastian/BT-20210625/1009937-light/run1009937-light.h5 tag-1498095102//
/work/sebastian/BT-20210625/1009937-light/run1009937-light.h5 tag-1498095104//
/work/sebastian/BT-20210625/1009937-light/run1009937-light.h5 tag-1498095106//
/work/sebastian/BT-20210625/1009937-light/run1009937-light.h5 tag-1498095118//
/work/sebastian/BT-20210625/1009937-light/run1009937-light.h5 tag-1498095120//
/work/sebastian/BT-20210625/1009937-light/run1009937-light.h5 tag-1498095122//
/work/sebastian/BT-20210625/1009937-light/run1009937-light.h5 tag-1498095128//
/work/sebastian/BT-20210625/1009937-light/run1009937-light.h5 tag-1498095132//
/work/sebastian/BT-20210625/1009937-light/run1009937-light.h5 tag-1498095138//
/work/sebastian/BT-20210625/1009937-light/run1009937-light.h5 tag-1498095140//
/work/sebastian/BT-20210625/1009937-light/run1009937-light.h5 tag-1498095142//
/work/sebastian/BT-20210625/1009937-light/run1009937-light.h5 tag-1498095146//
/work/sebastian/BT-20210625/1009937-light/run1009937-light.h5 tag-1498095148//
/work/sebastian/BT-20210625/1009937-light/run1009937-light.h5 tag-1498095152//
/work/sebastian/BT-20210625/1009937-light/run1009937-light.h5 tag-1498095158//
/work/sebastian/BT-20210625/1009937-light/run1009937-light.h5 tag-1498095160//
/work/sebastian/BT-20210625/1009937-light/run1009937-light.h5 tag-1498095162//
/work/sebastian/BT-20210625/1009937-light/run1009937-light.h5 tag-1498095166//
/work/sebastian/BT-20210625/1009937-light/run1009937-light.h5 tag-1498095168//
/work/sebastian/BT-20210625/1009937-light/run1009937-light.h5 tag-1498095170//
/work/sebastian/BT-20210625/1009937-light/run1009937-light.h5 tag-1498095174//
/work/sebastian/BT-20210625/1009937-light/run1009937-light.h5 tag-1498095180//
/work/sebastian/BT-20210625/1009937-light/run1009937-light.h5 tag-1498095190//
/work/sebastian/BT-20210625/1009937-light/run1009937-light.h5 tag-1498095198//
/work/sebastian/BT-20210625/1009937-light/run1009937-light.h5 tag-1498095204//
/work/sebastian/BT-20210625/1009937-light/run1009937-light.h5 tag-1498095208//
/work/sebastian/BT-20210625/1009937-light/run1009937-light.h5 tag-1498095210//
/work/sebastian/BT-20210625/1009937-light/run1009937-light.h5 tag-1498095226//
/work/sebastian/BT-20210625/1009937-light/run1009937-light.h5 tag-1498095228//
/work/sebastian/BT-20210625/1009937-light/run1009937-light.h5 tag-1498095230//
/work/sebastian/BT-20210625/1009937-light/run1009937-light.h5 tag-1498095240//
/work/sebastian/BT-20210625/1009937-light/run1009937-light.h5 tag-1498095252//
/work/sebastian/BT-20210625/1009937-light/run1009937-light.h5 tag-1498095256//
/work/sebastian/BT-20210625/1009937-light/run1009937-light.h5 tag-1498095266//
/work/sebastian/BT-20210625/1009937-light/run1009937-light.h5 tag-1498095280//
/work/sebastian/BT-20210625/1009937-light/run1009937-light.h5 tag-1498095284//
/work/sebastian/BT-20210625/1009937-light/run1009937-light.h5 tag-1498095292//
/work/sebastian/BT-20210625/1009937-light/run1009937-light.h5 tag-1498095298//
/work/sebastian/BT-20210625/1009937-light/run1009937-light.h5 tag-1498095302//
/work/sebastian/BT-20210625/1009937-light/run1009937-light.h5 tag-1498095306//
/work/sebastian/BT-20210625/1009937-light/run1009937-light.h5 tag-1498095308//
/work/sebastian/BT-20210625/1009937-light/run1009937-light.h5 tag-1498095310//
/work/sebastian/BT-20210625/1009937-light/run1009937-light.h5 tag-1498095316//
/work/sebastian/BT-20210625/1009937-light/run1009937-light.h5 tag-1498095322//
/work/sebastian/BT-20210625/1009937-light/run1009937-light.h5 tag-1498095328//
/work/sebastian/BT-20210625/1009937-light/run1009937-light.h5 tag-1498095332//
/work/sebastian/BT-20210625/1009937-light/run1009937-light.h5 tag-1498095334//
/work/sebastian/BT-20210625/1009937-light/run1009937-light.h5 tag-1498095340//
/work/sebastian/BT-20210625/1009937-light/run1009937-light.h5 tag-1498095348//
/work/sebastian/BT-20210625/1009937-light/run1009937-light.h5 tag-1498095356//
/work/sebastian/BT-20210625/1009937-light/run1009937-light.h5 tag-1498095358//
/work/sebastian/BT-20210625/1009937-light/run1009937-light.h5 tag-1498095360//
/work/sebastian/BT-20210625/1009937-light/run1009937-light.h5 tag-1498095370//
/work/sebastian/BT-20210625/1009937-light/run1009937-light.h5 tag-1498095376//
/work/sebastian/BT-20210625/1009937-light/run1009937-light.h5 tag-1498095384//
/work/sebastian/BT-20210625/1009937-light/run1009937-light.h5 tag-1498095386//
/work/sebastian/BT-20210625/1009937-light/run1009937-light.h5 tag-1498095390//
/work/sebastian/BT-20210625/1009937-light/run1009937-light.h5 tag-1498095392//
/work/sebastian/BT-20210625/1009937-light/run1009937-light.h5 tag-1498095394//
/work/sebastian/BT-20210625/1009937-light/run1009937-light.h5 tag-1498095396//
/work/sebastian/BT-20210625/1009937-light/run1009937-light.h5 tag-1498095408//
/work/sebastian/BT-20210625/1009937-light/run1009937-light.h5 tag-1498095420//
/work/sebastian/BT-20210625/1009937-light/run1009937-light.h5 tag-1498095422//
/work/sebastian/BT-20210625/1009937-light/run1009937-light.h5 tag-1498095424//
/work/sebastian/BT-20210625/1009937-light/run1009937-light.h5 tag-1498095428//
/work/sebastian/BT-20210625/1009937-light/run1009937-light.h5 tag-1498095430//
/work/sebastian/BT-20210625/1009937-light/run1009937-light.h5 tag-1498095434//
/work/sebastian/BT-20210625/1009937-light/run1009937-light.h5 tag-1498095440//
/work/sebastian/BT-20210625/1009937-light/run1009937-light.h5 tag-1498095442//
/work/sebastian/BT-20210625/1009937-light/run1009937-light.h5 tag-1498095444//
/work/sebastian/BT-20210625/1009937-light/run1009937-light.h5 tag-1498095446//
/work/sebastian/BT-20210625/1009937-light/run1009937-light.h5 tag-1498095452//
/work/sebastian/BT-20210625/1009937-light/run1009937-light.h5 tag-1498095454//
/work/sebastian/BT-20210625/1009937-light/run1009937-light.h5 tag-1498095456//
/work/sebastian/BT-20210625/1009937-light/run1009937-light.h5 tag-1498095458//
/work/sebastian/BT-20210625/1009937-light/run1009937-light.h5 tag-1498095460//
/work/sebastian/BT-20210625/1009937-light/run1009937-light.h5 tag-1498095472//
/work/sebastian/BT-20210625/1009937-light/run1009937-light.h5 tag-1498095476//
/work/sebastian/BT-20210625/1009937-light/run1009937-light.h5 tag-1498095480//
/work/sebastian/BT-20210625/1009937-light/run1009937-light.h5 tag-1498095482//
/work/sebastian/BT-20210625/1009937-light/run1009937-light.h5 tag-1498095486//
/work/sebastian/BT-20210625/1009937-light/run1009937-light.h5 tag-1498095492//
/work/sebastian/BT-20210625/1009937-light/run1009937-light.h5 tag-1498095496//
/work/sebastian/BT-20210625/1009937-light/run1009937-light.h5 tag-1498095500//
/work/sebastian/BT-20210625/1009937-light/run1009937-light.h5 tag-1498095502//
/work/sebastian/BT-20210625/1009937-light/run1009937-light.h5 tag-1498095510//
/work/sebastian/BT-20210625/1009937-light/run1009937-light.h5 tag-1498095512//
/work/sebastian/BT-20210625/1009937-light/run1009937-light.h5 tag-1498095514//
/work/sebastian/BT-20210625/1009937-light/run1009937-light.h5 tag-1498095516//
/work/sebastian/BT-20210625/1009937-light/run1009937-light.h5 tag-1498095522//
/work/sebastian/BT-20210625/1009937-light/run1009937-light.h5 tag-1498095524//
/work/sebastian/BT-20210625/1009937-light/run1009937-light.h5 tag-1498095526//
/work/sebastian/BT-20210625/1009937-light/run1009937-light.h5 tag-1498095530//
/work/sebastian/BT-20210625/1009937-light/run1009937-light.h5 tag-1498095538//
/work/sebastian/BT-20210625/1009937-light/run1009937-light.h5 tag-1498095544//
/work/sebastian/BT-20210625/1009937-light/run1009937-light.h5 tag-1498095550//
/work/sebastian/BT-20210625/1009937-light/run1009937-light.h5 tag-1498095552//
/work/sebastian/BT-20210625/1009937-light/run1009937-light.h5 tag-1498095556//
/work/sebastian/BT-20210625/1009937-light/run1009937-light.h5 tag-1498095560//
/work/sebastian/BT-20210625/1009937-light/run1009937-light.h5 tag-1498095566//
/work/sebastian/BT-20210625/1009937-light/run1009937-light.h5 tag-1498095578//
/work/sebastian/BT-20210625/1009937-light/run1009937-light.h5 tag-1498095580//
/work/sebastian/BT-20210625/1009937-light/run1009937-light.h5 tag-1498095582//
/work/sebastian/BT-20210625/1009937-light/run1009937-light.h5 tag-1498095586//
/work/sebastian/BT-20210625/1009937-light/run1009937-light.h5 tag-1498095588//
/work/sebastian/BT-20210625/1009937-light/run1009937-light.h5 tag-1498095594//
/work/sebastian/BT-20210625/1009937-light/run1009937-light.h5 tag-1498095596//
/work/sebastian/BT-20210625/1009937-light/run1009937-light.h5 tag-1498095604//
/work/sebastian/BT-20210625/1009937-light/run1009937-light.h5 tag-1498095610//
/work/sebastian/BT-20210625/1009937-light/run1009937-light.h5 tag-1498095612//
/work/sebastian/BT-20210625/1009937-light/run1009937-light.h5 tag-1498095620//
/work/sebastian/BT-20210625/1009937-light/run1009937-light.h5 tag-1498095630//
/work/sebastian/BT-20210625/1009937-light/run1009937-light.h5 tag-1498095636//
/work/sebastian/BT-20210625/1009937-light/run1009937-light.h5 tag-1498095640//
/work/sebastian/BT-20210625/1009937-light/run1009937-light.h5 tag-1498095642//
/work/sebastian/BT-20210625/1009937-light/run1009937-light.h5 tag-1498095644//
/work/sebastian/BT-20210625/1009937-light/run1009937-light.h5 tag-1498095648//
/work/sebastian/BT-20210625/1009937-light/run1009937-light.h5 tag-1498095652//
/work/sebastian/BT-20210625/1009937-light/run1009937-light.h5 tag-1498095656//
/work/sebastian/BT-20210625/1009937-light/run1009937-light.h5 tag-1498095660//
/work/sebastian/BT-20210625/1009937-light/run1009937-light.h5 tag-1498095668//
/work/sebastian/BT-20210625/1009937-light/run1009937-light.h5 tag-1498095674//
/work/sebastian/BT-20210625/1009937-light/run1009937-light.h5 tag-1498095678//
/work/sebastian/BT-20210625/1009937-light/run1009937-light.h5 tag-1498095684//
/work/sebastian/BT-20210625/1009937-light/run1009937-light.h5 tag-1498095686//
/work/sebastian/BT-20210625/1009937-light/run1009937-light.h5 tag-1498095688//
/work/sebastian/BT-20210625/1009937-light/run1009937-light.h5 tag-1498095694//
/work/sebastian/BT-20210625/1009937-light/run1009937-light.h5 tag-1498095696//
/work/sebastian/BT-20210625/1009937-light/run1009937-light.h5 tag-1498095704//
/work/sebastian/BT-20210625/1009937-light/run1009937-light.h5 tag-1498095710//
/work/sebastian/BT-20210625/1009937-light/run1009937-light.h5 tag-1498095712//
/work/sebastian/BT-20210625/1009937-light/run1009937-light.h5 tag-1498095716//
/work/sebastian/BT-20210625/1009937-light/run1009937-light.h5 tag-1498095718//
/work/sebastian/BT-20210625/1009937-light/run1009937-light.h5 tag-1498095720//
/work/sebastian/BT-20210625/1009937-light/run1009937-light.h5 tag-1498095722//
/work/sebastian/BT-20210625/1009937-light/run1009937-light.h5 tag-1498095726//
/work/sebastian/BT-20210625/1009937-light/run1009937-light.h5 tag-1498095728//
/work/sebastian/BT-20210625/1009937-light/run1009937-light.h5 tag-1498095736//
/work/sebastian/BT-20210625/1009937-light/run1009937-light.h5 tag-1498095738//
/work/sebastian/BT-20210625/1009937-light/run1009937-light.h5 tag-1498095744//
/work/sebastian/BT-20210625/1009937-light/run1009937-light.h5 tag-1498095746//
/work/sebastian/BT-20210625/1009937-light/run1009937-light.h5 tag-1498095750//
/work/sebastian/BT-20210625/1009937-light/run1009937-light.h5 tag-1498095754//
/work/sebastian/BT-20210625/1009937-light/run1009937-light.h5 tag-1498095756//
/work/sebastian/BT-20210625/1009937-light/run1009937-light.h5 tag-1498095758//
/work/sebastian/BT-20210625/1009937-light/run1009937-light.h5 tag-1498095768//
/work/sebastian/BT-20210625/1009937-light/run1009937-light.h5 tag-1498095772//
/work/sebastian/BT-20210625/1009937-light/run1009937-light.h5 tag-1498095780//
/work/sebastian/BT-20210625/1009937-light/run1009937-light.h5 tag-1498095784//
/work/sebastian/BT-20210625/1009937-light/run1009937-light.h5 tag-1498095786//
/work/sebastian/BT-20210625/1009937-light/run1009937-light.h5 tag-1498095790//
/work/sebastian/BT-20210625/1009937-light/run1009937-light.h5 tag-1498095794//
/work/sebastian/BT-20210625/1009937-light/run1009937-light.h5 tag-1498095800//
/work/sebastian/BT-20210625/1009937-light/run1009937-light.h5 tag-1498095802//
/work/sebastian/BT-20210625/1009937-light/run1009937-light.h5 tag-1498095808//
/work/sebastian/BT-20210625/1009937-light/run1009937-light.h5 tag-1498095818//
/work/sebastian/BT-20210625/1009937-light/run1009937-light.h5 tag-1498095820//
/work/sebastian/BT-20210625/1009937-light/run1009937-light.h5 tag-1498095822//
/work/sebastian/BT-20210625/1009937-light/run1009937-light.h5 tag-1498095826//
/work/sebastian/BT-20210625/1009937-light/run1009937-light.h5 tag-1498095828//
/work/sebastian/BT-20210625/1009937-light/run1009937-light.h5 tag-1498095832//
/work/sebastian/BT-20210625/1009937-light/run1009937-light.h5 tag-1498095834//
/work/sebastian/BT-20210625/1009937-light/run1009937-light.h5 tag-1498095836//
/work/sebastian/BT-20210625/1009937-light/run1009937-light.h5 tag-1498095846//
/work/sebastian/BT-20210625/1009937-light/run1009937-light.h5 tag-1498095850//
/work/sebastian/BT-20210625/1009937-light/run1009937-light.h5 tag-1498095856//
/work/sebastian/BT-20210625/1009937-light/run1009937-light.h5 tag-1498095858//
/work/sebastian/BT-20210625/1009937-light/run1009937-light.h5 tag-1498095862//
/work/sebastian/BT-20210625/1009937-light/run1009937-light.h5 tag-1498095864//
/work/sebastian/BT-20210625/1009937-light/run1009937-light.h5 tag-1498095876//
/work/sebastian/BT-20210625/1009937-light/run1009937-light.h5 tag-1498095878//
/work/sebastian/BT-20210625/1009937-light/run1009937-light.h5 tag-1498095884//
/work/sebastian/BT-20210625/1009937-light/run1009937-light.h5 tag-1498095896//
/work/sebastian/BT-20210625/1009937-light/run1009937-light.h5 tag-1498095900//
/work/sebastian/BT-20210625/1009937-light/run1009937-light.h5 tag-1498095904//
/work/sebastian/BT-20210625/1009937-light/run1009937-light.h5 tag-1498095906//
/work/sebastian/BT-20210625/1009937-light/run1009937-light.h5 tag-1498095910//
/work/sebastian/BT-20210625/1009937-light/run1009937-light.h5 tag-1498095912//
/work/sebastian/BT-20210625/1009937-light/run1009937-light.h5 tag-1498095924//
/work/sebastian/BT-20210625/1009937-light/run1009937-light.h5 tag-1498095926//
/work/sebastian/BT-20210625/1009937-light/run1009937-light.h5 tag-1498095928//
/work/sebastian/BT-20210625/1009937-light/run1009937-light.h5 tag-1498095932//
/work/sebastian/BT-20210625/1009937-light/run1009937-light.h5 tag-1498095936//
/work/sebastian/BT-20210625/1009937-light/run1009937-light.h5 tag-1498095938//
/work/sebastian/BT-20210625/1009937-light/run1009937-light.h5 tag-1498095940//
/work/sebastian/BT-20210625/1009937-light/run1009937-light.h5 tag-1498095942//
/work/sebastian/BT-20210625/1009937-light/run1009937-light.h5 tag-1498095944//
/work/sebastian/BT-20210625/1009937-light/run1009937-light.h5 tag-1498095954//
/work/sebastian/BT-20210625/1009937-light/run1009937-light.h5 tag-1498095956//
/work/sebastian/BT-20210625/1009937-light/run1009937-light.h5 tag-1498095958//
/work/sebastian/BT-20210625/1009937-light/run1009937-light.h5 tag-1498095962//
/work/sebastian/BT-20210625/1009937-light/run1009937-light.h5 tag-1498095964//
/work/sebastian/BT-20210625/1009937-light/run1009937-light.h5 tag-1498095974//
/work/sebastian/BT-20210625/1009937-light/run1009937-light.h5 tag-1498095978//
/work/sebastian/BT-20210625/1009937-light/run1009937-light.h5 tag-1498095980//
/work/sebastian/BT-20210625/1009937-light/run1009937-light.h5 tag-1498095986//
/work/sebastian/BT-20210625/1009937-light/run1009937-light.h5 tag-1498095988//
/work/sebastian/BT-20210625/1009937-light/run1009937-light.h5 tag-1498096002//
/work/sebastian/BT-20210625/1009937-light/run1009937-light.h5 tag-1498096004//
/work/sebastian/BT-20210625/1009937-light/run1009937-light.h5 tag-1498096006//
/work/sebastian/BT-20210625/1009937-light/run1009937-light.h5 tag-1498096008//
/work/sebastian/BT-20210625/1009937-light/run1009937-light.h5 tag-1498096010//
/work/sebastian/BT-20210625/1009937-light/run1009937-light.h5 tag-1498096012//
/work/sebastian/BT-20210625/1009937-light/run1009937-light.h5 tag-1498096014//
/work/sebastian/BT-20210625/1009937-light/run1009937-light.h5 tag-1498096016//
/work/sebastian/BT-20210625/1009937-light/run1009937-light.h5 tag-1498096022//
/work/sebastian/BT-20210625/1009937-light/run1009937-light.h5 tag-1498096026//
/work/sebastian/BT-20210625/1009937-light/run1009937-light.h5 tag-1498096036//
/work/sebastian/BT-20210625/1009937-light/run1009937-light.h5 tag-1498096038//
/work/sebastian/BT-20210625/1009937-light/run1009937-light.h5 tag-1498096042//
/work/sebastian/BT-20210625/1009937-light/run1009937-light.h5 tag-1498096044//
/work/sebastian/BT-20210625/1009937-light/run1009937-light.h5 tag-1498096046//
/work/sebastian/BT-20210625/1009937-light/run1009937-light.h5 tag-1498096056//
/work/sebastian/BT-20210625/1009937-light/run1009937-light.h5 tag-1498096060//
/work/sebastian/BT-20210625/1009937-light/run1009937-light.h5 tag-1498096070//
/work/sebastian/BT-20210625/1009937-light/run1009937-light.h5 tag-1498096072//
/work/sebastian/BT-20210625/1009937-light/run1009937-light.h5 tag-1498096082//
/work/sebastian/BT-20210625/1009937-light/run1009937-light.h5 tag-1498096090//
/work/sebastian/BT-20210625/1009937-light/run1009937-light.h5 tag-1498096096//
/work/sebastian/BT-20210625/1009937-light/run1009937-light.h5 tag-1498096100//
/work/sebastian/BT-20210625/1009937-light/run1009937-light.h5 tag-1498096102//
/work/sebastian/BT-20210625/1009937-light/run1009937-light.h5 tag-1498096110//
/work/sebastian/BT-20210625/1009937-light/run1009937-light.h5 tag-1498096112//
/work/sebastian/BT-20210625/1009937-light/run1009937-light.h5 tag-1498096114//
/work/sebastian/BT-20210625/1009937-light/run1009937-light.h5 tag-1498096116//
/work/sebastian/BT-20210625/1009937-light/run1009937-light.h5 tag-1498096122//
/work/sebastian/BT-20210625/1009937-light/run1009937-light.h5 tag-1498096130//
/work/sebastian/BT-20210625/1009937-light/run1009937-light.h5 tag-1498096134//
/work/sebastian/BT-20210625/1009937-light/run1009937-light.h5 tag-1498096138//
/work/sebastian/BT-20210625/1009937-light/run1009937-light.h5 tag-1498096140//
/work/sebastian/BT-20210625/1009937-light/run1009937-light.h5 tag-1498096142//
/work/sebastian/BT-20210625/1009937-light/run1009937-light.h5 tag-1498096144//
/work/sebastian/BT-20210625/1009937-light/run1009937-light.h5 tag-1498096148//
/work/sebastian/BT-20210625/1009937-light/run1009937-light.h5 tag-1498096154//
/work/sebastian/BT-20210625/1009937-light/run1009937-light.h5 tag-1498096156//
/work/sebastian/BT-20210625/1009937-light/run1009937-light.h5 tag-1498096158//
/work/sebastian/BT-20210625/1009937-light/run1009937-light.h5 tag-1498096160//
/work/sebastian/BT-20210625/1009937-light/run1009937-light.h5 tag-1498096162//
/work/sebastian/BT-20210625/1009937-light/run1009937-light.h5 tag-1498096182//
/work/sebastian/BT-20210625/1009937-light/run1009937-light.h5 tag-1498096188//
