/work/sebastian/BT-20210625/1009872-light/run1009872-light.h5 tag-1497731214//
/work/sebastian/BT-20210625/1009872-light/run1009872-light.h5 tag-1497731220//
/work/sebastian/BT-20210625/1009872-light/run1009872-light.h5 tag-1497731224//
/work/sebastian/BT-20210625/1009872-light/run1009872-light.h5 tag-1497731226//
/work/sebastian/BT-20210625/1009872-light/run1009872-light.h5 tag-1497731230//
/work/sebastian/BT-20210625/1009872-light/run1009872-light.h5 tag-1497731232//
/work/sebastian/BT-20210625/1009872-light/run1009872-light.h5 tag-1497731236//
/work/sebastian/BT-20210625/1009872-light/run1009872-light.h5 tag-1497731242//
/work/sebastian/BT-20210625/1009872-light/run1009872-light.h5 tag-1497731244//
/work/sebastian/BT-20210625/1009872-light/run1009872-light.h5 tag-1497731248//
/work/sebastian/BT-20210625/1009872-light/run1009872-light.h5 tag-1497731256//
/work/sebastian/BT-20210625/1009872-light/run1009872-light.h5 tag-1497731262//
/work/sebastian/BT-20210625/1009872-light/run1009872-light.h5 tag-1497731270//
/work/sebastian/BT-20210625/1009872-light/run1009872-light.h5 tag-1497731272//
/work/sebastian/BT-20210625/1009872-light/run1009872-light.h5 tag-1497731280//
/work/sebastian/BT-20210625/1009872-light/run1009872-light.h5 tag-1497731286//
/work/sebastian/BT-20210625/1009872-light/run1009872-light.h5 tag-1497731294//
/work/sebastian/BT-20210625/1009872-light/run1009872-light.h5 tag-1497731296//
/work/sebastian/BT-20210625/1009872-light/run1009872-light.h5 tag-1497731302//
/work/sebastian/BT-20210625/1009872-light/run1009872-light.h5 tag-1497731314//
/work/sebastian/BT-20210625/1009872-light/run1009872-light.h5 tag-1497731316//
/work/sebastian/BT-20210625/1009872-light/run1009872-light.h5 tag-1497731318//
/work/sebastian/BT-20210625/1009872-light/run1009872-light.h5 tag-1497731320//
/work/sebastian/BT-20210625/1009872-light/run1009872-light.h5 tag-1497731328//
/work/sebastian/BT-20210625/1009872-light/run1009872-light.h5 tag-1497731330//
/work/sebastian/BT-20210625/1009872-light/run1009872-light.h5 tag-1497731336//
/work/sebastian/BT-20210625/1009872-light/run1009872-light.h5 tag-1497731340//
/work/sebastian/BT-20210625/1009872-light/run1009872-light.h5 tag-1497731346//
/work/sebastian/BT-20210625/1009872-light/run1009872-light.h5 tag-1497731348//
/work/sebastian/BT-20210625/1009872-light/run1009872-light.h5 tag-1497731352//
/work/sebastian/BT-20210625/1009872-light/run1009872-light.h5 tag-1497731354//
/work/sebastian/BT-20210625/1009872-light/run1009872-light.h5 tag-1497731358//
/work/sebastian/BT-20210625/1009872-light/run1009872-light.h5 tag-1497731366//
/work/sebastian/BT-20210625/1009872-light/run1009872-light.h5 tag-1497731372//
/work/sebastian/BT-20210625/1009872-light/run1009872-light.h5 tag-1497731382//
/work/sebastian/BT-20210625/1009872-light/run1009872-light.h5 tag-1497731392//
/work/sebastian/BT-20210625/1009872-light/run1009872-light.h5 tag-1497731398//
/work/sebastian/BT-20210625/1009872-light/run1009872-light.h5 tag-1497731400//
/work/sebastian/BT-20210625/1009872-light/run1009872-light.h5 tag-1497731404//
/work/sebastian/BT-20210625/1009872-light/run1009872-light.h5 tag-1497731406//
/work/sebastian/BT-20210625/1009872-light/run1009872-light.h5 tag-1497731408//
/work/sebastian/BT-20210625/1009872-light/run1009872-light.h5 tag-1497731414//
/work/sebastian/BT-20210625/1009872-light/run1009872-light.h5 tag-1497731416//
/work/sebastian/BT-20210625/1009872-light/run1009872-light.h5 tag-1497731424//
/work/sebastian/BT-20210625/1009872-light/run1009872-light.h5 tag-1497731430//
/work/sebastian/BT-20210625/1009872-light/run1009872-light.h5 tag-1497731432//
/work/sebastian/BT-20210625/1009872-light/run1009872-light.h5 tag-1497731438//
/work/sebastian/BT-20210625/1009872-light/run1009872-light.h5 tag-1497731454//
/work/sebastian/BT-20210625/1009872-light/run1009872-light.h5 tag-1497731458//
/work/sebastian/BT-20210625/1009872-light/run1009872-light.h5 tag-1497731464//
/work/sebastian/BT-20210625/1009872-light/run1009872-light.h5 tag-1497731468//
/work/sebastian/BT-20210625/1009872-light/run1009872-light.h5 tag-1497731470//
/work/sebastian/BT-20210625/1009872-light/run1009872-light.h5 tag-1497731474//
/work/sebastian/BT-20210625/1009872-light/run1009872-light.h5 tag-1497731482//
/work/sebastian/BT-20210625/1009872-light/run1009872-light.h5 tag-1497731498//
/work/sebastian/BT-20210625/1009872-light/run1009872-light.h5 tag-1497731508//
/work/sebastian/BT-20210625/1009872-light/run1009872-light.h5 tag-1497731512//
/work/sebastian/BT-20210625/1009872-light/run1009872-light.h5 tag-1497731514//
/work/sebastian/BT-20210625/1009872-light/run1009872-light.h5 tag-1497731516//
/work/sebastian/BT-20210625/1009872-light/run1009872-light.h5 tag-1497731518//
/work/sebastian/BT-20210625/1009872-light/run1009872-light.h5 tag-1497731520//
/work/sebastian/BT-20210625/1009872-light/run1009872-light.h5 tag-1497731524//
/work/sebastian/BT-20210625/1009872-light/run1009872-light.h5 tag-1497731526//
/work/sebastian/BT-20210625/1009872-light/run1009872-light.h5 tag-1497731528//
/work/sebastian/BT-20210625/1009872-light/run1009872-light.h5 tag-1497731532//
/work/sebastian/BT-20210625/1009872-light/run1009872-light.h5 tag-1497731534//
/work/sebastian/BT-20210625/1009872-light/run1009872-light.h5 tag-1497731538//
/work/sebastian/BT-20210625/1009872-light/run1009872-light.h5 tag-1497731540//
/work/sebastian/BT-20210625/1009872-light/run1009872-light.h5 tag-1497731548//
/work/sebastian/BT-20210625/1009872-light/run1009872-light.h5 tag-1497731550//
/work/sebastian/BT-20210625/1009872-light/run1009872-light.h5 tag-1497731554//
/work/sebastian/BT-20210625/1009872-light/run1009872-light.h5 tag-1497731556//
/work/sebastian/BT-20210625/1009872-light/run1009872-light.h5 tag-1497731560//
/work/sebastian/BT-20210625/1009872-light/run1009872-light.h5 tag-1497731562//
/work/sebastian/BT-20210625/1009872-light/run1009872-light.h5 tag-1497731568//
/work/sebastian/BT-20210625/1009872-light/run1009872-light.h5 tag-1497731570//
/work/sebastian/BT-20210625/1009872-light/run1009872-light.h5 tag-1497731576//
/work/sebastian/BT-20210625/1009872-light/run1009872-light.h5 tag-1497731580//
/work/sebastian/BT-20210625/1009872-light/run1009872-light.h5 tag-1497731586//
/work/sebastian/BT-20210625/1009872-light/run1009872-light.h5 tag-1497731588//
/work/sebastian/BT-20210625/1009872-light/run1009872-light.h5 tag-1497731594//
/work/sebastian/BT-20210625/1009872-light/run1009872-light.h5 tag-1497731598//
/work/sebastian/BT-20210625/1009872-light/run1009872-light.h5 tag-1497731602//
/work/sebastian/BT-20210625/1009872-light/run1009872-light.h5 tag-1497731610//
/work/sebastian/BT-20210625/1009872-light/run1009872-light.h5 tag-1497731612//
/work/sebastian/BT-20210625/1009872-light/run1009872-light.h5 tag-1497731614//
/work/sebastian/BT-20210625/1009872-light/run1009872-light.h5 tag-1497731616//
/work/sebastian/BT-20210625/1009872-light/run1009872-light.h5 tag-1497731622//
/work/sebastian/BT-20210625/1009872-light/run1009872-light.h5 tag-1497731624//
/work/sebastian/BT-20210625/1009872-light/run1009872-light.h5 tag-1497731630//
/work/sebastian/BT-20210625/1009872-light/run1009872-light.h5 tag-1497731632//
/work/sebastian/BT-20210625/1009872-light/run1009872-light.h5 tag-1497731634//
/work/sebastian/BT-20210625/1009872-light/run1009872-light.h5 tag-1497731638//
/work/sebastian/BT-20210625/1009872-light/run1009872-light.h5 tag-1497731640//
/work/sebastian/BT-20210625/1009872-light/run1009872-light.h5 tag-1497731652//
/work/sebastian/BT-20210625/1009872-light/run1009872-light.h5 tag-1497731654//
/work/sebastian/BT-20210625/1009872-light/run1009872-light.h5 tag-1497731660//
/work/sebastian/BT-20210625/1009872-light/run1009872-light.h5 tag-1497731662//
/work/sebastian/BT-20210625/1009872-light/run1009872-light.h5 tag-1497731664//
/work/sebastian/BT-20210625/1009872-light/run1009872-light.h5 tag-1497731676//
/work/sebastian/BT-20210625/1009872-light/run1009872-light.h5 tag-1497731680//
/work/sebastian/BT-20210625/1009872-light/run1009872-light.h5 tag-1497731682//
/work/sebastian/BT-20210625/1009872-light/run1009872-light.h5 tag-1497731684//
/work/sebastian/BT-20210625/1009872-light/run1009872-light.h5 tag-1497731686//
/work/sebastian/BT-20210625/1009872-light/run1009872-light.h5 tag-1497731694//
/work/sebastian/BT-20210625/1009872-light/run1009872-light.h5 tag-1497731696//
/work/sebastian/BT-20210625/1009872-light/run1009872-light.h5 tag-1497731704//
/work/sebastian/BT-20210625/1009872-light/run1009872-light.h5 tag-1497731708//
/work/sebastian/BT-20210625/1009872-light/run1009872-light.h5 tag-1497731710//
/work/sebastian/BT-20210625/1009872-light/run1009872-light.h5 tag-1497731714//
/work/sebastian/BT-20210625/1009872-light/run1009872-light.h5 tag-1497731720//
/work/sebastian/BT-20210625/1009872-light/run1009872-light.h5 tag-1497731722//
/work/sebastian/BT-20210625/1009872-light/run1009872-light.h5 tag-1497731726//
/work/sebastian/BT-20210625/1009872-light/run1009872-light.h5 tag-1497731728//
/work/sebastian/BT-20210625/1009872-light/run1009872-light.h5 tag-1497731730//
/work/sebastian/BT-20210625/1009872-light/run1009872-light.h5 tag-1497731734//
/work/sebastian/BT-20210625/1009872-light/run1009872-light.h5 tag-1497731736//
/work/sebastian/BT-20210625/1009872-light/run1009872-light.h5 tag-1497731746//
/work/sebastian/BT-20210625/1009872-light/run1009872-light.h5 tag-1497731748//
/work/sebastian/BT-20210625/1009872-light/run1009872-light.h5 tag-1497731762//
/work/sebastian/BT-20210625/1009872-light/run1009872-light.h5 tag-1497731764//
/work/sebastian/BT-20210625/1009872-light/run1009872-light.h5 tag-1497731770//
/work/sebastian/BT-20210625/1009872-light/run1009872-light.h5 tag-1497731772//
/work/sebastian/BT-20210625/1009872-light/run1009872-light.h5 tag-1497731778//
/work/sebastian/BT-20210625/1009872-light/run1009872-light.h5 tag-1497731780//
/work/sebastian/BT-20210625/1009872-light/run1009872-light.h5 tag-1497731784//
/work/sebastian/BT-20210625/1009872-light/run1009872-light.h5 tag-1497731790//
/work/sebastian/BT-20210625/1009872-light/run1009872-light.h5 tag-1497731796//
/work/sebastian/BT-20210625/1009872-light/run1009872-light.h5 tag-1497731802//
/work/sebastian/BT-20210625/1009872-light/run1009872-light.h5 tag-1497731804//
/work/sebastian/BT-20210625/1009872-light/run1009872-light.h5 tag-1497731816//
/work/sebastian/BT-20210625/1009872-light/run1009872-light.h5 tag-1497731820//
/work/sebastian/BT-20210625/1009872-light/run1009872-light.h5 tag-1497731822//
/work/sebastian/BT-20210625/1009872-light/run1009872-light.h5 tag-1497731828//
/work/sebastian/BT-20210625/1009872-light/run1009872-light.h5 tag-1497731836//
/work/sebastian/BT-20210625/1009872-light/run1009872-light.h5 tag-1497731838//
/work/sebastian/BT-20210625/1009872-light/run1009872-light.h5 tag-1497731842//
/work/sebastian/BT-20210625/1009872-light/run1009872-light.h5 tag-1497731850//
/work/sebastian/BT-20210625/1009872-light/run1009872-light.h5 tag-1497731854//
/work/sebastian/BT-20210625/1009872-light/run1009872-light.h5 tag-1497731856//
/work/sebastian/BT-20210625/1009872-light/run1009872-light.h5 tag-1497731858//
/work/sebastian/BT-20210625/1009872-light/run1009872-light.h5 tag-1497731860//
/work/sebastian/BT-20210625/1009872-light/run1009872-light.h5 tag-1497731866//
/work/sebastian/BT-20210625/1009872-light/run1009872-light.h5 tag-1497731868//
/work/sebastian/BT-20210625/1009872-light/run1009872-light.h5 tag-1497731870//
/work/sebastian/BT-20210625/1009872-light/run1009872-light.h5 tag-1497731872//
/work/sebastian/BT-20210625/1009872-light/run1009872-light.h5 tag-1497731876//
/work/sebastian/BT-20210625/1009872-light/run1009872-light.h5 tag-1497731878//
/work/sebastian/BT-20210625/1009872-light/run1009872-light.h5 tag-1497731882//
/work/sebastian/BT-20210625/1009872-light/run1009872-light.h5 tag-1497731890//
/work/sebastian/BT-20210625/1009872-light/run1009872-light.h5 tag-1497731892//
/work/sebastian/BT-20210625/1009872-light/run1009872-light.h5 tag-1497731894//
/work/sebastian/BT-20210625/1009872-light/run1009872-light.h5 tag-1497731896//
/work/sebastian/BT-20210625/1009872-light/run1009872-light.h5 tag-1497731898//
/work/sebastian/BT-20210625/1009872-light/run1009872-light.h5 tag-1497731906//
/work/sebastian/BT-20210625/1009872-light/run1009872-light.h5 tag-1497731912//
/work/sebastian/BT-20210625/1009872-light/run1009872-light.h5 tag-1497731918//
/work/sebastian/BT-20210625/1009872-light/run1009872-light.h5 tag-1497731922//
/work/sebastian/BT-20210625/1009872-light/run1009872-light.h5 tag-1497731926//
/work/sebastian/BT-20210625/1009872-light/run1009872-light.h5 tag-1497731930//
/work/sebastian/BT-20210625/1009872-light/run1009872-light.h5 tag-1497731932//
/work/sebastian/BT-20210625/1009872-light/run1009872-light.h5 tag-1497731934//
/work/sebastian/BT-20210625/1009872-light/run1009872-light.h5 tag-1497731936//
/work/sebastian/BT-20210625/1009872-light/run1009872-light.h5 tag-1497731946//
/work/sebastian/BT-20210625/1009872-light/run1009872-light.h5 tag-1497731952//
/work/sebastian/BT-20210625/1009872-light/run1009872-light.h5 tag-1497731954//
/work/sebastian/BT-20210625/1009872-light/run1009872-light.h5 tag-1497731962//
/work/sebastian/BT-20210625/1009872-light/run1009872-light.h5 tag-1497731964//
/work/sebastian/BT-20210625/1009872-light/run1009872-light.h5 tag-1497731966//
/work/sebastian/BT-20210625/1009872-light/run1009872-light.h5 tag-1497731968//
/work/sebastian/BT-20210625/1009872-light/run1009872-light.h5 tag-1497731974//
/work/sebastian/BT-20210625/1009872-light/run1009872-light.h5 tag-1497731982//
/work/sebastian/BT-20210625/1009872-light/run1009872-light.h5 tag-1497731984//
/work/sebastian/BT-20210625/1009872-light/run1009872-light.h5 tag-1497731986//
/work/sebastian/BT-20210625/1009872-light/run1009872-light.h5 tag-1497731988//
/work/sebastian/BT-20210625/1009872-light/run1009872-light.h5 tag-1497732000//
/work/sebastian/BT-20210625/1009872-light/run1009872-light.h5 tag-1497732002//
/work/sebastian/BT-20210625/1009872-light/run1009872-light.h5 tag-1497732006//
/work/sebastian/BT-20210625/1009872-light/run1009872-light.h5 tag-1497732012//
/work/sebastian/BT-20210625/1009872-light/run1009872-light.h5 tag-1497732018//
/work/sebastian/BT-20210625/1009872-light/run1009872-light.h5 tag-1497732020//
/work/sebastian/BT-20210625/1009872-light/run1009872-light.h5 tag-1497732030//
/work/sebastian/BT-20210625/1009872-light/run1009872-light.h5 tag-1497732034//
/work/sebastian/BT-20210625/1009872-light/run1009872-light.h5 tag-1497732042//
/work/sebastian/BT-20210625/1009872-light/run1009872-light.h5 tag-1497732044//
/work/sebastian/BT-20210625/1009872-light/run1009872-light.h5 tag-1497732050//
/work/sebastian/BT-20210625/1009872-light/run1009872-light.h5 tag-1497732064//
/work/sebastian/BT-20210625/1009872-light/run1009872-light.h5 tag-1497732066//
/work/sebastian/BT-20210625/1009872-light/run1009872-light.h5 tag-1497732068//
/work/sebastian/BT-20210625/1009872-light/run1009872-light.h5 tag-1497732070//
/work/sebastian/BT-20210625/1009872-light/run1009872-light.h5 tag-1497732078//
/work/sebastian/BT-20210625/1009872-light/run1009872-light.h5 tag-1497732082//
/work/sebastian/BT-20210625/1009872-light/run1009872-light.h5 tag-1497732084//
/work/sebastian/BT-20210625/1009872-light/run1009872-light.h5 tag-1497732088//
/work/sebastian/BT-20210625/1009872-light/run1009872-light.h5 tag-1497732090//
/work/sebastian/BT-20210625/1009872-light/run1009872-light.h5 tag-1497732092//
/work/sebastian/BT-20210625/1009872-light/run1009872-light.h5 tag-1497732096//
/work/sebastian/BT-20210625/1009872-light/run1009872-light.h5 tag-1497732100//
/work/sebastian/BT-20210625/1009872-light/run1009872-light.h5 tag-1497732104//
/work/sebastian/BT-20210625/1009872-light/run1009872-light.h5 tag-1497732106//
/work/sebastian/BT-20210625/1009872-light/run1009872-light.h5 tag-1497732108//
/work/sebastian/BT-20210625/1009872-light/run1009872-light.h5 tag-1497732112//
/work/sebastian/BT-20210625/1009872-light/run1009872-light.h5 tag-1497732126//
/work/sebastian/BT-20210625/1009872-light/run1009872-light.h5 tag-1497732130//
/work/sebastian/BT-20210625/1009872-light/run1009872-light.h5 tag-1497732132//
/work/sebastian/BT-20210625/1009872-light/run1009872-light.h5 tag-1497732138//
/work/sebastian/BT-20210625/1009872-light/run1009872-light.h5 tag-1497732140//
/work/sebastian/BT-20210625/1009872-light/run1009872-light.h5 tag-1497732160//
/work/sebastian/BT-20210625/1009872-light/run1009872-light.h5 tag-1497732166//
/work/sebastian/BT-20210625/1009872-light/run1009872-light.h5 tag-1497732168//
/work/sebastian/BT-20210625/1009872-light/run1009872-light.h5 tag-1497732174//
/work/sebastian/BT-20210625/1009872-light/run1009872-light.h5 tag-1497732180//
/work/sebastian/BT-20210625/1009872-light/run1009872-light.h5 tag-1497732184//
/work/sebastian/BT-20210625/1009872-light/run1009872-light.h5 tag-1497732186//
/work/sebastian/BT-20210625/1009872-light/run1009872-light.h5 tag-1497732190//
/work/sebastian/BT-20210625/1009872-light/run1009872-light.h5 tag-1497732194//
/work/sebastian/BT-20210625/1009872-light/run1009872-light.h5 tag-1497732200//
/work/sebastian/BT-20210625/1009872-light/run1009872-light.h5 tag-1497732204//
/work/sebastian/BT-20210625/1009872-light/run1009872-light.h5 tag-1497732208//
/work/sebastian/BT-20210625/1009872-light/run1009872-light.h5 tag-1497732212//
/work/sebastian/BT-20210625/1009872-light/run1009872-light.h5 tag-1497732218//
/work/sebastian/BT-20210625/1009872-light/run1009872-light.h5 tag-1497732226//
/work/sebastian/BT-20210625/1009872-light/run1009872-light.h5 tag-1497732232//
/work/sebastian/BT-20210625/1009872-light/run1009872-light.h5 tag-1497732240//
/work/sebastian/BT-20210625/1009872-light/run1009872-light.h5 tag-1497732242//
/work/sebastian/BT-20210625/1009872-light/run1009872-light.h5 tag-1497732244//
/work/sebastian/BT-20210625/1009872-light/run1009872-light.h5 tag-1497732248//
/work/sebastian/BT-20210625/1009872-light/run1009872-light.h5 tag-1497732250//
/work/sebastian/BT-20210625/1009872-light/run1009872-light.h5 tag-1497732254//
/work/sebastian/BT-20210625/1009872-light/run1009872-light.h5 tag-1497732258//
/work/sebastian/BT-20210625/1009872-light/run1009872-light.h5 tag-1497732262//
/work/sebastian/BT-20210625/1009872-light/run1009872-light.h5 tag-1497732272//
/work/sebastian/BT-20210625/1009872-light/run1009872-light.h5 tag-1497732274//
/work/sebastian/BT-20210625/1009872-light/run1009872-light.h5 tag-1497732276//
/work/sebastian/BT-20210625/1009872-light/run1009872-light.h5 tag-1497732280//
/work/sebastian/BT-20210625/1009872-light/run1009872-light.h5 tag-1497732282//
/work/sebastian/BT-20210625/1009872-light/run1009872-light.h5 tag-1497732288//
/work/sebastian/BT-20210625/1009872-light/run1009872-light.h5 tag-1497732294//
/work/sebastian/BT-20210625/1009872-light/run1009872-light.h5 tag-1497732300//
/work/sebastian/BT-20210625/1009872-light/run1009872-light.h5 tag-1497732310//
/work/sebastian/BT-20210625/1009872-light/run1009872-light.h5 tag-1497732318//
/work/sebastian/BT-20210625/1009872-light/run1009872-light.h5 tag-1497732320//
/work/sebastian/BT-20210625/1009872-light/run1009872-light.h5 tag-1497732322//
/work/sebastian/BT-20210625/1009872-light/run1009872-light.h5 tag-1497732324//
/work/sebastian/BT-20210625/1009872-light/run1009872-light.h5 tag-1497732326//
/work/sebastian/BT-20210625/1009872-light/run1009872-light.h5 tag-1497732328//
/work/sebastian/BT-20210625/1009872-light/run1009872-light.h5 tag-1497732330//
/work/sebastian/BT-20210625/1009872-light/run1009872-light.h5 tag-1497732336//
/work/sebastian/BT-20210625/1009872-light/run1009872-light.h5 tag-1497732344//
/work/sebastian/BT-20210625/1009872-light/run1009872-light.h5 tag-1497732354//
/work/sebastian/BT-20210625/1009872-light/run1009872-light.h5 tag-1497732358//
/work/sebastian/BT-20210625/1009872-light/run1009872-light.h5 tag-1497732360//
/work/sebastian/BT-20210625/1009872-light/run1009872-light.h5 tag-1497732362//
/work/sebastian/BT-20210625/1009872-light/run1009872-light.h5 tag-1497732366//
/work/sebastian/BT-20210625/1009872-light/run1009872-light.h5 tag-1497732368//
/work/sebastian/BT-20210625/1009872-light/run1009872-light.h5 tag-1497732370//
/work/sebastian/BT-20210625/1009872-light/run1009872-light.h5 tag-1497732380//
/work/sebastian/BT-20210625/1009872-light/run1009872-light.h5 tag-1497732382//
/work/sebastian/BT-20210625/1009872-light/run1009872-light.h5 tag-1497732386//
/work/sebastian/BT-20210625/1009872-light/run1009872-light.h5 tag-1497732388//
/work/sebastian/BT-20210625/1009872-light/run1009872-light.h5 tag-1497732392//
/work/sebastian/BT-20210625/1009872-light/run1009872-light.h5 tag-1497732394//
/work/sebastian/BT-20210625/1009872-light/run1009872-light.h5 tag-1497732396//
/work/sebastian/BT-20210625/1009872-light/run1009872-light.h5 tag-1497732400//
/work/sebastian/BT-20210625/1009872-light/run1009872-light.h5 tag-1497732406//
/work/sebastian/BT-20210625/1009872-light/run1009872-light.h5 tag-1497732410//
/work/sebastian/BT-20210625/1009872-light/run1009872-light.h5 tag-1497732416//
/work/sebastian/BT-20210625/1009872-light/run1009872-light.h5 tag-1497732422//
/work/sebastian/BT-20210625/1009872-light/run1009872-light.h5 tag-1497732424//
/work/sebastian/BT-20210625/1009872-light/run1009872-light.h5 tag-1497732430//
/work/sebastian/BT-20210625/1009872-light/run1009872-light.h5 tag-1497732432//
/work/sebastian/BT-20210625/1009872-light/run1009872-light.h5 tag-1497732438//
/work/sebastian/BT-20210625/1009872-light/run1009872-light.h5 tag-1497732442//
/work/sebastian/BT-20210625/1009872-light/run1009872-light.h5 tag-1497732444//
/work/sebastian/BT-20210625/1009872-light/run1009872-light.h5 tag-1497732446//
/work/sebastian/BT-20210625/1009872-light/run1009872-light.h5 tag-1497732460//
/work/sebastian/BT-20210625/1009872-light/run1009872-light.h5 tag-1497732462//
/work/sebastian/BT-20210625/1009872-light/run1009872-light.h5 tag-1497732464//
/work/sebastian/BT-20210625/1009872-light/run1009872-light.h5 tag-1497732472//
/work/sebastian/BT-20210625/1009872-light/run1009872-light.h5 tag-1497732478//
/work/sebastian/BT-20210625/1009872-light/run1009872-light.h5 tag-1497732484//
/work/sebastian/BT-20210625/1009872-light/run1009872-light.h5 tag-1497732488//
/work/sebastian/BT-20210625/1009872-light/run1009872-light.h5 tag-1497732490//
/work/sebastian/BT-20210625/1009872-light/run1009872-light.h5 tag-1497732494//
/work/sebastian/BT-20210625/1009872-light/run1009872-light.h5 tag-1497732496//
/work/sebastian/BT-20210625/1009872-light/run1009872-light.h5 tag-1497732498//
/work/sebastian/BT-20210625/1009872-light/run1009872-light.h5 tag-1497732506//
/work/sebastian/BT-20210625/1009872-light/run1009872-light.h5 tag-1497732508//
/work/sebastian/BT-20210625/1009872-light/run1009872-light.h5 tag-1497732510//
/work/sebastian/BT-20210625/1009872-light/run1009872-light.h5 tag-1497732512//
/work/sebastian/BT-20210625/1009872-light/run1009872-light.h5 tag-1497732518//
/work/sebastian/BT-20210625/1009872-light/run1009872-light.h5 tag-1497732520//
/work/sebastian/BT-20210625/1009872-light/run1009872-light.h5 tag-1497732522//
/work/sebastian/BT-20210625/1009872-light/run1009872-light.h5 tag-1497732524//
/work/sebastian/BT-20210625/1009872-light/run1009872-light.h5 tag-1497732526//
/work/sebastian/BT-20210625/1009872-light/run1009872-light.h5 tag-1497732528//
/work/sebastian/BT-20210625/1009872-light/run1009872-light.h5 tag-1497732532//
/work/sebastian/BT-20210625/1009872-light/run1009872-light.h5 tag-1497732538//
/work/sebastian/BT-20210625/1009872-light/run1009872-light.h5 tag-1497732548//
/work/sebastian/BT-20210625/1009872-light/run1009872-light.h5 tag-1497732552//
/work/sebastian/BT-20210625/1009872-light/run1009872-light.h5 tag-1497732554//
/work/sebastian/BT-20210625/1009872-light/run1009872-light.h5 tag-1497732556//
/work/sebastian/BT-20210625/1009872-light/run1009872-light.h5 tag-1497732566//
/work/sebastian/BT-20210625/1009872-light/run1009872-light.h5 tag-1497732568//
/work/sebastian/BT-20210625/1009872-light/run1009872-light.h5 tag-1497732586//
/work/sebastian/BT-20210625/1009872-light/run1009872-light.h5 tag-1497732608//
/work/sebastian/BT-20210625/1009872-light/run1009872-light.h5 tag-1497732612//
/work/sebastian/BT-20210625/1009872-light/run1009872-light.h5 tag-1497732616//
/work/sebastian/BT-20210625/1009872-light/run1009872-light.h5 tag-1497732618//
/work/sebastian/BT-20210625/1009872-light/run1009872-light.h5 tag-1497732620//
/work/sebastian/BT-20210625/1009872-light/run1009872-light.h5 tag-1497732622//
/work/sebastian/BT-20210625/1009872-light/run1009872-light.h5 tag-1497732630//
/work/sebastian/BT-20210625/1009872-light/run1009872-light.h5 tag-1497732634//
/work/sebastian/BT-20210625/1009872-light/run1009872-light.h5 tag-1497732636//
/work/sebastian/BT-20210625/1009872-light/run1009872-light.h5 tag-1497732640//
/work/sebastian/BT-20210625/1009872-light/run1009872-light.h5 tag-1497732652//
/work/sebastian/BT-20210625/1009872-light/run1009872-light.h5 tag-1497732654//
/work/sebastian/BT-20210625/1009872-light/run1009872-light.h5 tag-1497732656//
/work/sebastian/BT-20210625/1009872-light/run1009872-light.h5 tag-1497732662//
/work/sebastian/BT-20210625/1009872-light/run1009872-light.h5 tag-1497732664//
/work/sebastian/BT-20210625/1009872-light/run1009872-light.h5 tag-1497732668//
/work/sebastian/BT-20210625/1009872-light/run1009872-light.h5 tag-1497732670//
/work/sebastian/BT-20210625/1009872-light/run1009872-light.h5 tag-1497732684//
/work/sebastian/BT-20210625/1009872-light/run1009872-light.h5 tag-1497732692//
/work/sebastian/BT-20210625/1009872-light/run1009872-light.h5 tag-1497732694//
/work/sebastian/BT-20210625/1009872-light/run1009872-light.h5 tag-1497732700//
/work/sebastian/BT-20210625/1009872-light/run1009872-light.h5 tag-1497732708//
/work/sebastian/BT-20210625/1009872-light/run1009872-light.h5 tag-1497732712//
/work/sebastian/BT-20210625/1009872-light/run1009872-light.h5 tag-1497732714//
/work/sebastian/BT-20210625/1009872-light/run1009872-light.h5 tag-1497732716//
/work/sebastian/BT-20210625/1009872-light/run1009872-light.h5 tag-1497732724//
/work/sebastian/BT-20210625/1009872-light/run1009872-light.h5 tag-1497732726//
/work/sebastian/BT-20210625/1009872-light/run1009872-light.h5 tag-1497732732//
/work/sebastian/BT-20210625/1009872-light/run1009872-light.h5 tag-1497732742//
/work/sebastian/BT-20210625/1009872-light/run1009872-light.h5 tag-1497732752//
/work/sebastian/BT-20210625/1009872-light/run1009872-light.h5 tag-1497732772//
/work/sebastian/BT-20210625/1009872-light/run1009872-light.h5 tag-1497732780//
/work/sebastian/BT-20210625/1009872-light/run1009872-light.h5 tag-1497732786//
/work/sebastian/BT-20210625/1009872-light/run1009872-light.h5 tag-1497732788//
/work/sebastian/BT-20210625/1009872-light/run1009872-light.h5 tag-1497732792//
/work/sebastian/BT-20210625/1009872-light/run1009872-light.h5 tag-1497732798//
/work/sebastian/BT-20210625/1009872-light/run1009872-light.h5 tag-1497732802//
/work/sebastian/BT-20210625/1009872-light/run1009872-light.h5 tag-1497732804//
/work/sebastian/BT-20210625/1009872-light/run1009872-light.h5 tag-1497732810//
/work/sebastian/BT-20210625/1009872-light/run1009872-light.h5 tag-1497732812//
/work/sebastian/BT-20210625/1009872-light/run1009872-light.h5 tag-1497732814//
/work/sebastian/BT-20210625/1009872-light/run1009872-light.h5 tag-1497732828//
/work/sebastian/BT-20210625/1009872-light/run1009872-light.h5 tag-1497732830//
/work/sebastian/BT-20210625/1009872-light/run1009872-light.h5 tag-1497732832//
/work/sebastian/BT-20210625/1009872-light/run1009872-light.h5 tag-1497732836//
/work/sebastian/BT-20210625/1009872-light/run1009872-light.h5 tag-1497732842//
/work/sebastian/BT-20210625/1009872-light/run1009872-light.h5 tag-1497732850//
/work/sebastian/BT-20210625/1009872-light/run1009872-light.h5 tag-1497732860//
/work/sebastian/BT-20210625/1009872-light/run1009872-light.h5 tag-1497732864//
/work/sebastian/BT-20210625/1009872-light/run1009872-light.h5 tag-1497732866//
/work/sebastian/BT-20210625/1009872-light/run1009872-light.h5 tag-1497732868//
/work/sebastian/BT-20210625/1009872-light/run1009872-light.h5 tag-1497732874//
/work/sebastian/BT-20210625/1009872-light/run1009872-light.h5 tag-1497732884//
/work/sebastian/BT-20210625/1009872-light/run1009872-light.h5 tag-1497732890//
/work/sebastian/BT-20210625/1009872-light/run1009872-light.h5 tag-1497732896//
/work/sebastian/BT-20210625/1009872-light/run1009872-light.h5 tag-1497732898//
/work/sebastian/BT-20210625/1009872-light/run1009872-light.h5 tag-1497732902//
/work/sebastian/BT-20210625/1009872-light/run1009872-light.h5 tag-1497732910//
/work/sebastian/BT-20210625/1009872-light/run1009872-light.h5 tag-1497732912//
/work/sebastian/BT-20210625/1009872-light/run1009872-light.h5 tag-1497732918//
/work/sebastian/BT-20210625/1009872-light/run1009872-light.h5 tag-1497732920//
/work/sebastian/BT-20210625/1009872-light/run1009872-light.h5 tag-1497732922//
/work/sebastian/BT-20210625/1009872-light/run1009872-light.h5 tag-1497732930//
/work/sebastian/BT-20210625/1009872-light/run1009872-light.h5 tag-1497732932//
/work/sebastian/BT-20210625/1009872-light/run1009872-light.h5 tag-1497732938//
/work/sebastian/BT-20210625/1009872-light/run1009872-light.h5 tag-1497732950//
/work/sebastian/BT-20210625/1009872-light/run1009872-light.h5 tag-1497732952//
/work/sebastian/BT-20210625/1009872-light/run1009872-light.h5 tag-1497732956//
/work/sebastian/BT-20210625/1009872-light/run1009872-light.h5 tag-1497732960//
/work/sebastian/BT-20210625/1009872-light/run1009872-light.h5 tag-1497732964//
/work/sebastian/BT-20210625/1009872-light/run1009872-light.h5 tag-1497732970//
/work/sebastian/BT-20210625/1009872-light/run1009872-light.h5 tag-1497732978//
/work/sebastian/BT-20210625/1009872-light/run1009872-light.h5 tag-1497732982//
/work/sebastian/BT-20210625/1009872-light/run1009872-light.h5 tag-1497732986//
/work/sebastian/BT-20210625/1009872-light/run1009872-light.h5 tag-1497732990//
/work/sebastian/BT-20210625/1009872-light/run1009872-light.h5 tag-1497732994//
/work/sebastian/BT-20210625/1009872-light/run1009872-light.h5 tag-1497733000//
/work/sebastian/BT-20210625/1009872-light/run1009872-light.h5 tag-1497733004//
/work/sebastian/BT-20210625/1009872-light/run1009872-light.h5 tag-1497733006//
/work/sebastian/BT-20210625/1009872-light/run1009872-light.h5 tag-1497733008//
/work/sebastian/BT-20210625/1009872-light/run1009872-light.h5 tag-1497733010//
/work/sebastian/BT-20210625/1009872-light/run1009872-light.h5 tag-1497733012//
/work/sebastian/BT-20210625/1009872-light/run1009872-light.h5 tag-1497733014//
/work/sebastian/BT-20210625/1009872-light/run1009872-light.h5 tag-1497733018//
/work/sebastian/BT-20210625/1009872-light/run1009872-light.h5 tag-1497733022//
/work/sebastian/BT-20210625/1009872-light/run1009872-light.h5 tag-1497733024//
/work/sebastian/BT-20210625/1009872-light/run1009872-light.h5 tag-1497733028//
/work/sebastian/BT-20210625/1009872-light/run1009872-light.h5 tag-1497733030//
/work/sebastian/BT-20210625/1009872-light/run1009872-light.h5 tag-1497733038//
/work/sebastian/BT-20210625/1009872-light/run1009872-light.h5 tag-1497733052//
/work/sebastian/BT-20210625/1009872-light/run1009872-light.h5 tag-1497733054//
/work/sebastian/BT-20210625/1009872-light/run1009872-light.h5 tag-1497733058//
/work/sebastian/BT-20210625/1009872-light/run1009872-light.h5 tag-1497733060//
/work/sebastian/BT-20210625/1009872-light/run1009872-light.h5 tag-1497733066//
/work/sebastian/BT-20210625/1009872-light/run1009872-light.h5 tag-1497733068//
/work/sebastian/BT-20210625/1009872-light/run1009872-light.h5 tag-1497733072//
/work/sebastian/BT-20210625/1009872-light/run1009872-light.h5 tag-1497733074//
/work/sebastian/BT-20210625/1009872-light/run1009872-light.h5 tag-1497733084//
/work/sebastian/BT-20210625/1009872-light/run1009872-light.h5 tag-1497733088//
/work/sebastian/BT-20210625/1009872-light/run1009872-light.h5 tag-1497733094//
/work/sebastian/BT-20210625/1009872-light/run1009872-light.h5 tag-1497733098//
/work/sebastian/BT-20210625/1009872-light/run1009872-light.h5 tag-1497733100//
/work/sebastian/BT-20210625/1009872-light/run1009872-light.h5 tag-1497733102//
/work/sebastian/BT-20210625/1009872-light/run1009872-light.h5 tag-1497733108//
/work/sebastian/BT-20210625/1009872-light/run1009872-light.h5 tag-1497733118//
/work/sebastian/BT-20210625/1009872-light/run1009872-light.h5 tag-1497733122//
/work/sebastian/BT-20210625/1009872-light/run1009872-light.h5 tag-1497733124//
/work/sebastian/BT-20210625/1009872-light/run1009872-light.h5 tag-1497733126//
/work/sebastian/BT-20210625/1009872-light/run1009872-light.h5 tag-1497733128//
/work/sebastian/BT-20210625/1009872-light/run1009872-light.h5 tag-1497733140//
/work/sebastian/BT-20210625/1009872-light/run1009872-light.h5 tag-1497733144//
/work/sebastian/BT-20210625/1009872-light/run1009872-light.h5 tag-1497733146//
/work/sebastian/BT-20210625/1009872-light/run1009872-light.h5 tag-1497733152//
/work/sebastian/BT-20210625/1009872-light/run1009872-light.h5 tag-1497733154//
/work/sebastian/BT-20210625/1009872-light/run1009872-light.h5 tag-1497733156//
/work/sebastian/BT-20210625/1009872-light/run1009872-light.h5 tag-1497733168//
/work/sebastian/BT-20210625/1009872-light/run1009872-light.h5 tag-1497733170//
/work/sebastian/BT-20210625/1009872-light/run1009872-light.h5 tag-1497733178//
/work/sebastian/BT-20210625/1009872-light/run1009872-light.h5 tag-1497733184//
/work/sebastian/BT-20210625/1009872-light/run1009872-light.h5 tag-1497733188//
/work/sebastian/BT-20210625/1009872-light/run1009872-light.h5 tag-1497733190//
/work/sebastian/BT-20210625/1009872-light/run1009872-light.h5 tag-1497733192//
/work/sebastian/BT-20210625/1009872-light/run1009872-light.h5 tag-1497733198//
/work/sebastian/BT-20210625/1009872-light/run1009872-light.h5 tag-1497733200//
/work/sebastian/BT-20210625/1009872-light/run1009872-light.h5 tag-1497733206//
/work/sebastian/BT-20210625/1009872-light/run1009872-light.h5 tag-1497733210//
/work/sebastian/BT-20210625/1009872-light/run1009872-light.h5 tag-1497733212//
/work/sebastian/BT-20210625/1009872-light/run1009872-light.h5 tag-1497733214//
/work/sebastian/BT-20210625/1009872-light/run1009872-light.h5 tag-1497733224//
/work/sebastian/BT-20210625/1009872-light/run1009872-light.h5 tag-1497733226//
/work/sebastian/BT-20210625/1009872-light/run1009872-light.h5 tag-1497733228//
/work/sebastian/BT-20210625/1009872-light/run1009872-light.h5 tag-1497733230//
/work/sebastian/BT-20210625/1009872-light/run1009872-light.h5 tag-1497733232//
/work/sebastian/BT-20210625/1009872-light/run1009872-light.h5 tag-1497733238//
/work/sebastian/BT-20210625/1009872-light/run1009872-light.h5 tag-1497733240//
/work/sebastian/BT-20210625/1009872-light/run1009872-light.h5 tag-1497733242//
/work/sebastian/BT-20210625/1009872-light/run1009872-light.h5 tag-1497733244//
/work/sebastian/BT-20210625/1009872-light/run1009872-light.h5 tag-1497733246//
/work/sebastian/BT-20210625/1009872-light/run1009872-light.h5 tag-1497733258//
/work/sebastian/BT-20210625/1009872-light/run1009872-light.h5 tag-1497733262//
/work/sebastian/BT-20210625/1009872-light/run1009872-light.h5 tag-1497733264//
/work/sebastian/BT-20210625/1009872-light/run1009872-light.h5 tag-1497733268//
/work/sebastian/BT-20210625/1009872-light/run1009872-light.h5 tag-1497733270//
/work/sebastian/BT-20210625/1009872-light/run1009872-light.h5 tag-1497733274//
/work/sebastian/BT-20210625/1009872-light/run1009872-light.h5 tag-1497733276//
/work/sebastian/BT-20210625/1009872-light/run1009872-light.h5 tag-1497733278//
/work/sebastian/BT-20210625/1009872-light/run1009872-light.h5 tag-1497733286//
/work/sebastian/BT-20210625/1009872-light/run1009872-light.h5 tag-1497733288//
/work/sebastian/BT-20210625/1009872-light/run1009872-light.h5 tag-1497733290//
/work/sebastian/BT-20210625/1009872-light/run1009872-light.h5 tag-1497733296//
/work/sebastian/BT-20210625/1009872-light/run1009872-light.h5 tag-1497733298//
/work/sebastian/BT-20210625/1009872-light/run1009872-light.h5 tag-1497733300//
/work/sebastian/BT-20210625/1009872-light/run1009872-light.h5 tag-1497733304//
/work/sebastian/BT-20210625/1009872-light/run1009872-light.h5 tag-1497733306//
/work/sebastian/BT-20210625/1009872-light/run1009872-light.h5 tag-1497733310//
/work/sebastian/BT-20210625/1009872-light/run1009872-light.h5 tag-1497733312//
/work/sebastian/BT-20210625/1009872-light/run1009872-light.h5 tag-1497733318//
/work/sebastian/BT-20210625/1009872-light/run1009872-light.h5 tag-1497733322//
/work/sebastian/BT-20210625/1009872-light/run1009872-light.h5 tag-1497733324//
/work/sebastian/BT-20210625/1009872-light/run1009872-light.h5 tag-1497733334//
/work/sebastian/BT-20210625/1009872-light/run1009872-light.h5 tag-1497733338//
/work/sebastian/BT-20210625/1009872-light/run1009872-light.h5 tag-1497733342//
/work/sebastian/BT-20210625/1009872-light/run1009872-light.h5 tag-1497733348//
/work/sebastian/BT-20210625/1009872-light/run1009872-light.h5 tag-1497733350//
/work/sebastian/BT-20210625/1009872-light/run1009872-light.h5 tag-1497733356//
/work/sebastian/BT-20210625/1009872-light/run1009872-light.h5 tag-1497733358//
/work/sebastian/BT-20210625/1009872-light/run1009872-light.h5 tag-1497733362//
/work/sebastian/BT-20210625/1009872-light/run1009872-light.h5 tag-1497733364//
/work/sebastian/BT-20210625/1009872-light/run1009872-light.h5 tag-1497733370//
/work/sebastian/BT-20210625/1009872-light/run1009872-light.h5 tag-1497733376//
/work/sebastian/BT-20210625/1009872-light/run1009872-light.h5 tag-1497733378//
/work/sebastian/BT-20210625/1009872-light/run1009872-light.h5 tag-1497733386//
/work/sebastian/BT-20210625/1009872-light/run1009872-light.h5 tag-1497733388//
/work/sebastian/BT-20210625/1009872-light/run1009872-light.h5 tag-1497733396//
/work/sebastian/BT-20210625/1009872-light/run1009872-light.h5 tag-1497733398//
/work/sebastian/BT-20210625/1009872-light/run1009872-light.h5 tag-1497733402//
/work/sebastian/BT-20210625/1009872-light/run1009872-light.h5 tag-1497733414//
/work/sebastian/BT-20210625/1009872-light/run1009872-light.h5 tag-1497733416//
/work/sebastian/BT-20210625/1009872-light/run1009872-light.h5 tag-1497733420//
/work/sebastian/BT-20210625/1009872-light/run1009872-light.h5 tag-1497733424//
/work/sebastian/BT-20210625/1009872-light/run1009872-light.h5 tag-1497733438//
/work/sebastian/BT-20210625/1009872-light/run1009872-light.h5 tag-1497733442//
/work/sebastian/BT-20210625/1009872-light/run1009872-light.h5 tag-1497733448//
/work/sebastian/BT-20210625/1009872-light/run1009872-light.h5 tag-1497733452//
/work/sebastian/BT-20210625/1009872-light/run1009872-light.h5 tag-1497733454//
/work/sebastian/BT-20210625/1009872-light/run1009872-light.h5 tag-1497733456//
/work/sebastian/BT-20210625/1009872-light/run1009872-light.h5 tag-1497733462//
/work/sebastian/BT-20210625/1009872-light/run1009872-light.h5 tag-1497733466//
/work/sebastian/BT-20210625/1009872-light/run1009872-light.h5 tag-1497733468//
/work/sebastian/BT-20210625/1009872-light/run1009872-light.h5 tag-1497733472//
/work/sebastian/BT-20210625/1009872-light/run1009872-light.h5 tag-1497733474//
/work/sebastian/BT-20210625/1009872-light/run1009872-light.h5 tag-1497733476//
/work/sebastian/BT-20210625/1009872-light/run1009872-light.h5 tag-1497733482//
/work/sebastian/BT-20210625/1009872-light/run1009872-light.h5 tag-1497733488//
/work/sebastian/BT-20210625/1009872-light/run1009872-light.h5 tag-1497733502//
/work/sebastian/BT-20210625/1009872-light/run1009872-light.h5 tag-1497733504//
/work/sebastian/BT-20210625/1009872-light/run1009872-light.h5 tag-1497733510//
/work/sebastian/BT-20210625/1009872-light/run1009872-light.h5 tag-1497733512//
/work/sebastian/BT-20210625/1009872-light/run1009872-light.h5 tag-1497733516//
/work/sebastian/BT-20210625/1009872-light/run1009872-light.h5 tag-1497733518//
/work/sebastian/BT-20210625/1009872-light/run1009872-light.h5 tag-1497733520//
/work/sebastian/BT-20210625/1009872-light/run1009872-light.h5 tag-1497733522//
/work/sebastian/BT-20210625/1009872-light/run1009872-light.h5 tag-1497733524//
/work/sebastian/BT-20210625/1009872-light/run1009872-light.h5 tag-1497733528//
/work/sebastian/BT-20210625/1009872-light/run1009872-light.h5 tag-1497733542//
/work/sebastian/BT-20210625/1009872-light/run1009872-light.h5 tag-1497733544//
/work/sebastian/BT-20210625/1009872-light/run1009872-light.h5 tag-1497733546//
/work/sebastian/BT-20210625/1009872-light/run1009872-light.h5 tag-1497733548//
/work/sebastian/BT-20210625/1009872-light/run1009872-light.h5 tag-1497733550//
/work/sebastian/BT-20210625/1009872-light/run1009872-light.h5 tag-1497733552//
/work/sebastian/BT-20210625/1009872-light/run1009872-light.h5 tag-1497733556//
/work/sebastian/BT-20210625/1009872-light/run1009872-light.h5 tag-1497733562//
/work/sebastian/BT-20210625/1009872-light/run1009872-light.h5 tag-1497733564//
/work/sebastian/BT-20210625/1009872-light/run1009872-light.h5 tag-1497733570//
/work/sebastian/BT-20210625/1009872-light/run1009872-light.h5 tag-1497733572//
/work/sebastian/BT-20210625/1009872-light/run1009872-light.h5 tag-1497733576//
/work/sebastian/BT-20210625/1009872-light/run1009872-light.h5 tag-1497733580//
/work/sebastian/BT-20210625/1009872-light/run1009872-light.h5 tag-1497733590//
/work/sebastian/BT-20210625/1009872-light/run1009872-light.h5 tag-1497733594//
/work/sebastian/BT-20210625/1009872-light/run1009872-light.h5 tag-1497733596//
/work/sebastian/BT-20210625/1009872-light/run1009872-light.h5 tag-1497733600//
/work/sebastian/BT-20210625/1009872-light/run1009872-light.h5 tag-1497733602//
/work/sebastian/BT-20210625/1009872-light/run1009872-light.h5 tag-1497733608//
/work/sebastian/BT-20210625/1009872-light/run1009872-light.h5 tag-1497733610//
/work/sebastian/BT-20210625/1009872-light/run1009872-light.h5 tag-1497733612//
/work/sebastian/BT-20210625/1009872-light/run1009872-light.h5 tag-1497733616//
/work/sebastian/BT-20210625/1009872-light/run1009872-light.h5 tag-1497733620//
/work/sebastian/BT-20210625/1009872-light/run1009872-light.h5 tag-1497733622//
/work/sebastian/BT-20210625/1009872-light/run1009872-light.h5 tag-1497733624//
/work/sebastian/BT-20210625/1009872-light/run1009872-light.h5 tag-1497733626//
/work/sebastian/BT-20210625/1009872-light/run1009872-light.h5 tag-1497733628//
/work/sebastian/BT-20210625/1009872-light/run1009872-light.h5 tag-1497733632//
/work/sebastian/BT-20210625/1009872-light/run1009872-light.h5 tag-1497733636//
/work/sebastian/BT-20210625/1009872-light/run1009872-light.h5 tag-1497733638//
/work/sebastian/BT-20210625/1009872-light/run1009872-light.h5 tag-1497733652//
/work/sebastian/BT-20210625/1009872-light/run1009872-light.h5 tag-1497733658//
/work/sebastian/BT-20210625/1009872-light/run1009872-light.h5 tag-1497733662//
/work/sebastian/BT-20210625/1009872-light/run1009872-light.h5 tag-1497733680//
/work/sebastian/BT-20210625/1009872-light/run1009872-light.h5 tag-1497733688//
/work/sebastian/BT-20210625/1009872-light/run1009872-light.h5 tag-1497733690//
/work/sebastian/BT-20210625/1009872-light/run1009872-light.h5 tag-1497733692//
/work/sebastian/BT-20210625/1009872-light/run1009872-light.h5 tag-1497733706//
/work/sebastian/BT-20210625/1009872-light/run1009872-light.h5 tag-1497733712//
/work/sebastian/BT-20210625/1009872-light/run1009872-light.h5 tag-1497733714//
/work/sebastian/BT-20210625/1009872-light/run1009872-light.h5 tag-1497733718//
/work/sebastian/BT-20210625/1009872-light/run1009872-light.h5 tag-1497733722//
/work/sebastian/BT-20210625/1009872-light/run1009872-light.h5 tag-1497733724//
/work/sebastian/BT-20210625/1009872-light/run1009872-light.h5 tag-1497733730//
/work/sebastian/BT-20210625/1009872-light/run1009872-light.h5 tag-1497733732//
/work/sebastian/BT-20210625/1009872-light/run1009872-light.h5 tag-1497733738//
/work/sebastian/BT-20210625/1009872-light/run1009872-light.h5 tag-1497733742//
/work/sebastian/BT-20210625/1009872-light/run1009872-light.h5 tag-1497733744//
/work/sebastian/BT-20210625/1009872-light/run1009872-light.h5 tag-1497733748//
/work/sebastian/BT-20210625/1009872-light/run1009872-light.h5 tag-1497733752//
/work/sebastian/BT-20210625/1009872-light/run1009872-light.h5 tag-1497733754//
/work/sebastian/BT-20210625/1009872-light/run1009872-light.h5 tag-1497733756//
/work/sebastian/BT-20210625/1009872-light/run1009872-light.h5 tag-1497733768//
/work/sebastian/BT-20210625/1009872-light/run1009872-light.h5 tag-1497733772//
/work/sebastian/BT-20210625/1009872-light/run1009872-light.h5 tag-1497733778//
/work/sebastian/BT-20210625/1009872-light/run1009872-light.h5 tag-1497733780//
/work/sebastian/BT-20210625/1009872-light/run1009872-light.h5 tag-1497733788//
/work/sebastian/BT-20210625/1009872-light/run1009872-light.h5 tag-1497733792//
/work/sebastian/BT-20210625/1009872-light/run1009872-light.h5 tag-1497733800//
/work/sebastian/BT-20210625/1009872-light/run1009872-light.h5 tag-1497733810//
/work/sebastian/BT-20210625/1009872-light/run1009872-light.h5 tag-1497733818//
/work/sebastian/BT-20210625/1009872-light/run1009872-light.h5 tag-1497733820//
/work/sebastian/BT-20210625/1009872-light/run1009872-light.h5 tag-1497733826//
/work/sebastian/BT-20210625/1009872-light/run1009872-light.h5 tag-1497733828//
/work/sebastian/BT-20210625/1009872-light/run1009872-light.h5 tag-1497733830//
/work/sebastian/BT-20210625/1009872-light/run1009872-light.h5 tag-1497733836//
/work/sebastian/BT-20210625/1009872-light/run1009872-light.h5 tag-1497733838//
/work/sebastian/BT-20210625/1009872-light/run1009872-light.h5 tag-1497733840//
/work/sebastian/BT-20210625/1009872-light/run1009872-light.h5 tag-1497733846//
/work/sebastian/BT-20210625/1009872-light/run1009872-light.h5 tag-1497733848//
/work/sebastian/BT-20210625/1009872-light/run1009872-light.h5 tag-1497733852//
/work/sebastian/BT-20210625/1009872-light/run1009872-light.h5 tag-1497733854//
/work/sebastian/BT-20210625/1009872-light/run1009872-light.h5 tag-1497733856//
/work/sebastian/BT-20210625/1009872-light/run1009872-light.h5 tag-1497733858//
/work/sebastian/BT-20210625/1009872-light/run1009872-light.h5 tag-1497733862//
/work/sebastian/BT-20210625/1009872-light/run1009872-light.h5 tag-1497733868//
/work/sebastian/BT-20210625/1009872-light/run1009872-light.h5 tag-1497733872//
/work/sebastian/BT-20210625/1009872-light/run1009872-light.h5 tag-1497733876//
/work/sebastian/BT-20210625/1009872-light/run1009872-light.h5 tag-1497733878//
/work/sebastian/BT-20210625/1009872-light/run1009872-light.h5 tag-1497733896//
/work/sebastian/BT-20210625/1009872-light/run1009872-light.h5 tag-1497733898//
/work/sebastian/BT-20210625/1009872-light/run1009872-light.h5 tag-1497733900//
/work/sebastian/BT-20210625/1009872-light/run1009872-light.h5 tag-1497733902//
/work/sebastian/BT-20210625/1009872-light/run1009872-light.h5 tag-1497733904//
/work/sebastian/BT-20210625/1009872-light/run1009872-light.h5 tag-1497733908//
/work/sebastian/BT-20210625/1009872-light/run1009872-light.h5 tag-1497733912//
/work/sebastian/BT-20210625/1009872-light/run1009872-light.h5 tag-1497733930//
/work/sebastian/BT-20210625/1009872-light/run1009872-light.h5 tag-1497733932//
/work/sebastian/BT-20210625/1009872-light/run1009872-light.h5 tag-1497733940//
/work/sebastian/BT-20210625/1009872-light/run1009872-light.h5 tag-1497733942//
/work/sebastian/BT-20210625/1009872-light/run1009872-light.h5 tag-1497733944//
/work/sebastian/BT-20210625/1009872-light/run1009872-light.h5 tag-1497733946//
/work/sebastian/BT-20210625/1009872-light/run1009872-light.h5 tag-1497733952//
/work/sebastian/BT-20210625/1009872-light/run1009872-light.h5 tag-1497733956//
/work/sebastian/BT-20210625/1009872-light/run1009872-light.h5 tag-1497733960//
/work/sebastian/BT-20210625/1009872-light/run1009872-light.h5 tag-1497733964//
/work/sebastian/BT-20210625/1009872-light/run1009872-light.h5 tag-1497733966//
/work/sebastian/BT-20210625/1009872-light/run1009872-light.h5 tag-1497733968//
/work/sebastian/BT-20210625/1009872-light/run1009872-light.h5 tag-1497733970//
/work/sebastian/BT-20210625/1009872-light/run1009872-light.h5 tag-1497733976//
/work/sebastian/BT-20210625/1009872-light/run1009872-light.h5 tag-1497733982//
/work/sebastian/BT-20210625/1009872-light/run1009872-light.h5 tag-1497733986//
/work/sebastian/BT-20210625/1009872-light/run1009872-light.h5 tag-1497733988//
/work/sebastian/BT-20210625/1009872-light/run1009872-light.h5 tag-1497733992//
/work/sebastian/BT-20210625/1009872-light/run1009872-light.h5 tag-1497733994//
/work/sebastian/BT-20210625/1009872-light/run1009872-light.h5 tag-1497733996//
/work/sebastian/BT-20210625/1009872-light/run1009872-light.h5 tag-1497733998//
/work/sebastian/BT-20210625/1009872-light/run1009872-light.h5 tag-1497734002//
/work/sebastian/BT-20210625/1009872-light/run1009872-light.h5 tag-1497734010//
/work/sebastian/BT-20210625/1009872-light/run1009872-light.h5 tag-1497734012//
/work/sebastian/BT-20210625/1009872-light/run1009872-light.h5 tag-1497734020//
/work/sebastian/BT-20210625/1009872-light/run1009872-light.h5 tag-1497734024//
/work/sebastian/BT-20210625/1009872-light/run1009872-light.h5 tag-1497734026//
/work/sebastian/BT-20210625/1009872-light/run1009872-light.h5 tag-1497734030//
/work/sebastian/BT-20210625/1009872-light/run1009872-light.h5 tag-1497734032//
/work/sebastian/BT-20210625/1009872-light/run1009872-light.h5 tag-1497734046//
/work/sebastian/BT-20210625/1009872-light/run1009872-light.h5 tag-1497734048//
/work/sebastian/BT-20210625/1009872-light/run1009872-light.h5 tag-1497734050//
/work/sebastian/BT-20210625/1009872-light/run1009872-light.h5 tag-1497734052//
/work/sebastian/BT-20210625/1009872-light/run1009872-light.h5 tag-1497734054//
/work/sebastian/BT-20210625/1009872-light/run1009872-light.h5 tag-1497734058//
/work/sebastian/BT-20210625/1009872-light/run1009872-light.h5 tag-1497734060//
/work/sebastian/BT-20210625/1009872-light/run1009872-light.h5 tag-1497734062//
/work/sebastian/BT-20210625/1009872-light/run1009872-light.h5 tag-1497734064//
/work/sebastian/BT-20210625/1009872-light/run1009872-light.h5 tag-1497734068//
/work/sebastian/BT-20210625/1009872-light/run1009872-light.h5 tag-1497734070//
/work/sebastian/BT-20210625/1009872-light/run1009872-light.h5 tag-1497734072//
/work/sebastian/BT-20210625/1009872-light/run1009872-light.h5 tag-1497734078//
/work/sebastian/BT-20210625/1009872-light/run1009872-light.h5 tag-1497734080//
/work/sebastian/BT-20210625/1009872-light/run1009872-light.h5 tag-1497734084//
/work/sebastian/BT-20210625/1009872-light/run1009872-light.h5 tag-1497734090//
/work/sebastian/BT-20210625/1009872-light/run1009872-light.h5 tag-1497734092//
/work/sebastian/BT-20210625/1009872-light/run1009872-light.h5 tag-1497734098//
/work/sebastian/BT-20210625/1009872-light/run1009872-light.h5 tag-1497734102//
/work/sebastian/BT-20210625/1009872-light/run1009872-light.h5 tag-1497734116//
/work/sebastian/BT-20210625/1009872-light/run1009872-light.h5 tag-1497734126//
/work/sebastian/BT-20210625/1009872-light/run1009872-light.h5 tag-1497734128//
/work/sebastian/BT-20210625/1009872-light/run1009872-light.h5 tag-1497734132//
/work/sebastian/BT-20210625/1009872-light/run1009872-light.h5 tag-1497734138//
/work/sebastian/BT-20210625/1009872-light/run1009872-light.h5 tag-1497734144//
/work/sebastian/BT-20210625/1009872-light/run1009872-light.h5 tag-1497734152//
/work/sebastian/BT-20210625/1009872-light/run1009872-light.h5 tag-1497734158//
/work/sebastian/BT-20210625/1009872-light/run1009872-light.h5 tag-1497734160//
/work/sebastian/BT-20210625/1009872-light/run1009872-light.h5 tag-1497734162//
/work/sebastian/BT-20210625/1009872-light/run1009872-light.h5 tag-1497734170//
/work/sebastian/BT-20210625/1009872-light/run1009872-light.h5 tag-1497734172//
/work/sebastian/BT-20210625/1009872-light/run1009872-light.h5 tag-1497734176//
/work/sebastian/BT-20210625/1009872-light/run1009872-light.h5 tag-1497734180//
/work/sebastian/BT-20210625/1009872-light/run1009872-light.h5 tag-1497734184//
/work/sebastian/BT-20210625/1009872-light/run1009872-light.h5 tag-1497734186//
/work/sebastian/BT-20210625/1009872-light/run1009872-light.h5 tag-1497734188//
/work/sebastian/BT-20210625/1009872-light/run1009872-light.h5 tag-1497734192//
/work/sebastian/BT-20210625/1009872-light/run1009872-light.h5 tag-1497734194//
/work/sebastian/BT-20210625/1009872-light/run1009872-light.h5 tag-1497734198//
/work/sebastian/BT-20210625/1009872-light/run1009872-light.h5 tag-1497734200//
/work/sebastian/BT-20210625/1009872-light/run1009872-light.h5 tag-1497734204//
/work/sebastian/BT-20210625/1009872-light/run1009872-light.h5 tag-1497734208//
/work/sebastian/BT-20210625/1009872-light/run1009872-light.h5 tag-1497734216//
/work/sebastian/BT-20210625/1009872-light/run1009872-light.h5 tag-1497734218//
/work/sebastian/BT-20210625/1009872-light/run1009872-light.h5 tag-1497734222//
/work/sebastian/BT-20210625/1009872-light/run1009872-light.h5 tag-1497734224//
/work/sebastian/BT-20210625/1009872-light/run1009872-light.h5 tag-1497734226//
/work/sebastian/BT-20210625/1009872-light/run1009872-light.h5 tag-1497734228//
/work/sebastian/BT-20210625/1009872-light/run1009872-light.h5 tag-1497734232//
/work/sebastian/BT-20210625/1009872-light/run1009872-light.h5 tag-1497734234//
/work/sebastian/BT-20210625/1009872-light/run1009872-light.h5 tag-1497734236//
/work/sebastian/BT-20210625/1009872-light/run1009872-light.h5 tag-1497734238//
/work/sebastian/BT-20210625/1009872-light/run1009872-light.h5 tag-1497734240//
/work/sebastian/BT-20210625/1009872-light/run1009872-light.h5 tag-1497734242//
/work/sebastian/BT-20210625/1009872-light/run1009872-light.h5 tag-1497734244//
/work/sebastian/BT-20210625/1009872-light/run1009872-light.h5 tag-1497734246//
/work/sebastian/BT-20210625/1009872-light/run1009872-light.h5 tag-1497734258//
/work/sebastian/BT-20210625/1009872-light/run1009872-light.h5 tag-1497734262//
/work/sebastian/BT-20210625/1009872-light/run1009872-light.h5 tag-1497734264//
/work/sebastian/BT-20210625/1009872-light/run1009872-light.h5 tag-1497734266//
/work/sebastian/BT-20210625/1009872-light/run1009872-light.h5 tag-1497734272//
/work/sebastian/BT-20210625/1009872-light/run1009872-light.h5 tag-1497734278//
/work/sebastian/BT-20210625/1009872-light/run1009872-light.h5 tag-1497734280//
/work/sebastian/BT-20210625/1009872-light/run1009872-light.h5 tag-1497734282//
/work/sebastian/BT-20210625/1009872-light/run1009872-light.h5 tag-1497734284//
/work/sebastian/BT-20210625/1009872-light/run1009872-light.h5 tag-1497734290//
/work/sebastian/BT-20210625/1009872-light/run1009872-light.h5 tag-1497734296//
/work/sebastian/BT-20210625/1009872-light/run1009872-light.h5 tag-1497734298//
/work/sebastian/BT-20210625/1009872-light/run1009872-light.h5 tag-1497734300//
/work/sebastian/BT-20210625/1009872-light/run1009872-light.h5 tag-1497734302//
/work/sebastian/BT-20210625/1009872-light/run1009872-light.h5 tag-1497734306//
/work/sebastian/BT-20210625/1009872-light/run1009872-light.h5 tag-1497734310//
/work/sebastian/BT-20210625/1009872-light/run1009872-light.h5 tag-1497734312//
/work/sebastian/BT-20210625/1009872-light/run1009872-light.h5 tag-1497734314//
/work/sebastian/BT-20210625/1009872-light/run1009872-light.h5 tag-1497734316//
/work/sebastian/BT-20210625/1009872-light/run1009872-light.h5 tag-1497734318//
/work/sebastian/BT-20210625/1009872-light/run1009872-light.h5 tag-1497734320//
/work/sebastian/BT-20210625/1009872-light/run1009872-light.h5 tag-1497734322//
/work/sebastian/BT-20210625/1009872-light/run1009872-light.h5 tag-1497734328//
/work/sebastian/BT-20210625/1009872-light/run1009872-light.h5 tag-1497734334//
/work/sebastian/BT-20210625/1009872-light/run1009872-light.h5 tag-1497734336//
/work/sebastian/BT-20210625/1009872-light/run1009872-light.h5 tag-1497734338//
/work/sebastian/BT-20210625/1009872-light/run1009872-light.h5 tag-1497734340//
/work/sebastian/BT-20210625/1009872-light/run1009872-light.h5 tag-1497734342//
/work/sebastian/BT-20210625/1009872-light/run1009872-light.h5 tag-1497734344//
/work/sebastian/BT-20210625/1009872-light/run1009872-light.h5 tag-1497734346//
/work/sebastian/BT-20210625/1009872-light/run1009872-light.h5 tag-1497734348//
/work/sebastian/BT-20210625/1009872-light/run1009872-light.h5 tag-1497734354//
/work/sebastian/BT-20210625/1009872-light/run1009872-light.h5 tag-1497734356//
/work/sebastian/BT-20210625/1009872-light/run1009872-light.h5 tag-1497734358//
/work/sebastian/BT-20210625/1009872-light/run1009872-light.h5 tag-1497734366//
/work/sebastian/BT-20210625/1009872-light/run1009872-light.h5 tag-1497734368//
/work/sebastian/BT-20210625/1009872-light/run1009872-light.h5 tag-1497734370//
/work/sebastian/BT-20210625/1009872-light/run1009872-light.h5 tag-1497734372//
/work/sebastian/BT-20210625/1009872-light/run1009872-light.h5 tag-1497734376//
/work/sebastian/BT-20210625/1009872-light/run1009872-light.h5 tag-1497734386//
/work/sebastian/BT-20210625/1009872-light/run1009872-light.h5 tag-1497734394//
/work/sebastian/BT-20210625/1009872-light/run1009872-light.h5 tag-1497734404//
/work/sebastian/BT-20210625/1009872-light/run1009872-light.h5 tag-1497734408//
/work/sebastian/BT-20210625/1009872-light/run1009872-light.h5 tag-1497734410//
/work/sebastian/BT-20210625/1009872-light/run1009872-light.h5 tag-1497734418//
/work/sebastian/BT-20210625/1009872-light/run1009872-light.h5 tag-1497734420//
/work/sebastian/BT-20210625/1009872-light/run1009872-light.h5 tag-1497734424//
/work/sebastian/BT-20210625/1009872-light/run1009872-light.h5 tag-1497734436//
/work/sebastian/BT-20210625/1009872-light/run1009872-light.h5 tag-1497734460//
/work/sebastian/BT-20210625/1009872-light/run1009872-light.h5 tag-1497734464//
/work/sebastian/BT-20210625/1009872-light/run1009872-light.h5 tag-1497734466//
/work/sebastian/BT-20210625/1009872-light/run1009872-light.h5 tag-1497734468//
/work/sebastian/BT-20210625/1009872-light/run1009872-light.h5 tag-1497734476//
/work/sebastian/BT-20210625/1009872-light/run1009872-light.h5 tag-1497734482//
/work/sebastian/BT-20210625/1009872-light/run1009872-light.h5 tag-1497734484//
/work/sebastian/BT-20210625/1009872-light/run1009872-light.h5 tag-1497734490//
/work/sebastian/BT-20210625/1009872-light/run1009872-light.h5 tag-1497734494//
/work/sebastian/BT-20210625/1009872-light/run1009872-light.h5 tag-1497734498//
/work/sebastian/BT-20210625/1009872-light/run1009872-light.h5 tag-1497734506//
/work/sebastian/BT-20210625/1009872-light/run1009872-light.h5 tag-1497734508//
/work/sebastian/BT-20210625/1009872-light/run1009872-light.h5 tag-1497734522//
/work/sebastian/BT-20210625/1009872-light/run1009872-light.h5 tag-1497734530//
/work/sebastian/BT-20210625/1009872-light/run1009872-light.h5 tag-1497734538//
/work/sebastian/BT-20210625/1009872-light/run1009872-light.h5 tag-1497734540//
/work/sebastian/BT-20210625/1009872-light/run1009872-light.h5 tag-1497734542//
/work/sebastian/BT-20210625/1009872-light/run1009872-light.h5 tag-1497734546//
/work/sebastian/BT-20210625/1009872-light/run1009872-light.h5 tag-1497734550//
/work/sebastian/BT-20210625/1009872-light/run1009872-light.h5 tag-1497734552//
/work/sebastian/BT-20210625/1009872-light/run1009872-light.h5 tag-1497734554//
/work/sebastian/BT-20210625/1009872-light/run1009872-light.h5 tag-1497734558//
/work/sebastian/BT-20210625/1009872-light/run1009872-light.h5 tag-1497734560//
/work/sebastian/BT-20210625/1009872-light/run1009872-light.h5 tag-1497734566//
/work/sebastian/BT-20210625/1009872-light/run1009872-light.h5 tag-1497734584//
/work/sebastian/BT-20210625/1009872-light/run1009872-light.h5 tag-1497734586//
/work/sebastian/BT-20210625/1009872-light/run1009872-light.h5 tag-1497734588//
/work/sebastian/BT-20210625/1009872-light/run1009872-light.h5 tag-1497734592//
/work/sebastian/BT-20210625/1009872-light/run1009872-light.h5 tag-1497734598//
/work/sebastian/BT-20210625/1009872-light/run1009872-light.h5 tag-1497734600//
/work/sebastian/BT-20210625/1009872-light/run1009872-light.h5 tag-1497734602//
/work/sebastian/BT-20210625/1009872-light/run1009872-light.h5 tag-1497734604//
/work/sebastian/BT-20210625/1009872-light/run1009872-light.h5 tag-1497734606//
/work/sebastian/BT-20210625/1009872-light/run1009872-light.h5 tag-1497734610//
/work/sebastian/BT-20210625/1009872-light/run1009872-light.h5 tag-1497734616//
/work/sebastian/BT-20210625/1009872-light/run1009872-light.h5 tag-1497734620//
/work/sebastian/BT-20210625/1009872-light/run1009872-light.h5 tag-1497734624//
/work/sebastian/BT-20210625/1009872-light/run1009872-light.h5 tag-1497734628//
/work/sebastian/BT-20210625/1009872-light/run1009872-light.h5 tag-1497734632//
/work/sebastian/BT-20210625/1009872-light/run1009872-light.h5 tag-1497734638//
/work/sebastian/BT-20210625/1009872-light/run1009872-light.h5 tag-1497734640//
/work/sebastian/BT-20210625/1009872-light/run1009872-light.h5 tag-1497734648//
/work/sebastian/BT-20210625/1009872-light/run1009872-light.h5 tag-1497734650//
/work/sebastian/BT-20210625/1009872-light/run1009872-light.h5 tag-1497734654//
/work/sebastian/BT-20210625/1009872-light/run1009872-light.h5 tag-1497734662//
/work/sebastian/BT-20210625/1009872-light/run1009872-light.h5 tag-1497734670//
/work/sebastian/BT-20210625/1009872-light/run1009872-light.h5 tag-1497734672//
/work/sebastian/BT-20210625/1009872-light/run1009872-light.h5 tag-1497734674//
/work/sebastian/BT-20210625/1009872-light/run1009872-light.h5 tag-1497734676//
/work/sebastian/BT-20210625/1009872-light/run1009872-light.h5 tag-1497734680//
/work/sebastian/BT-20210625/1009872-light/run1009872-light.h5 tag-1497734682//
/work/sebastian/BT-20210625/1009872-light/run1009872-light.h5 tag-1497734686//
/work/sebastian/BT-20210625/1009872-light/run1009872-light.h5 tag-1497734690//
/work/sebastian/BT-20210625/1009872-light/run1009872-light.h5 tag-1497734692//
/work/sebastian/BT-20210625/1009872-light/run1009872-light.h5 tag-1497734694//
/work/sebastian/BT-20210625/1009872-light/run1009872-light.h5 tag-1497734698//
/work/sebastian/BT-20210625/1009872-light/run1009872-light.h5 tag-1497734700//
/work/sebastian/BT-20210625/1009872-light/run1009872-light.h5 tag-1497734702//
/work/sebastian/BT-20210625/1009872-light/run1009872-light.h5 tag-1497734704//
/work/sebastian/BT-20210625/1009872-light/run1009872-light.h5 tag-1497734710//
/work/sebastian/BT-20210625/1009872-light/run1009872-light.h5 tag-1497734718//
/work/sebastian/BT-20210625/1009872-light/run1009872-light.h5 tag-1497734720//
/work/sebastian/BT-20210625/1009872-light/run1009872-light.h5 tag-1497734730//
/work/sebastian/BT-20210625/1009872-light/run1009872-light.h5 tag-1497734740//
/work/sebastian/BT-20210625/1009872-light/run1009872-light.h5 tag-1497734754//
/work/sebastian/BT-20210625/1009872-light/run1009872-light.h5 tag-1497734756//
/work/sebastian/BT-20210625/1009872-light/run1009872-light.h5 tag-1497734758//
/work/sebastian/BT-20210625/1009872-light/run1009872-light.h5 tag-1497734760//
/work/sebastian/BT-20210625/1009872-light/run1009872-light.h5 tag-1497734762//
/work/sebastian/BT-20210625/1009872-light/run1009872-light.h5 tag-1497734766//
/work/sebastian/BT-20210625/1009872-light/run1009872-light.h5 tag-1497734770//
/work/sebastian/BT-20210625/1009872-light/run1009872-light.h5 tag-1497734772//
/work/sebastian/BT-20210625/1009872-light/run1009872-light.h5 tag-1497734776//
/work/sebastian/BT-20210625/1009872-light/run1009872-light.h5 tag-1497734780//
/work/sebastian/BT-20210625/1009872-light/run1009872-light.h5 tag-1497734782//
/work/sebastian/BT-20210625/1009872-light/run1009872-light.h5 tag-1497734784//
/work/sebastian/BT-20210625/1009872-light/run1009872-light.h5 tag-1497734786//
/work/sebastian/BT-20210625/1009872-light/run1009872-light.h5 tag-1497734790//
/work/sebastian/BT-20210625/1009872-light/run1009872-light.h5 tag-1497734798//
/work/sebastian/BT-20210625/1009872-light/run1009872-light.h5 tag-1497734802//
/work/sebastian/BT-20210625/1009872-light/run1009872-light.h5 tag-1497734808//
/work/sebastian/BT-20210625/1009872-light/run1009872-light.h5 tag-1497734810//
/work/sebastian/BT-20210625/1009872-light/run1009872-light.h5 tag-1497734814//
/work/sebastian/BT-20210625/1009872-light/run1009872-light.h5 tag-1497734832//
/work/sebastian/BT-20210625/1009872-light/run1009872-light.h5 tag-1497734834//
/work/sebastian/BT-20210625/1009872-light/run1009872-light.h5 tag-1497734836//
/work/sebastian/BT-20210625/1009872-light/run1009872-light.h5 tag-1497734838//
/work/sebastian/BT-20210625/1009872-light/run1009872-light.h5 tag-1497734844//
/work/sebastian/BT-20210625/1009872-light/run1009872-light.h5 tag-1497734848//
/work/sebastian/BT-20210625/1009872-light/run1009872-light.h5 tag-1497734850//
/work/sebastian/BT-20210625/1009872-light/run1009872-light.h5 tag-1497734856//
/work/sebastian/BT-20210625/1009872-light/run1009872-light.h5 tag-1497734864//
/work/sebastian/BT-20210625/1009872-light/run1009872-light.h5 tag-1497734870//
/work/sebastian/BT-20210625/1009872-light/run1009872-light.h5 tag-1497734876//
/work/sebastian/BT-20210625/1009872-light/run1009872-light.h5 tag-1497734878//
/work/sebastian/BT-20210625/1009872-light/run1009872-light.h5 tag-1497734882//
/work/sebastian/BT-20210625/1009872-light/run1009872-light.h5 tag-1497734886//
/work/sebastian/BT-20210625/1009872-light/run1009872-light.h5 tag-1497734890//
/work/sebastian/BT-20210625/1009872-light/run1009872-light.h5 tag-1497734894//
/work/sebastian/BT-20210625/1009872-light/run1009872-light.h5 tag-1497734896//
/work/sebastian/BT-20210625/1009872-light/run1009872-light.h5 tag-1497734898//
/work/sebastian/BT-20210625/1009872-light/run1009872-light.h5 tag-1497734900//
/work/sebastian/BT-20210625/1009872-light/run1009872-light.h5 tag-1497734910//
/work/sebastian/BT-20210625/1009872-light/run1009872-light.h5 tag-1497734924//
/work/sebastian/BT-20210625/1009872-light/run1009872-light.h5 tag-1497734944//
/work/sebastian/BT-20210625/1009872-light/run1009872-light.h5 tag-1497734950//
/work/sebastian/BT-20210625/1009872-light/run1009872-light.h5 tag-1497734958//
/work/sebastian/BT-20210625/1009872-light/run1009872-light.h5 tag-1497734964//
/work/sebastian/BT-20210625/1009872-light/run1009872-light.h5 tag-1497734968//
/work/sebastian/BT-20210625/1009872-light/run1009872-light.h5 tag-1497734970//
/work/sebastian/BT-20210625/1009872-light/run1009872-light.h5 tag-1497734976//
/work/sebastian/BT-20210625/1009872-light/run1009872-light.h5 tag-1497734978//
/work/sebastian/BT-20210625/1009872-light/run1009872-light.h5 tag-1497734980//
/work/sebastian/BT-20210625/1009872-light/run1009872-light.h5 tag-1497734982//
/work/sebastian/BT-20210625/1009872-light/run1009872-light.h5 tag-1497734988//
/work/sebastian/BT-20210625/1009872-light/run1009872-light.h5 tag-1497734990//
/work/sebastian/BT-20210625/1009872-light/run1009872-light.h5 tag-1497734998//
/work/sebastian/BT-20210625/1009872-light/run1009872-light.h5 tag-1497735004//
/work/sebastian/BT-20210625/1009872-light/run1009872-light.h5 tag-1497735008//
/work/sebastian/BT-20210625/1009872-light/run1009872-light.h5 tag-1497735010//
/work/sebastian/BT-20210625/1009872-light/run1009872-light.h5 tag-1497735014//
/work/sebastian/BT-20210625/1009872-light/run1009872-light.h5 tag-1497735020//
/work/sebastian/BT-20210625/1009872-light/run1009872-light.h5 tag-1497735022//
/work/sebastian/BT-20210625/1009872-light/run1009872-light.h5 tag-1497735024//
/work/sebastian/BT-20210625/1009872-light/run1009872-light.h5 tag-1497735028//
/work/sebastian/BT-20210625/1009872-light/run1009872-light.h5 tag-1497735032//
/work/sebastian/BT-20210625/1009872-light/run1009872-light.h5 tag-1497735038//
/work/sebastian/BT-20210625/1009872-light/run1009872-light.h5 tag-1497735042//
/work/sebastian/BT-20210625/1009872-light/run1009872-light.h5 tag-1497735044//
/work/sebastian/BT-20210625/1009872-light/run1009872-light.h5 tag-1497735054//
/work/sebastian/BT-20210625/1009872-light/run1009872-light.h5 tag-1497735062//
/work/sebastian/BT-20210625/1009872-light/run1009872-light.h5 tag-1497735064//
/work/sebastian/BT-20210625/1009872-light/run1009872-light.h5 tag-1497735068//
/work/sebastian/BT-20210625/1009872-light/run1009872-light.h5 tag-1497735070//
/work/sebastian/BT-20210625/1009872-light/run1009872-light.h5 tag-1497735072//
/work/sebastian/BT-20210625/1009872-light/run1009872-light.h5 tag-1497735078//
/work/sebastian/BT-20210625/1009872-light/run1009872-light.h5 tag-1497735088//
/work/sebastian/BT-20210625/1009872-light/run1009872-light.h5 tag-1497735092//
/work/sebastian/BT-20210625/1009872-light/run1009872-light.h5 tag-1497735096//
/work/sebastian/BT-20210625/1009872-light/run1009872-light.h5 tag-1497735100//
/work/sebastian/BT-20210625/1009872-light/run1009872-light.h5 tag-1497735104//
/work/sebastian/BT-20210625/1009872-light/run1009872-light.h5 tag-1497735114//
/work/sebastian/BT-20210625/1009872-light/run1009872-light.h5 tag-1497735116//
/work/sebastian/BT-20210625/1009872-light/run1009872-light.h5 tag-1497735118//
/work/sebastian/BT-20210625/1009872-light/run1009872-light.h5 tag-1497735120//
/work/sebastian/BT-20210625/1009872-light/run1009872-light.h5 tag-1497735132//
/work/sebastian/BT-20210625/1009872-light/run1009872-light.h5 tag-1497735134//
/work/sebastian/BT-20210625/1009872-light/run1009872-light.h5 tag-1497735138//
/work/sebastian/BT-20210625/1009872-light/run1009872-light.h5 tag-1497735142//
/work/sebastian/BT-20210625/1009872-light/run1009872-light.h5 tag-1497735144//
/work/sebastian/BT-20210625/1009872-light/run1009872-light.h5 tag-1497735146//
/work/sebastian/BT-20210625/1009872-light/run1009872-light.h5 tag-1497735148//
/work/sebastian/BT-20210625/1009872-light/run1009872-light.h5 tag-1497735150//
/work/sebastian/BT-20210625/1009872-light/run1009872-light.h5 tag-1497735152//
/work/sebastian/BT-20210625/1009872-light/run1009872-light.h5 tag-1497735156//
/work/sebastian/BT-20210625/1009872-light/run1009872-light.h5 tag-1497735158//
/work/sebastian/BT-20210625/1009872-light/run1009872-light.h5 tag-1497735160//
/work/sebastian/BT-20210625/1009872-light/run1009872-light.h5 tag-1497735162//
/work/sebastian/BT-20210625/1009872-light/run1009872-light.h5 tag-1497735168//
/work/sebastian/BT-20210625/1009872-light/run1009872-light.h5 tag-1497735174//
/work/sebastian/BT-20210625/1009872-light/run1009872-light.h5 tag-1497735176//
/work/sebastian/BT-20210625/1009872-light/run1009872-light.h5 tag-1497735178//
/work/sebastian/BT-20210625/1009872-light/run1009872-light.h5 tag-1497735184//
/work/sebastian/BT-20210625/1009872-light/run1009872-light.h5 tag-1497735188//
/work/sebastian/BT-20210625/1009872-light/run1009872-light.h5 tag-1497735190//
/work/sebastian/BT-20210625/1009872-light/run1009872-light.h5 tag-1497735192//
/work/sebastian/BT-20210625/1009872-light/run1009872-light.h5 tag-1497735194//
/work/sebastian/BT-20210625/1009872-light/run1009872-light.h5 tag-1497735198//
/work/sebastian/BT-20210625/1009872-light/run1009872-light.h5 tag-1497735200//
/work/sebastian/BT-20210625/1009872-light/run1009872-light.h5 tag-1497735202//
/work/sebastian/BT-20210625/1009872-light/run1009872-light.h5 tag-1497735204//
