/work/sebastian/BT-20210625/1010007-light/run1010007-light.h5 tag-1498464144//
/work/sebastian/BT-20210625/1010007-light/run1010007-light.h5 tag-1498464158//
/work/sebastian/BT-20210625/1010007-light/run1010007-light.h5 tag-1498464162//
/work/sebastian/BT-20210625/1010007-light/run1010007-light.h5 tag-1498464172//
/work/sebastian/BT-20210625/1010007-light/run1010007-light.h5 tag-1498464178//
/work/sebastian/BT-20210625/1010007-light/run1010007-light.h5 tag-1498464190//
/work/sebastian/BT-20210625/1010007-light/run1010007-light.h5 tag-1498464194//
/work/sebastian/BT-20210625/1010007-light/run1010007-light.h5 tag-1498464216//
/work/sebastian/BT-20210625/1010007-light/run1010007-light.h5 tag-1498464230//
/work/sebastian/BT-20210625/1010007-light/run1010007-light.h5 tag-1498464248//
/work/sebastian/BT-20210625/1010007-light/run1010007-light.h5 tag-1498464260//
/work/sebastian/BT-20210625/1010007-light/run1010007-light.h5 tag-1498464284//
/work/sebastian/BT-20210625/1010007-light/run1010007-light.h5 tag-1498464288//
/work/sebastian/BT-20210625/1010007-light/run1010007-light.h5 tag-1498464296//
/work/sebastian/BT-20210625/1010007-light/run1010007-light.h5 tag-1498464324//
/work/sebastian/BT-20210625/1010007-light/run1010007-light.h5 tag-1498464336//
/work/sebastian/BT-20210625/1010007-light/run1010007-light.h5 tag-1498464346//
/work/sebastian/BT-20210625/1010007-light/run1010007-light.h5 tag-1498464368//
/work/sebastian/BT-20210625/1010007-light/run1010007-light.h5 tag-1498464386//
/work/sebastian/BT-20210625/1010007-light/run1010007-light.h5 tag-1498464398//
/work/sebastian/BT-20210625/1010007-light/run1010007-light.h5 tag-1498464414//
/work/sebastian/BT-20210625/1010007-light/run1010007-light.h5 tag-1498464416//
/work/sebastian/BT-20210625/1010007-light/run1010007-light.h5 tag-1498464422//
/work/sebastian/BT-20210625/1010007-light/run1010007-light.h5 tag-1498464434//
/work/sebastian/BT-20210625/1010007-light/run1010007-light.h5 tag-1498464446//
/work/sebastian/BT-20210625/1010007-light/run1010007-light.h5 tag-1498464466//
/work/sebastian/BT-20210625/1010007-light/run1010007-light.h5 tag-1498464468//
/work/sebastian/BT-20210625/1010007-light/run1010007-light.h5 tag-1498464480//
/work/sebastian/BT-20210625/1010007-light/run1010007-light.h5 tag-1498464484//
/work/sebastian/BT-20210625/1010007-light/run1010007-light.h5 tag-1498464486//
/work/sebastian/BT-20210625/1010007-light/run1010007-light.h5 tag-1498464488//
/work/sebastian/BT-20210625/1010007-light/run1010007-light.h5 tag-1498464502//
/work/sebastian/BT-20210625/1010007-light/run1010007-light.h5 tag-1498464504//
/work/sebastian/BT-20210625/1010007-light/run1010007-light.h5 tag-1498464516//
/work/sebastian/BT-20210625/1010007-light/run1010007-light.h5 tag-1498464528//
/work/sebastian/BT-20210625/1010007-light/run1010007-light.h5 tag-1498464538//
/work/sebastian/BT-20210625/1010007-light/run1010007-light.h5 tag-1498464548//
/work/sebastian/BT-20210625/1010007-light/run1010007-light.h5 tag-1498464550//
/work/sebastian/BT-20210625/1010007-light/run1010007-light.h5 tag-1498464552//
/work/sebastian/BT-20210625/1010007-light/run1010007-light.h5 tag-1498464558//
/work/sebastian/BT-20210625/1010007-light/run1010007-light.h5 tag-1498464564//
/work/sebastian/BT-20210625/1010007-light/run1010007-light.h5 tag-1498464584//
/work/sebastian/BT-20210625/1010007-light/run1010007-light.h5 tag-1498464588//
/work/sebastian/BT-20210625/1010007-light/run1010007-light.h5 tag-1498464626//
/work/sebastian/BT-20210625/1010007-light/run1010007-light.h5 tag-1498464670//
/work/sebastian/BT-20210625/1010007-light/run1010007-light.h5 tag-1498464674//
/work/sebastian/BT-20210625/1010007-light/run1010007-light.h5 tag-1498464682//
/work/sebastian/BT-20210625/1010007-light/run1010007-light.h5 tag-1498464696//
/work/sebastian/BT-20210625/1010007-light/run1010007-light.h5 tag-1498464710//
/work/sebastian/BT-20210625/1010007-light/run1010007-light.h5 tag-1498464712//
