/work/sebastian/BT-20210625/1010030-light/run1010030-light.h5 tag-1498604254//
/work/sebastian/BT-20210625/1010030-light/run1010030-light.h5 tag-1498604260//
/work/sebastian/BT-20210625/1010030-light/run1010030-light.h5 tag-1498604262//
/work/sebastian/BT-20210625/1010030-light/run1010030-light.h5 tag-1498604266//
/work/sebastian/BT-20210625/1010030-light/run1010030-light.h5 tag-1498604272//
/work/sebastian/BT-20210625/1010030-light/run1010030-light.h5 tag-1498604276//
/work/sebastian/BT-20210625/1010030-light/run1010030-light.h5 tag-1498604278//
/work/sebastian/BT-20210625/1010030-light/run1010030-light.h5 tag-1498604282//
/work/sebastian/BT-20210625/1010030-light/run1010030-light.h5 tag-1498604294//
/work/sebastian/BT-20210625/1010030-light/run1010030-light.h5 tag-1498604298//
/work/sebastian/BT-20210625/1010030-light/run1010030-light.h5 tag-1498604300//
/work/sebastian/BT-20210625/1010030-light/run1010030-light.h5 tag-1498604306//
/work/sebastian/BT-20210625/1010030-light/run1010030-light.h5 tag-1498604310//
/work/sebastian/BT-20210625/1010030-light/run1010030-light.h5 tag-1498604312//
/work/sebastian/BT-20210625/1010030-light/run1010030-light.h5 tag-1498604316//
/work/sebastian/BT-20210625/1010030-light/run1010030-light.h5 tag-1498604318//
/work/sebastian/BT-20210625/1010030-light/run1010030-light.h5 tag-1498604320//
/work/sebastian/BT-20210625/1010030-light/run1010030-light.h5 tag-1498604324//
/work/sebastian/BT-20210625/1010030-light/run1010030-light.h5 tag-1498604328//
/work/sebastian/BT-20210625/1010030-light/run1010030-light.h5 tag-1498604330//
/work/sebastian/BT-20210625/1010030-light/run1010030-light.h5 tag-1498604340//
/work/sebastian/BT-20210625/1010030-light/run1010030-light.h5 tag-1498604350//
/work/sebastian/BT-20210625/1010030-light/run1010030-light.h5 tag-1498604356//
/work/sebastian/BT-20210625/1010030-light/run1010030-light.h5 tag-1498604358//
/work/sebastian/BT-20210625/1010030-light/run1010030-light.h5 tag-1498604360//
/work/sebastian/BT-20210625/1010030-light/run1010030-light.h5 tag-1498604368//
/work/sebastian/BT-20210625/1010030-light/run1010030-light.h5 tag-1498604372//
/work/sebastian/BT-20210625/1010030-light/run1010030-light.h5 tag-1498604374//
/work/sebastian/BT-20210625/1010030-light/run1010030-light.h5 tag-1498604382//
/work/sebastian/BT-20210625/1010030-light/run1010030-light.h5 tag-1498604384//
/work/sebastian/BT-20210625/1010030-light/run1010030-light.h5 tag-1498604386//
/work/sebastian/BT-20210625/1010030-light/run1010030-light.h5 tag-1498604392//
/work/sebastian/BT-20210625/1010030-light/run1010030-light.h5 tag-1498604400//
/work/sebastian/BT-20210625/1010030-light/run1010030-light.h5 tag-1498604408//
/work/sebastian/BT-20210625/1010030-light/run1010030-light.h5 tag-1498604416//
/work/sebastian/BT-20210625/1010030-light/run1010030-light.h5 tag-1498604418//
/work/sebastian/BT-20210625/1010030-light/run1010030-light.h5 tag-1498604420//
/work/sebastian/BT-20210625/1010030-light/run1010030-light.h5 tag-1498604434//
/work/sebastian/BT-20210625/1010030-light/run1010030-light.h5 tag-1498604442//
/work/sebastian/BT-20210625/1010030-light/run1010030-light.h5 tag-1498604446//
/work/sebastian/BT-20210625/1010030-light/run1010030-light.h5 tag-1498604448//
/work/sebastian/BT-20210625/1010030-light/run1010030-light.h5 tag-1498604452//
/work/sebastian/BT-20210625/1010030-light/run1010030-light.h5 tag-1498604454//
/work/sebastian/BT-20210625/1010030-light/run1010030-light.h5 tag-1498604458//
/work/sebastian/BT-20210625/1010030-light/run1010030-light.h5 tag-1498604460//
/work/sebastian/BT-20210625/1010030-light/run1010030-light.h5 tag-1498604470//
/work/sebastian/BT-20210625/1010030-light/run1010030-light.h5 tag-1498604478//
/work/sebastian/BT-20210625/1010030-light/run1010030-light.h5 tag-1498604484//
/work/sebastian/BT-20210625/1010030-light/run1010030-light.h5 tag-1498604488//
/work/sebastian/BT-20210625/1010030-light/run1010030-light.h5 tag-1498604490//
/work/sebastian/BT-20210625/1010030-light/run1010030-light.h5 tag-1498604500//
/work/sebastian/BT-20210625/1010030-light/run1010030-light.h5 tag-1498604502//
/work/sebastian/BT-20210625/1010030-light/run1010030-light.h5 tag-1498604506//
/work/sebastian/BT-20210625/1010030-light/run1010030-light.h5 tag-1498604512//
/work/sebastian/BT-20210625/1010030-light/run1010030-light.h5 tag-1498604514//
/work/sebastian/BT-20210625/1010030-light/run1010030-light.h5 tag-1498604518//
/work/sebastian/BT-20210625/1010030-light/run1010030-light.h5 tag-1498604520//
/work/sebastian/BT-20210625/1010030-light/run1010030-light.h5 tag-1498604522//
/work/sebastian/BT-20210625/1010030-light/run1010030-light.h5 tag-1498604526//
/work/sebastian/BT-20210625/1010030-light/run1010030-light.h5 tag-1498604528//
/work/sebastian/BT-20210625/1010030-light/run1010030-light.h5 tag-1498604532//
/work/sebastian/BT-20210625/1010030-light/run1010030-light.h5 tag-1498604538//
/work/sebastian/BT-20210625/1010030-light/run1010030-light.h5 tag-1498604540//
/work/sebastian/BT-20210625/1010030-light/run1010030-light.h5 tag-1498604544//
/work/sebastian/BT-20210625/1010030-light/run1010030-light.h5 tag-1498604546//
/work/sebastian/BT-20210625/1010030-light/run1010030-light.h5 tag-1498604550//
/work/sebastian/BT-20210625/1010030-light/run1010030-light.h5 tag-1498604552//
/work/sebastian/BT-20210625/1010030-light/run1010030-light.h5 tag-1498604554//
/work/sebastian/BT-20210625/1010030-light/run1010030-light.h5 tag-1498604560//
/work/sebastian/BT-20210625/1010030-light/run1010030-light.h5 tag-1498604570//
/work/sebastian/BT-20210625/1010030-light/run1010030-light.h5 tag-1498604576//
/work/sebastian/BT-20210625/1010030-light/run1010030-light.h5 tag-1498604580//
/work/sebastian/BT-20210625/1010030-light/run1010030-light.h5 tag-1498604582//
/work/sebastian/BT-20210625/1010030-light/run1010030-light.h5 tag-1498604586//
/work/sebastian/BT-20210625/1010030-light/run1010030-light.h5 tag-1498604590//
/work/sebastian/BT-20210625/1010030-light/run1010030-light.h5 tag-1498604592//
/work/sebastian/BT-20210625/1010030-light/run1010030-light.h5 tag-1498604596//
/work/sebastian/BT-20210625/1010030-light/run1010030-light.h5 tag-1498604598//
/work/sebastian/BT-20210625/1010030-light/run1010030-light.h5 tag-1498604604//
/work/sebastian/BT-20210625/1010030-light/run1010030-light.h5 tag-1498604608//
/work/sebastian/BT-20210625/1010030-light/run1010030-light.h5 tag-1498604610//
/work/sebastian/BT-20210625/1010030-light/run1010030-light.h5 tag-1498604612//
/work/sebastian/BT-20210625/1010030-light/run1010030-light.h5 tag-1498604618//
/work/sebastian/BT-20210625/1010030-light/run1010030-light.h5 tag-1498604620//
/work/sebastian/BT-20210625/1010030-light/run1010030-light.h5 tag-1498604622//
/work/sebastian/BT-20210625/1010030-light/run1010030-light.h5 tag-1498604624//
/work/sebastian/BT-20210625/1010030-light/run1010030-light.h5 tag-1498604630//
/work/sebastian/BT-20210625/1010030-light/run1010030-light.h5 tag-1498604632//
/work/sebastian/BT-20210625/1010030-light/run1010030-light.h5 tag-1498604636//
/work/sebastian/BT-20210625/1010030-light/run1010030-light.h5 tag-1498604638//
/work/sebastian/BT-20210625/1010030-light/run1010030-light.h5 tag-1498604646//
/work/sebastian/BT-20210625/1010030-light/run1010030-light.h5 tag-1498604654//
/work/sebastian/BT-20210625/1010030-light/run1010030-light.h5 tag-1498604658//
/work/sebastian/BT-20210625/1010030-light/run1010030-light.h5 tag-1498604662//
/work/sebastian/BT-20210625/1010030-light/run1010030-light.h5 tag-1498604668//
/work/sebastian/BT-20210625/1010030-light/run1010030-light.h5 tag-1498604672//
/work/sebastian/BT-20210625/1010030-light/run1010030-light.h5 tag-1498604676//
/work/sebastian/BT-20210625/1010030-light/run1010030-light.h5 tag-1498604678//
/work/sebastian/BT-20210625/1010030-light/run1010030-light.h5 tag-1498604682//
/work/sebastian/BT-20210625/1010030-light/run1010030-light.h5 tag-1498604684//
/work/sebastian/BT-20210625/1010030-light/run1010030-light.h5 tag-1498604688//
/work/sebastian/BT-20210625/1010030-light/run1010030-light.h5 tag-1498604690//
/work/sebastian/BT-20210625/1010030-light/run1010030-light.h5 tag-1498604694//
/work/sebastian/BT-20210625/1010030-light/run1010030-light.h5 tag-1498604706//
/work/sebastian/BT-20210625/1010030-light/run1010030-light.h5 tag-1498604712//
/work/sebastian/BT-20210625/1010030-light/run1010030-light.h5 tag-1498604714//
/work/sebastian/BT-20210625/1010030-light/run1010030-light.h5 tag-1498604718//
/work/sebastian/BT-20210625/1010030-light/run1010030-light.h5 tag-1498604720//
/work/sebastian/BT-20210625/1010030-light/run1010030-light.h5 tag-1498604724//
/work/sebastian/BT-20210625/1010030-light/run1010030-light.h5 tag-1498604726//
/work/sebastian/BT-20210625/1010030-light/run1010030-light.h5 tag-1498604728//
/work/sebastian/BT-20210625/1010030-light/run1010030-light.h5 tag-1498604730//
/work/sebastian/BT-20210625/1010030-light/run1010030-light.h5 tag-1498604740//
/work/sebastian/BT-20210625/1010030-light/run1010030-light.h5 tag-1498604742//
/work/sebastian/BT-20210625/1010030-light/run1010030-light.h5 tag-1498604744//
/work/sebastian/BT-20210625/1010030-light/run1010030-light.h5 tag-1498604746//
/work/sebastian/BT-20210625/1010030-light/run1010030-light.h5 tag-1498604748//
/work/sebastian/BT-20210625/1010030-light/run1010030-light.h5 tag-1498604750//
/work/sebastian/BT-20210625/1010030-light/run1010030-light.h5 tag-1498604752//
/work/sebastian/BT-20210625/1010030-light/run1010030-light.h5 tag-1498604754//
/work/sebastian/BT-20210625/1010030-light/run1010030-light.h5 tag-1498604756//
/work/sebastian/BT-20210625/1010030-light/run1010030-light.h5 tag-1498604760//
/work/sebastian/BT-20210625/1010030-light/run1010030-light.h5 tag-1498604762//
/work/sebastian/BT-20210625/1010030-light/run1010030-light.h5 tag-1498604766//
/work/sebastian/BT-20210625/1010030-light/run1010030-light.h5 tag-1498604768//
/work/sebastian/BT-20210625/1010030-light/run1010030-light.h5 tag-1498604776//
/work/sebastian/BT-20210625/1010030-light/run1010030-light.h5 tag-1498604778//
/work/sebastian/BT-20210625/1010030-light/run1010030-light.h5 tag-1498604784//
/work/sebastian/BT-20210625/1010030-light/run1010030-light.h5 tag-1498604788//
/work/sebastian/BT-20210625/1010030-light/run1010030-light.h5 tag-1498604790//
/work/sebastian/BT-20210625/1010030-light/run1010030-light.h5 tag-1498604796//
/work/sebastian/BT-20210625/1010030-light/run1010030-light.h5 tag-1498604800//
/work/sebastian/BT-20210625/1010030-light/run1010030-light.h5 tag-1498604804//
/work/sebastian/BT-20210625/1010030-light/run1010030-light.h5 tag-1498604806//
/work/sebastian/BT-20210625/1010030-light/run1010030-light.h5 tag-1498604808//
/work/sebastian/BT-20210625/1010030-light/run1010030-light.h5 tag-1498604812//
/work/sebastian/BT-20210625/1010030-light/run1010030-light.h5 tag-1498604814//
/work/sebastian/BT-20210625/1010030-light/run1010030-light.h5 tag-1498604816//
/work/sebastian/BT-20210625/1010030-light/run1010030-light.h5 tag-1498604818//
/work/sebastian/BT-20210625/1010030-light/run1010030-light.h5 tag-1498604822//
/work/sebastian/BT-20210625/1010030-light/run1010030-light.h5 tag-1498604824//
/work/sebastian/BT-20210625/1010030-light/run1010030-light.h5 tag-1498604834//
/work/sebastian/BT-20210625/1010030-light/run1010030-light.h5 tag-1498604840//
/work/sebastian/BT-20210625/1010030-light/run1010030-light.h5 tag-1498604842//
/work/sebastian/BT-20210625/1010030-light/run1010030-light.h5 tag-1498604844//
/work/sebastian/BT-20210625/1010030-light/run1010030-light.h5 tag-1498604850//
/work/sebastian/BT-20210625/1010030-light/run1010030-light.h5 tag-1498604852//
/work/sebastian/BT-20210625/1010030-light/run1010030-light.h5 tag-1498604856//
/work/sebastian/BT-20210625/1010030-light/run1010030-light.h5 tag-1498604858//
/work/sebastian/BT-20210625/1010030-light/run1010030-light.h5 tag-1498604860//
/work/sebastian/BT-20210625/1010030-light/run1010030-light.h5 tag-1498604862//
/work/sebastian/BT-20210625/1010030-light/run1010030-light.h5 tag-1498604864//
/work/sebastian/BT-20210625/1010030-light/run1010030-light.h5 tag-1498604866//
/work/sebastian/BT-20210625/1010030-light/run1010030-light.h5 tag-1498604870//
/work/sebastian/BT-20210625/1010030-light/run1010030-light.h5 tag-1498604874//
/work/sebastian/BT-20210625/1010030-light/run1010030-light.h5 tag-1498604876//
/work/sebastian/BT-20210625/1010030-light/run1010030-light.h5 tag-1498604880//
/work/sebastian/BT-20210625/1010030-light/run1010030-light.h5 tag-1498604882//
/work/sebastian/BT-20210625/1010030-light/run1010030-light.h5 tag-1498604886//
/work/sebastian/BT-20210625/1010030-light/run1010030-light.h5 tag-1498604888//
/work/sebastian/BT-20210625/1010030-light/run1010030-light.h5 tag-1498604890//
/work/sebastian/BT-20210625/1010030-light/run1010030-light.h5 tag-1498604898//
/work/sebastian/BT-20210625/1010030-light/run1010030-light.h5 tag-1498604910//
/work/sebastian/BT-20210625/1010030-light/run1010030-light.h5 tag-1498604914//
/work/sebastian/BT-20210625/1010030-light/run1010030-light.h5 tag-1498604920//
/work/sebastian/BT-20210625/1010030-light/run1010030-light.h5 tag-1498604926//
/work/sebastian/BT-20210625/1010030-light/run1010030-light.h5 tag-1498604932//
/work/sebastian/BT-20210625/1010030-light/run1010030-light.h5 tag-1498604936//
/work/sebastian/BT-20210625/1010030-light/run1010030-light.h5 tag-1498604938//
/work/sebastian/BT-20210625/1010030-light/run1010030-light.h5 tag-1498604944//
/work/sebastian/BT-20210625/1010030-light/run1010030-light.h5 tag-1498604950//
/work/sebastian/BT-20210625/1010030-light/run1010030-light.h5 tag-1498604952//
/work/sebastian/BT-20210625/1010030-light/run1010030-light.h5 tag-1498604956//
/work/sebastian/BT-20210625/1010030-light/run1010030-light.h5 tag-1498604962//
/work/sebastian/BT-20210625/1010030-light/run1010030-light.h5 tag-1498604964//
/work/sebastian/BT-20210625/1010030-light/run1010030-light.h5 tag-1498604970//
/work/sebastian/BT-20210625/1010030-light/run1010030-light.h5 tag-1498604972//
/work/sebastian/BT-20210625/1010030-light/run1010030-light.h5 tag-1498604974//
/work/sebastian/BT-20210625/1010030-light/run1010030-light.h5 tag-1498604980//
/work/sebastian/BT-20210625/1010030-light/run1010030-light.h5 tag-1498604984//
/work/sebastian/BT-20210625/1010030-light/run1010030-light.h5 tag-1498604990//
/work/sebastian/BT-20210625/1010030-light/run1010030-light.h5 tag-1498604992//
/work/sebastian/BT-20210625/1010030-light/run1010030-light.h5 tag-1498604994//
/work/sebastian/BT-20210625/1010030-light/run1010030-light.h5 tag-1498605000//
/work/sebastian/BT-20210625/1010030-light/run1010030-light.h5 tag-1498605002//
/work/sebastian/BT-20210625/1010030-light/run1010030-light.h5 tag-1498605008//
/work/sebastian/BT-20210625/1010030-light/run1010030-light.h5 tag-1498605018//
/work/sebastian/BT-20210625/1010030-light/run1010030-light.h5 tag-1498605022//
/work/sebastian/BT-20210625/1010030-light/run1010030-light.h5 tag-1498605024//
/work/sebastian/BT-20210625/1010030-light/run1010030-light.h5 tag-1498605026//
/work/sebastian/BT-20210625/1010030-light/run1010030-light.h5 tag-1498605028//
/work/sebastian/BT-20210625/1010030-light/run1010030-light.h5 tag-1498605032//
/work/sebastian/BT-20210625/1010030-light/run1010030-light.h5 tag-1498605034//
/work/sebastian/BT-20210625/1010030-light/run1010030-light.h5 tag-1498605038//
/work/sebastian/BT-20210625/1010030-light/run1010030-light.h5 tag-1498605040//
/work/sebastian/BT-20210625/1010030-light/run1010030-light.h5 tag-1498605044//
/work/sebastian/BT-20210625/1010030-light/run1010030-light.h5 tag-1498605046//
/work/sebastian/BT-20210625/1010030-light/run1010030-light.h5 tag-1498605050//
/work/sebastian/BT-20210625/1010030-light/run1010030-light.h5 tag-1498605054//
/work/sebastian/BT-20210625/1010030-light/run1010030-light.h5 tag-1498605056//
/work/sebastian/BT-20210625/1010030-light/run1010030-light.h5 tag-1498605060//
/work/sebastian/BT-20210625/1010030-light/run1010030-light.h5 tag-1498605064//
/work/sebastian/BT-20210625/1010030-light/run1010030-light.h5 tag-1498605078//
/work/sebastian/BT-20210625/1010030-light/run1010030-light.h5 tag-1498605086//
/work/sebastian/BT-20210625/1010030-light/run1010030-light.h5 tag-1498605092//
/work/sebastian/BT-20210625/1010030-light/run1010030-light.h5 tag-1498605094//
/work/sebastian/BT-20210625/1010030-light/run1010030-light.h5 tag-1498605096//
/work/sebastian/BT-20210625/1010030-light/run1010030-light.h5 tag-1498605098//
/work/sebastian/BT-20210625/1010030-light/run1010030-light.h5 tag-1498605104//
/work/sebastian/BT-20210625/1010030-light/run1010030-light.h5 tag-1498605106//
/work/sebastian/BT-20210625/1010030-light/run1010030-light.h5 tag-1498605110//
/work/sebastian/BT-20210625/1010030-light/run1010030-light.h5 tag-1498605114//
/work/sebastian/BT-20210625/1010030-light/run1010030-light.h5 tag-1498605116//
/work/sebastian/BT-20210625/1010030-light/run1010030-light.h5 tag-1498605120//
/work/sebastian/BT-20210625/1010030-light/run1010030-light.h5 tag-1498605122//
/work/sebastian/BT-20210625/1010030-light/run1010030-light.h5 tag-1498605124//
/work/sebastian/BT-20210625/1010030-light/run1010030-light.h5 tag-1498605126//
/work/sebastian/BT-20210625/1010030-light/run1010030-light.h5 tag-1498605130//
/work/sebastian/BT-20210625/1010030-light/run1010030-light.h5 tag-1498605132//
/work/sebastian/BT-20210625/1010030-light/run1010030-light.h5 tag-1498605134//
/work/sebastian/BT-20210625/1010030-light/run1010030-light.h5 tag-1498605136//
/work/sebastian/BT-20210625/1010030-light/run1010030-light.h5 tag-1498605138//
/work/sebastian/BT-20210625/1010030-light/run1010030-light.h5 tag-1498605142//
/work/sebastian/BT-20210625/1010030-light/run1010030-light.h5 tag-1498605146//
/work/sebastian/BT-20210625/1010030-light/run1010030-light.h5 tag-1498605148//
/work/sebastian/BT-20210625/1010030-light/run1010030-light.h5 tag-1498605152//
/work/sebastian/BT-20210625/1010030-light/run1010030-light.h5 tag-1498605154//
/work/sebastian/BT-20210625/1010030-light/run1010030-light.h5 tag-1498605158//
/work/sebastian/BT-20210625/1010030-light/run1010030-light.h5 tag-1498605166//
/work/sebastian/BT-20210625/1010030-light/run1010030-light.h5 tag-1498605168//
/work/sebastian/BT-20210625/1010030-light/run1010030-light.h5 tag-1498605172//
/work/sebastian/BT-20210625/1010030-light/run1010030-light.h5 tag-1498605176//
/work/sebastian/BT-20210625/1010030-light/run1010030-light.h5 tag-1498605178//
/work/sebastian/BT-20210625/1010030-light/run1010030-light.h5 tag-1498605190//
/work/sebastian/BT-20210625/1010030-light/run1010030-light.h5 tag-1498605192//
/work/sebastian/BT-20210625/1010030-light/run1010030-light.h5 tag-1498605194//
/work/sebastian/BT-20210625/1010030-light/run1010030-light.h5 tag-1498605200//
/work/sebastian/BT-20210625/1010030-light/run1010030-light.h5 tag-1498605202//
/work/sebastian/BT-20210625/1010030-light/run1010030-light.h5 tag-1498605206//
/work/sebastian/BT-20210625/1010030-light/run1010030-light.h5 tag-1498605210//
/work/sebastian/BT-20210625/1010030-light/run1010030-light.h5 tag-1498605212//
/work/sebastian/BT-20210625/1010030-light/run1010030-light.h5 tag-1498605218//
/work/sebastian/BT-20210625/1010030-light/run1010030-light.h5 tag-1498605222//
/work/sebastian/BT-20210625/1010030-light/run1010030-light.h5 tag-1498605228//
/work/sebastian/BT-20210625/1010030-light/run1010030-light.h5 tag-1498605232//
/work/sebastian/BT-20210625/1010030-light/run1010030-light.h5 tag-1498605234//
/work/sebastian/BT-20210625/1010030-light/run1010030-light.h5 tag-1498605236//
/work/sebastian/BT-20210625/1010030-light/run1010030-light.h5 tag-1498605238//
/work/sebastian/BT-20210625/1010030-light/run1010030-light.h5 tag-1498605240//
/work/sebastian/BT-20210625/1010030-light/run1010030-light.h5 tag-1498605242//
/work/sebastian/BT-20210625/1010030-light/run1010030-light.h5 tag-1498605244//
/work/sebastian/BT-20210625/1010030-light/run1010030-light.h5 tag-1498605250//
/work/sebastian/BT-20210625/1010030-light/run1010030-light.h5 tag-1498605254//
/work/sebastian/BT-20210625/1010030-light/run1010030-light.h5 tag-1498605258//
/work/sebastian/BT-20210625/1010030-light/run1010030-light.h5 tag-1498605260//
/work/sebastian/BT-20210625/1010030-light/run1010030-light.h5 tag-1498605264//
/work/sebastian/BT-20210625/1010030-light/run1010030-light.h5 tag-1498605266//
/work/sebastian/BT-20210625/1010030-light/run1010030-light.h5 tag-1498605272//
/work/sebastian/BT-20210625/1010030-light/run1010030-light.h5 tag-1498605276//
/work/sebastian/BT-20210625/1010030-light/run1010030-light.h5 tag-1498605280//
/work/sebastian/BT-20210625/1010030-light/run1010030-light.h5 tag-1498605282//
/work/sebastian/BT-20210625/1010030-light/run1010030-light.h5 tag-1498605286//
/work/sebastian/BT-20210625/1010030-light/run1010030-light.h5 tag-1498605288//
/work/sebastian/BT-20210625/1010030-light/run1010030-light.h5 tag-1498605292//
/work/sebastian/BT-20210625/1010030-light/run1010030-light.h5 tag-1498605294//
/work/sebastian/BT-20210625/1010030-light/run1010030-light.h5 tag-1498605296//
/work/sebastian/BT-20210625/1010030-light/run1010030-light.h5 tag-1498605300//
/work/sebastian/BT-20210625/1010030-light/run1010030-light.h5 tag-1498605304//
/work/sebastian/BT-20210625/1010030-light/run1010030-light.h5 tag-1498605306//
/work/sebastian/BT-20210625/1010030-light/run1010030-light.h5 tag-1498605308//
/work/sebastian/BT-20210625/1010030-light/run1010030-light.h5 tag-1498605316//
/work/sebastian/BT-20210625/1010030-light/run1010030-light.h5 tag-1498605318//
/work/sebastian/BT-20210625/1010030-light/run1010030-light.h5 tag-1498605322//
/work/sebastian/BT-20210625/1010030-light/run1010030-light.h5 tag-1498605332//
/work/sebastian/BT-20210625/1010030-light/run1010030-light.h5 tag-1498605334//
/work/sebastian/BT-20210625/1010030-light/run1010030-light.h5 tag-1498605336//
/work/sebastian/BT-20210625/1010030-light/run1010030-light.h5 tag-1498605340//
/work/sebastian/BT-20210625/1010030-light/run1010030-light.h5 tag-1498605348//
/work/sebastian/BT-20210625/1010030-light/run1010030-light.h5 tag-1498605350//
/work/sebastian/BT-20210625/1010030-light/run1010030-light.h5 tag-1498605352//
/work/sebastian/BT-20210625/1010030-light/run1010030-light.h5 tag-1498605354//
/work/sebastian/BT-20210625/1010030-light/run1010030-light.h5 tag-1498605358//
/work/sebastian/BT-20210625/1010030-light/run1010030-light.h5 tag-1498605362//
/work/sebastian/BT-20210625/1010030-light/run1010030-light.h5 tag-1498605364//
/work/sebastian/BT-20210625/1010030-light/run1010030-light.h5 tag-1498605366//
/work/sebastian/BT-20210625/1010030-light/run1010030-light.h5 tag-1498605370//
/work/sebastian/BT-20210625/1010030-light/run1010030-light.h5 tag-1498605372//
/work/sebastian/BT-20210625/1010030-light/run1010030-light.h5 tag-1498605374//
/work/sebastian/BT-20210625/1010030-light/run1010030-light.h5 tag-1498605376//
/work/sebastian/BT-20210625/1010030-light/run1010030-light.h5 tag-1498605386//
/work/sebastian/BT-20210625/1010030-light/run1010030-light.h5 tag-1498605388//
/work/sebastian/BT-20210625/1010030-light/run1010030-light.h5 tag-1498605390//
/work/sebastian/BT-20210625/1010030-light/run1010030-light.h5 tag-1498605392//
/work/sebastian/BT-20210625/1010030-light/run1010030-light.h5 tag-1498605394//
/work/sebastian/BT-20210625/1010030-light/run1010030-light.h5 tag-1498605396//
/work/sebastian/BT-20210625/1010030-light/run1010030-light.h5 tag-1498605400//
/work/sebastian/BT-20210625/1010030-light/run1010030-light.h5 tag-1498605402//
/work/sebastian/BT-20210625/1010030-light/run1010030-light.h5 tag-1498605404//
/work/sebastian/BT-20210625/1010030-light/run1010030-light.h5 tag-1498605406//
/work/sebastian/BT-20210625/1010030-light/run1010030-light.h5 tag-1498605412//
/work/sebastian/BT-20210625/1010030-light/run1010030-light.h5 tag-1498605414//
/work/sebastian/BT-20210625/1010030-light/run1010030-light.h5 tag-1498605416//
/work/sebastian/BT-20210625/1010030-light/run1010030-light.h5 tag-1498605418//
/work/sebastian/BT-20210625/1010030-light/run1010030-light.h5 tag-1498605420//
/work/sebastian/BT-20210625/1010030-light/run1010030-light.h5 tag-1498605424//
/work/sebastian/BT-20210625/1010030-light/run1010030-light.h5 tag-1498605426//
/work/sebastian/BT-20210625/1010030-light/run1010030-light.h5 tag-1498605428//
/work/sebastian/BT-20210625/1010030-light/run1010030-light.h5 tag-1498605432//
/work/sebastian/BT-20210625/1010030-light/run1010030-light.h5 tag-1498605438//
/work/sebastian/BT-20210625/1010030-light/run1010030-light.h5 tag-1498605442//
/work/sebastian/BT-20210625/1010030-light/run1010030-light.h5 tag-1498605446//
/work/sebastian/BT-20210625/1010030-light/run1010030-light.h5 tag-1498605454//
/work/sebastian/BT-20210625/1010030-light/run1010030-light.h5 tag-1498605460//
/work/sebastian/BT-20210625/1010030-light/run1010030-light.h5 tag-1498605464//
/work/sebastian/BT-20210625/1010030-light/run1010030-light.h5 tag-1498605470//
/work/sebastian/BT-20210625/1010030-light/run1010030-light.h5 tag-1498605480//
/work/sebastian/BT-20210625/1010030-light/run1010030-light.h5 tag-1498605482//
/work/sebastian/BT-20210625/1010030-light/run1010030-light.h5 tag-1498605486//
/work/sebastian/BT-20210625/1010030-light/run1010030-light.h5 tag-1498605488//
/work/sebastian/BT-20210625/1010030-light/run1010030-light.h5 tag-1498605492//
/work/sebastian/BT-20210625/1010030-light/run1010030-light.h5 tag-1498605496//
/work/sebastian/BT-20210625/1010030-light/run1010030-light.h5 tag-1498605500//
/work/sebastian/BT-20210625/1010030-light/run1010030-light.h5 tag-1498605504//
/work/sebastian/BT-20210625/1010030-light/run1010030-light.h5 tag-1498605506//
/work/sebastian/BT-20210625/1010030-light/run1010030-light.h5 tag-1498605512//
/work/sebastian/BT-20210625/1010030-light/run1010030-light.h5 tag-1498605520//
/work/sebastian/BT-20210625/1010030-light/run1010030-light.h5 tag-1498605522//
/work/sebastian/BT-20210625/1010030-light/run1010030-light.h5 tag-1498605526//
/work/sebastian/BT-20210625/1010030-light/run1010030-light.h5 tag-1498605528//
/work/sebastian/BT-20210625/1010030-light/run1010030-light.h5 tag-1498605536//
/work/sebastian/BT-20210625/1010030-light/run1010030-light.h5 tag-1498605538//
/work/sebastian/BT-20210625/1010030-light/run1010030-light.h5 tag-1498605544//
/work/sebastian/BT-20210625/1010030-light/run1010030-light.h5 tag-1498605550//
/work/sebastian/BT-20210625/1010030-light/run1010030-light.h5 tag-1498605554//
/work/sebastian/BT-20210625/1010030-light/run1010030-light.h5 tag-1498605558//
/work/sebastian/BT-20210625/1010030-light/run1010030-light.h5 tag-1498605560//
/work/sebastian/BT-20210625/1010030-light/run1010030-light.h5 tag-1498605566//
/work/sebastian/BT-20210625/1010030-light/run1010030-light.h5 tag-1498605578//
/work/sebastian/BT-20210625/1010030-light/run1010030-light.h5 tag-1498605588//
/work/sebastian/BT-20210625/1010030-light/run1010030-light.h5 tag-1498605590//
/work/sebastian/BT-20210625/1010030-light/run1010030-light.h5 tag-1498605596//
/work/sebastian/BT-20210625/1010030-light/run1010030-light.h5 tag-1498605602//
/work/sebastian/BT-20210625/1010030-light/run1010030-light.h5 tag-1498605604//
/work/sebastian/BT-20210625/1010030-light/run1010030-light.h5 tag-1498605606//
/work/sebastian/BT-20210625/1010030-light/run1010030-light.h5 tag-1498605608//
/work/sebastian/BT-20210625/1010030-light/run1010030-light.h5 tag-1498605612//
/work/sebastian/BT-20210625/1010030-light/run1010030-light.h5 tag-1498605614//
/work/sebastian/BT-20210625/1010030-light/run1010030-light.h5 tag-1498605620//
/work/sebastian/BT-20210625/1010030-light/run1010030-light.h5 tag-1498605628//
/work/sebastian/BT-20210625/1010030-light/run1010030-light.h5 tag-1498605630//
/work/sebastian/BT-20210625/1010030-light/run1010030-light.h5 tag-1498605636//
/work/sebastian/BT-20210625/1010030-light/run1010030-light.h5 tag-1498605638//
/work/sebastian/BT-20210625/1010030-light/run1010030-light.h5 tag-1498605640//
/work/sebastian/BT-20210625/1010030-light/run1010030-light.h5 tag-1498605644//
/work/sebastian/BT-20210625/1010030-light/run1010030-light.h5 tag-1498605646//
/work/sebastian/BT-20210625/1010030-light/run1010030-light.h5 tag-1498605648//
/work/sebastian/BT-20210625/1010030-light/run1010030-light.h5 tag-1498605654//
/work/sebastian/BT-20210625/1010030-light/run1010030-light.h5 tag-1498605656//
/work/sebastian/BT-20210625/1010030-light/run1010030-light.h5 tag-1498605658//
/work/sebastian/BT-20210625/1010030-light/run1010030-light.h5 tag-1498605660//
/work/sebastian/BT-20210625/1010030-light/run1010030-light.h5 tag-1498605664//
/work/sebastian/BT-20210625/1010030-light/run1010030-light.h5 tag-1498605666//
/work/sebastian/BT-20210625/1010030-light/run1010030-light.h5 tag-1498605672//
/work/sebastian/BT-20210625/1010030-light/run1010030-light.h5 tag-1498605676//
/work/sebastian/BT-20210625/1010030-light/run1010030-light.h5 tag-1498605678//
/work/sebastian/BT-20210625/1010030-light/run1010030-light.h5 tag-1498605680//
/work/sebastian/BT-20210625/1010030-light/run1010030-light.h5 tag-1498605682//
/work/sebastian/BT-20210625/1010030-light/run1010030-light.h5 tag-1498605684//
/work/sebastian/BT-20210625/1010030-light/run1010030-light.h5 tag-1498605686//
/work/sebastian/BT-20210625/1010030-light/run1010030-light.h5 tag-1498605688//
/work/sebastian/BT-20210625/1010030-light/run1010030-light.h5 tag-1498605690//
/work/sebastian/BT-20210625/1010030-light/run1010030-light.h5 tag-1498605696//
/work/sebastian/BT-20210625/1010030-light/run1010030-light.h5 tag-1498605700//
/work/sebastian/BT-20210625/1010030-light/run1010030-light.h5 tag-1498605702//
/work/sebastian/BT-20210625/1010030-light/run1010030-light.h5 tag-1498605704//
/work/sebastian/BT-20210625/1010030-light/run1010030-light.h5 tag-1498605706//
/work/sebastian/BT-20210625/1010030-light/run1010030-light.h5 tag-1498605708//
/work/sebastian/BT-20210625/1010030-light/run1010030-light.h5 tag-1498605710//
/work/sebastian/BT-20210625/1010030-light/run1010030-light.h5 tag-1498605716//
/work/sebastian/BT-20210625/1010030-light/run1010030-light.h5 tag-1498605720//
/work/sebastian/BT-20210625/1010030-light/run1010030-light.h5 tag-1498605722//
/work/sebastian/BT-20210625/1010030-light/run1010030-light.h5 tag-1498605730//
/work/sebastian/BT-20210625/1010030-light/run1010030-light.h5 tag-1498605732//
/work/sebastian/BT-20210625/1010030-light/run1010030-light.h5 tag-1498605740//
/work/sebastian/BT-20210625/1010030-light/run1010030-light.h5 tag-1498605744//
/work/sebastian/BT-20210625/1010030-light/run1010030-light.h5 tag-1498605748//
/work/sebastian/BT-20210625/1010030-light/run1010030-light.h5 tag-1498605754//
/work/sebastian/BT-20210625/1010030-light/run1010030-light.h5 tag-1498605758//
/work/sebastian/BT-20210625/1010030-light/run1010030-light.h5 tag-1498605764//
/work/sebastian/BT-20210625/1010030-light/run1010030-light.h5 tag-1498605772//
/work/sebastian/BT-20210625/1010030-light/run1010030-light.h5 tag-1498605774//
/work/sebastian/BT-20210625/1010030-light/run1010030-light.h5 tag-1498605780//
/work/sebastian/BT-20210625/1010030-light/run1010030-light.h5 tag-1498605786//
/work/sebastian/BT-20210625/1010030-light/run1010030-light.h5 tag-1498605790//
/work/sebastian/BT-20210625/1010030-light/run1010030-light.h5 tag-1498605794//
/work/sebastian/BT-20210625/1010030-light/run1010030-light.h5 tag-1498605798//
/work/sebastian/BT-20210625/1010030-light/run1010030-light.h5 tag-1498605800//
/work/sebastian/BT-20210625/1010030-light/run1010030-light.h5 tag-1498605804//
/work/sebastian/BT-20210625/1010030-light/run1010030-light.h5 tag-1498605806//
/work/sebastian/BT-20210625/1010030-light/run1010030-light.h5 tag-1498605810//
/work/sebastian/BT-20210625/1010030-light/run1010030-light.h5 tag-1498605814//
/work/sebastian/BT-20210625/1010030-light/run1010030-light.h5 tag-1498605816//
/work/sebastian/BT-20210625/1010030-light/run1010030-light.h5 tag-1498605818//
/work/sebastian/BT-20210625/1010030-light/run1010030-light.h5 tag-1498605822//
/work/sebastian/BT-20210625/1010030-light/run1010030-light.h5 tag-1498605824//
/work/sebastian/BT-20210625/1010030-light/run1010030-light.h5 tag-1498605834//
/work/sebastian/BT-20210625/1010030-light/run1010030-light.h5 tag-1498605838//
/work/sebastian/BT-20210625/1010030-light/run1010030-light.h5 tag-1498605842//
/work/sebastian/BT-20210625/1010030-light/run1010030-light.h5 tag-1498605850//
/work/sebastian/BT-20210625/1010030-light/run1010030-light.h5 tag-1498605852//
/work/sebastian/BT-20210625/1010030-light/run1010030-light.h5 tag-1498605856//
/work/sebastian/BT-20210625/1010030-light/run1010030-light.h5 tag-1498605858//
/work/sebastian/BT-20210625/1010030-light/run1010030-light.h5 tag-1498605860//
/work/sebastian/BT-20210625/1010030-light/run1010030-light.h5 tag-1498605864//
/work/sebastian/BT-20210625/1010030-light/run1010030-light.h5 tag-1498605866//
/work/sebastian/BT-20210625/1010030-light/run1010030-light.h5 tag-1498605870//
/work/sebastian/BT-20210625/1010030-light/run1010030-light.h5 tag-1498605876//
/work/sebastian/BT-20210625/1010030-light/run1010030-light.h5 tag-1498605884//
/work/sebastian/BT-20210625/1010030-light/run1010030-light.h5 tag-1498605892//
/work/sebastian/BT-20210625/1010030-light/run1010030-light.h5 tag-1498605896//
/work/sebastian/BT-20210625/1010030-light/run1010030-light.h5 tag-1498605898//
/work/sebastian/BT-20210625/1010030-light/run1010030-light.h5 tag-1498605906//
/work/sebastian/BT-20210625/1010030-light/run1010030-light.h5 tag-1498605908//
/work/sebastian/BT-20210625/1010030-light/run1010030-light.h5 tag-1498605910//
/work/sebastian/BT-20210625/1010030-light/run1010030-light.h5 tag-1498605912//
/work/sebastian/BT-20210625/1010030-light/run1010030-light.h5 tag-1498605914//
/work/sebastian/BT-20210625/1010030-light/run1010030-light.h5 tag-1498605916//
/work/sebastian/BT-20210625/1010030-light/run1010030-light.h5 tag-1498605920//
/work/sebastian/BT-20210625/1010030-light/run1010030-light.h5 tag-1498605922//
/work/sebastian/BT-20210625/1010030-light/run1010030-light.h5 tag-1498605926//
/work/sebastian/BT-20210625/1010030-light/run1010030-light.h5 tag-1498605932//
/work/sebastian/BT-20210625/1010030-light/run1010030-light.h5 tag-1498605934//
/work/sebastian/BT-20210625/1010030-light/run1010030-light.h5 tag-1498605936//
/work/sebastian/BT-20210625/1010030-light/run1010030-light.h5 tag-1498605938//
/work/sebastian/BT-20210625/1010030-light/run1010030-light.h5 tag-1498605944//
/work/sebastian/BT-20210625/1010030-light/run1010030-light.h5 tag-1498605948//
/work/sebastian/BT-20210625/1010030-light/run1010030-light.h5 tag-1498605950//
/work/sebastian/BT-20210625/1010030-light/run1010030-light.h5 tag-1498605958//
/work/sebastian/BT-20210625/1010030-light/run1010030-light.h5 tag-1498605960//
/work/sebastian/BT-20210625/1010030-light/run1010030-light.h5 tag-1498605962//
/work/sebastian/BT-20210625/1010030-light/run1010030-light.h5 tag-1498605970//
/work/sebastian/BT-20210625/1010030-light/run1010030-light.h5 tag-1498605980//
/work/sebastian/BT-20210625/1010030-light/run1010030-light.h5 tag-1498605982//
/work/sebastian/BT-20210625/1010030-light/run1010030-light.h5 tag-1498605986//
/work/sebastian/BT-20210625/1010030-light/run1010030-light.h5 tag-1498605988//
/work/sebastian/BT-20210625/1010030-light/run1010030-light.h5 tag-1498605992//
/work/sebastian/BT-20210625/1010030-light/run1010030-light.h5 tag-1498605998//
/work/sebastian/BT-20210625/1010030-light/run1010030-light.h5 tag-1498606008//
/work/sebastian/BT-20210625/1010030-light/run1010030-light.h5 tag-1498606012//
/work/sebastian/BT-20210625/1010030-light/run1010030-light.h5 tag-1498606014//
/work/sebastian/BT-20210625/1010030-light/run1010030-light.h5 tag-1498606018//
/work/sebastian/BT-20210625/1010030-light/run1010030-light.h5 tag-1498606020//
/work/sebastian/BT-20210625/1010030-light/run1010030-light.h5 tag-1498606024//
/work/sebastian/BT-20210625/1010030-light/run1010030-light.h5 tag-1498606030//
/work/sebastian/BT-20210625/1010030-light/run1010030-light.h5 tag-1498606036//
/work/sebastian/BT-20210625/1010030-light/run1010030-light.h5 tag-1498606038//
/work/sebastian/BT-20210625/1010030-light/run1010030-light.h5 tag-1498606042//
/work/sebastian/BT-20210625/1010030-light/run1010030-light.h5 tag-1498606046//
/work/sebastian/BT-20210625/1010030-light/run1010030-light.h5 tag-1498606050//
/work/sebastian/BT-20210625/1010030-light/run1010030-light.h5 tag-1498606056//
/work/sebastian/BT-20210625/1010030-light/run1010030-light.h5 tag-1498606058//
/work/sebastian/BT-20210625/1010030-light/run1010030-light.h5 tag-1498606060//
/work/sebastian/BT-20210625/1010030-light/run1010030-light.h5 tag-1498606062//
/work/sebastian/BT-20210625/1010030-light/run1010030-light.h5 tag-1498606066//
/work/sebastian/BT-20210625/1010030-light/run1010030-light.h5 tag-1498606068//
/work/sebastian/BT-20210625/1010030-light/run1010030-light.h5 tag-1498606074//
/work/sebastian/BT-20210625/1010030-light/run1010030-light.h5 tag-1498606076//
/work/sebastian/BT-20210625/1010030-light/run1010030-light.h5 tag-1498606078//
/work/sebastian/BT-20210625/1010030-light/run1010030-light.h5 tag-1498606082//
/work/sebastian/BT-20210625/1010030-light/run1010030-light.h5 tag-1498606084//
/work/sebastian/BT-20210625/1010030-light/run1010030-light.h5 tag-1498606090//
/work/sebastian/BT-20210625/1010030-light/run1010030-light.h5 tag-1498606098//
/work/sebastian/BT-20210625/1010030-light/run1010030-light.h5 tag-1498606100//
/work/sebastian/BT-20210625/1010030-light/run1010030-light.h5 tag-1498606102//
/work/sebastian/BT-20210625/1010030-light/run1010030-light.h5 tag-1498606104//
/work/sebastian/BT-20210625/1010030-light/run1010030-light.h5 tag-1498606108//
/work/sebastian/BT-20210625/1010030-light/run1010030-light.h5 tag-1498606110//
/work/sebastian/BT-20210625/1010030-light/run1010030-light.h5 tag-1498606112//
/work/sebastian/BT-20210625/1010030-light/run1010030-light.h5 tag-1498606116//
/work/sebastian/BT-20210625/1010030-light/run1010030-light.h5 tag-1498606120//
/work/sebastian/BT-20210625/1010030-light/run1010030-light.h5 tag-1498606122//
/work/sebastian/BT-20210625/1010030-light/run1010030-light.h5 tag-1498606126//
/work/sebastian/BT-20210625/1010030-light/run1010030-light.h5 tag-1498606132//
/work/sebastian/BT-20210625/1010030-light/run1010030-light.h5 tag-1498606138//
/work/sebastian/BT-20210625/1010030-light/run1010030-light.h5 tag-1498606142//
/work/sebastian/BT-20210625/1010030-light/run1010030-light.h5 tag-1498606144//
/work/sebastian/BT-20210625/1010030-light/run1010030-light.h5 tag-1498606148//
/work/sebastian/BT-20210625/1010030-light/run1010030-light.h5 tag-1498606150//
/work/sebastian/BT-20210625/1010030-light/run1010030-light.h5 tag-1498606156//
/work/sebastian/BT-20210625/1010030-light/run1010030-light.h5 tag-1498606160//
/work/sebastian/BT-20210625/1010030-light/run1010030-light.h5 tag-1498606164//
/work/sebastian/BT-20210625/1010030-light/run1010030-light.h5 tag-1498606166//
/work/sebastian/BT-20210625/1010030-light/run1010030-light.h5 tag-1498606170//
/work/sebastian/BT-20210625/1010030-light/run1010030-light.h5 tag-1498606172//
/work/sebastian/BT-20210625/1010030-light/run1010030-light.h5 tag-1498606178//
/work/sebastian/BT-20210625/1010030-light/run1010030-light.h5 tag-1498606182//
/work/sebastian/BT-20210625/1010030-light/run1010030-light.h5 tag-1498606186//
/work/sebastian/BT-20210625/1010030-light/run1010030-light.h5 tag-1498606188//
/work/sebastian/BT-20210625/1010030-light/run1010030-light.h5 tag-1498606192//
/work/sebastian/BT-20210625/1010030-light/run1010030-light.h5 tag-1498606194//
/work/sebastian/BT-20210625/1010030-light/run1010030-light.h5 tag-1498606198//
/work/sebastian/BT-20210625/1010030-light/run1010030-light.h5 tag-1498606200//
/work/sebastian/BT-20210625/1010030-light/run1010030-light.h5 tag-1498606202//
/work/sebastian/BT-20210625/1010030-light/run1010030-light.h5 tag-1498606208//
/work/sebastian/BT-20210625/1010030-light/run1010030-light.h5 tag-1498606216//
/work/sebastian/BT-20210625/1010030-light/run1010030-light.h5 tag-1498606218//
/work/sebastian/BT-20210625/1010030-light/run1010030-light.h5 tag-1498606222//
/work/sebastian/BT-20210625/1010030-light/run1010030-light.h5 tag-1498606224//
/work/sebastian/BT-20210625/1010030-light/run1010030-light.h5 tag-1498606226//
/work/sebastian/BT-20210625/1010030-light/run1010030-light.h5 tag-1498606232//
/work/sebastian/BT-20210625/1010030-light/run1010030-light.h5 tag-1498606234//
/work/sebastian/BT-20210625/1010030-light/run1010030-light.h5 tag-1498606236//
/work/sebastian/BT-20210625/1010030-light/run1010030-light.h5 tag-1498606238//
/work/sebastian/BT-20210625/1010030-light/run1010030-light.h5 tag-1498606242//
/work/sebastian/BT-20210625/1010030-light/run1010030-light.h5 tag-1498606244//
/work/sebastian/BT-20210625/1010030-light/run1010030-light.h5 tag-1498606248//
/work/sebastian/BT-20210625/1010030-light/run1010030-light.h5 tag-1498606256//
/work/sebastian/BT-20210625/1010030-light/run1010030-light.h5 tag-1498606262//
/work/sebastian/BT-20210625/1010030-light/run1010030-light.h5 tag-1498606264//
/work/sebastian/BT-20210625/1010030-light/run1010030-light.h5 tag-1498606266//
/work/sebastian/BT-20210625/1010030-light/run1010030-light.h5 tag-1498606268//
/work/sebastian/BT-20210625/1010030-light/run1010030-light.h5 tag-1498606272//
/work/sebastian/BT-20210625/1010030-light/run1010030-light.h5 tag-1498606274//
/work/sebastian/BT-20210625/1010030-light/run1010030-light.h5 tag-1498606278//
/work/sebastian/BT-20210625/1010030-light/run1010030-light.h5 tag-1498606280//
/work/sebastian/BT-20210625/1010030-light/run1010030-light.h5 tag-1498606282//
/work/sebastian/BT-20210625/1010030-light/run1010030-light.h5 tag-1498606286//
/work/sebastian/BT-20210625/1010030-light/run1010030-light.h5 tag-1498606292//
/work/sebastian/BT-20210625/1010030-light/run1010030-light.h5 tag-1498606296//
/work/sebastian/BT-20210625/1010030-light/run1010030-light.h5 tag-1498606298//
/work/sebastian/BT-20210625/1010030-light/run1010030-light.h5 tag-1498606300//
/work/sebastian/BT-20210625/1010030-light/run1010030-light.h5 tag-1498606304//
/work/sebastian/BT-20210625/1010030-light/run1010030-light.h5 tag-1498606308//
/work/sebastian/BT-20210625/1010030-light/run1010030-light.h5 tag-1498606310//
/work/sebastian/BT-20210625/1010030-light/run1010030-light.h5 tag-1498606316//
/work/sebastian/BT-20210625/1010030-light/run1010030-light.h5 tag-1498606318//
/work/sebastian/BT-20210625/1010030-light/run1010030-light.h5 tag-1498606324//
/work/sebastian/BT-20210625/1010030-light/run1010030-light.h5 tag-1498606328//
/work/sebastian/BT-20210625/1010030-light/run1010030-light.h5 tag-1498606330//
/work/sebastian/BT-20210625/1010030-light/run1010030-light.h5 tag-1498606332//
/work/sebastian/BT-20210625/1010030-light/run1010030-light.h5 tag-1498606334//
/work/sebastian/BT-20210625/1010030-light/run1010030-light.h5 tag-1498606338//
/work/sebastian/BT-20210625/1010030-light/run1010030-light.h5 tag-1498606340//
/work/sebastian/BT-20210625/1010030-light/run1010030-light.h5 tag-1498606342//
/work/sebastian/BT-20210625/1010030-light/run1010030-light.h5 tag-1498606352//
/work/sebastian/BT-20210625/1010030-light/run1010030-light.h5 tag-1498606354//
/work/sebastian/BT-20210625/1010030-light/run1010030-light.h5 tag-1498606356//
/work/sebastian/BT-20210625/1010030-light/run1010030-light.h5 tag-1498606368//
/work/sebastian/BT-20210625/1010030-light/run1010030-light.h5 tag-1498606372//
/work/sebastian/BT-20210625/1010030-light/run1010030-light.h5 tag-1498606382//
/work/sebastian/BT-20210625/1010030-light/run1010030-light.h5 tag-1498606384//
/work/sebastian/BT-20210625/1010030-light/run1010030-light.h5 tag-1498606388//
/work/sebastian/BT-20210625/1010030-light/run1010030-light.h5 tag-1498606396//
/work/sebastian/BT-20210625/1010030-light/run1010030-light.h5 tag-1498606400//
/work/sebastian/BT-20210625/1010030-light/run1010030-light.h5 tag-1498606406//
/work/sebastian/BT-20210625/1010030-light/run1010030-light.h5 tag-1498606410//
/work/sebastian/BT-20210625/1010030-light/run1010030-light.h5 tag-1498606412//
/work/sebastian/BT-20210625/1010030-light/run1010030-light.h5 tag-1498606416//
/work/sebastian/BT-20210625/1010030-light/run1010030-light.h5 tag-1498606420//
/work/sebastian/BT-20210625/1010030-light/run1010030-light.h5 tag-1498606422//
/work/sebastian/BT-20210625/1010030-light/run1010030-light.h5 tag-1498606424//
/work/sebastian/BT-20210625/1010030-light/run1010030-light.h5 tag-1498606426//
/work/sebastian/BT-20210625/1010030-light/run1010030-light.h5 tag-1498606428//
/work/sebastian/BT-20210625/1010030-light/run1010030-light.h5 tag-1498606430//
/work/sebastian/BT-20210625/1010030-light/run1010030-light.h5 tag-1498606432//
/work/sebastian/BT-20210625/1010030-light/run1010030-light.h5 tag-1498606436//
/work/sebastian/BT-20210625/1010030-light/run1010030-light.h5 tag-1498606440//
/work/sebastian/BT-20210625/1010030-light/run1010030-light.h5 tag-1498606442//
/work/sebastian/BT-20210625/1010030-light/run1010030-light.h5 tag-1498606444//
/work/sebastian/BT-20210625/1010030-light/run1010030-light.h5 tag-1498606448//
/work/sebastian/BT-20210625/1010030-light/run1010030-light.h5 tag-1498606450//
/work/sebastian/BT-20210625/1010030-light/run1010030-light.h5 tag-1498606458//
/work/sebastian/BT-20210625/1010030-light/run1010030-light.h5 tag-1498606460//
/work/sebastian/BT-20210625/1010030-light/run1010030-light.h5 tag-1498606464//
/work/sebastian/BT-20210625/1010030-light/run1010030-light.h5 tag-1498606468//
/work/sebastian/BT-20210625/1010030-light/run1010030-light.h5 tag-1498606472//
/work/sebastian/BT-20210625/1010030-light/run1010030-light.h5 tag-1498606482//
/work/sebastian/BT-20210625/1010030-light/run1010030-light.h5 tag-1498606486//
/work/sebastian/BT-20210625/1010030-light/run1010030-light.h5 tag-1498606488//
/work/sebastian/BT-20210625/1010030-light/run1010030-light.h5 tag-1498606490//
/work/sebastian/BT-20210625/1010030-light/run1010030-light.h5 tag-1498606492//
/work/sebastian/BT-20210625/1010030-light/run1010030-light.h5 tag-1498606494//
/work/sebastian/BT-20210625/1010030-light/run1010030-light.h5 tag-1498606498//
/work/sebastian/BT-20210625/1010030-light/run1010030-light.h5 tag-1498606500//
/work/sebastian/BT-20210625/1010030-light/run1010030-light.h5 tag-1498606502//
/work/sebastian/BT-20210625/1010030-light/run1010030-light.h5 tag-1498606504//
/work/sebastian/BT-20210625/1010030-light/run1010030-light.h5 tag-1498606506//
/work/sebastian/BT-20210625/1010030-light/run1010030-light.h5 tag-1498606510//
/work/sebastian/BT-20210625/1010030-light/run1010030-light.h5 tag-1498606514//
/work/sebastian/BT-20210625/1010030-light/run1010030-light.h5 tag-1498606516//
/work/sebastian/BT-20210625/1010030-light/run1010030-light.h5 tag-1498606520//
/work/sebastian/BT-20210625/1010030-light/run1010030-light.h5 tag-1498606522//
/work/sebastian/BT-20210625/1010030-light/run1010030-light.h5 tag-1498606524//
/work/sebastian/BT-20210625/1010030-light/run1010030-light.h5 tag-1498606526//
/work/sebastian/BT-20210625/1010030-light/run1010030-light.h5 tag-1498606530//
/work/sebastian/BT-20210625/1010030-light/run1010030-light.h5 tag-1498606536//
/work/sebastian/BT-20210625/1010030-light/run1010030-light.h5 tag-1498606538//
/work/sebastian/BT-20210625/1010030-light/run1010030-light.h5 tag-1498606542//
/work/sebastian/BT-20210625/1010030-light/run1010030-light.h5 tag-1498606544//
/work/sebastian/BT-20210625/1010030-light/run1010030-light.h5 tag-1498606548//
/work/sebastian/BT-20210625/1010030-light/run1010030-light.h5 tag-1498606550//
/work/sebastian/BT-20210625/1010030-light/run1010030-light.h5 tag-1498606552//
/work/sebastian/BT-20210625/1010030-light/run1010030-light.h5 tag-1498606556//
/work/sebastian/BT-20210625/1010030-light/run1010030-light.h5 tag-1498606562//
/work/sebastian/BT-20210625/1010030-light/run1010030-light.h5 tag-1498606564//
/work/sebastian/BT-20210625/1010030-light/run1010030-light.h5 tag-1498606568//
/work/sebastian/BT-20210625/1010030-light/run1010030-light.h5 tag-1498606570//
/work/sebastian/BT-20210625/1010030-light/run1010030-light.h5 tag-1498606574//
/work/sebastian/BT-20210625/1010030-light/run1010030-light.h5 tag-1498606576//
/work/sebastian/BT-20210625/1010030-light/run1010030-light.h5 tag-1498606580//
/work/sebastian/BT-20210625/1010030-light/run1010030-light.h5 tag-1498606582//
/work/sebastian/BT-20210625/1010030-light/run1010030-light.h5 tag-1498606586//
/work/sebastian/BT-20210625/1010030-light/run1010030-light.h5 tag-1498606588//
/work/sebastian/BT-20210625/1010030-light/run1010030-light.h5 tag-1498606592//
/work/sebastian/BT-20210625/1010030-light/run1010030-light.h5 tag-1498606594//
/work/sebastian/BT-20210625/1010030-light/run1010030-light.h5 tag-1498606598//
/work/sebastian/BT-20210625/1010030-light/run1010030-light.h5 tag-1498606600//
/work/sebastian/BT-20210625/1010030-light/run1010030-light.h5 tag-1498606602//
/work/sebastian/BT-20210625/1010030-light/run1010030-light.h5 tag-1498606606//
/work/sebastian/BT-20210625/1010030-light/run1010030-light.h5 tag-1498606610//
/work/sebastian/BT-20210625/1010030-light/run1010030-light.h5 tag-1498606612//
/work/sebastian/BT-20210625/1010030-light/run1010030-light.h5 tag-1498606614//
/work/sebastian/BT-20210625/1010030-light/run1010030-light.h5 tag-1498606618//
/work/sebastian/BT-20210625/1010030-light/run1010030-light.h5 tag-1498606622//
/work/sebastian/BT-20210625/1010030-light/run1010030-light.h5 tag-1498606624//
/work/sebastian/BT-20210625/1010030-light/run1010030-light.h5 tag-1498606628//
/work/sebastian/BT-20210625/1010030-light/run1010030-light.h5 tag-1498606630//
/work/sebastian/BT-20210625/1010030-light/run1010030-light.h5 tag-1498606632//
/work/sebastian/BT-20210625/1010030-light/run1010030-light.h5 tag-1498606638//
/work/sebastian/BT-20210625/1010030-light/run1010030-light.h5 tag-1498606640//
/work/sebastian/BT-20210625/1010030-light/run1010030-light.h5 tag-1498606644//
/work/sebastian/BT-20210625/1010030-light/run1010030-light.h5 tag-1498606646//
/work/sebastian/BT-20210625/1010030-light/run1010030-light.h5 tag-1498606650//
/work/sebastian/BT-20210625/1010030-light/run1010030-light.h5 tag-1498606656//
/work/sebastian/BT-20210625/1010030-light/run1010030-light.h5 tag-1498606662//
/work/sebastian/BT-20210625/1010030-light/run1010030-light.h5 tag-1498606664//
/work/sebastian/BT-20210625/1010030-light/run1010030-light.h5 tag-1498606666//
/work/sebastian/BT-20210625/1010030-light/run1010030-light.h5 tag-1498606668//
/work/sebastian/BT-20210625/1010030-light/run1010030-light.h5 tag-1498606670//
/work/sebastian/BT-20210625/1010030-light/run1010030-light.h5 tag-1498606674//
/work/sebastian/BT-20210625/1010030-light/run1010030-light.h5 tag-1498606682//
/work/sebastian/BT-20210625/1010030-light/run1010030-light.h5 tag-1498606690//
/work/sebastian/BT-20210625/1010030-light/run1010030-light.h5 tag-1498606696//
/work/sebastian/BT-20210625/1010030-light/run1010030-light.h5 tag-1498606698//
/work/sebastian/BT-20210625/1010030-light/run1010030-light.h5 tag-1498606700//
/work/sebastian/BT-20210625/1010030-light/run1010030-light.h5 tag-1498606702//
/work/sebastian/BT-20210625/1010030-light/run1010030-light.h5 tag-1498606706//
/work/sebastian/BT-20210625/1010030-light/run1010030-light.h5 tag-1498606710//
/work/sebastian/BT-20210625/1010030-light/run1010030-light.h5 tag-1498606712//
/work/sebastian/BT-20210625/1010030-light/run1010030-light.h5 tag-1498606714//
/work/sebastian/BT-20210625/1010030-light/run1010030-light.h5 tag-1498606720//
/work/sebastian/BT-20210625/1010030-light/run1010030-light.h5 tag-1498606722//
/work/sebastian/BT-20210625/1010030-light/run1010030-light.h5 tag-1498606734//
/work/sebastian/BT-20210625/1010030-light/run1010030-light.h5 tag-1498606736//
/work/sebastian/BT-20210625/1010030-light/run1010030-light.h5 tag-1498606738//
/work/sebastian/BT-20210625/1010030-light/run1010030-light.h5 tag-1498606740//
/work/sebastian/BT-20210625/1010030-light/run1010030-light.h5 tag-1498606742//
/work/sebastian/BT-20210625/1010030-light/run1010030-light.h5 tag-1498606746//
/work/sebastian/BT-20210625/1010030-light/run1010030-light.h5 tag-1498606748//
/work/sebastian/BT-20210625/1010030-light/run1010030-light.h5 tag-1498606752//
/work/sebastian/BT-20210625/1010030-light/run1010030-light.h5 tag-1498606756//
/work/sebastian/BT-20210625/1010030-light/run1010030-light.h5 tag-1498606758//
/work/sebastian/BT-20210625/1010030-light/run1010030-light.h5 tag-1498606762//
/work/sebastian/BT-20210625/1010030-light/run1010030-light.h5 tag-1498606768//
/work/sebastian/BT-20210625/1010030-light/run1010030-light.h5 tag-1498606772//
/work/sebastian/BT-20210625/1010030-light/run1010030-light.h5 tag-1498606778//
/work/sebastian/BT-20210625/1010030-light/run1010030-light.h5 tag-1498606780//
/work/sebastian/BT-20210625/1010030-light/run1010030-light.h5 tag-1498606784//
/work/sebastian/BT-20210625/1010030-light/run1010030-light.h5 tag-1498606786//
/work/sebastian/BT-20210625/1010030-light/run1010030-light.h5 tag-1498606790//
/work/sebastian/BT-20210625/1010030-light/run1010030-light.h5 tag-1498606792//
/work/sebastian/BT-20210625/1010030-light/run1010030-light.h5 tag-1498606794//
/work/sebastian/BT-20210625/1010030-light/run1010030-light.h5 tag-1498606796//
/work/sebastian/BT-20210625/1010030-light/run1010030-light.h5 tag-1498606798//
/work/sebastian/BT-20210625/1010030-light/run1010030-light.h5 tag-1498606800//
/work/sebastian/BT-20210625/1010030-light/run1010030-light.h5 tag-1498606804//
/work/sebastian/BT-20210625/1010030-light/run1010030-light.h5 tag-1498606818//
/work/sebastian/BT-20210625/1010030-light/run1010030-light.h5 tag-1498606822//
/work/sebastian/BT-20210625/1010030-light/run1010030-light.h5 tag-1498606824//
/work/sebastian/BT-20210625/1010030-light/run1010030-light.h5 tag-1498606830//
/work/sebastian/BT-20210625/1010030-light/run1010030-light.h5 tag-1498606836//
/work/sebastian/BT-20210625/1010030-light/run1010030-light.h5 tag-1498606840//
/work/sebastian/BT-20210625/1010030-light/run1010030-light.h5 tag-1498606844//
/work/sebastian/BT-20210625/1010030-light/run1010030-light.h5 tag-1498606846//
/work/sebastian/BT-20210625/1010030-light/run1010030-light.h5 tag-1498606850//
/work/sebastian/BT-20210625/1010030-light/run1010030-light.h5 tag-1498606852//
/work/sebastian/BT-20210625/1010030-light/run1010030-light.h5 tag-1498606854//
/work/sebastian/BT-20210625/1010030-light/run1010030-light.h5 tag-1498606856//
/work/sebastian/BT-20210625/1010030-light/run1010030-light.h5 tag-1498606858//
/work/sebastian/BT-20210625/1010030-light/run1010030-light.h5 tag-1498606860//
/work/sebastian/BT-20210625/1010030-light/run1010030-light.h5 tag-1498606868//
/work/sebastian/BT-20210625/1010030-light/run1010030-light.h5 tag-1498606870//
/work/sebastian/BT-20210625/1010030-light/run1010030-light.h5 tag-1498606876//
/work/sebastian/BT-20210625/1010030-light/run1010030-light.h5 tag-1498606880//
/work/sebastian/BT-20210625/1010030-light/run1010030-light.h5 tag-1498606890//
/work/sebastian/BT-20210625/1010030-light/run1010030-light.h5 tag-1498606892//
/work/sebastian/BT-20210625/1010030-light/run1010030-light.h5 tag-1498606894//
/work/sebastian/BT-20210625/1010030-light/run1010030-light.h5 tag-1498606896//
/work/sebastian/BT-20210625/1010030-light/run1010030-light.h5 tag-1498606900//
/work/sebastian/BT-20210625/1010030-light/run1010030-light.h5 tag-1498606902//
/work/sebastian/BT-20210625/1010030-light/run1010030-light.h5 tag-1498606906//
/work/sebastian/BT-20210625/1010030-light/run1010030-light.h5 tag-1498606908//
/work/sebastian/BT-20210625/1010030-light/run1010030-light.h5 tag-1498606912//
/work/sebastian/BT-20210625/1010030-light/run1010030-light.h5 tag-1498606918//
/work/sebastian/BT-20210625/1010030-light/run1010030-light.h5 tag-1498606922//
/work/sebastian/BT-20210625/1010030-light/run1010030-light.h5 tag-1498606924//
/work/sebastian/BT-20210625/1010030-light/run1010030-light.h5 tag-1498606928//
/work/sebastian/BT-20210625/1010030-light/run1010030-light.h5 tag-1498606930//
/work/sebastian/BT-20210625/1010030-light/run1010030-light.h5 tag-1498606934//
/work/sebastian/BT-20210625/1010030-light/run1010030-light.h5 tag-1498606940//
/work/sebastian/BT-20210625/1010030-light/run1010030-light.h5 tag-1498606942//
/work/sebastian/BT-20210625/1010030-light/run1010030-light.h5 tag-1498606946//
/work/sebastian/BT-20210625/1010030-light/run1010030-light.h5 tag-1498606954//
/work/sebastian/BT-20210625/1010030-light/run1010030-light.h5 tag-1498606968//
/work/sebastian/BT-20210625/1010030-light/run1010030-light.h5 tag-1498606970//
/work/sebastian/BT-20210625/1010030-light/run1010030-light.h5 tag-1498606974//
/work/sebastian/BT-20210625/1010030-light/run1010030-light.h5 tag-1498606986//
/work/sebastian/BT-20210625/1010030-light/run1010030-light.h5 tag-1498606988//
/work/sebastian/BT-20210625/1010030-light/run1010030-light.h5 tag-1498606992//
/work/sebastian/BT-20210625/1010030-light/run1010030-light.h5 tag-1498607002//
/work/sebastian/BT-20210625/1010030-light/run1010030-light.h5 tag-1498607004//
/work/sebastian/BT-20210625/1010030-light/run1010030-light.h5 tag-1498607008//
/work/sebastian/BT-20210625/1010030-light/run1010030-light.h5 tag-1498607010//
/work/sebastian/BT-20210625/1010030-light/run1010030-light.h5 tag-1498607016//
/work/sebastian/BT-20210625/1010030-light/run1010030-light.h5 tag-1498607020//
/work/sebastian/BT-20210625/1010030-light/run1010030-light.h5 tag-1498607030//
/work/sebastian/BT-20210625/1010030-light/run1010030-light.h5 tag-1498607032//
/work/sebastian/BT-20210625/1010030-light/run1010030-light.h5 tag-1498607036//
/work/sebastian/BT-20210625/1010030-light/run1010030-light.h5 tag-1498607042//
/work/sebastian/BT-20210625/1010030-light/run1010030-light.h5 tag-1498607044//
/work/sebastian/BT-20210625/1010030-light/run1010030-light.h5 tag-1498607046//
/work/sebastian/BT-20210625/1010030-light/run1010030-light.h5 tag-1498607054//
/work/sebastian/BT-20210625/1010030-light/run1010030-light.h5 tag-1498607064//
/work/sebastian/BT-20210625/1010030-light/run1010030-light.h5 tag-1498607066//
/work/sebastian/BT-20210625/1010030-light/run1010030-light.h5 tag-1498607068//
/work/sebastian/BT-20210625/1010030-light/run1010030-light.h5 tag-1498607070//
/work/sebastian/BT-20210625/1010030-light/run1010030-light.h5 tag-1498607072//
/work/sebastian/BT-20210625/1010030-light/run1010030-light.h5 tag-1498607076//
/work/sebastian/BT-20210625/1010030-light/run1010030-light.h5 tag-1498607084//
/work/sebastian/BT-20210625/1010030-light/run1010030-light.h5 tag-1498607088//
/work/sebastian/BT-20210625/1010030-light/run1010030-light.h5 tag-1498607090//
/work/sebastian/BT-20210625/1010030-light/run1010030-light.h5 tag-1498607094//
/work/sebastian/BT-20210625/1010030-light/run1010030-light.h5 tag-1498607096//
/work/sebastian/BT-20210625/1010030-light/run1010030-light.h5 tag-1498607098//
/work/sebastian/BT-20210625/1010030-light/run1010030-light.h5 tag-1498607108//
/work/sebastian/BT-20210625/1010030-light/run1010030-light.h5 tag-1498607114//
/work/sebastian/BT-20210625/1010030-light/run1010030-light.h5 tag-1498607120//
/work/sebastian/BT-20210625/1010030-light/run1010030-light.h5 tag-1498607124//
/work/sebastian/BT-20210625/1010030-light/run1010030-light.h5 tag-1498607128//
/work/sebastian/BT-20210625/1010030-light/run1010030-light.h5 tag-1498607134//
/work/sebastian/BT-20210625/1010030-light/run1010030-light.h5 tag-1498607142//
/work/sebastian/BT-20210625/1010030-light/run1010030-light.h5 tag-1498607150//
/work/sebastian/BT-20210625/1010030-light/run1010030-light.h5 tag-1498607156//
/work/sebastian/BT-20210625/1010030-light/run1010030-light.h5 tag-1498607160//
/work/sebastian/BT-20210625/1010030-light/run1010030-light.h5 tag-1498607164//
/work/sebastian/BT-20210625/1010030-light/run1010030-light.h5 tag-1498607166//
/work/sebastian/BT-20210625/1010030-light/run1010030-light.h5 tag-1498607170//
/work/sebastian/BT-20210625/1010030-light/run1010030-light.h5 tag-1498607172//
/work/sebastian/BT-20210625/1010030-light/run1010030-light.h5 tag-1498607178//
/work/sebastian/BT-20210625/1010030-light/run1010030-light.h5 tag-1498607180//
/work/sebastian/BT-20210625/1010030-light/run1010030-light.h5 tag-1498607182//
/work/sebastian/BT-20210625/1010030-light/run1010030-light.h5 tag-1498607186//
/work/sebastian/BT-20210625/1010030-light/run1010030-light.h5 tag-1498607188//
/work/sebastian/BT-20210625/1010030-light/run1010030-light.h5 tag-1498607194//
/work/sebastian/BT-20210625/1010030-light/run1010030-light.h5 tag-1498607198//
/work/sebastian/BT-20210625/1010030-light/run1010030-light.h5 tag-1498607200//
/work/sebastian/BT-20210625/1010030-light/run1010030-light.h5 tag-1498607206//
/work/sebastian/BT-20210625/1010030-light/run1010030-light.h5 tag-1498607210//
/work/sebastian/BT-20210625/1010030-light/run1010030-light.h5 tag-1498607214//
/work/sebastian/BT-20210625/1010030-light/run1010030-light.h5 tag-1498607218//
/work/sebastian/BT-20210625/1010030-light/run1010030-light.h5 tag-1498607222//
/work/sebastian/BT-20210625/1010030-light/run1010030-light.h5 tag-1498607226//
/work/sebastian/BT-20210625/1010030-light/run1010030-light.h5 tag-1498607228//
/work/sebastian/BT-20210625/1010030-light/run1010030-light.h5 tag-1498607236//
/work/sebastian/BT-20210625/1010030-light/run1010030-light.h5 tag-1498607240//
/work/sebastian/BT-20210625/1010030-light/run1010030-light.h5 tag-1498607244//
/work/sebastian/BT-20210625/1010030-light/run1010030-light.h5 tag-1498607248//
/work/sebastian/BT-20210625/1010030-light/run1010030-light.h5 tag-1498607250//
/work/sebastian/BT-20210625/1010030-light/run1010030-light.h5 tag-1498607260//
/work/sebastian/BT-20210625/1010030-light/run1010030-light.h5 tag-1498607262//
/work/sebastian/BT-20210625/1010030-light/run1010030-light.h5 tag-1498607266//
/work/sebastian/BT-20210625/1010030-light/run1010030-light.h5 tag-1498607274//
/work/sebastian/BT-20210625/1010030-light/run1010030-light.h5 tag-1498607276//
/work/sebastian/BT-20210625/1010030-light/run1010030-light.h5 tag-1498607278//
/work/sebastian/BT-20210625/1010030-light/run1010030-light.h5 tag-1498607280//
/work/sebastian/BT-20210625/1010030-light/run1010030-light.h5 tag-1498607282//
/work/sebastian/BT-20210625/1010030-light/run1010030-light.h5 tag-1498607286//
/work/sebastian/BT-20210625/1010030-light/run1010030-light.h5 tag-1498607288//
/work/sebastian/BT-20210625/1010030-light/run1010030-light.h5 tag-1498607290//
/work/sebastian/BT-20210625/1010030-light/run1010030-light.h5 tag-1498607292//
/work/sebastian/BT-20210625/1010030-light/run1010030-light.h5 tag-1498607300//
/work/sebastian/BT-20210625/1010030-light/run1010030-light.h5 tag-1498607302//
/work/sebastian/BT-20210625/1010030-light/run1010030-light.h5 tag-1498607306//
/work/sebastian/BT-20210625/1010030-light/run1010030-light.h5 tag-1498607308//
/work/sebastian/BT-20210625/1010030-light/run1010030-light.h5 tag-1498607310//
/work/sebastian/BT-20210625/1010030-light/run1010030-light.h5 tag-1498607320//
/work/sebastian/BT-20210625/1010030-light/run1010030-light.h5 tag-1498607322//
/work/sebastian/BT-20210625/1010030-light/run1010030-light.h5 tag-1498607324//
/work/sebastian/BT-20210625/1010030-light/run1010030-light.h5 tag-1498607328//
/work/sebastian/BT-20210625/1010030-light/run1010030-light.h5 tag-1498607332//
/work/sebastian/BT-20210625/1010030-light/run1010030-light.h5 tag-1498607334//
/work/sebastian/BT-20210625/1010030-light/run1010030-light.h5 tag-1498607338//
/work/sebastian/BT-20210625/1010030-light/run1010030-light.h5 tag-1498607340//
/work/sebastian/BT-20210625/1010030-light/run1010030-light.h5 tag-1498607344//
/work/sebastian/BT-20210625/1010030-light/run1010030-light.h5 tag-1498607346//
/work/sebastian/BT-20210625/1010030-light/run1010030-light.h5 tag-1498607348//
/work/sebastian/BT-20210625/1010030-light/run1010030-light.h5 tag-1498607352//
/work/sebastian/BT-20210625/1010030-light/run1010030-light.h5 tag-1498607354//
/work/sebastian/BT-20210625/1010030-light/run1010030-light.h5 tag-1498607358//
/work/sebastian/BT-20210625/1010030-light/run1010030-light.h5 tag-1498607372//
/work/sebastian/BT-20210625/1010030-light/run1010030-light.h5 tag-1498607374//
/work/sebastian/BT-20210625/1010030-light/run1010030-light.h5 tag-1498607376//
/work/sebastian/BT-20210625/1010030-light/run1010030-light.h5 tag-1498607378//
/work/sebastian/BT-20210625/1010030-light/run1010030-light.h5 tag-1498607384//
/work/sebastian/BT-20210625/1010030-light/run1010030-light.h5 tag-1498607388//
/work/sebastian/BT-20210625/1010030-light/run1010030-light.h5 tag-1498607390//
/work/sebastian/BT-20210625/1010030-light/run1010030-light.h5 tag-1498607400//
/work/sebastian/BT-20210625/1010030-light/run1010030-light.h5 tag-1498607402//
/work/sebastian/BT-20210625/1010030-light/run1010030-light.h5 tag-1498607408//
/work/sebastian/BT-20210625/1010030-light/run1010030-light.h5 tag-1498607412//
/work/sebastian/BT-20210625/1010030-light/run1010030-light.h5 tag-1498607414//
/work/sebastian/BT-20210625/1010030-light/run1010030-light.h5 tag-1498607418//
/work/sebastian/BT-20210625/1010030-light/run1010030-light.h5 tag-1498607422//
/work/sebastian/BT-20210625/1010030-light/run1010030-light.h5 tag-1498607424//
/work/sebastian/BT-20210625/1010030-light/run1010030-light.h5 tag-1498607430//
/work/sebastian/BT-20210625/1010030-light/run1010030-light.h5 tag-1498607432//
/work/sebastian/BT-20210625/1010030-light/run1010030-light.h5 tag-1498607436//
/work/sebastian/BT-20210625/1010030-light/run1010030-light.h5 tag-1498607440//
/work/sebastian/BT-20210625/1010030-light/run1010030-light.h5 tag-1498607442//
/work/sebastian/BT-20210625/1010030-light/run1010030-light.h5 tag-1498607444//
/work/sebastian/BT-20210625/1010030-light/run1010030-light.h5 tag-1498607448//
/work/sebastian/BT-20210625/1010030-light/run1010030-light.h5 tag-1498607452//
/work/sebastian/BT-20210625/1010030-light/run1010030-light.h5 tag-1498607458//
/work/sebastian/BT-20210625/1010030-light/run1010030-light.h5 tag-1498607464//
/work/sebastian/BT-20210625/1010030-light/run1010030-light.h5 tag-1498607470//
/work/sebastian/BT-20210625/1010030-light/run1010030-light.h5 tag-1498607474//
/work/sebastian/BT-20210625/1010030-light/run1010030-light.h5 tag-1498607492//
/work/sebastian/BT-20210625/1010030-light/run1010030-light.h5 tag-1498607494//
/work/sebastian/BT-20210625/1010030-light/run1010030-light.h5 tag-1498607496//
/work/sebastian/BT-20210625/1010030-light/run1010030-light.h5 tag-1498607498//
/work/sebastian/BT-20210625/1010030-light/run1010030-light.h5 tag-1498607502//
/work/sebastian/BT-20210625/1010030-light/run1010030-light.h5 tag-1498607506//
/work/sebastian/BT-20210625/1010030-light/run1010030-light.h5 tag-1498607508//
/work/sebastian/BT-20210625/1010030-light/run1010030-light.h5 tag-1498607512//
/work/sebastian/BT-20210625/1010030-light/run1010030-light.h5 tag-1498607514//
/work/sebastian/BT-20210625/1010030-light/run1010030-light.h5 tag-1498607518//
/work/sebastian/BT-20210625/1010030-light/run1010030-light.h5 tag-1498607534//
/work/sebastian/BT-20210625/1010030-light/run1010030-light.h5 tag-1498607540//
/work/sebastian/BT-20210625/1010030-light/run1010030-light.h5 tag-1498607544//
/work/sebastian/BT-20210625/1010030-light/run1010030-light.h5 tag-1498607546//
/work/sebastian/BT-20210625/1010030-light/run1010030-light.h5 tag-1498607556//
/work/sebastian/BT-20210625/1010030-light/run1010030-light.h5 tag-1498607558//
/work/sebastian/BT-20210625/1010030-light/run1010030-light.h5 tag-1498607568//
/work/sebastian/BT-20210625/1010030-light/run1010030-light.h5 tag-1498607574//
/work/sebastian/BT-20210625/1010030-light/run1010030-light.h5 tag-1498607576//
/work/sebastian/BT-20210625/1010030-light/run1010030-light.h5 tag-1498607578//
/work/sebastian/BT-20210625/1010030-light/run1010030-light.h5 tag-1498607584//
/work/sebastian/BT-20210625/1010030-light/run1010030-light.h5 tag-1498607588//
/work/sebastian/BT-20210625/1010030-light/run1010030-light.h5 tag-1498607594//
/work/sebastian/BT-20210625/1010030-light/run1010030-light.h5 tag-1498607596//
/work/sebastian/BT-20210625/1010030-light/run1010030-light.h5 tag-1498607598//
/work/sebastian/BT-20210625/1010030-light/run1010030-light.h5 tag-1498607600//
/work/sebastian/BT-20210625/1010030-light/run1010030-light.h5 tag-1498607604//
/work/sebastian/BT-20210625/1010030-light/run1010030-light.h5 tag-1498607608//
/work/sebastian/BT-20210625/1010030-light/run1010030-light.h5 tag-1498607610//
/work/sebastian/BT-20210625/1010030-light/run1010030-light.h5 tag-1498607614//
/work/sebastian/BT-20210625/1010030-light/run1010030-light.h5 tag-1498607616//
/work/sebastian/BT-20210625/1010030-light/run1010030-light.h5 tag-1498607622//
/work/sebastian/BT-20210625/1010030-light/run1010030-light.h5 tag-1498607628//
/work/sebastian/BT-20210625/1010030-light/run1010030-light.h5 tag-1498607632//
/work/sebastian/BT-20210625/1010030-light/run1010030-light.h5 tag-1498607642//
/work/sebastian/BT-20210625/1010030-light/run1010030-light.h5 tag-1498607644//
/work/sebastian/BT-20210625/1010030-light/run1010030-light.h5 tag-1498607648//
/work/sebastian/BT-20210625/1010030-light/run1010030-light.h5 tag-1498607650//
/work/sebastian/BT-20210625/1010030-light/run1010030-light.h5 tag-1498607654//
/work/sebastian/BT-20210625/1010030-light/run1010030-light.h5 tag-1498607660//
/work/sebastian/BT-20210625/1010030-light/run1010030-light.h5 tag-1498607668//
/work/sebastian/BT-20210625/1010030-light/run1010030-light.h5 tag-1498607670//
/work/sebastian/BT-20210625/1010030-light/run1010030-light.h5 tag-1498607674//
/work/sebastian/BT-20210625/1010030-light/run1010030-light.h5 tag-1498607676//
/work/sebastian/BT-20210625/1010030-light/run1010030-light.h5 tag-1498607680//
/work/sebastian/BT-20210625/1010030-light/run1010030-light.h5 tag-1498607682//
/work/sebastian/BT-20210625/1010030-light/run1010030-light.h5 tag-1498607692//
/work/sebastian/BT-20210625/1010030-light/run1010030-light.h5 tag-1498607694//
/work/sebastian/BT-20210625/1010030-light/run1010030-light.h5 tag-1498607700//
/work/sebastian/BT-20210625/1010030-light/run1010030-light.h5 tag-1498607704//
/work/sebastian/BT-20210625/1010030-light/run1010030-light.h5 tag-1498607706//
/work/sebastian/BT-20210625/1010030-light/run1010030-light.h5 tag-1498607712//
/work/sebastian/BT-20210625/1010030-light/run1010030-light.h5 tag-1498607718//
/work/sebastian/BT-20210625/1010030-light/run1010030-light.h5 tag-1498607722//
/work/sebastian/BT-20210625/1010030-light/run1010030-light.h5 tag-1498607724//
/work/sebastian/BT-20210625/1010030-light/run1010030-light.h5 tag-1498607726//
/work/sebastian/BT-20210625/1010030-light/run1010030-light.h5 tag-1498607728//
/work/sebastian/BT-20210625/1010030-light/run1010030-light.h5 tag-1498607730//
/work/sebastian/BT-20210625/1010030-light/run1010030-light.h5 tag-1498607736//
/work/sebastian/BT-20210625/1010030-light/run1010030-light.h5 tag-1498607740//
/work/sebastian/BT-20210625/1010030-light/run1010030-light.h5 tag-1498607744//
/work/sebastian/BT-20210625/1010030-light/run1010030-light.h5 tag-1498607746//
/work/sebastian/BT-20210625/1010030-light/run1010030-light.h5 tag-1498607748//
/work/sebastian/BT-20210625/1010030-light/run1010030-light.h5 tag-1498607754//
/work/sebastian/BT-20210625/1010030-light/run1010030-light.h5 tag-1498607756//
/work/sebastian/BT-20210625/1010030-light/run1010030-light.h5 tag-1498607758//
/work/sebastian/BT-20210625/1010030-light/run1010030-light.h5 tag-1498607760//
/work/sebastian/BT-20210625/1010030-light/run1010030-light.h5 tag-1498607762//
/work/sebastian/BT-20210625/1010030-light/run1010030-light.h5 tag-1498607768//
/work/sebastian/BT-20210625/1010030-light/run1010030-light.h5 tag-1498607772//
/work/sebastian/BT-20210625/1010030-light/run1010030-light.h5 tag-1498607776//
/work/sebastian/BT-20210625/1010030-light/run1010030-light.h5 tag-1498607778//
/work/sebastian/BT-20210625/1010030-light/run1010030-light.h5 tag-1498607782//
/work/sebastian/BT-20210625/1010030-light/run1010030-light.h5 tag-1498607786//
/work/sebastian/BT-20210625/1010030-light/run1010030-light.h5 tag-1498607792//
/work/sebastian/BT-20210625/1010030-light/run1010030-light.h5 tag-1498607798//
/work/sebastian/BT-20210625/1010030-light/run1010030-light.h5 tag-1498607810//
/work/sebastian/BT-20210625/1010030-light/run1010030-light.h5 tag-1498607814//
/work/sebastian/BT-20210625/1010030-light/run1010030-light.h5 tag-1498607816//
/work/sebastian/BT-20210625/1010030-light/run1010030-light.h5 tag-1498607820//
/work/sebastian/BT-20210625/1010030-light/run1010030-light.h5 tag-1498607822//
/work/sebastian/BT-20210625/1010030-light/run1010030-light.h5 tag-1498607828//
/work/sebastian/BT-20210625/1010030-light/run1010030-light.h5 tag-1498607832//
/work/sebastian/BT-20210625/1010030-light/run1010030-light.h5 tag-1498607838//
/work/sebastian/BT-20210625/1010030-light/run1010030-light.h5 tag-1498607840//
/work/sebastian/BT-20210625/1010030-light/run1010030-light.h5 tag-1498607842//
/work/sebastian/BT-20210625/1010030-light/run1010030-light.h5 tag-1498607844//
/work/sebastian/BT-20210625/1010030-light/run1010030-light.h5 tag-1498607846//
/work/sebastian/BT-20210625/1010030-light/run1010030-light.h5 tag-1498607848//
/work/sebastian/BT-20210625/1010030-light/run1010030-light.h5 tag-1498607852//
/work/sebastian/BT-20210625/1010030-light/run1010030-light.h5 tag-1498607856//
/work/sebastian/BT-20210625/1010030-light/run1010030-light.h5 tag-1498607858//
/work/sebastian/BT-20210625/1010030-light/run1010030-light.h5 tag-1498607860//
/work/sebastian/BT-20210625/1010030-light/run1010030-light.h5 tag-1498607862//
/work/sebastian/BT-20210625/1010030-light/run1010030-light.h5 tag-1498607868//
/work/sebastian/BT-20210625/1010030-light/run1010030-light.h5 tag-1498607874//
/work/sebastian/BT-20210625/1010030-light/run1010030-light.h5 tag-1498607876//
/work/sebastian/BT-20210625/1010030-light/run1010030-light.h5 tag-1498607878//
/work/sebastian/BT-20210625/1010030-light/run1010030-light.h5 tag-1498607884//
/work/sebastian/BT-20210625/1010030-light/run1010030-light.h5 tag-1498607886//
/work/sebastian/BT-20210625/1010030-light/run1010030-light.h5 tag-1498607890//
/work/sebastian/BT-20210625/1010030-light/run1010030-light.h5 tag-1498607892//
/work/sebastian/BT-20210625/1010030-light/run1010030-light.h5 tag-1498607902//
/work/sebastian/BT-20210625/1010030-light/run1010030-light.h5 tag-1498607908//
/work/sebastian/BT-20210625/1010030-light/run1010030-light.h5 tag-1498607912//
/work/sebastian/BT-20210625/1010030-light/run1010030-light.h5 tag-1498607914//
/work/sebastian/BT-20210625/1010030-light/run1010030-light.h5 tag-1498607916//
/work/sebastian/BT-20210625/1010030-light/run1010030-light.h5 tag-1498607922//
/work/sebastian/BT-20210625/1010030-light/run1010030-light.h5 tag-1498607924//
/work/sebastian/BT-20210625/1010030-light/run1010030-light.h5 tag-1498607926//
/work/sebastian/BT-20210625/1010030-light/run1010030-light.h5 tag-1498607930//
/work/sebastian/BT-20210625/1010030-light/run1010030-light.h5 tag-1498607932//
/work/sebastian/BT-20210625/1010030-light/run1010030-light.h5 tag-1498607936//
/work/sebastian/BT-20210625/1010030-light/run1010030-light.h5 tag-1498607938//
/work/sebastian/BT-20210625/1010030-light/run1010030-light.h5 tag-1498607942//
/work/sebastian/BT-20210625/1010030-light/run1010030-light.h5 tag-1498607950//
/work/sebastian/BT-20210625/1010030-light/run1010030-light.h5 tag-1498607952//
/work/sebastian/BT-20210625/1010030-light/run1010030-light.h5 tag-1498607954//
/work/sebastian/BT-20210625/1010030-light/run1010030-light.h5 tag-1498607958//
/work/sebastian/BT-20210625/1010030-light/run1010030-light.h5 tag-1498607964//
/work/sebastian/BT-20210625/1010030-light/run1010030-light.h5 tag-1498607968//
/work/sebastian/BT-20210625/1010030-light/run1010030-light.h5 tag-1498607984//
/work/sebastian/BT-20210625/1010030-light/run1010030-light.h5 tag-1498607986//
/work/sebastian/BT-20210625/1010030-light/run1010030-light.h5 tag-1498607990//
/work/sebastian/BT-20210625/1010030-light/run1010030-light.h5 tag-1498607998//
/work/sebastian/BT-20210625/1010030-light/run1010030-light.h5 tag-1498608000//
/work/sebastian/BT-20210625/1010030-light/run1010030-light.h5 tag-1498608002//
/work/sebastian/BT-20210625/1010030-light/run1010030-light.h5 tag-1498608004//
/work/sebastian/BT-20210625/1010030-light/run1010030-light.h5 tag-1498608006//
/work/sebastian/BT-20210625/1010030-light/run1010030-light.h5 tag-1498608008//
/work/sebastian/BT-20210625/1010030-light/run1010030-light.h5 tag-1498608012//
/work/sebastian/BT-20210625/1010030-light/run1010030-light.h5 tag-1498608014//
/work/sebastian/BT-20210625/1010030-light/run1010030-light.h5 tag-1498608018//
/work/sebastian/BT-20210625/1010030-light/run1010030-light.h5 tag-1498608020//
/work/sebastian/BT-20210625/1010030-light/run1010030-light.h5 tag-1498608022//
/work/sebastian/BT-20210625/1010030-light/run1010030-light.h5 tag-1498608036//
/work/sebastian/BT-20210625/1010030-light/run1010030-light.h5 tag-1498608046//
/work/sebastian/BT-20210625/1010030-light/run1010030-light.h5 tag-1498608050//
/work/sebastian/BT-20210625/1010030-light/run1010030-light.h5 tag-1498608052//
/work/sebastian/BT-20210625/1010030-light/run1010030-light.h5 tag-1498608056//
/work/sebastian/BT-20210625/1010030-light/run1010030-light.h5 tag-1498608058//
/work/sebastian/BT-20210625/1010030-light/run1010030-light.h5 tag-1498608062//
/work/sebastian/BT-20210625/1010030-light/run1010030-light.h5 tag-1498608064//
/work/sebastian/BT-20210625/1010030-light/run1010030-light.h5 tag-1498608068//
/work/sebastian/BT-20210625/1010030-light/run1010030-light.h5 tag-1498608070//
/work/sebastian/BT-20210625/1010030-light/run1010030-light.h5 tag-1498608074//
/work/sebastian/BT-20210625/1010030-light/run1010030-light.h5 tag-1498608076//
/work/sebastian/BT-20210625/1010030-light/run1010030-light.h5 tag-1498608088//
/work/sebastian/BT-20210625/1010030-light/run1010030-light.h5 tag-1498608092//
/work/sebastian/BT-20210625/1010030-light/run1010030-light.h5 tag-1498608094//
/work/sebastian/BT-20210625/1010030-light/run1010030-light.h5 tag-1498608098//
/work/sebastian/BT-20210625/1010030-light/run1010030-light.h5 tag-1498608102//
/work/sebastian/BT-20210625/1010030-light/run1010030-light.h5 tag-1498608104//
/work/sebastian/BT-20210625/1010030-light/run1010030-light.h5 tag-1498608106//
/work/sebastian/BT-20210625/1010030-light/run1010030-light.h5 tag-1498608108//
/work/sebastian/BT-20210625/1010030-light/run1010030-light.h5 tag-1498608110//
/work/sebastian/BT-20210625/1010030-light/run1010030-light.h5 tag-1498608116//
/work/sebastian/BT-20210625/1010030-light/run1010030-light.h5 tag-1498608122//
/work/sebastian/BT-20210625/1010030-light/run1010030-light.h5 tag-1498608126//
/work/sebastian/BT-20210625/1010030-light/run1010030-light.h5 tag-1498608128//
/work/sebastian/BT-20210625/1010030-light/run1010030-light.h5 tag-1498608132//
/work/sebastian/BT-20210625/1010030-light/run1010030-light.h5 tag-1498608140//
/work/sebastian/BT-20210625/1010030-light/run1010030-light.h5 tag-1498608144//
/work/sebastian/BT-20210625/1010030-light/run1010030-light.h5 tag-1498608146//
/work/sebastian/BT-20210625/1010030-light/run1010030-light.h5 tag-1498608150//
/work/sebastian/BT-20210625/1010030-light/run1010030-light.h5 tag-1498608154//
/work/sebastian/BT-20210625/1010030-light/run1010030-light.h5 tag-1498608156//
/work/sebastian/BT-20210625/1010030-light/run1010030-light.h5 tag-1498608162//
/work/sebastian/BT-20210625/1010030-light/run1010030-light.h5 tag-1498608166//
/work/sebastian/BT-20210625/1010030-light/run1010030-light.h5 tag-1498608168//
/work/sebastian/BT-20210625/1010030-light/run1010030-light.h5 tag-1498608170//
/work/sebastian/BT-20210625/1010030-light/run1010030-light.h5 tag-1498608172//
/work/sebastian/BT-20210625/1010030-light/run1010030-light.h5 tag-1498608174//
/work/sebastian/BT-20210625/1010030-light/run1010030-light.h5 tag-1498608176//
/work/sebastian/BT-20210625/1010030-light/run1010030-light.h5 tag-1498608188//
/work/sebastian/BT-20210625/1010030-light/run1010030-light.h5 tag-1498608194//
/work/sebastian/BT-20210625/1010030-light/run1010030-light.h5 tag-1498608200//
/work/sebastian/BT-20210625/1010030-light/run1010030-light.h5 tag-1498608202//
/work/sebastian/BT-20210625/1010030-light/run1010030-light.h5 tag-1498608206//
/work/sebastian/BT-20210625/1010030-light/run1010030-light.h5 tag-1498608208//
/work/sebastian/BT-20210625/1010030-light/run1010030-light.h5 tag-1498608216//
/work/sebastian/BT-20210625/1010030-light/run1010030-light.h5 tag-1498608220//
/work/sebastian/BT-20210625/1010030-light/run1010030-light.h5 tag-1498608222//
/work/sebastian/BT-20210625/1010030-light/run1010030-light.h5 tag-1498608226//
/work/sebastian/BT-20210625/1010030-light/run1010030-light.h5 tag-1498608230//
/work/sebastian/BT-20210625/1010030-light/run1010030-light.h5 tag-1498608234//
/work/sebastian/BT-20210625/1010030-light/run1010030-light.h5 tag-1498608236//
/work/sebastian/BT-20210625/1010030-light/run1010030-light.h5 tag-1498608238//
/work/sebastian/BT-20210625/1010030-light/run1010030-light.h5 tag-1498608240//
/work/sebastian/BT-20210625/1010030-light/run1010030-light.h5 tag-1498608242//
/work/sebastian/BT-20210625/1010030-light/run1010030-light.h5 tag-1498608248//
