timepoint,mu,sigma,N_patterns,width_bins
-524.864794422284,-524.864794422284,66.8911629081989,21792,430.400000001
-258.79963289388,-258.79963289388,91.0160721689394,21792,280.8000000018
-94.7982011749731,-94.7982011749731,27.1481487764464,21792,93.6
-5.59505628970524,-5.59505628970524,24.7346589734072,21792,85.6000000005
93.5365516401274,93.5365516401274,36.8866608257452,21792,121.6000000005
238.691972590594,238.691972590594,52.6001077429384,21792,178.9333333343
499.179221735233,499.179221735233,100.933186677272,21792,343.4666666692
790.980176215455,790.980176215455,73.1109189922657,21792,441.6
