tag_number,path,timepoints
1497185476,/work/sebastian/BT-20210625/1009844-light/run1009844-light.h5,2703.600000015
1497185496,/work/sebastian/BT-20210625/1009844-light/run1009844-light.h5,2703.600000015
1497056946,/work/sebastian/BT-20210625/1009816-light/run1009816-light.h5,2706.000000015
1497056410,/work/sebastian/BT-20210625/1009816-light/run1009816-light.h5,2708.400000015
1497185472,/work/sebastian/BT-20210625/1009844-light/run1009844-light.h5,2708.400000015
1497056854,/work/sebastian/BT-20210625/1009816-light/run1009816-light.h5,2713.200000015
1497184942,/work/sebastian/BT-20210625/1009844-light/run1009844-light.h5,2713.200000015
1497185478,/work/sebastian/BT-20210625/1009844-light/run1009844-light.h5,2713.200000015
1497184932,/work/sebastian/BT-20210625/1009844-light/run1009844-light.h5,2715.600000015
1497078860,/work/sebastian/BT-20210625/1009821-light/run1009821-light.h5,2718.000000015
1497079402,/work/sebastian/BT-20210625/1009821-light/run1009821-light.h5,2718.000000015
1497079428,/work/sebastian/BT-20210625/1009821-light/run1009821-light.h5,2718.000000015
1497184926,/work/sebastian/BT-20210625/1009844-light/run1009844-light.h5,2718.000000015
1497056870,/work/sebastian/BT-20210625/1009816-light/run1009816-light.h5,2720.400000015
1497056928,/work/sebastian/BT-20210625/1009816-light/run1009816-light.h5,2720.400000015
1497095086,/work/sebastian/BT-20210625/1009824-light/run1009824-light.h5,2720.400000015
1497098888,/work/sebastian/BT-20210625/1009825-light/run1009825-light.h5,2720.400000015
1497184984,/work/sebastian/BT-20210625/1009844-light/run1009844-light.h5,2720.400000015
1497184930,/work/sebastian/BT-20210625/1009844-light/run1009844-light.h5,2722.800000015
1497185446,/work/sebastian/BT-20210625/1009844-light/run1009844-light.h5,2722.800000015
1497185480,/work/sebastian/BT-20210625/1009844-light/run1009844-light.h5,2722.800000015
1497079416,/work/sebastian/BT-20210625/1009821-light/run1009821-light.h5,2725.200000015
1497185324,/work/sebastian/BT-20210625/1009844-light/run1009844-light.h5,2725.200000015
1497185344,/work/sebastian/BT-20210625/1009844-light/run1009844-light.h5,2725.200000015
1497185376,/work/sebastian/BT-20210625/1009844-light/run1009844-light.h5,2725.200000015
1497185458,/work/sebastian/BT-20210625/1009844-light/run1009844-light.h5,2725.200000015
1497056434,/work/sebastian/BT-20210625/1009816-light/run1009816-light.h5,2727.600000015
1497056616,/work/sebastian/BT-20210625/1009816-light/run1009816-light.h5,2727.600000015
1497078778,/work/sebastian/BT-20210625/1009821-light/run1009821-light.h5,2727.600000015
1497078796,/work/sebastian/BT-20210625/1009821-light/run1009821-light.h5,2727.600000015
1497078850,/work/sebastian/BT-20210625/1009821-light/run1009821-light.h5,2727.600000015
1497079378,/work/sebastian/BT-20210625/1009821-light/run1009821-light.h5,2727.600000015
1497184968,/work/sebastian/BT-20210625/1009844-light/run1009844-light.h5,2727.600000015
1497185394,/work/sebastian/BT-20210625/1009844-light/run1009844-light.h5,2727.600000015
1497056874,/work/sebastian/BT-20210625/1009816-light/run1009816-light.h5,2730.000000015
1497056888,/work/sebastian/BT-20210625/1009816-light/run1009816-light.h5,2730.000000015
1497078810,/work/sebastian/BT-20210625/1009821-light/run1009821-light.h5,2730.000000015
1497079404,/work/sebastian/BT-20210625/1009821-light/run1009821-light.h5,2730.000000015
1497095360,/work/sebastian/BT-20210625/1009824-light/run1009824-light.h5,2730.000000015
1497095456,/work/sebastian/BT-20210625/1009824-light/run1009824-light.h5,2730.000000015
1497184928,/work/sebastian/BT-20210625/1009844-light/run1009844-light.h5,2730.000000015
1497184938,/work/sebastian/BT-20210625/1009844-light/run1009844-light.h5,2730.000000015
1497184944,/work/sebastian/BT-20210625/1009844-light/run1009844-light.h5,2730.000000015
1497056906,/work/sebastian/BT-20210625/1009816-light/run1009816-light.h5,2732.400000015
1497078798,/work/sebastian/BT-20210625/1009821-light/run1009821-light.h5,2732.400000015
1497159932,/work/sebastian/BT-20210625/1009839-light/run1009839-light.h5,2732.400000015
1497184990,/work/sebastian/BT-20210625/1009844-light/run1009844-light.h5,2732.400000015
1497185092,/work/sebastian/BT-20210625/1009844-light/run1009844-light.h5,2732.400000015
1497185444,/work/sebastian/BT-20210625/1009844-light/run1009844-light.h5,2732.400000015
1497185482,/work/sebastian/BT-20210625/1009844-light/run1009844-light.h5,2732.400000015
1497185500,/work/sebastian/BT-20210625/1009844-light/run1009844-light.h5,2732.400000015
1497056880,/work/sebastian/BT-20210625/1009816-light/run1009816-light.h5,2734.800000015
1497056918,/work/sebastian/BT-20210625/1009816-light/run1009816-light.h5,2734.800000015
1497095268,/work/sebastian/BT-20210625/1009824-light/run1009824-light.h5,2734.800000015
1497158804,/work/sebastian/BT-20210625/1009838-light/run1009838-light.h5,2734.800000015
1497185082,/work/sebastian/BT-20210625/1009844-light/run1009844-light.h5,2734.800000015
1497185426,/work/sebastian/BT-20210625/1009844-light/run1009844-light.h5,2734.800000015
1497185494,/work/sebastian/BT-20210625/1009844-light/run1009844-light.h5,2734.800000015
1497056592,/work/sebastian/BT-20210625/1009816-light/run1009816-light.h5,2737.200000015
1497056604,/work/sebastian/BT-20210625/1009816-light/run1009816-light.h5,2737.200000015
1497056830,/work/sebastian/BT-20210625/1009816-light/run1009816-light.h5,2737.200000015
1497056858,/work/sebastian/BT-20210625/1009816-light/run1009816-light.h5,2737.200000015
1497056932,/work/sebastian/BT-20210625/1009816-light/run1009816-light.h5,2737.200000015
1497079400,/work/sebastian/BT-20210625/1009821-light/run1009821-light.h5,2737.200000015
1497098898,/work/sebastian/BT-20210625/1009825-light/run1009825-light.h5,2737.200000015
1497185440,/work/sebastian/BT-20210625/1009844-light/run1009844-light.h5,2737.200000015
1497056600,/work/sebastian/BT-20210625/1009816-light/run1009816-light.h5,2739.600000015
1497056930,/work/sebastian/BT-20210625/1009816-light/run1009816-light.h5,2739.600000015
1497095110,/work/sebastian/BT-20210625/1009824-light/run1009824-light.h5,2739.600000015
1497095120,/work/sebastian/BT-20210625/1009824-light/run1009824-light.h5,2739.600000015
1497095124,/work/sebastian/BT-20210625/1009824-light/run1009824-light.h5,2739.600000015
1497095126,/work/sebastian/BT-20210625/1009824-light/run1009824-light.h5,2739.600000015
1497099516,/work/sebastian/BT-20210625/1009825-light/run1009825-light.h5,2739.600000015
1497184980,/work/sebastian/BT-20210625/1009844-light/run1009844-light.h5,2739.600000015
1497185374,/work/sebastian/BT-20210625/1009844-light/run1009844-light.h5,2739.600000015
1497185456,/work/sebastian/BT-20210625/1009844-light/run1009844-light.h5,2739.600000015
1497185468,/work/sebastian/BT-20210625/1009844-light/run1009844-light.h5,2739.600000015
1497185486,/work/sebastian/BT-20210625/1009844-light/run1009844-light.h5,2739.600000015
1497079408,/work/sebastian/BT-20210625/1009821-light/run1009821-light.h5,2742.000000015
1497079418,/work/sebastian/BT-20210625/1009821-light/run1009821-light.h5,2742.000000015
1497079422,/work/sebastian/BT-20210625/1009821-light/run1009821-light.h5,2742.000000015
1497098908,/work/sebastian/BT-20210625/1009825-light/run1009825-light.h5,2742.000000015
1497159894,/work/sebastian/BT-20210625/1009839-light/run1009839-light.h5,2742.000000015
1497184964,/work/sebastian/BT-20210625/1009844-light/run1009844-light.h5,2742.000000015
1497056646,/work/sebastian/BT-20210625/1009816-light/run1009816-light.h5,2744.400000015
1497078800,/work/sebastian/BT-20210625/1009821-light/run1009821-light.h5,2744.400000015
1497079424,/work/sebastian/BT-20210625/1009821-light/run1009821-light.h5,2744.400000015
1497095170,/work/sebastian/BT-20210625/1009824-light/run1009824-light.h5,2744.400000015
1497099218,/work/sebastian/BT-20210625/1009825-light/run1009825-light.h5,2744.400000015
1497056660,/work/sebastian/BT-20210625/1009816-light/run1009816-light.h5,2746.800000015
1497078814,/work/sebastian/BT-20210625/1009821-light/run1009821-light.h5,2746.800000015
1497078840,/work/sebastian/BT-20210625/1009821-light/run1009821-light.h5,2746.800000015
1497079456,/work/sebastian/BT-20210625/1009821-light/run1009821-light.h5,2746.800000015
1497095182,/work/sebastian/BT-20210625/1009824-light/run1009824-light.h5,2746.800000015
1497095478,/work/sebastian/BT-20210625/1009824-light/run1009824-light.h5,2746.800000015
1497056558,/work/sebastian/BT-20210625/1009816-light/run1009816-light.h5,2749.200000015
1497056868,/work/sebastian/BT-20210625/1009816-light/run1009816-light.h5,2749.200000015
1497079362,/work/sebastian/BT-20210625/1009821-light/run1009821-light.h5,2749.200000015
1497095336,/work/sebastian/BT-20210625/1009824-light/run1009824-light.h5,2749.200000015
1497158820,/work/sebastian/BT-20210625/1009838-light/run1009838-light.h5,2749.200000015
1497184948,/work/sebastian/BT-20210625/1009844-light/run1009844-light.h5,2749.200000015
1497185308,/work/sebastian/BT-20210625/1009844-light/run1009844-light.h5,2749.200000015
1497185314,/work/sebastian/BT-20210625/1009844-light/run1009844-light.h5,2749.200000015
