timepoint,mu,sigma,N_patterns,width_bins
2872.40424001491,2872.40424001491,34.1761252159451,10000,204
2924.46480001494,2924.46480001494,12.7025704678088,10000,43.1999999999998
2980.49976001492,2980.49976001492,20.2686901876409,10000,69.5999999999999
3048.15408001499,3048.15408001499,18.7346976021235,10000,74.4000000000001
