# tags                 xfel_bl_3_st_2_motor_1/position xfel_bl_3_st_2_pd_user_7_fitting_peak/voltage
1.486811422000000000e+09 2.400000000000000000e+02 0.000000000000000000e+00
1.486811424000000000e+09 2.400000000000000000e+02 0.000000000000000000e+00
1.486811426000000000e+09 2.400000000000000000e+02 0.000000000000000000e+00
1.486811428000000000e+09 2.400000000000000000e+02 0.000000000000000000e+00
1.486811430000000000e+09 2.400000000000000000e+02 0.000000000000000000e+00
1.486811432000000000e+09 2.400000000000000000e+02 0.000000000000000000e+00
1.486811434000000000e+09 2.400000000000000000e+02 0.000000000000000000e+00
1.486811436000000000e+09 2.400000000000000000e+02 0.000000000000000000e+00
1.486811438000000000e+09 2.400000000000000000e+02 0.000000000000000000e+00
1.486811440000000000e+09 2.400000000000000000e+02 0.000000000000000000e+00
1.486811442000000000e+09 2.400000000000000000e+02 0.000000000000000000e+00
1.486811444000000000e+09 2.400000000000000000e+02 0.000000000000000000e+00
1.486811446000000000e+09 2.400000000000000000e+02 0.000000000000000000e+00
1.486811448000000000e+09 2.400000000000000000e+02 0.000000000000000000e+00
1.486811450000000000e+09 2.400000000000000000e+02 0.000000000000000000e+00
1.486811452000000000e+09 2.400000000000000000e+02 0.000000000000000000e+00
1.486811454000000000e+09 2.400000000000000000e+02 0.000000000000000000e+00
1.486811456000000000e+09 2.400000000000000000e+02 0.000000000000000000e+00
1.486811458000000000e+09 2.400000000000000000e+02 0.000000000000000000e+00
1.486811460000000000e+09 2.400000000000000000e+02 0.000000000000000000e+00
1.486811462000000000e+09 2.400000000000000000e+02 0.000000000000000000e+00
1.486811464000000000e+09 2.400000000000000000e+02 0.000000000000000000e+00
1.486811466000000000e+09 2.400000000000000000e+02 0.000000000000000000e+00
1.486811468000000000e+09 2.400000000000000000e+02 0.000000000000000000e+00
1.486811470000000000e+09 2.400000000000000000e+02 0.000000000000000000e+00
1.486811472000000000e+09 2.400000000000000000e+02 0.000000000000000000e+00
1.486811474000000000e+09 2.400000000000000000e+02 0.000000000000000000e+00
1.486811476000000000e+09 2.400000000000000000e+02 0.000000000000000000e+00
1.486811478000000000e+09 2.400000000000000000e+02 0.000000000000000000e+00
1.486811480000000000e+09 2.400000000000000000e+02 0.000000000000000000e+00
1.486811482000000000e+09 2.400000000000000000e+02 0.000000000000000000e+00
1.486811484000000000e+09 2.400000000000000000e+02 0.000000000000000000e+00
1.486811486000000000e+09 2.400000000000000000e+02 0.000000000000000000e+00
1.486811488000000000e+09 2.400000000000000000e+02 0.000000000000000000e+00
1.486811490000000000e+09 2.400000000000000000e+02 0.000000000000000000e+00
1.486811492000000000e+09 2.400000000000000000e+02 0.000000000000000000e+00
1.486811494000000000e+09 2.400000000000000000e+02 0.000000000000000000e+00
1.486811496000000000e+09 2.400000000000000000e+02 0.000000000000000000e+00
1.486811498000000000e+09 2.400000000000000000e+02 0.000000000000000000e+00
1.486811500000000000e+09 2.400000000000000000e+02 0.000000000000000000e+00
1.486811502000000000e+09 2.400000000000000000e+02 0.000000000000000000e+00
1.486811504000000000e+09 2.400000000000000000e+02 0.000000000000000000e+00
1.486811506000000000e+09 2.400000000000000000e+02 0.000000000000000000e+00
1.486811508000000000e+09 2.400000000000000000e+02 0.000000000000000000e+00
1.486811510000000000e+09 2.400000000000000000e+02 0.000000000000000000e+00
1.486811512000000000e+09 2.400000000000000000e+02 0.000000000000000000e+00
1.486811514000000000e+09 2.400000000000000000e+02 0.000000000000000000e+00
1.486811516000000000e+09 2.400000000000000000e+02 0.000000000000000000e+00
1.486811518000000000e+09 2.400000000000000000e+02 0.000000000000000000e+00
1.486811520000000000e+09 2.400000000000000000e+02 0.000000000000000000e+00
1.486811522000000000e+09 2.400000000000000000e+02 0.000000000000000000e+00
1.486811524000000000e+09 2.400000000000000000e+02 0.000000000000000000e+00
1.486811526000000000e+09 2.400000000000000000e+02 0.000000000000000000e+00
1.486811528000000000e+09 2.400000000000000000e+02 0.000000000000000000e+00
1.486811530000000000e+09 2.400000000000000000e+02 0.000000000000000000e+00
1.486811532000000000e+09 2.400000000000000000e+02 0.000000000000000000e+00
1.486811534000000000e+09 2.400000000000000000e+02 0.000000000000000000e+00
1.486811536000000000e+09 2.400000000000000000e+02 0.000000000000000000e+00
1.486811538000000000e+09 2.400000000000000000e+02 0.000000000000000000e+00
1.486811540000000000e+09 2.400000000000000000e+02 0.000000000000000000e+00
1.486811542000000000e+09 2.400000000000000000e+02 0.000000000000000000e+00
1.486811544000000000e+09 2.400000000000000000e+02 0.000000000000000000e+00
1.486811546000000000e+09 2.400000000000000000e+02 0.000000000000000000e+00
1.486811548000000000e+09 2.400000000000000000e+02 0.000000000000000000e+00
1.486811550000000000e+09 2.400000000000000000e+02 0.000000000000000000e+00
1.486811552000000000e+09 2.400000000000000000e+02 0.000000000000000000e+00
1.486811554000000000e+09 2.400000000000000000e+02 0.000000000000000000e+00
1.486811556000000000e+09 2.400000000000000000e+02 0.000000000000000000e+00
1.486811558000000000e+09 2.400000000000000000e+02 0.000000000000000000e+00
1.486811560000000000e+09 2.400000000000000000e+02 0.000000000000000000e+00
1.486811562000000000e+09 2.400000000000000000e+02 0.000000000000000000e+00
1.486811564000000000e+09 2.400000000000000000e+02 0.000000000000000000e+00
1.486811566000000000e+09 2.400000000000000000e+02 0.000000000000000000e+00
1.486811568000000000e+09 2.400000000000000000e+02 0.000000000000000000e+00
1.486811570000000000e+09 2.400000000000000000e+02 0.000000000000000000e+00
1.486811572000000000e+09 2.400000000000000000e+02 0.000000000000000000e+00
1.486811574000000000e+09 2.400000000000000000e+02 0.000000000000000000e+00
1.486811576000000000e+09 2.400000000000000000e+02 0.000000000000000000e+00
1.486811578000000000e+09 2.400000000000000000e+02 0.000000000000000000e+00
1.486811580000000000e+09 2.400000000000000000e+02 0.000000000000000000e+00
1.486811582000000000e+09 2.400000000000000000e+02 0.000000000000000000e+00
1.486811584000000000e+09 2.400000000000000000e+02 0.000000000000000000e+00
1.486811586000000000e+09 2.400000000000000000e+02 0.000000000000000000e+00
1.486811588000000000e+09 2.400000000000000000e+02 0.000000000000000000e+00
1.486811590000000000e+09 2.400000000000000000e+02 0.000000000000000000e+00
1.486811592000000000e+09 2.400000000000000000e+02 0.000000000000000000e+00
1.486811594000000000e+09 2.400000000000000000e+02 0.000000000000000000e+00
1.486811596000000000e+09 2.400000000000000000e+02 0.000000000000000000e+00
1.486811598000000000e+09 2.400000000000000000e+02 0.000000000000000000e+00
1.486811600000000000e+09 2.400000000000000000e+02 0.000000000000000000e+00
1.486811602000000000e+09 2.400000000000000000e+02 0.000000000000000000e+00
1.486811604000000000e+09 2.400000000000000000e+02 0.000000000000000000e+00
1.486811606000000000e+09 2.400000000000000000e+02 0.000000000000000000e+00
1.486811608000000000e+09 2.400000000000000000e+02 0.000000000000000000e+00
1.486811610000000000e+09 2.400000000000000000e+02 0.000000000000000000e+00
1.486811612000000000e+09 2.400000000000000000e+02 0.000000000000000000e+00
1.486811614000000000e+09 2.400000000000000000e+02 0.000000000000000000e+00
1.486811616000000000e+09 2.400000000000000000e+02 0.000000000000000000e+00
1.486811618000000000e+09 2.400000000000000000e+02 0.000000000000000000e+00
1.486811620000000000e+09 2.400000000000000000e+02 0.000000000000000000e+00
1.486811622000000000e+09 2.400000000000000000e+02 0.000000000000000000e+00
1.486811624000000000e+09 2.400000000000000000e+02 0.000000000000000000e+00
1.486811626000000000e+09 2.400000000000000000e+02 0.000000000000000000e+00
1.486811628000000000e+09 2.400000000000000000e+02 0.000000000000000000e+00
1.486811630000000000e+09 2.400000000000000000e+02 0.000000000000000000e+00
1.486811632000000000e+09 2.400000000000000000e+02 0.000000000000000000e+00
1.486811634000000000e+09 2.400000000000000000e+02 0.000000000000000000e+00
1.486811636000000000e+09 2.400000000000000000e+02 0.000000000000000000e+00
1.486811638000000000e+09 2.400000000000000000e+02 0.000000000000000000e+00
1.486811640000000000e+09 2.400000000000000000e+02 0.000000000000000000e+00
1.486811642000000000e+09 2.400000000000000000e+02 0.000000000000000000e+00
1.486811644000000000e+09 2.400000000000000000e+02 0.000000000000000000e+00
1.486811646000000000e+09 2.400000000000000000e+02 0.000000000000000000e+00
1.486811648000000000e+09 2.400000000000000000e+02 0.000000000000000000e+00
1.486811650000000000e+09 2.400000000000000000e+02 0.000000000000000000e+00
1.486811652000000000e+09 2.400000000000000000e+02 0.000000000000000000e+00
1.486811654000000000e+09 2.400000000000000000e+02 0.000000000000000000e+00
1.486811656000000000e+09 2.400000000000000000e+02 0.000000000000000000e+00
1.486811658000000000e+09 2.400000000000000000e+02 0.000000000000000000e+00
1.486811660000000000e+09 2.400000000000000000e+02 0.000000000000000000e+00
1.486811662000000000e+09 2.400000000000000000e+02 0.000000000000000000e+00
1.486811664000000000e+09 2.400000000000000000e+02 0.000000000000000000e+00
1.486811666000000000e+09 2.400000000000000000e+02 0.000000000000000000e+00
1.486811668000000000e+09 2.400000000000000000e+02 0.000000000000000000e+00
1.486811670000000000e+09 2.400000000000000000e+02 0.000000000000000000e+00
1.486811672000000000e+09 2.400000000000000000e+02 0.000000000000000000e+00
1.486811674000000000e+09 2.400000000000000000e+02 0.000000000000000000e+00
1.486811676000000000e+09 2.400000000000000000e+02 0.000000000000000000e+00
1.486811678000000000e+09 2.400000000000000000e+02 0.000000000000000000e+00
1.486811680000000000e+09 2.400000000000000000e+02 0.000000000000000000e+00
1.486811682000000000e+09 2.400000000000000000e+02 0.000000000000000000e+00
1.486811684000000000e+09 2.400000000000000000e+02 0.000000000000000000e+00
1.486811686000000000e+09 2.400000000000000000e+02 0.000000000000000000e+00
1.486811688000000000e+09 2.400000000000000000e+02 0.000000000000000000e+00
1.486811690000000000e+09 2.400000000000000000e+02 0.000000000000000000e+00
1.486811692000000000e+09 2.400000000000000000e+02 0.000000000000000000e+00
1.486811694000000000e+09 2.400000000000000000e+02 0.000000000000000000e+00
1.486811696000000000e+09 2.400000000000000000e+02 0.000000000000000000e+00
1.486811698000000000e+09 2.400000000000000000e+02 0.000000000000000000e+00
1.486811700000000000e+09 2.400000000000000000e+02 0.000000000000000000e+00
1.486811702000000000e+09 2.400000000000000000e+02 0.000000000000000000e+00
1.486811704000000000e+09 2.400000000000000000e+02 0.000000000000000000e+00
1.486811706000000000e+09 2.400000000000000000e+02 0.000000000000000000e+00
1.486811708000000000e+09 2.400000000000000000e+02 0.000000000000000000e+00
1.486811710000000000e+09 2.400000000000000000e+02 0.000000000000000000e+00
1.486811712000000000e+09 2.400000000000000000e+02 0.000000000000000000e+00
1.486811714000000000e+09 2.400000000000000000e+02 0.000000000000000000e+00
1.486811716000000000e+09 2.400000000000000000e+02 0.000000000000000000e+00
1.486811718000000000e+09 2.400000000000000000e+02 0.000000000000000000e+00
1.486811720000000000e+09 2.400000000000000000e+02 0.000000000000000000e+00
1.486811722000000000e+09 2.400000000000000000e+02 0.000000000000000000e+00
1.486811724000000000e+09 2.400000000000000000e+02 0.000000000000000000e+00
1.486811726000000000e+09 2.400000000000000000e+02 0.000000000000000000e+00
1.486811728000000000e+09 2.400000000000000000e+02 0.000000000000000000e+00
1.486811730000000000e+09 2.400000000000000000e+02 0.000000000000000000e+00
1.486811732000000000e+09 2.400000000000000000e+02 0.000000000000000000e+00
1.486811734000000000e+09 2.400000000000000000e+02 0.000000000000000000e+00
1.486811736000000000e+09 2.400000000000000000e+02 0.000000000000000000e+00
1.486811738000000000e+09 2.400000000000000000e+02 0.000000000000000000e+00
1.486811740000000000e+09 2.400000000000000000e+02 0.000000000000000000e+00
1.486811742000000000e+09 2.400000000000000000e+02 0.000000000000000000e+00
1.486811744000000000e+09 2.400000000000000000e+02 0.000000000000000000e+00
1.486811746000000000e+09 2.400000000000000000e+02 0.000000000000000000e+00
1.486811748000000000e+09 2.400000000000000000e+02 0.000000000000000000e+00
1.486811750000000000e+09 2.400000000000000000e+02 0.000000000000000000e+00
1.486811752000000000e+09 2.400000000000000000e+02 0.000000000000000000e+00
1.486811754000000000e+09 2.400000000000000000e+02 0.000000000000000000e+00
1.486811756000000000e+09 2.400000000000000000e+02 0.000000000000000000e+00
1.486811758000000000e+09 2.400000000000000000e+02 0.000000000000000000e+00
1.486811760000000000e+09 2.400000000000000000e+02 0.000000000000000000e+00
1.486811762000000000e+09 2.400000000000000000e+02 0.000000000000000000e+00
1.486811764000000000e+09 2.400000000000000000e+02 0.000000000000000000e+00
1.486811766000000000e+09 2.400000000000000000e+02 0.000000000000000000e+00
1.486811768000000000e+09 2.400000000000000000e+02 0.000000000000000000e+00
1.486811770000000000e+09 2.400000000000000000e+02 0.000000000000000000e+00
1.486811772000000000e+09 2.400000000000000000e+02 0.000000000000000000e+00
1.486811774000000000e+09 2.400000000000000000e+02 0.000000000000000000e+00
1.486811776000000000e+09 2.400000000000000000e+02 0.000000000000000000e+00
1.486811778000000000e+09 2.400000000000000000e+02 0.000000000000000000e+00
1.486811780000000000e+09 2.400000000000000000e+02 0.000000000000000000e+00
1.486811782000000000e+09 2.400000000000000000e+02 0.000000000000000000e+00
1.486811784000000000e+09 2.400000000000000000e+02 0.000000000000000000e+00
1.486811786000000000e+09 2.400000000000000000e+02 0.000000000000000000e+00
1.486811788000000000e+09 2.400000000000000000e+02 0.000000000000000000e+00
1.486811790000000000e+09 2.400000000000000000e+02 0.000000000000000000e+00
1.486811792000000000e+09 2.400000000000000000e+02 0.000000000000000000e+00
1.486811794000000000e+09 2.400000000000000000e+02 0.000000000000000000e+00
1.486811796000000000e+09 2.400000000000000000e+02 0.000000000000000000e+00
1.486811798000000000e+09 2.400000000000000000e+02 0.000000000000000000e+00
1.486811800000000000e+09 2.400000000000000000e+02 0.000000000000000000e+00
1.486811802000000000e+09 2.400000000000000000e+02 0.000000000000000000e+00
1.486811804000000000e+09 2.400000000000000000e+02 0.000000000000000000e+00
1.486811806000000000e+09 2.400000000000000000e+02 0.000000000000000000e+00
1.486811808000000000e+09 2.400000000000000000e+02 0.000000000000000000e+00
1.486811810000000000e+09 2.400000000000000000e+02 0.000000000000000000e+00
1.486811812000000000e+09 2.400000000000000000e+02 0.000000000000000000e+00
1.486811814000000000e+09 2.400000000000000000e+02 0.000000000000000000e+00
1.486811816000000000e+09 2.400000000000000000e+02 0.000000000000000000e+00
1.486811818000000000e+09 2.400000000000000000e+02 0.000000000000000000e+00
1.486811820000000000e+09 2.400000000000000000e+02 0.000000000000000000e+00
1.486811822000000000e+09 2.400000000000000000e+02 0.000000000000000000e+00
1.486811824000000000e+09 2.400000000000000000e+02 0.000000000000000000e+00
1.486811826000000000e+09 2.400000000000000000e+02 0.000000000000000000e+00
1.486811828000000000e+09 2.400000000000000000e+02 0.000000000000000000e+00
1.486811830000000000e+09 2.400000000000000000e+02 0.000000000000000000e+00
1.486811832000000000e+09 2.400000000000000000e+02 0.000000000000000000e+00
1.486811834000000000e+09 2.400000000000000000e+02 0.000000000000000000e+00
1.486811836000000000e+09 2.400000000000000000e+02 0.000000000000000000e+00
1.486811838000000000e+09 2.400000000000000000e+02 0.000000000000000000e+00
1.486811840000000000e+09 2.400000000000000000e+02 0.000000000000000000e+00
1.486811842000000000e+09 2.400000000000000000e+02 0.000000000000000000e+00
1.486811844000000000e+09 2.400000000000000000e+02 0.000000000000000000e+00
1.486811846000000000e+09 2.400000000000000000e+02 0.000000000000000000e+00
1.486811848000000000e+09 2.400000000000000000e+02 0.000000000000000000e+00
1.486811850000000000e+09 2.400000000000000000e+02 0.000000000000000000e+00
1.486811852000000000e+09 2.400000000000000000e+02 0.000000000000000000e+00
1.486811854000000000e+09 2.400000000000000000e+02 0.000000000000000000e+00
1.486811856000000000e+09 2.400000000000000000e+02 0.000000000000000000e+00
1.486811858000000000e+09 2.400000000000000000e+02 0.000000000000000000e+00
1.486811860000000000e+09 2.400000000000000000e+02 0.000000000000000000e+00
1.486811862000000000e+09 2.400000000000000000e+02 0.000000000000000000e+00
1.486811864000000000e+09 2.400000000000000000e+02 0.000000000000000000e+00
1.486811866000000000e+09 2.400000000000000000e+02 0.000000000000000000e+00
1.486811868000000000e+09 2.400000000000000000e+02 0.000000000000000000e+00
1.486811870000000000e+09 2.400000000000000000e+02 0.000000000000000000e+00
1.486811872000000000e+09 2.400000000000000000e+02 0.000000000000000000e+00
1.486811874000000000e+09 2.400000000000000000e+02 0.000000000000000000e+00
1.486811876000000000e+09 2.400000000000000000e+02 0.000000000000000000e+00
1.486811878000000000e+09 2.400000000000000000e+02 0.000000000000000000e+00
1.486811880000000000e+09 2.400000000000000000e+02 0.000000000000000000e+00
1.486811882000000000e+09 2.400000000000000000e+02 0.000000000000000000e+00
1.486811884000000000e+09 2.400000000000000000e+02 0.000000000000000000e+00
1.486811886000000000e+09 2.400000000000000000e+02 0.000000000000000000e+00
1.486811888000000000e+09 2.400000000000000000e+02 0.000000000000000000e+00
1.486811890000000000e+09 2.400000000000000000e+02 0.000000000000000000e+00
1.486811892000000000e+09 2.400000000000000000e+02 0.000000000000000000e+00
1.486811894000000000e+09 2.400000000000000000e+02 0.000000000000000000e+00
1.486811896000000000e+09 2.400000000000000000e+02 0.000000000000000000e+00
1.486811898000000000e+09 2.400000000000000000e+02 0.000000000000000000e+00
1.486811900000000000e+09 2.400000000000000000e+02 0.000000000000000000e+00
1.486811902000000000e+09 2.400000000000000000e+02 0.000000000000000000e+00
1.486811904000000000e+09 2.400000000000000000e+02 0.000000000000000000e+00
1.486811906000000000e+09 2.400000000000000000e+02 0.000000000000000000e+00
1.486811908000000000e+09 2.400000000000000000e+02 0.000000000000000000e+00
1.486811910000000000e+09 2.400000000000000000e+02 0.000000000000000000e+00
1.486811912000000000e+09 2.400000000000000000e+02 0.000000000000000000e+00
1.486811914000000000e+09 2.400000000000000000e+02 0.000000000000000000e+00
1.486811916000000000e+09 2.400000000000000000e+02 0.000000000000000000e+00
1.486811918000000000e+09 2.400000000000000000e+02 0.000000000000000000e+00
1.486811920000000000e+09 2.400000000000000000e+02 0.000000000000000000e+00
1.486811922000000000e+09 2.400000000000000000e+02 0.000000000000000000e+00
1.486811924000000000e+09 2.400000000000000000e+02 0.000000000000000000e+00
1.486811926000000000e+09 2.400000000000000000e+02 0.000000000000000000e+00
1.486811928000000000e+09 2.400000000000000000e+02 0.000000000000000000e+00
1.486811930000000000e+09 2.400000000000000000e+02 0.000000000000000000e+00
1.486811932000000000e+09 2.400000000000000000e+02 0.000000000000000000e+00
1.486811934000000000e+09 2.400000000000000000e+02 0.000000000000000000e+00
1.486811936000000000e+09 2.400000000000000000e+02 0.000000000000000000e+00
1.486811938000000000e+09 2.400000000000000000e+02 0.000000000000000000e+00
1.486811940000000000e+09 2.400000000000000000e+02 0.000000000000000000e+00
1.486811942000000000e+09 2.400000000000000000e+02 0.000000000000000000e+00
1.486811944000000000e+09 2.400000000000000000e+02 0.000000000000000000e+00
1.486811946000000000e+09 2.400000000000000000e+02 0.000000000000000000e+00
1.486811948000000000e+09 2.400000000000000000e+02 0.000000000000000000e+00
1.486811950000000000e+09 2.400000000000000000e+02 0.000000000000000000e+00
1.486811952000000000e+09 2.400000000000000000e+02 0.000000000000000000e+00
1.486811954000000000e+09 2.400000000000000000e+02 0.000000000000000000e+00
1.486811956000000000e+09 2.400000000000000000e+02 0.000000000000000000e+00
1.486811958000000000e+09 2.400000000000000000e+02 0.000000000000000000e+00
1.486811960000000000e+09 2.400000000000000000e+02 0.000000000000000000e+00
1.486811962000000000e+09 2.400000000000000000e+02 0.000000000000000000e+00
1.486811964000000000e+09 2.400000000000000000e+02 0.000000000000000000e+00
1.486811966000000000e+09 2.400000000000000000e+02 0.000000000000000000e+00
1.486811968000000000e+09 2.400000000000000000e+02 0.000000000000000000e+00
1.486811970000000000e+09 2.400000000000000000e+02 0.000000000000000000e+00
1.486811972000000000e+09 2.400000000000000000e+02 0.000000000000000000e+00
1.486811974000000000e+09 2.400000000000000000e+02 0.000000000000000000e+00
1.486811976000000000e+09 2.400000000000000000e+02 0.000000000000000000e+00
1.486811978000000000e+09 2.400000000000000000e+02 0.000000000000000000e+00
1.486811980000000000e+09 2.400000000000000000e+02 0.000000000000000000e+00
1.486811982000000000e+09 2.400000000000000000e+02 0.000000000000000000e+00
1.486811984000000000e+09 2.400000000000000000e+02 0.000000000000000000e+00
1.486811986000000000e+09 2.400000000000000000e+02 0.000000000000000000e+00
1.486811988000000000e+09 2.400000000000000000e+02 0.000000000000000000e+00
1.486811990000000000e+09 2.400000000000000000e+02 0.000000000000000000e+00
1.486811992000000000e+09 2.400000000000000000e+02 0.000000000000000000e+00
1.486811994000000000e+09 2.400000000000000000e+02 0.000000000000000000e+00
1.486811996000000000e+09 2.400000000000000000e+02 0.000000000000000000e+00
1.486811998000000000e+09 2.400000000000000000e+02 0.000000000000000000e+00
1.486812000000000000e+09 2.400000000000000000e+02 0.000000000000000000e+00
1.486812002000000000e+09 2.400000000000000000e+02 0.000000000000000000e+00
1.486812004000000000e+09 2.400000000000000000e+02 0.000000000000000000e+00
1.486812006000000000e+09 2.400000000000000000e+02 0.000000000000000000e+00
1.486812008000000000e+09 2.400000000000000000e+02 0.000000000000000000e+00
1.486812010000000000e+09 2.400000000000000000e+02 0.000000000000000000e+00
1.486812012000000000e+09 2.400000000000000000e+02 0.000000000000000000e+00
1.486812014000000000e+09 2.400000000000000000e+02 0.000000000000000000e+00
1.486812016000000000e+09 2.400000000000000000e+02 0.000000000000000000e+00
1.486812018000000000e+09 2.400000000000000000e+02 0.000000000000000000e+00
1.486812020000000000e+09 2.400000000000000000e+02 0.000000000000000000e+00
