# tags                 xfel_bl_3_st_2_motor_1/position xfel_bl_3_st_2_pd_user_7_fitting_peak/voltage
1.490587390000000000e+09 -1.600000000000000000e+02 3.203369999999999829e-01
1.490587392000000000e+09 -1.600000000000000000e+02 3.421130000000000004e-01
1.490587394000000000e+09 -1.600000000000000000e+02 3.566869999999999763e-01
1.490587396000000000e+09 -1.600000000000000000e+02 3.197249999999999814e-01
1.490587398000000000e+09 -1.600000000000000000e+02 3.398550000000000182e-01
1.490587400000000000e+09 -1.600000000000000000e+02 3.553540000000000032e-01
1.490587402000000000e+09 -1.600000000000000000e+02 3.497480000000000033e-01
1.490587404000000000e+09 -1.600000000000000000e+02 3.522600000000000176e-01
1.490587406000000000e+09 -1.600000000000000000e+02 3.727010000000000045e-01
1.490587408000000000e+09 -1.600000000000000000e+02 4.027609999999999801e-01
1.490587410000000000e+09 -1.600000000000000000e+02 3.850999999999999979e-01
1.490587412000000000e+09 -1.600000000000000000e+02 3.550719999999999987e-01
1.490587414000000000e+09 -1.600000000000000000e+02 4.118140000000000134e-01
1.490587416000000000e+09 -1.600000000000000000e+02 3.853559999999999763e-01
1.490587418000000000e+09 -1.600000000000000000e+02 3.804429999999999756e-01
1.490587420000000000e+09 -1.600000000000000000e+02 3.519519999999999871e-01
1.490587422000000000e+09 -1.600000000000000000e+02 3.431629999999999958e-01
1.490587424000000000e+09 -1.600000000000000000e+02 3.445190000000000197e-01
1.490587426000000000e+09 -1.600000000000000000e+02 3.267349999999999977e-01
1.490587428000000000e+09 -1.600000000000000000e+02 3.286370000000000124e-01
1.490587430000000000e+09 -1.600000000000000000e+02 3.699689999999999923e-01
1.490587432000000000e+09 -1.600000000000000000e+02 3.406429999999999736e-01
1.490587434000000000e+09 -1.600000000000000000e+02 3.846749999999999892e-01
1.490587436000000000e+09 -1.600000000000000000e+02 3.154739999999999767e-01
1.490587438000000000e+09 -1.600000000000000000e+02 3.374960000000000182e-01
1.490587440000000000e+09 -1.600000000000000000e+02 3.697480000000000211e-01
1.490587442000000000e+09 -1.600000000000000000e+02 3.266629999999999812e-01
1.490587444000000000e+09 -1.600000000000000000e+02 3.273019999999999818e-01
1.490587446000000000e+09 -1.600000000000000000e+02 3.801399999999999779e-01
1.490587448000000000e+09 -1.600000000000000000e+02 3.502830000000000110e-01
1.490587450000000000e+09 -1.600000000000000000e+02 3.282610000000000250e-01
1.490587452000000000e+09 -1.600000000000000000e+02 3.422209999999999974e-01
1.490587454000000000e+09 -1.600000000000000000e+02 3.508490000000000220e-01
1.490587456000000000e+09 -1.600000000000000000e+02 3.425579999999999736e-01
1.490587458000000000e+09 -1.600000000000000000e+02 3.649069999999999814e-01
1.490587460000000000e+09 -1.600000000000000000e+02 3.250549999999999828e-01
1.490587462000000000e+09 -1.600000000000000000e+02 4.267340000000000022e-01
1.490587464000000000e+09 -1.600000000000000000e+02 4.140659999999999896e-01
1.490587466000000000e+09 -1.600000000000000000e+02 3.624919999999999809e-01
1.490587468000000000e+09 -1.600000000000000000e+02 4.195450000000000013e-01
1.490587470000000000e+09 -1.600000000000000000e+02 3.837940000000000240e-01
1.490587472000000000e+09 -1.600000000000000000e+02 3.331160000000000232e-01
1.490587474000000000e+09 -1.600000000000000000e+02 3.649879999999999791e-01
1.490587476000000000e+09 -1.600000000000000000e+02 3.114169999999999994e-01
1.490587478000000000e+09 -1.600000000000000000e+02 3.342289999999999983e-01
1.490587480000000000e+09 -1.600000000000000000e+02 3.437689999999999912e-01
1.490587482000000000e+09 -1.600000000000000000e+02 3.875609999999999888e-01
1.490587484000000000e+09 -1.600000000000000000e+02 3.769970000000000265e-01
1.490587486000000000e+09 -1.600000000000000000e+02 3.441239999999999855e-01
1.490587488000000000e+09 -1.600000000000000000e+02 3.607690000000000063e-01
1.490587490000000000e+09 -1.600000000000000000e+02 3.772889999999999855e-01
1.490587492000000000e+09 -1.600000000000000000e+02 3.816789999999999905e-01
1.490587494000000000e+09 -1.600000000000000000e+02 3.523299999999999765e-01
1.490587496000000000e+09 -1.600000000000000000e+02 3.575690000000000257e-01
1.490587498000000000e+09 -1.600000000000000000e+02 3.109600000000000142e-01
1.490587500000000000e+09 -1.600000000000000000e+02 3.628779999999999784e-01
1.490587502000000000e+09 -1.600000000000000000e+02 3.908389999999999920e-01
1.490587504000000000e+09 -1.600000000000000000e+02 3.054020000000000068e-01
1.490587506000000000e+09 -1.600000000000000000e+02 3.352849999999999997e-01
1.490587508000000000e+09 -1.600000000000000000e+02 3.597529999999999895e-01
1.490587510000000000e+09 -1.600000000000000000e+02 3.325239999999999863e-01
1.490587512000000000e+09 -1.600000000000000000e+02 3.192690000000000250e-01
1.490587514000000000e+09 -1.600000000000000000e+02 3.350360000000000005e-01
1.490587516000000000e+09 -1.600000000000000000e+02 3.138389999999999791e-01
1.490587518000000000e+09 -1.600000000000000000e+02 3.178349999999999786e-01
1.490587520000000000e+09 -1.600000000000000000e+02 3.124730000000000008e-01
1.490587522000000000e+09 -1.600000000000000000e+02 3.502870000000000150e-01
1.490587524000000000e+09 -1.600000000000000000e+02 3.099509999999999765e-01
1.490587526000000000e+09 -1.600000000000000000e+02 3.056329999999999880e-01
1.490587528000000000e+09 -1.600000000000000000e+02 2.990320000000000200e-01
1.490587530000000000e+09 -1.600000000000000000e+02 3.610999999999999766e-01
1.490587532000000000e+09 -1.600000000000000000e+02 3.553720000000000212e-01
1.490587534000000000e+09 -1.600000000000000000e+02 3.277680000000000038e-01
1.490587536000000000e+09 -1.600000000000000000e+02 3.387399999999999856e-01
1.490587538000000000e+09 -1.600000000000000000e+02 3.909909999999999775e-01
1.490587540000000000e+09 -1.600000000000000000e+02 3.652309999999999723e-01
1.490587542000000000e+09 -1.600000000000000000e+02 3.712110000000000132e-01
1.490587544000000000e+09 -1.600000000000000000e+02 3.638649999999999940e-01
1.490587546000000000e+09 -1.600000000000000000e+02 3.431339999999999946e-01
1.490587548000000000e+09 -1.600000000000000000e+02 3.805009999999999781e-01
1.490587550000000000e+09 -1.600000000000000000e+02 3.751709999999999767e-01
1.490587552000000000e+09 -1.600000000000000000e+02 3.755080000000000084e-01
1.490587554000000000e+09 -1.600000000000000000e+02 3.510829999999999784e-01
1.490587556000000000e+09 -1.600000000000000000e+02 3.849350000000000271e-01
1.490587558000000000e+09 -1.600000000000000000e+02 3.564050000000000273e-01
1.490587560000000000e+09 -1.600000000000000000e+02 3.409170000000000256e-01
1.490587562000000000e+09 -1.600000000000000000e+02 3.585849999999999871e-01
1.490587564000000000e+09 -1.600000000000000000e+02 3.666059999999999874e-01
1.490587566000000000e+09 -1.600000000000000000e+02 3.462990000000000235e-01
1.490587568000000000e+09 -1.600000000000000000e+02 3.249230000000000174e-01
1.490587570000000000e+09 -1.600000000000000000e+02 3.235529999999999795e-01
1.490587572000000000e+09 -1.600000000000000000e+02 3.479700000000000015e-01
1.490587574000000000e+09 -1.600000000000000000e+02 2.984740000000000171e-01
1.490587576000000000e+09 -1.600000000000000000e+02 3.124140000000000250e-01
1.490587578000000000e+09 -1.600000000000000000e+02 3.495340000000000114e-01
1.490587580000000000e+09 -1.600000000000000000e+02 3.346759999999999735e-01
1.490587582000000000e+09 -1.600000000000000000e+02 2.950789999999999802e-01
1.490587584000000000e+09 -1.600000000000000000e+02 3.268670000000000186e-01
1.490587586000000000e+09 -1.600000000000000000e+02 3.256720000000000170e-01
1.490587588000000000e+09 -1.600000000000000000e+02 3.344199999999999950e-01
1.490587590000000000e+09 -1.600000000000000000e+02 3.420569999999999999e-01
1.490587592000000000e+09 -1.600000000000000000e+02 3.303360000000000185e-01
1.490587594000000000e+09 -1.600000000000000000e+02 3.423030000000000239e-01
1.490587596000000000e+09 -1.600000000000000000e+02 3.223389999999999866e-01
1.490587598000000000e+09 -1.600000000000000000e+02 3.409909999999999886e-01
1.490587600000000000e+09 -1.600000000000000000e+02 3.205810000000000048e-01
1.490587602000000000e+09 -1.600000000000000000e+02 3.291950000000000154e-01
1.490587604000000000e+09 -1.600000000000000000e+02 3.139859999999999873e-01
1.490587606000000000e+09 -1.600000000000000000e+02 3.774890000000000190e-01
1.490587608000000000e+09 -1.600000000000000000e+02 3.615099999999999980e-01
1.490587610000000000e+09 -1.600000000000000000e+02 3.642810000000000215e-01
1.490587612000000000e+09 -1.600000000000000000e+02 3.886959999999999860e-01
1.490587614000000000e+09 -1.600000000000000000e+02 3.336930000000000174e-01
1.490587616000000000e+09 -1.600000000000000000e+02 3.462839999999999807e-01
1.490587618000000000e+09 -1.600000000000000000e+02 3.778920000000000057e-01
1.490587620000000000e+09 -1.600000000000000000e+02 4.064969999999999972e-01
1.490587622000000000e+09 -1.600000000000000000e+02 3.390969999999999818e-01
1.490587624000000000e+09 -1.600000000000000000e+02 3.521230000000000193e-01
1.490587626000000000e+09 -1.600000000000000000e+02 3.528720000000000190e-01
1.490587628000000000e+09 -1.600000000000000000e+02 3.653429999999999733e-01
1.490587630000000000e+09 -1.600000000000000000e+02 4.025440000000000129e-01
1.490587632000000000e+09 -1.600000000000000000e+02 3.649830000000000019e-01
1.490587634000000000e+09 -1.600000000000000000e+02 3.923960000000000226e-01
1.490587636000000000e+09 -1.600000000000000000e+02 2.954439999999999844e-01
1.490587638000000000e+09 -1.600000000000000000e+02 2.961949999999999861e-01
1.490587640000000000e+09 -1.600000000000000000e+02 3.396339999999999915e-01
1.490587642000000000e+09 -1.600000000000000000e+02 3.815359999999999863e-01
1.490587644000000000e+09 -1.600000000000000000e+02 3.442239999999999744e-01
1.490587646000000000e+09 -1.600000000000000000e+02 3.292640000000000011e-01
1.490587648000000000e+09 -1.600000000000000000e+02 3.303679999999999950e-01
1.490587650000000000e+09 -1.600000000000000000e+02 3.649620000000000086e-01
1.490587652000000000e+09 -1.600000000000000000e+02 3.451790000000000136e-01
1.490587654000000000e+09 -1.600000000000000000e+02 3.129170000000000007e-01
1.490587656000000000e+09 -1.600000000000000000e+02 3.208599999999999786e-01
1.490587658000000000e+09 -1.600000000000000000e+02 3.045089999999999741e-01
1.490587660000000000e+09 -1.600000000000000000e+02 3.088279999999999914e-01
1.490587662000000000e+09 -1.600000000000000000e+02 3.050169999999999826e-01
1.490587664000000000e+09 -1.600000000000000000e+02 3.346210000000000018e-01
1.490587666000000000e+09 -1.600000000000000000e+02 3.411199999999999788e-01
1.490587668000000000e+09 -1.600000000000000000e+02 3.258550000000000058e-01
1.490587670000000000e+09 -1.600000000000000000e+02 3.478899999999999770e-01
1.490587672000000000e+09 -1.600000000000000000e+02 3.412810000000000010e-01
1.490587674000000000e+09 -1.600000000000000000e+02 3.456839999999999913e-01
1.490587676000000000e+09 -1.600000000000000000e+02 3.451279999999999903e-01
1.490587678000000000e+09 -1.600000000000000000e+02 3.649479999999999946e-01
1.490587680000000000e+09 -1.600000000000000000e+02 3.473470000000000169e-01
1.490587682000000000e+09 -1.600000000000000000e+02 3.275350000000000206e-01
1.490587684000000000e+09 -1.600000000000000000e+02 4.168080000000000118e-01
1.490587686000000000e+09 -1.600000000000000000e+02 3.636139999999999928e-01
1.490587688000000000e+09 -1.600000000000000000e+02 4.098550000000000249e-01
1.490587690000000000e+09 -1.600000000000000000e+02 3.476319999999999966e-01
1.490587692000000000e+09 -1.600000000000000000e+02 3.912720000000000087e-01
1.490587694000000000e+09 -1.600000000000000000e+02 4.375689999999999857e-01
1.490587696000000000e+09 -1.600000000000000000e+02 4.127000000000000113e-01
1.490587698000000000e+09 -1.600000000000000000e+02 4.307199999999999918e-01
1.490587700000000000e+09 -1.600000000000000000e+02 4.088870000000000005e-01
1.490587702000000000e+09 -1.600000000000000000e+02 4.188819999999999766e-01
1.490587704000000000e+09 -1.600000000000000000e+02 3.911359999999999837e-01
1.490587706000000000e+09 -1.600000000000000000e+02 4.227940000000000031e-01
1.490587708000000000e+09 -1.600000000000000000e+02 3.603870000000000129e-01
1.490587710000000000e+09 -1.600000000000000000e+02 3.956779999999999742e-01
1.490587712000000000e+09 -1.600000000000000000e+02 4.488030000000000075e-01
1.490587714000000000e+09 -1.600000000000000000e+02 3.758480000000000154e-01
1.490587716000000000e+09 -1.600000000000000000e+02 3.983780000000000099e-01
1.490587718000000000e+09 -1.600000000000000000e+02 3.738389999999999769e-01
1.490587720000000000e+09 -1.600000000000000000e+02 3.947109999999999785e-01
1.490587722000000000e+09 -1.600000000000000000e+02 3.562199999999999811e-01
1.490587724000000000e+09 -1.600000000000000000e+02 3.437910000000000132e-01
1.490587726000000000e+09 -1.600000000000000000e+02 3.510300000000000087e-01
1.490587728000000000e+09 -1.600000000000000000e+02 3.862400000000000277e-01
1.490587730000000000e+09 -1.600000000000000000e+02 3.592750000000000110e-01
1.490587732000000000e+09 -1.600000000000000000e+02 3.629780000000000229e-01
1.490587734000000000e+09 -1.600000000000000000e+02 4.306809999999999805e-01
1.490587736000000000e+09 -1.600000000000000000e+02 3.822019999999999862e-01
1.490587738000000000e+09 -1.600000000000000000e+02 3.949369999999999825e-01
1.490587740000000000e+09 -1.600000000000000000e+02 3.871820000000000261e-01
1.490587742000000000e+09 -1.600000000000000000e+02 3.776180000000000092e-01
1.490587744000000000e+09 -1.600000000000000000e+02 3.488339999999999774e-01
1.490587746000000000e+09 -1.600000000000000000e+02 4.003280000000000172e-01
1.490587748000000000e+09 -1.600000000000000000e+02 3.668710000000000027e-01
1.490587750000000000e+09 -1.600000000000000000e+02 3.924909999999999788e-01
1.490587752000000000e+09 -1.600000000000000000e+02 4.002580000000000027e-01
1.490587754000000000e+09 -1.600000000000000000e+02 3.680680000000000063e-01
1.490587756000000000e+09 -1.600000000000000000e+02 3.624419999999999864e-01
1.490587758000000000e+09 -1.600000000000000000e+02 3.966169999999999973e-01
1.490587760000000000e+09 -1.600000000000000000e+02 3.794330000000000203e-01
1.490587762000000000e+09 -1.600000000000000000e+02 3.289569999999999994e-01
1.490587764000000000e+09 -1.600000000000000000e+02 3.491509999999999891e-01
1.490587766000000000e+09 -1.600000000000000000e+02 4.162629999999999941e-01
1.490587768000000000e+09 -1.600000000000000000e+02 3.792200000000000015e-01
1.490587770000000000e+09 -1.600000000000000000e+02 3.730020000000000002e-01
1.490587772000000000e+09 -1.600000000000000000e+02 3.463740000000000152e-01
1.490587774000000000e+09 -1.600000000000000000e+02 3.651900000000000146e-01
1.490587776000000000e+09 -1.600000000000000000e+02 3.221060000000000034e-01
1.490587778000000000e+09 -1.600000000000000000e+02 3.435039999999999760e-01
1.490587780000000000e+09 -1.600000000000000000e+02 3.426939999999999986e-01
1.490587782000000000e+09 -1.600000000000000000e+02 3.478559999999999985e-01
1.490587784000000000e+09 -1.600000000000000000e+02 3.538789999999999991e-01
1.490587786000000000e+09 -1.600000000000000000e+02 3.182030000000000136e-01
1.490587788000000000e+09 -1.600000000000000000e+02 4.117629999999999901e-01
1.490587790000000000e+09 -1.600000000000000000e+02 3.364969999999999906e-01
1.490587792000000000e+09 -1.600000000000000000e+02 3.339119999999999866e-01
1.490587794000000000e+09 -1.600000000000000000e+02 3.365819999999999923e-01
1.490587796000000000e+09 -1.600000000000000000e+02 3.699520000000000031e-01
1.490587798000000000e+09 -1.600000000000000000e+02 3.715499999999999914e-01
1.490587800000000000e+09 -1.600000000000000000e+02 3.814509999999999845e-01
1.490587802000000000e+09 -1.600000000000000000e+02 3.525519999999999765e-01
1.490587804000000000e+09 -1.600000000000000000e+02 3.337319999999999731e-01
1.490587806000000000e+09 -1.600000000000000000e+02 3.583230000000000026e-01
1.490587808000000000e+09 -1.600000000000000000e+02 3.445880000000000054e-01
1.490587810000000000e+09 -1.600000000000000000e+02 2.958120000000000194e-01
1.490587812000000000e+09 -1.600000000000000000e+02 3.149640000000000217e-01
1.490587814000000000e+09 -1.600000000000000000e+02 2.881250000000000200e-01
1.490587816000000000e+09 -1.600000000000000000e+02 2.713189999999999769e-01
1.490587818000000000e+09 -1.600000000000000000e+02 2.935240000000000071e-01
1.490587820000000000e+09 -1.600000000000000000e+02 2.890260000000000051e-01
1.490587822000000000e+09 -1.600000000000000000e+02 3.003270000000000106e-01
1.490587824000000000e+09 -1.600000000000000000e+02 3.178889999999999771e-01
1.490587826000000000e+09 -1.600000000000000000e+02 2.805560000000000276e-01
1.490587828000000000e+09 -1.600000000000000000e+02 3.128040000000000265e-01
1.490587830000000000e+09 -1.600000000000000000e+02 3.867499999999999827e-01
1.490587832000000000e+09 -1.600000000000000000e+02 3.205680000000000196e-01
1.490587834000000000e+09 -1.600000000000000000e+02 3.319960000000000133e-01
1.490587836000000000e+09 -1.600000000000000000e+02 3.485240000000000005e-01
1.490587838000000000e+09 -1.600000000000000000e+02 3.231660000000000088e-01
1.490587840000000000e+09 -1.600000000000000000e+02 3.261499999999999955e-01
1.490587842000000000e+09 -1.600000000000000000e+02 3.794029999999999903e-01
1.490587844000000000e+09 -1.600000000000000000e+02 3.603140000000000231e-01
1.490587846000000000e+09 -1.600000000000000000e+02 3.820419999999999927e-01
1.490587848000000000e+09 -1.600000000000000000e+02 3.224409999999999776e-01
1.490587850000000000e+09 -1.600000000000000000e+02 3.933200000000000029e-01
1.490587852000000000e+09 -1.600000000000000000e+02 3.660780000000000145e-01
1.490587854000000000e+09 -1.600000000000000000e+02 3.715180000000000149e-01
1.490587856000000000e+09 -1.600000000000000000e+02 3.422319999999999807e-01
1.490587858000000000e+09 -1.600000000000000000e+02 3.498649999999999816e-01
1.490587860000000000e+09 -1.600000000000000000e+02 3.344150000000000178e-01
1.490587862000000000e+09 -1.600000000000000000e+02 3.110720000000000152e-01
1.490587864000000000e+09 -1.600000000000000000e+02 3.233170000000000210e-01
1.490587866000000000e+09 -1.600000000000000000e+02 3.356450000000000267e-01
1.490587868000000000e+09 -1.600000000000000000e+02 3.107309999999999794e-01
1.490587870000000000e+09 -1.600000000000000000e+02 2.929840000000000222e-01
1.490587872000000000e+09 -1.600000000000000000e+02 3.194949999999999735e-01
1.490587874000000000e+09 -1.600000000000000000e+02 3.275529999999999831e-01
1.490587876000000000e+09 -1.600000000000000000e+02 3.120049999999999768e-01
1.490587878000000000e+09 -1.600000000000000000e+02 3.585229999999999806e-01
1.490587880000000000e+09 -1.600000000000000000e+02 3.511610000000000009e-01
1.490587882000000000e+09 -1.600000000000000000e+02 3.536690000000000111e-01
1.490587884000000000e+09 -1.600000000000000000e+02 3.721240000000000103e-01
1.490587886000000000e+09 -1.600000000000000000e+02 3.526880000000000015e-01
1.490587888000000000e+09 -1.600000000000000000e+02 3.596750000000000225e-01
1.490587890000000000e+09 -1.600000000000000000e+02 3.206049999999999733e-01
1.490587892000000000e+09 -1.600000000000000000e+02 3.205910000000000148e-01
1.490587894000000000e+09 -1.600000000000000000e+02 3.281020000000000048e-01
1.490587896000000000e+09 -1.600000000000000000e+02 3.299219999999999930e-01
1.490587898000000000e+09 -1.600000000000000000e+02 3.835500000000000020e-01
1.490587900000000000e+09 -1.600000000000000000e+02 3.475739999999999941e-01
1.490587902000000000e+09 -1.600000000000000000e+02 3.448860000000000259e-01
1.490587904000000000e+09 -1.600000000000000000e+02 3.114669999999999939e-01
1.490587906000000000e+09 -1.600000000000000000e+02 3.417020000000000057e-01
1.490587908000000000e+09 -1.600000000000000000e+02 3.675260000000000193e-01
1.490587910000000000e+09 -1.600000000000000000e+02 4.067350000000000132e-01
1.490587912000000000e+09 -1.600000000000000000e+02 3.790569999999999773e-01
1.490587914000000000e+09 -1.600000000000000000e+02 3.691189999999999749e-01
1.490587916000000000e+09 -1.600000000000000000e+02 3.414559999999999818e-01
1.490587918000000000e+09 -1.600000000000000000e+02 3.382180000000000186e-01
1.490587920000000000e+09 -1.600000000000000000e+02 3.633029999999999871e-01
1.490587922000000000e+09 -1.600000000000000000e+02 3.403100000000000014e-01
1.490587924000000000e+09 -1.600000000000000000e+02 3.496340000000000003e-01
1.490587926000000000e+09 -1.600000000000000000e+02 3.655829999999999913e-01
1.490587928000000000e+09 -1.600000000000000000e+02 3.636260000000000048e-01
1.490587930000000000e+09 -1.600000000000000000e+02 3.275629999999999931e-01
1.490587932000000000e+09 -1.600000000000000000e+02 3.767289999999999806e-01
1.490587934000000000e+09 -1.600000000000000000e+02 3.493330000000000046e-01
1.490587936000000000e+09 -1.600000000000000000e+02 3.825839999999999796e-01
1.490587938000000000e+09 -1.600000000000000000e+02 4.237819999999999920e-01
1.490587940000000000e+09 -1.600000000000000000e+02 4.162580000000000169e-01
1.490587942000000000e+09 -1.600000000000000000e+02 3.840480000000000005e-01
1.490587944000000000e+09 -1.600000000000000000e+02 3.598169999999999980e-01
1.490587946000000000e+09 -1.600000000000000000e+02 3.713199999999999834e-01
1.490587948000000000e+09 -1.600000000000000000e+02 4.686540000000000150e-01
1.490587950000000000e+09 -1.600000000000000000e+02 3.621759999999999979e-01
1.490587952000000000e+09 -1.600000000000000000e+02 3.519820000000000171e-01
1.490587954000000000e+09 -1.600000000000000000e+02 4.156569999999999987e-01
1.490587956000000000e+09 -1.600000000000000000e+02 3.913249999999999784e-01
1.490587958000000000e+09 -1.600000000000000000e+02 3.178810000000000247e-01
1.490587960000000000e+09 -1.600000000000000000e+02 3.797670000000000212e-01
1.490587962000000000e+09 -1.600000000000000000e+02 3.458129999999999815e-01
1.490587964000000000e+09 -1.600000000000000000e+02 3.217960000000000265e-01
1.490587966000000000e+09 -1.600000000000000000e+02 3.524680000000000035e-01
1.490587968000000000e+09 -1.600000000000000000e+02 3.889610000000000012e-01
1.490587970000000000e+09 -1.600000000000000000e+02 3.703370000000000273e-01
1.490587972000000000e+09 -1.600000000000000000e+02 3.823449999999999904e-01
1.490587974000000000e+09 -1.600000000000000000e+02 3.195870000000000100e-01
1.490587976000000000e+09 -1.600000000000000000e+02 3.584669999999999801e-01
1.490587978000000000e+09 -1.600000000000000000e+02 3.813230000000000230e-01
1.490587980000000000e+09 -1.600000000000000000e+02 3.314250000000000251e-01
1.490587982000000000e+09 -1.600000000000000000e+02 3.576949999999999852e-01
1.490587984000000000e+09 -1.600000000000000000e+02 3.687920000000000087e-01
1.490587986000000000e+09 -1.600000000000000000e+02 3.665370000000000017e-01
1.490587988000000000e+09 -1.600000000000000000e+02 3.555699999999999972e-01
